﻿Date,Open,High,Low,Close,Volume
20-Jun-17,49.22,49.36,48.01,48.03,6035053
19-Jun-17,49.13,49.72,48.82,49.66,4104267
16-Jun-17,48.90,49.45,48.62,48.79,6622111
15-Jun-17,49.14,49.32,48.37,49.11,4579626
14-Jun-17,49.64,49.78,48.89,49.39,4027798
13-Jun-17,49.56,49.91,48.84,49.45,5153327
12-Jun-17,50.10,50.22,48.10,49.48,8597891
9-Jun-17,51.61,51.95,50.25,50.27,7204319
8-Jun-17,50.86,51.87,50.41,51.43,6544348
7-Jun-17,49.44,50.91,48.80,50.86,7078405
6-Jun-17,49.47,50.10,49.32,49.74,4473456
5-Jun-17,49.53,49.95,49.40,49.74,5466685
2-Jun-17,49.56,50.47,49.37,49.52,7708567
1-Jun-17,48.50,49.36,48.30,49.05,4421404
31-May-17,48.20,48.48,47.53,48.41,4486131
30-May-17,48.32,48.58,47.79,47.96,5512854
26-May-17,47.79,48.82,47.73,48.74,5979329
25-May-17,46.99,48.12,46.82,48.02,5441804
24-May-17,46.74,47.43,46.65,46.77,3890095
23-May-17,46.27,46.69,45.94,46.66,3008501
22-May-17,45.33,46.25,45.33,46.21,4428568
19-May-17,44.80,45.38,44.74,45.22,6736688
18-May-17,44.40,45.40,44.38,44.65,6626694
17-May-17,46.25,46.56,44.88,44.92,6906735
16-May-17,46.79,47.13,44.74,46.94,4627800
15-May-17,45.70,46.99,45.69,46.68,5534522
12-May-17,46.26,46.44,45.73,45.83,3888691
11-May-17,47.21,47.24,45.65,46.54,6086339
10-May-17,47.03,47.78,46.67,47.30,7379826
9-May-17,45.40,47.30,45.25,47.08,11116806
8-May-17,44.60,45.04,44.52,44.94,6190660
5-May-17,44.00,44.52,43.77,44.51,5462793
4-May-17,44.18,44.39,43.20,43.91,4476053
3-May-17,43.67,44.17,43.42,43.92,5144318
2-May-17,42.06,43.91,42.05,43.87,9402465
1-May-17,42.76,42.96,42.01,42.08,8591384
28-Apr-17,44.02,44.06,42.56,42.62,13357971
27-Apr-17,43.91,44.21,42.41,43.98,18988577
26-Apr-17,46.51,46.90,46.24,46.40,6027630
25-Apr-17,46.80,47.39,46.38,46.61,5960573
24-Apr-17,45.50,46.44,45.47,46.44,6335303
21-Apr-17,45.50,45.50,44.98,45.15,5535986
20-Apr-17,44.71,45.38,44.56,45.22,4956478
19-Apr-17,44.07,44.78,43.90,44.40,6573440
18-Apr-17,44.03,44.53,43.40,43.81,5809175
17-Apr-17,43.47,44.25,43.36,44.23,4563213
13-Apr-17,43.95,44.02,43.34,43.35,5504930
12-Apr-17,44.79,45.35,43.83,43.96,9991117
11-Apr-17,42.78,43.95,42.41,43.93,10269604
10-Apr-17,41.81,42.67,41.62,42.32,4650522
7-Apr-17,41.53,42.10,41.28,41.81,4136988
6-Apr-17,41.40,41.96,41.16,41.72,3627608
5-Apr-17,41.15,42.13,41.06,41.31,7012673
4-Apr-17,42.09,42.23,40.82,40.90,7254678
3-Apr-17,42.33,42.57,41.62,42.45,5764716
31-Mar-17,42.37,42.94,42.27,42.30,5427748
30-Mar-17,41.85,42.64,41.79,42.54,3681356
29-Mar-17,42.69,42.76,41.87,41.96,5331362
28-Mar-17,41.83,42.93,41.55,42.60,6185811
27-Mar-17,41.07,41.89,40.56,41.74,6050846
24-Mar-17,41.69,42.06,41.42,41.73,6596629
23-Mar-17,40.70,41.86,40.48,41.41,9516585
22-Mar-17,39.78,40.55,39.21,40.35,9943032
21-Mar-17,41.88,41.98,40.34,40.42,7938673
20-Mar-17,42.18,42.42,41.45,41.70,6229799
17-Mar-17,42.00,42.21,41.60,41.72,10185798
16-Mar-17,42.18,42.35,41.45,42.13,7058267
15-Mar-17,40.50,42.19,40.21,42.09,13986198
14-Mar-17,42.06,42.10,40.84,41.21,10208460
13-Mar-17,43.73,44.12,42.26,42.37,8882287
10-Mar-17,43.46,43.95,42.97,43.90,6842316
9-Mar-17,44.50,44.93,43.25,43.33,9330139
8-Mar-17,44.79,45.30,44.60,44.89,5521109
7-Mar-17,45.02,45.23,44.56,44.84,4565315
6-Mar-17,46.41,46.68,44.38,45.31,11336565
3-Mar-17,45.85,47.26,45.77,46.82,7259147
2-Mar-17,46.67,46.74,45.64,45.72,7590676
1-Mar-17,46.79,48.14,46.70,47.09,8278935
28-Feb-17,46.32,46.72,46.03,46.36,4935590
27-Feb-17,46.18,46.36,45.68,46.32,4130975
24-Feb-17,46.00,46.30,45.58,46.28,4489590
23-Feb-17,46.42,47.32,45.89,46.10,5246985
22-Feb-17,46.50,46.70,45.87,46.32,5799646
21-Feb-17,47.01,47.27,46.58,46.81,4672031
17-Feb-17,46.83,47.10,46.43,46.91,4581604
16-Feb-17,47.50,47.65,46.66,46.97,5681810
15-Feb-17,47.59,48.05,46.93,47.54,8394814
14-Feb-17,47.26,47.28,46.45,46.57,6271654
13-Feb-17,46.56,47.78,46.50,47.41,6158580
10-Feb-17,46.62,46.70,46.17,46.45,4040567
9-Feb-17,45.07,46.60,44.94,46.30,7089902
8-Feb-17,45.26,45.26,44.51,45.06,4330414
7-Feb-17,45.75,46.13,45.01,45.17,6119960
6-Feb-17,44.80,45.60,44.74,45.30,6496054
3-Feb-17,44.31,44.55,43.76,44.20,6357916
2-Feb-17,43.61,44.52,43.57,44.01,7607665
1-Feb-17,44.75,45.00,43.91,44.05,7955513
31-Jan-17,44.79,44.84,43.74,44.25,11719842
30-Jan-17,45.62,45.92,43.86,44.90,16786050
27-Jan-17,50.00,50.00,46.72,46.95,19411050
26-Jan-17,48.43,49.71,48.33,49.59,10332849
25-Jan-17,47.90,48.21,47.61,47.91,5139002
24-Jan-17,47.05,47.80,46.80,47.54,4926677
23-Jan-17,47.90,48.09,46.75,46.94,4284196
20-Jan-17,47.54,48.16,47.24,48.00,5611793
19-Jan-17,47.64,48.09,46.88,47.26,3729315
18-Jan-17,47.40,47.80,46.65,47.64,5176524
17-Jan-17,47.56,47.75,46.67,46.75,5350794
13-Jan-17,48.16,48.43,47.54,47.65,3541980
12-Jan-17,48.67,49.00,46.84,48.10,5448098
11-Jan-17,49.29,49.90,48.10,48.64,6925770
10-Jan-17,47.00,48.51,46.97,48.48,7483764
9-Jan-17,46.01,47.34,45.78,47.08,4739142
6-Jan-17,45.85,46.72,45.47,46.21,7260197
5-Jan-17,46.52,46.93,45.61,45.89,6825316
4-Jan-17,46.63,47.44,46.35,46.70,5859604
3-Jan-17,47.28,47.34,46.14,46.30,6737752
30-Dec-16,47.42,47.66,46.47,46.69,4495016
29-Dec-16,47.80,48.00,46.96,47.25,3709262
28-Dec-16,48.73,48.83,47.61,47.67,4153630
27-Dec-16,48.29,48.92,48.14,48.61,2797847
23-Dec-16,48.61,48.84,48.28,48.48,2915271
22-Dec-16,49.35,49.45,48.46,48.69,3618731
21-Dec-16,49.34,49.90,49.23,49.47,3827868
20-Dec-16,48.50,49.50,48.50,49.22,4814999
19-Dec-16,47.89,48.60,47.74,48.58,4729855
16-Dec-16,48.61,49.07,47.56,47.63,9299673
15-Dec-16,48.10,49.95,48.10,48.30,7530837
14-Dec-16,47.84,48.75,47.80,47.92,5293889
13-Dec-16,47.94,48.49,47.71,47.84,6147695
12-Dec-16,49.16,49.34,47.44,47.59,8643546
9-Dec-16,49.27,50.64,48.74,49.64,9850774
8-Dec-16,48.60,48.60,47.70,48.05,6239952
7-Dec-16,46.61,48.94,46.52,48.65,10210334
6-Dec-16,46.16,46.55,45.92,46.43,5334516
5-Dec-16,46.45,46.54,45.58,45.72,5256443
2-Dec-16,46.09,46.86,45.91,46.10,6505099
1-Dec-16,46.20,47.09,45.66,45.75,7435186
30-Nov-16,46.14,46.86,45.42,46.44,7904220
29-Nov-16,46.59,47.14,46.17,46.89,4885442
28-Nov-16,46.64,46.88,45.66,46.50,7369639
25-Nov-16,46.34,46.86,46.30,46.82,2426632
23-Nov-16,46.05,46.39,45.70,46.34,5160176
22-Nov-16,46.03,46.95,45.95,46.08,5781259
21-Nov-16,46.46,46.75,45.95,46.08,6651810
18-Nov-16,46.15,46.49,45.62,46.26,7795053
17-Nov-16,44.39,45.85,44.05,45.83,8521172
16-Nov-16,44.66,44.80,43.93,44.45,6166966
15-Nov-16,45.00,45.28,43.59,44.76,13166625
14-Nov-16,43.01,43.61,42.98,43.40,7773627
11-Nov-16,42.07,42.95,41.68,42.93,6623490
10-Nov-16,42.71,43.39,42.15,42.30,8666121
9-Nov-16,40.76,42.75,40.44,42.41,8392383
8-Nov-16,41.42,41.85,41.02,41.70,5725832
7-Nov-16,40.39,41.65,40.31,41.49,8334221
4-Nov-16,39.27,40.22,39.24,39.74,6717513
3-Nov-16,39.78,40.24,39.30,39.38,6006541
2-Nov-16,39.72,40.25,39.62,39.71,5274455
1-Nov-16,40.51,40.85,39.56,39.80,9028663
31-Oct-16,40.31,40.81,40.08,40.60,5961076
28-Oct-16,39.85,40.57,39.80,40.06,6710739
27-Oct-16,39.45,40.18,39.26,39.91,6542122
26-Oct-16,38.57,40.26,38.21,39.32,10112314
25-Oct-16,39.66,40.43,39.36,39.69,6020181
24-Oct-16,40.25,40.55,39.77,39.83,6466282
21-Oct-16,39.97,40.24,39.65,39.90,9981485
20-Oct-16,40.93,40.93,39.41,40.59,14695860
19-Oct-16,39.48,40.81,39.40,40.63,12764197
18-Oct-16,38.84,39.89,38.84,39.35,10538152
17-Oct-16,38.66,39.73,38.37,38.58,5602040
14-Oct-16,39.45,39.92,38.58,38.65,8871203
13-Oct-16,36.95,39.50,36.80,39.24,14773296
12-Oct-16,38.12,38.38,37.36,37.38,7410000
11-Oct-16,39.99,39.99,38.06,38.20,10034719
10-Oct-16,37.95,38.95,37.47,38.89,6939866
7-Oct-16,38.25,38.48,37.40,37.73,5133308
6-Oct-16,37.83,38.22,37.57,38.17,5160788
5-Oct-16,37.82,38.12,37.31,37.87,4713128
4-Oct-16,38.39,38.78,37.55,37.63,9065626
3-Oct-16,36.46,37.75,36.33,37.70,8878923
30-Sep-16,35.98,36.99,35.86,36.61,7429336
29-Sep-16,35.65,36.60,35.60,35.82,6183332
28-Sep-16,36.10,36.86,35.78,35.84,6291604
27-Sep-16,34.98,36.12,34.90,36.00,5068871
26-Sep-16,35.19,35.55,34.86,34.93,7353514
23-Sep-16,35.30,35.67,34.96,35.55,4603182
22-Sep-16,34.96,36.03,34.85,35.25,7438727
21-Sep-16,35.00,35.15,33.90,34.67,10408214
20-Sep-16,35.75,35.86,35.13,35.15,6666508
19-Sep-16,35.66,36.11,35.35,35.44,5422349
16-Sep-16,36.26,36.36,35.47,35.49,10724815
15-Sep-16,36.31,36.63,35.85,36.41,7805325
14-Sep-16,37.00,37.20,36.25,36.39,8092808
13-Sep-16,38.12,38.31,37.22,37.37,9330297
12-Sep-16,37.22,38.38,36.62,38.34,11959828
9-Sep-16,39.00,39.34,38.17,38.49,8623597
8-Sep-16,38.68,39.41,38.43,39.35,7101532
7-Sep-16,37.50,39.52,37.42,38.75,13774999
6-Sep-16,36.45,36.97,36.36,36.96,5501735
2-Sep-16,36.00,36.70,36.00,36.53,5429115
1-Sep-16,36.53,36.71,35.88,36.24,6940639
31-Aug-16,36.97,36.98,35.63,36.30,13111735
30-Aug-16,35.45,37.36,35.35,37.05,14509340
29-Aug-16,36.13,36.41,36.05,36.17,4760672
26-Aug-16,36.68,36.84,36.02,36.23,6257687
25-Aug-16,36.34,36.94,36.32,36.72,5446011
24-Aug-16,36.27,36.99,36.19,36.65,5946506
23-Aug-16,36.32,36.65,36.18,36.40,5402244
22-Aug-16,36.33,36.48,35.86,36.00,5189371
19-Aug-16,36.44,36.74,36.10,36.49,6675287
18-Aug-16,36.43,36.70,36.05,36.67,5293057
17-Aug-16,36.68,36.75,36.19,36.60,8002043
16-Aug-16,35.67,36.79,35.63,36.75,9384959
15-Aug-16,34.96,36.05,34.90,35.87,7137204
12-Aug-16,34.74,35.17,34.66,34.92,6064005
11-Aug-16,34.25,35.08,34.24,34.96,7666723
10-Aug-16,34.59,34.75,33.74,34.18,5878383
9-Aug-16,35.21,35.50,34.54,34.59,7307238
8-Aug-16,34.22,34.88,34.12,34.35,7142394
5-Aug-16,33.71,34.72,33.68,34.44,16437181
4-Aug-16,33.57,33.77,33.00,33.58,6384697
3-Aug-16,33.47,33.96,33.17,33.48,8254209
2-Aug-16,35.39,35.40,33.38,33.51,12100443
1-Aug-16,35.54,35.75,35.10,35.60,7058968
29-Jul-16,36.26,36.74,35.50,35.50,9138561
28-Jul-16,36.07,36.53,35.75,36.34,6519640
27-Jul-16,36.50,36.60,35.90,36.20,6671186
26-Jul-16,35.91,36.68,35.65,36.55,8871189
25-Jul-16,36.35,36.40,35.52,35.80,9526661
22-Jul-16,36.45,36.56,35.60,36.36,14704699
21-Jul-16,35.10,35.56,34.44,34.96,16429851
20-Jul-16,36.07,36.72,35.39,35.92,13098351
19-Jul-16,35.78,36.08,35.33,36.01,7956271
18-Jul-16,36.03,36.34,35.76,36.03,8606791
15-Jul-16,35.51,36.06,35.32,35.89,9817118
14-Jul-16,35.11,36.19,35.00,35.88,16884414
13-Jul-16,35.00,35.29,34.12,34.45,15215087
12-Jul-16,32.78,34.89,32.75,34.66,25515686
11-Jul-16,30.23,31.44,30.22,31.16,12374382
8-Jul-16,29.80,30.28,29.70,30.04,13659253
7-Jul-16,28.39,29.47,28.31,29.40,11779807
6-Jul-16,27.76,28.40,27.12,28.35,18757538
5-Jul-16,29.09,29.16,28.19,28.93,9467046
1-Jul-16,28.26,29.52,28.20,29.33,13249962
30-Jun-16,27.86,28.31,27.49,28.31,11148266
29-Jun-16,26.94,28.06,26.94,27.70,15008769
28-Jun-16,26.12,26.88,25.76,26.77,20026097
27-Jun-16,26.85,26.85,24.85,25.27,23200027
24-Jun-16,28.20,28.50,27.04,27.05,36049898
23-Jun-16,30.25,30.49,29.77,30.33,9139949
22-Jun-16,30.05,30.33,29.82,29.89,6675906
21-Jun-16,30.29,30.39,29.69,30.02,8922946
20-Jun-16,29.75,30.39,29.64,29.71,8359297
17-Jun-16,29.10,29.55,28.85,29.34,15301910
16-Jun-16,29.80,29.80,29.02,29.14,18236714
15-Jun-16,30.65,31.10,30.45,30.49,8152256
14-Jun-16,31.81,31.97,30.02,30.36,13802855
13-Jun-16,32.99,32.99,31.64,31.80,9225556
10-Jun-16,32.80,33.48,32.64,33.14,8252308
9-Jun-16,32.25,33.58,32.25,33.40,8188322
8-Jun-16,32.63,32.97,32.22,32.51,8173130
7-Jun-16,31.46,32.87,31.10,32.36,12424206
6-Jun-16,30.77,31.30,30.38,31.26,8335439
3-Jun-16,31.59,31.60,30.37,30.81,12424133
2-Jun-16,31.67,32.07,31.58,31.67,6813295
1-Jun-16,31.94,32.26,31.73,31.95,6416243
31-May-16,31.75,31.97,31.33,31.91,9618738
27-May-16,31.60,31.84,31.41,31.65,8569734
26-May-16,32.13,32.34,31.37,31.51,7157754
25-May-16,32.39,32.90,32.10,32.17,7401795
24-May-16,31.89,32.28,31.85,32.15,6951804
23-May-16,32.03,32.29,31.70,31.73,6488571
20-May-16,32.30,32.81,31.95,32.01,7276460
19-May-16,32.28,32.59,31.69,32.15,8867110
18-May-16,32.61,33.36,32.34,32.61,9123710
17-May-16,32.25,33.29,32.02,32.64,13296430
16-May-16,31.81,32.30,30.99,32.12,12368120
13-May-16,31.09,32.01,31.08,31.51,10118053
12-May-16,33.01,33.02,31.29,31.33,14207122
11-May-16,33.68,34.04,32.85,32.86,8100683
10-May-16,33.24,33.80,33.09,33.77,8118225
9-May-16,33.03,33.80,32.94,32.94,9307625
6-May-16,32.67,33.15,32.19,33.03,12743786
5-May-16,33.28,33.52,32.73,32.80,11580220
4-May-16,34.17,34.30,33.00,33.21,13402446
3-May-16,34.76,34.77,33.85,34.58,10656453
2-May-16,34.99,35.16,34.40,34.43,8796652
29-Apr-16,35.81,35.83,34.10,34.69,17786428
28-Apr-16,37.04,37.09,35.89,35.97,9796389
27-Apr-16,36.79,37.29,36.52,36.71,12290550
26-Apr-16,37.27,37.49,36.26,36.92,14682620
25-Apr-16,38.16,38.40,36.92,37.00,12654529
22-Apr-16,37.68,38.49,37.01,38.21,20921654
21-Apr-16,40.80,40.93,39.80,40.01,10721343
20-Apr-16,41.36,41.71,41.11,41.26,4975786
19-Apr-16,40.99,41.76,40.97,41.34,6650171
18-Apr-16,41.18,41.26,40.44,40.92,5234232
15-Apr-16,41.30,41.36,40.72,40.91,6974188
14-Apr-16,40.34,41.66,40.25,41.17,10124590
13-Apr-16,39.30,40.01,38.89,39.94,12493522
12-Apr-16,38.82,39.43,38.76,39.19,5889724
11-Apr-16,38.79,39.55,38.67,38.73,7927393
8-Apr-16,38.70,38.72,38.12,38.50,6085258
7-Apr-16,38.66,39.05,37.91,38.36,8114136
6-Apr-16,39.07,39.07,38.34,38.90,5645542
5-Apr-16,39.13,39.38,38.74,38.93,7638159
4-Apr-16,39.81,40.24,39.15,39.37,7825269
1-Apr-16,40.13,40.16,39.27,39.52,11242993
31-Mar-16,41.50,41.68,40.98,41.01,8135584
30-Mar-16,41.75,42.07,41.36,41.38,6074939
29-Mar-16,40.90,41.43,40.77,41.35,6782736
28-Mar-16,41.00,41.34,40.33,40.91,6400099
24-Mar-16,41.88,41.95,40.19,40.50,12492247
23-Mar-16,42.80,42.86,41.58,41.92,9565329
22-Mar-16,42.00,43.02,41.84,42.76,6717924
21-Mar-16,43.32,43.78,43.28,43.47,4754631
18-Mar-16,42.31,43.53,41.75,43.44,13723732
17-Mar-16,42.31,42.31,41.82,42.10,5959563
16-Mar-16,41.81,42.43,41.59,42.31,4774355
15-Mar-16,42.30,42.49,41.98,42.11,4445364
14-Mar-16,42.31,42.70,42.12,42.59,4557207
11-Mar-16,41.89,42.50,41.70,42.47,5685454
10-Mar-16,42.11,42.11,40.91,41.63,5812269
9-Mar-16,40.74,41.72,40.52,41.65,8546313
8-Mar-16,41.30,41.41,40.05,40.77,8393093
7-Mar-16,41.31,42.23,40.90,42.13,6959685
4-Mar-16,42.17,42.17,41.42,41.63,9463722
3-Mar-16,41.52,42.24,41.23,41.88,8803544
2-Mar-16,41.47,41.80,41.29,41.59,7911893
1-Mar-16,41.44,42.02,41.06,41.83,7883867
29-Feb-16,40.77,41.34,40.50,41.00,5773403
26-Feb-16,41.50,41.60,40.38,40.87,7226607
25-Feb-16,40.76,41.38,40.41,41.36,6915242
24-Feb-16,40.02,40.83,39.39,40.66,6102663
23-Feb-16,40.56,40.81,40.17,40.38,6413673
22-Feb-16,40.14,40.93,40.07,40.84,9958037
19-Feb-16,39.16,40.07,39.04,39.76,11048850
18-Feb-16,39.36,39.68,38.96,39.54,9559390
17-Feb-16,38.95,39.83,38.87,39.34,8397169
16-Feb-16,38.13,38.77,37.53,38.61,7106834
12-Feb-16,36.92,37.98,36.42,37.82,9393071
11-Feb-16,36.47,37.22,36.17,36.49,8071231
10-Feb-16,36.57,37.64,36.53,37.12,8106453
9-Feb-16,34.93,36.75,34.91,36.19,11012993
8-Feb-16,36.08,36.16,34.76,35.55,12583343
5-Feb-16,37.71,38.49,36.53,36.75,10017226
4-Feb-16,37.34,38.60,36.70,38.21,8585899
3-Feb-16,37.38,37.61,35.76,37.51,12390492
2-Feb-16,38.83,38.97,37.00,37.03,12376302
1-Feb-16,39.00,39.94,38.63,39.38,11997301
29-Jan-16,37.52,39.08,36.60,38.99,20940793
28-Jan-16,39.61,39.79,37.66,38.14,17054487
27-Jan-16,40.15,40.87,39.48,39.69,10155340
26-Jan-16,38.73,39.75,38.44,39.64,8095662
25-Jan-16,40.02,40.16,38.82,38.88,10086293
22-Jan-16,40.00,40.72,39.57,40.16,7237450
21-Jan-16,38.93,40.00,38.02,39.79,9766460
20-Jan-16,38.53,39.84,36.20,39.06,16084238
19-Jan-16,39.59,39.78,38.21,38.86,10448841
15-Jan-16,39.04,39.89,38.37,38.76,18888262
14-Jan-16,40.21,40.78,38.86,40.55,11714874
13-Jan-16,42.17,42.74,39.66,40.10,12602615
12-Jan-16,41.15,42.36,40.48,42.00,12635992
11-Jan-16,40.56,41.20,39.90,41.08,15877511
8-Jan-16,40.94,41.36,40.26,40.37,8853096
7-Jan-16,40.97,41.52,39.68,40.45,11312876
6-Jan-16,40.05,41.70,40.00,41.23,12393780
5-Jan-16,41.18,41.49,39.95,40.52,10514164
4-Jan-16,41.29,41.35,40.30,40.91,12002531
31-Dec-15,42.54,42.57,41.83,42.35,6813757
30-Dec-15,43.64,43.64,42.46,42.80,5463608
29-Dec-15,43.25,43.62,43.03,43.50,4006937
28-Dec-15,43.62,44.04,42.91,43.23,4148045
24-Dec-15,43.27,44.19,43.11,43.81,3307108
23-Dec-15,42.78,43.38,42.43,43.29,6093603
22-Dec-15,42.56,43.08,42.36,42.90,5704730
21-Dec-15,41.35,42.43,41.35,42.40,6597508
18-Dec-15,41.61,42.31,40.70,41.09,17809958
17-Dec-15,43.33,43.95,42.45,42.46,7224974
16-Dec-15,42.99,43.49,42.12,43.20,7850944
15-Dec-15,41.97,42.82,41.92,42.60,7097307
14-Dec-15,42.26,42.87,41.08,41.77,10750523
11-Dec-15,43.28,43.59,42.06,42.09,10235210
10-Dec-15,43.79,44.48,43.54,44.09,7955619
9-Dec-15,44.30,45.19,43.19,43.65,8001019
8-Dec-15,45.10,45.51,44.07,44.55,9043652
7-Dec-15,45.35,46.49,45.22,45.78,8911719
4-Dec-15,43.82,44.99,43.82,44.97,9460935
3-Dec-15,43.65,44.60,42.92,43.27,7235252
2-Dec-15,44.09,44.53,43.53,43.82,8002146
1-Dec-15,41.47,43.30,41.30,43.26,8899943
30-Nov-15,41.75,41.99,40.98,41.26,6412824
27-Nov-15,41.38,42.25,41.17,41.69,3066773
25-Nov-15,41.35,41.50,40.96,41.31,4276646
24-Nov-15,41.02,41.64,40.45,41.23,7575974
23-Nov-15,42.11,42.74,41.81,42.30,4160488
20-Nov-15,42.40,42.71,42.05,42.20,5498275
19-Nov-15,41.94,42.73,41.89,42.30,6535238
18-Nov-15,42.32,42.32,41.01,41.75,11042858
17-Nov-15,43.00,43.46,42.05,42.30,9549346
16-Nov-15,42.41,42.84,41.85,42.83,10139756
13-Nov-15,43.67,44.23,43.12,43.45,7378412
12-Nov-15,44.29,44.52,43.82,43.90,5929788
11-Nov-15,44.76,44.95,44.37,44.39,4413019
10-Nov-15,44.66,45.16,44.02,44.49,5922396
9-Nov-15,45.17,45.21,44.56,44.65,7212100
6-Nov-15,45.51,45.97,45.05,45.34,11538567
5-Nov-15,45.70,45.83,45.03,45.60,5864737
4-Nov-15,46.42,46.45,45.15,45.63,8050559
3-Nov-15,47.02,47.09,46.08,46.50,6845960
2-Nov-15,46.20,46.82,46.20,46.47,6068054
30-Oct-15,45.77,46.77,45.71,46.22,8575148
29-Oct-15,45.63,46.10,45.21,45.86,5178814
28-Oct-15,46.20,46.36,45.23,45.86,7621704
27-Oct-15,46.41,46.69,45.65,46.46,6809463
26-Oct-15,45.36,46.57,44.99,46.47,10907778
23-Oct-15,46.37,46.42,43.81,45.67,19982353
22-Oct-15,45.53,46.01,44.36,45.99,14363392
21-Oct-15,44.49,45.18,44.09,44.31,6935743
20-Oct-15,44.54,45.18,44.45,44.79,7582365
19-Oct-15,43.83,44.49,43.62,44.45,8929203
16-Oct-15,43.95,44.02,42.86,43.71,11161892
15-Oct-15,44.10,44.48,43.50,44.46,8179462
14-Oct-15,44.00,44.50,43.23,43.80,11121536
13-Oct-15,42.70,43.97,42.52,43.41,13212586
12-Oct-15,42.59,43.88,42.55,43.84,11437239
9-Oct-15,40.27,42.49,40.25,42.42,16797045
8-Oct-15,39.21,40.03,38.70,39.74,8303197
7-Oct-15,38.41,39.41,37.76,39.31,10492904
6-Oct-15,39.95,40.37,38.08,38.13,12985825
5-Oct-15,38.90,40.30,38.82,40.19,9397268
2-Oct-15,38.75,38.77,37.42,38.63,12264635
1-Oct-15,38.50,39.27,37.84,39.20,9134902
30-Sep-15,39.18,39.68,37.72,38.83,15646791
29-Sep-15,39.05,39.77,38.79,39.18,7475740
28-Sep-15,39.87,40.18,38.64,39.08,9608784
25-Sep-15,40.93,41.03,39.92,40.24,7502440
24-Sep-15,41.15,41.15,39.92,40.25,10488233
23-Sep-15,41.32,41.50,40.50,41.24,8245124
22-Sep-15,42.77,43.08,40.92,41.19,12456819
21-Sep-15,43.72,44.00,42.88,43.23,6673460
18-Sep-15,43.43,44.03,43.28,43.49,12386937
17-Sep-15,43.11,44.59,42.99,43.99,12789062
16-Sep-15,42.40,43.25,42.24,43.06,7680845
15-Sep-15,42.36,42.85,41.89,42.64,7008275
14-Sep-15,42.17,42.50,41.84,42.29,7355631
11-Sep-15,41.22,42.15,41.05,42.15,8615880
10-Sep-15,41.39,41.88,40.71,41.21,9171528
9-Sep-15,41.15,42.18,40.63,41.00,12462933
8-Sep-15,41.28,41.58,40.69,40.80,10763501
4-Sep-15,40.40,41.32,40.15,40.60,9697287
3-Sep-15,41.84,41.91,40.78,40.89,9870539
2-Sep-15,39.97,41.51,39.80,41.51,19262854
1-Sep-15,38.63,39.81,38.50,39.20,15980224
31-Aug-15,38.63,39.76,38.62,38.98,12389373
28-Aug-15,38.93,39.58,38.35,38.62,11817661
27-Aug-15,39.17,39.45,37.97,39.03,13709265
26-Aug-15,38.77,39.01,36.97,38.85,15631416
25-Aug-15,39.39,39.49,37.49,37.50,12743201
24-Aug-15,36.00,39.90,34.10,37.62,19550977
21-Aug-15,41.40,41.60,39.75,39.75,16169566
20-Aug-15,42.84,43.52,41.78,41.98,8849966
19-Aug-15,43.53,44.27,43.21,43.53,8373959
18-Aug-15,44.06,44.45,43.24,43.63,6317183
17-Aug-15,42.96,44.02,42.82,43.95,8385397
14-Aug-15,42.35,43.17,42.35,42.88,4857867
13-Aug-15,42.76,43.28,42.27,42.67,6605820
12-Aug-15,42.37,42.68,40.68,42.52,10434817
11-Aug-15,41.74,43.42,41.65,42.70,10378553
10-Aug-15,41.75,42.43,41.45,41.68,6860606
7-Aug-15,42.21,42.48,41.40,41.49,5588631
6-Aug-15,43.25,43.45,41.76,42.18,7395473
5-Aug-15,42.85,43.30,42.59,42.96,7581022
4-Aug-15,42.15,42.77,41.88,42.74,13354267
3-Aug-15,40.24,41.85,40.21,41.71,9261863
31-Jul-15,40.53,40.54,39.88,40.10,6955874
30-Jul-15,40.58,40.93,39.92,40.27,5855845
29-Jul-15,41.09,41.33,40.44,40.73,6801435
28-Jul-15,40.18,41.38,40.18,41.17,8186041
27-Jul-15,39.63,40.81,38.90,40.14,12071366
24-Jul-15,43.00,43.11,39.62,39.63,20152599
23-Jul-15,42.78,43.81,42.00,42.61,16579876
22-Jul-15,40.96,41.61,40.96,41.43,8302897
21-Jul-15,40.50,41.30,40.49,40.90,7300014
20-Jul-15,41.55,41.71,40.44,40.55,7645875
17-Jul-15,41.45,41.84,41.24,41.40,9735964
16-Jul-15,41.81,42.22,41.30,41.39,12111338
15-Jul-15,41.39,42.22,40.39,41.54,17922765
14-Jul-15,42.04,42.46,41.29,42.06,12701464
13-Jul-15,41.96,42.72,41.96,42.42,12076978
10-Jul-15,40.51,41.64,40.50,41.21,16451679
9-Jul-15,39.84,40.28,39.66,39.67,8490876
8-Jul-15,40.30,40.31,39.14,39.31,11193029
7-Jul-15,39.93,40.74,39.26,40.68,10375901
6-Jul-15,39.09,40.00,39.08,39.73,9157738
2-Jul-15,39.02,39.80,38.40,39.03,11080020
1-Jul-15,40.65,40.90,37.80,38.80,24907070
30-Jun-15,40.20,40.60,39.93,39.94,11184512
29-Jun-15,40.77,41.32,39.59,39.75,17651705
26-Jun-15,42.44,42.58,41.33,41.44,9819882
25-Jun-15,42.65,43.42,42.20,42.24,8174154
24-Jun-15,42.70,42.92,42.07,42.24,6895903
23-Jun-15,42.98,43.42,42.35,42.72,10701960
22-Jun-15,42.92,43.25,42.24,43.03,15120162
19-Jun-15,40.30,41.89,40.30,41.56,20198313
18-Jun-15,39.80,40.22,39.61,39.98,10647022
17-Jun-15,39.27,40.09,38.91,39.88,9567438
16-Jun-15,40.13,40.32,39.32,39.48,9212092
15-Jun-15,40.35,41.00,40.01,40.07,8830268
12-Jun-15,39.84,41.00,39.76,40.70,10333824
11-Jun-15,40.79,41.26,39.94,40.02,10116732
10-Jun-15,40.21,41.21,39.70,40.43,15731942
9-Jun-15,38.80,40.72,38.45,40.32,27024764
8-Jun-15,41.07,41.24,39.27,39.86,25757794
5-Jun-15,42.13,42.58,41.71,41.72,9951149
4-Jun-15,43.05,43.98,41.88,42.17,14128026
3-Jun-15,43.35,43.91,43.01,43.13,13272584
2-Jun-15,43.30,44.10,43.04,43.78,14832921
1-Jun-15,42.61,44.38,42.09,44.18,21917072
29-May-15,41.68,42.60,41.32,42.37,13236123
28-May-15,42.25,42.50,41.77,41.97,9238835
27-May-15,41.65,42.45,41.60,42.24,13017827
26-May-15,43.05,43.09,41.36,41.56,17481066
22-May-15,42.70,42.93,42.02,42.61,16113065
21-May-15,43.19,43.39,42.40,42.47,23895773
20-May-15,47.56,47.56,42.97,43.06,51460347
19-May-15,49.45,49.68,47.70,47.85,14984942
18-May-15,48.56,49.17,48.38,49.00,6152250
15-May-15,49.41,49.45,48.56,48.66,6650381
14-May-15,48.94,49.09,48.50,48.82,7980104
13-May-15,49.27,49.85,48.40,48.49,8553119
12-May-15,49.11,49.40,48.63,48.85,6820544
11-May-15,49.00,50.30,48.80,49.64,8036689
8-May-15,49.23,49.83,48.93,49.04,6478195
7-May-15,47.40,49.62,47.40,49.06,11427992
6-May-15,46.78,47.64,46.15,47.04,10116405
5-May-15,48.21,48.71,46.90,47.00,11384951
4-May-15,49.41,50.08,48.80,48.95,5589831
1-May-15,48.65,49.83,48.51,49.39,8084568
30-Apr-15,48.50,49.46,48.01,48.28,9400367
29-Apr-15,50.58,50.80,47.66,48.88,18050280
28-Apr-15,51.70,51.82,50.01,51.19,9235688
27-Apr-15,52.68,52.68,51.70,51.87,9843392
24-Apr-15,51.98,53.47,51.49,52.70,20248074
23-Apr-15,51.07,51.72,50.70,51.45,9821775
22-Apr-15,51.40,51.54,50.40,51.40,7333255
21-Apr-15,50.00,51.42,49.46,51.36,10850327
20-Apr-15,48.61,49.78,47.91,49.76,9523520
17-Apr-15,47.96,48.65,47.95,48.19,8659765
16-Apr-15,47.81,48.91,47.75,48.24,7155874
15-Apr-15,48.00,48.72,47.67,47.75,9846675
14-Apr-15,47.49,47.78,46.88,47.42,9878409
13-Apr-15,47.47,48.59,47.47,47.79,9350279
10-Apr-15,48.16,48.79,47.72,47.73,11713378
9-Apr-15,48.86,49.48,47.72,47.84,11576174
8-Apr-15,47.80,49.09,47.73,48.74,11180048
7-Apr-15,48.30,48.80,47.49,47.50,9393200
6-Apr-15,48.35,48.69,47.67,48.08,13323351
2-Apr-15,50.48,50.85,49.15,49.18,14109775
1-Apr-15,51.10,51.38,50.11,50.44,15191509
31-Mar-15,53.66,53.73,52.68,52.78,8386414
30-Mar-15,53.24,53.84,53.05,53.64,8167282
27-Mar-15,51.38,52.85,51.38,52.66,9003971
26-Mar-15,50.84,51.68,50.25,51.26,14242731
25-Mar-15,53.62,53.78,51.93,52.01,14237851
24-Mar-15,54.04,54.41,53.66,53.93,11940800
23-Mar-15,55.47,55.93,54.37,54.40,19042013
20-Mar-15,55.19,56.05,54.86,55.76,137767165
19-Mar-15,54.57,55.24,54.45,55.19,18897709
18-Mar-15,53.69,54.60,53.34,54.13,21324978
17-Mar-15,52.63,54.18,52.50,53.69,41837891
16-Mar-15,49.77,50.45,49.45,50.22,10897774
13-Mar-15,48.75,49.49,48.28,49.22,9187991
12-Mar-15,47.57,48.72,47.56,48.68,7133511
11-Mar-15,46.90,47.89,46.58,47.39,6630302
10-Mar-15,47.50,47.58,46.47,46.74,9337145
9-Mar-15,48.05,48.58,47.58,47.92,7460205
6-Mar-15,48.33,48.94,47.90,48.00,7002303
5-Mar-15,49.19,49.20,47.78,48.40,7041012
4-Mar-15,48.85,48.96,47.98,48.95,6711005
3-Mar-15,47.90,49.03,47.75,48.77,9051248
2-Mar-15,48.20,48.57,47.85,48.31,11482901
27-Feb-15,49.00,49.40,47.85,47.90,9396398
26-Feb-15,50.38,50.38,49.02,49.35,7577294
25-Feb-15,51.30,51.49,49.46,49.73,9577025
24-Feb-15,50.29,51.56,49.36,51.52,13916738
23-Feb-15,51.75,52.20,50.95,51.31,9508679
20-Feb-15,49.81,51.12,49.13,51.02,10537876
19-Feb-15,50.78,50.80,49.59,49.78,11462822
18-Feb-15,48.60,49.45,48.18,49.31,8752743
17-Feb-15,48.77,49.45,47.86,48.01,7260535
13-Feb-15,47.53,48.40,46.65,48.39,9895724
12-Feb-15,46.75,48.50,46.40,47.88,9542801
11-Feb-15,48.79,48.95,47.35,47.59,10060185
10-Feb-15,47.40,48.38,46.90,48.05,9085330
9-Feb-15,46.41,47.24,45.95,46.53,12961897
6-Feb-15,48.84,49.47,47.89,48.14,8650092
5-Feb-15,49.46,49.46,47.60,48.81,9220865
4-Feb-15,48.62,49.79,48.23,49.46,11836762
3-Feb-15,47.30,48.16,46.55,47.50,16678900
2-Feb-15,48.58,48.93,46.21,48.72,22413054
30-Jan-15,52.02,52.13,48.63,49.08,18473105
29-Jan-15,51.04,52.42,50.57,52.24,16618856
28-Jan-15,52.79,53.70,50.30,50.62,17064794
27-Jan-15,53.99,54.52,52.54,52.70,19810717
26-Jan-15,55.89,56.20,54.73,55.45,13353937
23-Jan-15,55.40,55.98,54.80,55.69,9488822
22-Jan-15,54.52,55.82,53.91,55.59,16201053
21-Jan-15,52.65,54.00,51.95,53.67,12882227
20-Jan-15,51.00,52.83,49.93,52.75,15157342
16-Jan-15,49.38,49.97,48.27,49.81,12978011
15-Jan-15,49.14,50.40,48.58,49.41,10399684
14-Jan-15,49.41,50.23,48.10,49.41,15684697
13-Jan-15,50.12,51.43,49.46,50.40,12259271
12-Jan-15,51.06,51.45,49.20,49.58,18261336
9-Jan-15,53.67,53.91,51.82,52.02,12351638
8-Jan-15,53.48,54.28,53.25,53.66,9672064
7-Jan-15,53.38,53.65,52.12,53.01,10069816
6-Jan-15,54.27,54.43,52.13,53.04,13772171
5-Jan-15,54.37,54.54,53.34,53.88,11565004
2-Jan-15,54.28,54.60,53.07,53.91,10756705
31-Dec-14,53.90,54.64,53.32,53.63,11063024
30-Dec-14,53.00,53.70,52.83,53.42,8063140
29-Dec-14,51.65,53.24,51.30,52.85,8791483
26-Dec-14,51.46,52.25,51.06,51.96,6841763
24-Dec-14,50.66,51.69,50.35,51.43,5961395
23-Dec-14,50.95,51.14,49.84,50.21,7169796
22-Dec-14,51.10,51.88,50.72,50.84,8872374
19-Dec-14,49.67,50.94,49.10,50.71,26787715
18-Dec-14,48.56,50.93,47.50,50.14,16945321
17-Dec-14,48.26,49.49,46.05,48.80,24779800
16-Dec-14,51.01,51.15,47.68,47.96,22053666
15-Dec-14,50.21,51.32,49.32,50.84,15368535
12-Dec-14,51.68,51.70,49.90,49.97,15364034
11-Dec-14,49.80,51.50,49.65,50.53,15100887
10-Dec-14,49.80,50.40,48.25,48.94,18499976
9-Dec-14,49.10,49.20,47.39,48.31,20575397
8-Dec-14,50.44,51.32,50.15,50.82,16167321
5-Dec-14,50.09,51.75,50.01,51.01,15588179
4-Dec-14,49.60,50.27,49.32,49.65,15233774
3-Dec-14,47.74,48.47,46.92,48.24,8917697
2-Dec-14,48.12,48.70,47.15,47.86,11853928
1-Dec-14,49.00,49.47,47.36,47.88,15151440
28-Nov-14,47.00,49.45,47.00,48.53,21638709
26-Nov-14,44.31,45.75,44.00,44.97,12798776
25-Nov-14,43.18,44.44,43.10,44.15,11563828
24-Nov-14,43.72,43.96,42.78,43.21,9576570
21-Nov-14,44.38,44.49,43.25,43.31,10866472
20-Nov-14,43.65,44.72,43.20,44.16,9431411
19-Nov-14,44.83,45.40,44.04,44.10,11291063
18-Nov-14,43.76,45.46,43.76,45.05,14219440
17-Nov-14,43.97,44.58,43.63,43.69,8691679
14-Nov-14,44.00,44.54,43.66,44.01,8746243
13-Nov-14,43.54,44.46,43.49,44.12,11134963
12-Nov-14,43.25,43.63,42.84,43.43,7705263
11-Nov-14,44.00,44.47,43.32,43.44,11053611
10-Nov-14,42.50,43.94,41.68,43.83,13171001
7-Nov-14,43.14,43.49,42.63,43.20,9022642
6-Nov-14,42.59,44.13,42.59,43.14,14477213
5-Nov-14,43.32,43.35,42.09,42.25,11528847
4-Nov-14,42.83,43.70,42.50,42.70,17421198
3-Nov-14,41.44,42.10,41.43,42.00,8446445
31-Oct-14,41.10,41.75,40.80,41.35,13012634
30-Oct-14,39.91,40.69,39.62,40.30,10566622
29-Oct-14,40.07,40.40,39.24,39.94,15784094
28-Oct-14,40.11,40.76,39.75,40.24,12193479
27-Oct-14,39.60,40.40,39.29,39.91,13355207
24-Oct-14,38.60,39.95,38.58,39.82,17834118
23-Oct-14,37.43,40.18,36.80,38.48,33292004
22-Oct-14,38.05,38.22,36.94,37.04,18958406
21-Oct-14,36.14,37.88,36.02,37.85,26347743
20-Oct-14,34.19,35.39,34.00,35.22,13532715
17-Oct-14,33.88,34.34,32.81,33.38,16009738
16-Oct-14,30.63,33.40,30.00,32.97,24987103
15-Oct-14,30.22,32.62,29.49,31.69,39941285
14-Oct-14,29.29,32.18,29.28,31.51,28145226
13-Oct-14,31.07,31.39,28.10,28.58,34532913
10-Oct-14,31.55,32.25,29.78,30.78,31018666
9-Oct-14,33.50,33.70,31.94,31.98,22639564
8-Oct-14,34.53,34.55,32.60,33.00,22753612
7-Oct-14,34.75,35.02,34.06,34.09,10032531
6-Oct-14,36.31,36.50,34.86,34.93,12794164
3-Oct-14,34.66,36.32,34.61,36.23,15081075
2-Oct-14,34.47,35.38,33.51,33.93,21482153
1-Oct-14,34.72,34.94,33.85,34.39,19453289
30-Sep-14,35.05,35.85,34.34,35.48,10657887
29-Sep-14,35.35,35.75,34.94,35.03,7492228
26-Sep-14,35.25,36.12,35.02,35.93,8515487
25-Sep-14,35.88,35.98,34.86,35.21,10934832
24-Sep-14,35.47,36.34,35.18,36.12,8491863
23-Sep-14,35.04,35.77,34.64,35.33,12149378
22-Sep-14,37.00,37.00,35.44,35.58,10968997
19-Sep-14,38.06,38.25,36.63,36.63,17592703
18-Sep-14,37.70,38.11,37.60,38.05,4556264
17-Sep-14,37.92,38.24,37.04,37.46,6684347
16-Sep-14,37.00,38.01,36.81,37.98,6724333
15-Sep-14,37.60,37.80,36.84,37.07,7954304
12-Sep-14,38.09,38.51,37.63,37.65,8233283
11-Sep-14,38.73,39.04,37.93,38.09,10067719
10-Sep-14,37.93,38.87,37.91,38.58,8111323
9-Sep-14,37.63,38.68,37.38,37.96,9102068
8-Sep-14,37.96,38.40,37.96,38.23,7348230
5-Sep-14,38.51,38.71,37.71,37.85,12070387
4-Sep-14,39.37,39.98,38.36,38.47,12007001
3-Sep-14,39.73,39.90,38.67,39.14,9997418
2-Sep-14,39.00,40.54,38.89,40.50,10934400
29-Aug-14,39.10,39.35,38.36,38.88,6648785
28-Aug-14,38.71,39.40,38.70,39.17,3888975
27-Aug-14,39.36,39.40,38.68,38.99,6457332
26-Aug-14,39.55,39.75,39.07,39.09,5733286
25-Aug-14,40.23,40.28,39.40,39.42,7075596
22-Aug-14,39.60,40.21,39.55,39.85,5773533
21-Aug-14,40.75,40.85,39.44,39.51,8155816
20-Aug-14,40.40,40.80,40.03,40.60,6506835
19-Aug-14,40.96,41.00,40.26,40.43,5819609
18-Aug-14,39.60,40.90,39.60,40.66,10902850
15-Aug-14,39.98,40.08,38.79,39.19,9812047
14-Aug-14,38.50,39.61,38.46,39.57,10132481
13-Aug-14,37.64,38.46,37.44,38.12,6177027
12-Aug-14,38.14,38.14,37.27,37.52,6224836
11-Aug-14,37.79,38.37,37.35,37.97,9015766
8-Aug-14,36.56,37.38,35.23,37.18,20757527
7-Aug-14,37.70,38.41,36.50,36.86,9886761
6-Aug-14,36.56,38.00,36.14,37.46,9501866
5-Aug-14,37.89,38.45,36.74,37.18,10422964
4-Aug-14,39.49,39.85,37.63,38.14,11092629
1-Aug-14,38.75,39.53,38.43,39.43,8978315
31-Jul-14,38.90,39.40,38.05,38.85,13536481
30-Jul-14,39.90,40.26,39.30,39.55,10759693
29-Jul-14,40.65,40.85,39.39,39.53,10719068
28-Jul-14,41.87,41.95,39.81,40.29,15941271
25-Jul-14,42.25,42.68,41.34,41.68,10991606
24-Jul-14,42.50,43.95,41.70,42.16,18018077
23-Jul-14,42.72,43.66,42.65,43.33,10166698
22-Jul-14,42.70,42.89,42.15,42.38,6458469
21-Jul-14,42.91,42.95,42.25,42.48,5684272
18-Jul-14,42.23,43.22,42.15,42.92,8870098
17-Jul-14,43.04,43.44,41.65,41.70,13919677
16-Jul-14,44.00,44.00,43.30,43.48,6371440
15-Jul-14,43.33,43.73,42.78,43.70,8360710
14-Jul-14,43.26,43.59,42.73,42.98,7215369
11-Jul-14,42.91,43.23,42.52,42.88,8135498
10-Jul-14,41.00,42.98,40.77,42.82,11829169
9-Jul-14,42.08,42.35,40.50,41.98,20468311
8-Jul-14,39.14,40.33,37.90,40.26,26401824
7-Jul-14,41.72,41.72,39.92,40.10,14227133
3-Jul-14,42.61,42.94,41.40,41.62,8257974
2-Jul-14,42.89,42.95,41.42,41.95,19747272
1-Jul-14,43.44,43.90,43.05,43.86,9165112
30-Jun-14,44.04,44.08,42.83,42.96,10456585
27-Jun-14,44.30,44.75,43.91,44.00,41471585
26-Jun-14,43.96,44.60,43.50,44.55,11175082
25-Jun-14,42.90,44.00,42.30,43.91,10944639
24-Jun-14,44.14,44.61,42.76,43.18,13252583
23-Jun-14,44.30,44.88,43.80,44.36,18457895
20-Jun-14,43.04,44.55,43.03,44.55,40644263
19-Jun-14,42.82,43.49,42.66,43.06,14117100
18-Jun-14,41.93,42.82,41.57,42.66,11250953
17-Jun-14,41.08,42.19,40.76,41.87,12527641
16-Jun-14,39.68,41.29,39.67,41.06,13634011
13-Jun-14,40.25,40.92,39.55,40.38,13594153
12-Jun-14,41.27,41.41,38.86,40.20,37320111
11-Jun-14,42.90,43.29,42.03,42.29,13185059
10-Jun-14,43.50,43.86,42.93,43.66,8384472
9-Jun-14,44.00,44.43,43.07,43.59,11689566
6-Jun-14,42.45,43.92,42.42,43.88,13616388
5-Jun-14,43.00,43.49,42.27,42.41,8543065
4-Jun-14,41.36,42.90,41.20,42.82,11934666
3-Jun-14,41.13,42.09,41.11,41.44,9460202
2-Jun-14,40.00,41.25,40.00,41.22,9906030
30-May-14,39.83,40.18,39.68,40.16,13888723
29-May-14,39.89,40.27,39.36,39.82,9668210
28-May-14,39.40,40.33,39.19,39.80,11133508
27-May-14,39.38,39.93,39.23,39.35,9586877
23-May-14,38.53,39.50,38.53,39.11,9865965
22-May-14,38.30,38.88,38.30,38.72,6414652
21-May-14,38.28,38.85,38.05,38.32,6565390
20-May-14,38.54,38.88,38.02,38.24,6285855
19-May-14,38.49,39.16,38.10,38.57,7165081
16-May-14,38.01,38.68,37.76,38.52,7062948
15-May-14,38.55,38.73,37.48,38.19,10677177
14-May-14,39.08,39.24,38.56,38.84,7993886
13-May-14,38.95,39.74,38.85,39.31,8680113
12-May-14,38.35,39.49,38.35,39.39,12440659
9-May-14,37.96,38.70,37.91,38.26,9704405
8-May-14,37.25,38.25,37.05,38.25,14451109
7-May-14,36.53,37.31,36.31,37.22,7800951
6-May-14,37.14,37.40,36.39,36.67,9492604
5-May-14,36.08,36.78,35.79,36.60,5819281
2-May-14,36.27,36.72,36.06,36.49,6987195
1-May-14,35.86,36.70,35.46,36.39,11502084
30-Apr-14,35.68,35.88,34.89,35.07,6946491
29-Apr-14,35.20,35.65,34.97,35.51,8994998
28-Apr-14,36.41,36.72,34.34,35.16,13149281
25-Apr-14,37.00,37.11,35.91,36.00,9576404
24-Apr-14,37.84,38.24,35.80,37.26,21038719
23-Apr-14,37.14,37.60,36.40,37.09,14649452
22-Apr-14,35.76,36.74,35.75,36.16,8942295
21-Apr-14,35.08,35.79,34.86,35.67,7190588
17-Apr-14,35.50,35.86,34.82,35.40,9225655
16-Apr-14,34.17,35.59,33.94,35.51,15636133
15-Apr-14,33.52,34.33,31.86,33.72,15981721
14-Apr-14,34.00,34.77,32.77,33.37,13466805
11-Apr-14,34.10,35.46,33.59,33.68,15538291
10-Apr-14,36.70,37.38,34.60,35.29,16312604
9-Apr-14,36.08,37.00,35.16,36.90,11479241
8-Apr-14,36.00,36.22,33.62,35.98,17409958
7-Apr-14,36.78,37.48,35.46,35.78,10577786
4-Apr-14,37.41,37.72,36.30,36.56,8733197
3-Apr-14,37.72,38.44,36.96,37.34,7939297
2-Apr-14,38.24,38.90,37.48,37.71,12510997
1-Apr-14,36.95,38.19,36.85,37.94,11065541
31-Mar-14,35.84,36.87,35.75,36.60,8415583
28-Mar-14,35.77,36.50,35.35,35.39,6792745
27-Mar-14,36.62,36.77,35.02,35.77,9546097
26-Mar-14,38.15,38.26,36.64,36.70,7322443
25-Mar-14,36.88,38.20,36.86,37.90,10419256
24-Mar-14,36.25,36.86,36.03,36.80,6514506
21-Mar-14,36.76,36.82,35.91,36.11,14113193
20-Mar-14,36.61,37.09,36.28,36.56,6952115
19-Mar-14,37.27,37.63,36.68,37.08,3863064
18-Mar-14,37.75,38.04,37.09,37.35,5716947
17-Mar-14,36.62,37.77,36.53,37.70,9240047
14-Mar-14,36.00,37.18,35.67,36.34,7199813
13-Mar-14,37.90,37.99,35.75,36.74,11743627
12-Mar-14,37.97,38.08,37.23,37.56,9416584
11-Mar-14,38.65,39.26,37.95,38.08,11311219
10-Mar-14,38.70,39.88,38.55,38.96,11415390
7-Mar-14,39.22,39.29,38.11,39.02,10540431
6-Mar-14,38.28,39.32,38.28,38.81,14008414
5-Mar-14,37.60,38.03,37.51,37.86,8793959
4-Mar-14,36.57,37.46,36.57,37.34,11742444
3-Mar-14,36.17,36.40,35.32,36.10,9500368
28-Feb-14,36.11,36.98,36.07,36.93,7991349
27-Feb-14,36.88,36.95,36.34,36.56,5666647
26-Feb-14,37.12,37.28,36.58,36.75,10516864
25-Feb-14,36.63,37.15,36.51,37.00,8991389
24-Feb-14,36.20,36.66,36.02,36.65,7022370
21-Feb-14,35.78,36.45,35.75,36.17,7821334
20-Feb-14,34.43,35.67,34.43,35.66,9289448
19-Feb-14,34.25,35.09,34.11,34.59,7259501
18-Feb-14,34.73,34.95,34.20,34.31,7090152
14-Feb-14,34.85,35.18,34.22,34.41,7307286
13-Feb-14,34.07,35.04,34.06,35.02,8412272
12-Feb-14,34.89,35.00,34.36,34.69,9386780
11-Feb-14,35.58,35.64,34.39,35.13,11990875
10-Feb-14,36.10,36.15,35.38,35.58,11110235
7-Feb-14,34.81,35.70,34.65,35.67,15411777
6-Feb-14,33.71,34.92,33.70,34.66,13924507
5-Feb-14,33.82,33.97,33.40,33.80,15471546
4-Feb-14,34.04,34.38,33.58,34.05,11241908
3-Feb-14,33.95,34.48,33.05,33.96,21743871
31-Jan-14,33.44,34.08,33.00,33.55,12795698
30-Jan-14,33.36,34.20,33.20,33.80,13677012
29-Jan-14,32.24,33.40,32.10,32.98,22726800
28-Jan-14,30.32,32.20,30.02,31.96,23966003
27-Jan-14,30.40,30.87,28.67,30.18,16288488
24-Jan-14,31.02,31.18,29.91,30.40,13699981
23-Jan-14,30.65,31.46,30.62,31.35,11397447
22-Jan-14,30.71,31.24,30.65,31.20,7583631
21-Jan-14,30.66,30.80,30.20,30.66,10612821
17-Jan-14,29.30,30.02,29.17,30.02,18304949
16-Jan-14,28.94,29.39,28.70,29.34,7034698
15-Jan-14,28.90,29.44,28.70,28.84,11192558
14-Jan-14,28.75,29.04,28.71,28.87,10601529
13-Jan-14,29.18,29.53,28.58,28.65,10591701
10-Jan-14,29.05,29.83,28.75,29.35,12824160
9-Jan-14,28.24,29.60,28.20,29.42,26056445
8-Jan-14,26.37,27.68,26.35,27.63,15736891
7-Jan-14,27.20,27.40,26.67,26.90,11288775
6-Jan-14,26.62,27.20,26.60,27.03,11272273
3-Jan-14,25.75,26.75,25.51,26.54,13836062
2-Jan-14,25.07,25.82,25.06,25.36,8998943
31-Dec-13,24.74,25.25,24.63,25.25,7168395
30-Dec-13,24.87,25.25,24.65,24.78,8841369
27-Dec-13,25.95,26.10,24.91,24.94,13227018
26-Dec-13,26.12,26.36,25.98,26.13,4226639
24-Dec-13,26.00,26.26,26.00,26.25,2652974
23-Dec-13,26.29,26.49,26.05,26.18,5403084
20-Dec-13,26.18,26.49,26.14,26.33,8530924
19-Dec-13,26.12,26.49,25.82,26.12,6916497
18-Dec-13,25.99,26.23,25.55,26.23,9994162
17-Dec-13,26.48,26.59,25.95,26.10,11413199
16-Dec-13,26.63,26.77,26.35,26.61,13190945
13-Dec-13,25.75,26.30,25.52,26.23,12192421
12-Dec-13,26.20,26.71,25.45,25.45,19981824
11-Dec-13,25.48,27.20,25.37,25.99,38843371
10-Dec-13,24.50,25.17,24.41,24.88,18660625
9-Dec-13,23.85,25.44,23.45,24.60,43197268
