﻿Date,Open,High,Low,Close,Volume
20-Jun-17,25.73,26.54,25.25,26.06,263156
19-Jun-17,25.56,26.38,25.28,25.76,291847
16-Jun-17,25.00,25.96,24.76,25.49,511777
15-Jun-17,24.98,25.46,24.31,24.58,257733
14-Jun-17,24.72,25.58,24.38,25.07,365253
13-Jun-17,24.58,24.78,23.93,24.61,282958
12-Jun-17,24.83,24.83,24.04,24.48,212583
9-Jun-17,25.52,25.52,24.35,24.84,498213
8-Jun-17,24.33,25.63,24.33,25.39,272181
7-Jun-17,24.20,24.90,24.04,24.41,354686
6-Jun-17,23.15,24.67,22.78,24.26,290446
5-Jun-17,23.70,23.85,22.75,23.31,791880
2-Jun-17,23.59,23.88,23.43,23.61,529938
1-Jun-17,23.71,23.78,23.32,23.55,444603
31-May-17,23.53,24.17,23.34,23.78,171860
30-May-17,24.74,24.84,23.00,23.38,521515
26-May-17,25.21,25.56,24.75,24.81,366400
25-May-17,24.98,25.54,24.60,25.21,253611
24-May-17,24.27,25.09,24.08,24.98,191790
23-May-17,24.86,24.88,24.13,24.32,294405
22-May-17,24.96,25.56,24.51,24.81,137621
19-May-17,25.90,26.45,24.81,24.85,211063
18-May-17,25.49,26.09,25.45,25.95,197015
17-May-17,26.33,26.68,25.50,25.56,584113
16-May-17,25.70,26.63,25.54,26.61,153518
15-May-17,26.68,26.82,25.65,25.73,193074
12-May-17,25.78,27.19,25.44,26.71,271180
11-May-17,26.83,26.86,25.50,25.75,743714
10-May-17,25.23,27.07,24.80,26.83,398255
9-May-17,25.40,25.41,24.53,25.11,166702
8-May-17,26.01,26.28,25.14,25.24,209538
5-May-17,26.73,26.75,25.90,26.07,194480
4-May-17,26.90,26.90,25.37,26.65,496446
3-May-17,27.02,27.32,26.50,26.97,256852
2-May-17,28.04,28.36,27.02,27.14,150717
1-May-17,28.27,28.60,27.55,28.11,174248
28-Apr-17,28.56,28.86,27.86,28.11,262762
27-Apr-17,28.97,28.97,28.10,28.82,271043
26-Apr-17,28.99,29.68,28.65,28.87,377536
25-Apr-17,30.10,30.34,28.20,29.25,709338
24-Apr-17,30.57,31.50,29.95,30.03,220211
21-Apr-17,32.20,32.33,29.88,30.22,1194841
20-Apr-17,32.41,32.65,32.19,32.23,71547
19-Apr-17,32.55,32.65,31.91,32.43,112943
18-Apr-17,33.00,33.02,31.50,31.94,175189
17-Apr-17,32.30,33.10,31.78,32.99,126031
13-Apr-17,31.74,32.38,31.57,32.25,77809
12-Apr-17,31.76,32.00,31.44,31.78,110864
11-Apr-17,31.90,32.33,31.13,31.84,94884
10-Apr-17,32.57,32.78,31.66,31.95,117104
7-Apr-17,32.03,32.67,31.49,32.45,216683
6-Apr-17,31.00,32.07,30.58,32.02,460413
5-Apr-17,30.50,31.10,30.03,31.01,230668
4-Apr-17,30.00,30.65,29.80,30.45,128330
3-Apr-17,29.92,30.40,29.71,30.15,193638
31-Mar-17,29.89,30.86,29.30,29.82,175453
30-Mar-17,30.40,30.46,29.62,29.90,255773
29-Mar-17,31.20,31.53,30.26,30.42,135971
28-Mar-17,31.27,31.64,30.69,31.25,264359
27-Mar-17,30.30,31.43,29.73,31.21,189848
24-Mar-17,30.28,30.74,29.84,30.53,240858
23-Mar-17,29.31,30.26,29.01,30.23,189813
22-Mar-17,28.66,29.65,28.50,29.61,381932
21-Mar-17,28.87,29.11,27.36,28.72,489593
20-Mar-17,28.98,28.98,28.10,28.88,387662
17-Mar-17,29.00,30.06,28.81,28.98,210597
16-Mar-17,30.81,30.81,28.70,29.00,301536
15-Mar-17,29.75,31.72,28.71,30.65,372396
14-Mar-17,31.09,31.14,29.89,30.48,90153
13-Mar-17,31.19,31.57,30.07,31.13,93401
10-Mar-17,31.67,31.89,30.43,31.14,197369
9-Mar-17,31.90,32.38,30.85,31.44,116374
8-Mar-17,32.26,33.25,31.80,31.89,127251
7-Mar-17,32.47,32.95,31.82,32.14,132152
6-Mar-17,32.13,32.73,31.30,32.65,174044
3-Mar-17,30.73,32.18,30.43,32.13,215884
2-Mar-17,31.10,31.87,30.44,30.81,312979
1-Mar-17,31.10,31.36,30.40,31.24,539722
28-Feb-17,31.97,31.97,30.72,31.23,585394
27-Feb-17,30.70,32.30,29.92,32.08,314275
24-Feb-17,29.26,31.38,28.40,30.80,334704
23-Feb-17,27.41,29.78,26.89,29.52,622951
22-Feb-17,27.52,27.69,27.00,27.19,82840
21-Feb-17,28.04,28.12,26.74,27.65,142163
17-Feb-17,27.51,27.95,26.82,27.88,121548
16-Feb-17,27.81,27.81,27.05,27.47,90746
15-Feb-17,28.25,28.25,27.53,27.81,144822
14-Feb-17,27.52,28.34,27.28,28.30,129949
13-Feb-17,26.68,27.59,26.58,27.35,192205
10-Feb-17,26.69,27.25,26.25,26.51,92680
9-Feb-17,25.96,26.85,25.96,26.60,155287
8-Feb-17,25.00,26.03,24.87,26.01,144844
7-Feb-17,25.28,25.68,24.86,25.10,228595
6-Feb-17,25.82,25.98,24.83,25.25,260580
3-Feb-17,25.84,26.19,25.27,25.87,342476
2-Feb-17,26.33,26.35,25.42,25.59,150961
1-Feb-17,26.52,26.92,25.89,26.35,287271
31-Jan-17,26.01,26.72,25.53,26.53,234370
30-Jan-17,26.62,26.92,25.91,26.11,131384
27-Jan-17,26.90,27.30,26.54,26.93,64472
26-Jan-17,27.31,27.62,26.23,27.04,65249
25-Jan-17,27.08,27.74,26.82,27.30,102900
24-Jan-17,26.58,27.24,25.89,27.16,447727
23-Jan-17,27.20,27.72,25.93,26.43,195780
20-Jan-17,27.68,27.88,26.86,27.19,329108
19-Jan-17,28.14,28.30,27.53,27.75,101382
18-Jan-17,28.07,28.50,26.70,28.00,198557
17-Jan-17,28.60,28.96,27.81,28.09,146975
13-Jan-17,28.75,29.28,28.39,28.70,170964
12-Jan-17,28.32,29.08,27.88,28.62,223752
11-Jan-17,29.24,29.24,26.96,28.51,395521
10-Jan-17,30.02,30.02,28.25,29.25,916361
9-Jan-17,28.97,30.24,28.45,30.01,210115
6-Jan-17,29.08,29.33,28.65,28.96,121962
5-Jan-17,29.30,29.90,28.23,28.92,126279
4-Jan-17,27.96,29.44,27.96,29.39,147106
3-Jan-17,27.21,28.13,26.54,27.95,385003
30-Dec-16,26.99,27.38,26.76,27.14,138043
29-Dec-16,27.40,27.78,26.59,27.10,141951
28-Dec-16,27.65,27.78,27.18,27.40,128559
27-Dec-16,28.20,28.38,27.56,27.62,142611
23-Dec-16,28.11,28.54,27.65,28.21,226710
22-Dec-16,29.79,29.81,27.84,28.08,116147
21-Dec-16,30.29,30.74,29.66,29.81,132716
20-Dec-16,30.80,31.41,30.09,30.29,136408
19-Dec-16,31.68,31.80,30.53,30.77,232551
16-Dec-16,29.02,31.44,28.82,31.25,495642
15-Dec-16,28.43,29.23,27.78,28.92,190472
14-Dec-16,28.30,29.59,27.52,28.50,139722
13-Dec-16,29.02,29.12,28.31,28.45,106889
12-Dec-16,29.09,29.32,28.49,28.82,110319
9-Dec-16,28.83,30.34,27.66,29.28,286537
8-Dec-16,29.72,29.76,28.30,28.97,166657
7-Dec-16,29.55,30.28,29.03,29.80,95905
6-Dec-16,30.10,30.76,29.62,30.55,141215
5-Dec-16,29.81,30.24,28.94,30.15,122430
2-Dec-16,29.04,29.98,28.35,29.47,184625
1-Dec-16,29.78,30.63,28.36,29.01,452162
30-Nov-16,30.33,30.33,29.12,29.95,301750
29-Nov-16,29.00,30.44,28.50,30.14,664649
28-Nov-16,27.91,28.31,27.27,28.04,230670
25-Nov-16,28.05,28.77,27.40,27.73,271263
23-Nov-16,26.87,28.29,26.57,28.14,245677
22-Nov-16,26.79,27.40,24.38,27.16,262656
21-Nov-16,25.45,27.14,24.55,27.02,290996
18-Nov-16,24.40,26.15,24.10,25.98,2795357
17-Nov-16,20.20,23.96,20.20,23.82,571408
16-Nov-16,24.93,24.93,20.98,22.86,1776463
15-Nov-16,22.65,23.85,22.65,23.43,677976
14-Nov-16,23.12,23.19,22.11,22.52,128758
11-Nov-16,22.48,23.13,22.40,22.70,160588
10-Nov-16,22.87,23.48,22.37,22.55,120447
9-Nov-16,20.67,22.73,20.67,22.50,715294
8-Nov-16,21.48,21.58,20.36,20.53,111515
7-Nov-16,21.25,21.85,20.88,21.08,68683
4-Nov-16,20.90,21.42,20.64,20.88,94628
3-Nov-16,21.50,21.50,20.15,20.74,116869
2-Nov-16,20.42,21.31,20.35,21.10,53441
1-Nov-16,21.21,21.23,20.62,20.82,80016
31-Oct-16,21.43,21.44,20.90,21.25,33696
28-Oct-16,21.32,21.77,20.86,21.34,50339
27-Oct-16,22.40,22.41,21.32,21.45,34661
26-Oct-16,21.83,22.44,21.43,21.99,54400
25-Oct-16,22.35,23.03,21.43,22.01,152933
24-Oct-16,22.45,22.80,22.21,22.29,81134
21-Oct-16,22.11,22.68,21.78,22.29,120418
20-Oct-16,22.31,22.40,21.67,22.12,116350
19-Oct-16,22.62,22.84,22.02,22.19,20888
18-Oct-16,22.45,22.80,21.94,22.70,68230
17-Oct-16,22.26,22.72,22.10,22.25,37991
14-Oct-16,24.17,24.17,22.61,22.63,46729
13-Oct-16,24.17,24.54,23.96,23.98,49684
12-Oct-16,24.54,25.02,24.06,24.41,35421
11-Oct-16,24.88,25.07,24.44,24.49,84689
10-Oct-16,25.16,25.30,24.82,24.98,151306
7-Oct-16,24.50,24.75,24.40,24.64,74418
6-Oct-16,25.00,25.12,24.50,24.62,79149
5-Oct-16,24.84,25.50,24.60,25.10,48760
4-Oct-16,25.52,25.52,24.19,24.85,81646
3-Oct-16,25.49,25.95,24.81,25.49,101476
30-Sep-16,25.53,25.76,25.20,25.61,143687
29-Sep-16,25.61,25.61,24.63,25.16,88241
28-Sep-16,25.30,25.55,24.77,25.29,63567
27-Sep-16,25.03,25.50,24.68,25.15,124156
26-Sep-16,24.73,25.02,24.45,24.93,118414
23-Sep-16,25.09,25.40,24.85,24.86,264880
22-Sep-16,24.74,25.08,24.49,25.03,70572
21-Sep-16,24.46,24.79,24.27,24.50,207339
20-Sep-16,24.27,24.74,23.85,24.38,61479
19-Sep-16,25.04,25.29,23.70,23.80,85347
16-Sep-16,24.44,25.00,24.29,24.50,395504
15-Sep-16,24.04,24.50,23.76,24.15,501332
14-Sep-16,23.80,24.45,23.33,23.91,92061
13-Sep-16,22.80,24.10,22.35,23.83,103031
12-Sep-16,21.00,23.44,20.87,23.24,86877
9-Sep-16,22.73,23.00,21.47,21.49,25485
8-Sep-16,22.57,23.29,22.21,23.02,50570
7-Sep-16,21.98,22.59,21.66,22.56,86261
6-Sep-16,20.88,22.46,20.50,21.81,72467
2-Sep-16,20.92,20.92,20.43,20.86,18888
1-Sep-16,20.32,21.22,20.04,20.68,67018
31-Aug-16,21.33,21.48,20.00,20.16,58441
30-Aug-16,22.28,22.66,21.04,21.19,56975
29-Aug-16,21.59,22.49,21.49,22.22,111944
26-Aug-16,20.60,21.50,19.90,21.34,92707
25-Aug-16,20.66,21.29,19.78,20.23,32091
24-Aug-16,21.36,21.87,20.61,20.82,35769
23-Aug-16,20.84,21.39,20.51,21.24,67405
22-Aug-16,20.15,21.29,19.75,20.80,42421
19-Aug-16,20.02,20.59,19.61,20.14,34125
18-Aug-16,20.61,20.61,19.54,20.00,137324
17-Aug-16,20.01,20.46,19.73,20.17,31078
16-Aug-16,19.81,20.11,19.50,20.00,31967
15-Aug-16,19.51,20.06,19.30,19.83,28412
12-Aug-16,19.47,19.47,18.74,19.27,22567
11-Aug-16,18.40,19.61,18.24,19.14,39512
10-Aug-16,19.01,19.54,18.24,18.69,32283
9-Aug-16,18.71,18.95,18.57,18.84,21263
8-Aug-16,18.87,19.18,18.50,18.76,46729
5-Aug-16,19.01,19.25,18.82,18.93,23121
4-Aug-16,19.29,19.29,18.82,18.87,26270
3-Aug-16,19.30,19.30,18.61,18.88,44410
2-Aug-16,19.81,20.28,18.68,18.90,43881
1-Aug-16,19.81,20.07,19.57,19.76,57596
29-Jul-16,20.35,20.59,19.70,19.70,92397
28-Jul-16,20.64,20.74,19.97,20.21,46420
27-Jul-16,20.54,20.90,20.06,20.35,61637
26-Jul-16,19.85,20.54,19.72,20.25,38331
25-Jul-16,20.82,20.82,19.61,19.72,56664
22-Jul-16,21.15,21.32,20.75,20.91,22792
21-Jul-16,20.83,21.46,20.83,20.98,120688
20-Jul-16,20.42,21.07,20.29,20.75,76288
19-Jul-16,20.51,20.84,20.08,20.20,30890
18-Jul-16,20.44,20.44,19.92,20.22,63116
15-Jul-16,20.36,20.64,20.23,20.30,60442
14-Jul-16,20.32,20.32,19.60,20.16,33839
13-Jul-16,20.37,20.43,19.66,19.85,55769
12-Jul-16,20.04,20.40,19.60,20.11,82067
11-Jul-16,20.33,20.44,19.84,20.13,27359
8-Jul-16,19.60,20.26,19.31,20.13,55021
7-Jul-16,19.45,19.64,19.05,19.52,36290
6-Jul-16,18.94,19.63,18.90,19.34,34463
5-Jul-16,18.98,19.96,18.85,18.96,38551
1-Jul-16,18.17,19.24,17.90,19.05,55636
30-Jun-16,18.51,18.69,18.10,18.47,47580
29-Jun-16,18.26,18.55,18.04,18.32,39301
28-Jun-16,17.91,18.64,17.75,18.07,38193
27-Jun-16,18.18,18.31,17.10,17.68,105659
24-Jun-16,17.74,18.98,17.44,18.10,484460
23-Jun-16,18.09,18.77,17.51,18.21,53467
22-Jun-16,17.80,18.33,17.21,18.07,76575
21-Jun-16,19.25,19.25,17.30,17.83,65552
20-Jun-16,18.93,19.42,18.28,19.13,77510
17-Jun-16,19.54,19.54,18.11,18.93,245666
16-Jun-16,18.92,19.56,18.92,19.47,52212
15-Jun-16,19.15,20.97,19.00,19.20,78066
14-Jun-16,20.70,20.97,18.98,19.39,86419
13-Jun-16,21.97,23.24,20.34,20.44,79206
10-Jun-16,21.61,23.19,21.56,21.97,216711
9-Jun-16,21.41,21.90,21.19,21.57,89345
8-Jun-16,22.36,22.36,21.29,21.64,54394
7-Jun-16,21.90,22.69,21.62,21.91,122700
6-Jun-16,21.15,23.58,20.06,22.07,216814
3-Jun-16,20.74,21.50,20.01,20.21,153970
2-Jun-16,20.58,21.35,20.28,20.94,62637
1-Jun-16,20.42,20.92,19.88,20.24,79873
31-May-16,19.80,20.74,19.05,19.98,156079
27-May-16,19.55,20.88,19.25,20.00,65415
26-May-16,20.38,20.40,19.31,19.70,18535
25-May-16,19.47,21.00,19.47,20.49,48880
24-May-16,19.35,19.91,18.95,19.80,33175
23-May-16,20.30,21.06,18.92,19.21,79573
20-May-16,19.93,20.55,19.40,20.35,33672
19-May-16,19.59,20.60,18.47,19.79,36591
18-May-16,19.09,20.60,19.00,19.92,39718
17-May-16,19.92,21.30,19.06,19.18,78724
16-May-16,19.33,20.97,18.66,19.19,84301
13-May-16,17.10,21.41,17.10,19.06,149988
12-May-16,18.04,18.51,16.86,16.93,13295
11-May-16,19.73,19.73,17.97,17.97,19014
10-May-16,20.40,21.05,19.16,19.98,34696
9-May-16,20.72,21.02,20.03,20.50,27677
6-May-16,21.38,21.38,20.03,20.71,26760
5-May-16,19.45,21.29,19.45,21.02,29392
4-May-16,20.61,21.00,19.30,19.69,31205
3-May-16,20.34,21.49,18.69,20.63,40552
2-May-16,18.78,20.51,18.51,20.41,27103
29-Apr-16,19.89,19.89,18.26,18.48,29167
28-Apr-16,20.27,20.40,18.90,19.76,48530
27-Apr-16,21.92,21.92,20.11,20.48,30632
26-Apr-16,19.67,22.04,19.57,21.78,39183
25-Apr-16,19.77,20.00,19.45,19.68,23005
22-Apr-16,19.58,19.99,19.35,19.66,34867
21-Apr-16,19.67,19.90,19.43,19.69,30535
20-Apr-16,20.03,20.97,18.82,19.81,17963
19-Apr-16,19.89,20.56,19.31,20.40,45071
18-Apr-16,19.86,20.34,19.71,19.91,20697
15-Apr-16,20.02,20.39,19.86,20.06,28917
14-Apr-16,20.06,20.39,19.75,20.10,36709
13-Apr-16,19.67,20.62,19.67,20.00,27704
12-Apr-16,19.53,20.52,19.53,19.61,29163
11-Apr-16,20.23,20.62,19.46,19.98,26257
8-Apr-16,21.11,21.40,19.82,20.16,21798
7-Apr-16,20.75,21.27,20.00,20.69,31101
6-Apr-16,19.74,21.50,18.75,20.84,40973
5-Apr-16,19.93,20.49,19.00,19.69,55569
4-Apr-16,20.45,21.46,20.07,20.50,34526
1-Apr-16,19.38,21.98,18.74,20.50,88403
31-Mar-16,15.69,19.24,15.66,18.95,59720
30-Mar-16,15.49,15.60,15.14,15.45,11021
29-Mar-16,14.90,15.71,14.90,15.49,18927
28-Mar-16,14.68,14.99,14.68,14.91,13855
24-Mar-16,14.90,15.07,14.12,14.77,59875
23-Mar-16,15.28,15.75,14.70,15.00,33755
22-Mar-16,15.98,16.15,15.28,15.37,27786
21-Mar-16,15.42,16.01,15.42,15.80,28852
18-Mar-16,16.11,16.11,15.52,15.71,23748
17-Mar-16,16.12,16.52,15.81,15.99,18652
16-Mar-16,16.20,16.77,16.01,16.14,15437
15-Mar-16,16.22,16.83,16.05,16.14,22746
14-Mar-16,16.85,17.48,16.40,16.40,23612
11-Mar-16,17.01,17.01,16.53,16.84,17911
10-Mar-16,17.40,17.49,16.64,16.74,23524
9-Mar-16,17.90,18.10,15.94,16.93,39815
8-Mar-16,18.02,18.35,17.34,17.42,21334
7-Mar-16,19.60,19.60,17.21,17.92,28167
4-Mar-16,17.86,18.58,16.57,18.02,22588
3-Mar-16,17.32,17.35,16.16,17.33,18099
2-Mar-16,17.61,17.74,16.67,17.39,32910
1-Mar-16,18.24,18.96,17.20,17.71,57309
29-Feb-16,19.10,19.60,17.95,18.34,47530
26-Feb-16,17.21,19.00,15.66,18.93,30526
25-Feb-16,18.82,19.77,18.74,18.95,55826
24-Feb-16,18.00,19.99,17.80,18.60,58972
23-Feb-16,17.16,18.64,17.16,18.01,122040
22-Feb-16,15.40,16.91,15.33,16.76,54305
19-Feb-16,15.09,15.42,14.51,15.29,22610
18-Feb-16,15.61,16.09,15.04,15.12,23839
17-Feb-16,18.95,19.50,14.44,15.65,125445
16-Feb-16,19.51,19.51,18.00,18.78,49557
12-Feb-16,20.28,20.56,19.14,19.45,17484
11-Feb-16,19.90,21.29,19.90,19.90,11025
10-Feb-16,20.04,21.50,19.97,20.12,17250
9-Feb-16,20.17,20.39,19.54,19.60,11300
8-Feb-16,21.40,22.26,20.24,20.46,17371
5-Feb-16,22.62,22.87,21.54,21.54,30222
4-Feb-16,21.95,22.26,20.94,21.97,16899
3-Feb-16,22.27,22.27,21.54,22.00,3983
2-Feb-16,21.34,22.39,21.30,21.93,11285
1-Feb-16,22.26,22.26,21.02,21.65,31347
29-Jan-16,21.05,22.51,20.90,22.23,42721
28-Jan-16,21.27,21.81,20.70,20.94,26356
27-Jan-16,22.16,22.30,20.73,20.88,27938
26-Jan-16,20.24,22.25,19.39,21.84,38854
25-Jan-16,22.24,22.24,19.98,20.15,28283
22-Jan-16,22.85,23.97,21.60,22.00,40870
21-Jan-16,21.30,23.08,20.02,22.56,30995
20-Jan-16,19.69,21.73,19.41,21.05,36546
19-Jan-16,20.50,21.64,19.03,19.98,34047
15-Jan-16,20.53,21.05,19.28,20.42,49506
14-Jan-16,19.95,21.30,19.41,21.15,30683
13-Jan-16,20.46,20.86,19.23,20.18,60656
12-Jan-16,19.72,20.69,18.27,20.43,70616
11-Jan-16,25.35,25.35,16.50,19.44,95802
8-Jan-16,23.98,24.42,23.43,23.50,19834
7-Jan-16,25.09,26.06,23.80,23.98,27542
6-Jan-16,27.22,27.68,25.36,25.68,41218
5-Jan-16,26.36,27.72,24.32,27.37,42777
4-Jan-16,26.86,27.94,25.06,26.39,60017
31-Dec-15,25.85,27.86,25.63,26.94,45217
30-Dec-15,23.68,26.81,23.68,25.59,37760
29-Dec-15,29.00,29.00,23.29,24.09,77119
28-Dec-15,28.97,28.97,28.32,28.78,15792
24-Dec-15,28.59,29.28,28.50,28.99,6034
23-Dec-15,30.00,30.00,28.40,28.69,26320
22-Dec-15,29.24,29.49,28.92,29.28,31522
21-Dec-15,28.72,30.00,28.36,29.14,76970
18-Dec-15,28.41,29.75,27.50,28.68,873350
17-Dec-15,26.26,33.88,26.26,28.92,183692
16-Dec-15,21.00,25.97,20.80,25.97,105038
15-Dec-15,22.45,23.14,21.01,22.03,59033
14-Dec-15,21.85,24.75,21.56,22.67,59297
11-Dec-15,21.43,22.43,20.57,22.05,63398
10-Dec-15,21.15,22.43,20.32,21.44,33143
9-Dec-15,20.86,22.39,20.11,21.00,32056
8-Dec-15,21.45,21.84,20.44,21.10,72533
7-Dec-15,21.19,22.20,19.80,21.02,62184
4-Dec-15,20.37,21.84,20.00,21.13,18954
3-Dec-15,21.30,22.44,19.79,20.55,74410
2-Dec-15,23.13,23.42,21.10,21.40,56990
1-Dec-15,23.60,23.60,22.54,23.24,21340
30-Nov-15,23.26,23.60,22.70,23.55,16930
27-Nov-15,22.50,24.08,21.07,23.40,78826
25-Nov-15,23.06,24.50,19.86,23.39,47239
24-Nov-15,23.16,24.48,20.61,23.50,43840
23-Nov-15,20.46,24.60,20.28,23.65,72652
20-Nov-15,19.68,22.05,19.35,20.84,51049
19-Nov-15,19.92,20.90,18.31,19.90,77803
18-Nov-15,22.14,23.49,19.68,19.95,90868
17-Nov-15,18.10,18.96,18.01,18.81,26353
16-Nov-15,18.17,18.78,16.66,18.36,40455
13-Nov-15,17.20,18.22,16.33,18.15,69069
12-Nov-15,16.70,17.24,16.09,16.91,113952
11-Nov-15,16.62,17.49,15.63,16.61,55980
10-Nov-15,15.44,17.81,14.98,17.29,70499
9-Nov-15,14.67,15.29,14.46,15.14,15172
6-Nov-15,14.86,15.15,14.59,14.67,9974
5-Nov-15,15.10,15.45,14.43,15.21,21658
4-Nov-15,14.93,15.46,14.31,14.90,42081
3-Nov-15,14.28,15.29,14.28,15.13,23329
2-Nov-15,14.22,15.15,14.06,14.61,45432
30-Oct-15,14.02,14.86,13.96,14.47,19687
29-Oct-15,14.03,14.91,13.93,14.38,122534
28-Oct-15,14.28,15.03,13.62,14.31,184253
27-Oct-15,14.64,15.07,14.04,14.66,25461
26-Oct-15,14.44,15.26,14.25,14.48,14543
23-Oct-15,14.48,15.55,12.99,14.43,121267
22-Oct-15,15.41,15.41,13.50,14.50,117859
21-Oct-15,15.18,15.18,14.25,14.92,27362
20-Oct-15,14.96,16.08,14.17,15.43,84341
19-Oct-15,14.91,15.44,13.85,15.42,176747
16-Oct-15,15.78,15.78,14.09,14.57,15825
15-Oct-15,14.58,17.24,14.55,15.56,187152
14-Oct-15,12.95,14.47,12.07,14.36,152089
13-Oct-15,13.60,13.97,12.32,12.46,68161
12-Oct-15,13.34,14.12,12.50,13.60,325176
9-Oct-15,11.00,13.98,11.00,12.50,161882
8-Oct-15,11.14,11.30,10.99,11.05,125073
7-Oct-15,11.94,11.98,11.00,11.05,1154935
