﻿Date,Open,High,Low,Close,Volume
20-Jun-17,17.63,18.97,17.13,18.56,453436
19-Jun-17,16.50,17.78,16.25,17.69,724653
16-Jun-17,17.77,17.89,16.44,16.47,760422
15-Jun-17,18.35,18.59,17.79,17.97,317379
14-Jun-17,18.11,18.83,18.03,18.43,305563
13-Jun-17,17.70,18.16,17.55,18.07,225826
12-Jun-17,17.55,18.02,17.41,17.70,228980
9-Jun-17,17.71,18.12,17.53,17.68,206912
8-Jun-17,17.88,17.94,17.52,17.74,183662
7-Jun-17,17.67,17.90,17.59,17.83,109781
6-Jun-17,17.63,18.07,17.55,17.67,184787
5-Jun-17,17.90,18.51,17.57,17.74,266442
2-Jun-17,17.25,17.99,17.18,17.77,268937
1-Jun-17,16.64,17.18,16.55,17.13,253399
31-May-17,16.48,16.76,15.97,16.60,230335
30-May-17,17.13,17.18,16.28,16.43,335094
26-May-17,18.20,19.17,17.12,17.15,289501
25-May-17,17.19,18.32,16.89,18.26,822659
24-May-17,17.87,17.94,17.08,17.26,617393
23-May-17,18.85,18.85,17.85,17.86,321709
22-May-17,18.87,18.98,18.50,18.81,292316
19-May-17,19.04,19.33,18.86,18.88,194948
18-May-17,19.02,19.42,19.01,19.04,273025
17-May-17,18.84,19.15,18.67,18.97,292686
16-May-17,19.56,19.64,18.90,19.03,367265
15-May-17,19.23,19.49,18.97,19.18,149964
12-May-17,19.89,20.10,19.00,19.26,320809
11-May-17,19.76,20.08,19.52,19.87,406045
10-May-17,19.73,20.18,19.53,19.79,241416
9-May-17,19.40,20.45,19.11,19.80,646485
8-May-17,19.23,19.40,18.97,19.30,238246
5-May-17,19.44,19.53,18.96,19.26,240897
4-May-17,19.67,19.68,18.97,19.44,176527
3-May-17,19.38,19.90,19.35,19.58,179617
2-May-17,19.65,19.68,19.21,19.48,140992
1-May-17,19.46,19.84,19.29,19.57,162699
28-Apr-17,19.67,20.10,19.39,19.44,709506
27-Apr-17,19.67,19.89,19.37,19.67,392045
26-Apr-17,19.57,19.80,19.38,19.62,199893
25-Apr-17,19.50,19.79,19.49,19.53,234425
24-Apr-17,19.32,19.33,19.01,19.29,146225
21-Apr-17,19.58,19.74,18.84,19.07,267506
20-Apr-17,19.86,19.91,19.41,19.65,173592
19-Apr-17,19.52,20.08,19.50,19.75,699175
18-Apr-17,19.57,19.63,19.20,19.42,166548
17-Apr-17,19.57,19.83,19.43,19.62,147620
13-Apr-17,19.47,19.81,19.37,19.57,276017
12-Apr-17,19.70,19.96,19.22,19.57,173004
11-Apr-17,19.71,20.06,19.46,19.70,244754
10-Apr-17,20.02,20.26,19.71,19.76,272502
7-Apr-17,20.25,20.67,19.98,20.02,530952
6-Apr-17,20.50,20.50,19.70,20.31,526442
5-Apr-17,21.00,21.26,20.29,20.51,267454
4-Apr-17,21.00,21.52,20.01,20.96,374473
3-Apr-17,21.72,21.88,21.06,21.08,280331
31-Mar-17,21.75,22.10,21.63,21.73,256263
30-Mar-17,22.28,22.34,21.23,21.76,314856
29-Mar-17,22.40,22.76,22.20,22.31,363302
28-Mar-17,23.21,23.37,22.20,22.33,315810
27-Mar-17,22.50,23.40,22.48,23.26,281309
24-Mar-17,21.91,22.97,21.81,22.82,266415
23-Mar-17,22.34,22.91,22.26,22.78,196835
22-Mar-17,21.98,22.82,21.80,22.32,132500
21-Mar-17,22.73,23.00,21.75,21.98,418205
20-Mar-17,22.47,22.69,22.14,22.61,261580
17-Mar-17,22.02,22.67,21.90,22.43,1047439
16-Mar-17,22.62,22.62,21.87,22.06,319887
15-Mar-17,21.28,22.92,21.01,22.67,348945
14-Mar-17,22.05,22.14,21.27,21.86,433394
13-Mar-17,22.25,22.93,22.25,22.32,308129
10-Mar-17,22.20,22.50,22.07,22.19,302523
9-Mar-17,22.25,22.44,21.81,22.10,180466
8-Mar-17,21.35,22.30,21.01,22.06,325206
7-Mar-17,21.40,21.62,20.95,21.31,205685
6-Mar-17,21.67,22.18,21.44,21.65,228574
3-Mar-17,20.92,21.96,20.65,21.91,285652
2-Mar-17,20.97,21.50,20.71,21.00,201109
1-Mar-17,20.80,21.28,20.55,21.04,219697
28-Feb-17,21.15,21.50,20.24,20.27,366247
27-Feb-17,19.67,21.17,19.56,21.03,633205
24-Feb-17,19.51,19.68,19.39,19.63,151351
23-Feb-17,19.79,20.10,19.22,19.57,141181
22-Feb-17,20.00,20.00,18.91,19.74,315434
21-Feb-17,20.10,20.51,19.95,20.07,209480
17-Feb-17,20.17,20.61,19.34,20.01,1120653
16-Feb-17,20.08,20.14,19.41,20.08,241131
15-Feb-17,19.44,20.24,19.31,20.03,234216
14-Feb-17,19.07,19.52,18.84,19.51,126819
13-Feb-17,19.00,19.36,18.41,19.09,253243
10-Feb-17,18.55,18.91,18.20,18.89,310429
9-Feb-17,18.69,18.91,18.21,18.54,232541
8-Feb-17,18.69,18.82,18.27,18.64,203677
7-Feb-17,18.70,18.99,18.34,18.80,214362
6-Feb-17,18.66,19.14,18.26,18.66,221923
3-Feb-17,17.89,18.74,17.49,18.73,288452
2-Feb-17,17.97,17.97,17.45,17.77,899962
1-Feb-17,18.36,18.56,17.76,17.96,273595
31-Jan-17,16.75,18.35,16.42,18.28,505815
30-Jan-17,17.11,17.36,16.58,16.90,390865
27-Jan-17,17.01,17.34,16.80,17.13,309208
26-Jan-17,18.40,18.64,17.02,17.04,370425
25-Jan-17,18.54,18.77,18.07,18.34,468276
24-Jan-17,18.57,18.57,17.69,18.32,315957
23-Jan-17,18.79,18.80,18.22,18.58,245012
20-Jan-17,19.06,19.44,18.66,18.83,340747
19-Jan-17,19.37,19.79,18.60,19.01,456879
18-Jan-17,19.62,20.04,19.08,19.37,304972
17-Jan-17,21.06,21.06,19.45,19.46,357551
13-Jan-17,21.55,22.23,21.24,21.27,244318
12-Jan-17,21.04,21.71,20.74,21.58,340035
11-Jan-17,21.90,21.96,20.62,21.30,248625
10-Jan-17,22.42,22.52,21.57,21.86,172696
9-Jan-17,22.50,22.65,21.88,22.34,198879
6-Jan-17,22.22,22.91,22.12,22.41,322712
5-Jan-17,21.40,22.10,21.02,22.02,266460
4-Jan-17,20.45,21.63,20.32,21.59,222587
3-Jan-17,20.79,20.87,19.84,20.58,213476
30-Dec-16,20.54,20.59,20.22,20.45,144312
29-Dec-16,20.57,20.88,20.43,20.53,85009
28-Dec-16,20.56,20.92,20.37,20.55,160718
27-Dec-16,21.18,21.46,20.41,20.63,163090
23-Dec-16,20.33,21.25,20.20,21.17,176268
22-Dec-16,21.02,21.02,20.03,20.40,284032
21-Dec-16,21.71,21.71,20.94,21.04,331712
20-Dec-16,21.39,21.83,21.07,21.59,200603
19-Dec-16,22.14,22.48,21.08,21.22,305813
16-Dec-16,22.56,22.66,21.89,22.12,2055190
15-Dec-16,22.43,22.68,22.00,22.55,415415
14-Dec-16,22.31,22.67,22.08,22.44,302446
13-Dec-16,22.67,22.90,22.08,22.46,293166
12-Dec-16,23.28,23.30,22.54,22.58,360270
9-Dec-16,23.26,23.55,22.83,23.08,364277
8-Dec-16,22.76,23.24,22.44,23.09,231646
7-Dec-16,22.46,22.82,21.98,22.76,242039
6-Dec-16,22.56,22.96,22.36,22.76,260995
5-Dec-16,22.75,23.36,21.96,22.55,320470
2-Dec-16,21.88,22.49,20.81,22.26,864765
1-Dec-16,22.89,22.95,21.27,22.02,418464
30-Nov-16,24.08,24.28,22.60,22.70,408437
29-Nov-16,24.60,24.76,24.28,24.40,352462
28-Nov-16,25.01,25.21,24.49,24.53,281952
25-Nov-16,25.09,25.48,24.69,24.90,205053
23-Nov-16,24.80,25.14,24.46,24.90,444812
22-Nov-16,25.00,25.20,24.42,24.94,417513
21-Nov-16,24.57,25.50,24.03,24.99,307807
18-Nov-16,25.49,25.50,24.27,24.62,300698
17-Nov-16,25.89,26.52,25.12,25.47,436831
16-Nov-16,25.95,26.95,25.50,25.74,241540
15-Nov-16,25.00,26.98,23.87,26.20,590700
14-Nov-16,25.80,27.31,25.28,26.70,747193
11-Nov-16,24.97,26.27,24.50,25.50,569750
10-Nov-16,23.62,25.00,23.19,24.52,414725
9-Nov-16,20.63,23.62,20.56,23.46,402416
8-Nov-16,19.56,20.85,19.35,20.64,352843
7-Nov-16,18.05,19.58,18.02,19.44,228483
4-Nov-16,17.50,18.25,17.26,17.93,544138
3-Nov-16,16.50,16.51,14.87,16.47,133211
2-Nov-16,16.53,16.61,15.89,16.43,121821
1-Nov-16,16.35,16.70,16.16,16.60,114185
31-Oct-16,16.22,16.48,16.08,16.28,143932
28-Oct-16,16.13,16.42,15.84,16.26,79396
27-Oct-16,16.71,16.87,16.11,16.28,74317
26-Oct-16,16.83,16.84,16.16,16.42,105254
25-Oct-16,17.08,17.11,16.74,16.78,65534
24-Oct-16,17.07,17.28,16.86,16.92,93081
21-Oct-16,17.02,17.31,16.93,16.98,109713
20-Oct-16,16.56,17.26,16.56,17.18,108550
19-Oct-16,17.01,17.01,16.50,16.60,126383
18-Oct-16,17.16,17.24,16.91,16.94,121660
17-Oct-16,16.44,16.97,16.40,16.84,135761
14-Oct-16,16.90,17.15,16.37,16.40,141622
13-Oct-16,16.18,16.76,16.18,16.70,156441
12-Oct-16,16.84,16.91,16.33,16.41,224515
11-Oct-16,16.91,17.15,16.61,16.84,133178
10-Oct-16,16.70,17.06,16.67,17.03,109404
7-Oct-16,16.50,16.94,16.24,16.55,95599
6-Oct-16,16.63,16.70,16.10,16.51,152105
5-Oct-16,16.50,17.19,16.27,16.74,281679
4-Oct-16,15.49,16.49,14.48,16.36,190421
3-Oct-16,15.09,15.36,14.82,15.35,173478
30-Sep-16,14.29,15.18,14.19,15.00,323481
29-Sep-16,15.33,15.53,14.11,14.14,277904
28-Sep-16,15.58,15.94,15.15,15.39,191553
27-Sep-16,15.84,15.96,15.43,15.49,173263
26-Sep-16,16.72,16.82,15.87,15.91,182212
23-Sep-16,16.88,17.23,16.36,16.57,167102
22-Sep-16,16.32,17.09,16.26,16.96,163292
21-Sep-16,16.00,16.55,16.00,16.23,253127
20-Sep-16,15.72,15.97,15.47,15.81,147763
19-Sep-16,15.73,15.99,15.53,15.62,104326
16-Sep-16,15.69,15.86,15.32,15.72,562010
15-Sep-16,15.50,15.76,15.35,15.65,115696
14-Sep-16,15.61,15.97,15.39,15.52,146407
13-Sep-16,15.81,15.96,15.30,15.57,140801
12-Sep-16,15.34,15.94,15.04,15.82,123472
9-Sep-16,16.49,17.10,15.34,15.36,249163
8-Sep-16,16.15,17.06,15.99,16.64,211709
7-Sep-16,15.76,16.24,15.76,16.20,117341
6-Sep-16,14.85,15.83,14.75,15.72,215838
2-Sep-16,14.78,14.92,14.25,14.70,62817
1-Sep-16,14.72,15.20,14.50,14.78,110695
31-Aug-16,15.00,15.10,14.33,14.77,154805
30-Aug-16,14.85,15.46,14.72,14.95,184823
29-Aug-16,14.66,15.06,14.48,14.83,78422
26-Aug-16,14.51,14.98,14.01,14.69,100701
25-Aug-16,14.40,14.98,14.06,14.54,191190
24-Aug-16,15.30,15.89,14.56,14.81,201817
23-Aug-16,15.13,15.28,14.27,15.15,151985
22-Aug-16,14.52,15.01,14.40,14.93,229560
19-Aug-16,13.91,14.61,13.80,14.40,244947
18-Aug-16,13.32,14.06,12.76,13.98,1063743
17-Aug-16,13.07,13.17,12.82,12.92,59778
16-Aug-16,13.23,13.23,12.91,13.00,183026
15-Aug-16,12.94,13.59,12.94,13.30,110735
12-Aug-16,12.65,12.98,12.38,12.88,57928
11-Aug-16,12.68,12.86,12.34,12.72,158500
10-Aug-16,13.25,13.25,12.57,12.66,203910
9-Aug-16,12.96,13.31,12.80,13.19,98260
8-Aug-16,13.00,13.03,12.75,12.97,88017
5-Aug-16,12.78,13.04,12.62,12.94,96573
4-Aug-16,12.47,13.00,12.47,12.73,129448
3-Aug-16,12.29,12.65,12.05,12.39,180006
2-Aug-16,12.45,12.70,12.22,12.29,167798
1-Aug-16,12.08,12.74,12.05,12.48,97443
29-Jul-16,12.02,12.07,11.82,11.99,74767
28-Jul-16,12.00,12.27,11.66,12.13,75882
27-Jul-16,11.70,12.11,11.70,11.99,68598
26-Jul-16,11.59,11.72,11.52,11.62,37887
25-Jul-16,11.73,11.81,11.45,11.62,86574
22-Jul-16,11.43,12.04,11.40,11.72,99051
21-Jul-16,11.21,11.83,11.21,11.39,105332
20-Jul-16,10.82,11.18,10.66,11.16,559228
19-Jul-16,10.90,10.90,10.68,10.72,190608
18-Jul-16,10.93,10.96,10.75,10.88,142809
15-Jul-16,10.77,11.02,10.27,10.96,135860
14-Jul-16,10.63,11.06,10.47,10.65,229002
13-Jul-16,11.09,11.45,10.52,10.56,344016
12-Jul-16,10.33,11.20,10.30,10.99,290526
11-Jul-16,10.53,10.82,10.29,10.36,154161
8-Jul-16,10.46,10.55,10.05,10.49,509551
7-Jul-16,10.54,10.70,9.77,10.26,283356
6-Jul-16,10.55,10.99,10.39,10.64,168198
5-Jul-16,10.95,10.96,10.45,10.47,213019
1-Jul-16,10.85,11.07,10.62,10.95,115730
30-Jun-16,10.90,11.15,10.64,10.82,171049
29-Jun-16,10.91,11.23,10.57,10.87,206169
28-Jun-16,11.27,11.39,10.76,10.88,280943
27-Jun-16,11.57,11.58,10.68,11.01,309785
24-Jun-16,12.20,12.33,11.43,11.45,1897383
23-Jun-16,12.15,12.36,12.06,12.31,170525
22-Jun-16,12.32,12.60,12.02,12.04,122401
21-Jun-16,13.50,13.50,12.27,12.44,157309
20-Jun-16,13.68,13.77,13.31,13.43,143302
17-Jun-16,13.65,13.73,13.11,13.49,229882
16-Jun-16,12.47,13.65,12.32,13.60,172514
15-Jun-16,12.77,12.77,12.23,12.48,229617
14-Jun-16,13.00,13.24,12.33,12.67,179830
13-Jun-16,13.60,13.95,12.97,13.02,398829
10-Jun-16,13.96,14.24,13.08,13.63,185930
9-Jun-16,14.52,14.66,14.06,14.11,122778
8-Jun-16,14.75,14.84,14.35,14.60,178211
7-Jun-16,14.38,15.20,14.28,14.70,151846
6-Jun-16,14.38,14.81,14.09,14.47,156982
3-Jun-16,15.28,15.28,14.27,14.34,166952
2-Jun-16,15.14,15.51,14.70,15.30,79100
1-Jun-16,15.35,15.41,14.04,15.10,103459
31-May-16,15.57,15.88,15.10,15.35,505249
27-May-16,15.46,15.67,15.11,15.47,129717
26-May-16,15.34,15.50,14.94,15.47,85771
25-May-16,14.35,15.64,14.30,15.40,284775
24-May-16,14.23,14.35,14.15,14.33,220937
23-May-16,14.14,14.31,14.01,14.20,168331
20-May-16,14.21,14.47,14.20,14.25,242365
19-May-16,14.06,14.44,14.00,14.25,196195
18-May-16,13.98,14.27,13.87,14.15,184215
17-May-16,14.10,14.30,13.61,14.03,181344
16-May-16,14.00,14.50,13.92,14.10,436288
13-May-16,13.65,14.01,12.92,13.96,100903
12-May-16,13.86,14.03,13.03,13.60,161315
11-May-16,13.89,14.18,13.56,13.75,117633
10-May-16,13.87,14.22,13.35,13.97,132858
9-May-16,13.00,13.92,12.85,13.83,113130
6-May-16,12.70,13.14,12.70,13.06,96007
5-May-16,12.78,12.93,12.61,12.78,99893
4-May-16,12.59,12.84,12.56,12.73,154584
3-May-16,12.96,13.18,12.59,12.74,118021
2-May-16,12.98,13.22,12.52,13.12,61892
29-Apr-16,13.64,13.64,12.80,12.95,151496
28-Apr-16,14.01,14.20,13.61,13.65,70153
27-Apr-16,14.20,14.86,13.97,14.06,142272
26-Apr-16,13.82,14.40,13.75,14.25,372482
25-Apr-16,14.00,14.11,13.74,13.84,81108
22-Apr-16,14.00,14.22,13.83,14.08,53690
21-Apr-16,13.86,14.18,13.75,14.13,90525
20-Apr-16,13.60,14.19,13.51,13.93,102515
19-Apr-16,13.74,13.83,13.44,13.71,129370
18-Apr-16,13.48,13.96,13.30,13.64,91532
15-Apr-16,13.24,13.69,13.24,13.44,87868
14-Apr-16,13.40,13.47,13.19,13.30,124377
13-Apr-16,13.40,13.53,13.24,13.40,92661
12-Apr-16,13.10,13.68,13.04,13.40,114107
11-Apr-16,14.10,14.10,13.02,13.10,221026
8-Apr-16,14.10,14.10,13.78,13.95,128460
7-Apr-16,14.10,14.32,13.77,13.95,228929
6-Apr-16,13.58,14.24,13.58,14.11,218702
5-Apr-16,13.83,13.99,13.40,13.54,130985
4-Apr-16,13.97,14.41,13.65,13.89,394175
1-Apr-16,13.70,14.15,13.63,13.94,142402
31-Mar-16,13.62,14.28,12.84,13.56,706353
30-Mar-16,14.00,14.20,13.25,13.57,811318
29-Mar-16,13.20,14.38,12.81,14.19,275526
28-Mar-16,13.49,13.90,13.02,13.17,143118
24-Mar-16,13.94,14.01,13.20,13.40,58756
23-Mar-16,14.65,14.88,13.91,14.08,99802
22-Mar-16,14.75,15.87,14.36,14.70,81276
21-Mar-16,14.73,15.65,14.73,14.81,106129
18-Mar-16,15.18,15.30,14.60,14.65,506432
17-Mar-16,15.29,15.29,14.75,15.05,197343
16-Mar-16,15.56,15.56,14.82,15.20,136793
15-Mar-16,16.57,16.57,15.49,15.53,86929
14-Mar-16,16.48,17.00,16.10,16.64,138842
11-Mar-16,15.90,16.92,15.70,16.46,154387
10-Mar-16,16.09,16.63,15.44,15.88,124714
9-Mar-16,16.99,17.20,15.79,16.09,256227
8-Mar-16,17.19,17.66,16.67,16.84,160304
7-Mar-16,17.85,18.48,16.87,17.25,261078
4-Mar-16,17.40,18.12,16.58,17.70,296995
3-Mar-16,17.88,18.33,17.07,17.88,156363
2-Mar-16,16.83,18.07,16.04,17.88,164171
1-Mar-16,16.50,17.00,15.97,16.84,153697
29-Feb-16,16.89,16.97,15.51,16.00,190205
26-Feb-16,16.32,17.02,15.84,16.93,166224
25-Feb-16,16.33,17.48,16.04,16.20,183910
24-Feb-16,15.82,16.44,15.16,16.21,98504
23-Feb-16,15.97,16.85,15.90,16.03,67373
22-Feb-16,17.40,18.55,15.74,16.04,142766
19-Feb-16,17.23,17.47,16.69,17.26,106683
18-Feb-16,17.17,18.14,17.00,17.26,99021
17-Feb-16,17.55,18.00,15.30,17.20,219054
16-Feb-16,16.22,18.00,16.04,16.59,237425
12-Feb-16,16.07,16.34,15.55,16.04,92660
11-Feb-16,15.15,16.20,14.13,15.95,173650
10-Feb-16,15.32,16.48,15.10,15.46,144047
9-Feb-16,14.32,15.29,14.05,15.18,131581
8-Feb-16,15.70,15.71,14.00,14.55,185512
5-Feb-16,15.88,16.15,15.53,15.60,148304
4-Feb-16,15.04,16.55,15.04,16.07,89146
3-Feb-16,14.71,15.87,14.16,15.00,153435
2-Feb-16,14.13,14.90,13.91,14.58,107210
1-Feb-16,13.77,14.72,12.43,14.30,142588
29-Jan-16,13.11,14.20,13.08,13.68,158610
28-Jan-16,14.06,14.06,12.85,13.09,69006
27-Jan-16,15.18,16.49,13.84,13.96,128966
26-Jan-16,16.01,16.35,14.96,15.28,150422
25-Jan-16,15.22,17.20,14.64,16.00,493064
22-Jan-16,13.84,17.95,12.71,15.42,752156
21-Jan-16,14.57,14.57,13.00,13.43,224099
20-Jan-16,13.67,15.24,12.97,14.63,124430
19-Jan-16,14.11,14.36,13.59,13.89,123634
15-Jan-16,13.96,14.29,13.48,13.89,155653
14-Jan-16,14.45,14.64,13.80,14.41,185699
13-Jan-16,15.76,16.15,14.13,14.40,152706
12-Jan-16,15.93,17.20,15.49,15.84,118990
11-Jan-16,19.00,19.00,14.78,15.81,317591
8-Jan-16,17.33,17.70,16.65,16.67,113956
7-Jan-16,17.66,17.68,16.91,17.24,109809
6-Jan-16,17.96,18.09,17.25,17.86,460642
5-Jan-16,18.27,18.46,17.35,18.16,164064
4-Jan-16,18.19,18.29,17.81,18.17,226951
31-Dec-15,18.80,18.90,18.26,18.45,86816
30-Dec-15,19.10,19.49,18.46,18.80,191581
29-Dec-15,19.07,19.44,18.91,19.28,81114
28-Dec-15,19.48,19.80,18.64,19.00,139619
24-Dec-15,19.29,20.05,19.29,19.88,50455
23-Dec-15,19.14,19.61,18.93,19.34,66671
22-Dec-15,16.75,19.77,16.75,19.18,110843
21-Dec-15,19.02,19.02,17.70,18.87,176742
18-Dec-15,18.24,19.84,17.90,18.82,369777
17-Dec-15,19.61,20.08,18.19,18.32,154818
16-Dec-15,18.73,19.58,18.71,19.29,107712
15-Dec-15,18.58,19.35,17.86,18.67,267361
14-Dec-15,19.95,20.33,17.97,18.52,227701
11-Dec-15,19.96,20.07,19.05,19.89,178280
10-Dec-15,19.16,20.38,18.51,20.37,90894
9-Dec-15,18.98,19.30,18.09,19.19,89239
8-Dec-15,18.71,20.76,18.06,19.04,86313
7-Dec-15,18.70,19.67,18.40,18.80,151190
4-Dec-15,19.35,19.86,17.67,18.69,184949
3-Dec-15,21.08,21.85,19.05,19.35,301781
2-Dec-15,21.06,21.37,20.72,20.88,116129
1-Dec-15,21.61,21.84,20.42,20.92,68336
30-Nov-15,21.46,22.01,20.57,21.39,208990
27-Nov-15,21.19,21.52,20.68,21.34,35942
25-Nov-15,19.96,21.44,19.02,21.24,93635
24-Nov-15,19.43,20.24,18.25,19.87,103477
23-Nov-15,21.00,21.52,18.97,19.47,166484
20-Nov-15,19.92,20.99,19.24,20.93,117046
19-Nov-15,18.71,19.92,18.45,19.77,67089
18-Nov-15,18.65,19.50,18.16,18.82,160366
17-Nov-15,18.95,19.99,18.02,18.51,202744
16-Nov-15,18.52,18.62,17.62,18.22,122684
13-Nov-15,16.85,18.09,16.61,17.66,150415
12-Nov-15,17.39,17.78,16.06,17.01,113600
11-Nov-15,18.94,20.17,17.07,17.56,177731
10-Nov-15,19.53,19.54,18.71,19.05,118708
9-Nov-15,18.68,19.88,17.85,19.63,124042
6-Nov-15,17.71,19.06,15.50,18.62,104399
5-Nov-15,17.62,18.03,16.82,17.88,70916
4-Nov-15,16.76,17.80,16.76,17.65,117878
3-Nov-15,16.21,17.49,15.83,16.78,345628
2-Nov-15,15.23,16.55,14.62,16.36,166832
30-Oct-15,15.41,15.82,14.96,15.05,78711
29-Oct-15,15.54,16.68,15.07,15.44,232175
28-Oct-15,15.29,15.77,14.92,15.54,121812
27-Oct-15,14.62,15.69,14.40,15.23,186276
26-Oct-15,14.94,15.50,14.57,14.77,126583
23-Oct-15,15.61,16.03,14.84,15.15,154462
22-Oct-15,15.09,15.76,14.94,15.55,166080
21-Oct-15,16.47,16.49,14.75,15.09,269477
20-Oct-15,15.69,16.49,15.18,16.31,192170
19-Oct-15,16.15,17.00,15.64,15.80,210703
16-Oct-15,16.58,17.86,16.03,16.27,358422
15-Oct-15,17.66,18.20,16.39,16.48,412562
14-Oct-15,19.50,19.62,17.49,17.50,148421
13-Oct-15,17.38,19.87,15.56,19.44,594566
12-Oct-15,19.18,19.18,17.01,17.10,216851
9-Oct-15,19.42,19.75,18.75,18.96,115723
8-Oct-15,20.17,20.21,19.01,19.49,106451
7-Oct-15,19.80,20.60,19.47,20.14,352911
6-Oct-15,19.53,19.98,18.51,19.72,121644
5-Oct-15,21.20,21.73,19.01,19.55,261019
2-Oct-15,22.57,23.16,21.00,21.16,514674
1-Oct-15,25.57,26.02,22.32,22.94,543665
30-Sep-15,24.39,26.50,24.30,25.32,2102739
29-Sep-15,24.11,24.98,23.78,24.10,318448
28-Sep-15,24.21,24.48,23.25,23.90,392740
25-Sep-15,25.18,25.74,24.25,24.46,140750
24-Sep-15,24.32,25.50,23.58,25.05,200524
23-Sep-15,23.92,25.23,23.74,24.64,262241
22-Sep-15,23.86,24.41,23.56,24.18,120159
21-Sep-15,24.32,25.10,23.51,24.17,214435
18-Sep-15,24.25,25.10,24.01,24.29,606394
17-Sep-15,24.03,24.75,23.66,24.34,169437
16-Sep-15,25.89,25.89,23.16,24.54,254196
15-Sep-15,24.78,25.98,24.21,25.89,100819
14-Sep-15,25.50,25.75,23.59,24.29,113239
11-Sep-15,23.31,25.19,23.03,25.01,148622
10-Sep-15,22.59,23.38,21.95,22.87,231835
9-Sep-15,22.57,23.34,22.57,22.76,135970
8-Sep-15,23.18,23.98,22.50,22.82,267450
4-Sep-15,23.34,23.54,21.88,22.59,201806
3-Sep-15,22.50,24.00,21.78,23.53,273309
2-Sep-15,22.47,22.71,21.54,22.25,157185
1-Sep-15,21.00,22.36,20.51,22.10,207839
31-Aug-15,21.60,23.24,20.51,21.09,244335
28-Aug-15,21.84,22.19,20.88,21.11,172112
27-Aug-15,23.07,23.40,21.13,21.35,88476
26-Aug-15,20.84,22.94,20.84,22.67,148912
25-Aug-15,20.93,21.62,19.87,20.74,127578
24-Aug-15,18.47,20.99,18.47,20.13,190588
21-Aug-15,21.59,22.36,20.33,21.10,188218
20-Aug-15,23.52,24.16,21.10,22.08,170734
19-Aug-15,23.50,24.80,23.23,23.77,100421
18-Aug-15,23.91,25.00,23.00,23.37,152399
17-Aug-15,25.80,26.29,22.50,24.16,248137
14-Aug-15,26.26,28.33,25.00,26.05,329713
13-Aug-15,22.50,26.67,22.19,25.52,310560
12-Aug-15,22.65,22.88,21.45,22.49,205255
11-Aug-15,22.99,23.91,22.66,23.01,325623
10-Aug-15,23.16,24.00,22.75,22.97,348019
7-Aug-15,23.50,26.50,22.88,23.00,1455098
6-Aug-15,17.50,27.00,17.50,24.10,7528303
