﻿Date,Open,High,Low,Close,Volume
20-Jun-17,22.72,22.83,22.22,22.54,2242122
19-Jun-17,22.53,22.69,22.51,22.66,1744293
16-Jun-17,22.35,22.57,22.31,22.57,3289777
15-Jun-17,22.19,22.46,22.19,22.42,3456777
14-Jun-17,22.36,22.72,22.27,22.36,4258800
13-Jun-17,21.85,22.26,21.80,22.21,5889267
12-Jun-17,21.89,22.14,21.76,21.88,2649111
9-Jun-17,22.25,22.46,21.94,22.00,2920756
8-Jun-17,22.47,22.50,22.12,22.23,3621764
7-Jun-17,22.38,22.54,22.31,22.42,2232506
6-Jun-17,22.73,22.73,22.32,22.35,2417959
5-Jun-17,23.00,23.10,22.70,22.80,2301936
2-Jun-17,22.82,23.23,22.81,23.19,1810599
1-Jun-17,22.44,22.72,22.42,22.69,1516008
31-May-17,22.39,22.56,22.39,22.47,1513066
30-May-17,22.37,22.48,22.25,22.39,1191375
26-May-17,22.40,22.48,22.28,22.36,1239025
25-May-17,22.82,22.82,22.34,22.35,2212319
24-May-17,22.53,22.80,22.49,22.72,1023691
23-May-17,22.42,22.66,22.32,22.57,1304262
22-May-17,22.24,22.42,22.15,22.31,2118731
19-May-17,22.13,22.59,22.05,22.19,3074857
18-May-17,22.21,22.23,22.02,22.16,2659294
17-May-17,22.19,22.40,22.12,22.17,1482387
16-May-17,22.57,22.62,22.17,22.24,1441280
15-May-17,22.30,22.66,22.29,22.57,1330430
12-May-17,22.53,22.57,22.28,22.30,1391273
11-May-17,22.14,22.60,22.00,22.49,2750141
10-May-17,22.23,22.41,22.05,22.07,1987804
9-May-17,22.34,22.38,22.13,22.22,2024426
8-May-17,22.29,22.38,22.18,22.32,2327594
5-May-17,22.71,23.04,22.25,22.27,2331714
4-May-17,22.92,22.92,22.52,22.69,1648149
3-May-17,23.00,23.06,22.72,22.93,1064784
2-May-17,23.24,23.28,22.81,22.90,1124869
1-May-17,23.15,23.36,23.07,23.22,1260221
28-Apr-17,23.33,23.33,22.93,23.05,1181159
27-Apr-17,23.00,23.50,23.00,23.33,1249913
26-Apr-17,23.49,23.49,23.05,23.06,1728943
25-Apr-17,23.40,23.64,23.32,23.48,1264959
24-Apr-17,23.65,23.74,22.94,23.38,1570883
21-Apr-17,23.52,23.66,23.42,23.62,1141495
20-Apr-17,23.62,23.75,23.46,23.62,1685419
19-Apr-17,23.75,23.80,23.58,23.60,895270
18-Apr-17,23.65,23.83,23.56,23.76,994220
17-Apr-17,23.29,23.58,23.27,23.58,676772
13-Apr-17,23.24,23.30,23.08,23.23,1865795
12-Apr-17,23.47,23.53,23.29,23.31,1609538
11-Apr-17,23.39,23.57,23.31,23.50,1072200
10-Apr-17,23.75,23.75,23.32,23.40,1401582
7-Apr-17,23.67,23.80,23.58,23.75,2675529
6-Apr-17,23.45,23.68,23.40,23.62,2085287
5-Apr-17,23.44,23.48,23.29,23.40,1759110
4-Apr-17,22.95,23.52,22.86,23.38,2243510
3-Apr-17,22.97,23.02,22.77,22.94,2105122
31-Mar-17,22.96,23.08,22.89,22.96,2010866
30-Mar-17,22.91,23.09,22.87,22.98,1297915
29-Mar-17,22.97,23.01,22.72,22.93,2673972
28-Mar-17,23.16,23.24,22.81,22.96,2356166
27-Mar-17,23.30,23.42,23.03,23.16,2439588
24-Mar-17,23.67,23.76,23.38,23.38,2522842
23-Mar-17,22.91,23.67,22.89,23.50,9115920
22-Mar-17,22.99,23.34,22.89,23.23,1574089
21-Mar-17,23.11,23.18,22.83,22.91,1411886
20-Mar-17,23.18,23.29,23.03,23.07,1554239
17-Mar-17,22.94,23.21,22.83,23.19,4231785
16-Mar-17,22.47,22.86,22.45,22.81,3104155
15-Mar-17,22.30,22.65,22.23,22.47,2511860
14-Mar-17,22.28,22.48,22.12,22.30,1751760
13-Mar-17,22.28,22.51,22.22,22.34,1827344
10-Mar-17,22.34,22.47,22.12,22.29,1734685
9-Mar-17,22.70,22.76,22.04,22.18,2001620
8-Mar-17,22.92,22.94,22.58,22.68,2068942
7-Mar-17,23.14,23.26,22.83,22.99,3330506
6-Mar-17,23.47,23.48,23.16,23.23,1506534
3-Mar-17,23.61,23.70,23.33,23.44,2754015
2-Mar-17,23.43,23.59,23.15,23.50,2661871
1-Mar-17,23.72,23.81,23.03,23.41,3432280
28-Feb-17,23.68,23.90,23.59,23.77,3223124
27-Feb-17,23.43,23.98,23.31,23.67,2133416
24-Feb-17,23.38,23.85,23.15,23.65,2075189
23-Feb-17,23.31,23.43,23.10,23.38,1217859
22-Feb-17,23.29,23.33,23.07,23.19,1653022
21-Feb-17,23.02,23.30,22.90,23.23,1104547
17-Feb-17,22.89,23.06,22.71,22.98,1174573
16-Feb-17,22.91,23.14,22.89,22.92,1286612
15-Feb-17,22.88,23.00,22.65,22.94,2282507
14-Feb-17,22.80,23.00,22.71,22.91,1644575
13-Feb-17,22.97,23.13,22.80,22.87,2149664
10-Feb-17,22.80,23.01,22.76,22.90,1192107
9-Feb-17,22.57,22.90,22.55,22.84,1831085
8-Feb-17,22.61,22.75,22.50,22.69,994371
7-Feb-17,22.73,22.89,22.52,22.59,1417686
6-Feb-17,22.57,22.85,22.45,22.76,1611281
3-Feb-17,22.68,22.78,22.58,22.60,1469161
2-Feb-17,22.26,22.54,22.19,22.49,2839387
1-Feb-17,22.30,22.55,22.13,22.25,4014964
31-Jan-17,21.95,22.49,21.95,22.28,4190576
30-Jan-17,21.48,21.92,21.32,21.92,2784467
27-Jan-17,21.50,21.58,21.38,21.46,1468903
26-Jan-17,21.29,21.55,21.29,21.44,938724
25-Jan-17,21.12,21.40,21.10,21.37,2186339
24-Jan-17,21.17,21.32,20.95,21.11,3108676
23-Jan-17,21.12,21.32,21.00,21.21,1806184
20-Jan-17,20.88,21.23,20.82,21.13,1843013
19-Jan-17,20.83,21.04,20.70,20.94,3156899
18-Jan-17,20.88,21.05,20.80,20.94,1695968
17-Jan-17,20.88,21.04,20.78,20.82,1107759
13-Jan-17,20.77,20.91,20.54,20.86,1143089
12-Jan-17,20.41,20.82,20.29,20.75,1923466
11-Jan-17,20.34,20.44,20.10,20.43,1641801
10-Jan-17,20.51,20.53,20.26,20.34,1605136
9-Jan-17,21.20,21.20,20.45,20.46,1523000
6-Jan-17,21.12,21.29,21.06,21.11,1514401
5-Jan-17,20.93,21.34,20.83,21.22,1229382
4-Jan-17,20.88,21.12,20.76,20.95,2277574
3-Jan-17,21.02,21.07,20.64,20.78,1365467
30-Dec-16,20.79,21.00,20.69,20.98,1442665
29-Dec-16,20.55,20.96,20.38,20.83,1454150
28-Dec-16,20.58,20.75,20.52,20.59,965596
27-Dec-16,20.55,20.75,20.42,20.63,1354933
23-Dec-16,20.46,20.60,20.31,20.56,1077899
22-Dec-16,20.16,20.45,20.09,20.37,2267352
21-Dec-16,20.47,20.65,20.20,20.24,2101772
20-Dec-16,20.20,20.62,20.17,20.51,2600223
19-Dec-16,20.01,20.29,19.93,20.29,2229236
16-Dec-16,19.90,20.06,19.76,19.94,2952558
15-Dec-16,19.75,19.99,19.62,19.74,5513142
14-Dec-16,20.57,20.57,19.75,19.81,5878893
13-Dec-16,20.35,20.54,20.12,20.48,4402305
12-Dec-16,21.13,21.24,20.69,20.74,2343691
9-Dec-16,20.95,21.28,20.95,21.25,2199423
8-Dec-16,20.86,21.17,20.70,21.04,2454673
7-Dec-16,21.12,21.30,20.99,21.08,4096150
6-Dec-16,21.29,21.48,21.00,21.11,1551756
5-Dec-16,20.98,21.21,20.90,21.20,2098620
2-Dec-16,20.54,20.87,20.44,20.80,1627488
1-Dec-16,21.03,21.05,20.35,20.47,2062911
30-Nov-16,21.03,21.22,20.88,21.07,2905156
29-Nov-16,21.17,21.32,21.00,21.11,3214199
28-Nov-16,21.14,21.52,21.14,21.27,4152803
25-Nov-16,21.14,21.43,20.98,21.25,1139380
23-Nov-16,20.88,21.20,20.79,21.18,2843952
22-Nov-16,21.03,21.29,20.91,20.99,3433794
21-Nov-16,21.22,21.38,20.88,20.96,2552507
18-Nov-16,20.77,21.28,20.74,21.14,2716848
17-Nov-16,20.85,20.96,20.56,20.60,656569
16-Nov-16,20.51,20.86,20.47,20.83,1379698
15-Nov-16,20.51,20.89,20.44,20.52,2198587
14-Nov-16,20.56,20.84,20.32,20.53,2672106
11-Nov-16,20.64,20.85,20.38,20.50,2659774
10-Nov-16,20.75,20.83,20.32,20.51,2915193
9-Nov-16,20.91,21.01,20.57,20.75,2300840
8-Nov-16,21.52,21.54,21.14,21.24,1269081
7-Nov-16,21.44,21.65,21.38,21.53,1617053
4-Nov-16,20.75,21.29,20.36,21.25,2876415
3-Nov-16,20.25,20.58,20.19,20.36,2225902
2-Nov-16,20.44,20.49,20.15,20.20,1610425
1-Nov-16,20.83,21.12,20.33,20.39,1274262
31-Oct-16,20.76,21.13,20.60,21.11,1750176
28-Oct-16,20.67,20.92,20.56,20.62,1474247
27-Oct-16,20.99,20.99,20.49,20.60,1138817
26-Oct-16,21.24,21.28,20.74,20.97,1299759
25-Oct-16,21.27,21.38,21.08,21.37,1248973
24-Oct-16,21.42,21.61,21.23,21.34,1854332
21-Oct-16,21.05,21.46,21.00,21.31,1884105
20-Oct-16,21.08,21.24,21.02,21.21,2134247
19-Oct-16,20.85,21.10,20.74,21.10,1573169
18-Oct-16,20.69,20.85,20.62,20.79,1209430
17-Oct-16,20.37,20.68,20.34,20.53,1395196
14-Oct-16,20.73,20.82,20.31,20.33,1272109
13-Oct-16,20.36,20.70,20.23,20.66,1120691
12-Oct-16,20.32,20.51,20.26,20.46,1306093
11-Oct-16,20.57,20.67,20.26,20.30,1127204
10-Oct-16,20.56,20.64,20.34,20.41,1263082
7-Oct-16,20.39,20.73,20.24,20.46,1363336
6-Oct-16,20.11,20.56,19.89,20.35,2496339
5-Oct-16,20.54,20.76,20.09,20.18,2280365
4-Oct-16,21.22,21.22,20.50,20.56,3305294
3-Oct-16,21.52,21.52,20.91,21.29,3321183
30-Sep-16,21.72,21.88,21.24,21.64,4197618
29-Sep-16,21.50,21.83,21.23,21.60,2879925
28-Sep-16,21.59,21.73,21.37,21.50,1491224
27-Sep-16,21.75,21.82,21.57,21.62,3090894
26-Sep-16,21.79,21.84,21.59,21.66,2775303
23-Sep-16,21.68,21.83,21.47,21.80,4813936
22-Sep-16,21.70,21.88,21.63,21.72,2339217
21-Sep-16,21.63,21.71,21.10,21.54,3545676
20-Sep-16,21.63,21.72,21.44,21.54,2658623
19-Sep-16,21.08,21.48,20.95,21.46,1152114
16-Sep-16,21.00,21.14,20.92,21.07,4042545
15-Sep-16,21.02,21.14,20.78,21.10,2706147
14-Sep-16,21.18,21.32,20.78,20.97,3356613
13-Sep-16,21.75,21.99,21.17,21.17,3650280
12-Sep-16,21.51,22.06,21.51,21.93,7769747
9-Sep-16,21.78,21.83,21.37,21.50,6505338
8-Sep-16,22.13,22.24,21.95,22.00,15907252
7-Sep-16,22.73,22.77,22.55,22.77,934127
6-Sep-16,22.36,22.70,22.20,22.68,2019530
2-Sep-16,22.03,22.53,22.03,22.32,1849304
1-Sep-16,21.91,22.01,21.76,21.92,1058817
31-Aug-16,21.85,21.99,21.66,21.87,1935799
30-Aug-16,22.17,22.17,21.70,21.82,1542940
29-Aug-16,22.08,22.30,22.05,22.09,826080
26-Aug-16,22.11,22.16,21.83,22.07,1702408
25-Aug-16,21.87,22.25,21.83,22.03,791367
24-Aug-16,22.00,22.02,21.66,21.87,1110240
23-Aug-16,22.08,22.11,21.96,22.03,1707531
22-Aug-16,22.16,22.28,21.94,21.96,1707832
19-Aug-16,22.40,22.42,22.15,22.20,759228
18-Aug-16,22.51,22.56,22.22,22.50,2144352
17-Aug-16,22.45,22.53,22.29,22.47,1757576
16-Aug-16,22.44,22.45,22.18,22.39,811774
15-Aug-16,22.27,22.47,22.27,22.42,1553833
12-Aug-16,22.33,22.60,22.23,22.27,1258631
11-Aug-16,22.69,22.70,22.16,22.30,1514122
10-Aug-16,22.65,22.71,22.52,22.62,1505068
9-Aug-16,22.73,22.83,22.53,22.62,2592984
8-Aug-16,22.63,22.99,22.50,22.84,3107169
5-Aug-16,22.14,22.45,21.82,22.45,2022304
4-Aug-16,21.52,21.67,21.41,21.58,1083826
3-Aug-16,21.53,21.68,21.38,21.50,1308215
2-Aug-16,21.63,21.77,21.55,21.57,1173569
1-Aug-16,21.74,21.79,21.62,21.73,714049
29-Jul-16,21.38,21.77,21.38,21.70,970592
28-Jul-16,21.11,21.59,21.10,21.43,1026018
27-Jul-16,21.31,21.35,20.90,21.15,2585087
26-Jul-16,21.31,21.37,21.13,21.28,952320
25-Jul-16,21.31,21.44,21.24,21.37,1211099
22-Jul-16,21.07,21.34,21.00,21.27,2225736
21-Jul-16,21.26,21.28,20.94,21.05,5320281
20-Jul-16,21.17,21.25,21.09,21.25,2082875
19-Jul-16,20.90,21.15,20.86,21.13,2910737
18-Jul-16,20.93,21.12,20.80,20.99,2791377
15-Jul-16,20.78,20.86,20.62,20.85,5969520
14-Jul-16,20.94,21.02,20.78,20.82,1282237
13-Jul-16,21.00,21.03,20.73,20.92,2795867
12-Jul-16,21.15,21.25,20.94,20.99,2517281
11-Jul-16,21.01,21.12,20.82,21.09,2140132
8-Jul-16,20.52,20.95,20.48,20.93,2191610
7-Jul-16,20.76,20.76,20.38,20.43,3393180
6-Jul-16,20.77,21.03,20.66,20.77,3680026
5-Jul-16,20.60,20.87,20.50,20.83,1593548
1-Jul-16,20.57,20.66,20.39,20.65,2202159
30-Jun-16,20.27,20.48,20.12,20.48,2472962
29-Jun-16,20.10,20.47,20.03,20.26,4640069
28-Jun-16,19.33,20.06,19.28,19.98,5535763
27-Jun-16,19.00,19.34,18.93,19.16,5909104
24-Jun-16,18.57,19.16,18.47,19.12,6792193
23-Jun-16,18.94,19.08,18.90,18.99,3341385
22-Jun-16,18.75,18.86,18.66,18.81,2647884
21-Jun-16,18.65,18.82,18.56,18.80,2103905
20-Jun-16,18.43,18.70,18.40,18.64,2945757
17-Jun-16,17.95,18.42,17.91,18.36,5617477
16-Jun-16,17.88,18.05,17.76,18.02,1568936
15-Jun-16,17.57,17.99,17.54,17.92,2968479
14-Jun-16,17.86,17.90,17.53,17.54,2054709
13-Jun-16,18.06,18.06,17.85,17.89,2078509
10-Jun-16,17.91,18.08,17.88,18.04,1502840
9-Jun-16,18.02,18.14,17.91,18.08,1341460
8-Jun-16,17.80,18.04,17.77,18.01,1070689
7-Jun-16,17.84,17.95,17.77,17.85,2060769
6-Jun-16,18.21,18.26,17.81,17.85,2726726
3-Jun-16,18.43,18.60,18.22,18.26,1063251
2-Jun-16,18.42,18.49,18.28,18.40,1311908
1-Jun-16,18.33,18.50,18.25,18.44,2061956
31-May-16,18.60,18.64,18.31,18.34,1816694
27-May-16,18.48,18.81,18.48,18.58,2792301
26-May-16,18.22,18.59,18.22,18.53,2220116
25-May-16,18.04,18.34,17.98,18.29,2202597
24-May-16,17.74,18.04,17.66,17.97,2233306
23-May-16,17.83,17.87,17.62,17.64,1377328
20-May-16,17.48,17.77,17.48,17.77,1086227
19-May-16,17.32,17.55,17.12,17.49,1503252
18-May-16,17.71,17.76,17.33,17.45,2765492
17-May-16,17.93,18.09,17.63,17.73,1665308
16-May-16,17.71,18.19,17.71,17.99,3020093
13-May-16,17.62,17.77,17.56,17.74,1249172
12-May-16,17.49,17.78,17.34,17.73,2209560
11-May-16,17.50,17.68,17.37,17.41,2355742
10-May-16,17.54,17.79,17.36,17.51,4535960
9-May-16,17.23,17.72,17.18,17.49,2937474
6-May-16,16.15,17.12,16.15,17.11,3947531
5-May-16,16.20,16.25,16.06,16.23,1697936
4-May-16,15.92,16.19,15.87,16.16,1520268
3-May-16,15.90,16.04,15.75,15.98,900597
2-May-16,15.83,16.06,15.81,16.05,1192453
29-Apr-16,15.93,15.94,15.64,15.82,1036450
28-Apr-16,15.77,15.97,15.74,15.95,1200672
27-Apr-16,15.80,15.87,15.74,15.81,611130
26-Apr-16,15.73,15.84,15.71,15.84,573828
25-Apr-16,15.69,15.75,15.63,15.75,479759
22-Apr-16,15.64,15.77,15.60,15.73,504331
21-Apr-16,16.01,16.01,15.58,15.62,914854
20-Apr-16,15.97,16.11,15.88,15.98,1487463
19-Apr-16,15.94,16.18,15.94,16.00,1480962
18-Apr-16,15.74,15.92,15.64,15.92,705985
15-Apr-16,15.58,15.82,15.57,15.76,1141382
14-Apr-16,15.57,15.64,15.54,15.62,1738262
13-Apr-16,15.69,15.78,15.36,15.63,1812298
12-Apr-16,15.69,15.75,15.62,15.67,721077
11-Apr-16,15.73,15.87,15.61,15.64,837156
8-Apr-16,15.79,15.85,15.63,15.67,2172097
7-Apr-16,15.76,15.84,15.63,15.73,2030617
6-Apr-16,15.64,15.86,15.62,15.81,559234
5-Apr-16,15.57,15.71,15.54,15.67,2201614
4-Apr-16,15.84,15.90,15.60,15.66,1231302
1-Apr-16,15.82,15.89,15.56,15.86,2277505
31-Mar-16,15.73,15.91,15.61,15.90,2085162
30-Mar-16,15.81,15.84,15.65,15.71,584011
29-Mar-16,15.62,15.75,15.52,15.74,1003949
28-Mar-16,15.42,15.66,15.39,15.60,1238071
24-Mar-16,15.26,15.50,15.07,15.38,2287615
23-Mar-16,15.61,15.67,15.25,15.26,2126348
22-Mar-16,15.64,15.70,15.60,15.63,918044
21-Mar-16,15.69,15.85,15.58,15.68,1252962
18-Mar-16,15.78,15.80,15.63,15.71,2556567
17-Mar-16,15.78,15.90,15.70,15.73,2260816
16-Mar-16,15.63,15.80,15.59,15.78,688798
15-Mar-16,15.67,15.71,15.56,15.60,627647
14-Mar-16,15.68,15.81,15.62,15.79,768384
11-Mar-16,15.34,15.78,15.26,15.73,1667188
10-Mar-16,15.57,15.68,15.26,15.33,1958913
9-Mar-16,15.42,15.57,15.18,15.47,2012216
8-Mar-16,15.35,15.64,15.27,15.56,1682026
7-Mar-16,15.49,15.51,15.35,15.45,1378655
4-Mar-16,15.32,15.56,15.28,15.55,1664798
3-Mar-16,15.06,15.35,15.00,15.35,1345770
2-Mar-16,14.92,15.11,14.69,15.09,2693640
1-Mar-16,14.20,15.07,14.07,15.05,4129545
29-Feb-16,14.10,14.24,13.97,14.00,8696346
26-Feb-16,14.10,14.60,14.02,14.21,4760545
25-Feb-16,13.62,14.03,13.62,14.00,1803224
24-Feb-16,13.58,13.68,13.38,13.59,824119
23-Feb-16,13.74,13.93,13.61,13.65,969233
22-Feb-16,13.91,14.07,13.76,13.78,1433850
19-Feb-16,13.70,13.86,13.63,13.81,1421996
18-Feb-16,13.84,13.84,13.67,13.74,913707
17-Feb-16,13.77,13.94,13.75,13.78,1205676
16-Feb-16,13.60,13.72,13.43,13.68,1003580
12-Feb-16,13.31,13.60,13.22,13.51,1125995
11-Feb-16,13.48,13.50,13.16,13.21,1302324
10-Feb-16,13.58,14.01,13.58,13.65,1203815
9-Feb-16,13.90,14.04,13.49,13.54,1479236
8-Feb-16,14.47,14.47,13.91,14.04,1477005
5-Feb-16,14.86,14.91,14.50,14.57,1063779
4-Feb-16,14.85,15.03,14.76,14.89,1183560
3-Feb-16,14.78,15.09,14.70,14.96,1164013
2-Feb-16,14.97,14.97,14.70,14.73,1135034
1-Feb-16,14.95,15.13,14.90,15.02,980487
29-Jan-16,14.83,15.00,14.79,14.99,1455611
28-Jan-16,15.02,15.07,14.71,14.80,1338653
27-Jan-16,14.99,15.16,14.81,14.89,1375534
26-Jan-16,14.70,15.02,14.65,15.02,1511685
25-Jan-16,14.94,15.09,14.62,14.65,1117288
22-Jan-16,14.81,15.04,14.75,14.97,1065187
21-Jan-16,14.84,14.92,14.54,14.64,1472384
20-Jan-16,14.75,15.00,14.30,14.79,2728099
19-Jan-16,14.91,15.02,14.80,14.86,1245474
15-Jan-16,14.83,14.99,14.74,14.84,1596664
14-Jan-16,15.19,15.24,14.92,15.00,1455404
13-Jan-16,15.48,15.52,15.17,15.17,2160354
12-Jan-16,15.71,15.72,15.34,15.46,1452555
11-Jan-16,15.74,15.85,15.63,15.66,2045936
8-Jan-16,15.94,16.09,15.66,15.69,1532372
7-Jan-16,16.04,16.19,15.92,15.92,1293754
6-Jan-16,16.27,16.35,16.16,16.26,898624
5-Jan-16,16.36,16.48,16.26,16.38,1052363
4-Jan-16,16.50,16.54,16.24,16.36,1227359
31-Dec-15,16.60,16.78,16.57,16.66,973254
30-Dec-15,16.63,16.71,16.58,16.64,566700
29-Dec-15,16.47,16.64,16.46,16.64,681691
28-Dec-15,16.31,16.44,16.25,16.42,934894
24-Dec-15,16.41,16.45,16.30,16.32,436652
23-Dec-15,16.44,16.48,16.32,16.40,1083879
22-Dec-15,16.36,16.50,16.32,16.37,1296516
21-Dec-15,16.10,16.32,16.02,16.32,1126581
18-Dec-15,16.22,16.29,15.95,16.06,4233278
17-Dec-15,16.12,16.43,16.05,16.26,2484214
16-Dec-15,16.22,16.48,16.15,16.41,2873407
15-Dec-15,16.16,16.37,16.12,16.16,7204144
14-Dec-15,15.93,16.06,15.80,16.05,4171473
11-Dec-15,16.20,16.23,15.88,15.91,5206574
10-Dec-15,16.12,16.34,16.08,16.26,10932658
9-Dec-15,16.12,16.19,15.98,16.10,3365575
8-Dec-15,16.31,17.34,16.10,16.14,4709920
7-Dec-15,16.06,16.12,15.84,15.85,2176456
4-Dec-15,15.84,16.19,15.80,16.10,2626402
3-Dec-15,16.75,17.11,15.94,15.98,10827637
2-Dec-15,16.76,16.91,16.68,16.75,1232525
1-Dec-15,16.83,16.90,16.72,16.79,1058129
30-Nov-15,16.63,16.96,16.63,16.78,1683111
27-Nov-15,16.60,16.69,16.60,16.65,1037897
25-Nov-15,16.82,16.82,16.59,16.61,891575
24-Nov-15,16.62,16.88,16.55,16.84,905776
23-Nov-15,16.52,16.71,16.52,16.63,500221
20-Nov-15,16.42,16.59,16.41,16.53,657711
19-Nov-15,16.24,16.57,16.24,16.34,922962
18-Nov-15,16.33,16.36,16.20,16.22,1191999
17-Nov-15,16.44,16.61,16.27,16.27,739743
16-Nov-15,16.23,16.47,16.16,16.47,700026
13-Nov-15,16.41,16.46,16.17,16.24,590294
12-Nov-15,16.70,16.70,16.40,16.40,441950
11-Nov-15,16.65,16.76,16.48,16.71,931131
10-Nov-15,16.26,16.67,16.21,16.64,1350667
9-Nov-15,16.27,16.40,16.17,16.31,1577029
6-Nov-15,16.57,16.57,15.93,16.32,2390019
5-Nov-15,16.91,16.91,16.36,16.44,1911620
4-Nov-15,16.77,16.96,16.74,16.93,1000317
3-Nov-15,16.80,16.84,16.64,16.77,825936
2-Nov-15,16.48,16.86,16.45,16.84,577227
30-Oct-15,16.60,16.68,16.43,16.50,821904
29-Oct-15,16.49,16.71,16.48,16.64,826845
28-Oct-15,16.79,16.85,16.37,16.59,1132366
27-Oct-15,16.78,16.88,16.73,16.78,781965
26-Oct-15,16.82,16.90,16.68,16.80,477358
23-Oct-15,17.02,17.03,16.79,16.84,1056916
22-Oct-15,16.83,17.02,16.81,16.98,668280
21-Oct-15,16.99,17.00,16.74,16.79,685715
20-Oct-15,16.86,17.00,16.81,17.00,634191
19-Oct-15,16.75,16.89,16.74,16.89,527814
16-Oct-15,16.75,16.82,16.70,16.80,631141
15-Oct-15,16.65,16.76,16.58,16.75,454977
14-Oct-15,16.51,16.77,16.46,16.63,739637
13-Oct-15,16.72,16.72,16.43,16.51,905900
12-Oct-15,16.69,16.76,16.64,16.75,725217
9-Oct-15,16.76,16.77,16.62,16.72,600944
8-Oct-15,16.65,16.76,16.52,16.75,867711
7-Oct-15,16.39,16.68,16.32,16.68,1086472
6-Oct-15,16.44,16.50,16.33,16.39,891348
5-Oct-15,16.52,16.54,16.40,16.44,1589549
2-Oct-15,16.18,16.52,15.98,16.48,1975370
1-Oct-15,16.08,16.23,15.97,16.23,2595933
30-Sep-15,16.01,16.12,15.79,16.08,1587671
29-Sep-15,15.86,15.94,15.67,15.89,4863889
28-Sep-15,15.99,16.03,15.69,15.81,1498312
25-Sep-15,16.23,16.30,16.02,16.07,1033825
24-Sep-15,16.40,16.50,16.05,16.12,1928015
23-Sep-15,16.50,16.60,16.36,16.48,1666025
22-Sep-15,16.42,16.57,16.31,16.43,1332046
21-Sep-15,16.38,16.92,16.38,16.51,4390533
18-Sep-15,16.03,16.28,16.00,16.26,4504190
17-Sep-15,16.02,16.36,15.96,16.15,1246789
16-Sep-15,15.83,16.04,15.81,16.02,1044767
15-Sep-15,15.66,15.85,15.59,15.81,1206803
14-Sep-15,15.75,15.75,15.62,15.67,822194
11-Sep-15,15.50,15.67,15.32,15.67,1149560
10-Sep-15,15.65,15.70,15.38,15.56,1449067
9-Sep-15,15.84,15.87,15.63,15.65,1211950
8-Sep-15,15.70,15.87,15.61,15.78,1666015
4-Sep-15,15.63,15.75,15.48,15.59,3429558
3-Sep-15,15.79,15.90,15.63,15.71,3641492
2-Sep-15,15.80,15.93,15.68,15.75,2038742
1-Sep-15,15.83,15.94,15.55,15.64,2788295
31-Aug-15,16.12,16.26,15.90,15.98,2410550
28-Aug-15,15.93,16.33,15.80,16.12,2637090
27-Aug-15,15.50,15.98,15.46,15.90,6895928
26-Aug-15,15.58,15.66,15.36,15.44,9150624
25-Aug-15,15.51,15.64,15.38,15.40,5286783
24-Aug-15,15.29,15.68,15.09,15.30,4457105
21-Aug-15,15.60,15.84,15.51,15.65,3399612
20-Aug-15,15.43,15.70,15.35,15.58,3632162
19-Aug-15,15.61,15.69,15.50,15.52,2411677
18-Aug-15,15.68,15.74,15.58,15.66,1296489
17-Aug-15,15.61,15.73,15.58,15.68,2645575
14-Aug-15,15.73,15.80,15.62,15.68,3287123
13-Aug-15,15.63,15.78,15.50,15.72,856319
12-Aug-15,15.66,15.72,15.57,15.66,1577438
11-Aug-15,15.68,15.77,15.63,15.71,1490918
10-Aug-15,15.87,15.87,15.59,15.72,4176969
7-Aug-15,16.35,16.45,15.68,15.88,4855808
6-Aug-15,16.66,16.66,16.38,16.50,663787
5-Aug-15,16.71,16.80,16.58,16.63,671117
4-Aug-15,16.84,16.99,16.67,16.69,2485792
3-Aug-15,16.54,16.87,16.48,16.81,2919857
31-Jul-15,16.60,16.72,16.44,16.55,1656578
30-Jul-15,16.45,16.67,16.39,16.55,1352767
29-Jul-15,16.15,16.66,16.07,16.47,2687079
28-Jul-15,15.99,16.22,15.86,16.16,1972016
27-Jul-15,16.04,16.16,15.92,15.95,726101
24-Jul-15,16.08,16.14,15.94,16.08,1083300
23-Jul-15,16.19,16.23,15.95,16.06,674120
22-Jul-15,16.14,16.35,16.14,16.18,1069659
21-Jul-15,16.16,16.24,16.12,16.12,1001735
20-Jul-15,16.19,16.20,16.09,16.15,549407
17-Jul-15,16.38,16.41,16.19,16.19,994910
16-Jul-15,16.29,16.43,16.24,16.38,1246614
15-Jul-15,16.27,16.33,16.21,16.26,461550
14-Jul-15,16.45,16.45,16.27,16.28,930950
13-Jul-15,16.41,16.54,16.33,16.46,933295
10-Jul-15,16.42,16.44,16.31,16.35,996334
9-Jul-15,16.42,16.45,16.22,16.27,837957
8-Jul-15,16.45,16.54,16.31,16.38,648102
7-Jul-15,16.51,16.54,16.35,16.53,1136933
6-Jul-15,16.39,16.49,16.34,16.47,611411
2-Jul-15,16.43,16.54,16.32,16.43,1057628
1-Jul-15,16.02,16.40,16.01,16.39,2490620
30-Jun-15,15.97,16.25,15.89,16.04,2427100
29-Jun-15,16.25,16.30,15.93,15.93,857762
26-Jun-15,16.14,16.26,16.08,16.25,1340440
25-Jun-15,16.32,16.39,16.19,16.21,1077998
24-Jun-15,16.62,16.62,16.29,16.31,2063606
23-Jun-15,16.66,16.70,16.53,16.58,817511
22-Jun-15,16.79,16.86,16.63,16.63,1101170
19-Jun-15,16.84,16.92,16.67,16.78,1583161
18-Jun-15,16.70,16.93,16.69,16.79,1049289
17-Jun-15,16.57,16.74,16.40,16.68,1209591
16-Jun-15,16.55,16.70,16.46,16.56,1834825
15-Jun-15,16.88,16.92,16.49,16.53,2556580
12-Jun-15,17.16,17.25,16.89,16.91,3315339
11-Jun-15,17.15,17.30,17.03,17.10,4333071
10-Jun-15,16.95,17.20,16.90,17.10,1675936
9-Jun-15,16.83,16.97,16.73,16.95,1144344
8-Jun-15,16.51,16.78,16.40,16.76,1290139
5-Jun-15,16.58,16.62,16.45,16.48,1739941
4-Jun-15,16.87,16.89,16.67,16.71,993190
3-Jun-15,16.80,16.87,16.76,16.85,1126802
2-Jun-15,16.79,16.96,16.78,16.84,1831095
1-Jun-15,16.74,16.84,16.67,16.78,1144503
29-May-15,16.69,16.70,16.54,16.69,1552066
28-May-15,16.70,16.77,16.56,16.65,767788
27-May-15,16.75,16.77,16.68,16.73,1930516
26-May-15,16.81,16.87,16.70,16.75,1440340
22-May-15,16.87,16.92,16.79,16.82,864042
21-May-15,16.81,16.90,16.78,16.84,1074947
20-May-15,16.80,16.86,16.75,16.83,794456
19-May-15,16.67,16.84,16.64,16.75,915966
18-May-15,16.43,16.69,16.43,16.67,1038272
15-May-15,16.44,16.68,16.43,16.49,552486
14-May-15,16.35,16.47,16.32,16.45,662675
13-May-15,16.64,16.73,16.30,16.32,1081313
12-May-15,16.68,16.72,16.41,16.59,882829
11-May-15,16.72,16.99,16.69,16.73,1788350
8-May-15,16.81,16.89,16.36,16.79,2351651
7-May-15,16.53,16.67,16.46,16.60,957515
6-May-15,16.55,16.59,16.42,16.50,899453
5-May-15,16.86,16.89,16.48,16.57,1233080
4-May-15,16.84,16.96,16.78,16.84,578766
1-May-15,16.88,17.00,16.78,16.83,843439
30-Apr-15,17.05,17.05,16.80,16.89,831516
29-Apr-15,17.17,17.23,17.02,17.06,861433
28-Apr-15,17.15,17.25,17.08,17.22,920517
27-Apr-15,17.22,17.36,17.12,17.18,676202
24-Apr-15,17.11,17.23,17.08,17.20,682466
23-Apr-15,17.11,17.17,17.01,17.10,340624
22-Apr-15,17.10,17.22,17.05,17.10,577787
21-Apr-15,17.06,17.12,16.99,17.10,808393
20-Apr-15,17.07,17.11,16.97,17.03,701088
17-Apr-15,17.04,17.12,16.96,17.07,1659531
16-Apr-15,17.05,17.17,17.05,17.15,839697
15-Apr-15,17.20,17.20,17.09,17.12,1467094
14-Apr-15,17.09,17.28,17.06,17.15,874480
13-Apr-15,17.22,17.24,17.10,17.10,717674
10-Apr-15,17.26,17.33,17.10,17.23,1442770
9-Apr-15,17.31,17.39,17.10,17.18,1447880
8-Apr-15,17.09,17.35,17.01,17.33,1344009
7-Apr-15,17.14,17.26,16.96,17.09,3266648
6-Apr-15,16.71,17.12,16.71,17.11,6396637
2-Apr-15,16.52,16.72,16.50,16.69,1754125
1-Apr-15,16.49,16.70,16.40,16.54,1233886
31-Mar-15,16.42,16.64,16.31,16.55,2187150
30-Mar-15,16.32,16.46,16.27,16.43,1280696
27-Mar-15,16.30,16.36,16.21,16.29,940409
26-Mar-15,16.48,16.55,16.24,16.29,1329565
25-Mar-15,16.68,16.77,16.48,16.49,1114875
24-Mar-15,16.73,16.80,16.63,16.65,1409338
23-Mar-15,16.78,16.84,16.72,16.75,1848373
20-Mar-15,16.50,16.60,16.44,16.55,1933997
19-Mar-15,16.64,16.71,16.45,16.48,825077
18-Mar-15,16.45,16.68,16.34,16.64,1363399
17-Mar-15,16.43,16.48,16.33,16.45,977257
16-Mar-15,16.44,16.53,16.40,16.44,796082
13-Mar-15,16.32,16.46,16.25,16.37,1143433
12-Mar-15,16.30,16.35,16.20,16.30,1684276
11-Mar-15,16.26,16.32,16.13,16.24,1398300
10-Mar-15,16.38,16.42,16.18,16.20,738496
9-Mar-15,16.16,16.45,16.14,16.40,1302976
6-Mar-15,16.11,16.28,15.91,16.13,1371574
5-Mar-15,16.47,16.59,16.22,16.25,1101051
4-Mar-15,16.50,16.62,16.45,16.47,533785
3-Mar-15,16.66,16.71,16.52,16.55,610215
2-Mar-15,16.51,16.80,16.48,16.69,953873
27-Feb-15,16.47,16.84,16.18,16.69,3994306
26-Feb-15,16.51,16.55,16.38,16.48,927127
25-Feb-15,16.72,16.74,16.52,16.54,1140906
24-Feb-15,16.55,16.73,16.54,16.69,642480
23-Feb-15,16.60,16.71,16.50,16.62,993915
20-Feb-15,16.51,16.67,16.48,16.58,447250
19-Feb-15,16.71,16.71,16.49,16.54,497216
18-Feb-15,16.69,16.73,16.53,16.71,467841
17-Feb-15,16.62,16.78,16.51,16.71,506267
13-Feb-15,16.71,16.77,16.52,16.58,401560
12-Feb-15,16.56,16.74,16.54,16.68,437634
11-Feb-15,16.54,16.63,16.46,16.55,457810
10-Feb-15,16.53,16.60,16.37,16.55,566980
9-Feb-15,16.59,16.69,16.45,16.50,383966
6-Feb-15,16.88,16.94,16.51,16.59,598054
5-Feb-15,16.77,16.95,16.68,16.94,440211
4-Feb-15,16.43,16.83,16.36,16.71,1273213
3-Feb-15,16.26,16.49,16.25,16.43,1834934
2-Feb-15,16.75,16.75,16.17,16.29,2384192
30-Jan-15,16.81,16.86,16.67,16.69,827138
29-Jan-15,16.84,16.85,16.71,16.81,340258
28-Jan-15,16.82,16.96,16.76,16.79,935323
27-Jan-15,16.89,17.00,16.80,16.82,805286
26-Jan-15,17.17,17.17,16.92,16.98,1458651
23-Jan-15,17.20,17.25,17.09,17.16,1453036
22-Jan-15,17.08,17.26,17.04,17.19,695770
21-Jan-15,17.07,17.08,16.97,17.08,534544
20-Jan-15,17.18,17.35,16.97,17.07,480473
16-Jan-15,17.38,17.38,17.12,17.19,546992
15-Jan-15,17.25,17.40,17.22,17.39,563619
14-Jan-15,17.07,17.29,17.07,17.21,544859
13-Jan-15,17.48,17.55,17.10,17.15,1107789
12-Jan-15,17.46,17.49,17.34,17.48,865727
9-Jan-15,17.32,17.50,17.24,17.44,990659
8-Jan-15,17.44,17.51,17.34,17.38,689133
7-Jan-15,17.42,17.47,17.30,17.41,731492
6-Jan-15,17.33,17.41,17.27,17.36,818342
5-Jan-15,17.30,17.37,17.19,17.24,401634
2-Jan-15,17.18,17.36,17.06,17.36,611686
31-Dec-14,17.39,17.39,16.98,17.03,1496932
30-Dec-14,17.28,17.43,17.25,17.34,345110
29-Dec-14,17.30,17.47,17.22,17.34,494380
26-Dec-14,17.34,17.45,17.26,17.34,213235
24-Dec-14,17.44,17.48,17.32,17.34,200582
23-Dec-14,17.42,17.48,17.36,17.41,426481
22-Dec-14,17.38,17.45,17.30,17.41,619869
19-Dec-14,17.31,17.39,17.22,17.31,1001584
18-Dec-14,17.22,17.32,17.10,17.20,755929
17-Dec-14,16.81,17.09,16.76,17.07,1192132
16-Dec-14,16.85,16.92,16.57,16.76,1095744
15-Dec-14,17.00,17.06,16.84,16.89,1714622
12-Dec-14,17.04,17.15,16.89,16.89,526395
11-Dec-14,17.02,17.15,16.99,17.11,623452
10-Dec-14,16.79,17.03,16.73,17.01,819504
9-Dec-14,17.00,17.00,16.79,16.88,569611
8-Dec-14,17.07,17.29,17.01,17.03,725258
5-Dec-14,17.12,17.16,17.00,17.15,654177
4-Dec-14,17.05,17.19,17.00,17.14,555330
3-Dec-14,17.31,17.37,17.14,17.15,767075
2-Dec-14,17.31,17.40,17.19,17.36,1766376
1-Dec-14,17.18,17.37,17.08,17.33,899084
28-Nov-14,17.28,17.34,17.18,17.20,440199
26-Nov-14,16.87,17.32,16.87,17.28,957954
25-Nov-14,17.12,17.17,16.89,16.92,1449849
24-Nov-14,17.32,17.36,17.09,17.15,1072760
21-Nov-14,17.39,17.42,17.26,17.36,912815
20-Nov-14,17.20,17.40,17.16,17.34,815172
19-Nov-14,17.39,17.39,17.23,17.26,3186929
18-Nov-14,17.31,17.41,17.26,17.40,627320
17-Nov-14,17.20,17.34,17.20,17.26,1502997
14-Nov-14,17.29,17.44,17.18,17.27,986130
13-Nov-14,17.33,17.36,17.23,17.33,526007
12-Nov-14,17.20,17.31,17.20,17.21,822318
11-Nov-14,17.27,17.38,17.20,17.26,339402
10-Nov-14,17.07,17.30,17.01,17.28,775686
7-Nov-14,17.35,17.35,17.08,17.10,2236720
6-Nov-14,17.14,17.42,17.14,17.36,1014216
5-Nov-14,17.20,17.30,17.04,17.22,1242208
4-Nov-14,17.18,17.30,16.93,17.10,825755
3-Nov-14,17.56,17.70,16.98,17.18,2143767
31-Oct-14,17.25,17.55,17.13,17.53,1026498
30-Oct-14,17.05,17.26,17.01,17.24,674645
29-Oct-14,17.21,17.36,16.98,17.13,451869
28-Oct-14,17.00,17.24,16.98,17.24,412154
27-Oct-14,16.97,17.06,16.90,17.00,794064
24-Oct-14,17.19,17.20,16.92,16.97,589248
23-Oct-14,16.99,17.17,16.98,17.11,418960
22-Oct-14,17.03,17.21,16.92,16.96,534466
21-Oct-14,16.92,17.05,16.76,17.01,638321
20-Oct-14,16.69,16.85,16.69,16.85,807363
17-Oct-14,16.88,16.88,16.56,16.63,644671
16-Oct-14,16.70,16.85,16.55,16.76,720266
15-Oct-14,16.51,16.88,16.32,16.75,1964609
14-Oct-14,16.75,17.00,16.59,16.61,1593483
13-Oct-14,16.74,16.88,16.66,16.70,635760
10-Oct-14,16.95,16.95,16.69,16.71,1013678
9-Oct-14,16.96,17.18,16.86,16.92,1048039
8-Oct-14,16.71,16.96,16.67,16.95,706108
7-Oct-14,17.14,17.14,16.72,16.73,1148423
6-Oct-14,17.06,17.11,16.98,17.10,641434
3-Oct-14,17.04,17.05,16.90,17.03,626976
2-Oct-14,16.98,17.07,16.79,16.90,550520
1-Oct-14,16.92,17.05,16.89,17.02,990481
30-Sep-14,17.08,17.08,16.86,16.89,896003
29-Sep-14,16.97,17.13,16.91,17.08,765371
26-Sep-14,16.96,17.08,16.78,17.06,2577769
25-Sep-14,16.90,16.96,16.71,16.94,1259232
24-Sep-14,16.93,17.11,16.88,16.93,1137017
23-Sep-14,17.14,17.26,16.95,16.98,1846555
22-Sep-14,17.27,17.32,17.09,17.15,1002061
19-Sep-14,17.32,17.36,17.12,17.34,3594614
18-Sep-14,17.48,17.53,17.26,17.30,1001801
17-Sep-14,17.41,17.60,17.29,17.48,1145147
16-Sep-14,17.32,17.40,17.26,17.33,959410
15-Sep-14,17.60,17.60,17.29,17.33,1330264
12-Sep-14,17.76,17.77,17.54,17.64,1356527
11-Sep-14,17.90,17.94,17.68,17.83,1408149
10-Sep-14,18.01,18.06,17.93,17.98,1019058
9-Sep-14,18.09,18.09,17.90,18.00,1227611
8-Sep-14,18.10,18.18,18.01,18.13,995231
5-Sep-14,17.93,18.18,17.87,18.16,2207225
4-Sep-14,18.14,18.19,17.89,17.93,1489349
3-Sep-14,17.87,18.15,17.81,18.14,1496670
2-Sep-14,17.88,18.01,17.73,17.88,1384566
29-Aug-14,17.92,18.05,17.87,17.88,1361555
28-Aug-14,17.96,18.17,17.96,17.98,1123693
27-Aug-14,18.00,18.10,17.94,18.06,1102677
26-Aug-14,18.06,18.27,17.97,18.08,3060234
25-Aug-14,18.05,18.05,17.83,18.05,1543749
22-Aug-14,17.95,18.09,17.79,18.09,9126901
21-Aug-14,17.89,17.93,17.75,17.91,2646793
20-Aug-14,17.70,17.88,17.65,17.83,1691343
19-Aug-14,17.79,17.80,17.66,17.72,2045438
18-Aug-14,17.65,17.79,17.64,17.74,2150659
15-Aug-14,17.70,17.72,17.61,17.63,4403176
14-Aug-14,17.60,17.78,17.56,17.65,11864700
13-Aug-14,17.74,18.04,17.73,17.99,1513138
12-Aug-14,17.85,17.87,17.64,17.65,793138
11-Aug-14,17.69,17.86,17.58,17.82,686571
8-Aug-14,17.60,17.69,17.57,17.64,678207
7-Aug-14,17.65,17.65,17.43,17.56,954735
6-Aug-14,17.83,17.89,17.65,17.66,858478
5-Aug-14,18.05,18.26,17.59,17.85,1040837
4-Aug-14,17.93,18.11,17.88,18.09,1119877
1-Aug-14,18.17,18.35,17.96,17.97,669693
31-Jul-14,18.34,18.39,18.19,18.22,674185
30-Jul-14,18.36,18.50,18.35,18.46,545724
29-Jul-14,18.52,18.52,18.34,18.36,533198
28-Jul-14,18.46,18.52,18.43,18.47,899355
25-Jul-14,18.47,18.54,18.40,18.43,632255
24-Jul-14,18.44,18.56,18.44,18.51,1099879
23-Jul-14,18.42,18.52,18.34,18.40,2009600
22-Jul-14,18.48,18.51,18.33,18.42,1034222
21-Jul-14,18.85,18.85,18.41,18.46,774352
18-Jul-14,18.39,18.49,18.17,18.49,1247426
17-Jul-14,18.07,18.10,17.94,18.08,455133
16-Jul-14,18.06,18.06,17.96,18.06,248602
15-Jul-14,18.04,18.05,17.92,18.04,247219
14-Jul-14,17.95,18.10,17.94,18.01,407037
11-Jul-14,18.15,18.17,18.01,18.04,410465
10-Jul-14,18.03,18.21,17.98,18.21,677231
9-Jul-14,18.14,18.20,17.93,18.17,1184793
8-Jul-14,18.04,18.17,18.02,18.16,553342
7-Jul-14,18.03,18.10,17.94,18.07,1339738
3-Jul-14,18.50,18.52,18.07,18.09,846971
2-Jul-14,17.71,18.19,17.69,18.17,2093883
1-Jul-14,17.79,17.93,17.74,17.75,703260
30-Jun-14,17.89,17.94,17.69,17.76,982483
27-Jun-14,17.88,18.00,17.73,17.84,4479209
26-Jun-14,17.83,17.85,17.66,17.85,683648
25-Jun-14,17.94,17.94,17.70,17.79,843410
24-Jun-14,17.85,18.07,17.82,17.93,1151513
23-Jun-14,17.97,18.07,17.84,17.88,711066
20-Jun-14,18.00,18.06,17.96,18.04,893752
19-Jun-14,17.92,18.02,17.92,17.98,782002
18-Jun-14,17.90,18.01,17.89,17.98,798837
17-Jun-14,17.76,17.99,17.76,17.97,887536
16-Jun-14,17.72,17.88,17.72,17.80,672948
13-Jun-14,17.67,17.78,17.54,17.74,714216
12-Jun-14,17.64,17.65,17.50,17.63,659717
11-Jun-14,17.69,17.85,17.61,17.63,480020
10-Jun-14,17.63,17.79,17.63,17.73,589139
9-Jun-14,18.00,18.08,17.68,17.69,876563
6-Jun-14,18.06,18.15,17.91,17.94,694741
5-Jun-14,17.85,18.11,17.84,17.99,940145
4-Jun-14,17.75,17.85,17.70,17.83,1275241
3-Jun-14,17.72,17.80,17.67,17.74,921240
2-Jun-14,17.68,17.80,17.62,17.79,2005063
30-May-14,17.56,17.71,17.47,17.62,9438038
29-May-14,17.60,17.65,17.49,17.54,1517712
28-May-14,17.66,17.66,17.48,17.53,2406356
27-May-14,17.62,17.74,17.55,17.66,1870746
23-May-14,17.57,17.66,17.48,17.65,1076138
22-May-14,17.50,17.55,17.39,17.54,2454752
21-May-14,17.47,17.55,17.34,17.49,1675068
20-May-14,17.43,17.55,17.34,17.45,2257759
19-May-14,17.29,17.44,17.25,17.40,770465
16-May-14,17.25,17.28,17.17,17.28,1108167
15-May-14,17.25,17.27,17.14,17.20,3292248
14-May-14,17.18,17.27,17.12,17.23,1471354
13-May-14,17.10,17.29,17.02,17.13,1629440
12-May-14,17.08,17.20,17.08,17.14,923892
9-May-14,16.98,17.13,16.98,17.03,1407317
8-May-14,16.91,17.12,16.86,17.02,1785962
7-May-14,16.64,17.02,16.64,16.97,2210079
6-May-14,16.65,16.89,16.46,16.75,1298238
5-May-14,16.40,16.79,16.29,16.67,2264999
2-May-14,16.35,16.50,16.25,16.50,609716
1-May-14,16.02,16.33,16.00,16.33,1365494
30-Apr-14,16.05,16.15,15.98,16.05,1621270
29-Apr-14,16.00,16.26,16.00,16.07,1221052
28-Apr-14,15.96,16.01,15.82,16.01,756038
25-Apr-14,15.90,15.97,15.76,15.94,564282
24-Apr-14,15.98,16.04,15.84,15.87,1012354
23-Apr-14,16.01,16.05,15.92,15.96,633311
22-Apr-14,16.09,16.10,15.95,16.00,1720382
21-Apr-14,16.05,16.09,15.95,16.01,534156
17-Apr-14,15.99,16.04,15.89,16.00,527774
16-Apr-14,16.04,16.07,15.94,16.04,1086461
15-Apr-14,16.00,16.04,15.86,16.02,812408
14-Apr-14,16.04,16.10,15.92,16.01,763212
11-Apr-14,15.96,16.08,15.88,16.03,2265868
10-Apr-14,16.24,16.32,15.93,16.05,1367560
9-Apr-14,16.14,16.34,16.03,16.30,541924
8-Apr-14,16.29,16.32,16.06,16.15,992669
7-Apr-14,16.32,16.40,16.20,16.25,758717
4-Apr-14,16.52,16.53,16.24,16.38,458373
3-Apr-14,16.52,16.54,16.29,16.45,409486
2-Apr-14,16.72,16.81,16.44,16.50,744562
1-Apr-14,16.75,16.80,16.61,16.75,838108
31-Mar-14,16.64,16.72,16.38,16.71,1692882
28-Mar-14,16.74,16.82,16.53,16.69,610034
27-Mar-14,16.73,16.83,16.59,16.71,421773
26-Mar-14,16.99,17.07,16.71,16.75,779040
25-Mar-14,16.83,16.93,16.74,16.86,1109361
24-Mar-14,16.59,16.86,16.49,16.79,1733624
21-Mar-14,16.87,17.18,16.36,16.48,9472089
20-Mar-14,16.68,16.92,16.43,16.89,2984844
19-Mar-14,16.41,16.49,16.30,16.41,2009388
18-Mar-14,16.43,16.52,16.36,16.46,2695737
17-Mar-14,16.83,16.83,16.34,16.50,2785623
14-Mar-14,16.90,17.29,16.76,16.83,2226528
13-Mar-14,17.07,17.21,16.79,17.00,1684782
12-Mar-14,16.93,17.16,16.87,17.08,1057347
11-Mar-14,17.16,17.30,16.83,16.90,3148220
10-Mar-14,17.39,17.53,17.30,17.42,2251444
7-Mar-14,17.09,17.60,17.00,17.32,1496975
6-Mar-14,17.00,17.13,16.94,17.00,680679
5-Mar-14,16.93,17.02,16.75,16.95,2355591
4-Mar-14,16.59,16.69,16.46,16.61,1318419
3-Mar-14,16.35,16.53,16.28,16.49,894165
28-Feb-14,16.49,16.50,16.32,16.38,746679
27-Feb-14,16.50,16.56,16.36,16.44,320553
26-Feb-14,16.56,16.63,16.42,16.49,404913
25-Feb-14,16.47,16.65,16.43,16.51,418003
24-Feb-14,16.65,16.72,16.42,16.44,888322
21-Feb-14,16.73,16.77,16.52,16.57,631775
20-Feb-14,16.85,16.89,16.47,16.63,1524336
19-Feb-14,16.74,16.92,16.67,16.87,463637
18-Feb-14,16.70,16.84,16.66,16.72,264819
14-Feb-14,16.78,16.87,16.58,16.69,413247
13-Feb-14,16.73,16.80,16.57,16.77,743699
12-Feb-14,16.97,17.04,16.76,16.76,242120
11-Feb-14,16.65,17.04,16.65,17.01,770750
10-Feb-14,16.81,16.88,16.67,16.71,429036
7-Feb-14,16.85,16.85,16.54,16.78,347134
6-Feb-14,16.63,16.69,16.49,16.62,773066
5-Feb-14,16.55,16.66,16.47,16.61,467068
4-Feb-14,16.58,16.70,16.36,16.55,714954
3-Feb-14,16.71,16.99,16.48,16.56,1217047
31-Jan-14,16.41,16.68,16.40,16.68,735852
30-Jan-14,16.33,16.58,16.25,16.52,876589
29-Jan-14,16.31,16.35,16.07,16.25,454685
28-Jan-14,16.32,16.47,16.24,16.41,453982
27-Jan-14,16.65,16.71,16.20,16.23,1290152
24-Jan-14,16.77,16.87,16.53,16.66,450201
23-Jan-14,16.84,16.93,16.76,16.85,438735
22-Jan-14,16.99,17.00,16.84,16.90,382531
21-Jan-14,17.17,17.20,16.94,16.95,491964
17-Jan-14,16.99,17.09,16.91,17.09,458994
16-Jan-14,17.06,17.10,16.94,16.98,346420
15-Jan-14,17.04,17.10,16.84,17.03,776506
14-Jan-14,16.91,17.05,16.74,16.97,579795
13-Jan-14,16.94,16.99,16.82,16.83,444826
10-Jan-14,16.78,16.92,16.74,16.89,423903
9-Jan-14,16.63,16.75,16.58,16.71,925093
8-Jan-14,16.60,16.73,16.30,16.57,684934
7-Jan-14,16.50,16.72,16.39,16.54,580591
6-Jan-14,16.31,16.40,16.21,16.38,378327
3-Jan-14,16.18,16.26,16.11,16.25,371608
2-Jan-14,16.20,16.43,16.07,16.14,385628
31-Dec-13,16.10,16.26,16.09,16.20,567106
30-Dec-13,16.15,16.22,16.09,16.19,349841
27-Dec-13,16.07,16.16,15.99,16.15,732086
26-Dec-13,16.20,16.20,16.00,16.07,396313
24-Dec-13,16.10,16.22,16.08,16.19,85322
23-Dec-13,16.20,16.23,16.04,16.10,795548
20-Dec-13,16.19,16.34,16.10,16.20,723653
19-Dec-13,16.21,16.28,16.06,16.21,568905
18-Dec-13,16.06,16.35,16.00,16.20,683781
17-Dec-13,16.01,16.19,15.90,15.99,524491
16-Dec-13,16.11,16.25,16.01,16.09,424864
13-Dec-13,16.09,16.19,15.99,16.12,423719
12-Dec-13,16.21,16.27,15.99,16.09,625297
11-Dec-13,16.30,16.30,16.00,16.14,1070085
10-Dec-13,16.55,16.67,16.37,16.39,528578
9-Dec-13,16.50,16.67,16.40,16.50,997199
6-Dec-13,16.06,16.53,16.03,16.50,794520
5-Dec-13,16.10,16.15,15.90,15.95,819883
4-Dec-13,16.39,16.50,16.18,16.19,1002889
3-Dec-13,16.41,16.52,16.37,16.45,822833
2-Dec-13,16.43,16.48,16.17,16.46,930975
29-Nov-13,16.44,16.51,16.34,16.40,273129
27-Nov-13,16.56,16.65,16.34,16.45,1759888
26-Nov-13,16.42,16.71,16.36,16.48,5872708
25-Nov-13,16.55,16.61,16.35,16.42,1391744
22-Nov-13,16.48,16.51,16.37,16.49,1225423
21-Nov-13,16.50,16.66,16.39,16.45,1471513
20-Nov-13,16.60,16.75,16.38,16.42,1030260
19-Nov-13,16.70,16.81,16.50,16.54,1208747
18-Nov-13,16.92,16.95,16.59,16.76,2721616
15-Nov-13,16.64,16.89,16.51,16.86,2546777
14-Nov-13,16.62,16.62,16.43,16.55,1097358
13-Nov-13,16.30,16.67,16.27,16.63,1512581
12-Nov-13,16.03,16.30,16.02,16.24,1330870
11-Nov-13,16.22,16.22,15.97,16.10,1513077
8-Nov-13,15.82,16.33,15.78,16.17,2018481
7-Nov-13,16.00,16.15,15.90,16.03,3063790
6-Nov-13,15.80,16.08,15.74,16.05,2014885
5-Nov-13,15.75,15.87,15.66,15.77,1133130
4-Nov-13,15.66,15.80,15.60,15.75,996993
1-Nov-13,15.50,15.73,15.44,15.66,678101
31-Oct-13,15.70,15.85,15.40,15.48,1767007
30-Oct-13,15.91,15.91,15.60,15.65,1525832
29-Oct-13,16.16,16.20,15.86,15.92,820788
28-Oct-13,16.12,16.17,15.95,16.11,596613
25-Oct-13,16.01,16.13,15.98,16.07,816131
24-Oct-13,16.00,16.05,15.88,16.02,815026
23-Oct-13,16.05,16.13,15.88,15.99,418320
22-Oct-13,16.37,16.53,15.90,16.06,541615
21-Oct-13,15.87,16.03,15.73,16.00,1288346
18-Oct-13,16.00,16.05,15.78,15.86,416018
17-Oct-13,15.72,16.00,15.70,15.82,408200
16-Oct-13,15.51,15.75,15.45,15.68,949453
15-Oct-13,15.50,15.55,15.34,15.42,444357
14-Oct-13,15.83,15.84,15.35,15.46,940546
11-Oct-13,15.35,15.62,15.24,15.35,783282
10-Oct-13,15.31,15.40,15.24,15.32,851917
9-Oct-13,15.47,15.55,15.10,15.22,1511778
8-Oct-13,15.61,15.73,15.39,15.45,1527971
7-Oct-13,15.67,15.79,15.57,15.60,1349488
4-Oct-13,15.64,16.02,15.50,15.80,1156438
3-Oct-13,15.73,15.80,15.45,15.60,1101908
2-Oct-13,15.94,15.94,15.61,15.82,1810225
1-Oct-13,16.15,16.30,15.93,16.02,949058
30-Sep-13,16.30,16.64,16.10,16.15,2734638
27-Sep-13,16.68,16.80,16.17,16.40,428115
26-Sep-13,16.28,16.89,16.28,16.72,539151
25-Sep-13,16.89,16.90,16.54,16.61,415873
24-Sep-13,16.75,16.91,16.68,16.90,705928
23-Sep-13,16.23,16.99,16.23,16.80,1170830
20-Sep-13,15.97,16.38,15.97,16.30,4165091
19-Sep-13,15.91,16.05,15.91,16.04,658801
18-Sep-13,15.97,16.04,15.74,15.95,843586
17-Sep-13,15.89,15.97,15.88,15.93,531265
16-Sep-13,15.80,15.95,15.41,15.91,874580
13-Sep-13,15.30,15.86,15.30,15.85,904777
12-Sep-13,15.49,15.55,15.29,15.35,446925
11-Sep-13,15.55,15.74,15.46,15.53,429030
10-Sep-13,16.00,16.05,15.55,15.62,598366
9-Sep-13,15.92,16.10,15.92,16.06,577968
6-Sep-13,15.95,16.06,15.81,15.92,328578
5-Sep-13,15.72,16.02,15.72,15.84,352057
4-Sep-13,15.94,16.10,15.91,16.05,630340
3-Sep-13,15.86,16.00,15.85,16.00,724038
30-Aug-13,15.85,15.99,15.85,15.88,121293
29-Aug-13,15.90,16.01,15.83,15.90,636073
28-Aug-13,16.00,16.06,15.85,15.91,552357
27-Aug-13,15.62,16.04,15.55,15.93,1135004
26-Aug-13,15.95,16.02,15.78,15.85,358830
23-Aug-13,16.05,16.10,15.65,16.02,845603
22-Aug-13,16.03,16.12,16.01,16.07,210965
21-Aug-13,16.01,16.06,16.00,16.05,199733
20-Aug-13,16.01,16.10,15.93,16.01,656536
19-Aug-13,16.02,16.11,16.00,16.01,255986
16-Aug-13,16.07,16.23,16.00,16.06,1367955
15-Aug-13,16.00,16.10,15.87,16.00,772353
14-Aug-13,15.98,16.09,15.80,16.04,371703
13-Aug-13,16.15,16.20,16.00,16.05,364257
12-Aug-13,16.05,16.27,16.05,16.15,868158
9-Aug-13,16.05,16.16,16.00,16.10,608372
8-Aug-13,15.75,16.15,15.75,16.12,1216634
7-Aug-13,15.68,15.77,15.60,15.65,400598
6-Aug-13,15.66,15.99,15.66,15.78,414151
5-Aug-13,15.72,15.90,15.66,15.66,736358
2-Aug-13,15.58,15.90,15.55,15.83,2114578
1-Aug-13,15.59,16.74,15.50,15.60,21094670
