﻿Date,Open,High,Low,Close,Volume
20-Jun-17,19.54,19.58,19.32,19.47,816193
19-Jun-17,19.36,19.60,19.31,19.59,1085973
16-Jun-17,19.37,19.37,19.24,19.37,1280879
15-Jun-17,19.30,19.41,19.30,19.34,622988
14-Jun-17,19.39,19.46,19.29,19.40,1015526
13-Jun-17,19.14,19.39,19.00,19.39,1158919
12-Jun-17,19.05,19.21,18.97,19.12,930888
9-Jun-17,18.96,19.18,18.89,19.04,1055189
8-Jun-17,18.69,18.95,18.63,18.91,718244
7-Jun-17,18.71,18.75,18.62,18.69,821938
6-Jun-17,18.81,18.81,18.56,18.71,671092
5-Jun-17,18.85,18.93,18.76,18.81,764578
2-Jun-17,18.86,18.95,18.80,18.85,590092
1-Jun-17,18.77,18.93,18.66,18.86,794834
31-May-17,18.75,18.78,18.58,18.72,1263353
30-May-17,18.87,18.91,18.75,18.79,721452
26-May-17,18.80,18.87,18.74,18.84,427013
25-May-17,19.07,19.13,18.75,18.80,814184
24-May-17,18.89,19.05,18.84,19.05,1131658
23-May-17,18.92,18.95,18.78,18.81,787921
22-May-17,18.81,18.99,18.78,18.82,803559
19-May-17,18.73,18.90,18.65,18.78,669945
18-May-17,18.41,18.77,18.33,18.69,1889001
17-May-17,18.47,18.50,18.26,18.31,1572054
16-May-17,18.63,18.72,18.50,18.52,1115776
15-May-17,18.50,18.74,18.48,18.63,882302
12-May-17,18.59,18.61,18.41,18.46,684234
11-May-17,18.56,18.62,18.29,18.62,1353995
10-May-17,18.59,18.69,18.50,18.61,853037
9-May-17,18.83,18.87,18.51,18.60,956549
8-May-17,19.15,19.15,18.70,18.78,1026672
5-May-17,19.01,19.28,19.00,19.16,973066
4-May-17,18.99,19.00,18.80,18.99,961573
3-May-17,19.01,19.03,18.85,18.99,968412
2-May-17,18.90,19.02,18.83,19.00,821524
1-May-17,18.80,18.99,18.71,18.90,737645
28-Apr-17,19.25,19.25,18.71,18.73,1379569
27-Apr-17,19.43,19.50,19.28,19.31,788534
26-Apr-17,19.29,19.48,19.23,19.36,786134
25-Apr-17,19.23,19.39,19.20,19.32,796664
24-Apr-17,19.21,19.21,18.91,19.19,1001724
21-Apr-17,19.19,19.20,19.08,19.13,654661
20-Apr-17,19.21,19.21,19.01,19.18,719895
19-Apr-17,19.08,19.22,18.98,19.16,806788
18-Apr-17,19.12,19.17,18.95,19.02,752928
17-Apr-17,19.10,19.14,19.02,19.13,749619
13-Apr-17,19.05,19.10,18.98,19.03,524649
12-Apr-17,19.16,19.20,19.02,19.07,883465
11-Apr-17,19.06,19.18,19.02,19.14,610608
10-Apr-17,18.88,19.08,18.88,19.06,836582
7-Apr-17,19.07,19.10,18.89,18.90,980945
6-Apr-17,18.85,19.08,18.79,19.07,864640
5-Apr-17,19.05,19.09,18.85,18.87,1402516
4-Apr-17,18.99,19.04,18.86,18.94,711998
3-Apr-17,19.08,19.09,18.91,19.01,904627
31-Mar-17,18.98,19.11,18.94,19.10,1212424
30-Mar-17,18.81,19.09,18.74,19.08,972646
29-Mar-17,18.60,18.78,18.53,18.78,972028
28-Mar-17,18.55,18.65,18.47,18.60,956612
27-Mar-17,18.63,18.71,18.45,18.55,1335711
24-Mar-17,18.64,18.71,18.54,18.63,854962
23-Mar-17,18.62,18.94,18.62,18.63,1083492
22-Mar-17,18.76,18.76,18.52,18.63,1133010
21-Mar-17,19.07,19.07,18.68,18.70,973645
20-Mar-17,19.12,19.15,18.86,18.95,765897
17-Mar-17,19.06,19.12,19.01,19.06,1255176
16-Mar-17,19.05,19.17,19.01,19.06,727943
15-Mar-17,18.87,19.12,18.83,19.05,959449
14-Mar-17,18.77,18.83,18.66,18.77,480667
13-Mar-17,18.70,18.85,18.64,18.76,874254
10-Mar-17,18.88,18.93,18.53,18.69,708735
9-Mar-17,18.89,18.96,18.66,18.73,1111470
8-Mar-17,19.05,19.15,18.78,18.84,1311914
7-Mar-17,19.02,19.22,18.98,19.14,1391194
6-Mar-17,19.00,19.15,18.91,19.01,1381228
3-Mar-17,19.41,19.50,18.97,19.06,1788633
2-Mar-17,19.69,19.76,19.57,19.65,925753
1-Mar-17,19.54,19.79,19.48,19.79,1508351
28-Feb-17,20.06,20.14,19.45,19.64,6599790
27-Feb-17,20.19,20.30,20.11,20.22,1148219
24-Feb-17,20.10,20.23,20.05,20.19,894847
23-Feb-17,20.39,20.49,20.15,20.16,1302498
22-Feb-17,20.42,20.51,20.30,20.38,743522
21-Feb-17,20.24,20.53,20.19,20.46,1126110
17-Feb-17,20.38,20.41,20.23,20.24,1542387
16-Feb-17,20.46,20.62,20.36,20.41,1524949
15-Feb-17,20.40,20.50,20.20,20.48,1144216
14-Feb-17,20.28,20.50,20.17,20.47,1143221
13-Feb-17,20.26,20.43,20.22,20.41,1013348
10-Feb-17,20.13,20.35,20.07,20.34,1483662
9-Feb-17,19.99,20.13,19.91,20.13,850239
8-Feb-17,19.95,20.06,19.82,20.01,791207
7-Feb-17,19.94,20.16,19.83,19.95,942851
6-Feb-17,19.93,20.09,19.83,19.85,862098
3-Feb-17,19.90,20.12,19.86,19.94,1197435
2-Feb-17,19.72,19.84,19.62,19.79,1239462
1-Feb-17,20.01,20.12,19.61,19.69,1292457
31-Jan-17,20.16,20.19,19.96,20.02,1185300
30-Jan-17,20.33,20.36,20.07,20.16,1330304
27-Jan-17,20.65,20.67,20.34,20.42,963750
26-Jan-17,20.39,20.68,20.35,20.64,1849880
25-Jan-17,20.22,20.42,20.19,20.41,950788
24-Jan-17,20.31,20.44,20.21,20.28,1247378
23-Jan-17,20.21,20.36,20.20,20.32,1394672
20-Jan-17,20.05,20.25,20.03,20.21,1322399
19-Jan-17,20.20,20.20,20.00,20.05,742358
18-Jan-17,20.12,20.23,20.01,20.20,1061346
17-Jan-17,20.12,20.28,20.03,20.13,1284909
13-Jan-17,20.14,20.24,20.06,20.13,544192
12-Jan-17,20.20,20.24,19.98,20.14,855417
11-Jan-17,20.30,20.34,20.11,20.20,1526483
10-Jan-17,20.10,20.37,20.01,20.26,1972890
9-Jan-17,20.08,20.10,19.88,20.07,1489405
6-Jan-17,20.07,20.13,19.94,20.07,1523222
5-Jan-17,20.16,20.34,20.01,20.12,1989353
4-Jan-17,20.20,20.36,20.05,20.36,1997670
3-Jan-17,19.98,20.21,19.89,20.21,2407371
30-Dec-16,19.91,20.00,19.82,19.98,1522301
29-Dec-16,19.69,19.93,19.69,19.89,1000153
28-Dec-16,19.80,19.84,19.71,19.79,911478
27-Dec-16,19.79,19.90,19.76,19.84,769341
23-Dec-16,19.65,19.81,19.57,19.79,1004146
22-Dec-16,19.67,19.79,19.55,19.68,1635265
21-Dec-16,19.66,19.79,19.61,19.66,1146560
20-Dec-16,19.66,19.85,19.51,19.68,1091338
19-Dec-16,19.55,19.75,19.55,19.70,1169405
16-Dec-16,19.45,19.68,19.44,19.55,4697920
15-Dec-16,19.55,19.61,19.29,19.45,1418366
14-Dec-16,19.68,19.84,19.52,19.54,1658705
13-Dec-16,19.72,19.77,19.59,19.69,1664743
12-Dec-16,19.67,19.80,19.59,19.73,1572909
9-Dec-16,19.70,19.78,19.60,19.73,1727795
8-Dec-16,19.72,19.79,19.56,19.67,1248593
7-Dec-16,19.56,19.79,19.53,19.74,1836864
6-Dec-16,19.40,19.69,19.32,19.57,3172154
5-Dec-16,19.16,19.47,19.08,19.43,3835225
2-Dec-16,18.60,19.16,18.59,19.15,3715119
1-Dec-16,18.44,18.95,18.30,18.95,2468778
30-Nov-16,18.69,18.83,18.27,18.44,2776812
29-Nov-16,18.49,18.81,18.35,18.79,2172368
28-Nov-16,18.40,18.50,18.25,18.26,1030188
25-Nov-16,18.20,18.38,18.18,18.35,470724
23-Nov-16,18.18,18.20,17.96,18.20,972279
22-Nov-16,17.75,18.16,17.75,18.14,894064
21-Nov-16,17.76,17.94,17.75,17.82,1410883
18-Nov-16,17.82,17.89,17.74,17.79,1059393
17-Nov-16,17.77,17.98,17.67,17.77,1267895
16-Nov-16,17.83,17.97,17.70,17.72,1260496
15-Nov-16,18.20,18.25,17.53,17.79,1780449
14-Nov-16,17.77,18.20,17.55,18.16,2784674
11-Nov-16,17.39,17.63,17.35,17.53,1239741
10-Nov-16,17.60,17.64,17.32,17.45,1398344
9-Nov-16,17.56,17.72,17.40,17.62,1246675
8-Nov-16,17.88,17.88,17.57,17.81,959651
7-Nov-16,17.85,18.03,17.77,17.91,806524
4-Nov-16,17.47,17.75,17.46,17.70,459795
3-Nov-16,17.70,17.74,17.46,17.48,690187
2-Nov-16,17.77,17.87,17.62,17.67,658855
1-Nov-16,17.98,18.06,17.61,17.78,657268
31-Oct-16,17.81,18.04,17.70,18.03,841307
28-Oct-16,17.85,17.93,17.75,17.83,519960
27-Oct-16,17.92,17.96,17.65,17.82,775648
26-Oct-16,18.11,18.17,17.92,17.98,639998
25-Oct-16,18.27,18.32,18.10,18.14,513513
24-Oct-16,18.25,18.41,18.20,18.29,695868
21-Oct-16,18.16,18.20,18.08,18.20,647946
20-Oct-16,18.47,18.48,18.06,18.23,574475
19-Oct-16,18.40,18.50,18.31,18.43,846514
18-Oct-16,18.33,18.45,18.25,18.41,901178
17-Oct-16,18.37,18.43,18.24,18.30,601622
14-Oct-16,18.48,18.54,18.36,18.39,642286
13-Oct-16,18.35,18.54,18.25,18.50,1045174
12-Oct-16,18.28,18.45,18.20,18.36,728598
11-Oct-16,18.36,18.44,18.02,18.28,1092311
10-Oct-16,18.23,18.44,18.22,18.43,650056
7-Oct-16,18.29,18.45,18.09,18.22,861614
6-Oct-16,18.07,18.33,17.92,18.30,1342614
5-Oct-16,18.30,18.35,18.06,18.17,1530646
4-Oct-16,18.42,18.47,18.13,18.27,1117095
3-Oct-16,18.46,18.50,18.32,18.44,1204482
30-Sep-16,18.56,18.60,18.29,18.51,1042318
29-Sep-16,18.62,18.66,18.52,18.57,744918
28-Sep-16,18.55,18.70,18.45,18.63,689649
27-Sep-16,18.64,18.67,18.45,18.52,944108
26-Sep-16,18.79,18.88,18.58,18.65,1448045
23-Sep-16,18.73,18.89,18.64,18.87,1349281
22-Sep-16,18.70,18.89,18.70,18.80,1177190
21-Sep-16,18.47,18.70,18.42,18.70,1079185
20-Sep-16,18.50,18.52,18.38,18.51,1087700
19-Sep-16,18.40,18.55,18.35,18.49,852960
16-Sep-16,18.41,18.49,18.24,18.36,844584
15-Sep-16,18.33,18.49,18.23,18.46,958261
14-Sep-16,18.27,18.46,18.18,18.28,1133410
13-Sep-16,18.52,18.55,18.13,18.20,1224506
12-Sep-16,18.29,18.60,18.15,18.57,1876804
9-Sep-16,18.46,18.49,18.11,18.24,1393142
8-Sep-16,18.52,18.64,18.36,18.58,1371054
7-Sep-16,18.67,18.74,18.52,18.60,1185385
6-Sep-16,18.75,18.85,18.52,18.71,1438262
2-Sep-16,18.96,19.10,18.60,18.74,1619712
1-Sep-16,19.20,19.24,18.76,18.94,2305988
31-Aug-16,19.50,19.75,19.32,19.62,2345353
30-Aug-16,19.68,19.68,19.43,19.61,643323
29-Aug-16,19.70,19.80,19.55,19.62,811719
26-Aug-16,19.72,19.80,19.46,19.68,463356
25-Aug-16,19.65,19.78,19.62,19.70,355589
24-Aug-16,19.68,19.78,19.63,19.66,350316
23-Aug-16,19.90,20.07,19.74,19.78,599141
22-Aug-16,19.97,20.00,19.76,19.96,634676
19-Aug-16,19.74,19.98,19.63,19.98,679936
18-Aug-16,19.72,19.94,19.72,19.88,590455
17-Aug-16,19.79,19.83,19.56,19.77,550405
16-Aug-16,19.77,19.87,19.72,19.79,641662
15-Aug-16,19.87,19.94,19.68,19.77,813929
12-Aug-16,19.67,19.92,19.64,19.68,465484
11-Aug-16,19.90,19.96,19.48,19.58,760117
10-Aug-16,19.95,20.05,19.77,19.92,632604
9-Aug-16,20.25,20.40,19.89,20.00,800862
8-Aug-16,20.08,20.30,20.04,20.11,806721
5-Aug-16,20.18,20.19,19.97,20.10,642241
4-Aug-16,20.00,20.12,19.81,20.12,732356
3-Aug-16,20.21,20.24,19.90,19.99,529729
2-Aug-16,20.29,20.45,20.15,20.21,854387
1-Aug-16,20.30,20.48,20.15,20.47,658748
29-Jul-16,20.37,20.60,20.34,20.37,917587
28-Jul-16,20.30,20.65,20.22,20.59,2282090
27-Jul-16,20.10,20.38,20.00,20.33,1018227
26-Jul-16,20.32,20.33,20.00,20.10,853622
25-Jul-16,20.40,20.48,20.27,20.33,796984
22-Jul-16,20.24,20.43,20.15,20.36,1001844
21-Jul-16,20.08,20.26,20.02,20.26,1502665
20-Jul-16,20.00,20.15,19.97,20.09,1073426
19-Jul-16,19.89,20.06,19.79,20.04,1051318
18-Jul-16,19.83,20.14,19.81,19.87,1428270
15-Jul-16,19.73,19.89,19.55,19.88,826856
14-Jul-16,19.66,19.75,19.51,19.72,827469
13-Jul-16,19.54,19.70,19.35,19.70,1094543
12-Jul-16,19.49,19.56,19.35,19.56,860395
11-Jul-16,19.39,19.49,19.26,19.49,626523
8-Jul-16,19.19,19.40,19.04,19.34,686538
7-Jul-16,19.09,19.16,18.92,19.11,632314
6-Jul-16,18.94,19.08,18.92,19.04,723966
5-Jul-16,18.82,19.10,18.82,19.01,1081396
1-Jul-16,18.79,18.96,18.75,18.91,863451
30-Jun-16,18.60,18.82,18.39,18.81,705315
29-Jun-16,18.44,18.69,18.29,18.64,1023554
28-Jun-16,18.09,18.53,18.09,18.33,722826
27-Jun-16,18.35,18.37,17.80,17.90,767896
24-Jun-16,18.41,18.80,18.24,18.49,1158522
23-Jun-16,18.71,18.78,18.49,18.73,567538
22-Jun-16,18.74,18.75,18.57,18.61,593431
21-Jun-16,18.63,18.66,18.29,18.60,718687
20-Jun-16,18.50,18.71,18.46,18.56,791502
17-Jun-16,18.30,18.62,18.23,18.39,1147234
16-Jun-16,18.19,18.26,17.88,18.24,636531
15-Jun-16,17.96,18.28,17.92,18.17,828417
14-Jun-16,17.94,18.03,17.70,17.95,719154
13-Jun-16,18.00,18.17,17.92,17.99,479850
10-Jun-16,18.37,18.37,17.99,18.00,521929
9-Jun-16,18.56,18.56,18.33,18.45,366583
8-Jun-16,18.53,18.61,18.40,18.52,399111
7-Jun-16,18.56,18.62,18.40,18.53,505646
6-Jun-16,18.72,18.89,18.41,18.54,484876
3-Jun-16,18.86,18.88,18.53,18.73,468161
2-Jun-16,18.37,18.73,18.33,18.73,868549
1-Jun-16,18.27,18.52,18.20,18.45,714229
31-May-16,18.21,18.40,18.19,18.23,762244
27-May-16,18.30,18.52,18.30,18.44,356864
26-May-16,18.67,18.67,18.29,18.29,627539
25-May-16,18.52,18.70,18.41,18.70,438460
24-May-16,18.25,18.58,18.13,18.49,761286
23-May-16,18.24,18.41,17.96,18.19,796382
20-May-16,18.12,18.35,18.03,18.20,620206
19-May-16,18.47,18.60,18.06,18.11,600882
18-May-16,18.57,18.68,18.31,18.60,498984
17-May-16,19.00,19.11,18.50,18.63,456849
16-May-16,18.89,19.07,18.80,19.02,462535
13-May-16,18.98,18.98,18.74,18.90,302596
12-May-16,19.14,19.24,18.91,18.95,498201
11-May-16,19.45,19.45,19.09,19.11,418885
10-May-16,19.23,19.50,19.14,19.49,747183
9-May-16,18.97,19.23,18.91,19.21,711708
6-May-16,18.45,19.08,18.45,19.07,502719
5-May-16,18.95,18.97,18.68,18.88,562770
4-May-16,18.78,18.98,18.70,18.98,702560
3-May-16,18.60,18.87,18.55,18.81,433034
2-May-16,18.93,19.10,18.55,18.69,609910
29-Apr-16,18.88,18.95,18.50,18.93,586007
28-Apr-16,18.81,19.02,18.70,18.90,447410
27-Apr-16,18.95,18.96,18.65,18.93,301106
26-Apr-16,18.87,19.10,18.80,18.92,457467
25-Apr-16,18.77,18.91,18.65,18.86,512386
22-Apr-16,18.70,18.89,18.65,18.87,448864
21-Apr-16,19.14,19.22,18.52,18.69,742467
20-Apr-16,19.28,19.38,18.99,19.22,678556
19-Apr-16,19.18,19.39,19.10,19.30,714194
18-Apr-16,19.31,19.40,19.09,19.16,435970
15-Apr-16,19.30,19.43,19.21,19.28,410967
14-Apr-16,19.02,19.27,18.79,19.26,624217
13-Apr-16,18.98,19.24,18.69,19.23,437872
12-Apr-16,19.00,19.16,18.80,18.87,367948
11-Apr-16,18.84,19.09,18.84,18.99,310581
8-Apr-16,18.88,19.10,18.78,18.95,275870
7-Apr-16,18.96,19.02,18.66,18.78,340879
6-Apr-16,19.32,19.32,18.94,19.02,372306
5-Apr-16,19.46,19.53,19.09,19.28,867855
4-Apr-16,19.65,19.66,19.36,19.58,574016
1-Apr-16,19.67,19.78,19.52,19.62,596584
31-Mar-16,19.65,19.81,19.57,19.81,599501
30-Mar-16,19.63,19.86,19.48,19.71,551639
29-Mar-16,19.36,19.67,19.36,19.63,677717
28-Mar-16,19.35,19.49,19.31,19.46,418690
24-Mar-16,19.23,19.39,19.07,19.32,489171
23-Mar-16,19.49,19.56,19.20,19.27,521419
22-Mar-16,19.46,19.54,19.29,19.49,655665
21-Mar-16,19.52,19.82,19.17,19.60,807883
18-Mar-16,19.88,19.99,19.36,19.56,1758212
17-Mar-16,19.77,19.97,19.71,19.91,995157
16-Mar-16,19.59,19.78,19.52,19.71,495224
15-Mar-16,19.95,19.95,19.58,19.59,372356
14-Mar-16,19.95,19.99,19.82,19.97,544064
11-Mar-16,19.93,19.98,19.83,19.97,543520
10-Mar-16,19.90,19.95,19.61,19.93,892742
9-Mar-16,19.60,19.88,19.54,19.88,521145
8-Mar-16,19.72,19.94,19.64,19.68,498713
7-Mar-16,19.86,19.97,19.76,19.90,506755
4-Mar-16,19.83,19.97,19.77,19.96,800634
3-Mar-16,19.66,19.90,19.58,19.85,574159
2-Mar-16,19.34,19.78,19.27,19.71,1127142
1-Mar-16,19.17,19.30,18.92,19.30,528506
29-Feb-16,18.97,19.52,18.90,19.01,965385
26-Feb-16,19.78,19.95,18.94,19.00,910530
25-Feb-16,19.90,20.00,19.70,19.99,915233
24-Feb-16,19.47,19.97,19.32,19.87,544766
23-Feb-16,19.60,19.91,19.50,19.59,493635
22-Feb-16,19.80,19.92,19.53,19.61,462823
19-Feb-16,19.89,20.53,19.60,19.66,622411
18-Feb-16,19.88,19.91,19.50,19.87,883016
17-Feb-16,19.35,19.84,19.11,19.77,796755
16-Feb-16,19.35,19.49,19.12,19.31,495451
12-Feb-16,19.02,19.44,18.84,19.31,569322
11-Feb-16,19.30,19.40,18.55,18.92,540175
10-Feb-16,19.38,19.46,19.22,19.41,693313
9-Feb-16,18.75,19.61,18.47,19.30,1091189
8-Feb-16,18.94,18.99,18.17,18.93,606740
5-Feb-16,18.82,19.00,18.67,18.96,542915
4-Feb-16,18.51,18.92,18.44,18.86,404770
3-Feb-16,18.49,18.58,18.15,18.50,440461
2-Feb-16,18.36,18.53,18.02,18.34,671284
1-Feb-16,18.26,18.55,18.00,18.41,679701
29-Jan-16,17.66,18.33,17.66,18.29,753544
28-Jan-16,17.75,17.92,17.56,17.74,322991
27-Jan-16,17.56,17.78,17.38,17.59,513181
26-Jan-16,17.45,17.83,17.25,17.69,625463
25-Jan-16,17.60,17.95,17.32,17.41,487766
22-Jan-16,18.09,18.17,17.38,17.58,645035
21-Jan-16,17.71,18.11,17.30,17.82,899375
20-Jan-16,16.94,17.76,16.35,17.60,1207836
19-Jan-16,18.11,18.17,17.10,17.26,1462187
15-Jan-16,18.38,18.39,17.99,18.28,626231
14-Jan-16,19.14,19.22,18.49,18.69,814347
13-Jan-16,19.40,19.40,18.92,19.08,906691
12-Jan-16,19.49,19.75,19.13,19.34,923084
11-Jan-16,19.18,19.39,19.12,19.32,486951
8-Jan-16,19.58,19.76,19.08,19.17,1093411
7-Jan-16,19.55,19.92,19.52,19.62,800486
6-Jan-16,19.70,20.09,19.62,20.08,734084
5-Jan-16,19.64,20.00,19.59,19.89,739013
4-Jan-16,19.70,19.87,19.41,19.76,799582
31-Dec-15,20.53,20.53,19.97,19.97,770012
30-Dec-15,20.48,20.63,20.41,20.52,526326
29-Dec-15,20.45,20.62,20.35,20.61,586819
28-Dec-15,19.96,20.39,19.87,20.38,629936
24-Dec-15,20.21,20.28,19.91,19.94,623889
23-Dec-15,20.05,20.22,19.82,20.19,566823
22-Dec-15,20.21,20.25,19.84,19.88,1061750
21-Dec-15,20.66,20.67,19.99,20.04,1289594
18-Dec-15,20.61,20.97,20.45,20.59,9042363
17-Dec-15,20.51,20.75,20.41,20.68,1528122
16-Dec-15,20.48,20.72,20.29,20.51,3655993
15-Dec-15,20.15,20.50,20.06,20.50,3163900
14-Dec-15,19.31,20.30,19.21,20.13,3701345
11-Dec-15,19.29,19.42,19.02,19.19,1172877
10-Dec-15,19.20,19.49,19.16,19.35,1068756
9-Dec-15,19.32,19.39,19.15,19.20,1315662
8-Dec-15,19.49,19.54,19.29,19.39,1262992
7-Dec-15,20.15,20.15,19.45,19.50,1877167
4-Dec-15,19.11,20.26,19.07,20.23,4096969
3-Dec-15,19.38,19.40,18.90,19.04,1679957
2-Dec-15,19.66,19.67,19.11,19.35,1651802
1-Dec-15,19.53,19.70,19.48,19.58,1575958
30-Nov-15,19.48,19.75,19.35,19.50,12924841
27-Nov-15,19.44,19.60,19.37,19.42,613052
25-Nov-15,19.86,19.86,19.32,19.39,931498
24-Nov-15,19.46,19.60,19.39,19.53,821828
23-Nov-15,19.37,19.61,19.21,19.55,885938
20-Nov-15,19.58,19.73,19.20,19.29,1278167
19-Nov-15,19.49,19.59,19.46,19.51,1013794
18-Nov-15,19.56,19.68,19.51,19.55,1457377
17-Nov-15,19.92,19.99,19.59,19.59,1798308
16-Nov-15,19.54,19.90,19.54,19.84,1498835
13-Nov-15,19.71,20.16,19.58,19.65,2157217
12-Nov-15,19.98,20.05,19.60,19.64,1180555
11-Nov-15,20.32,20.37,19.86,20.00,1779898
10-Nov-15,20.40,20.48,20.17,20.48,1380435
9-Nov-15,20.18,20.50,20.13,20.48,2329077
6-Nov-15,19.82,20.35,19.61,20.35,2896897
5-Nov-15,19.93,19.93,19.73,19.92,1251687
4-Nov-15,19.96,19.96,19.80,19.89,974636
3-Nov-15,19.95,19.99,19.89,19.98,1071164
2-Nov-15,19.79,19.99,19.68,19.99,1377594
30-Oct-15,19.82,19.88,19.71,19.72,685852
29-Oct-15,19.65,19.90,19.64,19.87,1004032
28-Oct-15,19.39,19.85,19.36,19.84,1308796
27-Oct-15,19.46,19.59,19.28,19.45,888338
26-Oct-15,19.47,19.59,19.18,19.43,1064227
23-Oct-15,19.69,19.70,19.03,19.29,1234534
22-Oct-15,19.47,19.70,19.43,19.70,1554686
21-Oct-15,19.47,19.50,19.29,19.50,974834
20-Oct-15,19.13,19.49,19.05,19.48,984697
19-Oct-15,18.85,19.39,18.81,19.38,1261853
16-Oct-15,18.94,19.00,18.82,18.98,945492
15-Oct-15,18.77,18.95,18.64,18.95,701457
14-Oct-15,18.82,18.96,18.78,18.83,807012
13-Oct-15,18.81,18.91,18.74,18.84,730562
12-Oct-15,18.87,18.98,18.77,18.90,533867
9-Oct-15,18.93,18.99,18.71,18.92,690193
8-Oct-15,18.92,18.99,18.83,18.93,705966
7-Oct-15,18.82,18.99,18.71,18.99,1006088
6-Oct-15,18.80,18.88,18.64,18.83,592575
5-Oct-15,18.70,18.93,18.65,18.90,1415343
2-Oct-15,18.54,18.65,18.21,18.63,454767
1-Oct-15,18.54,18.70,18.30,18.69,883997
30-Sep-15,18.43,18.71,18.16,18.57,1460292
29-Sep-15,18.54,18.75,18.24,18.28,1395028
28-Sep-15,18.55,18.76,18.40,18.59,1591678
25-Sep-15,18.76,18.88,18.36,18.88,1017397
24-Sep-15,18.82,18.94,18.36,18.60,794520
23-Sep-15,18.65,18.95,18.53,18.89,1210014
22-Sep-15,18.77,18.81,18.36,18.52,1366044
21-Sep-15,19.01,19.07,18.67,18.95,1737365
18-Sep-15,19.73,19.75,18.83,18.91,19710783
17-Sep-15,19.25,19.84,19.25,19.77,3381781
16-Sep-15,19.28,19.40,18.98,19.36,1859627
15-Sep-15,19.36,19.42,18.97,19.22,1964744
14-Sep-15,19.13,19.44,19.13,19.38,1755346
11-Sep-15,18.97,19.25,18.89,19.25,2604897
10-Sep-15,18.74,18.99,18.74,18.99,2549103
9-Sep-15,18.89,18.97,18.75,18.86,1587255
8-Sep-15,18.00,18.98,17.99,18.97,3744178
4-Sep-15,17.76,18.00,17.66,17.95,1274647
3-Sep-15,17.76,18.00,17.74,17.91,973193
2-Sep-15,17.53,17.92,17.50,17.89,554507
1-Sep-15,17.65,17.66,17.26,17.41,1126611
31-Aug-15,17.77,17.77,17.41,17.71,930977
28-Aug-15,17.50,17.94,17.49,17.79,1125102
27-Aug-15,16.88,17.46,16.62,17.44,653428
26-Aug-15,16.57,17.00,16.27,16.96,591910
25-Aug-15,16.85,17.08,16.38,16.38,557888
24-Aug-15,16.72,17.00,13.82,16.61,912422
21-Aug-15,17.74,17.88,17.24,17.32,612771
20-Aug-15,17.89,18.00,17.81,17.82,778849
19-Aug-15,18.02,18.02,17.81,17.92,550650
18-Aug-15,18.01,18.15,17.90,17.97,515512
17-Aug-15,17.85,18.20,17.84,18.10,681539
14-Aug-15,17.70,18.00,17.60,17.97,781113
13-Aug-15,17.77,17.88,17.67,17.79,539331
12-Aug-15,17.84,18.24,17.55,17.94,1342852
11-Aug-15,17.83,18.05,17.52,17.97,521354
10-Aug-15,18.06,18.17,17.84,17.95,445450
7-Aug-15,17.80,18.17,17.80,18.09,384491
6-Aug-15,17.99,18.16,17.77,17.92,814634
5-Aug-15,18.14,18.25,18.02,18.09,485130
4-Aug-15,18.10,18.25,18.01,18.02,341996
3-Aug-15,18.20,18.25,18.08,18.17,308848
31-Jul-15,18.10,18.25,17.99,18.14,316172
30-Jul-15,17.85,18.15,17.68,18.02,1000362
29-Jul-15,17.53,18.13,17.53,17.97,656789
28-Jul-15,17.50,17.93,17.38,17.91,734822
27-Jul-15,17.45,17.75,17.40,17.57,655482
24-Jul-15,17.89,17.96,17.34,17.55,590214
23-Jul-15,18.28,18.33,17.73,17.83,704754
22-Jul-15,18.32,18.40,18.11,18.23,386871
21-Jul-15,18.53,18.64,18.02,18.33,739048
20-Jul-15,18.92,18.92,18.61,18.63,373756
17-Jul-15,18.90,18.95,18.79,18.93,512962
16-Jul-15,18.87,19.00,18.86,18.95,781440
15-Jul-15,18.87,18.97,18.78,18.95,510506
14-Jul-15,18.81,18.99,18.71,18.95,463127
13-Jul-15,18.89,18.95,18.65,18.76,340934
10-Jul-15,18.65,18.99,18.58,18.98,700731
9-Jul-15,18.73,18.73,18.47,18.68,353930
8-Jul-15,18.64,18.77,18.45,18.60,422989
7-Jul-15,18.73,18.96,18.60,18.63,448497
6-Jul-15,18.74,18.89,18.65,18.80,422461
2-Jul-15,18.90,18.96,18.82,18.82,341465
1-Jul-15,18.87,18.95,18.79,18.90,652163
30-Jun-15,19.10,19.17,18.85,18.87,492762
29-Jun-15,19.02,19.17,18.86,18.86,722946
26-Jun-15,19.04,19.45,18.95,19.16,8790207
25-Jun-15,19.00,19.14,18.91,18.95,1194241
24-Jun-15,18.74,19.24,18.62,19.00,742673
23-Jun-15,18.45,19.00,18.37,18.76,972175
22-Jun-15,18.85,18.99,18.69,18.69,647206
19-Jun-15,19.08,19.10,18.83,18.85,440555
18-Jun-15,18.99,19.20,18.95,19.10,997944
17-Jun-15,18.82,19.04,18.81,19.03,1460299
16-Jun-15,18.79,18.94,18.62,18.89,1251089
15-Jun-15,18.68,18.86,18.58,18.80,776348
12-Jun-15,18.78,18.86,18.66,18.71,911572
11-Jun-15,18.86,18.90,18.83,18.86,860810
10-Jun-15,18.90,18.94,18.85,18.86,1091777
9-Jun-15,18.90,18.93,18.82,18.90,959340
8-Jun-15,18.70,18.90,18.63,18.87,787229
5-Jun-15,18.88,18.90,18.63,18.86,711912
4-Jun-15,18.91,18.93,18.73,18.91,927962
3-Jun-15,18.70,18.95,18.51,18.93,1164994
2-Jun-15,18.33,18.70,18.33,18.67,922034
1-Jun-15,18.33,18.50,18.25,18.48,1014471
29-May-15,18.33,18.50,18.11,18.45,565490
28-May-15,18.43,18.70,18.32,18.52,949781
27-May-15,18.20,18.70,18.00,18.65,652738
26-May-15,18.25,18.45,18.11,18.24,681449
22-May-15,18.25,18.40,18.05,18.21,536245
21-May-15,18.60,18.66,18.02,18.25,792997
20-May-15,18.70,18.84,18.36,18.61,717649
19-May-15,17.92,19.15,17.92,18.80,1978735
18-May-15,18.00,18.00,17.03,18.00,2197490
