﻿Date,Open,High,Low,Close,Volume
20-Jun-17,17.84,18.07,17.41,17.61,117050
19-Jun-17,17.97,18.05,17.05,17.97,357965
16-Jun-17,18.12,18.89,18.05,18.22,394440
15-Jun-17,18.42,18.60,17.81,18.16,178505
14-Jun-17,18.80,19.32,18.29,18.42,266058
13-Jun-17,18.50,19.34,18.50,18.90,228819
12-Jun-17,17.95,18.60,17.75,18.37,319251
9-Jun-17,19.09,19.46,18.50,18.65,269680
8-Jun-17,19.22,20.00,19.14,19.19,300262
7-Jun-17,18.63,19.50,18.18,19.42,336967
6-Jun-17,19.88,20.72,18.60,18.66,748153
5-Jun-17,17.81,19.65,17.50,19.58,742701
2-Jun-17,17.80,18.19,17.54,17.85,292052
1-Jun-17,17.44,18.30,16.78,17.94,414701
31-May-17,18.48,18.48,17.31,17.65,671814
30-May-17,18.19,18.94,17.30,17.90,1244454
26-May-17,15.25,17.39,15.23,17.11,1725787
25-May-17,15.00,16.75,14.60,15.01,4949248
