﻿Date,Open,High,Low,Close,Volume
20-Jun-17,21.05,21.06,20.30,20.63,3843593
19-Jun-17,22.56,22.57,21.42,21.43,5403618
16-Jun-17,22.35,22.68,22.28,22.60,4660879
15-Jun-17,21.73,22.40,21.55,22.35,6274668
14-Jun-17,22.38,22.38,21.74,21.88,2861844
13-Jun-17,21.72,22.52,21.65,22.48,2964185
12-Jun-17,21.80,22.10,21.41,21.58,3432130
9-Jun-17,20.97,21.86,20.83,21.50,3423870
8-Jun-17,20.27,20.94,20.11,20.83,3954121
7-Jun-17,20.26,20.43,19.92,20.30,4503629
6-Jun-17,19.70,20.36,19.68,20.33,3111242
5-Jun-17,19.52,20.03,19.51,19.76,4535394
2-Jun-17,20.47,20.48,19.66,19.68,4900563
1-Jun-17,20.58,20.90,20.40,20.62,2509993
31-May-17,20.39,20.57,20.13,20.57,6277759
30-May-17,20.80,20.88,20.54,20.64,2715915
26-May-17,21.23,21.42,20.99,21.02,1896647
25-May-17,21.24,21.88,20.96,21.21,2612989
24-May-17,21.89,22.09,21.33,21.40,3490701
23-May-17,21.73,21.94,21.54,21.91,3523052
22-May-17,22.37,22.49,21.52,21.68,4476093
19-May-17,21.66,22.36,21.51,22.24,3804380
18-May-17,20.75,21.54,20.71,21.41,3923132
17-May-17,20.85,21.26,20.83,20.96,4988054
16-May-17,21.18,21.33,20.90,20.94,4526694
15-May-17,21.57,21.60,21.09,21.28,2554964
12-May-17,21.08,21.24,20.84,21.17,5615671
11-May-17,21.41,21.68,20.86,21.02,3369074
10-May-17,21.27,21.66,20.99,21.34,3694004
9-May-17,21.81,21.84,20.62,20.95,4929543
8-May-17,21.12,21.45,20.95,21.33,2853444
5-May-17,20.56,21.30,20.43,21.25,2964396
4-May-17,20.99,20.99,20.16,20.40,3408607
3-May-17,21.04,21.25,20.91,21.14,1748649
2-May-17,21.49,21.74,21.04,21.13,2868475
1-May-17,21.18,21.78,21.09,21.48,3236228
28-Apr-17,21.80,21.80,20.87,21.19,3593148
27-Apr-17,21.74,21.83,21.22,21.53,3310172
26-Apr-17,21.83,22.36,21.65,21.95,3516116
25-Apr-17,21.48,21.87,21.34,21.85,3708375
24-Apr-17,21.39,21.76,21.28,21.50,3514577
21-Apr-17,21.34,21.50,21.10,21.39,3507632
20-Apr-17,21.39,21.60,21.37,21.37,2819948
19-Apr-17,21.94,22.06,21.35,21.39,3777549
18-Apr-17,21.79,22.16,21.68,21.95,2227371
17-Apr-17,22.00,22.13,21.78,22.00,2471627
13-Apr-17,22.70,22.70,22.02,22.06,1769484
12-Apr-17,23.09,23.21,22.48,22.60,2684660
11-Apr-17,23.33,23.39,22.77,23.12,2929222
10-Apr-17,23.17,23.56,23.13,23.44,2444290
7-Apr-17,23.05,23.31,22.89,23.14,3311662
6-Apr-17,22.90,23.14,22.80,23.07,2821262
5-Apr-17,23.38,23.53,22.74,22.75,5661546
4-Apr-17,22.96,23.20,22.71,23.16,3588797
3-Apr-17,22.81,22.93,22.43,22.74,4026447
31-Mar-17,22.79,23.07,22.52,22.81,3388597
30-Mar-17,23.16,23.31,22.84,22.90,2539402
29-Mar-17,22.59,23.18,22.52,23.13,3080760
28-Mar-17,22.70,22.94,22.39,22.67,3537708
27-Mar-17,22.32,22.72,22.08,22.63,3321843
24-Mar-17,22.33,22.63,22.24,22.49,2966533
23-Mar-17,22.45,22.72,22.24,22.26,4821933
22-Mar-17,22.81,22.91,22.17,22.47,3515424
21-Mar-17,23.85,23.85,22.83,22.92,2863530
20-Mar-17,23.56,23.59,23.14,23.42,2315827
17-Mar-17,23.72,23.81,23.40,23.48,2732874
16-Mar-17,24.25,24.31,23.51,23.63,4208023
15-Mar-17,23.87,23.99,23.43,23.88,3311674
14-Mar-17,23.90,23.95,23.35,23.57,2548964
13-Mar-17,23.88,24.14,23.70,24.10,2135124
10-Mar-17,24.33,24.54,23.64,23.80,3296157
9-Mar-17,24.36,24.36,23.49,24.20,3372998
8-Mar-17,24.39,24.78,24.25,24.28,3008157
7-Mar-17,24.78,24.87,24.38,24.44,4385282
6-Mar-17,24.31,24.93,24.29,24.86,3694034
3-Mar-17,24.67,24.96,24.23,24.28,3559859
2-Mar-17,24.48,24.99,24.12,24.57,4595542
1-Mar-17,24.40,24.66,23.90,24.47,5800870
28-Feb-17,24.06,24.19,23.55,23.98,5012409
27-Feb-17,23.94,24.33,23.91,24.12,3112544
24-Feb-17,24.24,24.29,23.81,24.00,3702438
23-Feb-17,24.85,25.12,24.18,24.30,3753960
22-Feb-17,24.68,24.89,24.53,24.54,3946289
21-Feb-17,24.94,25.28,24.78,24.91,2717046
17-Feb-17,25.04,25.50,24.88,25.07,2157771
16-Feb-17,25.79,25.98,25.00,25.19,2755066
15-Feb-17,25.61,26.10,25.50,25.83,3186303
14-Feb-17,24.93,25.58,24.68,25.56,2591573
13-Feb-17,24.69,24.96,24.59,24.92,1708324
10-Feb-17,25.13,25.31,24.75,24.86,1846098
9-Feb-17,25.01,25.27,24.86,25.07,3532906
8-Feb-17,25.10,25.17,24.60,24.82,3608390
7-Feb-17,25.44,25.54,24.76,25.44,4675100
6-Feb-17,26.27,26.60,25.10,25.41,5016683
3-Feb-17,25.64,26.26,25.53,26.16,2738831
2-Feb-17,24.71,25.90,24.63,25.58,4551533
1-Feb-17,24.62,24.89,24.47,24.65,3506791
31-Jan-17,24.63,24.68,24.15,24.41,2756616
30-Jan-17,25.42,25.55,24.39,24.63,4303173
27-Jan-17,25.67,26.26,25.65,25.84,3972283
26-Jan-17,25.98,26.12,25.80,25.90,2597041
25-Jan-17,25.83,25.99,25.71,25.74,2535698
24-Jan-17,25.89,26.23,25.69,25.85,2780589
23-Jan-17,25.49,25.68,25.41,25.50,2116086
20-Jan-17,26.01,26.10,25.59,25.66,2228650
19-Jan-17,25.58,25.93,25.38,25.78,3097833
18-Jan-17,25.19,25.82,25.01,25.64,2382211
17-Jan-17,25.74,25.83,25.27,25.45,4053679
13-Jan-17,25.85,26.04,25.59,25.62,4285618
12-Jan-17,25.22,25.70,24.55,25.51,5616870
11-Jan-17,24.43,24.65,24.19,24.52,3687983
10-Jan-17,24.30,24.60,23.99,24.22,2754398
9-Jan-17,24.41,24.66,24.09,24.12,2450099
6-Jan-17,25.05,25.20,24.52,24.68,2689089
5-Jan-17,24.63,25.18,24.28,24.89,4756209
4-Jan-17,23.71,24.73,23.65,24.63,4054594
3-Jan-17,23.89,24.58,23.07,23.68,6148355
30-Dec-16,23.75,24.14,23.60,23.65,3068125
29-Dec-16,23.86,24.12,23.68,23.96,2439341
28-Dec-16,24.49,24.49,23.80,23.95,1813635
27-Dec-16,24.42,24.63,24.30,24.38,2176328
23-Dec-16,24.42,24.75,24.21,24.27,1192071
22-Dec-16,24.43,24.66,24.23,24.44,1365481
21-Dec-16,24.41,24.91,24.37,24.47,2039582
20-Dec-16,24.35,24.54,23.88,24.03,3210709
19-Dec-16,24.42,24.57,24.20,24.40,3134804
16-Dec-16,25.39,25.45,24.24,24.43,6561591
15-Dec-16,24.71,25.45,24.58,25.42,4483311
14-Dec-16,25.60,26.05,25.04,25.05,3348263
13-Dec-16,25.54,26.15,25.30,25.88,3352714
12-Dec-16,27.23,27.23,25.20,25.32,4448501
9-Dec-16,26.87,26.99,26.36,26.72,2219681
8-Dec-16,26.68,26.91,26.50,26.91,3030522
7-Dec-16,26.52,26.78,26.30,26.55,3997214
6-Dec-16,26.41,26.80,26.29,26.56,4241461
5-Dec-16,25.84,26.76,25.76,26.52,4847777
2-Dec-16,24.98,25.62,24.96,25.37,3149627
1-Dec-16,25.09,25.44,24.86,25.06,4097719
30-Nov-16,26.18,26.43,24.10,24.49,6293047
29-Nov-16,23.89,25.10,23.64,24.79,3270887
28-Nov-16,24.80,24.83,24.29,24.36,3620356
25-Nov-16,24.83,24.91,24.41,24.52,1368658
23-Nov-16,24.86,25.23,24.79,25.04,3659199
22-Nov-16,25.35,25.57,24.68,25.01,3012501
21-Nov-16,25.50,25.66,25.15,25.38,5585003
18-Nov-16,24.71,25.20,24.60,24.95,2921282
17-Nov-16,25.24,25.34,24.44,24.60,3719943
16-Nov-16,25.23,25.37,24.78,24.99,4888524
15-Nov-16,25.55,25.79,24.97,25.23,4274612
14-Nov-16,24.62,25.11,24.34,25.10,3681950
11-Nov-16,24.04,24.65,23.58,24.58,3076688
10-Nov-16,24.69,25.00,24.20,24.35,4319794
9-Nov-16,24.46,25.05,23.80,24.84,5135188
8-Nov-16,24.60,24.86,24.40,24.64,4038912
7-Nov-16,24.87,25.00,24.49,24.83,3699412
4-Nov-16,24.77,25.00,24.60,24.65,3260558
3-Nov-16,24.76,25.11,24.53,24.80,5385605
2-Nov-16,25.49,25.58,24.70,25.24,4150897
1-Nov-16,26.61,26.65,25.60,25.93,3439999
31-Oct-16,26.80,26.86,26.35,26.47,2370029
28-Oct-16,27.30,27.85,26.57,26.79,3307291
27-Oct-16,25.97,27.17,25.61,26.78,4339734
26-Oct-16,24.99,25.72,24.90,25.68,4796337
25-Oct-16,25.99,26.41,25.23,25.35,4030906
24-Oct-16,26.38,26.52,25.61,26.05,3747322
21-Oct-16,27.13,27.27,26.40,26.48,2371364
20-Oct-16,26.78,27.33,26.46,27.20,2425851
19-Oct-16,27.47,27.62,26.95,27.08,3886359
18-Oct-16,28.00,28.10,27.17,27.44,3723200
17-Oct-16,27.37,27.83,27.13,27.51,3926128
14-Oct-16,27.87,27.97,27.42,27.51,3361287
13-Oct-16,27.12,28.08,27.11,27.82,3270455
12-Oct-16,27.22,27.45,26.88,27.30,2316464
11-Oct-16,27.57,27.71,26.98,27.22,1741489
10-Oct-16,28.15,28.30,27.72,27.78,1860337
7-Oct-16,27.34,28.00,26.63,27.76,3531140
6-Oct-16,27.50,27.72,27.26,27.52,1976799
5-Oct-16,27.30,27.53,27.06,27.34,2439776
4-Oct-16,27.20,27.29,26.83,27.04,2990691
3-Oct-16,26.93,27.23,26.72,27.22,2693314
30-Sep-16,26.40,27.12,26.24,26.95,3254264
29-Sep-16,26.77,27.12,25.89,26.14,2912328
28-Sep-16,25.58,27.15,25.58,26.86,4724585
27-Sep-16,26.03,26.06,25.26,25.68,3821549
26-Sep-16,26.51,26.84,26.34,26.57,1574119
23-Sep-16,26.92,27.19,26.18,26.34,2061219
22-Sep-16,27.64,27.98,26.81,26.99,3035533
21-Sep-16,26.96,27.46,26.86,27.43,2565325
20-Sep-16,26.62,27.10,26.30,26.65,2869489
19-Sep-16,26.29,26.77,26.16,26.54,2850331
16-Sep-16,25.73,26.22,25.58,26.04,4227257
15-Sep-16,26.20,26.87,25.81,26.62,2178746
14-Sep-16,26.62,26.97,26.02,26.13,2943262
13-Sep-16,27.53,27.56,26.45,26.56,2751622
12-Sep-16,27.09,27.84,26.86,27.76,2237436
9-Sep-16,27.35,27.64,26.92,27.11,2835595
8-Sep-16,26.93,27.67,26.70,27.56,5981867
7-Sep-16,26.69,26.99,26.58,26.63,2583297
6-Sep-16,25.92,26.52,25.76,26.52,2459892
2-Sep-16,26.02,26.20,25.64,25.92,1462007
1-Sep-16,25.48,25.78,25.28,25.76,2099171
31-Aug-16,26.16,26.28,25.50,25.56,2729979
30-Aug-16,26.29,26.60,26.16,26.35,2313716
29-Aug-16,26.51,26.69,26.08,26.16,3220691
26-Aug-16,26.94,26.96,26.45,26.61,2647958
25-Aug-16,26.74,26.89,26.52,26.79,2002454
24-Aug-16,27.09,27.25,26.68,26.74,2253321
23-Aug-16,26.85,27.53,26.64,27.24,2080778
22-Aug-16,26.67,27.06,26.40,26.96,4304575
19-Aug-16,27.22,27.51,26.86,26.98,3664380
18-Aug-16,27.09,27.53,26.79,27.44,2505729
17-Aug-16,27.43,27.43,26.76,26.93,3576086
16-Aug-16,27.49,27.78,27.04,27.60,3750177
15-Aug-16,27.47,27.63,26.83,27.58,4391885
12-Aug-16,27.16,27.55,26.92,27.42,4201965
11-Aug-16,26.08,27.06,26.00,26.94,5406813
10-Aug-16,27.27,27.56,26.83,26.99,2640495
9-Aug-16,27.91,27.91,26.95,27.14,3206420
8-Aug-16,27.45,28.23,27.43,27.91,4294029
5-Aug-16,27.32,27.55,26.94,27.23,4716029
4-Aug-16,27.12,27.78,26.96,27.20,3605004
3-Aug-16,26.31,27.34,26.02,27.20,4193941
2-Aug-16,26.03,26.23,25.52,26.04,2380739
1-Aug-16,26.02,26.13,25.11,25.85,4748387
29-Jul-16,25.62,26.29,25.53,26.19,3807733
28-Jul-16,25.90,26.10,25.48,25.89,2708217
27-Jul-16,26.31,26.47,25.54,25.92,2882395
26-Jul-16,25.90,26.16,25.63,26.11,1405631
25-Jul-16,25.91,26.06,25.43,26.00,2497846
22-Jul-16,26.45,26.45,25.84,26.19,2818119
21-Jul-16,26.56,27.01,26.09,26.14,2645518
20-Jul-16,26.63,26.93,26.22,26.44,1967963
19-Jul-16,27.03,27.21,26.68,26.83,2963723
18-Jul-16,26.46,26.88,25.91,26.83,2694213
15-Jul-16,27.06,27.06,25.99,26.37,3344518
14-Jul-16,28.18,28.24,26.52,26.85,5489352
13-Jul-16,27.83,28.06,27.28,28.04,4227065
12-Jul-16,26.97,27.96,26.95,27.75,4665352
11-Jul-16,25.95,26.54,25.68,26.37,3225046
8-Jul-16,25.79,26.14,25.50,25.70,2720566
7-Jul-16,26.33,26.49,25.27,25.46,2238506
6-Jul-16,25.41,26.00,25.24,25.95,3116058
5-Jul-16,25.77,25.94,24.83,25.66,3681325
1-Jul-16,26.10,26.73,25.96,26.28,2682013
30-Jun-16,26.56,26.58,25.83,25.98,4437526
29-Jun-16,27.81,27.83,26.47,26.51,3764773
28-Jun-16,27.15,27.50,26.72,27.44,3050792
27-Jun-16,27.11,27.18,26.21,26.56,4187324
24-Jun-16,27.41,28.13,27.11,27.38,10112112
23-Jun-16,28.85,28.92,28.32,28.60,3188038
22-Jun-16,28.69,28.91,28.30,28.50,3544995
21-Jun-16,27.85,28.82,27.82,28.68,5410478
20-Jun-16,28.27,28.56,27.90,28.24,3512324
17-Jun-16,27.92,28.15,27.69,27.83,5656017
16-Jun-16,27.44,27.78,26.85,27.16,3568432
15-Jun-16,27.76,28.44,27.59,27.98,3316067
14-Jun-16,28.24,28.42,27.45,27.96,4478999
13-Jun-16,27.56,28.52,27.50,28.34,7668176
10-Jun-16,28.75,28.76,27.63,27.67,23797710
9-Jun-16,29.00,29.59,28.81,29.34,3041818
8-Jun-16,30.46,30.50,29.18,29.28,3356397
7-Jun-16,29.41,30.21,29.34,30.10,2540422
6-Jun-16,29.33,29.49,28.70,29.31,2269447
3-Jun-16,29.00,29.13,28.46,28.86,1419864
2-Jun-16,28.71,29.00,28.45,28.89,1587883
1-Jun-16,28.79,29.25,28.76,29.13,2455574
31-May-16,27.99,29.13,27.99,29.03,6705778
27-May-16,27.68,28.05,27.34,28.02,1456600
26-May-16,28.19,28.48,27.63,27.73,2092099
25-May-16,27.37,28.11,27.20,27.92,2057568
24-May-16,27.13,27.49,26.95,27.26,2200685
23-May-16,26.26,27.22,25.96,27.12,2357335
20-May-16,26.41,26.69,25.69,26.47,1994746
19-May-16,25.89,26.26,25.36,26.21,1952167
18-May-16,27.02,27.71,26.11,26.36,2051951
17-May-16,26.04,27.28,25.91,27.19,3294725
16-May-16,25.97,26.29,25.75,26.01,2804994
13-May-16,25.60,26.25,25.39,25.50,1792662
12-May-16,26.20,26.47,25.61,25.89,2687839
11-May-16,25.78,26.39,25.42,26.02,2498650
10-May-16,25.73,26.08,25.42,26.04,1767439
9-May-16,25.84,25.90,25.07,25.49,2222926
6-May-16,25.35,26.40,25.15,25.90,2429434
5-May-16,26.63,26.86,25.69,25.80,3194908
4-May-16,25.93,26.27,25.44,25.90,3473044
3-May-16,26.54,26.78,25.52,25.85,3316608
2-May-16,27.96,27.96,26.66,27.10,3150592
29-Apr-16,28.39,29.25,27.68,28.30,4279751
28-Apr-16,27.64,30.66,27.33,27.98,4873756
27-Apr-16,28.83,29.85,28.83,29.68,2989503
26-Apr-16,28.40,29.06,28.23,28.86,2215318
25-Apr-16,28.48,28.70,27.67,28.23,1600954
22-Apr-16,28.01,28.99,28.01,28.73,2189529
21-Apr-16,28.00,28.32,27.32,27.88,1894816
20-Apr-16,27.68,28.33,27.50,27.88,1976798
19-Apr-16,27.46,28.56,27.37,27.91,1801727
18-Apr-16,26.02,27.24,25.74,27.16,1797817
15-Apr-16,26.47,27.15,26.20,26.84,2546200
14-Apr-16,26.72,27.32,26.24,26.61,2506493
13-Apr-16,27.51,27.59,26.74,26.82,2520582
12-Apr-16,25.74,27.87,25.40,27.53,3705518
11-Apr-16,25.60,26.14,25.35,25.53,1754517
8-Apr-16,26.01,26.10,24.84,25.45,2245172
7-Apr-16,24.97,25.56,24.75,25.50,2909999
6-Apr-16,24.88,25.55,24.26,25.15,2223278
5-Apr-16,24.57,25.32,24.47,24.73,2077881
4-Apr-16,24.84,25.67,24.62,24.76,1692197
1-Apr-16,24.68,24.98,24.32,24.77,1993868
31-Mar-16,24.93,25.27,24.63,24.87,1941160
30-Mar-16,25.78,25.82,24.64,24.89,2342648
29-Mar-16,24.28,25.38,24.16,25.31,2200885
28-Mar-16,24.77,24.90,24.16,24.68,2231888
24-Mar-16,24.56,24.92,23.69,24.69,2089453
23-Mar-16,25.83,26.15,24.67,24.72,1574639
22-Mar-16,26.26,26.78,25.70,26.10,2020011
21-Mar-16,24.58,26.18,24.55,26.02,3008372
18-Mar-16,24.73,25.35,24.40,24.75,11080352
17-Mar-16,24.82,25.03,24.09,24.62,3634722
16-Mar-16,24.41,24.97,23.84,24.59,3090672
15-Mar-16,23.70,24.20,23.27,24.12,2433075
14-Mar-16,23.06,24.08,22.94,23.78,2863310
11-Mar-16,23.40,24.08,22.78,23.73,3457281
10-Mar-16,22.55,22.96,21.56,22.75,3071581
9-Mar-16,23.07,23.17,22.01,22.88,3626196
8-Mar-16,24.20,24.27,22.32,22.52,3839533
7-Mar-16,23.01,24.08,22.17,24.02,4407396
4-Mar-16,24.72,24.84,22.07,22.89,6761515
3-Mar-16,23.22,24.06,22.75,23.89,4687985
2-Mar-16,22.44,23.25,21.85,23.14,7155572
1-Mar-16,22.44,23.01,21.45,22.47,9198318
29-Feb-16,24.04,24.20,22.74,22.85,3845154
26-Feb-16,24.85,24.91,23.34,24.13,3652750
25-Feb-16,24.41,25.17,22.57,23.52,3743347
24-Feb-16,22.94,24.15,22.57,24.04,3480915
23-Feb-16,23.60,23.60,22.50,22.80,3846146
22-Feb-16,24.84,24.91,24.06,24.29,1939437
19-Feb-16,24.49,24.54,23.19,23.98,2654488
18-Feb-16,26.22,26.40,24.27,24.64,2849873
17-Feb-16,25.65,26.32,24.40,26.25,4276176
16-Feb-16,26.48,26.56,24.01,24.64,2306735
12-Feb-16,25.65,26.11,24.85,26.02,1783151
11-Feb-16,25.12,25.87,24.31,25.16,2209748
10-Feb-16,25.98,26.70,24.90,25.96,2081936
9-Feb-16,27.14,27.40,25.12,26.23,2439983
8-Feb-16,27.15,27.85,26.12,27.70,3483163
5-Feb-16,26.96,27.47,25.76,27.17,3257829
4-Feb-16,26.26,27.75,26.26,27.04,4733884
3-Feb-16,26.24,26.88,25.26,26.66,2923406
2-Feb-16,25.70,26.33,25.11,25.85,2791861
1-Feb-16,25.83,27.14,25.83,26.88,4948562
29-Jan-16,26.06,27.23,25.50,27.17,2714415
28-Jan-16,27.12,27.74,25.11,26.00,2804188
27-Jan-16,24.63,26.51,24.61,25.50,3900654
26-Jan-16,24.08,25.00,23.28,24.96,3117275
25-Jan-16,23.03,24.92,23.00,23.06,3133542
22-Jan-16,24.71,25.08,23.27,23.90,4073579
21-Jan-16,22.98,24.54,22.73,24.22,3508221
20-Jan-16,20.59,23.18,19.97,22.99,4376547
19-Jan-16,21.75,21.93,20.08,20.89,2479201
15-Jan-16,19.73,21.85,19.70,21.68,2878260
14-Jan-16,20.08,21.32,19.91,20.66,3372709
13-Jan-16,20.95,21.00,19.53,19.90,2474530
12-Jan-16,20.74,20.77,19.00,19.95,2026642
11-Jan-16,22.39,22.39,20.00,20.18,2308515
8-Jan-16,21.16,22.74,21.01,22.26,2787876
7-Jan-16,19.24,21.27,19.17,20.95,3672185
6-Jan-16,21.41,21.46,19.55,19.77,2951682
5-Jan-16,22.27,22.74,21.63,22.11,2509795
4-Jan-16,21.75,22.68,21.35,22.68,3147065
31-Dec-15,21.29,22.17,21.29,21.80,3024681
30-Dec-15,22.63,23.22,21.30,21.51,2757211
29-Dec-15,23.03,23.63,22.24,23.21,3272232
28-Dec-15,22.39,22.57,21.50,22.54,1866108
24-Dec-15,22.84,23.10,22.53,22.78,870908
23-Dec-15,21.20,22.89,21.20,22.84,3621514
22-Dec-15,21.58,21.58,20.41,20.57,2620617
21-Dec-15,20.80,21.55,20.44,21.24,3788741
18-Dec-15,20.34,21.31,20.34,20.82,14105364
17-Dec-15,20.15,20.70,19.75,20.49,4236621
16-Dec-15,20.27,20.69,19.61,20.21,4144247
15-Dec-15,20.24,20.51,19.70,20.17,5052831
14-Dec-15,19.45,20.22,19.04,19.58,6403690
11-Dec-15,19.45,19.62,19.00,19.43,5889329
10-Dec-15,19.10,19.90,18.70,19.86,4717316
9-Dec-15,18.64,20.17,18.64,19.48,3189586
8-Dec-15,18.61,20.19,18.50,19.57,4360923
7-Dec-15,19.00,19.58,18.53,19.12,3881977
4-Dec-15,19.25,19.94,18.50,19.79,3636692
3-Dec-15,19.94,20.23,19.28,19.57,2980683
2-Dec-15,20.65,20.76,19.38,19.71,2715633
1-Dec-15,20.68,21.11,20.39,20.97,1854667
30-Nov-15,20.54,21.47,20.32,20.61,2152095
27-Nov-15,20.94,21.25,20.37,20.50,1011977
25-Nov-15,21.08,21.52,20.69,21.36,1483119
24-Nov-15,21.31,21.94,20.80,21.27,2274992
23-Nov-15,21.22,21.60,20.81,20.96,2306852
20-Nov-15,22.83,22.92,21.28,21.32,2447704
19-Nov-15,23.21,23.51,22.23,22.72,1932257
18-Nov-15,22.97,23.85,22.26,23.54,2773969
17-Nov-15,24.79,24.83,23.23,23.30,2308916
16-Nov-15,22.91,24.73,22.87,24.73,2424850
13-Nov-15,21.52,23.13,21.52,22.87,2102349
12-Nov-15,22.55,22.79,21.57,21.66,1960421
11-Nov-15,23.93,23.95,22.06,22.94,3197409
10-Nov-15,24.51,24.99,23.97,24.00,1331891
9-Nov-15,24.33,24.81,23.72,24.58,2204460
6-Nov-15,24.73,25.38,23.93,24.03,2196339
5-Nov-15,25.33,26.42,24.74,25.03,3037091
4-Nov-15,24.40,25.80,24.40,25.62,2957343
3-Nov-15,23.57,24.92,23.56,24.34,3402454
2-Nov-15,22.96,23.99,22.73,23.42,3323499
30-Oct-15,23.20,23.80,22.31,23.57,3823186
29-Oct-15,24.12,24.12,21.50,22.88,4006632
28-Oct-15,20.76,21.80,20.52,21.18,3556835
27-Oct-15,20.94,21.24,20.61,20.70,2597247
26-Oct-15,21.90,22.04,21.16,21.40,3744809
23-Oct-15,21.70,22.16,21.16,21.97,1921028
22-Oct-15,22.53,22.83,21.52,21.91,1990575
21-Oct-15,23.56,23.84,22.27,22.40,1337461
20-Oct-15,23.26,24.20,23.03,23.76,1305644
19-Oct-15,23.53,23.87,22.30,23.24,1455193
16-Oct-15,24.14,24.50,23.17,24.12,1428766
15-Oct-15,23.45,24.49,23.40,24.22,1326066
14-Oct-15,23.36,23.90,22.98,23.65,1493351
13-Oct-15,23.49,24.40,23.01,23.58,1999816
12-Oct-15,24.72,24.72,23.19,23.65,2348553
9-Oct-15,25.99,26.16,24.81,24.86,2455180
8-Oct-15,25.26,26.12,25.00,25.83,2036518
7-Oct-15,26.00,26.59,24.51,25.20,3092417
6-Oct-15,23.35,25.61,22.86,25.57,4447387
5-Oct-15,22.27,23.32,22.16,23.26,1976699
2-Oct-15,20.98,22.12,20.80,21.98,2438804
1-Oct-15,21.45,22.51,21.07,21.21,3892669
30-Sep-15,20.80,21.17,20.31,21.16,2521801
29-Sep-15,20.38,20.79,20.00,20.51,2432151
28-Sep-15,21.10,21.38,20.12,20.20,3281521
25-Sep-15,22.04,22.19,21.36,21.52,2472145
24-Sep-15,21.77,22.26,21.39,21.94,3115468
23-Sep-15,22.62,22.90,21.64,21.90,2116601
22-Sep-15,22.76,23.33,22.51,22.62,2337488
21-Sep-15,23.78,24.00,23.08,23.19,1922527
18-Sep-15,24.67,24.80,23.39,23.56,5253663
17-Sep-15,25.43,26.12,25.14,25.21,2174605
16-Sep-15,24.08,25.60,24.06,25.54,2879009
15-Sep-15,23.84,24.36,23.74,23.80,2053954
14-Sep-15,24.38,24.49,23.56,23.69,1839549
11-Sep-15,24.70,24.81,24.17,24.60,1969115
10-Sep-15,25.06,25.45,24.60,25.14,2313826
9-Sep-15,25.72,26.30,24.95,25.03,2183661
8-Sep-15,25.35,25.87,24.88,25.48,1381879
4-Sep-15,25.73,25.86,25.07,25.27,1388197
3-Sep-15,26.00,26.79,25.35,26.15,1463005
2-Sep-15,26.26,26.33,24.76,25.72,2115314
1-Sep-15,25.27,26.31,24.90,25.84,3438091
31-Aug-15,25.36,26.03,24.33,25.84,3553241
28-Aug-15,24.07,26.08,24.07,25.24,3186337
27-Aug-15,23.66,24.59,23.14,24.26,3277379
26-Aug-15,22.33,22.86,21.54,22.85,3419039
25-Aug-15,23.56,23.56,21.58,21.61,3308697
24-Aug-15,23.75,23.95,22.14,22.31,3828924
21-Aug-15,24.82,25.72,24.22,24.23,3031472
20-Aug-15,25.34,26.24,25.19,25.38,2061345
19-Aug-15,27.21,27.58,25.13,25.44,2705476
18-Aug-15,27.10,27.57,26.62,27.42,1724657
17-Aug-15,26.91,27.75,26.64,27.12,1577780
14-Aug-15,26.70,27.32,26.60,27.09,2034110
13-Aug-15,27.73,27.76,26.42,26.69,1754145
12-Aug-15,26.75,28.01,26.74,27.94,1880876
11-Aug-15,26.27,26.93,26.07,26.81,1732532
10-Aug-15,26.07,27.12,25.83,27.03,1619302
7-Aug-15,26.20,26.91,25.61,25.97,2045540
6-Aug-15,25.45,26.62,25.09,26.50,3544955
5-Aug-15,26.81,27.23,25.75,25.84,2519462
4-Aug-15,26.81,27.15,26.18,26.53,1651495
3-Aug-15,27.09,27.78,26.38,26.44,2448403
31-Jul-15,28.14,28.18,27.49,27.51,2589838
30-Jul-15,28.39,29.22,27.71,28.05,2060596
29-Jul-15,28.30,28.83,27.60,28.41,2571350
28-Jul-15,27.72,29.04,27.43,28.48,2005523
27-Jul-15,27.81,28.44,27.23,27.52,2526284
24-Jul-15,28.50,28.54,27.88,28.24,2600458
23-Jul-15,28.74,29.06,27.82,28.55,4931223
22-Jul-15,29.08,29.51,28.54,28.84,3099868
21-Jul-15,29.56,30.14,29.04,29.26,2869932
20-Jul-15,30.38,30.48,29.25,29.50,4065838
17-Jul-15,31.45,31.45,30.14,30.43,2343319
16-Jul-15,31.71,31.71,30.96,31.55,2463025
15-Jul-15,32.41,32.53,31.21,31.60,2201630
14-Jul-15,31.39,32.60,30.92,32.58,2282449
13-Jul-15,30.62,31.25,30.11,31.24,2454579
10-Jul-15,31.42,31.44,30.13,30.19,1393423
9-Jul-15,31.81,32.02,31.02,31.04,1594516
8-Jul-15,32.98,32.99,30.93,31.23,1446212
7-Jul-15,32.21,33.03,31.33,33.02,2313893
6-Jul-15,32.62,33.01,32.11,32.30,3637054
2-Jul-15,33.81,34.05,33.18,33.25,2120268
1-Jul-15,34.33,34.56,33.31,33.61,2752546
30-Jun-15,34.62,34.67,33.89,34.34,1295391
29-Jun-15,34.55,34.93,33.98,34.22,1209228
26-Jun-15,35.24,35.41,34.76,35.12,3860593
25-Jun-15,35.71,35.83,35.18,35.20,1608374
24-Jun-15,35.73,36.24,35.35,35.71,2123607
23-Jun-15,35.65,35.83,35.14,35.79,1482339
22-Jun-15,35.55,35.75,35.02,35.72,1314141
19-Jun-15,35.93,36.03,35.08,35.24,2345158
18-Jun-15,36.42,36.48,35.81,36.15,1930682
17-Jun-15,36.73,37.07,35.95,36.22,1195027
16-Jun-15,36.40,36.77,36.04,36.35,1445107
15-Jun-15,35.92,36.88,35.90,36.52,855331
12-Jun-15,36.49,36.65,35.98,36.20,1898461
11-Jun-15,37.68,37.70,36.22,36.67,2104239
10-Jun-15,38.67,38.67,36.78,37.60,2277114
9-Jun-15,38.52,39.22,38.07,38.13,1080353
8-Jun-15,38.24,38.64,37.41,37.98,1159733
5-Jun-15,38.15,39.41,38.00,38.19,1185040
4-Jun-15,38.94,39.13,38.12,38.38,1281125
3-Jun-15,39.79,40.21,39.22,39.25,801649
2-Jun-15,39.42,40.52,39.42,40.07,945558
1-Jun-15,40.11,40.21,39.24,39.53,1216200
29-May-15,40.23,40.52,39.80,40.01,1652182
28-May-15,40.23,41.26,39.47,40.34,2080311
27-May-15,40.19,40.66,39.68,40.30,1160004
26-May-15,40.32,40.81,39.96,40.30,1484726
22-May-15,40.56,41.64,40.32,40.80,1192724
21-May-15,40.99,41.65,40.99,41.27,1172764
20-May-15,40.94,41.25,40.26,40.98,1322934
19-May-15,41.60,41.83,40.65,41.12,1485595
18-May-15,42.45,42.99,41.69,42.52,1558954
15-May-15,41.60,43.45,41.28,42.75,2149546
14-May-15,42.96,43.13,41.80,41.90,2340007
13-May-15,44.75,44.99,42.88,43.24,1974397
12-May-15,45.11,45.44,44.17,44.36,1922772
11-May-15,45.64,45.89,44.29,44.49,1446239
8-May-15,43.56,46.06,42.84,45.65,3119716
7-May-15,43.89,43.90,42.82,43.58,1647092
6-May-15,44.47,45.08,43.71,44.05,2383172
5-May-15,45.00,45.19,43.62,43.92,1729120
4-May-15,44.90,45.15,43.97,44.45,1143229
1-May-15,44.38,45.50,43.82,44.89,2770427
30-Apr-15,44.73,44.83,40.22,44.31,2731163
29-Apr-15,41.67,42.90,41.43,42.60,1417916
28-Apr-15,41.87,42.66,41.69,41.92,1195800
27-Apr-15,42.18,42.59,41.67,41.81,1703083
24-Apr-15,41.99,42.83,41.78,42.56,1632089
23-Apr-15,42.08,42.81,42.00,42.30,1140380
22-Apr-15,41.54,42.16,41.15,41.95,987440
21-Apr-15,41.67,42.19,40.99,41.38,1245565
20-Apr-15,41.17,42.25,41.08,41.58,1385630
17-Apr-15,41.14,41.64,40.53,41.47,1480767
16-Apr-15,41.06,42.01,40.14,41.57,2493865
15-Apr-15,39.39,41.70,38.87,41.35,2104215
14-Apr-15,37.88,39.18,37.86,38.99,1323707
13-Apr-15,37.45,37.71,37.07,37.59,1228629
10-Apr-15,37.74,37.86,36.98,37.35,968712
9-Apr-15,37.72,38.06,37.31,37.68,1031231
8-Apr-15,38.24,38.26,37.19,37.55,1921447
7-Apr-15,36.97,38.08,36.97,38.01,2448013
6-Apr-15,37.14,37.48,36.92,37.16,2233530
2-Apr-15,35.24,36.83,34.99,36.78,2074147
1-Apr-15,35.39,36.18,35.09,35.35,1472927
31-Mar-15,34.82,35.73,34.63,35.32,1459219
30-Mar-15,35.26,36.02,34.36,35.21,1505821
27-Mar-15,35.00,35.37,34.49,34.97,881039
26-Mar-15,36.62,36.71,34.84,35.33,1200484
25-Mar-15,35.43,36.08,34.84,35.45,1605160
24-Mar-15,35.43,35.51,34.80,35.08,1441919
23-Mar-15,35.77,36.62,35.20,35.28,1289096
20-Mar-15,36.00,36.58,35.66,36.03,1856546
19-Mar-15,36.14,36.29,35.57,35.63,1266783
18-Mar-15,34.96,37.13,34.75,36.96,1537777
17-Mar-15,34.72,35.83,34.53,35.45,1412591
16-Mar-15,34.86,35.08,33.68,34.93,1535383
13-Mar-15,35.94,35.99,34.80,35.16,1349775
12-Mar-15,36.57,37.14,35.88,36.38,1270625
11-Mar-15,35.60,36.64,35.25,36.43,1635366
10-Mar-15,35.72,36.06,35.22,35.53,1908214
9-Mar-15,37.54,37.65,36.04,36.05,2813356
6-Mar-15,37.00,37.37,36.65,36.89,3895851
5-Mar-15,38.01,38.11,36.99,37.13,9993418
4-Mar-15,38.24,38.55,37.54,38.45,806553
3-Mar-15,38.25,38.73,37.76,37.85,1182594
2-Mar-15,39.31,39.31,37.25,38.02,1735483
27-Feb-15,40.90,40.94,38.95,39.45,1621607
26-Feb-15,41.00,41.97,39.18,40.52,2525953
25-Feb-15,39.57,41.07,39.33,41.03,1972115
24-Feb-15,40.30,40.65,38.95,39.41,1515084
23-Feb-15,40.15,40.62,39.45,40.15,1246987
20-Feb-15,41.30,41.66,40.00,40.24,1143715
19-Feb-15,39.90,41.78,39.48,41.28,840532
18-Feb-15,41.41,42.26,40.63,41.04,1052417
17-Feb-15,40.13,42.14,39.36,42.02,1437527
13-Feb-15,40.21,40.57,39.55,40.34,1014650
12-Feb-15,40.41,40.65,39.31,39.65,1354705
11-Feb-15,40.85,41.25,39.29,39.77,1622055
10-Feb-15,40.87,41.03,39.09,40.98,1612261
9-Feb-15,40.03,41.93,39.96,40.67,2008571
6-Feb-15,40.85,40.90,39.19,39.97,2360051
5-Feb-15,37.70,40.50,37.70,40.41,2110116
4-Feb-15,38.23,38.88,37.20,38.01,2077003
3-Feb-15,37.58,38.72,36.67,38.58,2369895
2-Feb-15,35.37,36.76,35.00,36.55,1997735
30-Jan-15,33.47,34.90,33.25,34.65,1820255
29-Jan-15,34.80,35.20,33.79,34.02,1821038
28-Jan-15,36.48,36.50,34.24,34.59,1627287
27-Jan-15,36.55,37.45,36.19,36.82,1525038
26-Jan-15,35.68,37.89,35.58,36.65,2345663
23-Jan-15,35.06,37.04,34.99,35.49,1473028
22-Jan-15,37.02,37.50,35.63,35.91,2169583
21-Jan-15,36.97,37.98,36.78,37.00,2134295
20-Jan-15,36.63,36.99,35.25,36.55,1683945
16-Jan-15,35.46,37.30,35.24,37.22,1312021
15-Jan-15,36.92,36.97,34.85,35.18,2937596
14-Jan-15,35.95,36.72,35.25,36.10,2749757
13-Jan-15,36.59,37.26,35.67,36.28,2100785
12-Jan-15,38.84,38.88,35.98,36.53,2618033
9-Jan-15,37.67,39.70,37.38,39.33,2386825
8-Jan-15,37.06,38.09,36.44,37.83,1422654
7-Jan-15,38.57,38.57,35.87,36.64,2185699
6-Jan-15,38.41,39.15,36.80,38.07,2669133
5-Jan-15,41.95,42.09,38.32,38.48,2018183
2-Jan-15,40.60,42.42,39.97,42.35,1526521
31-Dec-14,40.36,41.25,40.05,40.58,1266061
30-Dec-14,40.97,41.50,40.34,40.68,1882556
29-Dec-14,41.68,42.71,40.97,41.29,1933234
26-Dec-14,42.65,42.66,40.76,41.41,1229532
24-Dec-14,43.13,43.14,41.90,42.50,775368
23-Dec-14,42.95,44.13,42.89,43.14,2608166
22-Dec-14,42.48,43.62,42.05,42.66,2441988
19-Dec-14,43.40,44.27,42.45,44.01,2658996
18-Dec-14,44.48,44.83,41.73,43.05,1587240
17-Dec-14,40.99,44.51,40.76,43.33,1595530
16-Dec-14,39.13,41.86,39.05,40.99,2087686
15-Dec-14,40.20,40.83,39.35,39.55,2591512
12-Dec-14,38.81,40.39,38.42,39.89,2121051
11-Dec-14,38.81,40.37,38.46,39.22,2502135
10-Dec-14,38.03,39.52,37.85,39.04,2240224
9-Dec-14,38.50,39.78,38.50,39.19,1785028
8-Dec-14,41.32,41.46,37.86,38.60,3457869
5-Dec-14,44.00,44.13,41.64,42.28,1796628
4-Dec-14,45.35,45.53,43.57,43.97,1385738
3-Dec-14,44.74,46.31,44.73,46.01,1413451
2-Dec-14,46.64,47.00,45.14,45.26,1067637
1-Dec-14,46.45,47.08,45.60,46.71,1238771
28-Nov-14,47.58,48.42,46.46,46.92,922040
26-Nov-14,51.05,51.55,49.03,49.30,2155657
25-Nov-14,52.70,53.08,51.00,51.47,2092597
24-Nov-14,52.55,52.95,51.85,52.60,852078
21-Nov-14,54.01,54.45,52.29,52.81,1557930
20-Nov-14,52.53,53.42,52.08,53.24,1237487
19-Nov-14,52.59,53.01,51.87,52.30,823509
18-Nov-14,52.01,52.70,51.87,52.15,599165
17-Nov-14,52.04,52.94,51.03,52.27,1334542
14-Nov-14,53.18,53.90,52.02,52.51,1303332
13-Nov-14,55.02,55.11,52.58,53.18,1254180
12-Nov-14,54.57,56.24,54.55,55.51,1583278
11-Nov-14,54.62,55.71,53.71,55.06,1040197
10-Nov-14,55.25,56.81,54.07,54.78,1870938
7-Nov-14,53.40,55.86,52.86,55.06,2075107
6-Nov-14,51.75,53.00,49.47,52.80,2163190
5-Nov-14,51.96,52.68,51.01,52.31,1794812
4-Nov-14,52.23,52.73,50.54,51.25,2091450
3-Nov-14,52.66,54.32,51.64,52.30,2463472
31-Oct-14,50.80,52.48,50.52,52.44,1579402
30-Oct-14,50.36,51.50,50.31,51.25,1046197
29-Oct-14,50.64,51.50,50.27,50.83,948062
28-Oct-14,48.24,50.07,48.24,50.07,962711
27-Oct-14,49.11,49.18,47.23,48.43,788631
24-Oct-14,48.53,49.68,47.92,48.91,1039655
23-Oct-14,48.48,49.77,47.93,48.44,1175790
22-Oct-14,49.86,50.12,47.65,47.75,1355590
21-Oct-14,50.00,50.55,49.25,49.88,1391488
20-Oct-14,50.16,51.35,48.81,49.46,1022912
17-Oct-14,53.78,54.11,49.44,50.21,2049996
16-Oct-14,47.06,52.86,47.06,52.44,2317867
15-Oct-14,45.54,49.14,44.66,48.66,2482622
14-Oct-14,46.82,48.82,45.75,46.14,1960188
13-Oct-14,47.20,47.72,45.78,46.08,1014111
10-Oct-14,47.73,48.65,46.40,47.38,1151099
9-Oct-14,49.16,49.54,47.69,47.80,1294971
8-Oct-14,49.90,49.97,48.44,49.69,1647013
7-Oct-14,51.75,51.88,49.95,50.07,1453832
6-Oct-14,52.28,52.73,51.76,51.86,708444
3-Oct-14,53.35,53.37,51.78,52.22,1197499
2-Oct-14,53.55,53.83,52.32,53.13,1255415
1-Oct-14,54.91,55.60,53.94,54.03,1215760
30-Sep-14,55.23,56.23,54.53,54.89,2234274
29-Sep-14,54.82,55.62,53.72,55.39,817163
26-Sep-14,54.37,55.57,53.94,55.20,967243
25-Sep-14,56.57,56.67,54.25,54.52,1296474
24-Sep-14,56.60,56.75,55.40,56.32,759586
23-Sep-14,56.72,57.75,56.20,56.39,1033764
22-Sep-14,57.20,57.63,56.04,56.93,1574720
19-Sep-14,57.94,58.30,57.55,57.92,1830508
18-Sep-14,57.76,58.63,57.66,57.98,943398
17-Sep-14,57.76,58.25,57.24,57.63,751539
16-Sep-14,56.76,58.02,56.32,57.80,894667
15-Sep-14,56.68,57.32,55.87,56.76,813248
12-Sep-14,56.43,57.07,56.09,56.77,907409
11-Sep-14,55.97,56.75,55.57,56.60,721311
10-Sep-14,55.88,56.90,54.96,56.45,579371
9-Sep-14,55.94,56.47,55.27,55.84,673466
8-Sep-14,55.75,56.27,55.14,55.96,686684
5-Sep-14,55.60,56.21,55.08,56.17,489837
4-Sep-14,56.48,57.51,55.39,55.51,909473
3-Sep-14,57.05,57.11,56.49,56.51,564652
2-Sep-14,57.89,58.10,56.43,56.64,318294
29-Aug-14,57.30,57.93,57.09,57.85,288774
28-Aug-14,56.64,57.41,56.50,57.30,509076
27-Aug-14,57.51,57.86,56.23,56.73,898835
26-Aug-14,57.71,58.49,57.44,57.48,514847
25-Aug-14,56.68,57.67,56.68,57.40,326385
22-Aug-14,56.77,57.56,56.28,56.39,457139
21-Aug-14,57.17,57.17,56.13,56.89,337549
20-Aug-14,56.97,57.93,56.52,56.92,540336
19-Aug-14,56.05,57.74,55.96,57.07,689438
18-Aug-14,55.57,56.00,55.24,55.87,510214
15-Aug-14,55.74,55.97,55.18,55.52,547038
14-Aug-14,55.25,55.78,55.10,55.33,657268
13-Aug-14,55.53,56.07,55.12,55.22,705039
12-Aug-14,56.49,56.98,55.52,55.62,812138
11-Aug-14,57.58,57.82,56.40,56.46,767447
8-Aug-14,56.21,57.30,55.82,57.09,610253
7-Aug-14,56.00,56.99,53.42,56.10,3341414
6-Aug-14,57.00,58.09,56.99,57.16,1166344
5-Aug-14,57.93,58.95,56.95,57.38,897159
4-Aug-14,57.46,58.18,56.56,57.66,740034
1-Aug-14,57.89,57.89,56.61,57.28,1254530
31-Jul-14,58.00,58.15,57.21,57.76,1220165
30-Jul-14,57.94,58.48,57.62,58.18,797777
29-Jul-14,57.75,58.70,57.75,57.91,503084
28-Jul-14,58.53,58.58,56.91,57.90,979368
25-Jul-14,59.48,59.66,58.26,58.57,735699
24-Jul-14,59.77,60.47,59.22,59.37,782033
23-Jul-14,59.83,59.89,59.15,59.71,1073019
22-Jul-14,60.49,60.55,59.51,59.54,1837394
21-Jul-14,60.36,60.92,60.00,60.20,834712
18-Jul-14,59.38,61.18,59.38,60.64,1065689
17-Jul-14,60.57,61.00,59.12,59.41,1435348
16-Jul-14,60.40,60.89,59.43,60.40,978779
15-Jul-14,61.21,61.50,59.82,60.33,713326
14-Jul-14,61.95,62.27,61.31,61.43,568972
11-Jul-14,62.28,62.78,61.47,61.86,941550
10-Jul-14,63.18,63.44,62.16,62.21,1087439
9-Jul-14,64.12,64.28,63.59,63.76,548575
8-Jul-14,64.24,64.24,62.64,63.96,913858
7-Jul-14,65.43,65.43,64.00,64.36,739840
3-Jul-14,65.52,65.73,64.30,65.71,391848
2-Jul-14,65.03,66.10,64.59,65.09,734298
1-Jul-14,65.57,65.84,64.16,64.89,770848
30-Jun-14,65.15,66.06,64.30,65.63,637599
27-Jun-14,64.58,65.45,64.00,64.81,1664139
26-Jun-14,64.43,65.00,63.92,64.57,641661
25-Jun-14,63.15,64.24,62.75,63.65,662595
24-Jun-14,64.23,64.80,63.17,63.34,913440
23-Jun-14,64.45,65.09,64.24,64.58,839497
20-Jun-14,65.19,65.49,64.09,64.51,1173477
19-Jun-14,63.70,64.79,63.20,64.76,872565
18-Jun-14,63.21,63.94,62.85,63.79,658453
17-Jun-14,62.08,63.68,61.84,63.50,697740
16-Jun-14,62.30,62.42,61.48,62.39,535387
13-Jun-14,62.00,62.52,61.00,61.98,622529
12-Jun-14,61.48,62.42,61.09,62.00,905116
11-Jun-14,60.37,61.52,60.00,61.30,1146477
10-Jun-14,62.02,62.11,60.67,60.95,938853
9-Jun-14,63.42,63.81,61.69,62.26,833153
6-Jun-14,63.94,63.94,62.52,63.43,915792
5-Jun-14,64.29,64.40,63.02,63.52,894098
4-Jun-14,63.05,64.40,62.60,64.06,844719
3-Jun-14,61.74,63.08,61.07,63.05,968758
2-Jun-14,61.97,62.88,61.26,61.81,821506
30-May-14,61.89,62.18,60.91,61.50,3067999
29-May-14,61.76,62.16,60.70,61.60,1160474
28-May-14,62.14,62.48,61.71,62.00,1020256
27-May-14,60.92,62.05,60.64,62.03,969809
23-May-14,60.98,61.34,60.00,60.57,1015416
22-May-14,62.16,62.37,60.43,60.99,1429189
21-May-14,62.75,63.10,62.28,62.47,867102
20-May-14,62.92,63.10,61.98,62.44,956663
19-May-14,62.17,62.89,62.02,62.63,787567
16-May-14,62.83,62.86,61.61,62.17,807963
15-May-14,61.89,62.76,61.27,62.21,2223564
14-May-14,62.03,62.70,61.95,62.01,10020312
13-May-14,61.50,63.25,61.30,63.14,1998248
12-May-14,64.66,64.72,62.55,63.79,862891
9-May-14,62.95,65.82,62.71,64.14,884121
8-May-14,65.42,66.00,62.08,62.93,1866697
7-May-14,66.43,67.35,65.33,66.58,904027
6-May-14,67.17,67.92,65.91,66.43,972897
5-May-14,65.37,67.22,64.44,66.96,489557
2-May-14,65.76,67.51,65.50,65.65,532915
1-May-14,65.67,66.04,64.67,65.86,643202
30-Apr-14,66.34,67.00,64.84,65.67,672732
29-Apr-14,64.36,67.12,64.10,66.50,936648
28-Apr-14,62.94,64.47,62.55,64.27,634375
25-Apr-14,63.52,63.71,62.22,62.72,673482
24-Apr-14,64.03,64.17,62.34,63.29,1446635
23-Apr-14,64.30,64.38,63.40,63.55,482813
22-Apr-14,64.61,65.63,63.66,63.71,569615
21-Apr-14,63.25,64.78,62.46,64.53,917810
17-Apr-14,61.87,63.87,60.77,63.36,525061
16-Apr-14,60.28,63.02,60.21,62.01,1209407
15-Apr-14,58.72,60.24,58.02,60.21,1860759
14-Apr-14,63.47,63.47,56.28,59.06,3916821
11-Apr-14,64.08,65.07,63.07,63.22,796052
10-Apr-14,65.00,65.83,63.34,64.46,668049
9-Apr-14,64.90,65.32,64.36,64.86,534351
8-Apr-14,62.20,64.55,61.89,64.47,883104
7-Apr-14,65.10,65.36,62.98,63.36,983601
4-Apr-14,65.78,66.68,64.00,66.03,871578
3-Apr-14,66.42,66.62,65.42,66.08,595413
2-Apr-14,65.49,66.11,64.53,65.89,792618
1-Apr-14,62.45,65.28,61.37,65.08,1576484
31-Mar-14,64.10,64.65,61.84,62.60,947218
28-Mar-14,63.61,64.53,63.15,64.04,1010482
27-Mar-14,65.32,65.40,62.45,63.69,1613398
26-Mar-14,67.85,68.43,65.26,65.48,657269
25-Mar-14,66.48,68.00,66.20,67.41,1081833
24-Mar-14,64.50,67.23,63.86,65.70,1274922
21-Mar-14,63.91,64.91,62.80,63.83,1046602
20-Mar-14,62.77,63.99,61.66,63.95,651108
19-Mar-14,64.00,64.95,62.50,62.83,1058285
18-Mar-14,62.35,64.71,62.35,63.35,1384482
17-Mar-14,60.31,61.50,58.84,61.04,756262
14-Mar-14,59.80,60.88,59.29,60.15,383767
13-Mar-14,60.25,60.74,59.21,59.53,602996
12-Mar-14,60.37,61.07,59.56,60.24,422791
11-Mar-14,61.06,61.83,59.95,60.59,429556
10-Mar-14,61.18,61.54,60.00,60.78,451503
7-Mar-14,60.97,61.47,60.70,61.24,454697
6-Mar-14,59.79,61.57,59.35,61.01,836428
5-Mar-14,59.70,61.15,59.05,59.36,897716
4-Mar-14,59.65,60.08,58.50,59.35,542791
3-Mar-14,60.34,61.40,57.77,59.49,989659
28-Feb-14,60.83,61.04,58.90,60.34,756348
27-Feb-14,59.14,62.04,56.82,60.67,1676935
26-Feb-14,58.57,59.09,58.03,58.58,787535
25-Feb-14,57.98,58.95,57.76,58.61,561167
24-Feb-14,57.47,58.98,57.09,58.27,965618
21-Feb-14,58.08,58.13,55.96,57.14,1462396
20-Feb-14,58.28,58.42,57.07,57.64,369795
19-Feb-14,57.38,58.90,56.81,58.36,629493
18-Feb-14,57.26,58.27,57.03,57.14,410053
14-Feb-14,57.00,58.31,56.50,57.14,710844
13-Feb-14,56.61,57.50,55.59,56.79,711051
12-Feb-14,57.15,57.57,56.39,56.75,565234
11-Feb-14,55.34,57.07,55.25,56.73,568077
10-Feb-14,55.70,56.25,55.10,55.42,597527
7-Feb-14,58.29,58.29,55.33,55.68,1050289
6-Feb-14,57.00,57.70,56.56,57.05,1391171
5-Feb-14,57.32,58.12,56.50,56.78,627121
4-Feb-14,57.76,58.43,56.08,57.58,1137267
3-Feb-14,59.12,59.26,56.87,57.53,372673
31-Jan-14,58.34,59.43,57.47,58.74,437712
30-Jan-14,59.99,60.00,58.00,58.87,1405127
29-Jan-14,58.31,60.03,57.60,59.86,725105
28-Jan-14,57.95,59.64,57.58,58.96,755408
27-Jan-14,58.09,58.41,56.67,57.02,795761
24-Jan-14,57.97,58.72,55.01,57.99,1273287
23-Jan-14,58.18,58.70,57.52,58.52,766516
22-Jan-14,57.50,58.27,57.33,58.18,542869
21-Jan-14,58.30,58.30,56.34,57.20,658848
17-Jan-14,57.27,57.84,56.37,56.51,688339
16-Jan-14,56.50,57.56,56.10,57.05,867742
15-Jan-14,55.64,56.94,55.08,56.03,973504
14-Jan-14,54.56,55.60,54.10,55.37,550088
13-Jan-14,55.07,55.44,53.61,54.45,1125339
10-Jan-14,56.06,56.38,54.78,55.13,637866
9-Jan-14,58.26,58.45,54.79,56.10,1136129
8-Jan-14,57.52,58.37,56.81,57.94,680628
7-Jan-14,58.75,59.10,56.55,57.29,1084426
6-Jan-14,60.81,60.81,58.00,58.95,687563
3-Jan-14,61.28,61.38,59.65,60.72,524573
2-Jan-14,63.15,63.21,60.07,60.98,1022440
31-Dec-13,62.51,63.57,61.34,63.44,510239
30-Dec-13,62.27,63.19,61.86,62.25,423641
27-Dec-13,61.26,62.46,60.72,62.38,318870
26-Dec-13,61.37,62.03,60.56,61.00,242774
24-Dec-13,60.24,61.16,60.24,61.08,272216
23-Dec-13,59.81,60.53,58.54,60.33,967201
20-Dec-13,59.39,60.25,58.37,59.91,3382112
19-Dec-13,60.99,60.99,58.94,59.00,926604
18-Dec-13,58.15,59.57,58.15,59.54,1041030
17-Dec-13,56.35,58.82,56.35,58.46,788369
16-Dec-13,56.34,57.24,56.34,56.57,712706
13-Dec-13,57.06,57.07,56.26,56.41,551638
12-Dec-13,56.02,56.98,55.39,56.68,815690
11-Dec-13,57.00,57.48,55.91,56.05,1287810
10-Dec-13,55.85,58.23,55.74,56.84,2043800
9-Dec-13,53.17,54.71,53.10,54.30,575246
6-Dec-13,54.99,55.77,54.16,54.18,733434
5-Dec-13,54.28,55.01,54.00,54.69,741699
4-Dec-13,54.00,54.93,53.82,54.40,769172
3-Dec-13,54.34,55.06,53.72,54.34,885402
2-Dec-13,54.84,55.14,52.72,54.23,623362
29-Nov-13,55.14,55.71,54.66,54.90,92367
27-Nov-13,55.12,56.33,54.85,54.86,253697
26-Nov-13,55.06,55.62,54.95,55.10,409890
25-Nov-13,55.45,55.60,54.38,55.18,322092
22-Nov-13,54.76,55.98,54.10,55.40,910923
21-Nov-13,52.75,53.78,52.41,53.49,349841
20-Nov-13,52.55,53.28,51.97,52.67,383845
19-Nov-13,52.00,52.99,51.89,52.70,569807
18-Nov-13,53.64,54.15,51.83,52.06,395577
15-Nov-13,54.00,54.52,53.40,53.52,384198
14-Nov-13,54.04,54.13,53.36,53.80,362362
13-Nov-13,54.48,54.48,53.77,54.07,433131
12-Nov-13,54.28,55.06,53.60,54.24,523727
11-Nov-13,55.15,55.85,54.16,54.28,646408
8-Nov-13,56.72,56.72,54.00,55.64,708678
7-Nov-13,54.70,54.70,53.31,54.00,1566528
6-Nov-13,55.96,56.06,54.88,55.04,719279
5-Nov-13,55.99,56.00,54.58,55.19,521285
4-Nov-13,56.95,57.12,54.23,54.98,810072
1-Nov-13,56.75,57.00,54.51,55.15,987570
31-Oct-13,56.50,57.76,56.02,56.49,396138
30-Oct-13,55.85,57.08,55.55,56.84,979333
29-Oct-13,57.00,57.22,56.04,56.33,1172602
28-Oct-13,56.00,57.15,55.59,57.00,519078
25-Oct-13,55.05,56.52,54.31,56.38,536880
24-Oct-13,54.82,55.45,54.48,55.20,629699
23-Oct-13,53.25,55.00,53.12,54.82,781598
22-Oct-13,54.70,56.01,53.85,54.35,1071597
21-Oct-13,55.00,55.48,54.62,55.13,849152
18-Oct-13,55.30,56.56,52.91,55.13,1017167
17-Oct-13,57.50,57.62,53.90,54.90,1985750
16-Oct-13,57.40,57.80,55.98,57.56,2233253
15-Oct-13,56.38,57.67,55.87,57.06,1566723
14-Oct-13,53.18,56.50,53.00,55.64,1018837
11-Oct-13,52.26,55.44,51.85,53.30,3245345
10-Oct-13,54.15,55.02,51.56,52.01,29240916
