﻿Date,Open,High,Low,Close,Volume
20-Jun-17,32.47,32.85,32.19,32.23,1374532
19-Jun-17,31.80,32.49,31.06,32.46,4572460
16-Jun-17,32.94,33.00,31.33,31.90,12616640
15-Jun-17,39.20,39.40,39.09,39.33,817039
14-Jun-17,39.36,39.68,39.12,39.53,1056284
13-Jun-17,39.07,39.29,38.93,39.19,618861
12-Jun-17,38.52,39.23,38.44,39.00,910334
9-Jun-17,38.87,38.94,38.18,38.57,904440
8-Jun-17,38.62,39.00,38.54,38.91,629216
7-Jun-17,38.27,38.63,38.10,38.55,745976
6-Jun-17,38.67,38.72,38.27,38.27,1782783
5-Jun-17,39.23,39.24,38.80,38.85,761129
2-Jun-17,39.46,39.58,39.22,39.22,812328
1-Jun-17,39.55,39.55,39.04,39.41,1054844
31-May-17,39.35,39.50,38.97,39.44,857256
30-May-17,39.26,39.40,39.12,39.25,1533304
26-May-17,39.23,39.39,38.95,39.24,568990
25-May-17,38.64,39.33,38.52,39.19,1357130
24-May-17,38.50,38.69,38.17,38.56,1253081
23-May-17,38.83,38.89,37.91,38.33,1374948
22-May-17,37.75,38.60,37.19,38.50,3348200
19-May-17,35.66,36.12,35.57,35.95,1080984
18-May-17,35.72,35.86,35.53,35.59,1085952
17-May-17,35.93,36.06,35.62,35.63,786998
16-May-17,36.62,36.67,36.24,36.37,749938
15-May-17,36.03,36.57,36.03,36.46,673851
12-May-17,35.78,36.11,35.61,35.99,507678
11-May-17,35.65,35.84,35.46,35.80,359807
10-May-17,35.60,35.87,35.47,35.74,547166
9-May-17,35.77,35.88,35.40,35.58,1012927
8-May-17,35.92,35.92,35.65,35.77,752625
5-May-17,36.00,36.06,35.61,35.84,962297
4-May-17,35.66,35.86,35.31,35.85,1075230
3-May-17,35.52,35.54,35.14,35.50,916105
2-May-17,35.80,35.94,35.48,35.58,1057563
1-May-17,35.17,36.28,35.06,35.84,1046311
28-Apr-17,36.10,36.15,35.62,35.93,724604
27-Apr-17,36.48,36.65,36.11,36.18,862275
26-Apr-17,35.86,36.40,35.73,36.34,727557
25-Apr-17,36.02,36.22,35.86,35.90,717372
24-Apr-17,35.97,35.97,35.60,35.76,852185
21-Apr-17,35.62,35.70,35.24,35.65,1505445
20-Apr-17,35.42,35.78,35.40,35.73,624102
19-Apr-17,35.09,35.56,35.02,35.32,920211
18-Apr-17,34.72,35.18,34.72,35.04,1055338
17-Apr-17,34.47,34.94,34.40,34.92,924902
13-Apr-17,34.60,34.83,34.32,34.34,747608
12-Apr-17,35.35,35.35,34.68,34.76,854802
11-Apr-17,34.89,35.34,34.72,35.32,987021
10-Apr-17,34.87,35.18,34.85,34.95,650033
7-Apr-17,34.58,34.94,34.50,34.90,1010852
6-Apr-17,34.45,34.92,34.38,34.62,1283703
5-Apr-17,34.91,35.16,34.53,34.54,1929954
4-Apr-17,35.05,35.18,34.90,34.97,967688
3-Apr-17,35.46,35.60,34.93,35.08,1030017
31-Mar-17,35.40,35.56,35.38,35.39,916925
30-Mar-17,35.50,35.66,35.21,35.37,1674714
29-Mar-17,35.77,35.88,35.54,35.75,1425932
28-Mar-17,35.58,35.90,35.49,35.80,1045498
27-Mar-17,36.00,36.00,35.55,35.75,1157169
24-Mar-17,36.74,36.74,36.26,36.37,857150
23-Mar-17,36.54,36.99,36.54,36.59,1074598
22-Mar-17,36.67,36.75,36.45,36.71,1051083
21-Mar-17,37.57,37.66,36.51,36.58,1333932
20-Mar-17,37.59,37.61,37.27,37.33,693952
17-Mar-17,37.51,37.66,37.25,37.62,1057752
16-Mar-17,37.43,37.69,37.19,37.24,1146928
15-Mar-17,37.11,37.58,37.00,37.45,1304762
14-Mar-17,37.06,37.19,36.83,36.98,980461
13-Mar-17,36.72,37.24,36.72,37.16,1116577
10-Mar-17,36.59,36.84,36.50,36.77,1382652
9-Mar-17,36.19,36.57,36.09,36.41,972604
8-Mar-17,36.20,36.58,36.20,36.31,1036889
7-Mar-17,36.00,36.27,35.89,36.18,1033289
6-Mar-17,35.76,36.24,35.50,35.94,1204205
3-Mar-17,36.16,36.30,35.60,36.05,1336865
2-Mar-17,36.08,36.22,36.02,36.20,793072
1-Mar-17,36.06,36.42,36.00,36.19,809382
28-Feb-17,36.48,36.61,35.77,35.77,1479725
27-Feb-17,35.89,36.75,35.89,36.68,1715580
24-Feb-17,35.12,35.94,35.09,35.92,1266660
23-Feb-17,35.74,36.04,35.22,35.34,1528652
22-Feb-17,35.36,35.80,35.36,35.62,1405697
21-Feb-17,34.63,35.43,34.50,35.38,1562896
17-Feb-17,34.73,34.93,34.44,34.71,654462
16-Feb-17,34.65,34.81,34.33,34.76,950406
15-Feb-17,34.11,34.61,34.05,34.56,852191
14-Feb-17,33.91,34.24,33.88,34.05,1252687
13-Feb-17,34.18,34.44,34.11,34.12,1125072
10-Feb-17,34.38,34.38,33.93,34.10,1055665
9-Feb-17,34.20,34.33,34.01,34.20,1414471
8-Feb-17,34.51,34.56,33.83,34.18,1200368
7-Feb-17,34.59,34.76,34.41,34.68,1288971
6-Feb-17,34.54,34.69,34.44,34.61,1371704
3-Feb-17,34.64,34.72,34.12,34.51,2602694
2-Feb-17,33.68,34.70,33.53,34.47,2055667
1-Feb-17,34.08,34.20,33.40,33.68,2510020
31-Jan-17,33.90,34.45,33.57,33.82,2755054
30-Jan-17,35.54,35.54,32.75,33.90,6475864
27-Jan-17,36.06,36.34,35.93,36.26,2042585
26-Jan-17,35.71,36.24,35.64,36.20,1428036
25-Jan-17,35.97,36.10,35.56,35.83,1260428
24-Jan-17,35.49,35.83,35.33,35.79,918473
23-Jan-17,35.55,35.76,35.24,35.52,678949
20-Jan-17,35.53,35.79,35.46,35.64,695009
19-Jan-17,35.75,35.92,35.51,35.59,506158
18-Jan-17,35.87,35.95,35.68,35.85,631914
17-Jan-17,36.04,36.28,35.68,35.80,505799
13-Jan-17,36.48,36.56,36.26,36.33,496769
12-Jan-17,36.23,36.40,35.80,36.38,610478
11-Jan-17,36.43,36.52,36.08,36.38,1171838
10-Jan-17,36.06,36.49,35.94,36.45,868078
9-Jan-17,36.27,36.27,35.93,36.09,909800
6-Jan-17,35.95,36.40,35.86,36.21,1118381
5-Jan-17,35.89,36.18,35.63,35.94,1170442
4-Jan-17,35.76,36.30,35.76,35.91,1843382
3-Jan-17,36.19,36.19,35.28,35.72,1788875
30-Dec-16,36.35,36.35,35.83,36.07,526417
29-Dec-16,36.18,36.39,36.07,36.25,771862
28-Dec-16,36.29,36.37,35.90,36.01,465329
27-Dec-16,36.26,36.49,36.05,36.27,429476
23-Dec-16,36.26,36.43,35.88,36.17,885195
22-Dec-16,36.45,36.51,36.02,36.29,574719
21-Dec-16,36.42,36.60,36.35,36.35,634631
20-Dec-16,36.64,36.74,36.43,36.58,1554486
19-Dec-16,36.54,36.59,36.23,36.48,935438
16-Dec-16,36.39,36.56,36.22,36.34,2068271
15-Dec-16,36.13,36.67,35.56,36.26,1315614
14-Dec-16,36.84,37.03,36.25,36.37,1132309
13-Dec-16,36.59,36.92,36.47,36.84,1490925
12-Dec-16,37.48,37.58,36.21,36.51,3474068
9-Dec-16,37.90,38.05,37.52,37.70,3093481
8-Dec-16,37.81,38.22,37.66,37.89,2937933
7-Dec-16,37.94,38.22,37.49,37.62,3579287
6-Dec-16,37.45,37.97,37.35,37.96,1619409
5-Dec-16,37.78,37.85,37.51,37.54,1265953
2-Dec-16,36.86,37.66,36.76,37.54,2225206
1-Dec-16,36.74,37.45,36.51,36.85,7705058
30-Nov-16,38.14,38.43,37.62,37.81,1555004
29-Nov-16,37.36,38.54,37.36,38.20,1470011
28-Nov-16,36.94,37.34,36.86,37.20,985806
25-Nov-16,37.04,37.15,36.72,37.00,325597
23-Nov-16,36.53,37.09,36.53,36.89,1289771
22-Nov-16,35.81,36.61,35.76,36.51,1470644
21-Nov-16,35.04,35.60,35.04,35.60,588185
18-Nov-16,35.61,35.81,35.09,35.12,1797928
17-Nov-16,35.19,35.50,34.83,35.01,1040628
16-Nov-16,35.09,35.25,35.05,35.14,700600
15-Nov-16,35.05,35.48,34.99,35.07,1144357
14-Nov-16,34.72,35.33,34.64,35.14,1645262
11-Nov-16,33.35,34.47,33.29,34.32,1366874
10-Nov-16,33.63,33.79,32.72,33.45,2291249
9-Nov-16,32.50,33.83,32.36,33.55,1956607
8-Nov-16,32.00,32.33,31.86,32.11,1000172
7-Nov-16,32.00,32.29,31.87,32.06,1705320
4-Nov-16,31.82,32.04,31.52,31.52,1103681
3-Nov-16,31.16,32.20,31.16,31.74,1956261
2-Nov-16,31.39,32.12,30.90,31.19,2594883
1-Nov-16,30.42,30.57,29.90,30.04,1004637
31-Oct-16,30.60,30.60,30.44,30.47,759548
28-Oct-16,30.46,30.73,30.34,30.50,724044
27-Oct-16,31.08,31.09,30.37,30.43,1003789
26-Oct-16,31.17,31.38,30.93,30.99,496361
25-Oct-16,30.51,31.42,30.42,31.23,1172915
24-Oct-16,30.54,30.71,30.29,30.52,635592
21-Oct-16,30.15,30.44,30.08,30.34,622788
20-Oct-16,30.15,30.41,30.04,30.29,974594
19-Oct-16,30.06,30.22,29.97,30.17,535499
18-Oct-16,29.95,30.12,29.80,30.09,686494
17-Oct-16,30.12,30.24,29.66,29.69,565420
14-Oct-16,30.25,30.40,30.16,30.17,387786
13-Oct-16,29.63,30.20,29.63,30.08,527655
12-Oct-16,29.90,30.03,29.74,29.90,501053
11-Oct-16,30.23,30.23,29.76,29.98,784284
10-Oct-16,30.31,30.49,30.10,30.24,736195
7-Oct-16,31.04,31.11,29.55,30.19,2350727
6-Oct-16,30.60,31.23,30.59,31.08,2249883
5-Oct-16,31.69,31.76,29.57,30.31,4903065
4-Oct-16,31.40,31.75,31.34,31.50,597952
3-Oct-16,31.60,31.60,31.16,31.32,678732
30-Sep-16,31.94,31.94,31.36,31.61,564364
29-Sep-16,31.85,31.93,31.64,31.80,1010521
28-Sep-16,31.60,31.84,31.37,31.84,488660
27-Sep-16,31.23,31.68,31.14,31.57,682088
26-Sep-16,31.13,31.30,30.97,31.18,482869
23-Sep-16,31.23,31.25,31.05,31.13,316649
22-Sep-16,31.00,31.30,30.97,31.23,395909
21-Sep-16,30.51,30.98,30.51,30.89,854064
20-Sep-16,30.25,30.81,30.10,30.34,611534
19-Sep-16,29.81,30.22,29.66,30.15,713683
16-Sep-16,30.12,30.12,29.66,29.66,619431
15-Sep-16,29.83,30.23,29.72,30.18,463775
14-Sep-16,29.94,30.12,29.75,29.82,547202
13-Sep-16,29.96,30.04,29.79,29.93,442362
12-Sep-16,29.59,30.24,29.59,30.12,786396
9-Sep-16,30.24,30.38,29.74,29.74,541235
8-Sep-16,30.64,30.67,30.38,30.49,590182
7-Sep-16,30.67,30.69,30.48,30.65,881814
6-Sep-16,30.65,30.75,30.46,30.72,707110
2-Sep-16,30.53,30.71,30.51,30.56,722780
1-Sep-16,30.34,30.68,30.16,30.50,700359
31-Aug-16,30.52,30.62,30.19,30.36,622281
30-Aug-16,30.50,30.64,30.41,30.58,535562
29-Aug-16,30.68,30.85,30.46,30.49,524609
26-Aug-16,30.65,30.94,30.46,30.65,661230
25-Aug-16,30.38,30.71,30.38,30.59,470752
24-Aug-16,30.55,30.78,30.46,30.49,771245
23-Aug-16,30.38,30.67,30.38,30.65,690656
22-Aug-16,29.78,30.34,29.59,30.34,867875
19-Aug-16,29.81,29.87,29.66,29.81,525045
18-Aug-16,29.96,30.08,29.76,29.97,397021
17-Aug-16,30.08,30.18,29.81,29.93,548572
16-Aug-16,30.25,30.29,30.05,30.06,585959
15-Aug-16,30.27,30.47,30.26,30.26,650161
12-Aug-16,30.22,30.24,30.08,30.20,893867
11-Aug-16,30.45,30.62,30.13,30.34,912611
10-Aug-16,29.90,30.48,29.84,30.32,1381615
9-Aug-16,29.98,30.09,29.68,29.95,692724
8-Aug-16,30.13,30.13,29.81,29.93,700025
5-Aug-16,30.36,30.51,30.13,30.23,716820
4-Aug-16,30.51,30.57,30.19,30.28,532870
3-Aug-16,30.34,30.62,30.24,30.46,706768
2-Aug-16,30.77,30.77,30.27,30.40,751793
1-Aug-16,30.88,30.96,30.69,30.76,860046
29-Jul-16,31.22,31.22,30.61,30.88,1388685
28-Jul-16,31.30,31.42,30.98,31.28,810240
27-Jul-16,31.17,31.50,30.96,31.39,1493773
26-Jul-16,31.03,31.26,30.90,31.12,839193
25-Jul-16,31.32,31.39,30.90,31.09,736884
22-Jul-16,31.27,31.50,31.22,31.29,610288
21-Jul-16,31.25,31.38,31.03,31.26,808940
20-Jul-16,30.87,31.24,30.87,31.17,1170176
19-Jul-16,30.64,31.04,30.59,30.82,847389
18-Jul-16,30.84,30.90,30.35,30.60,893488
15-Jul-16,31.02,31.24,30.92,30.94,672336
14-Jul-16,31.00,31.22,30.82,31.01,893042
13-Jul-16,30.60,30.87,30.58,30.86,1194034
12-Jul-16,30.20,30.79,30.05,30.59,1087983
11-Jul-16,29.93,30.22,29.83,30.18,776569
8-Jul-16,29.77,29.98,29.72,29.78,993917
7-Jul-16,29.51,29.74,29.51,29.59,572386
6-Jul-16,29.13,29.52,29.08,29.52,1360514
5-Jul-16,29.26,29.27,29.03,29.14,553504
1-Jul-16,29.64,29.88,29.31,29.35,622255
30-Jun-16,28.66,29.64,28.47,29.64,1676339
29-Jun-16,28.24,28.82,28.11,28.68,900347
28-Jun-16,28.00,28.11,27.86,28.04,1041870
27-Jun-16,28.32,28.40,27.47,27.73,974166
24-Jun-16,28.21,28.73,28.03,28.51,1826076
23-Jun-16,29.16,29.21,28.93,29.12,802457
22-Jun-16,28.87,29.08,28.75,28.92,784280
21-Jun-16,29.01,29.01,28.60,28.88,580149
20-Jun-16,28.61,29.00,28.49,28.91,642806
17-Jun-16,28.63,28.66,28.19,28.41,1104678
16-Jun-16,28.52,28.77,28.40,28.71,457825
15-Jun-16,28.95,29.25,28.66,28.71,634336
14-Jun-16,28.83,29.00,28.21,28.90,722940
13-Jun-16,29.24,29.34,28.84,28.85,494793
10-Jun-16,29.23,29.38,29.11,29.21,510850
9-Jun-16,29.19,29.44,29.07,29.41,533580
8-Jun-16,29.36,29.59,29.21,29.38,788736
7-Jun-16,29.58,29.68,29.31,29.38,754106
6-Jun-16,29.52,29.63,29.30,29.60,765251
3-Jun-16,29.45,29.61,29.15,29.53,1296789
2-Jun-16,29.33,29.57,29.33,29.57,813571
1-Jun-16,29.16,29.49,29.07,29.46,1299861
31-May-16,29.38,29.48,28.94,29.27,1211040
27-May-16,29.05,29.31,29.00,29.28,1058914
26-May-16,29.25,29.25,28.91,29.00,1186635
25-May-16,28.40,29.65,28.32,29.19,3851665
24-May-16,28.15,28.58,28.05,28.40,8241810
23-May-16,29.25,29.70,28.98,29.01,1153507
20-May-16,29.02,29.55,29.01,29.48,909781
19-May-16,28.91,29.12,28.52,28.90,918180
18-May-16,27.70,29.09,27.26,28.94,2787346
17-May-16,27.87,27.94,27.21,27.51,2862022
16-May-16,27.68,28.05,27.68,27.90,1340743
13-May-16,27.75,27.94,27.57,27.64,575266
12-May-16,27.71,28.06,27.69,27.79,783283
11-May-16,28.08,28.10,27.56,27.60,760066
10-May-16,27.85,28.24,27.76,28.15,1235993
9-May-16,27.53,27.87,27.53,27.71,818020
6-May-16,27.14,27.68,27.12,27.57,545443
5-May-16,27.52,27.59,27.13,27.24,742348
4-May-16,27.30,27.48,27.10,27.42,399672
3-May-16,27.46,27.69,27.02,27.37,769029
2-May-16,27.70,27.93,27.54,27.63,640294
29-Apr-16,28.03,28.03,27.31,27.57,684182
28-Apr-16,27.88,28.37,27.61,28.10,1619349
27-Apr-16,27.55,27.97,27.43,27.91,1418632
26-Apr-16,28.07,28.24,27.65,27.67,549299
25-Apr-16,27.78,28.08,27.69,28.01,408703
22-Apr-16,27.48,27.82,27.34,27.78,879097
21-Apr-16,27.92,28.00,27.49,27.51,614585
20-Apr-16,27.88,28.17,27.74,27.95,783516
19-Apr-16,28.29,28.34,27.66,27.86,935790
18-Apr-16,28.19,28.53,28.11,28.37,726733
15-Apr-16,28.35,28.48,28.19,28.36,470916
14-Apr-16,28.51,28.65,28.31,28.35,430703
13-Apr-16,28.33,28.52,27.95,28.52,895478
12-Apr-16,28.79,28.83,27.95,28.23,1323555
11-Apr-16,29.72,29.82,29.21,29.29,443279
8-Apr-16,29.72,29.87,29.55,29.59,268229
7-Apr-16,29.88,30.03,29.45,29.54,431417
6-Apr-16,29.85,30.09,29.85,30.07,354307
5-Apr-16,30.08,30.24,29.80,29.89,580619
4-Apr-16,30.57,30.57,30.14,30.23,378748
1-Apr-16,30.10,30.64,29.91,30.55,497205
31-Mar-16,30.00,30.32,30.00,30.28,352189
30-Mar-16,30.17,30.33,29.94,30.06,329336
29-Mar-16,29.49,30.30,29.49,30.02,976381
28-Mar-16,29.35,29.65,29.09,29.58,529864
24-Mar-16,28.92,29.26,28.76,29.23,462994
23-Mar-16,29.40,29.43,29.07,29.15,490035
22-Mar-16,29.42,29.73,29.42,29.46,471410
21-Mar-16,29.75,29.90,29.51,29.59,435804
18-Mar-16,29.22,29.81,28.91,29.81,1469580
17-Mar-16,28.83,29.29,28.83,29.18,600991
16-Mar-16,28.36,28.92,28.36,28.83,320536
15-Mar-16,28.37,28.57,28.30,28.48,334140
14-Mar-16,28.52,28.70,28.32,28.51,740860
11-Mar-16,28.46,28.63,28.33,28.58,379811
10-Mar-16,28.65,28.78,28.04,28.33,324024
9-Mar-16,28.47,28.71,28.21,28.56,367933
8-Mar-16,28.45,28.60,28.34,28.36,380518
7-Mar-16,28.95,29.00,28.47,28.67,669653
4-Mar-16,28.57,29.20,28.36,29.10,763820
3-Mar-16,27.89,28.73,27.89,28.58,882129
2-Mar-16,27.54,27.88,27.34,27.88,714246
1-Mar-16,27.81,28.16,27.48,27.60,668340
29-Feb-16,27.60,28.04,26.78,27.60,997195
26-Feb-16,27.53,27.68,27.30,27.65,568501
25-Feb-16,27.14,27.44,26.86,27.41,583809
24-Feb-16,26.75,27.09,26.41,27.08,490224
23-Feb-16,27.07,27.20,26.77,26.95,543958
22-Feb-16,26.96,27.38,26.81,27.22,912716
19-Feb-16,26.44,26.97,26.25,26.81,540710
18-Feb-16,26.87,26.98,26.40,26.46,395852
17-Feb-16,26.71,26.97,26.68,26.80,604030
16-Feb-16,26.40,26.66,26.23,26.59,572616
12-Feb-16,26.02,26.27,25.66,26.22,655488
11-Feb-16,25.47,25.90,25.03,25.74,841867
10-Feb-16,25.87,26.37,25.73,25.80,807122
9-Feb-16,26.12,26.60,25.62,25.68,1501939
8-Feb-16,26.73,26.91,26.03,26.41,1453080
5-Feb-16,27.49,27.58,26.97,27.13,1007190
4-Feb-16,27.50,27.79,27.26,27.59,1437880
3-Feb-16,27.45,27.68,26.96,27.44,1420765
2-Feb-16,27.60,27.74,27.08,27.32,1264871
1-Feb-16,28.13,28.29,27.61,27.78,1350550
29-Jan-16,27.55,28.30,27.46,28.29,1279983
28-Jan-16,27.70,28.19,27.34,27.47,1807777
27-Jan-16,28.11,28.69,27.32,27.62,3477398
26-Jan-16,28.99,29.57,28.58,29.55,1514896
25-Jan-16,29.53,29.56,28.84,28.96,941008
22-Jan-16,29.57,29.96,29.43,29.57,1240574
21-Jan-16,29.89,30.00,29.18,29.27,1942378
20-Jan-16,29.67,30.41,28.87,29.94,2049281
19-Jan-16,30.37,30.37,29.38,29.70,1389287
15-Jan-16,29.73,30.19,29.54,30.14,845387
14-Jan-16,30.16,30.38,29.81,30.21,1362862
13-Jan-16,30.63,30.70,29.82,30.16,1053170
12-Jan-16,30.52,30.74,30.11,30.51,1102880
11-Jan-16,30.67,30.84,29.97,30.33,1317932
8-Jan-16,30.93,30.99,30.44,30.67,1556837
7-Jan-16,30.83,31.03,30.58,30.76,1445935
6-Jan-16,30.14,30.70,29.95,30.65,958609
5-Jan-16,30.04,30.54,30.04,30.41,539068
4-Jan-16,30.39,30.41,29.84,30.02,1137319
31-Dec-15,30.68,31.02,30.57,30.85,686076
30-Dec-15,31.01,31.12,30.82,30.82,537988
29-Dec-15,31.11,31.34,30.95,31.03,487063
28-Dec-15,31.03,31.08,30.73,30.99,545516
24-Dec-15,31.08,31.25,31.06,31.13,264888
23-Dec-15,30.74,31.25,30.34,31.08,1153104
22-Dec-15,30.47,30.89,30.04,30.62,1374264
21-Dec-15,29.24,29.76,29.13,29.73,1290104
18-Dec-15,29.34,29.38,28.89,29.17,976029
17-Dec-15,29.98,30.20,29.34,29.38,430037
16-Dec-15,29.68,29.95,29.31,29.88,814883
15-Dec-15,29.23,29.62,29.19,29.50,635279
14-Dec-15,29.18,29.57,28.90,29.11,782224
11-Dec-15,29.39,29.51,29.00,29.14,1017017
10-Dec-15,29.51,29.90,29.16,29.80,1340418
9-Dec-15,29.44,29.83,29.37,29.41,1611922
8-Dec-15,28.98,29.66,28.89,29.58,594691
7-Dec-15,30.08,30.08,29.14,29.22,865718
4-Dec-15,29.45,30.14,29.41,30.12,677070
3-Dec-15,30.03,30.16,29.21,29.41,1201357
2-Dec-15,30.29,30.34,29.81,29.83,1455606
1-Dec-15,30.52,30.57,30.26,30.35,959653
30-Nov-15,30.53,30.80,30.28,30.45,654673
27-Nov-15,30.34,30.65,30.21,30.51,315276
25-Nov-15,30.08,30.46,29.99,30.36,798130
24-Nov-15,30.14,30.26,29.89,30.05,933505
23-Nov-15,30.05,30.48,29.93,30.32,844380
20-Nov-15,29.72,30.50,29.62,30.02,939458
19-Nov-15,29.55,29.68,29.44,29.60,535360
18-Nov-15,29.47,29.56,29.15,29.53,993177
17-Nov-15,29.10,29.44,28.89,29.11,1123976
16-Nov-15,28.21,29.21,28.17,29.21,1217369
13-Nov-15,28.56,28.72,28.21,28.25,1343052
12-Nov-15,29.13,29.21,28.65,28.68,1348783
11-Nov-15,29.13,29.35,28.94,29.24,1188276
10-Nov-15,29.01,29.23,28.79,29.12,801018
9-Nov-15,28.89,29.18,28.71,29.10,1479249
6-Nov-15,28.61,28.91,28.36,28.91,2052721
5-Nov-15,29.11,29.29,28.54,28.76,1637733
4-Nov-15,28.67,29.26,28.65,29.00,6807598
3-Nov-15,29.62,29.97,29.49,29.88,971897
2-Nov-15,29.36,29.82,29.26,29.75,1334146
30-Oct-15,29.80,30.00,29.44,29.46,1253504
29-Oct-15,30.30,30.30,29.55,29.80,1665326
28-Oct-15,28.80,30.57,28.32,30.30,2587938
27-Oct-15,27.55,27.85,27.33,27.64,1438063
26-Oct-15,28.03,28.18,27.51,27.71,1164121
23-Oct-15,27.70,28.18,27.51,28.02,1016197
22-Oct-15,27.16,27.66,27.13,27.57,666092
21-Oct-15,27.40,27.56,27.03,27.05,598544
20-Oct-15,27.28,27.43,27.07,27.35,427573
19-Oct-15,27.01,27.40,26.97,27.36,422256
16-Oct-15,27.31,27.38,26.98,27.11,601927
15-Oct-15,26.98,27.23,26.82,27.22,322206
14-Oct-15,27.14,27.42,26.87,26.93,434780
13-Oct-15,27.59,27.68,27.16,27.18,885422
12-Oct-15,27.64,27.78,27.49,27.69,494508
9-Oct-15,27.81,28.00,27.52,27.66,594969
8-Oct-15,27.47,27.78,27.40,27.75,515419
7-Oct-15,27.02,27.63,26.96,27.58,788244
6-Oct-15,26.66,26.94,26.48,26.93,967901
5-Oct-15,26.60,26.83,26.52,26.71,1384746
2-Oct-15,26.00,26.44,25.50,26.40,910319
1-Oct-15,26.23,26.41,25.89,26.31,720606
30-Sep-15,26.56,26.68,25.92,26.21,1616974
29-Sep-15,26.62,26.71,26.13,26.30,1148042
28-Sep-15,27.15,27.21,26.48,26.58,2004399
25-Sep-15,27.29,27.40,27.04,27.17,950809
24-Sep-15,27.18,27.20,26.77,27.01,1141540
23-Sep-15,27.47,27.61,27.31,27.40,961036
22-Sep-15,27.49,27.74,27.35,27.40,1234434
21-Sep-15,27.87,28.07,27.45,27.80,1138941
18-Sep-15,27.36,27.80,27.30,27.71,3004138
17-Sep-15,27.34,28.08,27.15,27.72,1171374
16-Sep-15,27.09,27.50,26.88,27.32,969693
15-Sep-15,26.56,27.09,26.46,27.03,706676
14-Sep-15,26.66,26.67,26.38,26.50,951180
11-Sep-15,26.26,26.71,25.74,26.69,2074656
10-Sep-15,27.12,27.48,27.03,27.12,1268797
9-Sep-15,27.25,27.71,27.01,27.22,1775185
8-Sep-15,27.17,27.17,26.68,26.92,915919
4-Sep-15,26.84,27.04,26.60,26.67,829408
3-Sep-15,26.76,27.42,26.67,27.18,937153
2-Sep-15,26.60,26.65,26.24,26.65,856373
1-Sep-15,26.08,26.44,25.79,26.29,1375194
31-Aug-15,26.38,26.83,26.33,26.70,1256757
28-Aug-15,26.49,26.88,26.21,26.63,678090
27-Aug-15,26.70,26.81,26.14,26.63,835889
26-Aug-15,26.18,26.66,25.75,26.63,1098122
25-Aug-15,26.69,26.69,25.55,25.57,772206
24-Aug-15,25.31,26.90,25.13,26.00,1478831
21-Aug-15,27.28,27.37,26.82,26.88,1582909
20-Aug-15,27.35,27.74,27.13,27.56,778977
19-Aug-15,27.56,27.67,27.29,27.53,461845
18-Aug-15,27.62,27.74,27.41,27.61,797339
17-Aug-15,27.17,27.82,27.05,27.62,662758
14-Aug-15,27.20,27.33,27.02,27.19,520402
13-Aug-15,27.15,27.42,26.87,27.24,528305
12-Aug-15,26.80,27.25,26.40,27.11,717478
11-Aug-15,26.52,27.28,26.47,27.21,1083922
10-Aug-15,26.95,27.56,26.68,26.75,962411
7-Aug-15,26.18,26.78,26.09,26.76,606368
6-Aug-15,27.00,27.10,25.96,26.28,706917
5-Aug-15,27.00,27.21,26.83,27.11,764515
4-Aug-15,27.17,27.26,26.94,27.00,501687
3-Aug-15,27.68,27.68,26.81,27.21,998792
31-Jul-15,27.83,28.00,27.49,27.73,1060730
30-Jul-15,27.99,28.11,27.56,27.81,2003035
29-Jul-15,26.27,28.05,26.10,27.99,2347026
28-Jul-15,25.87,26.17,25.28,25.92,798671
27-Jul-15,25.61,25.62,25.15,25.23,382838
24-Jul-15,26.12,26.13,25.76,25.83,456142
23-Jul-15,26.14,26.34,25.98,26.11,370537
22-Jul-15,26.24,26.32,25.93,26.11,560300
21-Jul-15,26.36,26.58,26.28,26.32,323211
20-Jul-15,26.58,26.62,26.32,26.41,343078
17-Jul-15,26.75,26.75,26.36,26.58,317591
16-Jul-15,26.74,26.92,26.58,26.74,359271
15-Jul-15,26.38,26.70,26.25,26.60,694741
14-Jul-15,26.12,26.38,25.99,26.37,540817
13-Jul-15,26.00,26.20,25.90,26.13,713365
10-Jul-15,25.66,26.00,25.50,25.94,623279
9-Jul-15,25.71,25.85,25.35,25.35,443597
8-Jul-15,25.30,25.49,25.10,25.36,555434
7-Jul-15,25.43,25.69,25.16,25.56,883864
6-Jul-15,25.28,25.49,25.10,25.35,1013441
2-Jul-15,25.67,25.67,25.24,25.52,670009
1-Jul-15,25.51,25.70,25.31,25.70,861486
30-Jun-15,25.45,25.45,24.92,25.24,932528
29-Jun-15,25.81,25.87,25.21,25.29,958452
26-Jun-15,26.61,26.61,25.75,26.05,2276860
25-Jun-15,26.39,26.64,26.23,26.54,790825
24-Jun-15,26.42,26.50,26.23,26.27,528367
23-Jun-15,26.43,26.50,26.25,26.41,883930
22-Jun-15,26.44,26.57,26.31,26.43,396715
19-Jun-15,26.24,26.40,26.02,26.28,1202177
18-Jun-15,25.95,26.22,25.95,26.18,595895
17-Jun-15,25.79,25.97,25.74,25.89,695267
16-Jun-15,25.40,25.85,25.35,25.79,603671
15-Jun-15,25.30,25.67,25.06,25.43,775934
12-Jun-15,25.58,25.72,25.45,25.51,484242
11-Jun-15,25.77,25.95,25.65,25.72,885039
10-Jun-15,24.88,25.76,24.78,25.74,1176934
9-Jun-15,25.12,25.16,24.52,24.77,1075670
8-Jun-15,25.27,25.39,25.02,25.12,765809
5-Jun-15,25.60,25.65,25.33,25.39,912146
4-Jun-15,25.88,25.92,25.29,25.63,1529859
3-Jun-15,25.86,26.03,25.76,26.00,893139
2-Jun-15,25.49,25.89,25.42,25.85,1688616
1-Jun-15,25.38,25.63,25.29,25.59,1637026
29-May-15,25.24,25.77,25.16,25.35,1740253
28-May-15,25.00,25.34,24.93,25.32,1138124
27-May-15,24.56,25.10,24.37,25.05,1739440
26-May-15,24.93,25.08,23.87,24.45,2121943
22-May-15,25.57,25.61,24.83,25.11,2482926
21-May-15,26.80,26.90,24.85,25.13,4865209
20-May-15,28.61,28.65,28.42,28.50,495393
19-May-15,28.24,28.69,28.16,28.65,422918
18-May-15,28.27,28.48,28.14,28.23,554982
15-May-15,28.27,28.37,27.87,28.33,781165
14-May-15,27.77,28.32,27.76,28.23,503872
13-May-15,27.34,27.71,27.33,27.61,740947
12-May-15,27.55,27.64,27.02,27.33,795052
11-May-15,27.86,28.01,27.71,27.72,362018
8-May-15,27.85,28.14,27.76,27.90,241078
7-May-15,27.38,27.68,27.35,27.64,423599
6-May-15,27.58,27.67,27.26,27.40,361466
5-May-15,27.72,27.72,27.41,27.50,410529
4-May-15,27.95,28.00,27.74,27.82,371984
1-May-15,27.63,28.16,27.58,27.95,505191
30-Apr-15,27.75,28.05,27.42,27.50,807732
29-Apr-15,28.22,28.38,27.82,27.95,404982
28-Apr-15,28.38,28.56,28.17,28.28,447347
27-Apr-15,29.07,29.10,28.31,28.44,501515
24-Apr-15,29.03,29.04,28.54,29.01,512450
23-Apr-15,28.82,29.07,28.72,29.02,349356
22-Apr-15,28.83,28.97,28.71,28.90,384040
21-Apr-15,28.86,28.97,28.75,28.85,593576
20-Apr-15,28.51,28.81,28.36,28.75,578192
17-Apr-15,28.48,28.55,28.00,28.40,754683
16-Apr-15,28.21,28.68,28.19,28.68,735515
15-Apr-15,28.45,28.58,28.13,28.31,568751
14-Apr-15,27.94,28.54,27.92,28.49,681108
13-Apr-15,28.51,28.53,27.85,28.00,730646
10-Apr-15,28.62,28.70,28.24,28.53,500959
9-Apr-15,28.56,28.72,28.39,28.56,367229
8-Apr-15,28.55,28.76,28.43,28.56,685692
7-Apr-15,28.78,28.94,28.48,28.52,317344
6-Apr-15,28.52,29.01,28.50,28.87,466776
2-Apr-15,29.00,29.27,28.62,28.71,453503
1-Apr-15,28.88,29.12,28.53,29.08,616308
31-Mar-15,29.28,29.40,28.86,28.94,541633
30-Mar-15,29.34,29.54,29.30,29.45,558520
27-Mar-15,28.59,29.23,28.55,29.20,656064
26-Mar-15,27.98,28.63,27.70,28.62,775784
25-Mar-15,29.90,29.90,28.05,28.14,1149915
24-Mar-15,29.91,30.05,29.70,29.83,550168
23-Mar-15,29.75,30.24,29.74,30.03,691518
20-Mar-15,29.94,29.94,29.55,29.77,1335757
19-Mar-15,29.35,30.01,29.17,29.82,899597
18-Mar-15,28.92,29.40,28.81,29.25,511013
17-Mar-15,28.83,29.08,28.67,28.98,497274
16-Mar-15,28.64,29.23,28.64,29.00,459656
13-Mar-15,29.03,29.04,28.40,28.54,587662
12-Mar-15,28.68,29.42,28.66,29.10,644085
11-Mar-15,28.79,28.82,28.57,28.62,421316
10-Mar-15,29.20,29.21,28.76,28.84,492258
9-Mar-15,29.04,29.45,28.99,29.39,764610
6-Mar-15,29.41,29.50,28.96,29.02,405244
5-Mar-15,30.03,30.04,29.51,29.51,613097
4-Mar-15,30.15,30.33,29.84,30.04,607580
3-Mar-15,30.27,30.42,29.90,30.26,862332
2-Mar-15,29.80,30.42,29.77,30.33,1120566
27-Feb-15,30.19,30.20,29.71,29.76,987591
26-Feb-15,30.07,30.44,29.90,30.15,807431
25-Feb-15,30.30,30.32,29.99,30.10,715938
24-Feb-15,30.50,30.54,29.95,30.24,753254
23-Feb-15,30.17,30.54,30.17,30.46,805519
20-Feb-15,30.26,30.32,30.01,30.12,1183686
19-Feb-15,30.26,30.41,30.03,30.24,906084
18-Feb-15,29.73,30.20,29.65,30.17,826905
17-Feb-15,30.15,30.20,29.64,29.79,1030858
13-Feb-15,30.69,30.76,30.14,30.16,1544982
12-Feb-15,29.39,30.00,29.32,29.98,1253537
11-Feb-15,28.96,29.31,28.94,29.16,1576750
10-Feb-15,28.70,29.02,28.12,28.96,2259487
9-Feb-15,28.79,28.91,28.40,28.59,1248577
6-Feb-15,29.08,29.16,28.72,28.90,1489230
5-Feb-15,29.36,29.52,28.99,29.17,1155845
4-Feb-15,29.26,29.44,29.00,29.25,2188018
3-Feb-15,28.64,29.36,28.47,29.26,3465926
2-Feb-15,29.47,29.60,28.95,29.42,1005270
30-Jan-15,29.20,29.56,28.94,29.11,830017
29-Jan-15,29.85,29.85,28.40,29.36,1187296
28-Jan-15,30.75,31.30,28.65,29.38,1068552
27-Jan-15,29.22,30.14,29.08,29.62,1037862
26-Jan-15,29.00,29.49,28.79,29.43,741826
23-Jan-15,28.90,29.13,28.81,29.05,349569
22-Jan-15,28.69,29.05,28.36,28.95,490516
21-Jan-15,28.90,28.90,28.38,28.64,564945
20-Jan-15,29.13,29.26,28.61,28.91,378428
16-Jan-15,28.47,29.00,28.41,28.94,556119
15-Jan-15,28.74,28.79,28.27,28.46,425450
14-Jan-15,28.29,28.60,28.13,28.45,468977
13-Jan-15,28.23,29.10,28.01,28.46,1034394
12-Jan-15,27.86,27.98,27.69,27.84,754660
9-Jan-15,28.16,28.49,27.78,27.86,897760
8-Jan-15,26.94,27.55,26.94,27.54,376632
7-Jan-15,26.39,27.00,26.27,26.86,416912
6-Jan-15,26.29,26.52,25.82,26.26,514239
5-Jan-15,26.48,26.88,26.18,26.31,632258
2-Jan-15,26.57,26.81,26.20,26.56,349850
31-Dec-14,26.98,27.07,26.52,26.53,219103
30-Dec-14,26.96,27.16,26.88,26.98,214788
29-Dec-14,27.10,27.12,26.72,26.96,265972
26-Dec-14,27.08,27.34,27.07,27.09,203474
24-Dec-14,27.07,27.49,27.03,27.08,161260
23-Dec-14,26.99,27.39,26.75,27.11,637038
22-Dec-14,26.11,26.56,26.11,26.55,436753
19-Dec-14,25.43,26.11,25.38,26.02,1381255
18-Dec-14,25.64,25.65,25.30,25.45,903124
17-Dec-14,25.46,25.48,24.86,25.39,729180
16-Dec-14,25.22,25.76,25.15,25.36,471450
15-Dec-14,25.68,25.79,25.11,25.33,635453
12-Dec-14,26.42,26.47,25.51,25.52,524807
11-Dec-14,26.70,27.04,26.61,26.73,330770
10-Dec-14,27.11,27.16,26.63,26.65,244560
9-Dec-14,26.85,27.08,26.71,27.08,473534
8-Dec-14,27.53,27.72,27.05,27.08,386748
5-Dec-14,27.52,27.63,27.39,27.53,876367
4-Dec-14,27.71,27.81,27.46,27.50,329770
3-Dec-14,27.61,27.82,27.26,27.78,427539
2-Dec-14,27.27,27.57,27.22,27.57,479420
1-Dec-14,27.59,27.59,27.20,27.22,683817
28-Nov-14,26.61,27.32,26.61,27.21,518960
26-Nov-14,26.61,26.81,26.53,26.65,379208
25-Nov-14,26.35,26.53,26.27,26.45,412976
24-Nov-14,26.08,26.37,25.91,26.31,515111
21-Nov-14,26.05,26.33,25.92,26.04,671003
20-Nov-14,25.94,26.00,25.78,25.86,472277
19-Nov-14,26.31,26.32,26.00,26.03,401689
18-Nov-14,26.41,26.61,26.30,26.31,347099
17-Nov-14,26.39,26.60,26.29,26.42,395782
14-Nov-14,26.61,26.82,26.40,26.46,641412
13-Nov-14,26.25,26.83,26.21,26.55,1600819
12-Nov-14,26.10,26.21,25.95,26.20,1086668
11-Nov-14,25.90,26.13,25.84,26.09,1046514
10-Nov-14,25.71,26.05,25.71,25.86,1591816
7-Nov-14,25.36,25.88,25.22,25.74,1761012
6-Nov-14,25.21,25.40,25.06,25.36,4593482
5-Nov-14,26.31,26.49,26.20,26.31,594100
4-Nov-14,26.39,26.65,26.26,26.29,273798
3-Nov-14,26.41,26.59,26.31,26.50,555717
31-Oct-14,26.05,26.66,26.01,26.35,778580
30-Oct-14,25.34,26.22,25.19,25.97,892306
29-Oct-14,26.11,26.17,24.94,25.19,1357948
28-Oct-14,25.82,26.44,25.78,26.18,892226
27-Oct-14,25.65,25.81,25.39,25.75,354487
24-Oct-14,25.26,25.74,25.22,25.72,275255
23-Oct-14,25.63,25.70,25.29,25.33,541264
22-Oct-14,25.45,26.00,25.43,25.47,745613
21-Oct-14,25.11,25.55,25.06,25.39,532015
20-Oct-14,25.28,25.41,24.85,25.08,647424
17-Oct-14,25.01,25.41,24.92,25.33,498268
16-Oct-14,24.75,25.09,24.33,24.85,529331
15-Oct-14,24.99,25.05,24.67,24.85,1031196
14-Oct-14,24.76,25.13,24.66,24.94,915657
13-Oct-14,24.55,24.89,24.40,24.71,830242
10-Oct-14,24.70,25.01,24.44,24.45,724184
9-Oct-14,24.88,25.06,24.62,24.72,620833
8-Oct-14,24.62,25.04,24.41,24.98,671392
7-Oct-14,24.47,24.87,24.26,24.62,603889
6-Oct-14,24.78,25.00,24.56,24.60,680654
3-Oct-14,24.69,25.09,24.47,24.76,1925108
2-Oct-14,23.93,24.22,23.65,24.13,888607
1-Oct-14,23.40,23.86,23.27,23.79,770286
30-Sep-14,23.30,23.59,23.23,23.40,443619
29-Sep-14,23.22,23.48,23.07,23.32,359856
26-Sep-14,23.31,23.56,23.17,23.37,483364
25-Sep-14,23.20,23.27,22.81,23.25,932455
24-Sep-14,23.52,23.59,23.10,23.29,528598
23-Sep-14,23.91,24.02,23.44,23.46,893674
22-Sep-14,24.02,24.20,23.86,23.90,551953
19-Sep-14,24.22,24.51,23.97,24.04,500775
18-Sep-14,23.85,24.35,23.72,24.15,618392
17-Sep-14,23.49,23.96,23.46,23.86,572886
16-Sep-14,23.24,23.54,23.20,23.43,413886
15-Sep-14,23.51,23.85,23.12,23.23,815375
12-Sep-14,22.81,22.81,22.36,22.58,562153
11-Sep-14,22.64,22.95,22.58,22.85,471951
10-Sep-14,22.27,22.70,22.27,22.64,428846
9-Sep-14,22.74,22.75,22.26,22.30,372390
8-Sep-14,22.80,22.92,22.64,22.71,255429
5-Sep-14,22.65,22.91,22.60,22.83,403725
4-Sep-14,22.51,22.80,22.51,22.60,491293
3-Sep-14,22.75,22.97,22.48,22.50,618059
2-Sep-14,22.24,22.72,22.17,22.69,723971
29-Aug-14,22.18,22.37,22.12,22.18,624146
28-Aug-14,22.11,22.26,22.02,22.07,604278
27-Aug-14,22.07,22.32,21.98,22.16,1219745
26-Aug-14,21.84,22.15,21.77,21.98,495564
25-Aug-14,22.00,22.29,21.73,21.76,654437
22-Aug-14,21.65,22.00,21.57,21.96,1371202
21-Aug-14,21.56,21.76,21.54,21.60,609397
20-Aug-14,21.58,21.80,21.49,21.55,863429
19-Aug-14,21.57,21.62,21.44,21.56,723488
18-Aug-14,21.36,21.67,21.24,21.48,703061
15-Aug-14,21.36,21.42,21.05,21.19,981629
14-Aug-14,21.54,21.63,21.26,21.31,494595
13-Aug-14,21.32,21.56,21.20,21.46,925415
12-Aug-14,21.15,21.45,21.09,21.26,1091969
11-Aug-14,21.22,21.44,21.22,21.28,624633
8-Aug-14,21.08,21.20,20.88,21.18,634611
7-Aug-14,20.85,21.10,20.81,21.00,1057041
6-Aug-14,21.82,22.20,21.70,22.05,1204603
5-Aug-14,21.91,22.08,21.76,21.93,680696
4-Aug-14,22.25,22.39,21.54,21.96,1048320
1-Aug-14,22.28,22.42,22.08,22.18,801985
31-Jul-14,22.76,22.92,22.04,22.24,1744844
30-Jul-14,21.58,22.52,21.50,22.48,1330785
29-Jul-14,21.07,21.26,21.03,21.09,637769
28-Jul-14,21.01,21.18,20.93,21.07,372243
25-Jul-14,21.19,21.24,20.98,21.00,307949
24-Jul-14,21.17,21.37,21.15,21.24,618836
23-Jul-14,20.94,21.13,20.90,21.07,774864
22-Jul-14,20.87,21.03,20.81,20.90,387998
21-Jul-14,20.98,20.99,20.75,20.82,306544
18-Jul-14,20.86,21.18,20.83,20.98,299173
17-Jul-14,21.08,21.22,20.78,20.84,334380
16-Jul-14,21.05,21.27,21.04,21.13,575775
15-Jul-14,21.10,21.15,20.98,20.99,433803
14-Jul-14,20.99,21.32,20.97,21.11,246621
11-Jul-14,21.05,21.13,20.97,20.97,243500
10-Jul-14,20.83,21.21,20.65,21.07,695140
9-Jul-14,21.11,21.20,20.99,21.02,568432
8-Jul-14,21.34,21.39,21.08,21.11,634032
7-Jul-14,21.40,21.74,21.36,21.40,747295
3-Jul-14,21.65,21.79,21.41,21.42,1382163
2-Jul-14,21.44,21.73,21.38,21.58,721639
1-Jul-14,21.26,21.86,21.18,21.57,1004229
30-Jun-14,20.99,21.36,20.88,21.24,1159761
27-Jun-14,21.46,21.58,20.93,20.93,3158660
26-Jun-14,21.64,21.85,21.35,21.50,990096
25-Jun-14,21.47,21.90,21.43,21.82,763811
24-Jun-14,21.57,21.69,21.48,21.52,625987
23-Jun-14,21.73,21.87,21.50,21.57,626483
20-Jun-14,21.31,21.74,21.25,21.70,2207448
19-Jun-14,21.52,21.67,21.19,21.23,742216
18-Jun-14,21.44,21.55,21.31,21.53,611507
17-Jun-14,20.84,21.66,20.84,21.45,908139
16-Jun-14,21.89,22.08,21.80,21.83,677443
13-Jun-14,21.71,22.08,21.71,21.87,510195
12-Jun-14,21.52,21.92,21.49,21.69,685662
11-Jun-14,22.04,22.16,21.59,21.72,681350
10-Jun-14,22.30,22.30,22.03,22.08,568203
9-Jun-14,22.19,22.37,22.13,22.29,562382
6-Jun-14,22.08,22.27,22.04,22.18,952179
5-Jun-14,22.88,22.88,22.13,22.22,563117
4-Jun-14,22.04,22.30,22.00,22.24,453512
3-Jun-14,22.09,22.34,21.99,22.04,1037288
2-Jun-14,22.23,22.30,22.01,22.09,608590
30-May-14,22.12,22.25,21.96,22.13,1023308
29-May-14,22.44,22.70,22.10,22.12,3776485
28-May-14,23.72,23.95,23.51,23.63,539718
27-May-14,23.95,24.13,23.66,23.71,676045
23-May-14,23.45,24.04,23.30,23.97,770943
22-May-14,22.87,23.47,22.87,23.42,965290
21-May-14,23.23,23.35,21.55,22.17,2413584
20-May-14,24.57,24.63,23.99,24.41,999939
19-May-14,24.61,24.75,24.50,24.55,549416
16-May-14,24.45,24.76,24.34,24.67,387630
15-May-14,24.55,24.60,23.92,24.51,671699
14-May-14,25.08,25.23,24.53,24.58,569416
13-May-14,24.93,25.32,24.89,25.00,472844
12-May-14,24.73,24.89,24.64,24.85,485209
9-May-14,24.27,24.65,24.03,24.62,404757
8-May-14,24.00,24.39,24.00,24.30,458958
7-May-14,23.81,24.02,23.51,24.01,513800
6-May-14,23.39,23.79,23.32,23.77,502896
5-May-14,23.34,23.55,23.15,23.42,388962
2-May-14,23.20,23.75,23.17,23.45,354728
1-May-14,23.25,23.42,23.05,23.18,337576
30-Apr-14,23.15,23.26,23.00,23.24,390995
29-Apr-14,22.72,23.24,22.70,23.17,406911
28-Apr-14,22.89,22.95,22.30,22.66,686479
25-Apr-14,22.53,22.95,22.52,22.82,631741
24-Apr-14,22.78,22.78,22.46,22.55,421347
23-Apr-14,22.37,22.72,22.29,22.63,397157
22-Apr-14,21.93,22.71,21.93,22.41,975691
21-Apr-14,22.13,22.26,21.84,21.90,260375
17-Apr-14,22.04,22.23,21.99,22.10,167209
16-Apr-14,21.67,22.14,21.62,22.02,499210
15-Apr-14,21.50,21.69,21.29,21.55,1077976
14-Apr-14,21.49,21.55,21.26,21.44,767190
11-Apr-14,21.88,21.95,21.18,21.39,1055110
10-Apr-14,22.16,22.26,21.81,21.94,759924
9-Apr-14,22.13,22.29,21.90,22.19,822411
8-Apr-14,21.94,22.15,21.81,21.96,736251
7-Apr-14,21.89,22.02,21.67,21.96,1395497
4-Apr-14,22.40,22.49,21.90,21.98,937326
3-Apr-14,22.74,22.84,22.21,22.31,1421791
2-Apr-14,22.42,22.84,22.30,22.84,742752
1-Apr-14,22.00,22.44,21.96,22.32,405917
31-Mar-14,21.84,22.03,21.67,22.00,373653
28-Mar-14,21.71,22.16,21.60,21.77,728737
27-Mar-14,22.00,22.00,21.64,21.71,528914
26-Mar-14,22.10,22.34,21.96,22.02,604096
25-Mar-14,21.75,22.07,21.72,22.02,507532
24-Mar-14,21.90,21.98,21.55,21.70,610220
21-Mar-14,22.06,22.25,21.81,21.84,1406966
20-Mar-14,21.87,22.26,21.86,22.00,605260
19-Mar-14,21.77,22.09,21.70,21.92,863524
18-Mar-14,21.55,21.86,21.55,21.80,750992
17-Mar-14,21.82,21.90,21.47,21.49,888003
14-Mar-14,21.46,21.83,21.25,21.67,988314
13-Mar-14,21.79,21.88,21.41,21.45,782276
12-Mar-14,21.60,21.88,21.48,21.80,758726
11-Mar-14,21.92,21.94,21.72,21.75,525239
10-Mar-14,21.93,21.94,21.74,21.90,635295
7-Mar-14,21.82,22.02,21.75,21.88,488736
6-Mar-14,21.98,22.07,21.73,21.79,390551
5-Mar-14,22.21,22.21,21.86,21.89,468226
4-Mar-14,21.45,22.29,21.45,22.16,879829
3-Mar-14,20.80,21.40,20.75,21.30,664328
28-Feb-14,20.92,21.19,20.85,21.03,2402483
27-Feb-14,20.54,20.88,20.46,20.83,542184
26-Feb-14,20.36,20.52,20.19,20.52,919744
25-Feb-14,20.42,20.48,20.21,20.28,688514
24-Feb-14,20.57,20.82,20.42,20.44,554855
21-Feb-14,19.88,20.83,19.72,20.52,1782502
20-Feb-14,19.77,20.15,19.54,19.79,1369246
19-Feb-14,19.31,19.58,19.26,19.34,778026
18-Feb-14,19.11,19.50,19.11,19.39,551698
14-Feb-14,19.12,19.24,18.99,19.16,608500
13-Feb-14,18.44,19.47,18.22,19.15,2279972
12-Feb-14,18.35,18.51,18.23,18.28,406536
11-Feb-14,18.35,18.40,18.20,18.34,270162
10-Feb-14,18.32,18.38,18.20,18.26,521470
7-Feb-14,18.36,18.53,18.20,18.34,444517
6-Feb-14,18.44,18.69,18.18,18.25,598168
5-Feb-14,18.40,18.82,18.16,18.79,746212
4-Feb-14,18.14,18.73,18.00,18.48,635680
3-Feb-14,18.16,18.33,17.90,17.99,974186
31-Jan-14,17.20,18.58,17.20,18.28,856510
30-Jan-14,17.90,17.90,17.60,17.71,470910
29-Jan-14,17.88,17.98,17.72,17.74,220300
28-Jan-14,17.92,18.17,17.90,18.02,344007
27-Jan-14,18.10,18.17,17.77,17.93,406291
24-Jan-14,18.41,18.41,17.89,18.06,471006
23-Jan-14,18.75,18.81,18.45,18.53,304543
22-Jan-14,18.99,19.09,18.83,18.84,304015
21-Jan-14,18.91,19.02,18.81,18.93,373843
17-Jan-14,18.90,19.00,18.75,18.81,372984
16-Jan-14,19.00,19.10,18.77,18.99,295125
15-Jan-14,19.02,19.18,18.99,19.15,230293
14-Jan-14,18.90,19.11,18.87,19.04,454964
13-Jan-14,18.91,19.15,18.80,18.91,432889
10-Jan-14,19.01,19.17,18.92,19.15,373446
9-Jan-14,19.09,19.16,18.97,19.07,224591
8-Jan-14,18.91,19.06,18.83,19.04,260798
7-Jan-14,18.76,19.02,18.76,18.96,246046
6-Jan-14,19.18,19.24,18.69,18.72,847779
3-Jan-14,18.79,19.21,18.73,19.10,594884
2-Jan-14,19.05,19.05,18.73,18.84,604689
31-Dec-13,18.91,19.15,18.87,19.15,307319
30-Dec-13,18.86,18.97,18.77,18.87,313692
27-Dec-13,18.87,19.00,18.81,18.92,276265
26-Dec-13,18.71,18.88,18.47,18.87,368367
24-Dec-13,18.48,18.68,18.45,18.60,154028
23-Dec-13,18.49,18.66,18.20,18.55,418587
20-Dec-13,17.65,18.47,17.65,18.47,1338075
19-Dec-13,17.70,17.79,17.49,17.74,270936
18-Dec-13,17.61,17.69,17.35,17.67,588609
17-Dec-13,17.69,17.72,17.44,17.56,306250
16-Dec-13,17.40,17.73,17.32,17.66,382427
13-Dec-13,17.56,17.62,17.25,17.35,493542
12-Dec-13,17.47,17.58,17.39,17.47,433752
11-Dec-13,17.41,17.76,17.40,17.50,790799
10-Dec-13,17.49,17.49,17.20,17.39,750582
9-Dec-13,17.55,17.65,17.28,17.35,375055
6-Dec-13,17.42,17.66,17.42,17.51,563417
5-Dec-13,17.45,17.45,17.18,17.30,440170
4-Dec-13,17.37,17.54,17.23,17.41,482573
3-Dec-13,17.70,17.72,17.33,17.35,715083
2-Dec-13,17.56,18.13,17.50,17.72,889694
29-Nov-13,17.58,17.68,17.40,17.49,294963
27-Nov-13,17.50,17.65,17.40,17.48,479425
26-Nov-13,17.46,17.49,17.18,17.47,717264
25-Nov-13,17.81,17.84,17.51,17.51,172961
22-Nov-13,17.75,18.00,17.62,17.69,626763
21-Nov-13,17.59,17.71,17.51,17.67,409743
20-Nov-13,17.72,17.72,17.30,17.48,554365
19-Nov-13,17.45,17.70,17.43,17.62,810421
18-Nov-13,17.31,17.67,17.21,17.41,904198
15-Nov-13,17.53,17.65,17.00,17.27,5196816
14-Nov-13,17.45,17.72,17.24,17.53,766619
13-Nov-13,17.23,17.55,17.14,17.54,481831
12-Nov-13,16.93,17.34,16.61,17.31,651678
11-Nov-13,17.67,17.83,17.54,17.54,264169
8-Nov-13,17.61,17.75,17.20,17.63,359413
7-Nov-13,17.60,17.91,17.57,17.59,289267
6-Nov-13,17.65,17.98,17.51,17.64,808646
5-Nov-13,18.74,18.89,18.61,18.70,778913
4-Nov-13,19.20,19.41,18.87,18.93,470890
1-Nov-13,19.69,19.79,18.93,19.19,391534
31-Oct-13,19.59,19.94,19.02,19.80,591199
30-Oct-13,20.00,20.55,19.02,19.58,399610
29-Oct-13,19.66,19.70,19.33,19.54,182075
28-Oct-13,19.50,19.62,19.04,19.58,280078
25-Oct-13,19.64,19.64,19.22,19.53,204597
24-Oct-13,19.40,19.60,19.19,19.51,140982
23-Oct-13,19.49,19.59,19.21,19.34,185699
22-Oct-13,19.60,19.74,19.54,19.68,207990
21-Oct-13,19.60,19.74,19.50,19.59,231559
18-Oct-13,19.28,19.62,19.22,19.60,198083
17-Oct-13,19.23,19.47,19.06,19.20,141940
16-Oct-13,18.97,19.37,18.97,19.24,255401
15-Oct-13,18.92,19.01,18.68,18.85,206542
14-Oct-13,18.83,19.11,18.70,18.96,220205
11-Oct-13,18.71,19.06,18.64,19.02,167572
10-Oct-13,18.48,18.83,18.44,18.70,208442
9-Oct-13,18.06,18.46,18.01,18.24,229214
8-Oct-13,18.57,18.57,18.00,18.03,232067
7-Oct-13,18.72,18.77,18.51,18.59,320604
4-Oct-13,18.70,18.99,18.70,18.89,274021
3-Oct-13,18.77,18.83,18.46,18.72,442880
2-Oct-13,18.98,19.13,18.80,18.84,423548
1-Oct-13,19.24,19.42,18.77,19.02,434816
30-Sep-13,19.24,19.53,19.02,19.32,370890
27-Sep-13,19.51,19.71,19.39,19.44,190351
26-Sep-13,19.53,19.72,19.50,19.65,172392
25-Sep-13,19.44,19.75,19.40,19.47,278263
24-Sep-13,19.24,19.54,19.22,19.47,247916
23-Sep-13,19.36,19.49,19.16,19.38,259548
20-Sep-13,19.45,19.57,19.30,19.41,244716
19-Sep-13,19.62,19.67,19.27,19.42,241635
18-Sep-13,19.65,19.80,19.42,19.53,232384
17-Sep-13,19.52,19.82,19.42,19.64,230213
16-Sep-13,19.35,19.66,19.25,19.47,256420
13-Sep-13,19.57,19.71,19.14,19.19,422662
12-Sep-13,19.53,19.75,19.44,19.52,372293
11-Sep-13,19.74,19.83,19.36,19.50,436596
10-Sep-13,19.78,19.90,19.62,19.72,423392
9-Sep-13,19.53,19.86,19.53,19.72,229108
6-Sep-13,19.48,19.63,19.02,19.54,381448
5-Sep-13,19.49,19.77,19.33,19.35,490630
4-Sep-13,19.80,19.86,19.31,19.43,518459
3-Sep-13,20.50,20.64,19.73,19.83,402674
30-Aug-13,20.82,20.82,20.14,20.23,187978
29-Aug-13,20.37,20.92,20.37,20.81,171012
28-Aug-13,20.30,20.54,20.04,20.37,211858
27-Aug-13,21.01,21.01,20.20,20.21,262014
26-Aug-13,20.88,21.42,20.82,21.30,388524
23-Aug-13,20.90,21.15,20.73,20.86,278767
22-Aug-13,20.70,20.90,20.62,20.89,136664
21-Aug-13,20.69,20.76,20.47,20.62,246720
20-Aug-13,20.33,20.93,20.29,20.81,418742
19-Aug-13,20.95,21.00,20.53,20.54,194169
16-Aug-13,20.27,20.94,20.25,20.90,280378
15-Aug-13,20.69,20.69,20.21,20.29,181286
14-Aug-13,20.87,21.00,20.82,20.85,397596
13-Aug-13,20.84,21.00,20.60,20.77,395011
12-Aug-13,20.48,20.88,20.32,20.76,205840
9-Aug-13,20.66,20.66,20.27,20.49,564837
8-Aug-13,20.49,20.81,20.33,20.60,414574
7-Aug-13,20.56,20.56,20.23,20.43,290364
6-Aug-13,20.35,20.70,20.02,20.52,832348
5-Aug-13,19.19,20.48,18.66,20.32,1977985
2-Aug-13,21.00,21.06,20.79,21.00,398720
1-Aug-13,21.76,22.27,20.75,20.85,933274
31-Jul-13,20.15,21.50,19.97,21.38,1721809
30-Jul-13,18.87,19.50,18.85,19.32,962197
29-Jul-13,18.70,18.96,18.70,18.84,303914
26-Jul-13,18.86,18.86,18.53,18.72,177546
25-Jul-13,18.84,18.98,18.81,18.89,253941
24-Jul-13,18.90,19.05,18.79,18.83,384036
23-Jul-13,18.98,19.24,18.74,18.74,997454
22-Jul-13,18.83,19.12,18.68,18.98,203813
19-Jul-13,18.70,18.91,18.66,18.79,239855
18-Jul-13,18.62,18.83,18.59,18.75,448267
17-Jul-13,18.48,19.10,18.11,18.63,821632
16-Jul-13,18.41,18.43,18.14,18.17,210480
15-Jul-13,18.50,18.62,18.24,18.40,371584
12-Jul-13,18.17,18.50,18.13,18.45,457524
11-Jul-13,18.19,18.40,18.02,18.15,659612
10-Jul-13,17.91,18.18,17.83,18.13,391382
9-Jul-13,17.93,17.95,17.80,17.88,236109
8-Jul-13,17.80,18.00,17.69,17.82,381438
5-Jul-13,17.77,17.92,17.62,17.77,139474
3-Jul-13,17.51,17.68,17.33,17.58,504326
2-Jul-13,17.61,17.72,17.40,17.61,301117
1-Jul-13,17.47,17.78,17.41,17.57,620149
28-Jun-13,17.40,17.62,17.31,17.38,1598821
27-Jun-13,16.89,17.75,16.73,17.49,850011
26-Jun-13,16.72,16.91,16.54,16.74,316193
25-Jun-13,17.08,17.16,16.65,16.68,388880
24-Jun-13,16.96,17.15,16.66,16.91,500091
21-Jun-13,17.11,17.21,16.95,17.02,465179
20-Jun-13,17.10,17.34,16.84,17.05,493884
19-Jun-13,17.34,17.43,17.05,17.32,324047
18-Jun-13,17.19,17.43,17.18,17.30,227211
17-Jun-13,17.31,17.45,17.04,17.16,196163
14-Jun-13,16.75,17.19,16.69,17.09,284601
13-Jun-13,16.50,17.14,16.50,16.76,522252
12-Jun-13,16.97,16.97,16.51,16.54,588244
11-Jun-13,17.39,17.48,17.11,17.14,595527
10-Jun-13,17.63,17.72,17.10,17.54,1343715
7-Jun-13,17.90,18.25,17.75,18.00,457444
6-Jun-13,17.38,17.89,17.38,17.82,298068
5-Jun-13,17.73,17.87,17.48,17.48,133725
4-Jun-13,17.42,17.95,17.42,17.83,210586
3-Jun-13,17.45,17.55,17.29,17.46,376525
31-May-13,17.27,17.60,17.16,17.44,314942
30-May-13,17.40,17.45,17.16,17.26,766337
29-May-13,17.73,17.81,17.27,17.41,975899
28-May-13,18.21,18.53,17.79,17.86,1192663
24-May-13,18.33,18.65,17.98,18.65,369806
23-May-13,18.37,18.56,18.27,18.35,1071045
22-May-13,17.57,18.74,17.07,18.38,1420978
21-May-13,16.88,17.00,16.75,16.97,328365
20-May-13,16.53,16.93,16.42,16.85,300550
17-May-13,16.24,16.65,16.19,16.52,154291
16-May-13,16.10,16.27,16.07,16.17,220097
15-May-13,16.27,16.35,16.16,16.17,193632
14-May-13,16.06,16.40,15.99,16.32,124751
13-May-13,16.01,16.22,15.93,16.05,88521
10-May-13,16.18,16.20,16.00,16.05,129759
9-May-13,16.18,16.22,16.01,16.18,266722
8-May-13,15.52,16.22,15.44,16.20,330982
7-May-13,15.32,15.51,15.31,15.50,123583
6-May-13,15.52,15.56,15.11,15.32,231768
3-May-13,15.40,15.67,15.30,15.47,261158
2-May-13,15.32,15.32,14.91,15.27,252710
1-May-13,15.13,15.44,15.02,15.23,350976
30-Apr-13,15.04,15.27,14.94,15.19,505305
29-Apr-13,14.62,15.00,14.57,15.00,400947
26-Apr-13,14.53,14.73,14.41,14.52,113420
25-Apr-13,14.41,14.72,14.38,14.54,190746
24-Apr-13,14.20,14.40,14.18,14.39,180341
23-Apr-13,13.99,14.22,13.94,14.21,129594
22-Apr-13,13.86,13.95,13.67,13.88,167697
19-Apr-13,13.89,13.90,13.73,13.86,124411
18-Apr-13,13.78,13.88,13.66,13.82,239581
17-Apr-13,13.64,13.73,13.54,13.70,262948
16-Apr-13,13.71,13.88,13.64,13.76,209283
15-Apr-13,14.00,14.01,13.51,13.62,503588
12-Apr-13,13.99,14.06,13.94,14.03,188050
11-Apr-13,14.12,14.25,14.01,14.03,231231
10-Apr-13,13.74,14.37,13.74,14.14,529292
9-Apr-13,13.42,13.79,13.33,13.73,356601
8-Apr-13,13.07,13.41,13.03,13.39,190200
5-Apr-13,12.85,13.11,12.66,13.07,263681
4-Apr-13,12.93,13.00,12.79,12.99,253745
3-Apr-13,13.38,13.38,12.87,12.90,367328
2-Apr-13,13.55,13.56,13.25,13.38,193780
1-Apr-13,13.45,13.48,13.18,13.45,248446
28-Mar-13,13.19,13.56,13.14,13.44,338490
27-Mar-13,13.22,13.23,13.11,13.23,239606
26-Mar-13,13.06,13.33,13.05,13.30,264515
25-Mar-13,13.30,13.30,12.97,13.05,166803
22-Mar-13,13.51,13.56,13.19,13.27,144208
21-Mar-13,13.22,13.56,13.17,13.47,196241
20-Mar-13,13.29,13.40,13.27,13.29,191762
19-Mar-13,13.31,13.36,13.23,13.23,274679
18-Mar-13,13.04,13.32,12.98,13.29,231158
15-Mar-13,12.70,13.24,12.70,13.21,691999
14-Mar-13,12.65,12.80,12.63,12.76,422379
13-Mar-13,12.65,12.70,12.54,12.59,251618
12-Mar-13,12.62,12.75,12.57,12.63,223253
11-Mar-13,12.73,12.73,12.58,12.63,299197
8-Mar-13,12.74,12.78,12.66,12.75,286806
7-Mar-13,12.61,12.65,12.57,12.65,222374
6-Mar-13,12.70,12.71,12.53,12.59,231092
5-Mar-13,12.63,12.75,12.59,12.69,307496
4-Mar-13,12.62,12.68,12.51,12.60,252672
1-Mar-13,12.75,12.87,12.51,12.65,454587
28-Feb-13,12.96,13.10,12.70,12.80,367924
27-Feb-13,12.77,13.02,12.77,13.00,312003
26-Feb-13,12.83,12.89,12.65,12.79,707317
25-Feb-13,12.89,12.94,12.76,12.80,308294
22-Feb-13,12.80,12.93,12.80,12.87,229352
21-Feb-13,12.93,12.94,12.54,12.76,681343
20-Feb-13,13.17,13.17,12.88,12.95,253443
19-Feb-13,12.85,13.20,12.84,13.19,593090
15-Feb-13,12.73,12.95,12.64,12.82,490022
14-Feb-13,12.95,12.98,12.70,12.76,319958
13-Feb-13,13.24,13.34,12.98,13.00,334207
12-Feb-13,13.18,13.40,13.00,13.25,313341
11-Feb-13,13.30,13.38,13.12,13.14,186378
8-Feb-13,13.32,13.50,13.18,13.30,192238
7-Feb-13,13.35,13.49,13.07,13.30,226849
6-Feb-13,13.51,13.65,13.40,13.40,256833
5-Feb-13,13.40,13.64,13.40,13.56,345852
4-Feb-13,13.70,13.70,13.25,13.36,643448
1-Feb-13,13.88,13.93,13.74,13.84,438866
31-Jan-13,13.69,13.92,13.39,13.86,559171
30-Jan-13,14.22,14.27,13.74,13.80,722835
29-Jan-13,14.55,14.61,14.16,14.59,543313
28-Jan-13,14.80,14.87,14.38,14.59,312231
25-Jan-13,14.66,14.88,14.64,14.76,132807
24-Jan-13,14.54,14.67,14.47,14.60,228155
23-Jan-13,14.60,14.62,14.35,14.48,145128
22-Jan-13,14.56,14.69,14.52,14.63,106547
18-Jan-13,14.53,14.67,14.40,14.59,105455
17-Jan-13,14.36,14.75,14.29,14.54,274504
16-Jan-13,14.42,14.65,14.23,14.30,474351
15-Jan-13,14.33,14.47,14.15,14.47,295590
14-Jan-13,14.45,14.45,14.23,14.37,262935
11-Jan-13,14.68,14.84,14.36,14.47,240469
10-Jan-13,14.34,14.82,14.18,14.75,365627
9-Jan-13,14.89,15.22,14.82,15.19,282699
8-Jan-13,14.73,14.91,14.63,14.85,233706
7-Jan-13,14.76,14.80,14.51,14.79,246932
4-Jan-13,14.56,14.92,14.51,14.86,489072
3-Jan-13,14.42,14.64,14.28,14.57,334900
2-Jan-13,14.10,14.56,14.02,14.49,436409
31-Dec-12,13.60,13.95,13.52,13.92,254266
28-Dec-12,13.62,13.85,13.57,13.61,231441
27-Dec-12,13.84,13.91,13.47,13.72,229818
26-Dec-12,14.02,14.08,13.84,13.88,112532
24-Dec-12,14.09,14.25,14.00,14.02,168219
21-Dec-12,14.00,14.17,13.94,14.15,354527
20-Dec-12,14.18,14.32,13.96,14.14,303211
19-Dec-12,14.25,14.37,14.12,14.23,177280
18-Dec-12,14.18,14.28,14.05,14.27,222819
17-Dec-12,14.18,14.33,14.02,14.17,217072
14-Dec-12,14.25,14.31,14.07,14.10,404909
13-Dec-12,14.42,14.58,14.17,14.27,402561
12-Dec-12,14.61,14.65,14.29,14.42,651796
11-Dec-12,14.73,14.77,14.32,14.54,562387
10-Dec-12,14.28,14.74,14.17,14.66,555576
7-Dec-12,14.36,14.54,14.16,14.28,597793
6-Dec-12,13.91,14.33,13.85,14.30,1059011
5-Dec-12,14.05,14.13,13.84,13.95,498574
4-Dec-12,13.95,14.13,13.95,14.09,293620
3-Dec-12,14.09,14.09,13.89,14.00,206988
30-Nov-12,14.05,14.08,13.78,14.01,473560
29-Nov-12,14.04,14.08,13.94,14.04,265399
28-Nov-12,13.99,14.05,13.83,14.00,429750
27-Nov-12,14.21,14.21,13.99,14.06,441692
26-Nov-12,14.09,14.33,14.05,14.19,398139
23-Nov-12,13.89,14.21,13.88,14.14,77459
21-Nov-12,13.86,14.00,13.80,13.88,146135
20-Nov-12,13.80,13.97,13.75,13.89,255762
19-Nov-12,13.74,13.99,13.69,13.77,391548
16-Nov-12,13.46,13.66,13.39,13.65,251165
15-Nov-12,13.56,13.82,13.42,13.45,222225
14-Nov-12,13.88,14.05,13.53,13.63,596191
13-Nov-12,13.65,14.00,13.52,13.88,471500
12-Nov-12,13.77,13.96,13.66,13.68,277798
9-Nov-12,13.74,13.89,13.63,13.78,619014
8-Nov-12,13.56,13.84,13.42,13.73,392744
7-Nov-12,14.00,14.19,13.56,13.65,564079
6-Nov-12,14.18,14.21,13.95,14.18,700691
5-Nov-12,14.07,14.32,14.00,14.13,364103
2-Nov-12,14.28,14.29,13.99,14.13,494296
1-Nov-12,13.61,14.23,13.46,14.21,964798
31-Oct-12,12.64,13.61,12.58,13.38,853548
26-Oct-12,12.37,12.63,12.34,12.55,371695
25-Oct-12,12.37,12.53,12.19,12.36,411911
24-Oct-12,12.46,12.84,12.21,12.28,434153
23-Oct-12,12.38,12.40,12.12,12.26,359690
22-Oct-12,12.37,12.49,12.29,12.37,793920
19-Oct-12,12.72,12.77,12.33,12.35,893285
18-Oct-12,12.87,12.87,12.67,12.67,357584
17-Oct-12,12.96,13.10,12.87,12.88,280116
16-Oct-12,12.95,13.16,12.67,12.97,531041
15-Oct-12,12.69,12.88,12.61,12.74,420430
12-Oct-12,12.74,12.79,12.59,12.69,231355
11-Oct-12,12.60,12.80,12.60,12.72,410227
10-Oct-12,12.55,12.93,12.46,12.54,1107884
9-Oct-12,13.12,13.16,12.86,13.01,190611
8-Oct-12,13.14,13.24,12.90,13.17,290465
5-Oct-12,13.22,13.38,13.11,13.18,423805
4-Oct-12,13.11,13.26,12.90,13.21,1461919
3-Oct-12,13.86,13.92,13.61,13.81,485978
2-Oct-12,13.88,13.97,13.81,13.87,534072
1-Oct-12,13.86,13.95,13.80,13.84,682286
28-Sep-12,13.79,13.91,13.72,13.85,318185
27-Sep-12,13.89,13.94,13.75,13.84,335116
26-Sep-12,13.72,13.76,13.36,13.76,361335
25-Sep-12,13.92,14.00,13.70,13.75,330294
24-Sep-12,13.73,14.01,13.73,13.92,389940
21-Sep-12,13.76,13.89,13.61,13.80,358553
20-Sep-12,13.62,13.78,13.58,13.73,281967
19-Sep-12,13.43,13.87,13.40,13.79,346525
18-Sep-12,13.54,13.63,13.48,13.60,198696
17-Sep-12,13.59,13.71,13.46,13.61,201284
14-Sep-12,13.37,13.68,13.23,13.65,612621
13-Sep-12,13.01,13.41,12.99,13.33,759894
12-Sep-12,13.32,13.40,13.15,13.35,479193
11-Sep-12,13.20,13.46,13.08,13.25,439199
10-Sep-12,12.57,13.46,12.50,13.18,1083733
7-Sep-12,12.28,12.52,12.20,12.51,345150
6-Sep-12,12.02,12.32,12.00,12.24,841037
5-Sep-12,12.08,12.19,11.86,11.90,532551
4-Sep-12,12.08,12.42,11.85,12.04,901575
31-Aug-12,18.62,18.62,17.97,18.36,491977
30-Aug-12,18.47,18.60,18.33,18.49,175630
29-Aug-12,18.52,18.71,18.51,18.60,146608
28-Aug-12,18.48,18.72,18.40,18.59,117517
27-Aug-12,18.49,18.75,18.41,18.57,215184
24-Aug-12,18.22,18.52,18.04,18.40,279008
23-Aug-12,18.34,18.34,18.01,18.21,284931
22-Aug-12,18.44,18.44,18.26,18.33,151116
21-Aug-12,18.49,18.66,18.33,18.42,178691
20-Aug-12,18.85,18.87,18.37,18.51,270738
17-Aug-12,18.98,19.04,18.80,18.89,129244
16-Aug-12,19.03,19.14,18.78,18.97,287953
15-Aug-12,19.00,19.23,18.94,19.06,647597
14-Aug-12,19.00,19.00,18.85,18.96,352956
13-Aug-12,18.67,19.00,18.66,18.98,283294
10-Aug-12,18.54,18.79,18.48,18.66,595227
9-Aug-12,18.10,18.60,18.05,18.60,696830
8-Aug-12,17.94,18.10,17.72,18.06,342076
7-Aug-12,17.73,17.95,17.71,17.89,382808
6-Aug-12,17.49,17.96,17.45,17.77,640774
3-Aug-12,17.50,17.73,17.37,17.45,280853
2-Aug-12,17.44,17.63,17.21,17.32,388174
1-Aug-12,17.66,17.96,17.20,17.50,779253
31-Jul-12,17.24,17.80,17.16,17.43,790905
30-Jul-12,16.92,17.31,16.89,17.26,456971
27-Jul-12,16.54,17.02,16.40,16.89,270600
26-Jul-12,16.60,16.60,16.37,16.45,334744
25-Jul-12,16.64,16.66,16.46,16.50,423655
24-Jul-12,16.84,16.94,16.50,16.65,390131
23-Jul-12,17.03,17.03,16.61,16.82,301020
20-Jul-12,17.14,17.39,16.98,17.25,316978
19-Jul-12,17.11,17.29,17.02,17.24,297884
18-Jul-12,17.05,17.23,16.85,17.13,250214
17-Jul-12,16.99,17.14,16.64,17.05,813584
16-Jul-12,16.92,17.07,16.53,16.92,620635
13-Jul-12,17.03,17.65,16.88,17.06,438858
12-Jul-12,16.51,17.25,16.17,16.99,1218346
11-Jul-12,14.77,17.41,14.71,16.76,2903055
10-Jul-12,14.74,14.91,14.62,14.76,79928
9-Jul-12,14.59,14.97,14.42,14.72,221673
6-Jul-12,14.74,14.82,14.53,14.67,72223
5-Jul-12,14.94,15.00,14.71,14.83,162491
3-Jul-12,14.82,15.00,14.72,14.99,199888
2-Jul-12,15.16,15.22,14.70,14.80,384107
29-Jun-12,15.04,15.28,15.00,15.28,153929
28-Jun-12,14.77,15.13,14.77,14.92,272086
27-Jun-12,14.44,14.98,14.38,14.88,262389
26-Jun-12,14.43,14.43,14.29,14.40,198560
25-Jun-12,14.67,14.67,14.30,14.32,399014
22-Jun-12,14.79,14.88,14.69,14.69,569275
21-Jun-12,14.98,15.16,14.69,14.69,305332
20-Jun-12,15.02,15.12,14.90,14.94,239634
19-Jun-12,15.19,15.19,14.80,15.07,376839
18-Jun-12,15.25,15.50,15.19,15.24,285704
15-Jun-12,15.27,15.47,15.21,15.25,329225
14-Jun-12,15.32,15.56,15.25,15.31,226648
13-Jun-12,15.46,15.64,15.19,15.26,285160
12-Jun-12,15.34,15.57,15.17,15.46,388625
11-Jun-12,15.70,15.75,15.24,15.30,298760
8-Jun-12,15.59,15.69,15.25,15.64,354397
7-Jun-12,14.69,15.92,14.69,15.56,771369
6-Jun-12,16.41,16.90,16.33,16.90,743345
5-Jun-12,16.29,16.56,16.05,16.33,745788
4-Jun-12,16.46,16.46,16.01,16.28,550169
1-Jun-12,16.17,16.53,15.97,16.44,766133
31-May-12,16.55,16.64,15.77,16.21,2569645
30-May-12,16.20,17.19,15.70,16.86,2329445
29-May-12,15.03,15.08,14.84,14.88,354771
25-May-12,15.25,15.25,14.87,14.98,176703
24-May-12,15.10,15.29,14.96,15.23,249873
23-May-12,15.28,15.30,14.85,15.10,396816
22-May-12,15.41,15.53,15.22,15.29,180992
21-May-12,15.31,15.42,14.97,15.41,151604
18-May-12,15.48,15.64,15.28,15.29,504116
17-May-12,15.40,15.54,15.27,15.47,351849
16-May-12,15.32,15.60,15.25,15.41,457125
15-May-12,15.03,15.21,15.00,15.19,156003
14-May-12,14.95,15.11,14.87,15.05,157091
11-May-12,14.87,15.20,14.83,15.10,332036
10-May-12,14.94,14.98,14.70,14.87,136035
9-May-12,15.34,15.34,14.82,14.85,232006
8-May-12,15.74,15.98,15.39,15.48,540616
7-May-12,16.38,16.44,16.02,16.34,580845
4-May-12,16.73,16.76,16.15,16.38,1043805
3-May-12,17.11,17.11,16.36,16.80,539761
2-May-12,17.52,17.65,17.11,17.16,176663
1-May-12,17.10,17.87,16.98,17.62,204624
30-Apr-12,17.17,17.30,17.07,17.10,80272
27-Apr-12,17.15,17.35,17.10,17.23,124938
26-Apr-12,17.12,17.29,17.08,17.13,109567
25-Apr-12,17.19,17.25,17.10,17.14,117000
24-Apr-12,17.03,17.15,16.97,17.02,59801
23-Apr-12,16.96,17.04,16.78,17.01,54483
20-Apr-12,17.14,17.25,17.03,17.10,103445
19-Apr-12,16.89,17.15,16.73,17.05,155386
18-Apr-12,17.00,17.00,16.77,16.86,82142
17-Apr-12,17.05,17.10,16.92,17.04,62637
16-Apr-12,17.02,17.08,16.67,17.00,132532
13-Apr-12,16.96,16.96,16.78,16.85,71270
12-Apr-12,16.73,17.05,16.73,16.98,138888
11-Apr-12,16.73,16.81,16.60,16.76,128185
10-Apr-12,16.90,16.91,16.45,16.65,176887
9-Apr-12,16.92,16.93,16.70,16.93,167579
5-Apr-12,16.94,17.20,16.90,17.19,119829
4-Apr-12,16.95,17.06,16.64,17.01,665300
3-Apr-12,17.39,17.66,17.05,17.09,542805
2-Apr-12,16.97,17.36,16.87,17.29,151044
30-Mar-12,17.21,17.21,16.98,17.03,220802
29-Mar-12,16.92,17.21,16.71,17.15,120603
28-Mar-12,17.34,17.41,16.96,17.01,284982
27-Mar-12,17.50,17.51,17.28,17.29,169238
26-Mar-12,17.56,17.76,17.47,17.48,152065
23-Mar-12,17.50,17.57,17.42,17.47,61088
22-Mar-12,17.46,17.58,17.41,17.52,155823
21-Mar-12,17.32,17.67,17.29,17.58,124782
20-Mar-12,17.24,17.36,17.10,17.29,99597
19-Mar-12,17.19,17.48,17.11,17.28,413905
16-Mar-12,17.15,17.27,17.09,17.16,619938
15-Mar-12,17.06,17.25,16.94,17.17,590045
14-Mar-12,16.95,17.35,16.76,17.10,238351
13-Mar-12,17.34,17.36,16.84,16.97,438978
12-Mar-12,17.52,17.65,17.48,17.52,90429
9-Mar-12,17.56,17.82,17.42,17.52,225611
8-Mar-12,17.53,17.64,17.38,17.60,63326
7-Mar-12,17.45,17.51,17.21,17.42,88352
6-Mar-12,17.55,17.60,17.33,17.41,138846
5-Mar-12,17.71,17.79,17.63,17.71,121221
2-Mar-12,18.01,18.09,17.68,17.74,159105
1-Mar-12,18.57,18.57,17.93,18.00,407606
29-Feb-12,18.47,18.49,18.25,18.41,187766
28-Feb-12,18.44,18.49,18.30,18.48,252968
27-Feb-12,18.27,18.47,18.24,18.40,182542
24-Feb-12,18.36,18.44,18.17,18.39,248381
23-Feb-12,18.17,18.37,18.11,18.34,172723
22-Feb-12,18.00,18.19,17.98,18.17,116482
21-Feb-12,18.03,18.10,17.85,18.06,527663
17-Feb-12,18.05,18.05,17.77,17.94,421683
16-Feb-12,17.85,18.03,17.81,18.02,212009
15-Feb-12,17.96,18.03,17.75,17.86,219736
14-Feb-12,17.79,18.00,17.70,17.90,184636
13-Feb-12,17.75,17.87,17.65,17.85,178866
10-Feb-12,17.67,17.80,17.44,17.66,307439
9-Feb-12,17.74,17.81,17.58,17.81,225801
8-Feb-12,17.73,18.03,17.59,17.82,209547
7-Feb-12,17.71,17.78,17.40,17.66,221894
6-Feb-12,17.50,17.80,17.20,17.79,314529
3-Feb-12,17.62,18.05,17.46,17.70,477615
2-Feb-12,17.88,17.98,17.77,17.86,135856
1-Feb-12,17.74,17.95,17.69,17.79,161097
31-Jan-12,17.81,17.81,17.48,17.60,106883
30-Jan-12,17.51,17.74,17.40,17.69,271130
27-Jan-12,17.50,17.68,17.47,17.62,196023
26-Jan-12,17.51,17.57,17.38,17.56,111119
25-Jan-12,17.26,17.52,17.16,17.44,257281
24-Jan-12,17.27,17.47,17.01,17.29,146222
23-Jan-12,17.19,17.40,17.07,17.31,181626
20-Jan-12,17.47,17.54,17.12,17.20,362151
19-Jan-12,17.68,17.84,17.53,17.53,103283
18-Jan-12,17.24,17.68,17.12,17.66,103455
17-Jan-12,17.63,17.63,17.20,17.21,196826
13-Jan-12,17.49,17.63,17.38,17.47,187073
12-Jan-12,17.61,17.64,17.40,17.62,60980
11-Jan-12,17.42,17.65,17.42,17.60,115482
10-Jan-12,17.37,17.49,17.33,17.45,167899
9-Jan-12,17.16,17.41,17.15,17.17,153609
6-Jan-12,17.19,17.19,16.98,17.07,105821
5-Jan-12,17.27,17.40,17.06,17.16,171104
4-Jan-12,17.47,17.54,17.26,17.33,59689
3-Jan-12,17.58,17.75,17.31,17.54,173079
30-Dec-11,17.28,17.45,17.11,17.25,278790
29-Dec-11,17.27,17.42,17.20,17.24,202074
28-Dec-11,17.36,17.41,17.09,17.27,137592
27-Dec-11,17.48,17.70,17.26,17.42,204733
23-Dec-11,17.78,18.00,17.45,17.50,247382
22-Dec-11,17.85,17.85,17.44,17.68,191179
21-Dec-11,17.40,18.24,17.20,17.83,571831
20-Dec-11,16.98,17.57,16.77,17.48,404851
19-Dec-11,16.88,16.90,16.60,16.77,160294
16-Dec-11,16.52,17.17,16.48,16.94,472994
15-Dec-11,16.77,16.85,16.46,16.52,171483
14-Dec-11,16.58,16.60,16.17,16.48,463134
13-Dec-11,16.98,17.22,15.60,16.72,544048
12-Dec-11,16.50,16.90,16.37,16.82,374273
9-Dec-11,15.95,16.72,15.90,16.72,308963
8-Dec-11,15.96,15.98,15.79,15.92,167032
7-Dec-11,15.93,16.10,15.80,16.10,255754
6-Dec-11,16.00,16.02,15.33,16.02,404435
5-Dec-11,15.57,16.04,15.46,15.99,441007
2-Dec-11,15.40,15.64,15.18,15.34,675255
1-Dec-11,13.97,14.86,13.83,14.74,287648
30-Nov-11,13.95,14.23,13.87,13.97,252274
29-Nov-11,13.83,13.87,13.63,13.70,154895
28-Nov-11,14.16,14.16,13.63,13.79,224253
25-Nov-11,13.99,13.99,13.61,13.87,21310
23-Nov-11,14.12,14.14,13.98,14.02,33092
22-Nov-11,14.39,14.45,14.10,14.26,51739
21-Nov-11,14.36,14.44,13.96,14.40,204902
18-Nov-11,14.93,15.04,14.43,14.58,258832
17-Nov-11,15.37,15.37,14.73,14.87,149778
16-Nov-11,15.62,15.69,15.38,15.41,190999
15-Nov-11,15.52,15.86,15.48,15.80,185861
14-Nov-11,15.71,15.87,15.32,15.48,154600
11-Nov-11,15.79,15.96,15.51,15.84,156941
10-Nov-11,15.94,16.06,15.44,15.61,113425
9-Nov-11,15.86,16.29,15.85,15.89,146756
8-Nov-11,16.33,16.40,16.00,16.30,268259
7-Nov-11,16.28,16.41,16.07,16.31,180487
4-Nov-11,16.24,16.38,15.84,16.32,216284
3-Nov-11,14.91,16.38,14.91,16.38,297519
2-Nov-11,15.40,15.92,14.89,15.82,417780
1-Nov-11,15.29,15.48,15.01,15.30,142433
31-Oct-11,15.93,16.05,15.54,15.81,111343
28-Oct-11,16.18,16.31,15.97,16.15,111047
27-Oct-11,16.31,16.38,15.98,16.05,498991
26-Oct-11,15.92,16.06,15.58,15.81,257504
25-Oct-11,16.01,16.10,15.72,15.72,262332
24-Oct-11,15.71,16.30,15.66,16.14,562295
21-Oct-11,15.99,16.02,15.64,15.75,270317
20-Oct-11,15.82,15.99,15.44,15.79,221015
19-Oct-11,15.88,16.04,15.71,15.83,247614
18-Oct-11,16.06,16.12,15.73,16.00,109261
17-Oct-11,16.32,16.55,15.99,16.14,138830
14-Oct-11,16.49,16.63,16.35,16.50,246206
13-Oct-11,16.15,16.43,15.90,16.28,263893
12-Oct-11,16.51,16.80,16.17,16.31,219183
11-Oct-11,16.11,16.45,15.97,16.44,154309
10-Oct-11,15.97,16.25,15.84,16.23,170755
7-Oct-11,15.63,16.00,15.47,15.73,244638
6-Oct-11,14.95,15.86,14.82,15.63,219034
5-Oct-11,14.67,15.07,14.66,14.98,248446
4-Oct-11,14.19,14.78,13.91,14.72,324154
3-Oct-11,14.70,14.81,14.35,14.36,335346
30-Sep-11,14.48,15.09,14.31,14.87,504980
29-Sep-11,14.41,14.93,14.22,14.73,349459
28-Sep-11,14.49,14.49,13.98,14.21,371292
27-Sep-11,13.87,14.67,13.40,14.53,384794
26-Sep-11,13.94,14.04,13.60,13.89,127195
23-Sep-11,13.53,13.99,13.33,13.91,162539
22-Sep-11,14.07,14.25,13.43,13.52,228972
21-Sep-11,14.88,15.16,14.40,14.44,111675
20-Sep-11,14.94,15.30,14.80,14.93,95169
19-Sep-11,14.95,15.08,14.66,14.91,102388
16-Sep-11,15.06,15.23,14.91,15.13,263425
15-Sep-11,15.23,15.46,14.94,14.99,256844
14-Sep-11,14.86,15.13,14.77,15.12,313751
13-Sep-11,14.68,14.87,14.50,14.80,91870
12-Sep-11,14.97,15.26,14.52,14.62,275235
9-Sep-11,14.97,15.35,14.75,15.05,519532
8-Sep-11,15.06,15.31,14.93,15.22,258350
7-Sep-11,15.12,15.38,14.88,15.09,657723
6-Sep-11,14.98,15.10,14.79,14.92,518511
2-Sep-11,14.83,15.85,14.55,15.26,644005
1-Sep-11,15.62,15.62,14.76,15.02,1520945
31-Aug-11,15.98,16.29,15.78,16.04,362571
30-Aug-11,16.38,16.38,15.74,15.88,384931
29-Aug-11,16.96,16.96,16.51,16.56,221235
26-Aug-11,15.88,16.99,15.88,16.91,215150
25-Aug-11,16.01,16.24,15.72,15.96,243879
24-Aug-11,15.76,16.15,15.65,16.01,108418
23-Aug-11,15.30,15.90,15.05,15.81,158594
22-Aug-11,16.09,16.22,14.98,15.31,222189
19-Aug-11,15.43,16.19,15.30,15.86,298595
18-Aug-11,16.09,16.25,15.34,15.65,293216
17-Aug-11,15.87,16.54,15.84,16.48,240630
16-Aug-11,15.81,16.00,15.65,15.78,133013
15-Aug-11,15.69,15.99,15.53,15.90,158161
12-Aug-11,16.21,16.21,15.42,15.52,252991
11-Aug-11,16.06,16.29,15.60,16.11,226273
10-Aug-11,16.42,16.56,15.64,16.07,392076
9-Aug-11,15.90,16.49,15.60,16.26,614222
8-Aug-11,16.55,16.61,15.00,15.03,956309
5-Aug-11,16.77,16.98,16.11,16.94,296175
4-Aug-11,17.24,17.52,16.59,16.62,649939
3-Aug-11,17.60,17.68,17.32,17.41,221987
2-Aug-11,17.68,18.18,17.59,17.64,291586
1-Aug-11,18.34,18.75,17.62,17.70,348715
29-Jul-11,18.12,18.41,17.79,18.19,143508
28-Jul-11,19.10,19.18,18.22,18.29,336941
27-Jul-11,18.82,19.14,18.81,19.05,416049
26-Jul-11,18.82,19.36,18.67,18.95,326667
25-Jul-11,18.70,19.02,18.51,18.96,156153
22-Jul-11,19.22,19.22,18.78,18.94,191180
21-Jul-11,18.67,19.38,18.44,19.18,486638
20-Jul-11,18.56,18.63,18.35,18.50,515728
19-Jul-11,18.69,19.20,18.55,18.60,355373
18-Jul-11,18.74,18.81,18.50,18.65,281176
15-Jul-11,20.11,20.11,18.75,18.75,379906
14-Jul-11,19.83,19.97,19.48,19.61,269173
13-Jul-11,19.50,19.96,19.34,19.87,268628
12-Jul-11,18.79,19.56,18.69,19.54,347157
11-Jul-11,19.25,19.33,18.70,18.95,249887
8-Jul-11,18.96,19.46,18.96,19.39,327925
7-Jul-11,18.92,19.14,18.89,19.05,211507
6-Jul-11,18.91,19.00,18.75,18.92,290341
5-Jul-11,19.07,19.10,18.70,19.00,190541
1-Jul-11,19.06,19.22,18.84,19.08,391250
30-Jun-11,19.24,19.25,18.75,19.11,340135
29-Jun-11,19.24,19.25,19.14,19.25,207406
28-Jun-11,18.87,19.29,18.70,19.16,365459
27-Jun-11,19.08,19.14,18.80,18.87,376605
24-Jun-11,19.30,19.30,18.90,19.13,862609
23-Jun-11,19.11,19.30,18.70,19.29,563453
22-Jun-11,18.71,19.29,18.71,19.18,879255
21-Jun-11,18.43,18.75,18.18,18.69,1064918
20-Jun-11,18.32,18.43,18.22,18.35,581754
17-Jun-11,18.46,18.46,17.98,18.16,1709307
16-Jun-11,17.63,17.76,17.39,17.55,266888
15-Jun-11,17.87,17.87,17.39,17.54,467908
14-Jun-11,18.03,18.13,17.79,17.95,392675
13-Jun-11,17.75,18.01,17.69,17.97,262694
10-Jun-11,17.88,17.95,17.64,17.68,326556
9-Jun-11,17.73,18.00,17.67,17.96,278821
8-Jun-11,17.82,17.96,17.60,17.67,561358
7-Jun-11,18.39,18.44,17.80,17.85,1424955
6-Jun-11,17.75,17.89,17.65,17.68,310227
3-Jun-11,17.77,17.94,17.66,17.72,354212
2-Jun-11,17.87,18.00,17.77,17.84,245479
1-Jun-11,18.01,18.15,17.82,17.89,293215
31-May-11,18.24,18.30,17.79,17.99,306816
27-May-11,18.13,18.18,17.99,18.11,127272
26-May-11,18.10,18.30,17.91,18.15,161699
25-May-11,18.50,18.50,17.98,18.14,400125
24-May-11,18.81,18.87,18.77,18.79,173433
23-May-11,18.88,18.99,18.76,18.80,224460
20-May-11,19.00,19.17,18.96,19.06,160989
19-May-11,19.22,19.22,18.99,19.05,122198
18-May-11,19.11,19.22,18.98,19.21,102899
17-May-11,19.20,19.20,18.79,19.11,99874
16-May-11,19.47,19.58,19.06,19.20,111163
13-May-11,19.58,19.77,19.51,19.51,23058
12-May-11,19.67,19.77,19.44,19.69,36582
11-May-11,19.81,19.93,19.52,19.66,56038
10-May-11,19.65,19.75,19.45,19.75,29561
9-May-11,19.27,19.63,19.23,19.61,43884
6-May-11,19.49,19.59,19.20,19.23,40649
5-May-11,19.31,19.42,18.80,19.31,85581
4-May-11,19.50,19.59,19.36,19.41,92444
3-May-11,19.37,19.53,19.21,19.48,39443
2-May-11,19.50,19.54,19.38,19.41,55918
29-Apr-11,19.24,19.38,19.12,19.34,100169
28-Apr-11,19.00,19.22,19.00,19.18,22349
27-Apr-11,19.17,19.22,18.95,19.04,139299
26-Apr-11,19.19,19.38,19.17,19.20,158064
25-Apr-11,19.05,19.27,19.05,19.22,270665
21-Apr-11,19.15,19.36,18.97,19.11,21481
20-Apr-11,19.15,19.25,18.90,19.15,295157
19-Apr-11,19.05,19.05,18.80,19.01,50932
18-Apr-11,19.06,19.16,18.90,19.07,70409
15-Apr-11,19.03,19.30,18.89,19.20,495339
14-Apr-11,18.78,19.06,18.69,18.98,75216
13-Apr-11,19.02,19.11,18.67,18.83,82870
12-Apr-11,19.07,19.11,18.77,18.93,72395
11-Apr-11,19.60,19.60,19.16,19.27,38578
8-Apr-11,19.08,19.83,19.01,19.59,503867
7-Apr-11,18.82,19.24,18.82,19.08,273634
6-Apr-11,18.59,18.91,18.34,18.87,184505
5-Apr-11,18.27,18.54,18.21,18.49,531717
4-Apr-11,18.33,18.50,18.20,18.25,51081
1-Apr-11,18.11,18.31,17.91,18.29,295123
31-Mar-11,18.13,18.13,17.80,18.01,236507
30-Mar-11,18.20,18.20,18.06,18.16,45200
29-Mar-11,18.16,18.35,18.05,18.20,35944
28-Mar-11,18.27,18.28,18.11,18.21,26864
25-Mar-11,18.32,18.38,18.25,18.28,95383
24-Mar-11,18.16,18.45,18.13,18.30,172651
23-Mar-11,18.22,18.30,18.16,18.26,164976
22-Mar-11,18.26,18.38,18.16,18.24,746545
21-Mar-11,18.50,18.57,18.25,18.29,64830
18-Mar-11,18.36,18.50,18.25,18.50,220550
17-Mar-11,18.33,18.47,18.14,18.22,134496
16-Mar-11,17.96,18.24,17.88,18.17,187478
15-Mar-11,18.28,18.28,17.60,18.00,188410
14-Mar-11,18.20,18.50,18.10,18.49,109418
11-Mar-11,18.11,18.27,18.02,18.20,72335
10-Mar-11,18.30,18.32,18.10,18.20,161700
9-Mar-11,18.50,18.51,18.43,18.44,19303
8-Mar-11,18.35,18.60,18.33,18.49,64810
7-Mar-11,18.50,18.60,18.25,18.36,68900
4-Mar-11,18.73,18.82,18.46,18.50,68366
3-Mar-11,18.59,18.82,18.39,18.72,155581
2-Mar-11,18.50,18.55,18.35,18.50,59093
1-Mar-11,18.49,18.55,18.44,18.50,115776
28-Feb-11,18.71,18.71,18.43,18.49,122838
25-Feb-11,18.50,18.71,18.44,18.62,119103
24-Feb-11,18.80,18.85,18.40,18.50,106456
23-Feb-11,19.10,19.25,18.79,18.83,86061
22-Feb-11,19.00,19.22,18.97,19.15,35650
18-Feb-11,18.94,19.25,18.87,19.22,151280
17-Feb-11,19.02,19.04,18.72,18.94,130805
16-Feb-11,18.88,19.23,18.86,18.98,156239
15-Feb-11,18.73,18.91,18.67,18.86,101382
14-Feb-11,18.91,19.08,18.53,18.78,125804
11-Feb-11,18.77,18.99,18.76,18.96,61873
10-Feb-11,18.90,19.15,18.69,18.77,350215
9-Feb-11,19.56,20.29,18.70,18.93,601003
8-Feb-11,19.26,19.41,18.99,19.35,216577
7-Feb-11,18.70,19.35,18.68,19.25,113000
4-Feb-11,18.91,18.97,18.59,18.75,33128
3-Feb-11,18.93,19.03,18.75,18.78,76338
2-Feb-11,18.61,19.02,18.56,19.01,28297
1-Feb-11,18.80,19.11,18.56,18.70,120972
31-Jan-11,18.96,19.23,18.59,18.66,94276
28-Jan-11,18.83,18.97,18.43,18.93,37130
27-Jan-11,18.44,18.80,18.17,18.80,269897
26-Jan-11,18.45,18.67,18.25,18.47,34384
25-Jan-11,18.40,18.50,18.36,18.46,26880
24-Jan-11,18.15,18.46,18.15,18.39,30485
21-Jan-11,18.50,18.80,18.07,18.11,174064
20-Jan-11,18.31,18.36,18.02,18.09,136494
19-Jan-11,18.51,18.84,18.23,18.32,71601
18-Jan-11,18.58,18.65,18.18,18.58,81161
14-Jan-11,18.50,18.58,18.30,18.58,26267
13-Jan-11,18.50,18.54,18.35,18.47,26874
12-Jan-11,18.76,18.76,18.18,18.48,135572
11-Jan-11,18.23,18.75,18.18,18.65,51172
10-Jan-11,18.24,18.34,18.12,18.18,120905
7-Jan-11,18.43,18.48,18.15,18.23,457785
6-Jan-11,18.74,18.74,18.05,18.46,341972
5-Jan-11,18.88,19.00,18.65,18.78,160627
4-Jan-11,19.21,19.31,18.65,18.88,257950
3-Jan-11,19.66,19.66,19.18,19.19,309520
31-Dec-10,19.72,19.75,19.36,19.43,31684
30-Dec-10,19.39,19.76,19.30,19.76,191549
29-Dec-10,19.46,19.51,19.15,19.41,98174
28-Dec-10,19.79,19.92,19.21,19.41,104168
27-Dec-10,19.46,20.14,19.46,19.72,318604
23-Dec-10,19.44,19.76,19.01,19.14,84014
22-Dec-10,19.29,19.66,19.29,19.40,492518
21-Dec-10,19.60,19.60,19.08,19.31,215373
20-Dec-10,19.04,19.65,18.88,19.59,176045
17-Dec-10,18.90,19.19,18.66,19.03,535889
16-Dec-10,18.70,19.02,18.52,18.95,284459
15-Dec-10,18.71,18.75,18.42,18.70,154786
14-Dec-10,18.62,18.70,18.36,18.69,265345
13-Dec-10,18.60,18.69,18.35,18.57,98883
10-Dec-10,18.54,18.71,18.50,18.60,379089
9-Dec-10,18.95,19.00,18.60,18.69,200864
8-Dec-10,18.73,18.95,18.60,18.86,116647
7-Dec-10,19.00,19.17,18.65,18.86,350648
6-Dec-10,19.30,19.65,18.84,18.99,224713
3-Dec-10,19.09,19.25,18.90,19.03,204555
2-Dec-10,19.68,19.75,18.77,19.14,481454
1-Dec-10,19.71,19.85,19.25,19.40,255876
30-Nov-10,19.30,19.47,18.66,19.40,298400
29-Nov-10,19.98,19.98,19.34,19.46,326059
26-Nov-10,19.75,20.73,19.51,19.82,70137
24-Nov-10,19.86,20.45,19.79,20.00,192620
23-Nov-10,19.42,19.75,19.42,19.66,151978
22-Nov-10,19.80,19.85,19.49,19.73,200035
19-Nov-10,19.16,19.60,19.15,19.43,320102
18-Nov-10,19.45,19.79,19.00,19.50,705774
17-Nov-10,17.26,19.57,17.16,19.25,7376101
