﻿Date,Open,High,Low,Close,Volume
20-Jun-17,29.60,29.95,29.35,29.75,304483
19-Jun-17,28.75,29.67,28.40,29.45,558632
16-Jun-17,28.80,28.95,28.38,28.60,435012
15-Jun-17,29.00,29.10,28.55,28.85,331647
14-Jun-17,29.20,29.35,29.00,29.15,277106
13-Jun-17,30.05,30.20,29.00,29.20,480116
12-Jun-17,30.50,30.65,29.85,30.15,565231
9-Jun-17,29.80,30.90,29.55,30.50,908501
8-Jun-17,28.50,29.75,28.25,29.65,383747
7-Jun-17,28.40,28.50,27.50,28.50,532141
6-Jun-17,28.40,28.55,28.00,28.40,478197
5-Jun-17,28.70,29.15,28.44,28.50,246860
2-Jun-17,28.95,28.95,28.50,28.85,537277
1-Jun-17,28.90,29.15,28.35,29.00,525995
31-May-17,28.75,28.95,28.25,28.85,475914
30-May-17,28.60,28.80,28.20,28.75,417304
26-May-17,28.30,29.00,28.05,28.75,358748
25-May-17,28.10,28.85,27.95,28.30,433048
24-May-17,28.65,28.65,27.55,27.95,597429
23-May-17,28.35,29.00,28.10,28.85,311232
22-May-17,28.30,28.55,28.12,28.35,313415
19-May-17,27.70,28.75,27.70,28.30,375848
18-May-17,27.60,28.10,27.05,27.45,579939
17-May-17,28.50,28.75,28.00,28.00,544769
16-May-17,28.40,28.95,28.30,28.85,439655
15-May-17,28.00,28.55,27.70,28.30,561006
12-May-17,29.40,29.85,28.00,28.15,588574
11-May-17,29.55,29.95,28.96,29.40,500659
10-May-17,29.80,30.00,29.55,29.75,586352
9-May-17,28.70,29.85,28.54,29.80,720963
8-May-17,28.35,29.30,28.29,28.75,766031
5-May-17,28.55,28.75,27.65,28.35,788341
4-May-17,31.50,31.60,26.50,28.15,2826945
3-May-17,33.70,33.85,32.60,33.20,497150
2-May-17,33.95,34.00,33.30,33.90,594276
1-May-17,33.00,33.95,32.70,33.75,538922
28-Apr-17,32.65,33.25,32.20,32.90,355887
27-Apr-17,33.20,33.45,32.45,32.45,455578
26-Apr-17,32.65,33.45,32.65,33.20,655143
25-Apr-17,32.30,32.85,32.00,32.55,696374
24-Apr-17,32.00,32.48,31.45,32.15,711831
21-Apr-17,31.50,31.55,30.60,30.95,391269
20-Apr-17,30.90,31.65,30.45,31.45,454319
19-Apr-17,30.70,30.85,30.28,30.70,260967
18-Apr-17,30.55,30.85,30.40,30.50,234179
17-Apr-17,30.50,30.85,29.90,30.80,272636
13-Apr-17,30.65,30.88,30.35,30.45,224973
12-Apr-17,30.80,30.80,30.02,30.65,444959
11-Apr-17,29.55,30.95,29.50,30.75,573273
10-Apr-17,29.95,31.70,29.45,29.70,1794577
7-Apr-17,27.35,27.55,27.00,27.30,198841
6-Apr-17,27.10,27.55,26.45,27.40,370966
5-Apr-17,28.80,29.00,26.60,27.15,840235
4-Apr-17,28.30,28.80,28.25,28.60,303427
3-Apr-17,28.95,29.05,28.20,28.35,376628
31-Mar-17,29.15,29.22,28.90,28.95,254610
30-Mar-17,29.15,29.38,28.66,29.05,351946
29-Mar-17,29.45,29.50,28.70,29.10,594497
28-Mar-17,28.80,28.95,28.00,28.60,653749
27-Mar-17,26.50,28.30,26.20,28.10,920122
24-Mar-17,26.25,26.95,26.19,26.60,248300
23-Mar-17,26.00,26.45,25.75,26.05,253333
22-Mar-17,26.20,26.45,25.40,26.00,292461
21-Mar-17,27.20,27.42,26.02,26.35,395501
20-Mar-17,27.40,27.50,26.60,27.20,276323
17-Mar-17,27.45,27.90,27.20,27.45,632669
16-Mar-17,27.35,27.55,27.05,27.50,213061
15-Mar-17,26.90,27.35,26.87,27.10,306740
14-Mar-17,27.30,27.50,26.50,26.80,272021
13-Mar-17,27.00,27.55,26.80,27.50,468829
10-Mar-17,26.35,27.05,26.04,26.85,454198
9-Mar-17,25.60,26.50,25.40,26.25,479816
8-Mar-17,25.70,25.75,25.30,25.50,220517
7-Mar-17,25.70,25.80,25.40,25.55,190177
6-Mar-17,26.20,26.44,25.55,25.75,182197
3-Mar-17,26.00,26.45,25.80,26.25,268543
2-Mar-17,26.70,26.95,26.05,26.05,265007
1-Mar-17,25.75,27.25,25.53,26.55,540106
28-Feb-17,25.85,25.85,25.15,25.45,401161
27-Feb-17,27.30,27.30,25.60,25.85,900178
24-Feb-17,26.70,27.25,26.50,27.20,506069
23-Feb-17,25.80,26.80,25.10,26.75,810940
22-Feb-17,24.60,25.20,24.35,24.95,451324
21-Feb-17,25.00,25.25,24.55,24.75,428917
17-Feb-17,24.85,25.10,24.35,24.95,289848
16-Feb-17,25.55,25.55,24.30,24.85,343781
15-Feb-17,24.95,25.94,24.93,25.10,790767
14-Feb-17,23.95,25.50,23.85,24.65,620249
13-Feb-17,23.90,24.00,23.65,23.85,263075
10-Feb-17,23.85,23.95,23.60,23.80,178106
9-Feb-17,23.80,24.05,23.49,23.80,100287
8-Feb-17,23.75,23.85,23.42,23.75,106918
7-Feb-17,23.95,24.20,23.60,23.85,190545
6-Feb-17,24.10,24.45,23.85,23.90,247743
3-Feb-17,23.60,24.15,23.45,24.15,237911
2-Feb-17,23.00,23.55,22.88,23.35,318137
1-Feb-17,23.20,23.25,22.85,23.10,227069
31-Jan-17,22.15,23.15,21.90,23.05,341333
30-Jan-17,22.60,22.70,22.00,22.25,229925
27-Jan-17,22.50,22.75,22.35,22.65,95944
26-Jan-17,22.60,22.75,22.40,22.50,94933
25-Jan-17,22.15,23.05,22.15,22.60,268622
24-Jan-17,22.10,22.35,21.60,22.25,211948
23-Jan-17,21.80,22.15,21.60,22.05,194068
20-Jan-17,22.30,22.35,21.70,21.90,205398
19-Jan-17,21.70,22.35,21.65,22.35,328478
18-Jan-17,21.70,21.80,21.10,21.70,258820
17-Jan-17,21.35,21.95,21.20,21.80,315413
13-Jan-17,21.60,22.00,21.05,21.45,342398
12-Jan-17,22.30,22.50,21.30,21.55,321857
11-Jan-17,22.70,22.80,22.15,22.50,186147
10-Jan-17,22.60,22.90,22.40,22.70,186715
9-Jan-17,22.75,22.94,22.30,22.50,157726
6-Jan-17,22.85,22.95,22.33,22.75,171436
5-Jan-17,23.05,23.18,22.70,22.75,173565
4-Jan-17,22.35,23.10,22.25,23.05,289712
3-Jan-17,22.35,22.40,22.00,22.35,321597
30-Dec-16,22.35,22.50,21.75,22.35,328658
29-Dec-16,22.75,22.85,22.10,22.35,327550
28-Dec-16,22.90,23.15,22.70,22.75,169246
27-Dec-16,23.05,23.40,22.45,22.85,232181
23-Dec-16,23.35,23.65,22.85,23.00,238038
22-Dec-16,23.10,23.55,22.90,23.35,322460
21-Dec-16,23.40,23.68,23.05,23.05,322860
20-Dec-16,23.25,24.10,23.13,23.35,866617
19-Dec-16,22.10,23.40,22.00,23.20,1251551
16-Dec-16,21.00,21.70,20.99,21.20,743291
15-Dec-16,21.00,21.45,20.65,20.90,426981
14-Dec-16,21.15,21.25,20.65,20.90,138505
13-Dec-16,21.20,21.35,20.90,21.10,213582
12-Dec-16,20.65,21.35,20.65,21.05,187163
9-Dec-16,20.65,21.08,20.45,20.70,203492
8-Dec-16,20.45,20.95,20.35,20.65,174400
7-Dec-16,20.45,20.75,20.00,20.40,128849
6-Dec-16,20.45,20.75,20.15,20.55,219748
5-Dec-16,20.10,20.35,19.95,20.35,213185
2-Dec-16,20.10,20.35,19.65,19.85,167494
1-Dec-16,19.50,19.95,19.30,19.80,334928
30-Nov-16,19.70,19.92,19.30,19.45,486107
29-Nov-16,19.60,19.75,19.30,19.55,168177
28-Nov-16,19.50,19.62,19.10,19.50,155707
25-Nov-16,19.35,19.78,19.25,19.60,128843
23-Nov-16,18.90,19.55,18.65,19.35,227040
22-Nov-16,18.90,19.15,18.70,19.10,163020
21-Nov-16,18.95,19.30,18.60,18.95,177682
18-Nov-16,18.75,19.01,18.60,19.00,186822
17-Nov-16,18.60,19.25,18.60,18.80,230773
16-Nov-16,18.75,19.10,18.45,18.50,205286
15-Nov-16,18.80,19.15,18.55,18.80,254655
14-Nov-16,18.55,19.05,18.35,18.75,236863
11-Nov-16,17.75,18.50,17.27,18.30,286455
10-Nov-16,17.45,18.00,17.35,17.75,431212
9-Nov-16,15.95,17.20,15.80,17.15,396703
8-Nov-16,16.90,17.02,16.40,16.45,158109
7-Nov-16,16.45,17.25,16.18,16.85,661972
4-Nov-16,15.40,16.60,15.35,16.10,546433
3-Nov-16,18.55,18.55,15.25,15.35,1041443
2-Nov-16,17.95,18.45,17.80,18.35,464532
1-Nov-16,17.70,18.22,17.55,18.05,383852
31-Oct-16,17.20,17.75,17.15,17.70,411258
28-Oct-16,17.65,17.80,17.20,17.35,195035
27-Oct-16,18.00,18.20,17.50,17.60,146985
26-Oct-16,18.25,18.25,17.90,18.10,219511
25-Oct-16,18.20,18.55,18.20,18.45,185368
24-Oct-16,18.10,18.52,18.10,18.10,128804
21-Oct-16,18.40,18.50,17.95,18.05,213622
20-Oct-16,18.45,18.75,18.45,18.55,169587
19-Oct-16,18.35,18.70,18.25,18.60,178760
18-Oct-16,18.25,18.60,17.50,18.40,283870
17-Oct-16,18.00,18.60,17.75,18.20,302601
14-Oct-16,18.85,18.93,18.15,18.35,240644
13-Oct-16,19.15,19.35,18.65,18.95,242004
12-Oct-16,19.70,19.90,19.30,19.35,222435
11-Oct-16,20.70,20.70,19.60,19.80,217312
10-Oct-16,20.60,20.80,20.37,20.60,183014
7-Oct-16,20.17,20.24,19.81,20.20,219277
6-Oct-16,20.95,21.60,19.75,20.17,694163
5-Oct-16,19.72,21.68,19.58,20.75,1815781
4-Oct-16,18.70,18.77,18.20,18.33,191235
3-Oct-16,18.53,18.81,18.35,18.71,216274
30-Sep-16,18.50,18.78,18.39,18.57,200961
29-Sep-16,18.63,18.67,18.38,18.46,117266
28-Sep-16,18.67,18.78,18.37,18.66,165373
27-Sep-16,18.68,18.71,18.40,18.70,140870
26-Sep-16,18.57,18.75,18.48,18.58,149513
23-Sep-16,18.64,18.78,18.47,18.72,121329
22-Sep-16,18.66,18.91,18.46,18.60,154598
21-Sep-16,18.35,18.68,18.17,18.65,233498
20-Sep-16,18.30,18.47,18.07,18.22,154389
19-Sep-16,18.46,18.71,18.25,18.26,267695
16-Sep-16,19.18,19.23,18.35,18.44,462212
15-Sep-16,18.30,19.20,18.26,19.19,375112
14-Sep-16,18.33,18.61,18.21,18.25,206628
13-Sep-16,18.40,18.69,17.82,18.35,480595
12-Sep-16,17.64,17.93,17.33,17.92,355123
9-Sep-16,18.07,18.17,17.63,17.63,268588
8-Sep-16,18.53,18.53,17.87,18.14,260007
7-Sep-16,18.17,18.96,18.14,18.58,286580
6-Sep-16,18.90,18.90,17.97,18.31,558234
2-Sep-16,18.73,18.91,18.59,18.82,326090
1-Sep-16,18.58,18.88,18.49,18.70,322123
31-Aug-16,18.87,18.90,18.23,18.47,350429
30-Aug-16,18.94,19.34,18.87,18.98,247222
29-Aug-16,19.30,19.30,18.70,19.01,542245
26-Aug-16,19.13,19.45,18.84,19.29,478497
25-Aug-16,19.68,19.74,18.88,19.12,655568
24-Aug-16,20.53,20.53,19.72,19.88,570666
23-Aug-16,21.05,21.05,20.53,20.58,257274
22-Aug-16,21.15,21.15,20.67,20.93,269248
19-Aug-16,21.20,21.23,20.52,21.11,339093
18-Aug-16,21.05,21.42,20.92,21.30,229369
17-Aug-16,20.96,21.11,20.74,21.06,232795
16-Aug-16,20.94,21.12,20.81,20.95,257372
15-Aug-16,20.90,21.08,20.80,20.97,314587
12-Aug-16,20.91,21.00,20.80,20.87,354019
11-Aug-16,21.02,21.22,20.87,20.91,457812
10-Aug-16,21.30,21.31,20.64,20.77,360163
9-Aug-16,21.00,21.20,20.83,21.19,401293
8-Aug-16,20.86,21.12,20.65,20.96,504321
5-Aug-16,20.73,21.00,20.41,20.92,513439
4-Aug-16,20.77,21.01,20.11,20.91,527672
3-Aug-16,19.75,21.37,19.75,20.73,1551658
2-Aug-16,20.05,20.05,18.75,19.50,839136
1-Aug-16,18.97,19.25,18.82,19.19,506603
29-Jul-16,19.00,19.12,18.68,19.02,4041176
28-Jul-16,18.97,19.21,18.87,19.08,589061
27-Jul-16,18.64,19.23,18.62,19.06,647253
26-Jul-16,19.13,19.24,18.48,18.69,1345528
25-Jul-16,17.79,17.82,17.05,17.34,258755
22-Jul-16,18.23,18.23,17.80,17.81,115504
21-Jul-16,18.42,18.83,17.89,18.10,294713
20-Jul-16,17.92,18.70,17.91,18.33,561918
19-Jul-16,17.41,17.87,17.20,17.67,298269
18-Jul-16,17.59,17.90,17.32,17.37,141053
15-Jul-16,17.34,17.77,17.17,17.48,164006
14-Jul-16,17.53,17.53,17.18,17.25,136081
13-Jul-16,17.93,18.14,17.28,17.35,205861
12-Jul-16,17.73,18.10,17.33,17.79,434405
11-Jul-16,16.56,17.63,16.49,17.50,679481
8-Jul-16,16.52,16.69,16.36,16.54,197279
7-Jul-16,16.62,16.62,16.29,16.37,232780
6-Jul-16,16.00,16.70,15.92,16.53,245504
5-Jul-16,16.01,16.20,15.86,16.08,175406
1-Jul-16,16.24,16.45,16.12,16.30,151790
30-Jun-16,16.39,16.42,15.72,16.30,205405
29-Jun-16,15.84,16.30,15.76,16.29,271939
28-Jun-16,15.21,15.79,15.21,15.75,286934
27-Jun-16,15.68,15.69,14.91,15.03,215293
24-Jun-16,15.21,15.64,14.72,15.62,406613
23-Jun-16,16.01,16.18,15.64,15.89,252568
22-Jun-16,15.99,16.24,15.86,16.02,178634
21-Jun-16,16.01,16.12,15.54,15.87,261643
20-Jun-16,15.51,16.23,15.49,16.05,353504
17-Jun-16,15.77,15.97,15.08,15.29,578890
16-Jun-16,16.10,16.25,15.65,15.84,256201
15-Jun-16,16.37,16.45,15.82,16.27,328477
14-Jun-16,16.52,16.92,15.86,15.99,429506
13-Jun-16,16.60,17.10,16.51,16.62,193375
10-Jun-16,16.52,16.95,16.28,16.69,247429
9-Jun-16,16.92,17.05,16.52,16.54,313102
8-Jun-16,16.94,16.95,16.65,16.88,262375
7-Jun-16,16.92,17.01,16.66,16.87,169283
6-Jun-16,16.74,17.12,16.57,16.88,193455
3-Jun-16,16.92,16.94,16.59,16.70,221932
2-Jun-16,16.71,17.16,16.63,16.94,221193
1-Jun-16,17.49,17.58,16.55,16.71,375248
31-May-16,17.13,17.68,17.04,17.42,722690
27-May-16,16.72,17.30,16.68,17.06,197186
26-May-16,16.97,17.00,16.69,16.78,204903
25-May-16,17.31,17.48,16.99,17.00,555789
24-May-16,15.36,17.20,15.25,17.17,1425750
23-May-16,15.64,15.64,15.09,15.20,245065
20-May-16,15.18,15.75,14.96,15.60,253872
19-May-16,15.30,15.42,14.95,15.07,252197
18-May-16,15.22,15.64,15.15,15.37,172751
17-May-16,15.33,15.61,15.05,15.33,290659
16-May-16,14.96,15.32,14.93,15.31,488238
13-May-16,14.46,15.20,14.46,14.99,278650
12-May-16,15.00,15.15,14.40,14.45,353692
11-May-16,15.33,15.65,14.96,15.00,218065
10-May-16,15.81,15.81,15.27,15.39,136289
9-May-16,15.42,15.89,15.20,15.55,296517
6-May-16,15.22,15.60,15.07,15.11,199771
5-May-16,15.57,16.00,15.25,15.33,320645
4-May-16,15.30,15.63,15.12,15.42,179110
3-May-16,15.79,15.82,15.38,15.50,240331
2-May-16,15.70,15.90,15.60,15.74,374825
29-Apr-16,15.48,15.96,15.06,15.73,568631
28-Apr-16,14.48,15.87,14.48,15.38,967004
27-Apr-16,14.12,15.39,13.63,14.46,1071214
26-Apr-16,12.37,12.52,12.06,12.52,162818
25-Apr-16,11.78,12.65,11.78,12.32,185510
22-Apr-16,11.87,11.93,11.75,11.84,93924
21-Apr-16,11.74,11.90,11.70,11.82,90247
20-Apr-16,11.70,11.90,11.60,11.79,92526
19-Apr-16,11.65,11.66,11.55,11.65,80738
18-Apr-16,11.66,11.68,11.47,11.65,74572
15-Apr-16,11.43,11.64,11.43,11.64,85999
14-Apr-16,11.57,11.64,11.28,11.44,110078
13-Apr-16,11.36,11.62,11.25,11.60,83875
12-Apr-16,11.16,11.39,11.01,11.27,106166
11-Apr-16,11.26,11.50,10.96,11.13,124827
8-Apr-16,11.33,11.33,11.02,11.21,91154
7-Apr-16,11.42,11.49,11.16,11.28,67757
6-Apr-16,11.15,11.47,11.09,11.45,73062
5-Apr-16,11.41,11.51,11.06,11.19,96504
4-Apr-16,11.84,11.92,11.42,11.46,109232
1-Apr-16,11.57,11.99,11.57,11.80,67328
31-Mar-16,12.11,12.12,11.66,11.68,91240
30-Mar-16,12.01,12.20,11.82,12.07,71958
29-Mar-16,11.65,11.96,11.61,11.96,134693
28-Mar-16,11.87,12.04,11.66,11.71,79953
24-Mar-16,11.77,11.93,11.52,11.84,96241
23-Mar-16,12.12,12.37,11.89,11.90,77127
22-Mar-16,12.11,12.36,11.92,12.19,186069
21-Mar-16,12.40,12.51,12.05,12.14,64604
18-Mar-16,12.29,12.47,12.19,12.45,246395
17-Mar-16,12.25,12.45,11.94,12.22,170419
16-Mar-16,12.18,12.43,12.02,12.28,112350
15-Mar-16,12.22,12.43,12.11,12.22,104666
14-Mar-16,12.36,12.54,12.25,12.28,87367
11-Mar-16,12.57,12.70,12.37,12.47,113322
10-Mar-16,12.57,12.67,12.30,12.49,105686
9-Mar-16,12.39,12.66,12.25,12.45,204925
8-Mar-16,12.83,12.89,12.24,12.36,116614
7-Mar-16,12.56,13.35,12.37,12.94,175451
4-Mar-16,12.49,12.62,12.22,12.58,202265
3-Mar-16,12.20,12.57,12.18,12.53,176159
2-Mar-16,12.07,12.39,12.04,12.23,93529
1-Mar-16,12.17,12.34,11.80,12.14,98962
29-Feb-16,11.91,12.43,11.89,12.06,169544
26-Feb-16,12.22,12.22,11.82,12.04,138632
25-Feb-16,12.16,12.22,11.89,12.18,104414
24-Feb-16,11.82,12.20,11.53,12.14,235886
23-Feb-16,11.99,12.08,11.66,11.91,216573
22-Feb-16,11.75,12.31,11.71,12.01,314474
19-Feb-16,11.61,11.79,11.42,11.63,316484
18-Feb-16,10.96,11.84,10.58,11.65,645217
17-Feb-16,9.90,10.15,9.81,9.96,304387
16-Feb-16,9.65,9.99,9.60,9.90,186542
12-Feb-16,9.67,9.80,9.43,9.57,112796
11-Feb-16,9.49,9.72,9.38,9.55,141230
10-Feb-16,9.50,9.89,9.48,9.63,155205
9-Feb-16,9.37,9.73,9.34,9.46,118695
8-Feb-16,9.59,9.59,9.20,9.50,303457
5-Feb-16,9.91,10.16,9.33,9.69,273080
4-Feb-16,9.82,10.04,9.82,9.97,141300
3-Feb-16,9.80,9.95,9.45,9.86,166239
2-Feb-16,9.82,10.08,9.66,9.80,151674
1-Feb-16,9.37,9.95,8.74,9.91,652769
29-Jan-16,10.02,10.32,9.33,9.44,373017
28-Jan-16,10.67,10.82,9.85,10.02,265525
27-Jan-16,10.82,10.94,10.11,10.64,270753
26-Jan-16,11.02,11.02,10.62,10.87,90144
25-Jan-16,10.86,11.15,10.81,11.00,158919
22-Jan-16,10.56,10.91,10.49,10.89,111127
21-Jan-16,10.75,10.84,10.25,10.45,180938
20-Jan-16,10.18,10.85,10.02,10.68,179039
19-Jan-16,10.66,10.83,10.24,10.36,126877
15-Jan-16,10.31,10.61,10.24,10.54,185072
14-Jan-16,10.21,10.70,10.10,10.63,298238
13-Jan-16,10.43,10.85,10.11,10.17,196140
12-Jan-16,10.57,10.75,10.17,10.43,209207
11-Jan-16,10.50,10.99,9.93,10.44,309322
8-Jan-16,10.79,10.84,10.18,10.46,278591
7-Jan-16,10.05,10.77,9.90,10.70,213367
6-Jan-16,10.64,10.72,10.18,10.26,306747
5-Jan-16,11.21,11.55,10.81,10.84,171133
4-Jan-16,11.50,11.53,11.12,11.22,223367
31-Dec-15,11.75,11.92,11.67,11.68,124752
30-Dec-15,11.95,12.05,11.66,11.76,161024
29-Dec-15,11.72,12.05,11.72,11.95,104516
28-Dec-15,11.84,11.90,11.62,11.68,113470
24-Dec-15,12.08,12.18,11.88,11.91,37788
23-Dec-15,11.93,12.26,11.80,12.06,130959
22-Dec-15,11.72,11.94,11.54,11.86,95278
21-Dec-15,11.98,11.99,11.58,11.71,118501
18-Dec-15,12.00,12.01,11.82,11.86,318505
17-Dec-15,12.26,12.36,12.05,12.07,219998
16-Dec-15,12.05,12.21,11.92,12.20,108991
15-Dec-15,11.87,12.07,11.85,11.92,154805
14-Dec-15,12.04,12.17,11.73,11.79,223118
11-Dec-15,12.06,12.24,11.89,12.09,215381
10-Dec-15,12.11,12.42,11.98,12.23,173270
9-Dec-15,12.28,12.28,12.00,12.08,173683
8-Dec-15,12.28,12.49,12.08,12.33,231240
7-Dec-15,12.60,12.80,12.17,12.35,129735
4-Dec-15,12.38,12.62,12.24,12.57,118134
3-Dec-15,12.83,12.84,12.10,12.33,291166
2-Dec-15,12.86,12.92,12.71,12.76,118875
1-Dec-15,12.65,12.91,12.15,12.89,247642
30-Nov-15,12.89,13.04,12.58,12.61,177658
27-Nov-15,12.82,12.97,12.74,12.91,42318
25-Nov-15,12.63,13.13,12.63,12.79,177664
24-Nov-15,12.43,12.64,12.19,12.60,216900
23-Nov-15,12.25,12.58,12.23,12.52,121561
20-Nov-15,12.51,12.65,12.36,12.40,290625
19-Nov-15,12.71,12.72,12.33,12.43,173619
18-Nov-15,12.50,12.81,12.45,12.73,187262
17-Nov-15,13.12,13.12,12.40,12.42,266933
16-Nov-15,13.06,13.22,12.89,13.07,124607
13-Nov-15,13.20,13.45,13.06,13.08,161985
12-Nov-15,13.52,13.80,13.23,13.26,142398
11-Nov-15,13.69,14.03,13.57,13.62,166296
10-Nov-15,12.30,14.15,12.00,13.65,671878
9-Nov-15,14.10,14.25,13.59,13.78,403282
6-Nov-15,14.00,14.29,13.87,14.15,221452
5-Nov-15,14.05,14.18,13.85,14.01,132291
4-Nov-15,13.87,14.07,13.75,14.05,207909
3-Nov-15,14.02,14.03,13.52,13.75,278263
2-Nov-15,13.09,14.08,13.00,14.03,321492
30-Oct-15,13.17,13.26,12.81,13.02,150866
29-Oct-15,13.42,13.63,13.02,13.17,256437
28-Oct-15,12.78,13.46,12.57,13.44,386494
27-Oct-15,12.53,12.87,12.40,12.76,244272
26-Oct-15,12.76,12.84,12.51,12.56,168904
23-Oct-15,13.09,13.33,12.68,12.86,235824
22-Oct-15,13.51,13.54,12.59,12.98,341142
21-Oct-15,13.60,13.67,13.10,13.42,215104
20-Oct-15,13.60,13.69,13.35,13.60,243318
19-Oct-15,12.86,13.60,12.84,13.56,353807
16-Oct-15,13.05,13.05,12.49,12.85,369073
15-Oct-15,12.63,13.15,12.63,13.12,329754
14-Oct-15,12.40,12.71,12.35,12.63,430148
13-Oct-15,12.22,13.08,12.13,12.39,791853
12-Oct-15,12.36,12.48,12.04,12.34,387849
9-Oct-15,12.04,12.50,11.96,12.41,370081
8-Oct-15,11.97,12.19,11.78,12.02,381085
7-Oct-15,12.23,12.26,11.75,12.12,396231
6-Oct-15,12.41,12.50,11.75,12.21,317709
5-Oct-15,12.57,12.93,12.25,12.45,463549
2-Oct-15,11.35,12.37,11.15,12.35,543320
1-Oct-15,12.15,12.30,11.43,11.55,718095
30-Sep-15,11.69,12.35,11.59,12.24,664475
29-Sep-15,11.73,12.39,11.35,11.52,569602
28-Sep-15,12.70,12.85,11.10,11.75,916586
25-Sep-15,13.63,13.68,12.69,12.80,785076
24-Sep-15,14.23,14.35,13.13,13.63,752995
23-Sep-15,14.50,14.74,14.19,14.26,244861
22-Sep-15,14.45,14.71,14.21,14.38,428997
21-Sep-15,14.97,15.26,14.45,14.64,501419
18-Sep-15,15.47,15.76,14.90,14.93,798108
17-Sep-15,15.37,15.88,15.06,15.61,413360
16-Sep-15,15.09,15.55,14.93,15.43,567231
15-Sep-15,16.75,16.84,14.68,15.01,1949923
14-Sep-15,16.75,16.96,16.38,16.68,690854
11-Sep-15,16.11,16.59,16.10,16.54,633208
10-Sep-15,15.91,16.47,15.76,16.03,914614
9-Sep-15,16.43,16.61,15.70,15.88,717135
8-Sep-15,15.98,16.35,15.68,16.11,884416
4-Sep-15,14.84,16.00,14.73,15.60,598688
3-Sep-15,15.64,15.88,15.02,15.04,737349
2-Sep-15,14.47,15.89,14.47,15.37,1448848
1-Sep-15,14.07,15.13,13.97,14.41,612655
31-Aug-15,14.80,15.36,14.20,14.29,447782
28-Aug-15,14.17,14.74,14.17,14.67,322144
27-Aug-15,14.52,15.51,14.36,14.52,1174633
26-Aug-15,14.39,14.53,13.74,14.36,666123
25-Aug-15,14.60,14.77,13.93,14.23,689850
24-Aug-15,13.39,14.33,12.31,14.04,755494
21-Aug-15,12.76,13.84,12.72,13.69,521404
20-Aug-15,13.03,13.57,12.82,13.10,553831
19-Aug-15,12.17,13.25,12.09,13.10,534981
18-Aug-15,12.35,12.48,12.13,12.22,264029
17-Aug-15,11.57,12.45,11.57,12.35,305339
14-Aug-15,11.97,12.12,11.55,11.62,144425
13-Aug-15,11.85,12.08,11.74,11.99,127064
12-Aug-15,11.70,11.91,11.44,11.85,203328
11-Aug-15,11.94,12.12,11.85,11.90,137732
10-Aug-15,12.40,12.40,11.81,12.08,207795
7-Aug-15,10.76,12.36,10.76,12.26,480289
6-Aug-15,11.85,12.01,11.33,11.50,308336
5-Aug-15,12.26,12.27,11.83,11.87,314392
4-Aug-15,12.25,12.66,12.08,12.10,212644
3-Aug-15,12.25,12.35,12.01,12.09,362361
31-Jul-15,11.68,12.39,11.62,12.23,354744
30-Jul-15,11.71,11.72,11.52,11.69,343695
29-Jul-15,12.20,12.24,11.56,11.81,403192
28-Jul-15,11.26,12.15,11.11,11.99,833890
27-Jul-15,10.97,11.20,10.81,11.10,311524
24-Jul-15,11.16,11.39,10.97,11.09,308756
23-Jul-15,11.25,11.55,11.10,11.13,219880
22-Jul-15,11.20,11.50,11.15,11.20,244339
21-Jul-15,11.20,11.63,11.14,11.29,276832
20-Jul-15,11.68,11.68,11.21,11.24,204012
17-Jul-15,11.74,11.75,11.42,11.62,217497
16-Jul-15,11.48,12.00,11.40,11.69,479978
15-Jul-15,10.96,11.39,10.96,11.37,290062
14-Jul-15,10.74,11.38,10.74,11.13,405643
13-Jul-15,10.85,11.18,10.66,10.77,516471
10-Jul-15,10.15,11.25,10.15,10.86,852815
9-Jul-15,9.03,10.64,8.90,10.07,827744
8-Jul-15,9.08,9.20,8.85,8.94,123475
7-Jul-15,9.22,9.23,9.05,9.20,100420
6-Jul-15,9.12,9.28,8.95,9.23,85499
2-Jul-15,9.41,9.41,9.07,9.18,84039
1-Jul-15,9.53,9.53,9.26,9.41,92318
30-Jun-15,9.36,9.43,9.23,9.43,93733
29-Jun-15,9.59,9.72,9.28,9.29,77331
26-Jun-15,10.00,10.00,9.52,9.65,468622
25-Jun-15,9.90,10.08,9.76,10.02,174099
24-Jun-15,9.81,9.94,9.75,9.81,112180
23-Jun-15,9.58,9.85,9.49,9.81,102434
22-Jun-15,9.39,9.80,9.37,9.60,109152
19-Jun-15,9.34,9.47,9.27,9.45,151965
18-Jun-15,9.09,9.36,9.07,9.31,102718
17-Jun-15,9.13,9.26,9.02,9.08,72687
16-Jun-15,9.11,9.20,9.00,9.09,170617
15-Jun-15,9.22,9.32,9.15,9.17,79099
12-Jun-15,9.29,9.36,9.16,9.30,89943
11-Jun-15,9.20,9.45,9.12,9.30,169636
10-Jun-15,9.25,9.27,9.14,9.19,124464
9-Jun-15,9.30,9.37,9.12,9.21,88281
8-Jun-15,9.55,9.56,9.32,9.32,176961
5-Jun-15,9.61,9.66,9.36,9.60,82240
4-Jun-15,9.68,9.80,9.42,9.62,81110
3-Jun-15,9.86,9.86,9.59,9.75,65471
2-Jun-15,9.68,9.90,9.58,9.80,91978
1-Jun-15,9.71,9.90,9.60,9.75,113566
29-May-15,9.68,9.85,9.60,9.65,148673
28-May-15,9.74,9.76,9.60,9.72,90340
27-May-15,9.53,9.78,9.43,9.76,111361
26-May-15,9.69,9.74,9.48,9.52,136924
22-May-15,9.80,9.86,9.58,9.79,103201
21-May-15,9.84,9.92,9.56,9.81,110599
20-May-15,9.93,9.93,9.72,9.88,88036
19-May-15,10.01,10.02,9.77,9.87,121527
18-May-15,9.78,10.03,9.64,10.00,123217
15-May-15,9.84,9.91,9.62,9.78,79738
14-May-15,9.72,9.93,9.54,9.83,170285
13-May-15,9.52,9.94,9.40,9.68,161128
12-May-15,9.53,9.63,9.33,9.46,205677
11-May-15,9.33,9.62,9.25,9.55,157709
8-May-15,9.53,9.53,9.01,9.36,364567
7-May-15,9.15,10.04,9.04,9.50,1119616
6-May-15,8.05,8.12,7.89,7.99,241886
5-May-15,8.03,8.12,7.86,8.04,249878
4-May-15,8.14,8.22,8.00,8.08,102035
1-May-15,8.05,8.20,7.90,8.15,88714
30-Apr-15,8.33,8.52,7.89,8.01,238646
29-Apr-15,8.61,8.72,8.31,8.41,130333
28-Apr-15,8.53,8.81,8.24,8.69,117258
27-Apr-15,8.60,8.76,8.35,8.50,201934
24-Apr-15,8.82,8.87,8.54,8.60,112377
23-Apr-15,8.81,8.92,8.73,8.86,44730
22-Apr-15,8.93,8.93,8.70,8.82,82557
21-Apr-15,9.05,9.05,8.90,8.95,82722
20-Apr-15,8.78,9.05,8.71,9.03,120252
17-Apr-15,9.16,9.22,8.70,8.72,159899
16-Apr-15,9.25,9.37,9.24,9.28,50977
15-Apr-15,9.23,9.43,9.14,9.31,94725
14-Apr-15,9.31,9.33,9.11,9.20,80401
13-Apr-15,8.99,9.30,8.99,9.30,314994
10-Apr-15,8.91,9.05,8.70,8.96,222795
9-Apr-15,9.09,9.10,8.72,8.87,275693
8-Apr-15,9.15,9.27,9.06,9.08,145517
7-Apr-15,9.25,9.32,9.10,9.13,110885
6-Apr-15,8.97,9.29,8.73,9.26,165425
2-Apr-15,8.94,9.10,8.90,9.06,98278
1-Apr-15,8.85,8.93,8.68,8.93,156150
31-Mar-15,8.74,8.98,8.72,8.85,421902
30-Mar-15,9.10,9.28,8.75,8.79,1291153
27-Mar-15,9.23,9.43,9.00,9.10,273244
26-Mar-15,9.65,9.68,9.10,9.21,277914
25-Mar-15,10.15,10.28,9.67,9.68,99412
24-Mar-15,10.26,10.38,10.13,10.15,85839
23-Mar-15,10.09,10.42,10.00,10.30,171893
20-Mar-15,10.30,10.41,10.01,10.16,223153
19-Mar-15,10.05,10.46,9.92,10.30,190077
18-Mar-15,10.14,10.16,9.93,10.01,135041
17-Mar-15,10.41,10.43,9.89,10.09,190849
16-Mar-15,10.21,10.40,10.09,10.37,203599
13-Mar-15,10.06,10.20,9.83,10.09,121586
12-Mar-15,9.86,10.12,9.81,10.01,154788
11-Mar-15,9.91,10.04,9.75,9.83,143636
10-Mar-15,10.15,10.17,9.81,9.91,128311
9-Mar-15,10.31,10.42,10.03,10.23,118174
6-Mar-15,10.61,10.70,10.18,10.31,187294
5-Mar-15,10.69,10.75,10.41,10.64,162542
4-Mar-15,10.45,10.70,10.21,10.68,249277
3-Mar-15,10.28,10.53,10.15,10.48,338157
2-Mar-15,9.65,10.55,9.57,10.51,393088
27-Feb-15,9.81,9.97,9.63,9.65,186607
26-Feb-15,10.00,10.12,9.78,9.82,173452
25-Feb-15,9.50,10.03,9.44,10.02,418963
24-Feb-15,9.52,9.63,9.44,9.45,272631
23-Feb-15,9.50,9.66,9.45,9.55,316249
20-Feb-15,9.85,9.99,9.34,9.51,973367
19-Feb-15,10.88,10.88,10.68,10.75,460716
18-Feb-15,10.56,10.83,10.43,10.81,213008
17-Feb-15,10.35,10.65,10.30,10.49,181293
13-Feb-15,10.16,10.37,9.98,10.36,174005
12-Feb-15,10.33,10.41,10.14,10.16,111387
11-Feb-15,10.26,10.40,10.18,10.30,135591
10-Feb-15,10.09,10.36,10.06,10.35,96913
9-Feb-15,10.70,10.70,9.95,9.99,146437
6-Feb-15,10.19,10.36,10.06,10.19,181923
5-Feb-15,9.98,10.25,9.92,10.19,130795
4-Feb-15,9.46,10.02,9.44,9.92,225069
3-Feb-15,9.50,9.65,9.28,9.50,294448
2-Feb-15,9.94,9.95,9.33,9.48,393100
30-Jan-15,10.21,10.29,9.86,9.88,225722
29-Jan-15,10.33,10.33,10.10,10.29,89389
28-Jan-15,10.29,10.29,10.06,10.20,182091
27-Jan-15,10.03,10.33,10.03,10.20,115728
26-Jan-15,10.05,10.33,10.00,10.17,141386
23-Jan-15,10.51,10.51,10.12,10.16,136466
22-Jan-15,10.31,10.52,10.06,10.36,223650
21-Jan-15,10.54,10.58,10.16,10.18,184206
20-Jan-15,10.94,11.00,10.51,10.54,191511
16-Jan-15,10.32,10.93,10.26,10.89,293743
15-Jan-15,10.66,10.66,10.28,10.36,295500
14-Jan-15,10.66,10.97,10.54,10.59,281320
13-Jan-15,11.10,11.33,10.46,10.75,444480
12-Jan-15,10.41,11.16,10.30,11.02,809348
9-Jan-15,10.25,10.47,10.22,10.35,273088
8-Jan-15,9.99,10.38,9.90,10.32,271882
7-Jan-15,9.84,9.98,9.65,9.92,141840
6-Jan-15,10.17,10.25,9.54,9.73,247626
5-Jan-15,9.99,10.40,9.94,10.17,276479
2-Jan-15,10.09,10.16,9.80,10.01,157683
31-Dec-14,10.00,10.25,9.92,10.03,107300
30-Dec-14,10.01,10.10,9.87,9.94,140690
29-Dec-14,10.17,10.26,10.00,10.02,136495
26-Dec-14,10.20,10.40,10.12,10.20,96250
24-Dec-14,10.11,10.39,10.03,10.15,63805
23-Dec-14,10.48,10.50,10.03,10.06,114745
22-Dec-14,10.29,10.50,10.12,10.46,175796
19-Dec-14,10.16,10.49,10.08,10.34,302945
18-Dec-14,10.26,10.31,9.96,10.18,224354
17-Dec-14,10.10,10.41,10.02,10.09,200932
16-Dec-14,10.01,10.42,9.93,10.10,136966
15-Dec-14,10.39,10.50,9.88,10.10,353732
12-Dec-14,10.32,10.50,10.01,10.35,264904
11-Dec-14,10.32,10.75,10.16,10.49,233630
10-Dec-14,10.60,10.68,10.25,10.26,199497
9-Dec-14,10.18,10.70,10.15,10.68,254251
8-Dec-14,10.32,10.55,10.16,10.26,182635
5-Dec-14,10.18,10.45,10.08,10.34,177194
4-Dec-14,10.14,10.35,10.00,10.14,290587
3-Dec-14,9.94,10.15,9.78,10.06,284998
2-Dec-14,9.88,10.05,9.82,9.91,220397
1-Dec-14,9.97,10.23,9.66,9.84,386093
28-Nov-14,9.71,10.15,9.64,9.87,252753
26-Nov-14,9.23,9.95,9.22,9.71,623775
25-Nov-14,9.11,9.35,8.89,9.19,395194
24-Nov-14,8.28,9.20,8.28,9.12,981187
21-Nov-14,8.36,8.38,8.09,8.11,117653
20-Nov-14,8.12,8.24,8.11,8.20,89379
19-Nov-14,8.45,8.49,8.12,8.14,169627
18-Nov-14,8.15,8.50,8.14,8.47,228919
17-Nov-14,8.14,8.27,8.11,8.14,95185
14-Nov-14,8.14,8.40,8.05,8.17,110740
13-Nov-14,8.29,8.50,8.12,8.17,183014
12-Nov-14,8.24,8.29,8.09,8.27,192207
11-Nov-14,8.21,8.34,8.16,8.27,144461
10-Nov-14,8.17,8.21,8.00,8.20,191623
7-Nov-14,8.22,8.22,7.99,8.15,209972
6-Nov-14,8.25,8.27,8.09,8.20,173395
5-Nov-14,8.44,8.47,8.20,8.25,235250
4-Nov-14,8.30,8.42,8.20,8.40,262021
3-Nov-14,8.29,8.60,8.16,8.29,273774
31-Oct-14,8.00,8.80,7.72,8.39,991493
30-Oct-14,7.51,7.64,7.31,7.54,228113
29-Oct-14,7.54,7.64,7.34,7.50,180326
28-Oct-14,7.39,7.53,7.33,7.51,217225
27-Oct-14,7.24,7.35,7.18,7.30,114227
24-Oct-14,7.24,7.32,7.17,7.27,106244
23-Oct-14,7.35,7.47,7.16,7.22,179907
22-Oct-14,7.51,7.51,7.29,7.30,148734
21-Oct-14,7.46,7.60,7.46,7.54,182627
20-Oct-14,7.30,7.43,7.20,7.42,200197
17-Oct-14,7.61,7.72,7.12,7.29,433172
16-Oct-14,6.67,6.99,6.67,6.96,161961
15-Oct-14,6.73,6.90,6.55,6.76,206426
14-Oct-14,6.83,6.91,6.62,6.85,151469
13-Oct-14,6.57,6.85,6.49,6.75,142489
10-Oct-14,6.53,6.73,6.46,6.56,174046
9-Oct-14,6.90,6.90,6.50,6.57,245742
8-Oct-14,6.75,6.97,6.73,6.93,83448
7-Oct-14,6.78,6.83,6.66,6.75,111619
6-Oct-14,7.04,7.07,6.77,6.82,156484
3-Oct-14,6.79,7.02,6.64,7.01,142337
2-Oct-14,6.57,6.73,6.46,6.69,158028
1-Oct-14,6.69,6.86,6.56,6.59,135952
30-Sep-14,6.76,7.05,6.70,6.71,228674
29-Sep-14,6.71,6.93,6.71,6.77,103753
26-Sep-14,7.05,7.05,6.70,6.74,228385
25-Sep-14,7.12,7.12,6.95,7.05,180408
24-Sep-14,7.04,7.16,6.98,7.15,179706
23-Sep-14,6.98,7.13,6.98,7.05,149690
22-Sep-14,7.10,7.12,6.91,6.98,261041
19-Sep-14,7.31,7.38,7.02,7.14,468206
18-Sep-14,7.18,7.37,7.14,7.29,191070
17-Sep-14,7.03,7.19,7.01,7.16,106088
16-Sep-14,7.04,7.06,6.99,7.02,165201
15-Sep-14,7.38,7.40,7.01,7.01,201843
12-Sep-14,7.48,7.48,7.33,7.41,184442
11-Sep-14,7.33,7.49,7.33,7.46,152553
10-Sep-14,7.34,7.40,7.24,7.38,170241
9-Sep-14,7.30,7.55,7.22,7.35,209694
8-Sep-14,7.19,7.47,7.10,7.31,203556
5-Sep-14,7.27,7.27,7.08,7.20,182408
4-Sep-14,7.09,7.33,7.03,7.30,230175
3-Sep-14,7.17,7.29,7.02,7.09,248370
2-Sep-14,7.40,7.40,7.05,7.15,230075
29-Aug-14,7.14,7.41,7.00,7.32,269134
28-Aug-14,7.24,7.33,7.11,7.15,187815
27-Aug-14,7.26,7.51,7.16,7.26,208720
26-Aug-14,7.14,7.28,7.05,7.26,178638
25-Aug-14,7.02,7.23,6.99,7.14,181485
22-Aug-14,6.92,7.02,6.85,6.96,175537
21-Aug-14,6.93,6.97,6.86,6.92,195915
20-Aug-14,6.93,6.97,6.80,6.91,146757
19-Aug-14,6.83,7.02,6.71,6.96,187312
18-Aug-14,6.80,6.92,6.71,6.83,222883
15-Aug-14,6.76,6.85,6.52,6.76,261713
14-Aug-14,6.56,6.69,6.48,6.68,219422
13-Aug-14,6.72,6.73,6.51,6.54,281879
12-Aug-14,6.57,6.69,6.44,6.68,403011
11-Aug-14,6.60,6.65,6.46,6.60,291535
8-Aug-14,6.66,6.72,6.53,6.58,267489
7-Aug-14,6.93,6.93,6.52,6.65,490010
6-Aug-14,6.87,7.08,6.85,6.90,273888
5-Aug-14,7.20,7.28,6.87,6.91,260059
4-Aug-14,7.18,7.38,6.81,7.22,250330
1-Aug-14,7.80,8.32,6.80,7.18,1762189
31-Jul-14,7.27,7.27,6.85,7.20,347733
30-Jul-14,7.44,7.49,7.25,7.43,342414
29-Jul-14,6.80,7.41,6.80,7.37,652682
28-Jul-14,6.68,6.85,6.60,6.81,210849
25-Jul-14,6.70,6.70,6.58,6.68,181176
24-Jul-14,6.79,6.93,6.70,6.74,167930
23-Jul-14,6.82,6.90,6.69,6.80,242775
22-Jul-14,6.65,6.83,6.57,6.82,197881
21-Jul-14,6.65,6.65,6.53,6.62,157201
18-Jul-14,6.66,6.78,6.61,6.71,206752
17-Jul-14,6.73,6.89,6.66,6.67,187184
16-Jul-14,6.95,7.04,6.76,6.79,165543
15-Jul-14,7.03,7.03,6.87,6.92,155980
14-Jul-14,6.92,7.08,6.79,7.05,191696
11-Jul-14,6.61,6.89,6.58,6.83,212064
10-Jul-14,6.70,6.83,6.59,6.61,277765
9-Jul-14,7.07,7.12,6.70,6.86,385617
8-Jul-14,7.18,7.28,6.96,7.03,449394
7-Jul-14,7.43,7.50,7.11,7.18,282161
3-Jul-14,7.57,7.69,7.47,7.49,83917
2-Jul-14,7.42,7.58,7.42,7.57,239948
1-Jul-14,7.17,7.84,7.17,7.45,883990
30-Jun-14,7.17,7.24,6.96,7.17,476314
27-Jun-14,7.46,7.46,7.12,7.12,3624612
26-Jun-14,7.30,7.53,7.10,7.51,302809
25-Jun-14,7.52,7.60,7.18,7.32,365060
24-Jun-14,7.79,7.79,7.43,7.52,340058
23-Jun-14,7.76,7.83,7.62,7.76,177685
20-Jun-14,7.68,7.81,7.51,7.79,218801
19-Jun-14,7.73,7.88,7.55,7.68,146187
18-Jun-14,7.76,7.93,7.50,7.73,241807
17-Jun-14,7.53,7.94,7.39,7.84,379812
16-Jun-14,7.40,7.60,7.29,7.58,213112
13-Jun-14,7.35,7.42,7.14,7.36,203189
12-Jun-14,7.48,7.58,7.29,7.35,165601
11-Jun-14,7.47,7.60,7.37,7.47,219401
10-Jun-14,7.30,7.56,7.14,7.50,345936
9-Jun-14,7.14,7.40,7.02,7.36,361928
6-Jun-14,6.91,7.20,6.79,7.13,395638
5-Jun-14,6.96,7.08,6.74,6.91,426365
4-Jun-14,7.10,7.10,6.88,6.97,307031
3-Jun-14,7.23,7.23,7.02,7.13,231013
2-Jun-14,7.32,7.35,7.00,7.30,268770
30-May-14,7.36,7.48,7.10,7.34,251905
29-May-14,7.26,7.41,7.15,7.40,257841
28-May-14,7.27,7.27,6.95,7.23,365524
27-May-14,7.14,7.32,7.00,7.27,238520
23-May-14,6.99,7.20,6.99,7.05,235401
22-May-14,6.79,7.09,6.68,6.99,319127
21-May-14,6.93,6.98,6.70,6.78,247173
20-May-14,6.95,7.05,6.85,6.94,282944
19-May-14,6.98,7.20,6.84,6.92,318515
16-May-14,7.11,7.24,6.96,7.03,256832
15-May-14,7.12,7.29,6.90,7.11,401205
14-May-14,7.09,7.64,7.07,7.14,437674
13-May-14,7.35,7.43,6.87,7.01,510607
12-May-14,7.46,7.64,7.08,7.18,488954
9-May-14,7.03,7.51,7.00,7.44,634118
8-May-14,6.82,7.31,6.80,7.03,555422
7-May-14,8.18,8.18,6.42,6.86,2051677
6-May-14,8.49,8.83,8.30,8.66,646987
5-May-14,7.90,8.65,7.90,8.45,638335
2-May-14,8.10,8.38,7.86,7.94,318613
1-May-14,7.94,8.27,7.81,8.10,217665
30-Apr-14,7.96,8.03,7.65,7.94,474032
29-Apr-14,8.09,8.42,7.77,7.97,399071
28-Apr-14,8.50,8.68,7.98,8.09,326739
25-Apr-14,8.68,8.97,8.35,8.47,195364
24-Apr-14,8.85,9.10,8.56,8.73,226517
23-Apr-14,9.16,9.26,8.82,8.82,172123
22-Apr-14,8.92,9.35,8.87,9.19,270425
21-Apr-14,8.62,9.05,8.62,8.92,268076
17-Apr-14,8.58,8.95,8.50,8.60,255548
16-Apr-14,8.37,8.70,8.21,8.61,341553
15-Apr-14,8.65,8.85,8.00,8.31,380740
14-Apr-14,8.91,9.14,8.57,8.64,359640
11-Apr-14,8.86,9.19,8.58,8.81,302383
10-Apr-14,9.60,9.78,8.91,8.97,447447
9-Apr-14,9.95,9.95,9.41,9.59,524375
8-Apr-14,9.82,10.00,9.30,9.93,474185
7-Apr-14,10.12,10.17,9.69,9.81,247764
4-Apr-14,11.06,11.08,9.99,10.17,663120
3-Apr-14,10.85,11.13,10.63,11.02,322210
2-Apr-14,10.70,10.88,10.41,10.81,308474
1-Apr-14,10.09,10.69,9.98,10.62,349582
31-Mar-14,9.89,10.20,9.79,10.09,410131
28-Mar-14,9.87,10.08,9.75,9.83,247612
27-Mar-14,9.90,10.08,9.66,9.85,258655
26-Mar-14,10.28,10.47,9.89,9.89,226722
25-Mar-14,10.08,10.40,10.08,10.22,319782
24-Mar-14,10.22,10.23,9.66,10.08,432558
21-Mar-14,10.59,10.73,10.12,10.20,336380
20-Mar-14,10.00,10.74,10.00,10.57,484833
19-Mar-14,10.30,10.36,9.62,9.81,486789
18-Mar-14,10.20,10.40,10.03,10.25,289274
17-Mar-14,10.43,10.71,10.04,10.21,396746
14-Mar-14,10.16,10.58,9.75,10.33,336840
13-Mar-14,10.72,10.72,10.20,10.23,301860
12-Mar-14,10.29,10.79,10.27,10.69,251187
11-Mar-14,10.72,10.90,10.30,10.40,352184
10-Mar-14,10.80,10.84,10.41,10.71,322970
7-Mar-14,11.22,11.28,10.80,10.90,338500
6-Mar-14,11.75,11.89,11.03,11.12,471675
5-Mar-14,11.54,11.98,11.33,11.71,512414
4-Mar-14,11.30,11.64,11.21,11.47,735840
3-Mar-14,11.05,11.25,10.80,11.13,559157
28-Feb-14,11.14,11.60,11.00,11.24,1139320
27-Feb-14,11.16,11.67,10.82,11.19,1999802
26-Feb-14,9.65,10.04,9.63,9.85,669631
25-Feb-14,9.71,9.94,9.50,9.65,471780
24-Feb-14,9.96,10.36,9.62,9.64,573318
21-Feb-14,9.59,9.97,9.53,9.91,356630
20-Feb-14,9.65,9.78,9.42,9.51,365003
19-Feb-14,9.17,9.94,9.13,9.65,628141
18-Feb-14,8.75,9.38,8.75,9.21,523230
14-Feb-14,8.46,8.85,8.25,8.68,247857
13-Feb-14,8.49,8.74,8.20,8.43,300968
12-Feb-14,8.54,8.71,8.38,8.59,272444
11-Feb-14,8.62,8.79,8.48,8.54,202389
10-Feb-14,8.71,8.87,8.41,8.57,294028
7-Feb-14,8.20,8.71,8.06,8.68,442651
6-Feb-14,8.30,8.60,7.82,8.16,586035
5-Feb-14,8.99,9.05,8.17,8.28,792216
4-Feb-14,8.84,9.85,8.75,9.06,2358778
3-Feb-14,8.28,9.44,8.20,8.90,4105358
31-Jan-14,6.75,7.37,6.62,7.29,572125
30-Jan-14,7.02,7.09,6.82,6.88,176375
29-Jan-14,7.01,7.13,6.61,6.97,219775
28-Jan-14,6.86,7.15,6.69,7.08,352993
27-Jan-14,7.48,7.58,6.55,6.90,569633
24-Jan-14,7.63,7.74,7.33,7.44,276419
23-Jan-14,7.94,7.94,7.50,7.70,273701
22-Jan-14,7.98,8.14,7.90,7.96,203401
21-Jan-14,7.84,8.10,7.81,7.97,272324
17-Jan-14,8.15,8.36,7.50,7.79,903397
16-Jan-14,8.57,8.64,8.17,8.20,209998
15-Jan-14,8.60,8.78,8.00,8.57,446095
14-Jan-14,8.45,8.76,8.20,8.57,354767
13-Jan-14,8.73,8.92,8.31,8.43,338955
10-Jan-14,8.58,8.79,8.45,8.74,234022
9-Jan-14,8.53,8.87,8.40,8.58,319683
8-Jan-14,8.54,8.68,8.38,8.51,261550
7-Jan-14,8.11,8.70,8.06,8.57,573614
6-Jan-14,8.27,8.28,7.85,8.05,270424
3-Jan-14,7.74,8.08,7.65,8.00,382990
2-Jan-14,7.90,7.97,7.60,7.77,320062
31-Dec-13,7.60,7.97,7.54,7.94,557072
30-Dec-13,7.48,7.75,7.38,7.60,456285
27-Dec-13,7.15,7.45,7.05,7.44,450445
26-Dec-13,7.22,7.40,7.14,7.17,353100
24-Dec-13,7.42,7.44,7.21,7.24,141747
23-Dec-13,7.68,7.74,7.31,7.39,422910
20-Dec-13,7.42,7.70,7.30,7.63,536918
19-Dec-13,7.13,7.49,7.12,7.44,465373
18-Dec-13,7.17,7.30,7.00,7.17,363563
17-Dec-13,7.45,7.59,6.98,7.14,517645
16-Dec-13,7.30,7.49,7.09,7.44,949876
13-Dec-13,7.16,7.26,7.07,7.12,444700
12-Dec-13,7.51,7.63,7.14,7.14,881688
11-Dec-13,7.02,7.90,7.02,7.68,1163983
10-Dec-13,7.23,7.31,7.05,7.07,520461
9-Dec-13,7.20,7.47,7.01,7.22,940776
6-Dec-13,7.54,7.81,7.12,7.22,1635010
5-Dec-13,8.65,8.73,7.43,7.49,2263263
4-Dec-13,10.66,10.66,7.71,8.55,5581002
3-Dec-13,10.46,10.72,10.46,10.68,284415
2-Dec-13,10.50,10.58,10.16,10.44,411228
29-Nov-13,10.62,10.72,10.49,10.49,106096
27-Nov-13,10.67,10.75,10.55,10.56,197247
26-Nov-13,10.71,10.83,10.51,10.67,190000
25-Nov-13,10.69,10.77,10.31,10.67,509415
22-Nov-13,10.90,10.91,10.53,10.67,319601
21-Nov-13,10.52,11.10,10.52,10.90,655061
20-Nov-13,10.70,10.84,10.44,10.50,311538
19-Nov-13,10.67,11.13,10.60,10.69,444707
18-Nov-13,11.71,11.75,10.62,10.64,911020
15-Nov-13,11.74,11.78,11.44,11.67,357139
14-Nov-13,11.39,11.83,11.11,11.68,339477
13-Nov-13,11.66,11.79,11.30,11.39,325845
12-Nov-13,11.72,11.88,11.39,11.72,462863
11-Nov-13,11.23,11.68,10.83,11.67,494516
8-Nov-13,10.45,11.67,10.40,11.22,1029487
7-Nov-13,10.40,10.66,10.19,10.43,704975
6-Nov-13,10.15,11.40,10.09,10.44,4142688
5-Nov-13,9.01,9.16,8.84,9.00,398862
4-Nov-13,9.25,9.44,9.03,9.06,324464
1-Nov-13,9.12,9.25,8.75,9.23,381499
31-Oct-13,8.58,9.26,8.31,9.14,591012
30-Oct-13,9.25,9.26,8.59,8.66,425331
29-Oct-13,9.15,9.26,8.88,9.23,301406
28-Oct-13,9.22,9.41,8.82,9.15,442004
25-Oct-13,9.79,9.85,9.21,9.22,369525
24-Oct-13,9.96,10.00,9.69,9.80,453402
23-Oct-13,9.39,9.61,9.01,9.45,423994
22-Oct-13,9.80,9.88,9.21,9.51,472362
21-Oct-13,9.87,10.05,9.79,9.81,187249
18-Oct-13,9.94,10.14,9.74,9.87,342761
17-Oct-13,9.55,10.17,9.42,9.92,418374
16-Oct-13,9.43,9.86,9.18,9.66,462141
15-Oct-13,9.42,9.64,9.40,9.44,281093
14-Oct-13,9.58,9.69,9.39,9.47,455201
11-Oct-13,9.82,9.85,9.47,9.59,410072
10-Oct-13,9.65,10.02,9.60,9.86,641244
9-Oct-13,9.61,9.85,9.06,9.44,782059
8-Oct-13,10.75,10.85,9.53,9.61,1299206
7-Oct-13,10.30,11.27,10.30,10.70,1367553
4-Oct-13,10.41,10.57,10.21,10.30,405368
3-Oct-13,9.74,10.48,9.74,10.36,712823
2-Oct-13,9.75,9.94,9.71,9.77,290652
1-Oct-13,10.00,10.17,9.76,9.83,308746
30-Sep-13,9.68,10.10,9.52,9.91,358006
27-Sep-13,10.24,10.26,9.85,9.92,273046
26-Sep-13,10.06,10.40,9.97,10.24,393122
25-Sep-13,10.32,10.54,9.90,10.03,728481
24-Sep-13,9.29,10.63,9.27,10.47,2395420
23-Sep-13,9.61,9.61,8.94,9.18,940663
20-Sep-13,9.84,10.15,9.52,9.62,576992
19-Sep-13,10.06,10.17,9.66,9.83,623572
18-Sep-13,10.18,10.18,9.87,10.06,718471
17-Sep-13,10.14,10.45,9.84,10.22,751277
16-Sep-13,10.69,10.90,10.26,10.31,1006430
13-Sep-13,9.86,10.58,9.61,10.56,1371680
12-Sep-13,9.85,10.12,9.60,9.81,1016256
11-Sep-13,9.68,9.86,9.50,9.80,453162
10-Sep-13,9.31,9.70,9.31,9.69,575018
9-Sep-13,9.30,9.40,9.08,9.26,393316
6-Sep-13,9.09,9.38,8.86,9.23,558058
5-Sep-13,8.68,9.32,8.65,8.98,1056576
4-Sep-13,8.30,8.75,8.17,8.70,535599
3-Sep-13,8.46,8.75,8.27,8.37,307002
30-Aug-13,8.54,8.70,8.40,8.42,299973
29-Aug-13,8.16,8.78,8.15,8.46,485847
28-Aug-13,8.15,8.30,8.01,8.19,423436
27-Aug-13,8.23,8.45,8.12,8.19,470438
26-Aug-13,8.41,8.72,8.10,8.32,691883
23-Aug-13,8.18,8.58,8.18,8.42,815624
22-Aug-13,7.91,8.33,7.85,8.18,517115
21-Aug-13,7.99,8.09,7.60,7.92,1630616
20-Aug-13,7.49,7.50,7.26,7.29,396720
19-Aug-13,7.49,7.87,7.42,7.51,404688
16-Aug-13,7.51,7.69,7.45,7.47,365785
15-Aug-13,7.99,8.04,7.39,7.43,600614
14-Aug-13,8.06,8.26,7.77,8.04,1088656
13-Aug-13,7.71,8.36,7.71,8.05,1616367
12-Aug-13,7.37,7.87,7.28,7.65,1287672
9-Aug-13,7.18,7.49,7.12,7.34,356888
8-Aug-13,7.22,7.36,7.00,7.19,331242
7-Aug-13,7.45,7.49,7.12,7.22,964176
6-Aug-13,7.49,7.75,7.42,7.46,544145
5-Aug-13,7.42,7.79,7.30,7.49,951059
2-Aug-13,7.58,7.65,7.30,7.38,987057
1-Aug-13,7.62,7.75,7.44,7.63,1956982
