﻿Date,Open,High,Low,Close,Volume
20-Jun-17,23.95,24.10,23.80,24.00,271305
19-Jun-17,23.80,24.15,23.75,23.95,404243
16-Jun-17,23.60,23.80,23.40,23.65,365257
15-Jun-17,24.30,24.50,23.75,23.85,238822
14-Jun-17,24.85,24.95,24.40,24.50,171784
13-Jun-17,24.65,24.92,24.50,24.90,194824
12-Jun-17,24.45,24.70,24.42,24.55,270981
9-Jun-17,24.45,24.80,24.45,24.50,186563
8-Jun-17,23.95,24.55,23.76,24.45,298972
7-Jun-17,24.45,24.70,23.90,23.95,448861
6-Jun-17,24.15,24.50,24.05,24.40,215857
5-Jun-17,24.80,24.80,24.35,24.35,147697
2-Jun-17,24.55,25.15,24.48,24.85,282454
1-Jun-17,24.45,24.65,24.25,24.50,304633
31-May-17,24.30,24.50,23.95,24.40,792045
30-May-17,24.25,24.42,23.92,24.20,268715
26-May-17,24.55,24.85,24.15,24.35,381461
25-May-17,25.05,25.15,24.50,24.55,370460
24-May-17,24.50,25.05,24.35,25.00,463727
23-May-17,24.15,24.65,24.00,24.50,367941
22-May-17,24.10,24.35,23.90,24.10,335693
19-May-17,23.70,24.25,23.60,23.95,322035
18-May-17,23.45,23.88,23.20,23.70,476475
17-May-17,24.10,24.20,23.30,23.45,304699
16-May-17,24.95,24.95,24.35,24.50,196709
15-May-17,24.80,25.00,24.70,24.90,193917
12-May-17,25.25,25.25,24.70,24.70,204006
11-May-17,25.00,25.35,24.55,25.20,328968
10-May-17,25.60,25.65,25.05,25.15,282364
9-May-17,25.10,25.75,24.85,25.70,433001
8-May-17,25.50,25.70,24.90,25.10,359900
5-May-17,24.50,25.75,24.50,25.60,858906
4-May-17,24.05,24.10,23.20,23.35,385766
3-May-17,24.10,24.30,23.85,23.95,312415
2-May-17,24.40,24.55,24.10,24.25,311960
1-May-17,24.35,24.65,24.00,24.30,297170
28-Apr-17,24.00,24.45,23.95,24.35,373466
27-Apr-17,24.30,24.35,23.65,24.00,630728
26-Apr-17,23.95,24.28,23.90,24.25,587451
25-Apr-17,24.50,24.65,23.92,24.00,613450
24-Apr-17,24.00,24.58,23.95,24.40,722372
21-Apr-17,24.20,24.25,23.70,23.85,768299
20-Apr-17,24.00,24.35,23.90,24.30,227080
19-Apr-17,24.05,24.10,23.75,23.85,219993
18-Apr-17,23.80,24.08,23.60,23.90,221623
17-Apr-17,24.05,24.15,23.65,23.95,221541
13-Apr-17,24.05,24.15,23.90,23.90,413790
12-Apr-17,24.15,24.45,23.75,24.15,215731
11-Apr-17,23.70,24.30,23.55,24.30,273340
10-Apr-17,23.75,23.90,23.50,23.70,240976
7-Apr-17,23.65,23.95,23.55,23.75,416624
6-Apr-17,23.40,23.80,23.40,23.75,402476
5-Apr-17,23.95,24.20,23.35,23.45,465958
4-Apr-17,23.95,24.15,23.65,23.85,355615
3-Apr-17,24.50,24.85,23.70,24.05,519802
31-Mar-17,24.55,24.85,24.45,24.50,454490
30-Mar-17,24.65,24.95,24.50,24.65,247297
29-Mar-17,24.70,24.90,24.20,24.65,469765
28-Mar-17,25.25,25.35,24.80,24.95,547559
27-Mar-17,25.10,25.65,24.85,25.35,251550
24-Mar-17,25.65,25.85,25.25,25.55,142093
23-Mar-17,25.50,26.05,25.35,25.65,145639
22-Mar-17,25.60,25.85,25.25,25.55,256510
21-Mar-17,26.10,26.25,25.70,25.75,324218
20-Mar-17,26.10,26.20,25.90,26.00,185976
17-Mar-17,26.30,26.40,26.00,26.15,336077
16-Mar-17,26.10,26.52,25.90,26.25,336215
15-Mar-17,25.90,26.05,25.65,26.00,246883
14-Mar-17,25.40,26.00,25.35,25.80,308650
13-Mar-17,25.50,25.75,25.40,25.60,135660
10-Mar-17,25.55,25.75,25.32,25.65,214602
9-Mar-17,25.45,25.70,25.10,25.35,246591
8-Mar-17,25.85,26.00,25.35,25.55,333850
7-Mar-17,26.10,26.15,25.85,25.90,333505
6-Mar-17,25.80,26.30,25.75,26.10,359585
3-Mar-17,25.40,25.88,25.25,25.80,295750
2-Mar-17,25.65,26.00,25.40,25.50,264169
1-Mar-17,24.85,26.02,24.85,25.80,466610
28-Feb-17,24.35,25.35,24.25,24.45,1054806
27-Feb-17,23.75,24.75,23.65,24.35,967900
24-Feb-17,24.55,25.10,22.75,23.75,990006
23-Feb-17,23.80,23.95,23.70,23.75,318221
22-Feb-17,23.55,23.90,23.50,23.70,201942
21-Feb-17,23.30,23.60,23.29,23.55,225492
17-Feb-17,23.30,23.42,23.05,23.30,309514
16-Feb-17,23.50,23.55,23.10,23.25,208143
15-Feb-17,23.35,23.60,23.25,23.50,162886
14-Feb-17,23.75,23.75,23.30,23.45,274227
13-Feb-17,23.55,23.95,23.55,23.75,131395
10-Feb-17,23.50,23.50,23.25,23.45,158844
9-Feb-17,23.30,23.50,23.15,23.40,114163
8-Feb-17,23.45,23.45,23.10,23.25,132979
7-Feb-17,23.25,23.55,23.00,23.50,159293
6-Feb-17,23.35,23.45,23.15,23.25,78218
3-Feb-17,23.55,23.70,23.30,23.40,77945
2-Feb-17,23.65,23.70,23.20,23.30,256051
1-Feb-17,23.40,23.70,23.30,23.60,170123
31-Jan-17,23.50,23.55,23.05,23.25,213296
30-Jan-17,23.20,23.65,23.10,23.60,178695
27-Jan-17,23.80,23.95,23.40,23.45,151493
26-Jan-17,23.95,24.15,23.65,23.85,131955
25-Jan-17,23.50,24.25,23.50,24.05,253198
24-Jan-17,22.70,23.35,22.70,23.25,199285
23-Jan-17,22.50,22.72,22.40,22.65,200111
20-Jan-17,22.15,22.62,22.05,22.60,252443
19-Jan-17,22.40,22.65,22.05,22.15,145441
18-Jan-17,22.30,22.60,22.10,22.50,202664
17-Jan-17,22.45,22.55,22.15,22.25,197282
13-Jan-17,22.65,22.95,22.50,22.50,195262
12-Jan-17,22.55,22.60,21.80,22.60,299768
11-Jan-17,22.55,22.58,22.35,22.55,272782
10-Jan-17,22.60,22.70,22.40,22.50,310550
9-Jan-17,22.80,22.85,22.40,22.55,234172
6-Jan-17,23.30,23.30,22.70,22.85,218828
5-Jan-17,23.40,23.55,23.05,23.40,135748
4-Jan-17,23.45,23.65,23.35,23.45,211362
3-Jan-17,23.40,23.60,23.10,23.30,175682
30-Dec-16,23.45,23.55,22.95,23.10,157982
29-Dec-16,23.30,23.60,23.20,23.40,91054
28-Dec-16,23.50,23.60,23.05,23.25,160186
27-Dec-16,23.30,23.75,23.30,23.45,79233
23-Dec-16,23.30,23.55,23.20,23.30,112648
22-Dec-16,23.85,23.95,23.25,23.25,101639
21-Dec-16,23.50,24.15,23.40,23.85,193260
20-Dec-16,23.35,23.68,23.25,23.60,180839
19-Dec-16,22.85,23.45,22.85,23.30,172417
16-Dec-16,22.90,23.35,22.75,22.90,317147
15-Dec-16,23.15,23.50,22.75,22.80,239580
14-Dec-16,23.25,23.65,23.05,23.10,187905
13-Dec-16,23.65,23.85,23.20,23.25,348514
12-Dec-16,23.70,23.95,23.35,23.50,113464
9-Dec-16,24.15,24.20,23.68,23.85,144318
8-Dec-16,23.60,24.25,23.45,24.10,229914
7-Dec-16,22.75,23.58,22.65,23.50,251065
6-Dec-16,22.30,22.80,22.20,22.70,202623
5-Dec-16,22.55,22.65,22.05,22.20,269897
2-Dec-16,22.25,22.50,22.15,22.35,409957
1-Dec-16,22.50,22.50,22.10,22.30,338228
30-Nov-16,22.90,22.90,22.35,22.40,279454
29-Nov-16,22.40,22.88,22.35,22.70,246253
28-Nov-16,23.00,23.00,22.40,22.40,249138
25-Nov-16,22.90,23.15,22.85,23.05,64598
23-Nov-16,22.45,22.98,22.45,22.80,177674
22-Nov-16,22.40,22.70,21.95,22.65,213649
21-Nov-16,22.35,22.55,22.00,22.55,180326
18-Nov-16,22.30,22.40,22.18,22.25,185975
17-Nov-16,21.95,22.38,21.95,22.25,283828
16-Nov-16,21.45,22.05,21.25,21.80,443899
15-Nov-16,21.25,21.55,21.10,21.50,251155
14-Nov-16,21.25,21.55,21.05,21.35,374330
11-Nov-16,20.45,21.55,20.40,21.00,705190
10-Nov-16,19.95,20.70,19.85,20.45,597904
9-Nov-16,19.10,20.00,19.05,19.75,570755
8-Nov-16,19.70,19.85,18.35,19.30,1006617
7-Nov-16,20.60,20.80,20.10,20.35,345657
4-Nov-16,19.95,20.45,19.90,20.20,281091
3-Nov-16,20.00,20.35,19.80,19.85,201620
2-Nov-16,20.25,20.38,19.80,19.95,183208
1-Nov-16,20.55,20.80,20.15,20.30,166648
31-Oct-16,20.40,20.65,20.35,20.45,272534
28-Oct-16,20.25,20.95,20.25,20.40,231213
27-Oct-16,20.65,20.65,20.05,20.20,235610
26-Oct-16,20.65,20.95,20.42,20.45,249631
25-Oct-16,21.00,21.10,20.60,20.70,474077
24-Oct-16,20.70,21.18,20.65,21.10,191133
21-Oct-16,20.27,20.68,20.01,20.64,242888
20-Oct-16,20.38,20.41,20.04,20.32,257251
19-Oct-16,20.47,20.54,20.02,20.36,185355
18-Oct-16,20.68,20.70,20.37,20.41,160221
17-Oct-16,20.58,20.69,20.25,20.45,359283
14-Oct-16,20.42,20.80,20.42,20.58,248677
13-Oct-16,20.19,20.46,20.05,20.29,286392
12-Oct-16,20.02,20.40,19.93,20.31,244831
11-Oct-16,20.48,20.48,19.86,20.06,239863
10-Oct-16,20.36,20.84,20.36,20.48,408101
7-Oct-16,21.13,21.14,20.15,20.25,406321
6-Oct-16,20.67,21.28,20.49,21.20,247810
5-Oct-16,20.80,20.84,20.63,20.71,138775
4-Oct-16,20.73,21.05,20.56,20.71,197386
3-Oct-16,20.90,20.92,20.59,20.67,243592
30-Sep-16,21.10,21.20,20.75,20.99,272879
29-Sep-16,21.35,21.35,20.94,21.05,230047
28-Sep-16,21.15,21.37,21.04,21.32,271850
27-Sep-16,21.40,21.49,21.06,21.17,345765
26-Sep-16,21.61,21.85,21.36,21.47,208943
23-Sep-16,21.74,21.95,21.47,21.73,154975
22-Sep-16,21.72,21.88,21.66,21.74,243398
21-Sep-16,21.23,21.62,21.12,21.55,272721
20-Sep-16,21.48,21.66,21.02,21.12,225353
19-Sep-16,21.15,21.64,21.15,21.41,248127
16-Sep-16,21.26,21.40,21.07,21.13,524727
15-Sep-16,21.09,21.68,21.08,21.44,369120
14-Sep-16,21.38,21.44,21.07,21.13,252808
13-Sep-16,21.27,21.42,21.09,21.29,375973
12-Sep-16,21.10,21.55,21.03,21.55,413904
9-Sep-16,21.96,21.96,21.02,21.15,559214
8-Sep-16,22.18,22.35,22.02,22.19,263476
7-Sep-16,22.12,22.37,22.05,22.29,181622
6-Sep-16,22.14,22.20,21.73,22.14,321804
2-Sep-16,22.17,22.35,21.99,22.07,169974
1-Sep-16,22.13,22.30,21.78,22.08,263079
31-Aug-16,22.80,22.80,21.98,22.21,346000
30-Aug-16,23.07,23.17,22.68,22.77,273646
29-Aug-16,22.80,23.34,22.52,23.15,392187
26-Aug-16,22.75,22.91,22.56,22.73,345889
25-Aug-16,22.44,22.95,22.44,22.78,351587
24-Aug-16,22.46,22.76,22.46,22.55,308219
23-Aug-16,22.30,22.88,22.30,22.55,277114
22-Aug-16,21.87,22.29,21.82,22.25,225536
19-Aug-16,21.82,22.21,21.72,22.01,257862
18-Aug-16,21.76,21.91,21.66,21.83,223515
17-Aug-16,22.16,22.21,21.79,21.81,325475
16-Aug-16,22.18,22.47,22.03,22.11,340124
15-Aug-16,21.97,22.45,21.92,22.29,307536
12-Aug-16,22.05,22.05,21.78,21.87,336028
11-Aug-16,21.83,22.27,21.53,22.04,449102
10-Aug-16,22.42,22.42,21.75,21.88,602508
9-Aug-16,22.87,22.99,22.35,22.41,481357
8-Aug-16,23.14,23.36,22.78,22.91,352028
5-Aug-16,23.07,23.95,23.00,23.27,510400
4-Aug-16,23.04,23.10,21.76,23.02,1356525
3-Aug-16,23.48,23.83,23.38,23.77,553965
2-Aug-16,23.64,23.93,23.50,23.58,389054
1-Aug-16,23.39,24.15,23.16,23.67,495756
29-Jul-16,23.73,23.75,23.37,23.45,469850
28-Jul-16,23.98,24.06,23.80,23.80,269212
27-Jul-16,24.30,24.47,23.84,23.98,387210
26-Jul-16,24.18,24.52,23.74,24.17,646331
25-Jul-16,24.26,24.52,24.26,24.28,231893
22-Jul-16,24.12,24.43,23.92,24.37,282599
21-Jul-16,24.46,24.59,23.89,24.09,502801
20-Jul-16,24.15,24.78,24.00,24.54,497359
19-Jul-16,24.44,24.54,24.08,24.13,761090
18-Jul-16,23.50,24.42,23.50,24.35,1517157
15-Jul-16,22.64,23.41,22.40,23.40,1030208
14-Jul-16,23.00,23.00,22.44,22.56,661650
13-Jul-16,23.09,23.22,22.85,22.85,585051
12-Jul-16,23.31,23.40,22.88,22.90,281610
11-Jul-16,23.15,23.40,22.94,23.17,484326
8-Jul-16,22.95,23.29,22.87,23.07,265193
7-Jul-16,22.46,22.89,22.40,22.66,205815
6-Jul-16,22.02,22.47,21.87,22.46,189724
5-Jul-16,21.78,22.21,21.57,22.09,461482
1-Jul-16,22.14,22.50,21.86,21.94,293692
30-Jun-16,21.63,22.25,21.51,22.23,323133
29-Jun-16,21.11,21.86,21.11,21.68,323890
28-Jun-16,20.70,20.91,20.59,20.79,518721
27-Jun-16,20.96,21.02,20.25,20.53,383108
24-Jun-16,20.76,21.49,20.58,21.21,908571
23-Jun-16,21.84,21.86,21.60,21.84,365282
22-Jun-16,21.62,21.82,21.47,21.51,223737
21-Jun-16,22.03,22.12,21.56,21.62,234539
20-Jun-16,21.91,22.13,21.73,22.09,289306
17-Jun-16,21.69,21.88,21.46,21.58,351902
16-Jun-16,21.50,21.72,21.23,21.63,318543
15-Jun-16,22.06,22.06,21.59,21.70,448875
14-Jun-16,22.00,22.23,21.78,21.95,490872
13-Jun-16,22.81,23.02,22.28,22.29,248607
10-Jun-16,23.36,23.58,22.99,23.02,258468
9-Jun-16,23.12,23.77,22.94,23.57,384444
8-Jun-16,23.20,23.39,23.12,23.14,260465
7-Jun-16,23.14,23.46,23.01,23.23,204841
6-Jun-16,22.73,23.24,22.51,23.08,453792
3-Jun-16,22.95,22.95,22.38,22.51,343170
2-Jun-16,23.14,23.49,22.63,22.98,426951
1-Jun-16,22.89,23.18,22.73,23.06,732627
31-May-16,23.10,23.31,22.67,22.91,419427
27-May-16,22.90,23.14,22.88,23.02,333637
26-May-16,22.77,23.08,22.54,22.88,555879
25-May-16,22.70,22.98,22.28,22.64,297911
24-May-16,21.91,22.85,21.91,22.68,1015073
23-May-16,21.84,21.91,21.48,21.84,477650
20-May-16,21.18,22.04,21.17,21.74,486734
19-May-16,21.06,21.43,20.84,21.09,373410
18-May-16,21.27,21.65,21.18,21.19,448004
17-May-16,21.18,21.75,21.02,21.36,435548
16-May-16,20.98,21.50,20.98,21.10,306262
13-May-16,20.90,21.43,20.67,20.94,635684
12-May-16,21.29,21.50,20.69,20.90,399466
11-May-16,21.52,21.66,20.97,21.19,360001
10-May-16,21.97,22.11,20.67,21.48,1759531
9-May-16,19.48,19.84,19.36,19.67,252256
6-May-16,19.57,19.93,19.30,19.48,343057
5-May-16,19.23,19.66,18.91,19.63,258999
4-May-16,19.45,19.64,19.07,19.40,227526
3-May-16,19.73,19.85,19.38,19.60,236177
2-May-16,19.70,19.95,19.53,19.88,296603
29-Apr-16,19.66,19.68,19.40,19.61,261354
28-Apr-16,20.08,20.08,19.65,19.70,228023
27-Apr-16,19.93,20.25,19.83,20.13,194921
26-Apr-16,19.92,20.00,19.80,19.95,189195
25-Apr-16,19.93,20.12,19.72,19.80,151714
22-Apr-16,19.84,20.10,19.58,19.95,289544
21-Apr-16,20.09,20.48,19.78,19.78,665065
20-Apr-16,19.33,19.93,19.24,19.88,367140
19-Apr-16,19.39,19.47,19.16,19.38,263432
18-Apr-16,19.40,19.59,19.02,19.23,399839
15-Apr-16,19.11,19.41,19.05,19.37,212290
14-Apr-16,19.27,19.27,18.87,19.09,147085
13-Apr-16,19.05,19.36,18.86,19.30,234161
12-Apr-16,19.06,19.20,18.78,18.89,180306
11-Apr-16,19.19,19.37,18.84,19.02,519633
8-Apr-16,19.07,19.31,18.91,18.98,284052
7-Apr-16,18.76,19.02,18.60,18.85,338023
6-Apr-16,18.37,19.03,18.30,18.87,837950
5-Apr-16,18.37,18.73,18.31,18.33,522870
4-Apr-16,18.66,18.83,18.51,18.58,380738
1-Apr-16,18.41,18.84,18.26,18.63,328374
31-Mar-16,18.57,18.87,18.48,18.56,875900
30-Mar-16,18.66,18.70,18.24,18.60,628092
29-Mar-16,18.10,18.79,18.10,18.50,704739
28-Mar-16,18.24,18.27,17.92,18.10,214644
24-Mar-16,18.08,18.41,17.95,18.21,535523
23-Mar-16,18.30,18.44,18.16,18.25,430908
22-Mar-16,18.00,18.39,17.92,18.31,489908
21-Mar-16,18.40,18.52,17.94,18.06,422729
18-Mar-16,18.04,18.48,17.98,18.43,837388
17-Mar-16,17.17,17.95,17.11,17.92,669942
16-Mar-16,16.46,17.29,16.42,17.17,1130834
15-Mar-16,16.67,16.80,16.33,16.54,2510963
14-Mar-16,17.16,17.61,17.09,17.12,1350946
11-Mar-16,16.51,17.16,16.50,17.16,230236
10-Mar-16,16.84,16.90,16.21,16.37,135960
9-Mar-16,16.59,16.93,16.56,16.75,137687
8-Mar-16,17.06,17.06,16.54,16.56,152101
7-Mar-16,17.15,17.46,16.93,17.21,179766
4-Mar-16,17.17,17.62,17.06,17.24,276457
3-Mar-16,17.11,17.66,17.11,17.19,234130
2-Mar-16,17.15,17.38,16.94,17.12,240997
1-Mar-16,16.98,17.28,16.90,17.21,303406
29-Feb-16,16.75,17.09,16.63,16.88,388067
26-Feb-16,16.63,16.83,16.29,16.70,315879
25-Feb-16,16.32,16.76,16.32,16.50,432439
24-Feb-16,15.79,16.38,15.44,16.30,451822
23-Feb-16,15.59,16.14,15.04,15.99,1266164
22-Feb-16,15.44,15.91,15.41,15.68,783815
19-Feb-16,15.51,15.69,15.18,15.32,782974
18-Feb-16,15.77,15.80,15.49,15.59,197677
17-Feb-16,15.88,16.01,15.70,15.75,327094
16-Feb-16,15.76,15.99,15.50,15.79,315071
12-Feb-16,15.60,15.97,15.39,15.54,259114
11-Feb-16,15.40,15.59,15.20,15.37,361063
10-Feb-16,15.76,16.21,15.62,15.70,178440
9-Feb-16,15.60,15.98,15.33,15.59,361244
8-Feb-16,15.82,16.21,15.37,15.82,432031
5-Feb-16,15.73,16.22,15.48,16.03,368886
4-Feb-16,15.54,16.04,15.46,15.75,293178
3-Feb-16,15.60,15.86,15.01,15.58,237177
2-Feb-16,15.67,15.89,15.25,15.43,284373
1-Feb-16,15.18,16.52,15.08,15.89,608167
29-Jan-16,14.11,14.99,14.11,14.94,634705
28-Jan-16,14.16,14.52,13.91,14.01,235821
27-Jan-16,14.41,14.41,13.92,14.02,190485
26-Jan-16,13.97,14.49,13.72,14.39,376888
25-Jan-16,15.08,15.08,13.87,13.95,264432
22-Jan-16,14.60,15.25,14.60,15.21,315522
21-Jan-16,14.15,14.89,14.03,14.39,433462
20-Jan-16,13.57,14.25,13.25,14.15,531053
19-Jan-16,14.88,14.88,13.62,13.93,281389
15-Jan-16,14.24,14.79,14.12,14.74,297208
14-Jan-16,14.75,14.86,14.28,14.70,262743
13-Jan-16,15.61,15.87,14.50,14.69,332939
12-Jan-16,15.68,15.90,15.09,15.58,355703
11-Jan-16,15.28,15.63,15.11,15.57,267430
8-Jan-16,16.05,16.08,15.21,15.25,418567
7-Jan-16,16.48,16.66,15.88,15.91,422628
6-Jan-16,16.87,17.13,16.76,16.86,222624
5-Jan-16,17.12,17.34,17.03,17.17,341868
4-Jan-16,17.14,17.27,16.97,17.05,419787
31-Dec-15,17.34,17.59,17.25,17.46,179808
30-Dec-15,17.49,17.61,17.36,17.45,155568
29-Dec-15,17.42,17.88,17.29,17.56,188952
28-Dec-15,17.54,17.56,17.23,17.29,149376
24-Dec-15,17.02,17.75,17.02,17.61,116401
23-Dec-15,16.94,17.38,16.84,17.12,438413
22-Dec-15,17.29,17.32,16.77,16.92,286253
21-Dec-15,16.99,17.26,16.85,17.26,364634
18-Dec-15,16.87,17.30,16.66,16.99,1207492
17-Dec-15,17.27,17.34,16.47,16.96,608634
16-Dec-15,17.46,17.53,17.14,17.29,316379
15-Dec-15,17.38,17.57,17.37,17.38,337751
14-Dec-15,17.18,17.53,17.04,17.27,364496
11-Dec-15,17.92,18.25,17.19,17.22,275687
10-Dec-15,17.96,18.31,17.96,18.21,199619
9-Dec-15,18.05,18.20,17.86,18.00,364306
8-Dec-15,18.05,18.29,17.99,18.12,229472
7-Dec-15,18.58,18.67,18.10,18.26,376280
4-Dec-15,18.14,18.62,17.94,18.56,426336
3-Dec-15,18.51,18.73,17.94,18.00,299604
2-Dec-15,18.59,18.71,18.25,18.32,187423
1-Dec-15,18.27,18.91,18.19,18.58,726619
30-Nov-15,18.51,18.62,18.15,18.24,277699
27-Nov-15,18.59,18.87,18.51,18.60,105303
25-Nov-15,18.26,18.84,18.26,18.49,190687
24-Nov-15,17.95,18.42,17.95,18.30,172578
23-Nov-15,17.96,18.26,17.95,17.98,515073
20-Nov-15,18.29,18.47,17.93,17.98,399892
19-Nov-15,18.45,18.74,18.14,18.19,376051
18-Nov-15,18.30,18.98,18.15,18.38,653334
17-Nov-15,18.37,18.46,17.88,18.29,377779
16-Nov-15,18.93,19.31,18.16,18.36,601462
13-Nov-15,18.01,18.46,17.97,18.20,427594
12-Nov-15,18.01,18.43,17.90,18.11,480548
11-Nov-15,17.87,18.48,17.87,18.10,581784
10-Nov-15,17.16,17.89,17.09,17.66,511689
9-Nov-15,16.98,17.38,16.83,17.22,396409
6-Nov-15,16.53,17.11,16.41,16.98,540380
5-Nov-15,17.56,17.56,15.38,16.59,2325745
4-Nov-15,17.92,17.99,17.63,17.70,369405
3-Nov-15,17.83,18.06,17.66,17.92,212855
2-Nov-15,17.54,18.03,17.45,17.86,624534
30-Oct-15,17.77,17.89,17.48,17.57,230779
29-Oct-15,18.32,18.41,17.67,17.80,265502
28-Oct-15,17.87,18.56,17.74,18.44,247323
27-Oct-15,17.52,17.84,17.31,17.79,633821
26-Oct-15,18.12,18.15,17.58,17.69,273659
23-Oct-15,18.23,18.50,17.93,18.14,371372
22-Oct-15,18.36,18.48,17.74,18.09,248796
21-Oct-15,18.39,18.50,18.12,18.34,313010
20-Oct-15,18.98,19.08,18.11,18.23,469595
19-Oct-15,18.87,19.18,18.73,19.02,293926
16-Oct-15,19.55,19.84,18.52,18.93,356881
15-Oct-15,19.10,19.66,18.97,19.52,336408
14-Oct-15,18.93,19.13,18.27,19.05,477174
13-Oct-15,19.39,19.79,18.89,18.98,609114
12-Oct-15,20.98,21.05,19.22,19.32,1151551
9-Oct-15,22.15,22.16,21.18,21.34,418413
8-Oct-15,21.90,22.18,21.73,22.11,171394
7-Oct-15,21.35,21.97,21.23,21.94,229242
6-Oct-15,21.40,21.77,20.95,21.17,237019
5-Oct-15,20.92,21.48,20.82,21.43,181404
2-Oct-15,20.36,20.80,19.97,20.80,166223
1-Oct-15,20.53,20.78,20.15,20.57,320196
30-Sep-15,19.91,20.57,19.88,20.54,584881
29-Sep-15,20.47,20.47,19.62,19.76,549537
28-Sep-15,20.96,21.10,20.28,20.35,553359
25-Sep-15,21.64,21.79,20.96,21.03,400092
24-Sep-15,21.22,21.48,20.86,21.47,342171
23-Sep-15,21.41,21.41,21.15,21.35,315743
22-Sep-15,21.43,21.58,21.12,21.32,276261
21-Sep-15,22.09,22.09,21.42,21.72,421469
18-Sep-15,21.67,22.13,21.50,21.85,1130302
17-Sep-15,21.43,22.20,21.24,21.99,550174
16-Sep-15,21.39,21.72,21.25,21.43,675758
15-Sep-15,21.14,21.42,21.00,21.33,531434
14-Sep-15,20.74,21.23,20.67,21.01,904825
11-Sep-15,19.90,20.69,19.82,20.69,2233741
10-Sep-15,21.21,21.42,21.05,21.38,158224
9-Sep-15,21.79,21.80,21.12,21.30,310137
8-Sep-15,20.48,21.66,20.48,21.56,427450
4-Sep-15,20.14,20.30,19.88,20.15,123558
3-Sep-15,20.01,20.63,20.01,20.41,280365
2-Sep-15,19.44,20.00,19.23,20.00,188096
1-Sep-15,19.62,19.85,19.23,19.25,338573
31-Aug-15,19.71,20.07,19.63,19.99,230747
28-Aug-15,19.52,19.78,19.40,19.77,134869
27-Aug-15,19.59,20.08,19.30,19.57,412093
26-Aug-15,19.29,19.40,18.81,19.39,267927
25-Aug-15,19.66,19.87,18.89,18.93,417819
24-Aug-15,18.80,19.86,18.49,19.25,345703
21-Aug-15,19.64,20.18,19.52,19.78,281648
20-Aug-15,20.69,20.69,19.91,20.00,320010
19-Aug-15,20.67,20.96,20.55,20.86,181075
18-Aug-15,20.53,20.84,20.44,20.81,176226
17-Aug-15,20.64,20.64,20.44,20.51,172714
14-Aug-15,20.43,20.81,20.36,20.65,105634
13-Aug-15,20.59,20.76,20.38,20.47,97126
12-Aug-15,21.02,21.02,20.47,20.53,253740
11-Aug-15,21.06,21.47,20.96,21.12,130522
10-Aug-15,20.73,21.46,20.73,21.11,217919
7-Aug-15,20.33,20.63,20.20,20.60,119022
6-Aug-15,20.18,20.80,20.04,20.46,235223
5-Aug-15,21.24,21.24,20.17,20.60,511863
4-Aug-15,21.29,21.62,21.17,21.26,262455
3-Aug-15,21.18,21.50,20.99,21.36,194707
31-Jul-15,20.96,21.40,20.96,21.24,326196
30-Jul-15,20.94,21.31,20.69,20.92,246411
29-Jul-15,20.81,21.15,20.77,21.03,252416
28-Jul-15,20.92,21.27,20.48,20.76,258481
27-Jul-15,21.33,21.33,20.57,20.83,267746
24-Jul-15,22.16,22.20,21.25,21.43,190404
23-Jul-15,22.23,22.70,22.12,22.22,168536
22-Jul-15,21.77,22.26,21.77,22.15,274734
21-Jul-15,22.32,22.35,21.78,21.90,111185
20-Jul-15,22.04,22.32,21.75,22.29,189858
17-Jul-15,22.06,22.20,21.73,22.02,153768
16-Jul-15,21.83,22.04,21.74,21.92,156055
15-Jul-15,21.80,22.00,21.55,21.78,221994
14-Jul-15,22.20,22.20,21.75,21.76,166094
13-Jul-15,21.93,22.26,21.89,22.24,190711
10-Jul-15,21.70,21.86,21.62,21.84,199946
9-Jul-15,21.78,21.85,21.45,21.52,310183
8-Jul-15,21.83,21.83,21.34,21.50,216388
7-Jul-15,21.66,22.10,21.28,21.99,337748
6-Jul-15,21.49,21.68,21.20,21.67,311033
2-Jul-15,21.68,21.92,21.17,21.64,327293
1-Jul-15,21.43,21.65,21.26,21.63,346691
30-Jun-15,21.01,21.31,20.77,21.19,583957
29-Jun-15,21.71,21.86,20.75,20.83,600039
26-Jun-15,22.99,23.17,21.62,21.88,2391598
25-Jun-15,23.57,23.57,22.87,22.99,291959
24-Jun-15,24.00,24.21,23.16,23.31,318812
23-Jun-15,23.51,23.99,23.43,23.96,466582
22-Jun-15,23.70,23.77,23.02,23.38,359725
19-Jun-15,22.74,23.64,22.56,23.58,353640
18-Jun-15,22.28,22.77,22.23,22.66,383345
17-Jun-15,22.08,22.30,21.87,22.19,277657
16-Jun-15,21.91,22.15,21.72,21.99,294359
15-Jun-15,22.11,22.29,21.80,21.97,285864
12-Jun-15,22.17,22.28,22.04,22.21,138673
11-Jun-15,22.28,22.36,22.10,22.27,165018
10-Jun-15,22.27,22.36,22.11,22.28,294113
9-Jun-15,21.97,22.29,21.82,22.16,226029
8-Jun-15,22.50,22.60,21.97,22.00,149237
5-Jun-15,22.36,22.58,22.09,22.52,273394
4-Jun-15,22.52,22.62,22.17,22.32,287306
3-Jun-15,22.52,22.70,22.37,22.62,363607
2-Jun-15,22.53,22.53,22.30,22.43,368576
1-Jun-15,22.66,22.71,22.20,22.32,287455
29-May-15,22.34,22.41,21.96,22.30,350789
28-May-15,22.36,22.55,22.26,22.41,334477
27-May-15,22.49,22.50,22.22,22.36,319039
26-May-15,22.16,22.47,21.90,22.40,328171
22-May-15,22.45,22.74,22.03,22.20,370093
21-May-15,22.46,22.63,22.32,22.53,242256
20-May-15,22.76,22.95,22.39,22.45,343984
19-May-15,22.87,23.18,22.63,22.69,663481
18-May-15,22.51,22.92,22.37,22.84,423830
15-May-15,22.49,22.75,22.20,22.52,608984
14-May-15,21.76,22.73,21.75,22.50,1325093
13-May-15,21.73,21.94,21.57,21.68,631328
12-May-15,21.64,21.98,21.35,21.65,2744807
11-May-15,22.87,23.39,22.87,22.93,195393
8-May-15,23.65,23.81,22.68,22.86,258493
7-May-15,22.08,23.96,21.47,23.37,611283
6-May-15,22.20,22.57,21.81,21.97,225017
5-May-15,22.33,22.70,21.83,21.98,91418
4-May-15,23.08,23.14,22.20,22.43,229658
1-May-15,22.09,23.00,22.09,22.99,160007
30-Apr-15,22.25,22.35,22.00,22.01,155392
29-Apr-15,22.15,22.59,22.15,22.36,250596
28-Apr-15,22.21,22.44,21.93,22.28,199707
27-Apr-15,22.30,22.58,22.05,22.16,142949
24-Apr-15,22.15,22.44,22.04,22.28,130720
23-Apr-15,21.88,22.44,21.78,22.13,312145
22-Apr-15,21.98,22.09,21.69,21.78,98078
21-Apr-15,21.84,22.03,21.68,22.00,115678
20-Apr-15,21.99,21.99,21.63,21.75,196922
17-Apr-15,22.10,22.25,21.50,21.80,418814
16-Apr-15,22.78,22.87,22.10,22.26,295574
15-Apr-15,23.03,23.11,22.73,22.76,263900
14-Apr-15,22.94,23.25,22.41,22.87,510549
13-Apr-15,22.93,23.21,22.70,22.87,150020
10-Apr-15,23.06,23.16,22.57,22.87,242598
9-Apr-15,23.17,23.25,22.69,23.03,121180
8-Apr-15,22.95,23.66,22.87,23.14,519364
7-Apr-15,22.73,23.08,22.64,22.90,225925
6-Apr-15,22.38,22.90,22.07,22.77,305838
2-Apr-15,22.48,23.06,22.40,22.54,339732
1-Apr-15,22.62,22.80,22.30,22.52,397482
31-Mar-15,21.39,22.87,21.39,22.59,675055
30-Mar-15,20.52,20.98,20.50,20.88,318928
27-Mar-15,20.42,20.88,20.32,20.47,481196
26-Mar-15,20.36,20.59,20.26,20.42,348142
25-Mar-15,20.52,20.82,20.36,20.42,343448
24-Mar-15,20.36,21.00,20.24,20.47,339002
23-Mar-15,19.95,20.69,19.82,20.40,282654
20-Mar-15,19.41,20.19,19.33,20.07,335640
19-Mar-15,19.09,19.59,19.02,19.35,221129
18-Mar-15,19.22,19.46,18.74,19.17,541583
17-Mar-15,18.70,19.49,18.67,19.47,557196
16-Mar-15,19.04,19.34,18.69,18.78,425332
13-Mar-15,18.95,19.41,18.65,18.95,2376387
12-Mar-15,20.81,21.15,20.67,20.76,108306
11-Mar-15,20.48,20.80,20.27,20.58,59235
10-Mar-15,20.35,20.57,20.05,20.41,100896
9-Mar-15,20.42,20.90,20.32,20.35,108077
6-Mar-15,20.85,21.26,20.16,20.31,100053
5-Mar-15,20.44,21.12,20.33,21.03,103436
4-Mar-15,20.83,20.97,20.47,20.48,112692
3-Mar-15,20.98,21.14,20.74,20.87,172310
2-Mar-15,20.80,21.29,20.33,21.07,237245
27-Feb-15,20.63,21.44,20.50,20.86,336497
26-Feb-15,18.95,20.57,18.88,20.55,380859
25-Feb-15,19.34,19.55,18.46,18.90,336116
24-Feb-15,17.93,19.71,17.93,19.40,634073
23-Feb-15,18.02,18.07,17.49,17.85,115315
20-Feb-15,18.21,18.30,17.90,18.11,249323
19-Feb-15,17.67,18.41,17.49,18.19,214196
18-Feb-15,17.97,18.23,17.65,17.67,85247
17-Feb-15,17.47,18.43,17.46,17.97,242746
13-Feb-15,17.34,17.82,17.14,17.39,122196
12-Feb-15,16.63,17.39,16.63,17.31,113405
11-Feb-15,16.71,16.89,16.42,16.47,125200
10-Feb-15,16.81,17.11,16.56,16.61,133216
9-Feb-15,16.93,17.22,16.66,16.76,99075
6-Feb-15,17.19,17.36,16.75,17.01,157340
5-Feb-15,17.02,17.41,16.60,17.20,183709
4-Feb-15,16.80,17.59,16.80,17.47,74794
3-Feb-15,16.84,17.18,16.84,16.92,181706
2-Feb-15,16.86,16.98,16.54,16.80,129872
30-Jan-15,16.71,16.97,16.45,16.74,183552
29-Jan-15,16.38,16.90,16.36,16.88,180942
28-Jan-15,16.63,16.68,16.33,16.46,79419
27-Jan-15,16.60,16.86,15.91,16.58,469332
26-Jan-15,16.75,16.93,16.54,16.74,93549
23-Jan-15,16.48,16.88,16.32,16.69,70348
22-Jan-15,16.38,16.63,16.15,16.45,69199
21-Jan-15,16.40,16.70,16.16,16.32,66230
20-Jan-15,16.40,16.57,16.05,16.45,88405
16-Jan-15,16.29,16.79,16.04,16.34,102205
15-Jan-15,17.13,17.13,16.24,16.38,128610
14-Jan-15,17.00,17.18,16.69,17.04,52509
13-Jan-15,17.46,17.81,16.81,17.28,129662
12-Jan-15,17.30,17.33,16.89,17.23,80594
9-Jan-15,17.60,17.60,17.10,17.27,62607
8-Jan-15,16.88,17.56,16.72,17.48,94984
7-Jan-15,16.75,16.96,16.41,16.67,69058
6-Jan-15,17.33,17.38,16.45,16.60,127776
5-Jan-15,17.46,17.51,17.10,17.19,58643
2-Jan-15,17.75,18.02,16.90,17.47,325575
31-Dec-14,17.62,17.86,17.60,17.73,98263
30-Dec-14,17.65,17.80,17.42,17.54,35581
29-Dec-14,17.74,17.82,17.58,17.74,81978
26-Dec-14,17.69,17.80,17.63,17.76,47127
24-Dec-14,17.52,17.79,17.36,17.60,34615
23-Dec-14,17.68,17.68,17.34,17.44,62306
22-Dec-14,17.59,17.68,17.34,17.54,71966
19-Dec-14,17.86,17.86,17.20,17.56,215435
18-Dec-14,17.46,17.77,17.23,17.71,87405
17-Dec-14,16.72,17.47,16.72,17.18,249462
16-Dec-14,16.26,16.89,16.08,16.77,173181
15-Dec-14,16.68,16.94,16.22,16.28,77274
12-Dec-14,17.11,17.17,16.60,16.62,137710
11-Dec-14,17.28,17.48,16.95,17.34,236166
10-Dec-14,17.90,17.97,17.10,17.14,148363
9-Dec-14,17.49,18.32,17.48,17.99,243565
8-Dec-14,17.45,17.87,17.38,17.65,201472
5-Dec-14,17.37,17.75,17.32,17.60,162795
4-Dec-14,17.79,17.82,17.25,17.34,303236
3-Dec-14,17.29,17.88,17.25,17.80,145570
2-Dec-14,17.01,17.69,17.01,17.31,539456
1-Dec-14,16.84,17.17,16.62,16.99,343305
28-Nov-14,17.44,17.54,16.51,16.70,242428
26-Nov-14,16.81,17.40,16.72,17.24,190214
25-Nov-14,17.41,17.47,15.95,16.47,753113
24-Nov-14,16.70,17.57,16.60,17.28,291337
21-Nov-14,16.67,16.75,16.30,16.59,472068
20-Nov-14,15.21,16.71,15.05,16.58,4153332
19-Nov-14,15.21,15.40,15.03,15.16,505052
18-Nov-14,15.70,15.95,15.47,15.52,175880
17-Nov-14,16.41,16.69,16.18,16.19,85805
14-Nov-14,16.63,16.85,16.41,16.46,88348
13-Nov-14,16.99,17.21,16.50,16.57,101383
12-Nov-14,16.60,17.38,16.53,17.03,84162
11-Nov-14,16.82,16.86,16.49,16.63,158041
10-Nov-14,16.90,17.01,16.67,16.78,46462
7-Nov-14,16.70,17.01,16.36,16.87,104964
6-Nov-14,16.77,17.04,16.57,16.78,163979
5-Nov-14,17.22,17.25,16.69,16.91,266924
4-Nov-14,15.65,17.44,15.65,16.97,888256
3-Nov-14,14.60,14.96,14.16,14.23,204375
31-Oct-14,14.48,14.90,13.98,14.74,117702
30-Oct-14,14.15,14.64,14.01,14.23,125014
29-Oct-14,13.54,14.50,13.40,14.17,373735
28-Oct-14,13.53,13.56,13.28,13.50,341382
27-Oct-14,13.69,13.69,13.41,13.45,87569
24-Oct-14,13.81,13.88,13.68,13.71,263472
23-Oct-14,14.00,14.01,13.59,13.73,115429
22-Oct-14,14.15,14.35,13.82,13.87,62567
21-Oct-14,13.97,14.21,13.84,14.00,61471
20-Oct-14,13.47,13.92,13.47,13.87,107948
17-Oct-14,14.01,14.01,13.55,13.57,58945
16-Oct-14,13.39,14.03,13.39,13.94,98477
15-Oct-14,13.37,13.70,13.27,13.62,228326
14-Oct-14,13.42,13.71,13.42,13.56,56701
13-Oct-14,13.41,13.97,13.27,13.30,66128
10-Oct-14,13.50,13.71,13.35,13.36,95239
9-Oct-14,13.89,13.89,13.32,13.60,90231
8-Oct-14,13.80,14.01,13.33,13.94,97561
7-Oct-14,14.00,14.18,13.75,13.76,58354
6-Oct-14,15.02,15.02,14.00,14.08,185534
3-Oct-14,15.22,15.36,14.91,14.93,101311
2-Oct-14,14.48,15.11,14.45,15.06,271761
1-Oct-14,14.59,14.67,14.38,14.44,87048
30-Sep-14,14.86,14.86,14.60,14.60,99607
29-Sep-14,14.54,14.85,14.48,14.80,112912
26-Sep-14,14.32,14.77,14.12,14.75,102960
25-Sep-14,14.32,14.57,14.17,14.31,263530
24-Sep-14,14.20,14.43,14.10,14.39,56237
23-Sep-14,14.51,14.51,14.05,14.12,73068
22-Sep-14,14.70,14.82,14.35,14.53,202580
19-Sep-14,15.98,16.34,14.60,14.70,546365
18-Sep-14,16.51,16.54,15.59,15.98,194713
17-Sep-14,15.81,16.71,15.81,16.46,228525
16-Sep-14,15.87,15.95,15.32,15.86,140537
15-Sep-14,15.64,15.98,15.54,15.91,125941
12-Sep-14,16.73,16.80,15.30,15.65,633912
11-Sep-14,17.40,17.40,16.58,16.74,290712
10-Sep-14,17.22,17.90,17.09,17.45,298148
9-Sep-14,17.19,17.40,16.78,17.24,253417
8-Sep-14,16.18,17.47,16.12,17.15,349069
5-Sep-14,16.08,16.36,15.99,16.15,35151
4-Sep-14,15.81,16.17,15.70,16.15,106088
3-Sep-14,15.92,16.07,15.74,15.81,179378
2-Sep-14,16.06,16.35,15.77,15.82,201390
29-Aug-14,15.72,16.07,15.68,15.99,105392
28-Aug-14,15.33,15.88,15.33,15.84,63194
27-Aug-14,15.30,15.47,15.28,15.47,96815
26-Aug-14,15.43,15.55,15.19,15.20,115639
25-Aug-14,15.60,15.67,15.37,15.45,36369
22-Aug-14,15.75,15.94,15.20,15.53,122242
21-Aug-14,15.27,15.99,15.15,15.76,99652
20-Aug-14,14.76,15.29,14.53,15.25,98492
19-Aug-14,14.19,14.93,14.19,14.85,141227
18-Aug-14,14.10,14.31,13.92,14.09,74804
15-Aug-14,13.60,14.05,13.21,13.99,163421
14-Aug-14,13.43,13.50,13.19,13.46,109931
13-Aug-14,13.42,13.57,13.23,13.29,89057
12-Aug-14,14.17,14.24,13.18,13.39,204640
11-Aug-14,14.57,14.73,14.37,14.66,59606
8-Aug-14,14.24,14.74,14.22,14.56,200466
7-Aug-14,14.43,14.80,14.10,14.28,270186
6-Aug-14,14.26,14.66,14.26,14.44,86219
5-Aug-14,14.32,14.68,14.28,14.38,121068
4-Aug-14,13.74,14.50,13.68,14.43,98972
1-Aug-14,13.27,13.93,13.00,13.68,260243
31-Jul-14,13.15,13.28,12.74,13.19,93905
30-Jul-14,13.26,13.46,13.19,13.34,74272
29-Jul-14,12.65,13.18,12.60,13.08,96507
28-Jul-14,13.30,13.56,12.58,12.58,234465
25-Jul-14,13.91,14.03,13.29,13.33,335796
24-Jul-14,14.31,14.31,13.94,14.04,79670
23-Jul-14,13.99,14.33,13.91,14.25,86744
22-Jul-14,13.59,14.00,13.59,13.94,172828
21-Jul-14,13.40,13.57,13.40,13.47,162907
18-Jul-14,13.40,13.59,13.38,13.45,147377
17-Jul-14,13.60,13.63,13.37,13.43,173858
16-Jul-14,13.91,14.02,13.65,13.73,84859
15-Jul-14,14.35,14.39,13.76,13.80,126747
14-Jul-14,14.48,14.55,14.10,14.31,289576
11-Jul-14,15.07,15.29,14.89,14.93,74747
10-Jul-14,15.18,15.30,14.96,15.14,72839
9-Jul-14,15.73,15.86,15.39,15.59,33696
8-Jul-14,15.30,15.85,15.13,15.73,88868
7-Jul-14,15.73,15.91,15.30,15.43,198620
3-Jul-14,15.62,15.94,15.31,15.73,49168
2-Jul-14,15.69,15.83,15.02,15.53,226919
1-Jul-14,15.40,15.83,15.30,15.67,121449
30-Jun-14,14.79,15.57,14.79,15.40,100506
27-Jun-14,14.25,14.96,14.25,14.86,503642
26-Jun-14,14.04,14.51,14.00,14.38,538554
25-Jun-14,14.27,14.44,14.00,14.05,63102
24-Jun-14,14.18,14.58,14.16,14.36,183042
23-Jun-14,14.80,14.80,14.17,14.27,120386
20-Jun-14,14.94,14.95,14.40,14.71,260470
19-Jun-14,14.99,15.44,14.79,14.85,157955
18-Jun-14,15.32,15.35,14.92,14.99,187751
17-Jun-14,15.16,15.35,15.00,15.26,123466
16-Jun-14,15.51,15.72,15.04,15.21,70572
13-Jun-14,15.92,15.99,15.50,15.53,22078
12-Jun-14,16.14,16.65,15.75,15.87,227281
11-Jun-14,16.76,16.76,16.20,16.60,16947
10-Jun-14,16.82,17.00,16.54,16.84,40172
9-Jun-14,16.79,17.00,15.94,16.92,59038
6-Jun-14,16.65,17.03,16.65,16.89,43929
5-Jun-14,15.69,16.54,15.69,16.52,74348
4-Jun-14,15.44,16.46,15.40,15.71,86372
3-Jun-14,15.50,16.07,15.33,15.51,54649
2-Jun-14,15.45,15.78,15.28,15.53,29662
30-May-14,16.12,16.13,15.42,15.49,117776
29-May-14,16.15,16.41,16.03,16.07,54575
28-May-14,16.05,16.27,15.96,16.15,31585
27-May-14,15.99,16.38,15.84,16.05,57521
23-May-14,15.13,16.18,15.01,15.85,85592
22-May-14,14.63,15.17,14.48,15.08,36887
21-May-14,14.74,14.80,14.60,14.74,50221
20-May-14,14.88,15.01,14.55,14.74,60409
19-May-14,14.78,15.09,14.66,14.95,246698
16-May-14,14.48,14.77,14.38,14.76,45012
15-May-14,14.72,14.86,14.33,14.52,91905
14-May-14,14.61,14.90,14.19,14.77,122320
13-May-14,15.43,16.14,14.10,14.72,716857
12-May-14,16.09,16.59,16.05,16.41,140212
9-May-14,16.00,16.17,15.94,16.04,52211
8-May-14,16.18,16.58,16.07,16.10,33358
7-May-14,16.17,16.33,16.02,16.30,46721
6-May-14,16.59,16.97,16.09,16.10,72136
5-May-14,16.50,16.84,16.50,16.70,75935
2-May-14,16.86,16.98,16.59,16.65,76308
1-May-14,17.00,17.00,16.59,16.89,74628
30-Apr-14,16.90,17.10,16.68,17.00,42693
29-Apr-14,16.86,17.13,16.76,16.99,74891
28-Apr-14,17.01,17.19,16.70,16.73,71154
25-Apr-14,17.55,17.55,16.60,16.96,60894
24-Apr-14,18.21,18.21,17.58,17.68,106187
23-Apr-14,18.51,18.51,17.83,18.15,54471
22-Apr-14,17.95,18.84,17.95,18.48,73791
21-Apr-14,17.95,17.98,17.42,17.91,68438
17-Apr-14,17.32,18.24,17.32,18.00,57891
16-Apr-14,16.99,17.73,16.71,17.33,49027
15-Apr-14,17.17,17.17,16.67,16.81,112557
14-Apr-14,17.82,18.62,16.58,17.07,154614
11-Apr-14,18.06,18.11,17.54,17.59,75988
10-Apr-14,18.83,18.95,18.07,18.25,96979
9-Apr-14,18.38,19.06,18.24,18.89,73501
8-Apr-14,18.53,18.56,17.98,18.23,146168
7-Apr-14,19.60,19.71,18.17,18.48,133649
4-Apr-14,19.08,19.86,18.84,19.68,140628
3-Apr-14,19.14,19.14,18.80,19.00,155568
2-Apr-14,19.03,19.26,18.97,19.15,56138
1-Apr-14,19.03,19.19,18.68,19.00,217870
31-Mar-14,18.25,19.02,17.59,18.84,1257604
28-Mar-14,18.25,18.53,18.00,18.10,327534
27-Mar-14,18.21,18.28,17.89,17.99,227091
26-Mar-14,19.08,19.12,17.76,18.28,326305
25-Mar-14,19.10,19.23,18.85,18.98,173231
24-Mar-14,19.51,19.51,18.63,19.01,209791
21-Mar-14,19.98,19.98,18.97,19.21,691703
20-Mar-14,19.11,20.32,18.90,19.95,382731
19-Mar-14,18.69,19.40,18.53,19.21,250866
18-Mar-14,18.76,19.05,18.63,18.69,173948
17-Mar-14,18.73,19.10,18.59,18.70,152558
14-Mar-14,19.04,19.24,18.43,18.58,102838
13-Mar-14,19.64,20.06,18.91,19.16,118923
12-Mar-14,19.82,19.95,19.47,19.69,142244
11-Mar-14,20.02,20.31,19.82,19.90,302552
10-Mar-14,20.08,20.51,19.85,19.97,203150
7-Mar-14,19.92,20.03,19.28,20.02,182473
6-Mar-14,19.91,20.05,19.64,19.93,155718
5-Mar-14,19.95,20.29,19.75,19.83,175855
4-Mar-14,19.94,20.16,19.75,19.90,165095
3-Mar-14,19.56,19.70,18.77,19.68,314681
28-Feb-14,19.35,19.91,18.46,19.55,221344
27-Feb-14,19.27,19.90,18.65,19.40,135952
26-Feb-14,18.25,19.59,18.22,19.25,229880
25-Feb-14,17.92,18.37,17.64,18.25,502530
24-Feb-14,17.85,18.54,17.10,17.92,333190
21-Feb-14,17.47,18.35,17.28,17.75,271267
20-Feb-14,17.44,17.59,16.87,17.50,253116
19-Feb-14,17.00,17.50,16.54,17.50,184728
18-Feb-14,17.21,17.25,16.50,16.92,363211
14-Feb-14,17.20,17.47,16.90,17.00,81499
13-Feb-14,16.90,17.34,16.85,17.30,524319
12-Feb-14,17.43,17.47,17.09,17.34,179054
11-Feb-14,17.06,17.43,16.77,17.31,106699
10-Feb-14,17.00,17.77,16.84,17.27,229393
7-Feb-14,16.79,17.30,16.44,17.30,151513
6-Feb-14,15.34,17.74,15.34,16.90,1120563
5-Feb-14,14.66,16.00,14.00,15.19,7478549
