﻿Date,Open,High,Low,Close,Volume
20-Jun-17,33.83,33.83,32.15,32.70,1339564
19-Jun-17,34.43,34.47,33.52,34.36,1183720
16-Jun-17,33.23,34.25,32.78,34.19,4903155
15-Jun-17,34.00,34.21,32.59,33.19,1306495
14-Jun-17,36.00,36.00,34.00,34.45,1443669
13-Jun-17,35.42,36.78,34.79,36.06,1477063
12-Jun-17,34.74,35.43,34.37,35.28,1802879
9-Jun-17,32.58,34.93,32.50,34.83,1165130
8-Jun-17,32.46,33.17,32.28,32.48,522057
7-Jun-17,33.94,34.64,32.45,32.69,1349410
6-Jun-17,33.48,34.50,33.03,34.17,1013768
5-Jun-17,33.65,34.09,33.26,33.59,711962
2-Jun-17,34.03,34.03,32.76,33.63,541125
1-Jun-17,33.70,34.49,32.72,34.17,698576
31-May-17,33.69,34.05,33.18,33.76,482424
30-May-17,34.62,34.87,33.34,34.12,553754
26-May-17,33.77,35.00,33.76,34.96,676856
25-May-17,34.31,35.14,33.66,33.81,636061
24-May-17,34.91,35.09,34.37,34.60,436888
23-May-17,35.07,35.16,34.61,34.97,713596
22-May-17,34.67,35.01,34.46,34.85,406663
19-May-17,32.99,34.88,32.81,34.79,673017
18-May-17,32.09,33.06,31.77,32.79,508052
17-May-17,32.79,33.37,32.03,32.41,511887
16-May-17,33.39,33.53,32.30,32.81,351850
15-May-17,31.77,33.03,31.66,32.75,438084
12-May-17,31.48,31.78,30.89,31.13,256805
11-May-17,32.10,33.04,31.35,31.48,809770
10-May-17,30.69,31.96,30.51,31.45,1544220
9-May-17,29.60,30.59,29.34,29.43,242681
8-May-17,30.30,31.07,29.88,30.00,245854
5-May-17,28.26,30.75,28.26,30.42,448118
4-May-17,30.12,30.22,27.97,28.17,633699
3-May-17,30.34,30.94,29.81,30.41,481733
2-May-17,29.35,30.00,29.25,29.96,414338
1-May-17,29.36,29.50,28.95,29.13,380594
28-Apr-17,30.13,30.13,28.95,29.21,469318
27-Apr-17,31.20,31.33,29.68,30.03,399373
26-Apr-17,31.00,31.76,30.90,31.41,456542
25-Apr-17,30.92,31.58,30.85,31.06,575315
24-Apr-17,31.45,31.62,30.23,30.94,562342
21-Apr-17,30.82,31.36,30.45,31.05,339895
20-Apr-17,30.25,31.70,30.20,31.07,510347
19-Apr-17,32.14,32.78,29.87,30.30,1464879
18-Apr-17,32.76,33.19,31.94,31.96,475013
17-Apr-17,33.98,34.19,32.95,33.09,371842
13-Apr-17,34.64,34.64,33.08,33.91,431238
12-Apr-17,34.12,34.95,33.65,34.09,301911
11-Apr-17,34.00,34.86,33.63,34.18,529346
10-Apr-17,33.80,34.62,33.64,34.24,1404292
7-Apr-17,34.00,34.78,33.50,33.50,7851286
6-Apr-17,36.46,37.86,36.45,37.49,230984
5-Apr-17,36.05,36.99,35.16,36.44,279410
4-Apr-17,35.35,36.84,34.84,35.71,214078
3-Apr-17,34.17,35.69,33.41,35.51,324072
31-Mar-17,34.17,34.45,33.48,34.05,191190
30-Mar-17,34.90,35.48,33.66,34.23,233289
29-Mar-17,33.40,35.13,33.40,34.93,279237
28-Mar-17,32.55,33.70,32.48,33.37,471577
27-Mar-17,33.34,33.50,32.00,32.49,700487
24-Mar-17,33.62,34.33,33.05,33.61,146724
23-Mar-17,33.97,34.22,33.50,33.84,184351
22-Mar-17,35.65,36.45,33.75,34.20,229111
21-Mar-17,36.64,37.77,35.20,35.90,282753
20-Mar-17,36.93,38.50,36.23,36.40,212773
17-Mar-17,38.50,38.92,36.57,36.83,278846
16-Mar-17,38.37,39.14,37.30,38.17,92780
15-Mar-17,36.75,38.71,35.40,38.58,267535
14-Mar-17,36.39,36.92,34.49,35.97,369517
13-Mar-17,35.98,37.83,35.94,36.50,171078
10-Mar-17,36.65,36.94,35.36,36.30,524704
9-Mar-17,38.46,38.58,35.29,36.68,518393
8-Mar-17,40.15,40.15,38.28,38.44,310004
7-Mar-17,41.00,42.06,39.65,40.50,309549
6-Mar-17,41.65,42.60,40.70,41.00,328555
