﻿Date,Open,High,Low,Close,Volume
20-Jun-17,15.91,16.10,15.65,15.86,2979983
19-Jun-17,15.90,16.04,15.66,15.90,2719482
16-Jun-17,15.65,15.98,15.50,15.92,3724520
15-Jun-17,16.07,16.22,15.62,15.64,3658779
14-Jun-17,16.20,16.34,16.03,16.22,1324619
13-Jun-17,16.44,16.48,16.16,16.31,1254347
12-Jun-17,16.45,16.62,16.34,16.38,1208732
9-Jun-17,16.45,16.88,16.34,16.55,2471107
8-Jun-17,16.34,16.46,16.31,16.33,828940
7-Jun-17,16.77,16.80,16.30,16.34,2050430
6-Jun-17,16.45,16.87,16.28,16.80,1863347
5-Jun-17,16.54,16.66,16.32,16.60,1223583
2-Jun-17,16.53,16.59,16.34,16.49,634899
1-Jun-17,16.38,16.62,16.31,16.57,1214905
31-May-17,16.23,16.46,16.01,16.41,1749982
30-May-17,16.16,16.33,16.15,16.17,983290
26-May-17,16.45,16.45,16.11,16.19,1044548
25-May-17,16.57,16.61,16.39,16.43,1180336
24-May-17,16.55,16.58,16.25,16.50,1276552
23-May-17,16.82,16.86,16.45,16.46,1401580
22-May-17,16.66,16.81,16.45,16.78,1822822
19-May-17,16.75,17.00,16.60,16.65,2518332
18-May-17,16.53,16.79,16.49,16.70,1616456
17-May-17,17.35,17.36,16.51,16.58,2112951
16-May-17,17.35,17.43,17.06,17.27,2147319
15-May-17,16.86,17.29,16.84,17.05,2962437
12-May-17,16.71,16.88,16.59,16.82,1852649
11-May-17,16.94,16.94,16.21,16.84,2751311
10-May-17,17.07,17.40,16.89,16.92,4994225
9-May-17,17.75,17.95,17.46,17.50,2599172
8-May-17,17.64,18.14,17.62,17.70,5741719
5-May-17,17.25,17.76,17.20,17.69,2064704
4-May-17,16.95,17.32,16.89,17.27,1742217
3-May-17,16.31,17.03,16.31,16.99,4747047
2-May-17,16.47,16.50,16.24,16.41,1657675
1-May-17,16.32,16.45,16.23,16.40,1072037
28-Apr-17,16.46,16.52,16.18,16.31,1077916
27-Apr-17,16.34,16.65,16.32,16.44,1278165
26-Apr-17,16.10,16.50,16.01,16.40,1385337
25-Apr-17,15.93,16.17,15.81,16.10,3495226
24-Apr-17,16.24,16.24,15.90,15.96,1878993
21-Apr-17,15.99,16.13,15.93,16.05,997578
20-Apr-17,16.00,16.01,15.85,15.94,790598
19-Apr-17,15.82,16.06,15.73,15.90,1238973
18-Apr-17,16.04,16.13,15.81,15.83,1470513
17-Apr-17,15.88,16.17,15.85,16.07,1308268
13-Apr-17,15.94,15.98,15.74,15.78,1045609
12-Apr-17,16.08,16.08,15.90,15.92,1129340
11-Apr-17,16.30,16.37,15.94,16.07,1134682
10-Apr-17,16.38,16.45,16.28,16.32,1245537
7-Apr-17,16.25,16.43,15.98,16.38,2692121
6-Apr-17,16.22,16.50,16.13,16.25,1438967
5-Apr-17,16.36,16.41,16.23,16.23,1717458
4-Apr-17,16.40,16.58,16.30,16.30,1930292
3-Apr-17,16.78,16.96,16.39,16.40,2113446
31-Mar-17,16.77,17.16,16.72,16.78,5330320
30-Mar-17,16.33,16.81,16.31,16.76,2645015
29-Mar-17,15.93,16.46,15.86,16.33,1802511
28-Mar-17,15.83,16.18,15.72,15.97,4590933
27-Mar-17,15.68,15.97,15.67,15.92,1210046
24-Mar-17,15.91,16.02,15.75,15.81,1296173
23-Mar-17,16.06,16.17,15.94,15.99,2429871
22-Mar-17,15.89,16.24,15.89,16.04,2021554
21-Mar-17,16.06,16.34,15.85,15.92,3591143
20-Mar-17,15.75,16.09,15.63,16.02,1779771
17-Mar-17,15.82,15.85,15.71,15.74,2890631
16-Mar-17,16.05,16.08,15.63,15.78,2483449
15-Mar-17,15.95,16.14,15.88,16.05,1964985
14-Mar-17,15.80,16.02,15.73,15.96,1680511
13-Mar-17,15.62,15.99,15.59,15.87,1933938
10-Mar-17,15.45,15.72,15.42,15.64,2304369
9-Mar-17,15.54,15.95,15.49,15.61,2477174
8-Mar-17,15.51,16.01,15.48,15.58,5568598
7-Mar-17,15.70,15.73,15.43,15.55,4974261
6-Mar-17,15.90,16.07,15.66,15.67,2508774
3-Mar-17,15.99,16.11,15.90,15.93,2058177
2-Mar-17,16.34,16.36,15.98,15.98,2129294
1-Mar-17,16.23,16.46,15.79,16.31,3030921
28-Feb-17,16.60,16.65,16.04,16.09,2576978
27-Feb-17,16.70,17.11,16.59,16.60,2854588
24-Feb-17,17.07,17.12,15.90,16.97,6099208
23-Feb-17,16.49,17.44,16.40,17.25,5702424
22-Feb-17,15.30,16.65,15.11,16.38,6900717
21-Feb-17,15.00,15.18,15.00,15.09,2672501
17-Feb-17,14.98,15.29,14.86,15.02,2640257
16-Feb-17,15.15,15.19,14.94,15.10,2197310
15-Feb-17,15.11,15.25,15.00,15.12,2028920
14-Feb-17,14.66,15.26,14.66,15.11,2536824
13-Feb-17,14.64,14.73,14.44,14.72,2085361
10-Feb-17,14.55,14.73,14.54,14.56,1376802
9-Feb-17,14.30,14.70,14.11,14.51,1085705
8-Feb-17,14.50,14.56,14.31,14.35,1401519
7-Feb-17,14.64,14.80,14.36,14.57,3487734
6-Feb-17,14.84,14.91,14.56,14.62,1672255
3-Feb-17,14.69,14.95,14.56,14.94,1708772
2-Feb-17,14.68,14.70,14.45,14.51,1397894
1-Feb-17,14.98,14.98,14.64,14.74,2116608
31-Jan-17,14.94,15.11,14.70,14.96,4199605
30-Jan-17,14.87,14.93,14.76,14.85,2721088
27-Jan-17,15.10,15.14,14.85,14.91,1512062
26-Jan-17,14.95,15.38,14.85,15.03,10223467
25-Jan-17,14.55,14.89,14.46,14.82,2931008
24-Jan-17,14.60,14.63,14.41,14.54,3009365
23-Jan-17,14.37,14.57,14.32,14.56,2884999
20-Jan-17,14.58,14.60,14.40,14.46,3819240
19-Jan-17,14.40,14.62,14.35,14.49,4354515
18-Jan-17,14.25,14.58,14.23,14.52,5287705
17-Jan-17,13.80,14.31,13.77,14.19,3303308
13-Jan-17,14.21,14.35,13.75,13.97,6909558
12-Jan-17,13.14,14.32,13.10,13.97,10798337
11-Jan-17,13.55,13.78,13.30,13.31,11058663
10-Jan-17,13.87,14.12,13.33,13.42,10401291
9-Jan-17,14.32,14.40,13.92,13.92,8051967
6-Jan-17,14.19,14.95,14.06,14.63,12016443
5-Jan-17,13.65,14.19,13.65,14.11,7455051
4-Jan-17,13.80,14.04,13.51,13.70,11930070
3-Jan-17,14.84,14.94,13.48,13.72,44725149
30-Dec-16,15.00,15.17,14.65,14.90,942939
29-Dec-16,14.85,15.02,14.81,14.94,436357
28-Dec-16,14.75,14.88,14.50,14.85,468601
27-Dec-16,14.73,14.92,14.50,14.65,334857
23-Dec-16,14.40,14.70,14.40,14.60,642593
22-Dec-16,14.51,14.75,14.00,14.36,1912276
21-Dec-16,14.75,14.98,14.60,14.75,556551
20-Dec-16,15.01,15.24,14.95,15.00,555610
19-Dec-16,15.00,15.09,14.85,14.92,293028
16-Dec-16,14.60,15.45,13.90,15.20,1204878
15-Dec-16,15.25,15.25,13.94,14.30,666093
14-Dec-16,15.90,16.05,15.00,15.18,838249
13-Dec-16,15.05,16.26,15.05,16.00,104373
