﻿Date,Open,High,Low,Close,Volume
20-Jun-17,35.80,36.10,35.00,35.31,1924738
19-Jun-17,37.12,37.37,36.50,36.94,512034
16-Jun-17,36.70,37.02,36.27,36.83,1066652
15-Jun-17,36.23,37.13,36.03,36.99,330639
14-Jun-17,37.27,37.37,36.39,36.87,340807
13-Jun-17,36.84,37.28,36.27,37.28,562789
12-Jun-17,36.60,37.22,34.48,36.75,898516
9-Jun-17,38.05,38.47,35.86,37.00,650138
8-Jun-17,38.08,38.38,37.39,38.06,276247
7-Jun-17,38.33,38.70,37.89,37.98,417580
6-Jun-17,38.55,38.98,38.36,38.40,248664
5-Jun-17,39.40,39.60,38.74,38.81,768575
2-Jun-17,38.85,39.58,38.42,39.43,563967
1-Jun-17,37.45,38.81,36.70,38.79,679279
31-May-17,36.72,37.39,36.21,37.36,482278
30-May-17,37.48,38.18,36.57,36.60,449917
26-May-17,38.01,38.01,37.12,37.56,316471
25-May-17,37.82,38.32,37.82,38.04,310845
24-May-17,37.88,38.14,37.46,37.63,292280
23-May-17,37.41,38.00,37.10,37.75,419662
22-May-17,36.91,37.38,36.68,37.29,394837
19-May-17,36.93,37.74,36.73,36.81,797287
18-May-17,36.67,37.35,36.36,36.78,913098
17-May-17,37.95,38.39,36.78,36.80,750921
16-May-17,38.54,38.83,38.28,38.63,421189
15-May-17,37.80,38.60,37.70,38.38,343674
12-May-17,38.03,38.48,37.35,37.65,328338
11-May-17,38.52,38.62,38.16,38.37,408275
10-May-17,38.32,38.85,38.00,38.71,283701
9-May-17,38.55,38.79,38.10,38.36,359600
8-May-17,39.11,39.18,38.39,38.43,393929
5-May-17,38.19,39.21,37.71,39.19,578139
4-May-17,39.62,39.62,37.43,37.91,1073667
3-May-17,40.25,41.00,38.67,39.51,837981
2-May-17,39.00,39.31,38.33,39.24,614201
1-May-17,39.36,39.58,38.72,38.86,546840
28-Apr-17,39.18,39.36,38.30,39.28,645156
27-Apr-17,38.53,39.15,38.43,39.05,461569
26-Apr-17,38.07,38.51,37.85,38.45,316948
25-Apr-17,37.61,38.65,37.50,38.18,665652
24-Apr-17,37.48,37.53,37.02,37.32,410858
21-Apr-17,36.44,37.08,35.83,36.80,314508
20-Apr-17,36.45,36.82,35.94,36.58,277616
19-Apr-17,36.79,36.99,35.91,36.23,370134
18-Apr-17,35.68,36.51,35.65,36.46,444570
17-Apr-17,35.90,36.17,35.37,35.74,585837
13-Apr-17,36.14,36.29,35.66,35.73,973212
12-Apr-17,37.12,37.26,36.22,36.25,518517
11-Apr-17,37.01,37.32,36.78,37.15,664361
10-Apr-17,37.52,37.73,37.11,37.13,228868
7-Apr-17,37.66,37.81,37.04,37.50,492772
6-Apr-17,37.46,37.79,36.88,37.78,1288641
5-Apr-17,37.88,38.47,37.36,37.38,383248
4-Apr-17,38.55,39.08,37.73,37.81,379890
3-Apr-17,38.89,39.14,38.00,38.59,530311
31-Mar-17,38.93,39.65,38.76,38.89,430657
30-Mar-17,39.36,39.42,38.92,39.00,256797
29-Mar-17,39.35,39.61,39.15,39.38,276844
28-Mar-17,38.93,39.43,38.23,39.32,455956
27-Mar-17,38.48,39.33,38.12,39.07,373948
24-Mar-17,38.71,39.91,38.60,38.91,400027
23-Mar-17,38.29,38.72,37.98,38.54,474277
22-Mar-17,38.39,39.05,37.41,38.36,536014
21-Mar-17,40.03,40.19,38.42,38.50,681537
20-Mar-17,40.21,40.28,39.58,39.93,427621
17-Mar-17,40.48,40.50,39.99,40.34,660692
16-Mar-17,40.87,40.98,40.49,40.51,459976
15-Mar-17,40.88,40.92,40.47,40.79,259060
14-Mar-17,40.76,40.94,39.99,40.82,364565
13-Mar-17,41.00,41.56,40.85,40.93,493958
10-Mar-17,40.76,41.12,40.58,41.03,414401
9-Mar-17,40.17,40.61,39.91,40.52,307571
8-Mar-17,40.06,40.39,39.82,40.18,371504
7-Mar-17,39.99,40.72,39.07,40.03,693577
6-Mar-17,41.59,41.59,40.70,41.35,428561
3-Mar-17,41.63,42.16,41.50,41.73,434682
2-Mar-17,43.00,43.00,41.74,41.81,883023
1-Mar-17,42.21,43.20,41.86,43.11,630160
28-Feb-17,42.37,42.38,41.69,41.77,730266
27-Feb-17,42.08,42.84,42.04,42.65,498271
24-Feb-17,41.84,42.33,41.77,42.25,496733
23-Feb-17,43.69,43.74,41.79,42.33,953854
22-Feb-17,43.57,44.25,43.52,43.69,682690
21-Feb-17,43.15,43.79,43.05,43.75,597847
17-Feb-17,42.47,43.03,41.51,43.00,568633
16-Feb-17,43.00,43.12,41.92,42.50,582433
15-Feb-17,41.52,43.16,41.29,42.81,1260518
14-Feb-17,43.00,43.74,40.63,41.61,2761063
13-Feb-17,42.04,42.26,39.49,40.02,1931917
10-Feb-17,41.55,42.35,41.47,42.08,805346
9-Feb-17,41.21,41.90,41.16,41.55,864665
8-Feb-17,42.28,42.28,40.99,41.00,556738
7-Feb-17,42.25,42.63,41.93,42.11,458068
6-Feb-17,42.60,42.70,42.02,42.06,507764
3-Feb-17,42.00,42.59,42.00,42.44,656391
2-Feb-17,41.32,41.85,40.57,41.56,359363
1-Feb-17,40.99,41.51,40.72,41.43,712644
31-Jan-17,40.43,40.84,40.23,40.69,474543
30-Jan-17,40.78,40.78,39.81,40.65,483987
27-Jan-17,41.19,41.28,40.30,41.03,412562
26-Jan-17,41.52,41.56,40.72,41.06,363295
25-Jan-17,41.83,42.32,41.15,41.27,751517
24-Jan-17,40.98,41.62,40.86,41.46,356465
23-Jan-17,40.77,41.68,40.52,40.87,564553
20-Jan-17,41.21,41.62,40.55,40.95,815289
19-Jan-17,41.42,41.71,41.01,41.22,679461
18-Jan-17,41.17,41.65,40.95,41.49,583206
17-Jan-17,41.87,41.87,40.73,41.07,564115
13-Jan-17,41.77,42.13,41.56,41.73,799342
12-Jan-17,41.90,42.10,41.27,41.60,673768
11-Jan-17,42.23,42.46,41.85,42.11,575661
10-Jan-17,41.98,42.61,41.77,42.21,499690
9-Jan-17,42.10,42.45,41.85,41.93,483909
6-Jan-17,42.68,42.68,42.00,42.25,375733
5-Jan-17,42.46,42.64,41.84,42.27,519710
4-Jan-17,41.88,42.70,41.60,42.63,637059
3-Jan-17,42.84,42.84,41.52,41.95,675914
30-Dec-16,42.68,43.00,42.14,42.31,541974
29-Dec-16,42.46,42.88,42.35,42.62,390359
28-Dec-16,42.95,42.95,41.98,42.44,300606
27-Dec-16,41.91,43.00,41.51,42.85,328103
23-Dec-16,41.33,41.96,41.15,41.91,227117
22-Dec-16,42.00,42.12,41.40,41.48,585244
21-Dec-16,41.60,42.27,41.20,42.07,400645
20-Dec-16,41.83,41.98,41.05,41.47,335665
19-Dec-16,41.46,41.96,41.23,41.58,483806
16-Dec-16,41.84,42.00,41.32,41.52,786473
15-Dec-16,41.72,41.96,41.21,41.63,737982
14-Dec-16,41.91,42.66,41.41,41.76,837322
13-Dec-16,41.08,43.36,41.08,42.02,1656655
12-Dec-16,42.01,42.75,40.87,41.08,3377702
9-Dec-16,39.33,39.40,37.88,39.10,971073
8-Dec-16,37.33,39.48,37.30,39.21,1361476
7-Dec-16,36.80,37.65,35.89,37.46,897775
6-Dec-16,35.43,36.99,34.94,36.71,777706
5-Dec-16,34.33,35.27,33.95,35.22,713526
2-Dec-16,33.74,34.31,32.88,34.28,1395809
1-Dec-16,35.98,36.76,33.74,34.27,1384895
30-Nov-16,36.70,36.84,35.62,35.91,1088602
29-Nov-16,36.84,36.95,36.42,36.48,301813
28-Nov-16,37.27,37.67,36.45,36.66,287154
25-Nov-16,37.25,37.45,36.57,37.32,105381
23-Nov-16,37.45,37.61,37.03,37.29,322373
22-Nov-16,37.63,37.63,36.65,37.29,411615
21-Nov-16,37.88,38.26,37.24,37.42,527307
18-Nov-16,38.41,38.41,37.51,37.85,557795
17-Nov-16,38.77,39.00,38.19,38.20,811277
16-Nov-16,38.16,38.90,37.71,38.88,1034859
15-Nov-16,36.07,38.94,36.04,38.36,1642304
14-Nov-16,36.00,37.59,35.43,36.13,1963487
11-Nov-16,33.77,35.27,33.45,35.26,825388
10-Nov-16,35.09,35.50,33.22,33.82,1019639
9-Nov-16,34.11,34.81,33.51,34.65,685996
8-Nov-16,33.31,34.79,32.91,34.54,1467293
7-Nov-16,31.97,33.61,31.70,33.42,2586553
4-Nov-16,31.00,32.39,30.31,31.55,6658001
3-Nov-16,39.82,40.09,38.92,39.35,772752
2-Nov-16,40.01,40.12,38.78,39.46,1486466
1-Nov-16,41.52,41.74,40.96,41.50,383495
31-Oct-16,41.39,41.70,41.01,41.30,506644
28-Oct-16,39.96,41.51,39.96,41.44,939796
27-Oct-16,41.05,41.72,39.86,39.89,426982
26-Oct-16,41.96,42.20,40.41,40.62,505782
25-Oct-16,42.90,42.94,41.89,42.20,247179
24-Oct-16,42.07,42.86,41.97,42.75,272072
21-Oct-16,41.05,41.92,40.99,41.81,264490
20-Oct-16,41.01,41.33,40.80,41.30,229852
19-Oct-16,40.51,41.54,40.51,41.25,388785
18-Oct-16,40.75,41.02,40.24,40.60,387168
17-Oct-16,39.69,40.32,39.68,40.19,423465
14-Oct-16,40.55,41.05,39.72,39.80,789555
13-Oct-16,40.84,41.34,40.38,40.53,493532
12-Oct-16,42.41,43.15,41.30,41.35,808415
11-Oct-16,44.30,44.31,42.49,42.56,463445
10-Oct-16,44.13,44.77,43.60,44.28,499047
7-Oct-16,44.73,44.74,42.72,43.60,786837
6-Oct-16,44.80,45.21,44.53,44.96,197455
5-Oct-16,44.75,44.98,44.32,44.74,358203
4-Oct-16,45.83,45.83,44.35,44.76,464138
3-Oct-16,46.33,46.60,45.44,45.88,337540
30-Sep-16,46.30,46.68,45.81,45.95,341254
29-Sep-16,46.94,47.25,46.22,46.35,215267
28-Sep-16,46.95,47.24,46.72,47.17,406171
27-Sep-16,46.73,47.32,46.38,47.08,397527
26-Sep-16,46.22,46.85,45.92,46.61,394523
23-Sep-16,46.49,46.93,46.33,46.60,470224
22-Sep-16,45.95,46.83,45.95,46.38,398581
21-Sep-16,44.86,45.95,44.86,45.76,465415
20-Sep-16,44.49,44.81,44.17,44.69,312909
19-Sep-16,44.55,45.57,43.91,44.62,380406
16-Sep-16,44.05,44.80,43.48,44.50,576905
15-Sep-16,44.03,44.40,43.52,43.95,431870
14-Sep-16,44.49,44.91,43.83,44.09,227753
13-Sep-16,45.14,45.20,43.72,44.48,425487
12-Sep-16,44.51,45.45,44.06,45.38,381320
9-Sep-16,45.12,45.36,44.48,44.96,593971
8-Sep-16,46.74,47.00,45.46,45.56,346876
7-Sep-16,46.92,47.56,46.78,47.00,288728
6-Sep-16,47.00,47.75,46.74,47.06,1052403
2-Sep-16,45.00,46.86,44.85,46.72,928852
1-Sep-16,43.52,44.89,43.24,44.82,729311
31-Aug-16,44.17,44.27,43.56,43.92,274214
30-Aug-16,43.80,44.21,43.67,44.16,177211
29-Aug-16,43.75,44.34,43.60,43.67,298860
26-Aug-16,44.36,44.36,43.43,43.61,443188
25-Aug-16,44.25,44.74,43.83,44.45,268003
24-Aug-16,44.83,44.95,44.00,44.16,229198
23-Aug-16,44.22,44.96,43.69,44.64,244751
22-Aug-16,43.62,44.27,43.55,44.18,313679
19-Aug-16,44.18,44.20,43.70,43.87,307805
18-Aug-16,43.82,44.52,43.48,44.19,412440
17-Aug-16,44.71,44.71,43.66,43.95,275667
16-Aug-16,45.68,45.71,44.72,44.75,258980
15-Aug-16,44.54,46.02,44.13,45.68,660919
12-Aug-16,44.52,44.58,43.99,44.56,282973
11-Aug-16,44.76,45.38,44.50,44.64,361513
10-Aug-16,44.93,45.02,44.34,44.73,335504
9-Aug-16,44.72,44.95,44.37,44.73,356289
8-Aug-16,45.08,45.46,44.40,44.76,677789
5-Aug-16,44.05,46.54,43.38,45.08,1288341
4-Aug-16,43.22,44.33,41.05,43.56,977798
3-Aug-16,42.43,43.53,39.97,43.39,886267
2-Aug-16,43.74,43.92,42.52,42.80,621512
1-Aug-16,43.35,44.15,42.32,44.08,567930
29-Jul-16,43.86,43.86,41.80,43.19,996464
28-Jul-16,43.56,45.00,42.52,43.95,978505
27-Jul-16,42.85,43.42,42.43,43.24,286964
26-Jul-16,42.57,43.50,42.02,42.71,305481
25-Jul-16,42.54,43.37,42.17,42.82,668341
22-Jul-16,41.47,42.91,41.30,42.70,502200
21-Jul-16,42.76,42.76,41.13,41.53,781463
20-Jul-16,42.46,43.72,42.10,42.92,470867
19-Jul-16,42.41,43.21,42.11,42.17,350971
18-Jul-16,43.15,43.89,42.79,42.89,498887
15-Jul-16,43.52,43.65,42.82,43.15,598471
14-Jul-16,41.12,43.61,40.68,43.09,1976175
13-Jul-16,40.72,41.13,39.93,40.02,434188
12-Jul-16,39.46,41.39,39.17,40.62,1134204
11-Jul-16,38.72,39.41,38.29,39.14,565947
8-Jul-16,37.89,38.67,37.67,38.59,850086
7-Jul-16,38.32,38.32,37.57,37.88,385159
6-Jul-16,38.15,38.85,37.90,38.27,321510
5-Jul-16,38.39,38.95,37.48,38.24,524004
1-Jul-16,38.30,39.90,38.30,38.67,533367
30-Jun-16,37.76,38.07,37.15,38.06,715217
29-Jun-16,36.77,37.88,36.46,37.62,865845
28-Jun-16,36.80,37.80,36.28,36.49,1087943
27-Jun-16,39.38,39.42,36.35,36.63,1174378
24-Jun-16,40.97,41.72,39.48,39.82,1189000
23-Jun-16,42.25,43.14,41.72,43.08,532862
22-Jun-16,42.99,42.99,41.60,41.69,378432
21-Jun-16,42.79,43.19,42.32,42.87,292549
20-Jun-16,42.14,43.00,41.74,42.59,453950
17-Jun-16,42.12,42.16,40.57,41.72,960810
16-Jun-16,42.01,42.36,41.57,42.01,696500
15-Jun-16,42.10,42.30,41.83,41.89,351633
14-Jun-16,41.77,42.25,41.56,42.09,387674
13-Jun-16,41.58,42.60,41.51,42.05,490720
10-Jun-16,41.61,42.49,41.40,41.86,486645
9-Jun-16,42.63,42.80,41.90,42.11,548753
8-Jun-16,42.47,43.38,41.74,42.95,684381
7-Jun-16,42.49,42.63,42.07,42.45,389824
6-Jun-16,42.31,42.61,41.99,42.50,623180
3-Jun-16,41.76,42.42,41.28,42.15,672067
2-Jun-16,40.64,42.04,40.27,42.00,1082398
1-Jun-16,40.26,41.19,39.64,40.79,1331273
31-May-16,39.50,40.40,39.08,40.01,779720
27-May-16,38.42,39.50,38.42,39.47,431469
26-May-16,37.92,38.52,37.82,38.50,255924
25-May-16,37.67,37.85,37.38,37.73,255639
24-May-16,37.10,37.65,36.90,37.60,371691
23-May-16,37.25,38.00,35.54,37.03,393895
20-May-16,36.83,37.16,35.36,37.11,376167
19-May-16,36.57,36.97,36.01,36.53,277871
18-May-16,36.12,37.08,36.02,36.71,340582
17-May-16,37.09,37.46,36.13,36.27,478845
16-May-16,37.27,37.44,36.80,37.10,327014
13-May-16,37.24,37.67,36.82,37.09,362459
12-May-16,37.65,37.71,36.73,37.33,665380
11-May-16,37.19,37.91,36.48,37.51,661649
10-May-16,36.57,37.14,35.92,37.12,634124
9-May-16,35.00,36.65,34.80,36.13,827504
6-May-16,33.78,35.18,33.53,35.16,609299
5-May-16,35.00,35.40,33.48,34.06,1484250
4-May-16,33.47,33.63,32.74,33.14,901480
3-May-16,34.08,34.24,33.40,33.57,418774
2-May-16,34.59,34.62,33.84,34.30,636596
29-Apr-16,34.12,34.73,33.91,34.35,364667
28-Apr-16,33.38,34.65,33.38,34.04,458672
27-Apr-16,33.97,33.99,33.42,33.59,354195
26-Apr-16,33.77,33.96,33.50,33.87,300340
25-Apr-16,33.70,34.07,33.02,33.71,350627
22-Apr-16,34.30,34.30,33.67,33.76,361261
21-Apr-16,33.67,34.64,33.50,34.47,438754
20-Apr-16,33.51,33.78,33.15,33.51,257852
19-Apr-16,34.25,34.45,33.53,33.60,389529
18-Apr-16,33.19,34.53,33.19,34.13,484346
15-Apr-16,33.82,33.84,33.08,33.38,296348
14-Apr-16,33.96,34.18,33.57,33.82,594634
13-Apr-16,33.12,34.11,33.01,34.06,288393
12-Apr-16,33.04,33.05,32.13,32.92,389863
11-Apr-16,34.00,34.50,32.97,33.00,290197
8-Apr-16,33.49,34.09,33.19,33.86,485326
7-Apr-16,34.00,34.27,32.96,33.24,555400
6-Apr-16,33.54,34.49,33.48,34.35,348838
5-Apr-16,33.04,34.10,32.95,33.59,400212
4-Apr-16,33.00,33.75,32.47,33.35,495541
1-Apr-16,32.50,32.96,32.16,32.93,396486
31-Mar-16,32.71,33.17,32.19,32.77,461949
30-Mar-16,32.94,33.51,32.49,32.63,441093
29-Mar-16,31.98,33.00,31.23,32.84,394570
28-Mar-16,32.40,32.54,30.88,31.99,354018
24-Mar-16,31.75,32.49,31.67,32.36,348804
23-Mar-16,32.76,33.02,31.91,32.01,240237
22-Mar-16,32.89,33.68,31.60,32.78,281434
21-Mar-16,32.91,33.38,32.56,32.99,375341
18-Mar-16,32.49,33.58,32.08,33.05,560103
17-Mar-16,31.66,32.52,31.50,32.33,360109
16-Mar-16,30.87,31.95,30.84,31.88,367700
15-Mar-16,30.99,31.27,30.60,31.14,327428
14-Mar-16,31.29,31.57,30.28,31.12,341677
11-Mar-16,30.61,31.35,30.27,31.32,557568
10-Mar-16,30.79,31.03,30.03,30.51,365986
9-Mar-16,30.63,31.11,30.10,30.55,395739
8-Mar-16,30.91,31.33,30.50,30.63,483704
7-Mar-16,31.07,31.40,29.89,31.01,395779
4-Mar-16,30.76,31.65,30.24,31.23,437749
3-Mar-16,30.00,30.80,29.86,30.76,602805
2-Mar-16,29.30,29.82,28.82,29.79,460403
1-Mar-16,29.14,29.58,28.71,29.40,858468
29-Feb-16,29.31,29.85,28.75,28.80,540579
26-Feb-16,29.00,29.41,28.46,29.23,642811
25-Feb-16,28.27,28.92,27.85,28.86,943219
24-Feb-16,26.61,27.86,26.54,27.80,648845
23-Feb-16,27.37,27.70,26.90,27.06,643018
22-Feb-16,26.70,27.61,24.78,27.54,1062626
19-Feb-16,24.94,26.51,24.34,26.20,487558
18-Feb-16,26.76,27.19,24.74,24.96,1171570
17-Feb-16,25.15,26.53,25.15,26.49,792705
16-Feb-16,25.54,25.72,24.47,25.08,819963
12-Feb-16,24.97,25.74,24.64,25.31,1431745
11-Feb-16,23.00,24.73,22.25,24.62,2980041
10-Feb-16,24.78,26.80,24.11,24.38,1789348
9-Feb-16,24.94,26.76,24.11,24.53,1121609
8-Feb-16,27.11,27.11,23.90,25.01,1570519
5-Feb-16,30.87,30.87,27.24,27.46,1373914
4-Feb-16,30.32,31.33,29.56,31.09,369956
3-Feb-16,31.48,31.48,30.02,30.45,474942
2-Feb-16,31.46,31.81,30.66,31.18,510924
1-Feb-16,30.49,32.22,29.71,31.81,957741
29-Jan-16,30.58,31.17,29.85,30.69,694523
28-Jan-16,31.06,31.11,29.05,30.36,855902
27-Jan-16,31.76,31.94,30.75,30.98,637232
26-Jan-16,31.68,32.35,31.25,31.83,350689
25-Jan-16,33.32,33.32,31.37,31.64,451035
22-Jan-16,32.59,33.14,32.06,32.86,511048
21-Jan-16,31.85,32.93,31.00,32.14,956487
20-Jan-16,29.84,31.45,28.90,31.24,1237416
19-Jan-16,31.66,32.01,30.07,30.35,732278
15-Jan-16,31.12,31.32,30.49,31.20,694626
14-Jan-16,29.99,32.32,29.45,32.05,757915
13-Jan-16,31.64,32.00,29.62,30.15,709646
12-Jan-16,30.20,31.12,29.89,30.16,583295
11-Jan-16,30.14,30.48,29.46,29.89,565292
8-Jan-16,31.15,31.52,29.97,30.11,612193
7-Jan-16,32.12,32.38,30.50,31.01,900699
6-Jan-16,31.11,33.19,31.10,32.72,1658808
5-Jan-16,34.16,34.42,33.78,33.91,494354
4-Jan-16,33.93,35.16,33.47,34.15,714830
31-Dec-15,34.77,35.21,34.40,34.53,523807
30-Dec-15,35.04,35.30,34.73,34.80,314586
29-Dec-15,34.63,35.09,34.38,34.91,236789
28-Dec-15,34.67,34.94,34.29,34.52,153923
24-Dec-15,34.58,35.22,34.34,34.78,189882
23-Dec-15,34.28,35.10,34.09,34.54,487148
22-Dec-15,34.37,34.80,33.81,34.13,604216
21-Dec-15,34.22,34.35,33.84,34.27,291481
18-Dec-15,34.65,35.38,33.60,33.90,1245344
17-Dec-15,35.49,35.89,34.91,34.91,427115
16-Dec-15,34.84,35.48,34.40,35.25,600246
15-Dec-15,35.00,35.37,34.40,34.62,458310
14-Dec-15,35.09,35.92,34.56,34.81,434085
11-Dec-15,34.84,35.51,34.81,34.97,475821
10-Dec-15,35.94,36.46,35.24,35.45,403781
9-Dec-15,35.91,36.19,35.80,36.00,313801
8-Dec-15,35.57,36.20,35.39,36.08,276025
7-Dec-15,36.24,36.54,35.85,36.01,479242
4-Dec-15,35.05,36.31,35.00,36.25,479656
3-Dec-15,36.44,36.56,34.81,35.10,437095
2-Dec-15,35.85,37.00,35.28,36.34,409227
1-Dec-15,35.91,36.25,34.52,35.63,370264
30-Nov-15,35.71,36.05,34.99,35.91,296526
27-Nov-15,35.23,36.00,35.23,35.70,108884
25-Nov-15,34.40,35.48,34.40,35.33,211015
24-Nov-15,34.00,34.56,33.34,34.32,335483
23-Nov-15,34.84,35.05,34.16,34.31,334498
20-Nov-15,34.73,35.36,34.51,34.85,350081
19-Nov-15,34.06,35.36,33.72,34.71,668718
18-Nov-15,33.74,34.17,33.23,34.12,473609
17-Nov-15,34.56,34.57,33.67,33.71,497789
16-Nov-15,34.66,34.79,34.08,34.44,291945
13-Nov-15,34.84,35.22,34.58,34.58,354884
12-Nov-15,34.56,35.54,34.12,35.20,490383
11-Nov-15,35.04,35.60,34.59,34.60,409495
10-Nov-15,34.80,35.33,34.42,35.19,492002
9-Nov-15,35.48,35.48,34.52,34.98,785405
6-Nov-15,32.55,37.22,32.55,35.46,1682280
5-Nov-15,32.75,32.90,32.04,32.38,879379
4-Nov-15,32.55,33.07,32.28,32.91,699961
3-Nov-15,32.23,32.57,31.87,32.23,468914
2-Nov-15,31.51,32.70,31.32,32.40,533603
30-Oct-15,30.75,31.87,30.51,31.50,552405
29-Oct-15,32.37,32.58,30.49,30.63,564302
28-Oct-15,31.35,32.46,30.85,32.46,495626
27-Oct-15,31.68,31.77,30.89,31.06,595496
26-Oct-15,32.10,32.42,31.64,31.79,647898
23-Oct-15,32.31,32.53,31.63,32.00,1368488
22-Oct-15,30.99,32.04,30.73,31.79,2211504
21-Oct-15,33.80,33.98,32.03,32.08,863483
20-Oct-15,35.32,35.44,33.54,33.65,856046
19-Oct-15,36.29,36.72,35.24,35.46,378132
16-Oct-15,36.38,37.50,36.22,36.48,365654
15-Oct-15,35.28,36.42,34.51,36.23,472075
14-Oct-15,36.15,36.62,35.25,35.30,220835
13-Oct-15,36.10,37.23,36.10,36.19,189350
12-Oct-15,36.26,36.72,36.02,36.37,363978
9-Oct-15,35.99,36.55,35.63,36.40,326367
8-Oct-15,35.30,35.82,34.36,35.80,283770
7-Oct-15,34.83,35.73,34.36,35.55,508824
6-Oct-15,35.09,35.22,34.29,34.68,199257
5-Oct-15,34.31,35.52,34.17,35.22,418804
2-Oct-15,32.60,34.10,32.58,34.08,308639
1-Oct-15,33.17,33.50,32.43,33.13,523958
30-Sep-15,33.07,33.44,32.37,33.00,1127641
29-Sep-15,34.18,34.35,32.53,32.66,845238
28-Sep-15,35.22,35.53,34.03,34.05,531900
25-Sep-15,36.69,36.99,35.01,35.16,751308
24-Sep-15,36.40,36.62,36.25,36.44,368998
23-Sep-15,36.80,36.97,36.38,36.57,329432
22-Sep-15,37.40,37.64,36.40,36.86,391727
21-Sep-15,37.82,38.62,37.48,37.93,237139
18-Sep-15,38.13,38.69,37.40,37.57,753213
17-Sep-15,38.48,39.27,38.26,38.72,289818
16-Sep-15,38.47,39.00,38.22,38.59,372018
15-Sep-15,37.50,38.79,37.47,38.61,506000
14-Sep-15,37.75,38.03,37.41,37.47,249432
11-Sep-15,37.45,37.86,37.15,37.81,322248
10-Sep-15,37.19,37.91,36.99,37.74,259382
9-Sep-15,38.02,38.35,37.20,37.31,374647
8-Sep-15,36.92,38.00,36.46,37.74,558291
4-Sep-15,36.28,36.74,36.25,36.42,289954
3-Sep-15,36.44,36.98,35.91,36.85,569467
2-Sep-15,36.04,36.54,35.44,36.16,477454
1-Sep-15,35.17,35.92,35.08,35.70,667422
31-Aug-15,35.97,36.23,35.50,35.74,440299
28-Aug-15,35.82,36.29,35.50,36.17,424423
27-Aug-15,35.90,36.27,35.23,36.02,1151340
26-Aug-15,34.69,35.77,34.44,35.67,552239
25-Aug-15,36.01,36.06,34.02,34.07,909903
24-Aug-15,34.95,36.17,33.23,35.01,1026610
21-Aug-15,36.81,37.53,36.55,36.95,596642
20-Aug-15,37.60,38.22,37.16,37.40,671175
19-Aug-15,37.74,38.26,37.24,38.11,317449
18-Aug-15,38.30,38.77,37.61,37.81,399626
17-Aug-15,38.62,38.88,38.15,38.48,486909
14-Aug-15,38.30,38.93,38.18,38.79,399334
13-Aug-15,38.54,38.95,38.17,38.48,275995
12-Aug-15,38.19,38.87,37.66,38.62,431426
11-Aug-15,37.29,38.58,37.29,38.39,899002
10-Aug-15,36.53,38.29,36.53,38.02,1184995
7-Aug-15,39.54,39.81,36.26,36.39,1937334
6-Aug-15,37.55,38.06,35.59,35.74,955195
5-Aug-15,38.11,40.70,37.75,38.03,1239663
4-Aug-15,36.75,37.40,36.05,37.39,812619
3-Aug-15,36.00,37.22,35.93,36.76,1041246
31-Jul-15,35.39,36.21,35.25,36.06,609440
30-Jul-15,35.90,36.29,35.23,35.29,570226
29-Jul-15,35.65,35.68,34.95,35.40,395810
28-Jul-15,36.03,36.44,35.10,35.76,389819
27-Jul-15,37.26,37.26,35.69,35.82,477175
24-Jul-15,36.09,37.54,36.00,37.35,965616
23-Jul-15,36.08,37.07,36.02,36.22,421261
22-Jul-15,36.05,36.51,35.80,35.93,681165
21-Jul-15,36.38,36.56,36.06,36.32,402475
20-Jul-15,36.42,36.63,36.05,36.27,296227
17-Jul-15,36.84,37.05,36.21,36.23,339987
16-Jul-15,36.69,37.10,36.58,36.68,581035
15-Jul-15,35.96,36.68,35.83,36.45,533256
14-Jul-15,36.22,36.22,35.77,36.08,605301
13-Jul-15,35.68,35.98,35.60,35.91,319284
10-Jul-15,35.85,35.85,35.29,35.52,351990
9-Jul-15,35.13,35.91,35.06,35.36,750673
8-Jul-15,34.67,35.11,34.37,34.49,445537
7-Jul-15,35.16,35.22,34.14,35.02,647626
6-Jul-15,35.42,35.76,34.90,35.24,486632
2-Jul-15,34.89,35.85,34.60,35.75,649285
1-Jul-15,35.00,35.14,34.33,34.78,431267
30-Jun-15,35.16,35.37,34.63,34.80,552456
29-Jun-15,35.36,35.66,34.73,34.91,595510
26-Jun-15,35.85,35.85,34.95,35.73,631563
25-Jun-15,35.65,36.10,35.57,35.91,494682
24-Jun-15,35.75,35.84,35.36,35.47,589426
23-Jun-15,35.56,36.05,35.22,35.72,654810
22-Jun-15,35.02,35.81,34.84,35.66,848204
19-Jun-15,34.46,35.04,34.10,34.91,771076
18-Jun-15,33.43,34.68,33.34,34.55,617792
17-Jun-15,32.99,33.46,32.77,33.23,803440
16-Jun-15,32.42,32.99,32.25,32.83,709001
15-Jun-15,32.08,32.73,31.56,32.34,777971
12-Jun-15,31.69,32.24,31.49,32.16,645837
11-Jun-15,31.93,32.15,31.30,31.77,600518
10-Jun-15,32.05,32.42,31.90,31.95,564705
9-Jun-15,32.28,32.44,31.69,31.98,309504
8-Jun-15,32.64,32.99,32.06,32.24,276480
5-Jun-15,32.02,32.90,31.91,32.72,761722
4-Jun-15,32.80,32.80,31.47,32.12,520179
3-Jun-15,32.41,32.94,32.13,32.89,649703
2-Jun-15,31.41,32.91,31.34,32.39,1060623
1-Jun-15,31.36,31.69,30.97,31.42,442472
29-May-15,31.68,32.04,30.91,31.13,522841
28-May-15,31.53,32.09,31.38,31.80,314034
27-May-15,31.77,31.92,31.17,31.66,402806
26-May-15,32.13,32.25,31.35,31.77,436173
22-May-15,32.17,32.42,31.90,32.20,416344
21-May-15,31.94,32.44,31.64,32.09,505816
20-May-15,32.82,33.08,31.47,32.06,826403
19-May-15,31.72,32.50,31.63,31.85,872969
18-May-15,30.76,32.03,30.41,31.76,606568
15-May-15,30.92,30.99,30.22,30.84,521711
14-May-15,30.34,31.22,29.93,30.88,701555
13-May-15,29.98,30.37,29.60,30.17,506503
12-May-15,29.47,30.47,28.84,29.74,622355
11-May-15,29.58,30.33,29.45,29.47,584320
8-May-15,30.48,30.52,29.42,29.69,860958
7-May-15,31.05,31.80,29.49,30.04,1601360
6-May-15,28.80,29.55,28.40,29.48,1165563
5-May-15,27.93,28.56,27.46,28.52,983522
4-May-15,28.30,28.82,28.11,28.20,617692
1-May-15,28.68,29.13,28.09,28.23,633661
30-Apr-15,29.06,29.46,28.39,28.63,370182
29-Apr-15,29.03,29.73,28.67,29.25,325166
28-Apr-15,28.96,29.63,28.78,29.15,266497
27-Apr-15,29.21,29.86,28.78,28.99,314061
24-Apr-15,29.82,29.99,29.18,29.28,188447
23-Apr-15,29.21,29.97,28.97,29.72,220893
22-Apr-15,29.17,29.48,28.80,29.42,339612
21-Apr-15,29.99,30.00,28.92,29.17,419055
20-Apr-15,29.79,30.05,29.41,29.81,407993
17-Apr-15,30.02,30.33,29.28,29.57,494028
16-Apr-15,29.91,30.31,29.86,30.26,426870
15-Apr-15,28.86,30.11,28.66,29.95,601480
14-Apr-15,28.82,28.96,27.95,28.73,339792
13-Apr-15,29.27,29.60,28.71,28.78,416558
10-Apr-15,29.60,29.67,29.01,29.28,332803
9-Apr-15,28.81,29.49,28.69,29.43,462596
8-Apr-15,28.38,29.26,28.38,28.78,545621
7-Apr-15,28.00,28.76,28.00,28.31,647960
6-Apr-15,27.88,28.61,27.77,28.14,508967
2-Apr-15,27.78,28.46,27.60,28.16,463212
1-Apr-15,28.75,28.94,27.57,27.83,866669
31-Mar-15,29.02,29.22,28.52,28.89,570330
30-Mar-15,29.62,29.83,29.04,29.28,430018
27-Mar-15,29.04,29.60,28.78,29.49,469556
26-Mar-15,28.94,29.24,28.74,29.05,337784
25-Mar-15,29.92,29.98,28.84,29.09,638726
24-Mar-15,29.27,30.22,29.25,29.76,1003449
23-Mar-15,29.03,29.43,28.72,29.24,430721
20-Mar-15,29.48,29.66,29.06,29.09,718250
19-Mar-15,28.80,29.44,28.80,29.29,725562
18-Mar-15,29.02,29.07,28.69,28.96,629687
17-Mar-15,29.00,29.17,28.71,29.02,501722
16-Mar-15,30.00,30.14,28.95,29.05,729966
13-Mar-15,29.62,29.88,29.26,29.76,756284
12-Mar-15,29.85,29.85,28.95,29.60,775430
11-Mar-15,29.48,29.70,29.13,29.55,685794
10-Mar-15,30.29,30.42,29.48,29.53,970049
9-Mar-15,30.57,30.84,30.03,30.68,712416
6-Mar-15,31.31,31.70,30.41,30.47,693573
5-Mar-15,31.75,32.00,31.21,31.60,497198
4-Mar-15,32.18,32.29,31.25,31.64,653200
3-Mar-15,31.91,32.31,31.71,32.26,484951
2-Mar-15,32.01,32.31,31.36,31.97,888225
27-Feb-15,33.20,33.51,31.81,31.96,1138864
26-Feb-15,33.06,33.67,32.92,33.19,539419
25-Feb-15,32.90,34.14,32.74,33.20,952011
24-Feb-15,34.17,34.23,32.73,32.85,1032242
23-Feb-15,34.87,34.90,33.89,34.02,671937
20-Feb-15,35.58,35.58,34.76,35.04,733308
19-Feb-15,35.67,36.06,35.21,35.52,600471
18-Feb-15,35.33,36.18,34.95,35.71,853012
17-Feb-15,34.94,35.78,34.58,35.48,951170
13-Feb-15,33.13,35.48,32.68,35.02,1324137
12-Feb-15,33.00,34.10,31.05,33.01,2901347
11-Feb-15,35.76,36.20,35.03,35.90,853837
10-Feb-15,35.13,36.06,34.39,35.93,738218
9-Feb-15,33.40,34.80,32.91,34.47,1112300
6-Feb-15,33.35,33.53,32.86,33.44,772404
5-Feb-15,32.53,33.71,32.51,33.30,1030446
4-Feb-15,32.49,32.75,32.04,32.54,752863
3-Feb-15,32.97,33.55,32.62,32.74,849206
2-Feb-15,32.93,33.39,32.15,32.88,646936
30-Jan-15,34.34,35.06,32.71,32.95,838105
29-Jan-15,34.18,34.85,33.48,34.54,469718
28-Jan-15,34.57,34.88,34.00,34.24,435806
27-Jan-15,35.12,35.44,34.35,34.46,316212
26-Jan-15,34.56,36.00,34.23,35.73,493309
23-Jan-15,34.15,35.00,33.57,34.49,672843
22-Jan-15,34.20,34.22,32.88,33.99,447334
21-Jan-15,34.32,34.80,33.55,33.98,439483
20-Jan-15,33.39,33.87,31.94,33.32,743725
16-Jan-15,32.44,33.85,31.00,33.20,544687
15-Jan-15,33.21,33.43,31.66,32.42,776861
14-Jan-15,33.19,33.57,32.85,32.97,657782
13-Jan-15,34.87,35.64,32.76,33.66,952252
12-Jan-15,35.30,35.74,34.56,34.70,644306
9-Jan-15,36.87,37.24,35.17,35.23,789990
8-Jan-15,35.66,37.67,35.64,37.48,982957
7-Jan-15,34.21,35.80,34.21,35.48,724518
6-Jan-15,34.11,34.58,33.00,33.66,484841
5-Jan-15,34.13,34.88,33.52,34.05,750345
2-Jan-15,35.51,35.61,34.04,34.40,417422
31-Dec-14,35.10,35.52,34.67,35.20,356697
30-Dec-14,35.37,35.85,34.86,34.95,376789
29-Dec-14,36.63,36.84,35.37,35.53,350350
26-Dec-14,36.78,37.06,36.54,36.60,189913
24-Dec-14,36.84,37.32,36.42,36.66,143830
23-Dec-14,37.06,37.65,36.34,36.80,505652
22-Dec-14,36.73,37.74,36.14,36.62,467772
19-Dec-14,36.73,37.52,36.47,36.82,875202
18-Dec-14,36.20,36.92,35.18,36.82,700473
17-Dec-14,34.09,35.77,33.75,35.74,612036
16-Dec-14,34.75,35.10,33.94,34.06,802546
15-Dec-14,34.19,34.61,33.41,33.55,642807
12-Dec-14,33.75,34.42,33.75,34.03,547888
11-Dec-14,34.11,34.99,34.08,34.12,448562
10-Dec-14,34.92,35.28,33.77,34.03,582597
9-Dec-14,33.73,34.95,33.73,34.51,1185485
8-Dec-14,32.88,34.34,32.88,33.97,832998
5-Dec-14,33.17,33.98,33.04,33.09,607688
4-Dec-14,32.94,33.46,32.18,33.13,1124064
3-Dec-14,32.83,33.24,32.58,33.06,870942
2-Dec-14,32.18,33.15,31.73,32.92,1296685
1-Dec-14,31.71,31.87,31.02,31.64,877921
28-Nov-14,31.52,31.86,31.24,31.77,279055
26-Nov-14,31.20,31.74,31.15,31.60,546258
25-Nov-14,31.33,31.65,30.60,31.18,1102833
24-Nov-14,31.25,31.39,30.76,31.24,818629
21-Nov-14,31.82,31.87,30.71,31.07,996639
20-Nov-14,29.63,31.42,29.33,31.27,1096709
19-Nov-14,30.61,30.91,29.71,29.84,1773107
18-Nov-14,30.20,30.89,30.11,30.57,1175225
17-Nov-14,29.76,30.34,29.47,30.21,970248
14-Nov-14,28.65,29.94,28.20,29.90,767272
13-Nov-14,28.74,29.55,28.18,28.55,593952
12-Nov-14,28.68,29.08,28.09,28.41,557242
11-Nov-14,28.67,29.16,28.22,29.06,661598
10-Nov-14,28.01,28.81,27.55,28.77,966173
7-Nov-14,27.33,28.04,27.00,28.02,1534153
6-Nov-14,26.05,28.21,25.99,27.55,6013340
5-Nov-14,33.64,33.65,32.03,32.75,1830944
4-Nov-14,33.75,34.39,33.31,33.45,708350
3-Nov-14,36.15,36.15,33.62,34.01,1162118
31-Oct-14,36.21,36.62,35.26,36.27,524420
30-Oct-14,34.67,35.62,34.33,35.19,455112
29-Oct-14,36.01,36.77,34.33,34.76,563815
28-Oct-14,34.05,36.22,33.51,36.00,609879
27-Oct-14,33.43,34.13,32.67,33.83,373958
24-Oct-14,33.00,33.67,32.77,33.63,496382
23-Oct-14,34.15,34.20,32.50,33.10,1124228
22-Oct-14,35.08,35.14,33.55,33.79,966520
21-Oct-14,34.48,35.13,34.03,35.00,667039
20-Oct-14,33.50,34.63,33.27,34.30,713424
17-Oct-14,33.67,34.46,33.03,33.66,843005
16-Oct-14,32.07,33.47,32.01,33.13,806458
15-Oct-14,30.73,33.30,30.09,32.78,1050826
14-Oct-14,30.64,32.06,30.21,31.32,1166294
13-Oct-14,30.52,31.01,28.86,30.27,1154658
10-Oct-14,31.17,31.98,30.01,30.38,1140522
9-Oct-14,32.60,33.44,31.05,31.41,934608
8-Oct-14,32.98,33.03,30.00,32.73,1506934
7-Oct-14,33.91,34.61,32.89,32.91,711775
6-Oct-14,35.35,36.23,34.04,34.20,579223
3-Oct-14,34.73,36.13,34.73,35.30,905230
2-Oct-14,32.83,34.64,32.50,34.36,814344
1-Oct-14,34.28,34.31,32.46,32.88,1181720
30-Sep-14,34.64,35.05,33.51,34.41,902802
29-Sep-14,34.81,35.37,34.55,34.56,602604
26-Sep-14,35.18,35.56,34.86,35.37,473611
25-Sep-14,36.20,36.48,34.78,35.13,721687
24-Sep-14,34.81,36.36,34.65,36.29,1051377
23-Sep-14,35.00,36.00,34.58,34.83,982949
22-Sep-14,37.06,37.06,35.02,35.19,1402273
19-Sep-14,37.44,38.13,36.02,37.39,1902235
18-Sep-14,39.10,39.56,36.15,36.80,1759376
17-Sep-14,40.51,40.75,38.25,38.77,1068982
16-Sep-14,40.22,41.06,39.28,40.63,709138
15-Sep-14,43.05,43.13,39.61,40.21,918996
12-Sep-14,41.98,43.29,40.99,43.28,1175639
11-Sep-14,40.56,42.44,40.32,42.14,856766
10-Sep-14,39.93,40.75,39.65,40.66,604228
9-Sep-14,40.81,41.35,39.72,39.96,574346
8-Sep-14,39.60,41.53,39.60,40.80,790858
5-Sep-14,38.89,39.81,38.01,39.74,931391
4-Sep-14,39.45,40.12,38.95,39.04,642058
3-Sep-14,38.23,39.27,38.23,39.11,846812
2-Sep-14,37.57,38.09,37.10,37.98,412286
29-Aug-14,36.89,38.35,36.73,37.45,369434
28-Aug-14,37.57,37.85,36.53,36.75,393867
27-Aug-14,38.75,38.75,37.29,37.88,511016
26-Aug-14,36.48,38.66,36.34,38.46,737272
25-Aug-14,36.86,36.91,36.25,36.48,704916
22-Aug-14,36.95,36.95,35.84,36.47,595010
21-Aug-14,36.58,37.05,36.17,36.84,564010
20-Aug-14,37.92,38.46,36.64,36.69,815139
19-Aug-14,39.39,39.59,38.07,38.22,759509
18-Aug-14,38.63,39.31,38.58,39.22,676638
15-Aug-14,38.75,38.75,37.20,38.21,813806
14-Aug-14,38.54,38.85,38.23,38.35,733799
13-Aug-14,38.18,38.63,37.69,38.56,743215
12-Aug-14,37.45,38.15,36.99,38.12,1160071
11-Aug-14,36.95,37.81,36.72,37.65,1134901
8-Aug-14,37.47,37.57,36.30,36.73,1073635
7-Aug-14,37.00,39.23,36.10,37.33,3514463
6-Aug-14,41.42,42.56,39.97,40.30,1514732
5-Aug-14,41.51,42.98,41.26,41.77,735540
4-Aug-14,40.53,42.10,40.41,41.98,757224
1-Aug-14,41.84,41.84,39.17,40.31,730383
31-Jul-14,43.76,44.05,41.81,41.84,568672
30-Jul-14,42.56,44.49,42.26,44.31,913450
29-Jul-14,40.86,42.44,40.50,42.18,458845
28-Jul-14,41.46,41.89,40.18,40.73,468091
25-Jul-14,41.50,42.52,41.06,41.53,823957
24-Jul-14,40.23,42.01,39.87,41.88,795559
23-Jul-14,40.75,41.05,39.95,40.08,415222
22-Jul-14,39.57,40.75,39.18,40.60,690964
21-Jul-14,38.95,39.56,38.61,39.23,538900
18-Jul-14,38.54,39.27,38.30,39.09,644895
17-Jul-14,40.04,40.78,38.29,38.51,1008881
16-Jul-14,40.70,40.92,39.60,40.46,615976
15-Jul-14,40.86,41.22,39.70,40.49,474634
14-Jul-14,41.73,41.88,40.51,40.75,934768
11-Jul-14,40.99,41.66,40.74,41.26,317023
10-Jul-14,40.47,41.55,39.67,41.00,660454
9-Jul-14,41.17,42.18,40.59,41.70,753277
8-Jul-14,42.62,42.84,39.77,40.91,1286341
7-Jul-14,45.57,45.57,42.46,42.51,1168336
3-Jul-14,46.31,46.45,45.24,45.68,271749
2-Jul-14,46.04,46.65,45.61,46.10,471161
1-Jul-14,46.22,47.00,45.77,46.20,583673
30-Jun-14,45.76,46.54,45.72,46.02,752158
27-Jun-14,45.78,46.88,45.67,45.97,2508765
26-Jun-14,45.56,46.01,45.16,45.99,404789
25-Jun-14,44.87,45.96,44.57,45.65,956561
24-Jun-14,45.93,47.00,45.02,45.05,964504
23-Jun-14,45.31,46.34,44.76,46.14,923451
20-Jun-14,45.14,45.46,44.47,45.32,968190
19-Jun-14,44.44,45.30,44.08,45.19,1181702
18-Jun-14,42.86,44.43,42.48,44.35,885855
17-Jun-14,43.47,44.52,42.86,42.90,817495
16-Jun-14,40.84,44.00,40.84,43.54,1112393
13-Jun-14,40.07,41.19,38.82,41.05,778805
12-Jun-14,40.47,40.51,39.57,40.05,1069945
11-Jun-14,39.65,40.92,39.47,40.56,477027
10-Jun-14,40.47,41.15,39.57,39.90,505651
9-Jun-14,39.83,41.11,39.70,40.74,627934
6-Jun-14,39.49,40.26,38.94,39.72,696880
5-Jun-14,38.05,39.53,37.87,39.12,876245
4-Jun-14,37.88,39.11,37.20,38.03,1356367
3-Jun-14,39.31,39.44,37.38,38.06,1055025
2-Jun-14,40.24,40.99,38.85,39.50,902951
30-May-14,41.99,42.00,39.42,40.19,1201897
29-May-14,42.00,42.08,41.31,41.94,1200195
28-May-14,43.28,43.70,41.57,41.69,1287958
27-May-14,43.65,44.37,42.75,43.20,1183935
23-May-14,42.81,43.41,41.93,43.25,934383
22-May-14,42.28,43.50,41.64,42.79,1917299
21-May-14,40.39,42.08,39.70,41.97,2138695
20-May-14,39.94,40.63,38.55,40.31,1451191
19-May-14,38.53,40.65,38.05,39.95,1036672
16-May-14,38.88,38.88,37.13,38.66,773681
15-May-14,37.07,38.86,35.86,38.52,1013473
14-May-14,37.34,38.47,36.50,37.25,1092576
13-May-14,39.27,39.27,37.05,37.57,963477
12-May-14,36.76,39.77,36.50,39.26,1556289
9-May-14,35.45,37.01,34.85,36.55,1105938
8-May-14,35.43,37.12,34.53,35.46,1075659
7-May-14,38.03,38.03,34.88,35.67,1320046
6-May-14,38.78,39.06,37.66,37.84,1396328
5-May-14,38.95,39.68,38.56,38.78,1475200
2-May-14,38.00,39.50,36.50,39.44,2947736
1-May-14,36.81,39.16,36.56,38.09,2313244
30-Apr-14,36.65,37.07,35.51,36.76,1565692
29-Apr-14,34.70,37.24,34.27,36.76,1600553
28-Apr-14,35.55,36.50,32.82,34.59,1762358
25-Apr-14,36.61,36.94,35.12,35.84,1587601
24-Apr-14,38.09,38.74,34.32,36.94,2065832
23-Apr-14,39.95,40.00,37.60,37.73,912440
22-Apr-14,39.23,40.28,38.71,40.03,1329001
21-Apr-14,41.55,41.60,38.47,39.04,940548
17-Apr-14,39.03,39.89,38.36,39.31,722872
16-Apr-14,38.74,39.51,37.89,39.29,569748
15-Apr-14,37.27,38.99,36.23,38.53,1085815
14-Apr-14,37.51,38.24,36.31,37.24,1230599
11-Apr-14,39.80,39.80,37.32,37.39,1679970
10-Apr-14,41.17,41.19,37.00,38.02,1908968
9-Apr-14,40.01,41.05,39.97,41.00,1616399
8-Apr-14,43.41,43.50,38.33,39.85,5487393
7-Apr-14,44.15,46.55,43.32,44.20,1034318
4-Apr-14,45.99,46.34,43.09,44.86,1922469
3-Apr-14,49.54,49.54,44.27,45.52,1615353
2-Apr-14,49.74,49.83,48.83,49.65,893402
1-Apr-14,48.31,49.64,47.50,49.53,849846
31-Mar-14,46.75,48.15,45.82,47.87,1389481
28-Mar-14,46.23,47.88,46.23,46.39,1009517
27-Mar-14,46.06,46.55,44.35,46.26,1778409
26-Mar-14,48.32,48.82,44.86,45.96,1723087
25-Mar-14,51.55,52.18,47.64,48.09,1369837
24-Mar-14,54.19,54.46,50.39,51.12,923258
21-Mar-14,56.05,56.08,54.25,54.28,863464
20-Mar-14,56.92,57.21,56.01,56.10,563990
19-Mar-14,57.73,57.99,56.49,57.17,323429
18-Mar-14,56.08,57.75,56.08,57.60,570462
17-Mar-14,56.49,56.87,55.25,56.05,438356
14-Mar-14,55.67,56.79,55.30,56.12,264374
13-Mar-14,57.53,57.86,54.80,55.84,560116
12-Mar-14,55.36,56.18,54.57,56.09,414542
11-Mar-14,57.34,57.66,55.30,55.81,525808
10-Mar-14,58.71,58.71,57.10,57.14,682282
7-Mar-14,58.81,59.29,57.72,58.09,589217
6-Mar-14,59.89,59.96,57.90,58.10,347495
5-Mar-14,57.46,60.32,57.18,60.04,579239
4-Mar-14,56.38,57.60,55.61,57.31,995945
3-Mar-14,57.56,58.09,54.58,55.90,848324
28-Feb-14,61.00,61.85,57.47,58.38,485851
27-Feb-14,60.06,61.00,59.78,60.86,403405
26-Feb-14,58.95,61.06,58.92,60.47,556916
25-Feb-14,59.95,60.19,58.30,58.87,574289
24-Feb-14,59.60,60.43,59.34,59.86,501279
21-Feb-14,58.21,59.96,57.89,59.59,884640
20-Feb-14,58.33,58.97,57.09,57.81,742804
19-Feb-14,60.37,60.58,57.98,58.36,579094
18-Feb-14,57.00,60.98,57.00,60.85,1035218
14-Feb-14,58.98,59.40,56.72,56.96,830734
13-Feb-14,57.55,58.87,57.04,58.87,674189
12-Feb-14,58.25,60.43,54.78,57.94,1329482
11-Feb-14,57.54,58.51,57.02,58.36,648449
10-Feb-14,55.58,57.59,54.88,57.58,552701
7-Feb-14,54.16,55.91,53.68,55.40,598042
6-Feb-14,54.64,55.57,53.86,54.16,440473
5-Feb-14,55.69,56.04,53.93,54.44,609533
4-Feb-14,56.09,56.50,54.97,56.05,529936
3-Feb-14,56.99,57.74,55.08,55.82,480294
31-Jan-14,55.66,58.13,55.66,57.05,367142
30-Jan-14,54.97,57.09,54.78,56.78,687038
29-Jan-14,54.24,54.78,53.66,54.23,331729
28-Jan-14,54.66,55.21,54.00,54.99,378884
27-Jan-14,56.41,56.89,53.61,54.47,585121
24-Jan-14,56.03,57.20,55.56,56.38,371896
23-Jan-14,55.53,56.64,54.45,56.49,331600
22-Jan-14,55.14,55.91,54.14,55.62,215515
21-Jan-14,56.50,56.84,54.74,55.05,506299
17-Jan-14,55.96,57.16,55.96,56.22,252134
16-Jan-14,55.21,56.31,54.79,56.18,324373
15-Jan-14,56.05,56.25,55.13,55.41,366355
14-Jan-14,54.04,55.79,53.51,55.75,189552
13-Jan-14,56.15,56.50,53.32,53.66,396441
10-Jan-14,55.91,56.65,54.65,56.51,368879
9-Jan-14,56.87,57.57,55.10,55.83,337195
8-Jan-14,56.33,57.71,56.17,56.77,448214
7-Jan-14,55.26,57.98,55.11,56.47,924400
6-Jan-14,53.99,55.38,53.45,54.90,383578
3-Jan-14,52.93,53.99,52.82,53.91,261082
2-Jan-14,53.07,53.33,52.56,52.91,201162
31-Dec-13,52.75,53.49,52.42,53.31,343682
30-Dec-13,52.80,53.33,52.36,52.81,294159
27-Dec-13,53.18,53.50,52.63,52.80,184134
26-Dec-13,53.40,53.75,52.53,53.03,295218
24-Dec-13,52.62,53.41,52.62,53.04,180171
23-Dec-13,52.72,52.94,52.07,52.72,311943
20-Dec-13,51.55,52.69,50.79,52.21,998159
19-Dec-13,51.70,52.21,50.96,51.30,403606
18-Dec-13,52.14,52.50,51.01,51.80,769363
17-Dec-13,50.02,52.28,49.65,52.17,719434
16-Dec-13,48.49,50.15,48.49,50.07,486891
13-Dec-13,47.98,48.94,47.90,48.39,454806
12-Dec-13,47.95,48.52,47.34,47.81,549431
11-Dec-13,49.09,49.74,47.65,47.95,398267
10-Dec-13,50.00,50.31,49.03,49.48,474209
9-Dec-13,49.90,50.00,49.35,49.95,486918
6-Dec-13,49.81,50.06,49.24,49.83,532325
5-Dec-13,48.41,50.74,48.35,49.47,618553
4-Dec-13,47.70,48.46,47.70,48.09,489648
3-Dec-13,49.77,49.96,47.75,47.95,465843
2-Dec-13,50.00,50.35,49.55,49.91,394960
29-Nov-13,50.24,50.83,49.63,50.42,218133
27-Nov-13,49.50,50.02,49.16,49.97,319441
26-Nov-13,49.07,49.88,48.70,49.55,621800
25-Nov-13,48.39,48.45,47.02,47.81,272570
22-Nov-13,47.50,49.19,47.01,48.34,843979
21-Nov-13,46.39,47.58,46.06,47.34,364579
20-Nov-13,46.89,47.43,46.04,46.08,474382
19-Nov-13,46.75,47.34,45.77,46.44,686115
18-Nov-13,48.79,49.13,46.69,46.84,315692
15-Nov-13,48.23,48.91,47.85,48.74,373761
14-Nov-13,48.50,48.88,47.50,48.30,338729
13-Nov-13,46.90,49.05,46.90,48.61,447590
12-Nov-13,47.06,47.15,46.46,47.06,329920
11-Nov-13,47.11,48.04,46.70,47.28,497957
8-Nov-13,48.18,48.73,47.19,47.28,459819
7-Nov-13,49.14,49.14,46.92,48.21,648629
6-Nov-13,52.44,53.16,47.72,49.03,983163
5-Nov-13,49.66,53.22,49.00,52.27,2268050
4-Nov-13,45.69,46.70,45.16,46.16,898712
1-Nov-13,47.25,47.60,45.22,45.55,820030
31-Oct-13,48.57,49.26,47.33,47.37,579020
30-Oct-13,49.60,49.63,48.43,48.69,639423
29-Oct-13,49.86,50.29,49.23,49.60,527159
28-Oct-13,49.85,50.31,48.43,49.57,351213
25-Oct-13,51.74,51.87,49.58,49.89,276880
24-Oct-13,49.71,51.67,49.54,51.49,358489
23-Oct-13,50.39,50.39,49.26,49.79,297280
22-Oct-13,52.64,53.00,50.44,50.64,340213
21-Oct-13,52.02,52.68,51.63,52.52,378182
18-Oct-13,51.47,52.00,51.14,51.98,284807
17-Oct-13,49.88,51.23,49.88,51.09,349008
16-Oct-13,49.73,50.95,49.73,50.28,286549
15-Oct-13,50.14,50.43,49.05,49.46,223658
14-Oct-13,49.67,50.85,48.73,50.23,318905
11-Oct-13,49.29,50.64,49.29,50.05,397508
10-Oct-13,46.62,49.60,46.62,49.57,625218
9-Oct-13,47.93,47.98,45.58,46.12,868399
8-Oct-13,50.34,50.74,47.80,47.91,707206
7-Oct-13,51.00,51.82,50.20,50.24,425508
4-Oct-13,50.83,52.28,50.83,51.33,359645
3-Oct-13,52.45,52.70,50.54,51.01,428883
2-Oct-13,51.40,52.51,51.29,52.43,416406
1-Oct-13,51.55,52.01,51.05,51.89,389453
30-Sep-13,52.06,52.46,51.30,51.44,545388
27-Sep-13,52.95,53.04,52.44,52.49,227421
26-Sep-13,53.15,53.40,52.64,53.11,263732
25-Sep-13,52.69,54.23,52.45,53.13,450333
24-Sep-13,53.22,53.71,52.35,52.50,408770
23-Sep-13,53.94,54.11,51.81,53.32,468466
20-Sep-13,54.54,54.60,53.30,54.04,713143
19-Sep-13,54.16,54.89,54.16,54.50,257236
18-Sep-13,53.66,54.39,53.28,53.91,373453
17-Sep-13,53.73,54.00,53.08,53.68,476884
16-Sep-13,54.59,54.89,53.55,53.68,264514
13-Sep-13,54.57,55.47,53.55,53.77,465789
12-Sep-13,53.70,54.88,53.26,54.60,401666
11-Sep-13,52.87,54.05,52.32,53.69,473736
10-Sep-13,53.50,53.97,52.57,53.33,587584
9-Sep-13,53.04,54.32,53.00,53.26,634576
6-Sep-13,52.00,53.09,50.70,52.81,421275
5-Sep-13,51.72,52.00,51.16,51.75,243315
4-Sep-13,51.24,51.95,50.92,51.62,280571
3-Sep-13,52.31,52.73,50.76,51.28,278142
30-Aug-13,51.00,52.60,50.41,51.51,469243
29-Aug-13,50.05,51.03,49.95,51.01,197569
28-Aug-13,50.23,50.86,49.83,50.40,200176
27-Aug-13,50.73,50.73,49.72,50.19,438238
26-Aug-13,51.46,51.80,50.99,51.21,279254
23-Aug-13,52.24,52.48,51.28,51.48,254944
22-Aug-13,51.45,52.75,51.33,52.25,161776
21-Aug-13,50.66,51.88,50.09,51.39,476216
20-Aug-13,49.91,50.91,49.52,50.91,468027
19-Aug-13,50.77,50.77,49.49,49.72,447983
16-Aug-13,50.81,51.45,50.59,50.73,341078
15-Aug-13,51.83,51.94,50.64,51.08,338508
14-Aug-13,53.42,53.50,52.48,52.56,370344
13-Aug-13,52.67,53.90,52.24,53.55,389860
12-Aug-13,52.12,53.07,52.12,52.63,213983
9-Aug-13,52.24,52.94,51.09,52.72,496942
8-Aug-13,51.25,52.92,51.19,52.53,624025
7-Aug-13,48.57,52.10,48.32,51.01,1408271
6-Aug-13,48.11,48.26,46.74,47.41,704351
5-Aug-13,46.12,48.49,46.00,48.41,875435
2-Aug-13,45.57,46.16,45.02,46.12,208010
1-Aug-13,44.52,45.95,44.10,45.76,368798
31-Jul-13,44.27,44.84,43.68,44.04,293368
30-Jul-13,44.05,44.28,43.30,44.04,275565
29-Jul-13,44.08,44.08,42.89,43.90,275343
26-Jul-13,44.11,44.44,43.44,44.15,248019
25-Jul-13,44.04,44.82,43.95,44.56,589538
24-Jul-13,43.96,44.41,43.62,44.15,462516
23-Jul-13,44.65,44.65,43.32,44.04,458087
22-Jul-13,44.08,44.54,43.83,44.37,219597
19-Jul-13,44.50,45.00,44.09,44.28,382843
18-Jul-13,44.84,45.06,43.92,44.87,279329
17-Jul-13,44.82,45.26,44.44,44.81,308878
16-Jul-13,45.20,45.20,43.12,44.37,809511
15-Jul-13,45.91,46.21,45.16,45.27,404262
12-Jul-13,45.68,46.30,45.58,45.81,246319
11-Jul-13,45.50,45.98,44.80,45.62,242334
10-Jul-13,44.82,44.92,44.19,44.69,211149
9-Jul-13,45.00,45.50,44.52,44.94,471310
8-Jul-13,44.49,45.21,44.07,44.65,270141
5-Jul-13,44.99,45.00,43.96,44.38,234960
3-Jul-13,44.14,44.53,43.86,44.37,181875
2-Jul-13,43.91,44.49,43.54,44.43,421722
1-Jul-13,43.59,44.75,43.17,44.01,400307
28-Jun-13,44.01,44.16,42.80,43.30,1365924
27-Jun-13,44.40,44.49,43.66,44.29,329919
26-Jun-13,44.07,44.91,44.01,44.18,663466
25-Jun-13,44.71,44.91,43.58,43.67,274263
24-Jun-13,44.12,44.63,43.06,44.43,309009
21-Jun-13,44.42,44.83,43.85,44.48,604214
20-Jun-13,44.98,45.62,44.14,44.38,534246
19-Jun-13,44.89,46.18,44.83,45.67,508668
18-Jun-13,44.87,45.29,44.27,44.75,361275
17-Jun-13,44.31,44.67,43.87,44.64,532609
14-Jun-13,42.53,45.46,42.21,44.09,1014458
13-Jun-13,41.76,42.53,41.54,42.49,639510
12-Jun-13,40.53,42.44,40.41,42.03,1505278
11-Jun-13,40.99,40.99,39.07,40.03,1035669
10-Jun-13,41.04,41.78,40.70,41.54,379452
7-Jun-13,40.01,41.14,39.65,40.96,416953
6-Jun-13,39.20,39.86,38.93,39.86,218681
5-Jun-13,39.29,39.51,38.78,39.07,461876
4-Jun-13,39.88,39.88,38.80,39.21,415110
3-Jun-13,40.72,40.84,39.20,39.70,416488
31-May-13,40.80,41.27,40.49,40.64,348645
30-May-13,40.35,41.30,40.03,41.23,332170
29-May-13,41.20,41.30,40.23,40.32,349193
28-May-13,39.77,41.59,39.40,41.17,420160
24-May-13,39.57,39.57,38.85,39.13,222965
23-May-13,39.43,39.81,38.74,39.57,377048
22-May-13,39.14,40.73,38.99,39.99,644238
21-May-13,40.97,41.00,39.53,39.62,720766
20-May-13,40.52,41.49,40.52,41.14,371073
17-May-13,39.82,40.75,39.58,40.66,636407
16-May-13,39.33,39.90,39.33,39.83,181226
15-May-13,38.90,39.80,38.90,39.37,219762
14-May-13,38.00,39.32,37.96,39.16,218445
13-May-13,38.51,38.79,37.95,37.95,211572
10-May-13,38.38,39.07,38.19,38.75,127107
9-May-13,38.96,39.09,38.03,38.27,251788
8-May-13,38.61,39.28,38.11,39.08,309868
7-May-13,38.54,38.71,38.02,38.64,227449
6-May-13,38.41,38.60,38.12,38.34,239981
3-May-13,37.26,40.06,37.14,38.52,837049
2-May-13,36.16,36.58,33.42,36.57,1199438
1-May-13,36.13,36.85,35.88,36.15,554027
30-Apr-13,35.30,36.77,35.13,36.28,518791
29-Apr-13,34.14,35.30,33.90,35.15,309023
26-Apr-13,34.43,34.43,33.76,34.07,378782
25-Apr-13,33.17,34.63,33.02,34.60,329592
24-Apr-13,33.85,33.85,33.07,33.16,232464
23-Apr-13,33.53,34.19,33.25,33.90,329604
22-Apr-13,33.32,34.31,32.92,33.29,557739
19-Apr-13,32.75,33.22,32.50,33.15,331322
18-Apr-13,32.61,33.29,32.18,32.72,273130
17-Apr-13,32.92,33.17,32.09,32.44,274188
16-Apr-13,32.36,33.37,32.12,33.19,356128
15-Apr-13,33.06,33.11,31.89,32.06,230408
12-Apr-13,32.69,33.46,32.41,33.32,295478
11-Apr-13,32.14,33.00,32.14,32.83,163966
10-Apr-13,32.46,32.66,31.55,32.28,275205
9-Apr-13,32.05,32.77,31.90,32.36,234200
8-Apr-13,31.39,31.80,31.36,31.73,124885
5-Apr-13,31.47,31.84,31.24,31.35,171680
4-Apr-13,32.26,32.26,31.54,32.07,142202
3-Apr-13,33.46,33.64,31.34,32.31,484646
2-Apr-13,33.65,34.02,33.52,33.57,256275
1-Apr-13,34.10,34.14,32.41,33.46,283831
28-Mar-13,33.64,34.25,33.64,34.10,234211
27-Mar-13,32.95,33.65,32.76,33.61,131994
26-Mar-13,32.84,33.26,32.36,33.25,212811
25-Mar-13,33.55,33.84,32.63,32.71,202633
22-Mar-13,33.27,33.45,32.74,33.36,191275
21-Mar-13,33.13,33.73,32.83,33.18,156863
20-Mar-13,33.23,33.59,32.89,33.34,232220
19-Mar-13,33.56,34.32,32.67,32.95,232909
18-Mar-13,33.28,33.85,32.98,33.53,344671
15-Mar-13,34.47,34.97,33.55,33.73,894391
14-Mar-13,34.58,34.74,34.26,34.40,282783
13-Mar-13,34.74,34.90,34.30,34.41,247999
12-Mar-13,34.88,34.97,34.29,34.79,186162
11-Mar-13,35.18,35.40,34.73,34.88,130794
8-Mar-13,35.45,35.59,35.04,35.25,292594
7-Mar-13,35.10,35.30,34.89,35.04,180445
6-Mar-13,35.36,35.69,35.01,35.15,299000
5-Mar-13,35.11,35.31,34.81,35.29,443397
4-Mar-13,33.73,35.48,32.80,34.98,545957
1-Mar-13,33.59,34.18,33.52,33.90,421851
28-Feb-13,33.41,34.19,33.30,33.86,387588
27-Feb-13,32.61,33.62,32.34,33.42,437305
26-Feb-13,32.87,33.23,32.47,32.68,375905
25-Feb-13,33.18,33.31,32.69,32.75,342117
22-Feb-13,32.19,33.15,32.08,33.06,452401
21-Feb-13,31.79,32.31,31.49,31.95,767241
20-Feb-13,31.40,32.01,31.12,31.74,361648
19-Feb-13,30.93,32.12,30.90,31.69,326272
15-Feb-13,31.78,32.02,30.83,30.91,548468
14-Feb-13,30.88,32.43,30.75,31.72,377727
13-Feb-13,32.68,32.71,30.14,31.07,650248
12-Feb-13,32.83,33.23,32.36,32.49,247591
11-Feb-13,32.19,32.93,31.99,32.80,312326
8-Feb-13,31.63,32.29,31.62,32.25,166729
7-Feb-13,32.51,32.51,31.12,31.49,495609
6-Feb-13,33.45,33.45,32.34,32.54,390959
5-Feb-13,33.45,33.92,32.98,33.61,260978
4-Feb-13,33.62,34.01,32.98,33.34,404937
1-Feb-13,32.72,34.13,32.72,33.97,364167
31-Jan-13,32.53,32.82,32.22,32.68,192679
30-Jan-13,32.55,32.68,32.26,32.61,178435
29-Jan-13,31.80,32.58,31.72,32.56,271993
28-Jan-13,32.10,32.52,31.85,32.14,266531
25-Jan-13,31.55,32.67,31.47,32.13,217569
24-Jan-13,31.02,31.96,30.74,31.40,201753
23-Jan-13,31.47,31.51,31.12,31.14,97188
22-Jan-13,31.60,31.72,30.85,31.38,100174
18-Jan-13,31.50,32.09,31.11,31.64,290058
17-Jan-13,31.20,31.30,30.05,30.48,261722
16-Jan-13,30.71,31.30,30.47,31.13,133192
15-Jan-13,30.39,30.90,30.14,30.72,105690
14-Jan-13,30.85,31.14,30.07,30.66,218065
11-Jan-13,31.58,31.75,30.90,31.08,161475
10-Jan-13,31.31,31.66,31.21,31.53,375145
9-Jan-13,30.65,31.50,30.50,31.26,283980
8-Jan-13,30.65,30.68,29.98,30.38,318465
7-Jan-13,30.40,31.04,29.94,30.65,561748
4-Jan-13,30.01,30.19,29.53,29.84,165897
3-Jan-13,30.30,30.43,29.85,29.88,268077
2-Jan-13,30.39,30.72,29.94,30.32,425026
31-Dec-12,28.46,29.59,28.11,29.53,458064
28-Dec-12,28.31,28.71,27.94,28.47,346131
27-Dec-12,28.23,28.62,27.51,28.59,364806
26-Dec-12,28.55,28.58,28.04,28.27,151016
24-Dec-12,28.34,28.50,27.95,28.46,91173
21-Dec-12,28.21,28.46,27.89,28.38,369853
20-Dec-12,28.14,28.70,27.91,28.54,322982
19-Dec-12,27.84,28.21,27.60,28.13,261297
18-Dec-12,26.50,27.91,26.50,27.84,625390
17-Dec-12,26.14,26.59,25.91,26.41,321184
14-Dec-12,26.18,26.37,25.44,26.03,360700
13-Dec-12,27.57,27.60,26.30,26.44,324844
12-Dec-12,28.00,28.00,27.45,27.53,256130
11-Dec-12,27.42,28.00,27.27,27.92,391668
10-Dec-12,27.03,27.36,26.90,27.12,212305
7-Dec-12,27.40,27.40,26.94,27.17,98899
6-Dec-12,27.28,27.50,26.92,27.24,138336
5-Dec-12,27.76,27.76,27.24,27.29,122405
4-Dec-12,27.85,28.00,27.41,27.75,278375
3-Dec-12,28.27,28.41,27.66,27.90,378759
30-Nov-12,28.05,28.18,27.89,28.04,288228
29-Nov-12,28.18,28.50,27.77,28.06,418583
28-Nov-12,27.25,27.91,26.91,27.90,329909
27-Nov-12,27.50,27.59,27.23,27.50,278069
26-Nov-12,27.26,27.60,26.71,27.51,262456
23-Nov-12,27.76,27.76,27.07,27.36,74278
21-Nov-12,27.09,28.08,26.83,27.60,299254
20-Nov-12,27.12,27.18,26.60,27.09,357644
19-Nov-12,27.35,27.35,26.59,27.28,463297
16-Nov-12,27.00,27.09,26.14,27.00,305012
15-Nov-12,26.63,27.09,26.12,27.05,249176
14-Nov-12,27.33,27.82,26.35,26.70,509206
13-Nov-12,29.15,29.70,27.20,27.28,1881726
12-Nov-12,27.60,27.89,26.32,26.33,696600
9-Nov-12,27.57,27.89,27.38,27.61,181466
8-Nov-12,28.34,28.59,27.66,27.68,278601
7-Nov-12,28.82,29.06,28.23,28.32,154611
6-Nov-12,29.16,29.58,29.16,29.31,127204
5-Nov-12,29.06,29.06,28.06,28.99,262849
2-Nov-12,29.25,29.25,28.22,28.99,226758
1-Nov-12,28.24,29.15,28.24,28.93,356563
31-Oct-12,28.14,28.50,27.56,27.99,320606
26-Oct-12,28.24,28.43,27.48,28.20,270494
25-Oct-12,28.69,28.72,28.12,28.30,225340
24-Oct-12,28.69,29.00,28.11,28.34,442567
23-Oct-12,28.55,28.84,28.11,28.46,627257
22-Oct-12,29.08,29.20,28.77,28.85,133742
19-Oct-12,29.78,29.89,28.35,28.99,399595
18-Oct-12,31.13,31.32,29.85,29.99,400696
17-Oct-12,32.14,32.14,31.12,31.24,233867
16-Oct-12,32.46,32.46,32.01,32.21,148316
15-Oct-12,32.14,32.40,31.72,32.33,156176
12-Oct-12,31.62,32.13,31.09,32.09,164558
11-Oct-12,31.87,32.04,31.50,31.52,121045
10-Oct-12,31.86,32.05,31.53,31.69,287317
9-Oct-12,31.96,32.16,31.26,31.79,270442
8-Oct-12,31.70,31.96,31.17,31.74,232538
5-Oct-12,32.32,32.50,31.70,31.80,255905
4-Oct-12,32.11,32.24,31.71,32.22,224834
3-Oct-12,32.34,32.34,31.71,31.91,233506
2-Oct-12,31.48,32.11,31.40,31.84,206861
1-Oct-12,30.87,31.73,30.81,31.44,316308
28-Sep-12,30.73,31.24,30.58,30.66,339390
27-Sep-12,30.30,30.95,30.03,30.94,443903
26-Sep-12,30.66,30.66,29.88,30.12,246297
25-Sep-12,30.92,31.14,30.42,30.56,270305
24-Sep-12,30.73,30.90,30.27,30.78,292619
21-Sep-12,30.60,31.48,30.47,30.90,935335
20-Sep-12,30.12,30.43,29.96,30.27,361995
19-Sep-12,30.08,30.70,29.83,30.40,305426
18-Sep-12,30.06,30.88,29.45,30.16,477765
17-Sep-12,30.00,30.46,28.93,29.64,463076
14-Sep-12,29.36,29.60,28.72,29.55,489796
13-Sep-12,27.65,29.70,27.52,29.27,776647
12-Sep-12,27.42,27.77,27.00,27.66,131321
11-Sep-12,27.25,27.75,26.96,27.34,149862
10-Sep-12,27.38,27.41,26.79,27.32,215329
7-Sep-12,28.17,28.17,27.24,27.26,275369
6-Sep-12,26.97,28.07,26.82,28.03,368011
5-Sep-12,26.44,26.99,26.16,26.78,367349
4-Sep-12,26.69,27.14,26.02,26.73,295302
31-Aug-12,26.60,26.89,26.03,26.81,226164
30-Aug-12,26.91,27.00,26.03,26.29,181740
29-Aug-12,27.42,27.42,26.33,27.01,329618
28-Aug-12,26.97,28.00,26.96,27.47,871125
27-Aug-12,26.12,27.50,26.10,26.87,968428
24-Aug-12,25.21,25.51,25.00,25.10,225651
23-Aug-12,26.17,26.29,25.19,25.28,395069
22-Aug-12,25.07,26.40,24.81,26.27,605416
21-Aug-12,25.80,25.99,24.99,25.19,175139
20-Aug-12,25.90,25.91,25.31,25.61,156263
17-Aug-12,25.15,26.00,25.15,25.84,369554
16-Aug-12,25.00,25.30,24.61,25.14,317977
15-Aug-12,24.41,25.25,24.41,25.00,375163
14-Aug-12,25.09,25.22,24.23,24.37,441418
13-Aug-12,26.25,26.40,24.49,25.14,458836
10-Aug-12,25.87,29.71,25.81,26.18,983217
9-Aug-12,26.09,26.50,25.18,25.30,191597
8-Aug-12,25.59,26.36,25.31,25.99,420852
7-Aug-12,25.27,25.70,24.97,25.62,198934
6-Aug-12,25.04,25.32,24.75,25.20,192856
3-Aug-12,24.20,25.26,24.20,24.84,287123
2-Aug-12,23.56,24.04,23.51,23.94,264174
1-Aug-12,23.89,24.10,23.72,23.74,231337
31-Jul-12,23.49,24.24,23.42,23.78,177122
30-Jul-12,23.65,23.99,23.30,23.40,68498
27-Jul-12,22.54,23.63,22.38,23.59,254558
26-Jul-12,22.50,22.61,22.01,22.33,264423
25-Jul-12,22.91,23.16,22.60,23.09,226735
24-Jul-12,23.83,23.90,22.68,22.80,179096
23-Jul-12,24.07,24.15,23.54,23.79,279663
20-Jul-12,23.82,25.40,23.43,24.61,790149
19-Jul-12,23.82,24.18,23.65,23.90,176701
18-Jul-12,23.47,23.78,23.30,23.70,183683
17-Jul-12,23.27,23.52,22.86,23.50,159134
16-Jul-12,23.29,23.44,22.92,23.22,155282
13-Jul-12,22.83,23.76,21.79,23.45,410964
12-Jul-12,22.65,22.81,22.19,22.35,169975
11-Jul-12,22.88,23.49,22.64,22.91,300256
10-Jul-12,22.86,23.00,22.37,22.76,287915
9-Jul-12,23.26,23.29,22.43,22.65,216171
6-Jul-12,24.30,24.58,23.08,23.24,168149
5-Jul-12,24.43,24.99,24.37,24.61,138510
3-Jul-12,23.83,24.93,23.71,24.58,128198
2-Jul-12,23.96,24.29,23.60,23.87,257019
29-Jun-12,22.66,23.82,22.62,23.81,294557
28-Jun-12,22.31,22.46,21.74,22.41,222225
27-Jun-12,21.93,22.50,21.86,22.48,190278
26-Jun-12,21.88,22.15,21.71,21.72,327878
25-Jun-12,21.70,22.09,21.36,21.89,330975
22-Jun-12,21.36,22.04,21.13,21.91,4119037
21-Jun-12,22.49,22.49,21.19,21.22,296824
20-Jun-12,22.20,22.51,21.96,22.22,175073
19-Jun-12,22.18,22.60,22.09,22.53,421314
18-Jun-12,21.15,22.51,20.94,22.01,498365
15-Jun-12,21.00,21.64,21.00,21.27,383987
14-Jun-12,20.53,21.20,20.47,21.07,182978
13-Jun-12,20.11,20.88,19.90,20.61,475813
12-Jun-12,20.38,20.38,20.10,20.16,212284
11-Jun-12,20.44,20.67,20.31,20.35,388009
8-Jun-12,19.91,20.43,19.45,20.35,136532
7-Jun-12,20.19,20.58,19.86,20.01,284523
6-Jun-12,18.32,20.44,18.20,20.19,674099
5-Jun-12,18.51,18.64,18.02,18.26,207289
4-Jun-12,18.93,19.04,18.14,18.48,150341
1-Jun-12,19.70,19.70,18.65,18.82,126935
31-May-12,19.96,20.13,19.55,20.05,248854
30-May-12,19.63,20.11,19.25,20.03,325434
29-May-12,20.07,20.08,19.45,19.82,181544
25-May-12,20.23,20.26,19.62,19.86,168262
24-May-12,20.13,20.42,19.86,20.15,323001
23-May-12,19.87,20.33,19.48,20.17,236020
22-May-12,19.90,20.22,19.75,19.99,187168
21-May-12,19.61,20.00,19.36,19.97,174384
18-May-12,19.83,20.25,19.42,19.61,164542
17-May-12,20.24,20.64,19.74,19.86,343108
16-May-12,21.12,21.23,20.08,20.41,258801
15-May-12,19.52,21.23,19.37,21.00,841595
14-May-12,18.69,18.92,18.26,18.31,283823
11-May-12,18.59,18.95,18.57,18.82,69821
10-May-12,19.06,19.06,18.50,18.73,95745
9-May-12,19.03,19.03,18.65,18.93,183903
8-May-12,19.21,19.50,18.58,18.68,196037
7-May-12,19.64,19.97,19.23,19.36,138941
4-May-12,19.96,19.96,19.22,19.74,213740
3-May-12,20.82,21.10,19.84,19.96,185144
2-May-12,20.82,21.12,20.79,20.95,106518
1-May-12,20.85,21.28,20.80,20.85,133268
30-Apr-12,21.25,21.68,20.75,20.78,161140
27-Apr-12,21.38,21.56,21.18,21.25,105883
26-Apr-12,21.13,21.59,21.05,21.35,101104
25-Apr-12,20.95,21.30,20.90,21.18,125517
24-Apr-12,20.53,21.01,20.35,20.79,415377
23-Apr-12,22.00,22.04,21.18,21.69,144578
20-Apr-12,22.26,22.60,21.81,22.23,185404
19-Apr-12,21.95,22.39,21.56,22.07,210428
18-Apr-12,21.17,21.90,21.04,21.87,229692
17-Apr-12,20.99,21.50,20.82,21.26,169522
16-Apr-12,21.33,21.37,20.77,20.89,187629
13-Apr-12,21.16,21.39,20.63,21.22,113257
12-Apr-12,20.99,21.50,20.97,21.25,93518
11-Apr-12,20.58,21.01,20.35,20.94,185191
10-Apr-12,21.29,21.40,20.45,20.45,193030
9-Apr-12,21.28,21.52,21.20,21.27,100863
5-Apr-12,21.09,21.71,21.05,21.58,127757
4-Apr-12,21.45,21.53,21.05,21.09,114504
3-Apr-12,21.92,21.98,21.45,21.62,129794
2-Apr-12,21.89,22.22,21.71,21.98,207988
30-Mar-12,21.80,22.00,21.75,21.84,209331
29-Mar-12,21.68,21.78,21.50,21.64,149290
28-Mar-12,21.90,21.90,21.49,21.62,169513
27-Mar-12,22.03,22.03,21.70,21.76,224731
26-Mar-12,22.00,22.09,21.35,21.73,549316
23-Mar-12,20.37,20.67,20.27,20.55,193108
22-Mar-12,20.25,20.36,20.17,20.32,87709
21-Mar-12,20.29,20.53,20.19,20.31,110024
20-Mar-12,20.21,20.30,20.05,20.20,179343
19-Mar-12,20.35,20.72,20.26,20.35,169853
16-Mar-12,20.97,20.97,20.27,20.46,527926
15-Mar-12,20.54,21.19,20.12,21.00,356212
14-Mar-12,20.87,20.87,20.44,20.49,261294
13-Mar-12,20.40,20.98,20.02,20.89,1548419
12-Mar-12,20.95,21.41,20.41,20.98,994204
9-Mar-12,22.25,22.47,22.00,22.13,276212
8-Mar-12,20.86,22.62,20.86,22.12,467335
7-Mar-12,20.58,20.92,20.33,20.83,114772
6-Mar-12,20.69,20.76,20.26,20.55,316753
5-Mar-12,21.04,21.20,20.74,20.86,335536
2-Mar-12,20.90,21.44,20.66,21.20,211161
1-Mar-12,20.74,21.08,20.72,20.89,139537
29-Feb-12,20.69,20.89,20.31,20.74,288810
28-Feb-12,20.76,21.00,20.51,20.67,264493
27-Feb-12,20.56,21.32,20.20,20.78,419313
24-Feb-12,20.25,20.88,20.06,20.68,318151
23-Feb-12,19.61,20.48,19.44,20.23,462240
22-Feb-12,19.75,19.81,19.36,19.61,187299
21-Feb-12,19.00,20.00,19.00,19.91,640536
17-Feb-12,18.90,19.04,18.69,19.03,357993
16-Feb-12,18.59,18.88,18.35,18.78,497880
15-Feb-12,18.63,19.50,18.23,18.58,1287482
14-Feb-12,18.37,18.64,18.06,18.35,206185
13-Feb-12,18.36,18.38,18.02,18.30,244136
10-Feb-12,17.47,18.17,17.42,18.09,403659
9-Feb-12,18.65,18.65,17.29,17.58,1358530
8-Feb-12,18.00,18.06,17.35,17.78,129220
7-Feb-12,17.80,18.21,17.71,18.02,101427
6-Feb-12,18.24,18.38,17.53,17.80,150309
3-Feb-12,18.40,18.40,18.13,18.30,160519
2-Feb-12,18.25,18.40,18.20,18.30,225220
1-Feb-12,18.33,18.33,17.99,18.25,135634
31-Jan-12,18.22,18.32,18.07,18.25,116224
30-Jan-12,18.00,18.13,17.81,18.11,43583
27-Jan-12,17.92,18.25,17.92,18.15,28981
26-Jan-12,18.31,18.31,17.82,17.98,95130
25-Jan-12,18.06,18.35,17.78,18.27,86886
24-Jan-12,18.05,18.19,17.89,18.10,38204
23-Jan-12,18.21,18.44,17.87,18.14,43424
20-Jan-12,18.21,18.31,17.88,18.31,78312
19-Jan-12,18.47,18.47,18.18,18.25,254773
18-Jan-12,18.21,18.53,18.13,18.30,138665
17-Jan-12,18.42,18.43,18.05,18.17,92716
13-Jan-12,18.08,18.26,18.05,18.19,68354
12-Jan-12,18.29,18.29,18.08,18.27,48513
11-Jan-12,18.04,18.30,17.94,18.29,145304
10-Jan-12,18.17,18.30,17.97,18.05,101043
9-Jan-12,17.77,18.18,17.77,17.98,93180
6-Jan-12,17.96,17.96,17.56,17.80,35246
5-Jan-12,17.80,18.12,17.17,18.00,68902
4-Jan-12,17.86,18.24,17.41,17.86,98772
3-Jan-12,18.50,18.50,17.67,17.98,80883
30-Dec-11,18.18,18.33,17.99,18.24,325816
29-Dec-11,18.15,18.30,17.64,18.21,146111
28-Dec-11,18.16,18.36,18.08,18.14,126433
27-Dec-11,18.31,18.35,18.08,18.19,113807
23-Dec-11,18.25,18.30,18.13,18.24,125160
22-Dec-11,17.99,18.30,17.88,18.19,144842
21-Dec-11,18.05,18.14,17.14,17.98,155446
20-Dec-11,18.37,18.37,18.11,18.14,459950
19-Dec-11,18.05,18.30,17.96,18.17,227760
16-Dec-11,17.80,18.08,17.32,17.90,344411
15-Dec-11,17.65,18.13,16.82,17.80,162333
14-Dec-11,18.21,18.50,17.26,17.57,316346
13-Dec-11,18.43,18.59,18.26,18.34,491151
12-Dec-11,18.59,18.81,17.29,18.24,450256
9-Dec-11,18.13,18.82,17.93,18.75,421490
8-Dec-11,17.67,18.24,17.57,18.12,1003093
7-Dec-11,17.81,17.99,17.10,17.80,221219
6-Dec-11,18.48,18.48,17.66,17.90,708334
5-Dec-11,18.05,19.00,17.64,18.20,1532475
2-Dec-11,16.40,16.64,16.19,16.24,195969
1-Dec-11,16.05,16.30,15.24,16.24,320593
30-Nov-11,16.10,16.20,15.84,16.12,1190420
29-Nov-11,16.07,16.07,15.59,15.92,196170
28-Nov-11,15.92,16.05,15.41,16.04,127515
25-Nov-11,15.40,15.72,15.24,15.35,41877
23-Nov-11,15.88,15.92,15.41,15.48,272419
22-Nov-11,16.02,16.17,15.84,16.05,221761
21-Nov-11,15.75,16.07,15.73,16.02,229235
18-Nov-11,16.06,16.10,15.80,16.07,210809
17-Nov-11,15.67,16.05,15.54,16.00,358363
16-Nov-11,14.92,16.02,14.92,15.70,460182
15-Nov-11,14.55,15.49,14.50,15.13,143716
14-Nov-11,14.55,14.77,14.55,14.63,90228
11-Nov-11,14.77,14.82,14.66,14.69,105450
10-Nov-11,14.86,14.86,14.05,14.69,84250
9-Nov-11,14.73,15.28,13.93,14.60,102607
8-Nov-11,14.50,15.34,14.21,15.10,203809
7-Nov-11,14.01,14.12,13.87,14.00,81994
4-Nov-11,14.13,14.25,13.94,13.99,100193
3-Nov-11,14.84,14.84,14.23,14.29,57371
2-Nov-11,14.63,15.03,14.34,14.61,35853
1-Nov-11,14.00,14.69,13.96,14.34,63378
31-Oct-11,15.20,15.57,14.40,14.41,61900
28-Oct-11,15.29,15.50,14.83,15.45,192934
27-Oct-11,14.73,15.35,14.00,15.35,202640
26-Oct-11,14.08,14.61,13.82,14.35,78745
25-Oct-11,14.45,14.45,13.85,13.90,62291
24-Oct-11,14.37,14.97,13.81,14.57,116519
21-Oct-11,13.93,14.64,13.71,14.38,53141
20-Oct-11,14.31,14.35,13.20,13.66,61708
19-Oct-11,14.72,14.72,14.24,14.35,77047
18-Oct-11,14.76,14.90,14.36,14.72,55379
17-Oct-11,14.85,15.10,14.51,14.72,75454
14-Oct-11,15.00,15.09,14.87,15.00,128696
13-Oct-11,14.89,14.89,14.49,14.83,73529
12-Oct-11,15.00,15.10,14.70,14.99,81806
11-Oct-11,14.50,15.00,14.44,14.90,187204
10-Oct-11,14.55,14.69,14.22,14.60,175209
7-Oct-11,14.60,14.96,14.21,14.28,178860
6-Oct-11,13.70,14.74,13.67,14.55,173996
5-Oct-11,13.64,13.81,13.22,13.70,90962
4-Oct-11,12.34,13.66,12.34,13.59,182860
3-Oct-11,12.39,12.77,12.01,12.44,144700
30-Sep-11,13.11,13.51,12.38,12.54,293797
29-Sep-11,13.71,13.93,12.68,13.37,96791
28-Sep-11,13.41,14.05,12.82,13.39,143931
27-Sep-11,12.75,13.42,12.57,13.08,106893
26-Sep-11,13.00,13.00,12.28,12.64,111604
23-Sep-11,12.42,12.97,12.33,12.97,100494
22-Sep-11,11.80,12.50,11.53,12.41,118460
21-Sep-11,12.45,12.55,11.50,12.17,146722
20-Sep-11,12.71,12.74,12.22,12.43,76205
19-Sep-11,12.74,13.14,12.42,12.70,208857
16-Sep-11,12.83,13.13,12.74,12.94,266368
15-Sep-11,13.20,13.48,12.57,12.71,143911
14-Sep-11,13.17,13.87,12.89,13.08,192732
13-Sep-11,11.81,13.48,11.51,13.09,1493442
12-Sep-11,12.38,12.73,11.97,12.13,397909
9-Sep-11,13.13,13.28,12.44,12.56,152332
8-Sep-11,13.34,13.66,12.98,13.28,77481
7-Sep-11,13.65,13.80,13.36,13.43,98732
6-Sep-11,13.94,14.09,13.28,13.40,108886
2-Sep-11,15.06,15.18,14.29,14.34,62634
1-Sep-11,15.46,16.30,15.30,15.41,49781
31-Aug-11,15.47,15.97,15.17,15.52,117934
30-Aug-11,15.54,16.40,14.69,15.37,38249
29-Aug-11,14.47,15.71,14.42,15.68,55808
26-Aug-11,13.87,14.74,13.75,14.27,63580
25-Aug-11,14.99,14.99,13.95,13.99,45081
24-Aug-11,14.87,14.96,14.08,14.89,59501
23-Aug-11,14.03,15.51,13.88,14.95,123812
22-Aug-11,14.35,14.35,13.62,14.04,42802
19-Aug-11,14.21,17.42,14.11,14.14,60957
18-Aug-11,16.10,16.10,14.45,14.48,76083
17-Aug-11,16.93,16.99,16.15,16.30,102370
16-Aug-11,17.03,17.39,16.74,17.00,151405
15-Aug-11,16.42,17.35,16.37,17.31,99428
12-Aug-11,15.75,16.76,14.92,16.43,277124
11-Aug-11,14.19,14.77,14.19,14.71,111658
10-Aug-11,13.99,15.23,12.13,14.11,135457
9-Aug-11,15.23,15.75,14.02,14.37,168942
8-Aug-11,14.59,15.33,14.22,14.63,250147
5-Aug-11,15.03,16.00,14.53,15.02,203103
4-Aug-11,16.38,17.29,15.96,16.12,141149
3-Aug-11,16.28,16.73,16.25,16.66,260666
2-Aug-11,17.10,16.72,16.25,16.29,309784
1-Aug-11,16.63,17.55,15.57,17.16,153117
29-Jul-11,15.62,17.13,15.15,16.40,300361
28-Jul-11,16.90,16.90,15.59,15.85,158496
27-Jul-11,17.80,17.84,16.57,16.86,144482
26-Jul-11,17.61,18.46,17.44,17.97,59558
25-Jul-11,17.06,17.88,17.06,17.63,97539
22-Jul-11,17.59,18.28,16.96,17.09,79605
21-Jul-11,18.12,18.52,17.45,17.65,91076
20-Jul-11,19.50,19.50,17.60,18.05,111733
19-Jul-11,17.61,19.65,17.46,19.48,93840
18-Jul-11,18.13,18.17,16.95,17.44,97804
15-Jul-11,19.03,19.03,18.10,18.42,67895
14-Jul-11,18.92,19.19,18.74,18.89,63251
13-Jul-11,18.47,19.19,18.31,18.93,47346
12-Jul-11,18.36,18.97,17.68,18.74,73944
11-Jul-11,18.75,19.42,18.25,18.42,27160
8-Jul-11,18.84,19.45,18.68,19.02,22266
7-Jul-11,18.62,19.15,18.62,19.12,52571
6-Jul-11,18.17,18.78,18.17,18.40,57634
5-Jul-11,17.97,18.24,17.97,18.11,36426
1-Jul-11,17.77,18.05,17.31,17.92,56908
30-Jun-11,18.37,18.43,17.50,17.65,77513
29-Jun-11,18.71,19.54,18.10,18.27,101260
28-Jun-11,18.48,18.79,17.97,18.65,83795
27-Jun-11,17.77,18.48,17.65,18.42,123545
24-Jun-11,18.41,18.65,17.23,17.56,1941665
23-Jun-11,18.91,19.32,18.14,18.56,133440
22-Jun-11,18.02,19.34,17.85,19.05,74648
21-Jun-11,17.88,18.16,17.28,18.08,351060
20-Jun-11,17.50,18.14,16.82,17.79,94065
17-Jun-11,18.38,18.38,17.11,17.49,204381
16-Jun-11,18.40,18.61,18.00,18.14,93950
15-Jun-11,19.70,19.70,18.42,18.53,104514
14-Jun-11,18.57,20.19,18.15,19.79,92339
13-Jun-11,19.10,19.33,18.36,18.52,87243
10-Jun-11,18.92,19.38,18.59,18.85,103807
9-Jun-11,18.20,19.17,18.20,18.89,163974
8-Jun-11,18.22,18.48,17.78,18.25,115787
7-Jun-11,19.33,19.33,18.00,18.13,69648
6-Jun-11,19.47,19.55,19.14,19.22,16490
3-Jun-11,19.57,19.59,18.92,19.09,39367
2-Jun-11,20.00,20.00,19.16,19.26,31415
1-Jun-11,18.97,20.11,18.93,19.52,98693
31-May-11,19.41,19.75,19.27,19.31,105269
27-May-11,19.91,19.91,18.14,19.50,198061
26-May-11,19.17,20.48,18.97,19.79,113892
25-May-11,19.06,19.64,18.45,19.11,52776
24-May-11,20.12,20.12,19.04,19.16,57272
23-May-11,19.43,20.32,19.13,20.00,83986
20-May-11,19.75,19.83,19.08,19.79,47636
19-May-11,19.75,19.93,19.24,19.68,49462
18-May-11,19.79,19.89,19.50,19.67,70540
17-May-11,20.35,20.40,19.39,19.70,305201
16-May-11,19.84,19.84,18.77,19.60,233147
13-May-11,21.86,21.86,18.72,20.10,283937
12-May-11,22.93,22.93,21.04,21.34,163646
11-May-11,21.70,23.50,21.40,22.74,236936
10-May-11,21.25,21.48,21.15,21.30,66580
9-May-11,21.18,21.30,20.78,21.23,75883
6-May-11,21.30,21.33,20.85,21.10,131147
5-May-11,21.49,21.53,21.04,21.43,62724
4-May-11,20.38,21.73,19.65,21.51,171067
3-May-11,19.71,20.66,19.71,20.27,41264
2-May-11,19.48,20.18,18.35,20.13,182509
29-Apr-11,19.09,19.50,18.70,19.14,144623
28-Apr-11,18.87,19.11,18.14,18.90,70719
27-Apr-11,18.03,18.93,17.48,18.72,139006
26-Apr-11,18.03,18.51,17.90,18.16,109772
25-Apr-11,18.11,18.50,18.00,18.15,73681
21-Apr-11,18.48,18.58,17.87,18.01,64559
20-Apr-11,17.64,18.52,17.48,18.29,139624
19-Apr-11,17.33,17.88,17.24,17.42,42370
18-Apr-11,17.52,17.52,16.67,17.39,110543
15-Apr-11,17.95,18.23,17.71,17.80,199752
14-Apr-11,18.19,18.35,17.64,18.04,89544
13-Apr-11,18.00,18.87,17.25,18.20,436588
12-Apr-11,18.56,18.78,17.52,18.02,127560
11-Apr-11,18.95,19.50,18.40,18.56,114843
8-Apr-11,18.74,19.59,18.68,18.70,83745
7-Apr-11,18.79,19.12,18.50,18.77,175684
6-Apr-11,18.95,19.28,18.73,19.08,90658
5-Apr-11,18.59,19.07,17.67,18.87,88196
4-Apr-11,17.60,18.57,17.46,18.57,123358
1-Apr-11,18.46,18.46,17.48,17.78,212599
31-Mar-11,18.94,19.08,17.50,18.23,203003
30-Mar-11,18.55,18.60,18.17,18.58,59256
29-Mar-11,18.73,18.75,17.95,18.35,152639
28-Mar-11,18.50,18.70,18.14,18.53,88796
25-Mar-11,19.00,19.02,17.76,18.50,169374
24-Mar-11,17.99,19.43,17.76,19.02,291871
23-Mar-11,18.22,18.25,17.30,17.94,250924
22-Mar-11,18.75,18.75,18.00,18.06,137189
21-Mar-11,18.40,18.40,18.00,18.19,279908
18-Mar-11,19.20,19.50,17.63,18.25,1010915
17-Mar-11,18.00,20.25,17.95,19.07,7374845
