﻿Date,Open,High,Low,Close,Volume
20-Jun-17,48.45,48.46,48.42,48.46,429890
19-Jun-17,48.49,48.49,48.43,48.45,529881
16-Jun-17,48.46,48.50,48.44,48.49,766385
15-Jun-17,48.44,48.51,48.39,48.45,795755
14-Jun-17,48.34,48.46,48.33,48.46,603504
13-Jun-17,48.36,48.38,48.32,48.35,1809880
12-Jun-17,48.38,48.40,48.33,48.35,496204
9-Jun-17,48.35,48.36,48.33,48.33,292649
8-Jun-17,48.35,48.39,48.33,48.34,283906
7-Jun-17,48.34,48.37,48.33,48.35,233028
6-Jun-17,48.34,48.36,48.32,48.35,426795
5-Jun-17,48.42,48.42,48.35,48.36,273683
2-Jun-17,48.41,48.48,48.36,48.36,380602
1-Jun-17,48.35,48.42,48.34,48.40,352656
31-May-17,48.38,48.39,48.33,48.33,402319
30-May-17,48.37,48.40,48.33,48.40,372983
26-May-17,48.37,48.38,48.35,48.38,298993
25-May-17,48.36,48.38,48.34,48.38,364561
24-May-17,48.36,48.39,48.32,48.36,388133
23-May-17,48.38,48.40,48.34,48.39,289754
22-May-17,48.35,48.41,48.31,48.38,482050
19-May-17,48.34,48.43,48.26,48.35,474283
18-May-17,48.30,48.37,48.30,48.37,327972
17-May-17,48.35,48.36,48.30,48.30,512563
16-May-17,48.35,48.37,48.32,48.35,411523
15-May-17,48.33,48.36,48.31,48.34,293572
12-May-17,48.33,48.36,48.31,48.33,220247
11-May-17,48.33,48.37,48.31,48.34,444399
10-May-17,48.35,48.38,48.32,48.32,295417
9-May-17,48.32,48.38,48.31,48.37,445482
8-May-17,48.37,48.39,48.36,48.37,215025
5-May-17,48.29,48.40,48.29,48.39,286806
4-May-17,48.37,48.40,48.31,48.36,241748
3-May-17,48.31,48.40,48.30,48.40,341003
2-May-17,48.36,48.38,48.30,48.32,480403
1-May-17,48.32,48.40,48.26,48.36,333661
28-Apr-17,48.27,48.30,48.24,48.29,674013
27-Apr-17,48.36,48.38,48.24,48.24,521904
26-Apr-17,48.34,48.40,48.34,48.35,401439
25-Apr-17,48.48,48.52,48.33,48.33,343227
24-Apr-17,48.39,48.42,48.36,48.39,362764
21-Apr-17,48.33,48.39,48.33,48.33,479881
20-Apr-17,48.38,48.40,48.35,48.35,417326
19-Apr-17,48.36,48.38,48.34,48.35,283874
18-Apr-17,48.30,48.40,48.27,48.40,391943
17-Apr-17,48.27,48.37,48.22,48.32,298909
13-Apr-17,48.29,48.32,48.22,48.23,381173
12-Apr-17,48.34,48.35,48.26,48.32,264787
11-Apr-17,48.32,48.36,48.27,48.35,534268
10-Apr-17,48.30,48.39,48.29,48.31,380579
7-Apr-17,48.17,48.35,48.17,48.28,295295
6-Apr-17,48.28,48.33,48.21,48.32,279320
5-Apr-17,48.23,48.33,48.23,48.25,366459
4-Apr-17,48.25,48.32,48.20,48.32,409142
3-Apr-17,48.24,48.35,48.21,48.24,538376
31-Mar-17,48.34,48.38,48.05,48.09,358127
30-Mar-17,48.29,48.35,48.25,48.32,244266
29-Mar-17,48.25,48.30,48.23,48.30,298270
28-Mar-17,48.19,48.25,48.17,48.22,312069
27-Mar-17,48.20,48.24,48.16,48.17,357636
24-Mar-17,48.21,48.26,48.16,48.25,358227
23-Mar-17,48.17,48.23,48.13,48.17,298736
22-Mar-17,48.14,48.18,48.09,48.17,403382
21-Mar-17,48.16,48.20,48.07,48.14,535141
20-Mar-17,48.23,48.26,48.16,48.21,271531
17-Mar-17,48.27,48.29,48.16,48.23,617366
16-Mar-17,48.28,48.29,48.24,48.25,279680
15-Mar-17,48.29,48.30,48.25,48.28,401542
14-Mar-17,48.10,48.33,48.10,48.25,562634
13-Mar-17,48.31,48.35,48.30,48.32,468918
10-Mar-17,48.31,48.34,48.28,48.29,410409
9-Mar-17,48.32,48.34,48.29,48.30,327489
8-Mar-17,47.83,48.34,47.83,48.30,394143
7-Mar-17,48.31,48.33,48.25,48.32,401981
6-Mar-17,48.31,48.34,48.30,48.33,461923
3-Mar-17,48.35,48.35,48.30,48.30,620420
2-Mar-17,48.29,48.38,48.28,48.35,792250
1-Mar-17,48.27,48.35,48.25,48.32,579617
28-Feb-17,48.36,48.37,48.13,48.13,632059
27-Feb-17,48.35,48.44,48.33,48.44,249247
24-Feb-17,48.04,48.41,48.04,48.35,232441
23-Feb-17,48.50,48.50,48.33,48.33,467575
22-Feb-17,48.38,48.42,48.32,48.42,575791
21-Feb-17,48.33,48.42,48.30,48.42,568772
17-Feb-17,48.29,48.36,48.26,48.32,280345
16-Feb-17,48.39,48.39,48.31,48.34,279634
15-Feb-17,48.29,48.44,48.22,48.44,361199
14-Feb-17,48.25,48.34,48.22,48.22,457382
13-Feb-17,48.31,48.37,48.22,48.23,321030
10-Feb-17,48.34,48.38,48.22,48.22,519988
9-Feb-17,48.31,48.39,48.27,48.35,540603
8-Feb-17,48.18,48.34,48.14,48.32,639891
7-Feb-17,48.18,48.18,48.12,48.17,878624
6-Feb-17,48.15,48.18,48.12,48.13,686630
3-Feb-17,48.22,48.23,47.79,48.15,318864
2-Feb-17,48.20,48.25,48.10,48.10,610960
1-Feb-17,48.25,48.25,48.15,48.15,388224
31-Jan-17,48.14,48.26,48.10,48.18,341224
30-Jan-17,48.10,48.21,48.10,48.15,696021
27-Jan-17,48.08,48.30,48.06,48.12,1525387
26-Jan-17,48.23,48.31,48.03,48.15,848316
25-Jan-17,48.19,48.35,48.17,48.27,186048
24-Jan-17,48.29,48.37,48.27,48.37,339088
23-Jan-17,48.23,48.33,48.16,48.33,450826
20-Jan-17,48.30,48.33,48.17,48.30,461852
19-Jan-17,48.18,48.33,48.16,48.28,636505
18-Jan-17,48.16,48.27,48.13,48.18,333082
17-Jan-17,48.21,48.33,48.17,48.20,397751
13-Jan-17,48.31,48.33,48.21,48.22,214847
12-Jan-17,48.17,48.33,48.16,48.30,418287
11-Jan-17,48.18,48.27,48.14,48.15,626254
10-Jan-17,48.25,48.35,48.21,48.27,318752
9-Jan-17,48.25,48.27,48.18,48.25,182356
6-Jan-17,48.21,48.28,48.16,48.28,616811
5-Jan-17,48.20,48.27,48.15,48.21,265272
4-Jan-17,48.00,48.34,47.93,48.23,569536
3-Jan-17,48.18,48.21,48.07,48.10,940525
30-Dec-16,48.26,48.38,48.15,48.15,400344
29-Dec-16,48.39,48.39,48.13,48.23,356681
28-Dec-16,48.14,48.29,48.11,48.28,318099
27-Dec-16,48.07,48.43,48.07,48.17,227412
23-Dec-16,48.19,48.28,48.07,48.16,406619
22-Dec-16,48.16,48.27,48.15,48.16,509050
21-Dec-16,48.25,48.29,48.20,48.22,150186
20-Dec-16,48.28,48.34,48.22,48.30,347504
19-Dec-16,48.20,48.32,48.17,48.29,314763
16-Dec-16,48.22,48.38,48.16,48.16,830723
15-Dec-16,48.27,48.29,48.14,48.18,873481
14-Dec-16,48.25,48.28,48.11,48.20,440506
13-Dec-16,48.16,48.28,48.11,48.21,357854
12-Dec-16,48.12,48.17,48.08,48.10,334344
9-Dec-16,48.11,48.24,48.09,48.15,295382
8-Dec-16,48.19,48.19,48.06,48.15,374564
7-Dec-16,48.24,48.24,48.08,48.11,392247
6-Dec-16,48.07,48.30,48.05,48.29,412555
5-Dec-16,48.09,48.15,48.05,48.07,414930
2-Dec-16,48.07,48.15,48.01,48.05,271103
1-Dec-16,48.19,48.19,48.02,48.07,306053
30-Nov-16,48.06,48.18,48.02,48.03,384907
29-Nov-16,47.98,48.12,47.98,48.06,357103
28-Nov-16,48.09,48.15,48.01,48.06,413005
25-Nov-16,48.00,48.16,48.00,48.16,134590
23-Nov-16,48.08,48.11,48.02,48.06,269226
22-Nov-16,47.97,48.12,47.95,48.05,291741
21-Nov-16,48.10,48.15,47.83,47.98,554990
18-Nov-16,48.05,48.14,48.00,48.11,348091
17-Nov-16,48.05,48.12,47.97,48.07,435882
16-Nov-16,48.15,48.26,48.06,48.07,846619
15-Nov-16,48.22,48.22,48.13,48.17,247105
14-Nov-16,48.19,48.25,48.08,48.25,789912
11-Nov-16,48.16,48.22,48.07,48.11,388176
10-Nov-16,48.22,48.24,48.06,48.20,713210
9-Nov-16,48.06,48.25,48.02,48.25,366263
8-Nov-16,48.10,48.20,48.02,48.20,337495
7-Nov-16,48.15,48.24,48.05,48.24,221591
4-Nov-16,48.00,48.18,47.96,47.98,353530
3-Nov-16,48.03,48.07,47.95,47.96,298891
2-Nov-16,48.04,48.16,47.96,47.96,290248
1-Nov-16,48.07,48.09,48.01,48.03,406761
31-Oct-16,48.06,48.17,48.02,48.02,467188
28-Oct-16,48.09,48.12,48.02,48.08,528157
27-Oct-16,48.11,48.13,48.00,48.07,337142
26-Oct-16,48.09,48.15,47.99,48.14,351562
25-Oct-16,48.08,48.14,48.03,48.10,427846
24-Oct-16,48.29,48.29,48.07,48.10,211004
21-Oct-16,48.10,48.12,48.03,48.09,267312
20-Oct-16,48.09,48.24,48.00,48.14,541352
19-Oct-16,47.96,48.19,47.96,48.12,460540
18-Oct-16,47.97,48.01,47.94,47.96,530567
17-Oct-16,47.96,48.05,47.92,47.92,196308
14-Oct-16,48.00,48.04,47.91,47.97,426616
13-Oct-16,47.96,48.06,47.87,47.99,567752
12-Oct-16,47.96,48.05,47.92,48.00,269568
11-Oct-16,48.01,48.06,47.89,47.94,463085
10-Oct-16,48.06,48.12,47.97,48.02,234328
7-Oct-16,48.07,48.12,47.94,47.97,556832
6-Oct-16,48.05,48.14,48.02,48.05,786727
5-Oct-16,48.05,48.12,48.02,48.09,485886
4-Oct-16,47.96,48.21,47.94,47.96,910868
3-Oct-16,48.00,48.03,47.91,47.94,848331
30-Sep-16,47.96,48.13,47.93,48.09,809915
29-Sep-16,48.00,48.08,47.91,47.91,609681
28-Sep-16,47.90,48.17,47.83,48.00,487218
27-Sep-16,47.75,47.94,47.72,47.92,526753
26-Sep-16,47.76,47.80,47.74,47.75,756785
23-Sep-16,47.96,47.96,47.73,47.76,709284
22-Sep-16,47.76,47.83,47.72,47.79,624773
21-Sep-16,47.68,47.84,47.68,47.72,665678
20-Sep-16,47.80,47.84,47.62,47.65,1760042
19-Sep-16,47.57,47.89,47.56,47.80,808607
16-Sep-16,47.73,47.80,47.65,47.71,504443
15-Sep-16,47.62,47.80,47.60,47.80,367600
14-Sep-16,47.61,47.77,47.56,47.62,739819
13-Sep-16,47.67,47.86,47.53,47.55,1404567
12-Sep-16,47.75,47.88,47.60,47.64,1100397
9-Sep-16,47.86,47.89,47.70,47.71,1189643
8-Sep-16,47.96,47.98,47.85,47.86,862599
7-Sep-16,48.00,48.01,47.83,48.01,734373
6-Sep-16,47.86,48.10,47.80,48.10,1049924
2-Sep-16,48.09,48.12,47.85,47.85,906751
1-Sep-16,47.84,48.20,47.77,47.98,2317606
31-Aug-16,47.70,47.87,47.69,47.81,2195872
30-Aug-16,47.70,47.72,47.63,47.70,1047021
29-Aug-16,47.55,47.70,47.55,47.70,1436437
26-Aug-16,47.65,47.74,47.54,47.54,2670117
25-Aug-16,47.70,47.75,47.60,47.68,2189117
24-Aug-16,47.65,47.90,47.60,47.77,3327785
23-Aug-16,47.47,47.66,47.45,47.59,12176592
22-Aug-16,47.58,47.75,47.45,47.45,19212190
19-Aug-16,47.43,48.00,47.23,47.51,1100694
18-Aug-16,47.49,47.85,47.17,47.56,866622
17-Aug-16,47.38,47.79,46.56,47.51,1327929
16-Aug-16,46.70,48.31,46.50,47.11,2532604
15-Aug-16,44.61,44.90,44.19,44.32,258699
12-Aug-16,44.36,44.65,43.94,44.38,299370
11-Aug-16,44.39,45.42,44.07,44.43,435076
10-Aug-16,43.86,44.20,43.19,43.80,495709
9-Aug-16,43.88,44.24,43.44,43.68,382183
8-Aug-16,43.27,44.45,43.24,43.88,335029
5-Aug-16,43.00,44.66,43.00,44.07,577574
4-Aug-16,44.55,44.70,42.97,43.00,1058135
3-Aug-16,43.04,44.36,42.52,44.35,622704
2-Aug-16,44.29,44.29,43.02,43.29,526053
1-Aug-16,44.57,44.75,44.08,44.34,472892
29-Jul-16,44.17,44.88,44.00,44.72,455147
28-Jul-16,44.09,44.36,43.71,43.98,321142
27-Jul-16,44.67,44.80,43.96,44.06,346338
26-Jul-16,44.62,44.93,44.21,44.70,498135
25-Jul-16,44.40,45.04,44.20,44.74,422344
22-Jul-16,44.87,45.74,44.54,45.40,384028
21-Jul-16,45.31,45.60,44.78,44.85,386848
20-Jul-16,45.50,45.67,45.06,45.26,440008
19-Jul-16,44.53,45.38,44.51,45.31,695234
18-Jul-16,44.11,44.59,43.80,44.55,302988
15-Jul-16,44.50,44.50,44.00,44.05,329326
14-Jul-16,44.47,44.57,44.07,44.28,331854
13-Jul-16,44.75,44.75,43.90,44.22,309449
12-Jul-16,45.05,45.19,43.92,44.66,706088
11-Jul-16,44.11,44.77,43.89,44.77,502807
8-Jul-16,43.25,43.97,43.16,43.86,536709
7-Jul-16,43.32,43.45,42.33,42.76,724880
6-Jul-16,42.68,43.36,42.32,43.27,529774
5-Jul-16,43.65,43.65,42.61,42.90,689166
1-Jul-16,43.58,43.99,43.34,43.86,658720
30-Jun-16,42.46,43.10,42.26,43.08,557637
29-Jun-16,42.16,42.46,42.01,42.32,655231
28-Jun-16,41.34,42.32,40.85,41.86,1027050
27-Jun-16,42.46,42.91,40.43,41.38,1081507
24-Jun-16,42.01,43.21,42.01,43.05,1426023
23-Jun-16,43.61,43.82,43.35,43.82,334073
22-Jun-16,43.54,43.65,43.14,43.30,532494
21-Jun-16,43.10,43.57,42.79,43.46,430487
20-Jun-16,43.40,43.58,43.01,43.12,556500
17-Jun-16,43.23,43.68,42.96,43.00,844525
16-Jun-16,42.69,43.39,42.64,43.25,681123
15-Jun-16,42.46,43.32,42.01,43.04,780822
14-Jun-16,42.62,42.87,41.97,42.30,831160
13-Jun-16,43.13,43.25,42.55,42.68,790024
10-Jun-16,43.80,43.93,42.94,43.19,864392
9-Jun-16,44.24,44.58,44.02,44.13,454090
8-Jun-16,44.64,44.96,44.17,44.46,542058
7-Jun-16,44.08,44.91,43.73,44.68,814003
6-Jun-16,43.90,44.24,43.31,44.01,909297
3-Jun-16,44.12,44.33,43.10,43.82,2691219
2-Jun-16,37.83,45.28,37.83,44.95,5647381
1-Jun-16,37.73,38.02,37.40,38.02,811786
31-May-16,38.30,38.31,37.70,37.93,459007
27-May-16,37.81,38.31,37.67,38.24,396105
26-May-16,38.09,38.16,37.48,37.84,471097
25-May-16,37.95,38.05,37.27,37.93,297577
24-May-16,37.11,38.07,37.10,37.91,592868
23-May-16,37.29,37.72,37.04,37.06,447886
20-May-16,36.75,37.37,36.57,37.29,475906
19-May-16,36.39,37.22,36.30,36.71,449222
18-May-16,36.35,36.76,36.10,36.66,650956
17-May-16,37.20,37.25,36.46,36.54,672408
16-May-16,36.49,37.49,36.42,37.17,532789
13-May-16,36.77,37.08,36.33,36.52,475456
12-May-16,37.00,37.18,36.73,36.97,512380
11-May-16,37.37,37.59,36.72,37.01,605024
10-May-16,37.80,37.88,37.38,37.57,400560
9-May-16,36.92,38.02,36.73,37.80,560821
6-May-16,36.05,37.18,36.02,37.04,805667
5-May-16,36.69,36.79,36.15,36.21,827662
4-May-16,36.58,37.25,36.39,36.65,573711
3-May-16,37.66,37.75,36.83,36.94,780695
2-May-16,37.82,37.86,37.12,37.83,508055
29-Apr-16,37.56,37.93,37.45,37.77,515798
28-Apr-16,38.06,38.28,37.52,37.71,544921
27-Apr-16,38.15,38.64,38.05,38.35,375657
26-Apr-16,37.90,38.31,37.77,38.07,575487
25-Apr-16,38.25,38.44,37.75,37.92,510279
22-Apr-16,38.02,38.56,37.91,38.38,424607
21-Apr-16,38.74,38.80,37.70,37.91,637960
20-Apr-16,38.65,39.12,38.49,38.85,320732
19-Apr-16,38.37,38.91,36.80,38.62,1806070
18-Apr-16,38.42,38.74,38.03,38.37,386158
15-Apr-16,38.49,38.72,38.31,38.51,410687
14-Apr-16,39.10,39.18,38.59,38.67,538575
13-Apr-16,38.62,39.30,38.45,39.12,1181736
12-Apr-16,38.77,39.08,38.32,38.33,449222
11-Apr-16,38.99,39.24,38.55,38.58,512946
8-Apr-16,38.25,38.92,37.96,38.86,669759
7-Apr-16,37.98,38.62,37.93,38.34,723030
6-Apr-16,37.80,38.20,37.48,38.10,377877
5-Apr-16,38.22,38.38,37.70,37.85,524752
4-Apr-16,38.61,38.76,38.02,38.55,507582
1-Apr-16,38.09,38.85,37.72,38.74,464120
31-Mar-16,38.25,38.76,38.25,38.29,375963
30-Mar-16,38.75,38.80,38.13,38.35,334832
29-Mar-16,38.03,38.75,37.87,38.64,393143
28-Mar-16,37.97,38.44,37.94,38.26,309749
24-Mar-16,37.56,38.00,37.27,37.97,593824
23-Mar-16,38.44,38.44,37.58,37.67,415142
22-Mar-16,38.44,38.97,38.16,38.61,383015
21-Mar-16,38.45,39.01,38.45,38.71,445400
18-Mar-16,38.73,39.08,38.40,38.51,686799
17-Mar-16,38.50,38.86,38.00,38.76,298694
16-Mar-16,38.35,38.65,37.83,38.43,404303
15-Mar-16,38.60,38.77,38.23,38.43,327786
14-Mar-16,38.92,39.00,38.46,38.72,399458
11-Mar-16,39.03,39.09,38.65,38.92,625390
10-Mar-16,38.88,39.00,37.97,38.53,675694
9-Mar-16,38.52,39.35,38.42,38.91,672283
8-Mar-16,38.99,39.33,38.19,38.26,795971
7-Mar-16,38.97,39.69,38.91,39.18,1627643
4-Mar-16,37.90,39.89,37.90,39.21,3201826
3-Mar-16,33.58,34.30,33.51,34.21,499698
2-Mar-16,33.20,33.76,33.13,33.71,609103
1-Mar-16,32.76,33.22,31.98,33.20,764997
29-Feb-16,32.92,33.15,32.41,32.44,567240
26-Feb-16,33.54,33.64,32.97,33.00,670751
25-Feb-16,33.05,33.56,32.56,33.49,514921
24-Feb-16,31.93,33.51,31.90,33.10,856087
23-Feb-16,31.93,32.17,31.27,32.06,836091
22-Feb-16,32.32,32.50,31.61,32.00,850482
19-Feb-16,31.87,32.93,29.73,32.06,3401689
18-Feb-16,33.59,33.76,32.63,33.28,1127830
17-Feb-16,33.11,34.27,33.05,33.62,656090
16-Feb-16,33.04,33.27,32.29,33.08,919979
12-Feb-16,33.09,33.22,32.10,32.50,910490
11-Feb-16,32.98,33.29,32.45,32.81,664572
10-Feb-16,34.02,34.30,33.38,33.43,456776
9-Feb-16,32.87,34.06,32.81,33.69,875884
8-Feb-16,34.89,34.89,32.94,33.14,1009581
5-Feb-16,36.74,36.77,35.01,35.10,992591
4-Feb-16,37.26,37.33,36.48,36.85,872933
3-Feb-16,38.06,38.06,36.63,37.25,831875
2-Feb-16,38.56,38.65,37.99,38.15,579675
1-Feb-16,38.66,38.91,38.02,38.67,525222
29-Jan-16,37.41,38.74,37.40,38.74,610772
28-Jan-16,37.40,37.65,37.22,37.28,466993
27-Jan-16,37.10,37.64,36.87,37.22,628765
26-Jan-16,35.96,37.17,35.86,37.10,633789
25-Jan-16,36.29,36.52,35.83,35.89,664202
22-Jan-16,36.36,36.57,35.73,36.29,848732
21-Jan-16,36.16,37.11,35.86,35.96,725492
20-Jan-16,36.37,36.48,34.58,36.12,1023669
19-Jan-16,37.40,37.46,36.35,36.73,858501
15-Jan-16,36.95,37.58,36.83,37.30,968640
14-Jan-16,38.57,38.69,36.81,37.55,1602230
13-Jan-16,40.25,40.75,38.78,38.84,1415170
12-Jan-16,40.73,41.40,40.44,40.96,979139
11-Jan-16,40.03,40.81,39.95,40.65,810836
8-Jan-16,40.31,40.60,39.99,40.01,988293
7-Jan-16,39.51,40.58,39.47,40.14,1043823
6-Jan-16,39.31,40.51,38.94,40.35,1382114
5-Jan-16,39.25,40.11,38.88,40.04,780309
4-Jan-16,38.55,39.23,38.49,39.23,652807
31-Dec-15,39.30,39.46,39.13,39.14,363733
30-Dec-15,39.65,39.94,39.31,39.34,354372
29-Dec-15,39.70,40.22,39.43,39.84,357521
28-Dec-15,39.64,39.65,38.97,39.44,403858
24-Dec-15,39.66,39.78,39.20,39.67,299430
23-Dec-15,39.24,39.79,39.00,39.66,658272
22-Dec-15,38.67,39.07,38.27,38.86,789030
21-Dec-15,38.65,38.82,37.91,38.59,734942
18-Dec-15,38.64,38.85,38.35,38.58,868656
17-Dec-15,39.61,39.64,38.41,38.67,954378
16-Dec-15,39.56,39.73,38.75,39.58,817884
15-Dec-15,38.26,38.94,37.91,38.91,977515
14-Dec-15,39.00,39.44,37.59,38.07,1067982
11-Dec-15,37.77,39.18,37.76,39.06,1439514
10-Dec-15,37.49,40.99,37.24,38.21,1589483
9-Dec-15,36.60,37.76,36.57,37.35,798882
8-Dec-15,36.57,36.83,36.40,36.54,570764
7-Dec-15,37.01,37.09,36.61,36.82,671223
4-Dec-15,36.88,37.29,36.80,37.00,419581
3-Dec-15,37.37,37.63,36.56,36.85,856752
2-Dec-15,37.97,38.07,37.04,37.07,544427
1-Dec-15,37.31,37.96,37.28,37.87,626762
30-Nov-15,37.41,37.42,37.01,37.24,700897
27-Nov-15,37.31,37.57,36.93,37.46,273001
25-Nov-15,36.30,37.63,36.26,37.19,1108587
24-Nov-15,35.73,36.20,35.69,36.11,1994454
23-Nov-15,36.10,36.37,35.99,36.08,670873
20-Nov-15,36.26,36.51,36.08,36.22,489747
19-Nov-15,36.54,36.64,35.96,36.04,465968
18-Nov-15,36.43,36.50,36.11,36.47,538473
17-Nov-15,35.83,36.61,35.65,36.36,840304
16-Nov-15,34.98,35.57,34.86,35.57,1063674
13-Nov-15,35.60,35.67,35.00,35.10,999254
12-Nov-15,36.22,36.58,35.75,35.85,1072899
11-Nov-15,36.98,36.98,36.12,36.16,543386
10-Nov-15,36.58,37.02,36.40,36.98,612274
9-Nov-15,37.13,37.20,36.06,36.57,757659
6-Nov-15,37.23,37.58,36.77,37.23,837039
5-Nov-15,37.90,37.96,36.32,37.20,778229
4-Nov-15,38.19,39.08,36.73,37.69,1537183
3-Nov-15,36.88,37.16,36.45,36.55,905281
2-Nov-15,36.08,36.96,35.84,36.84,789360
30-Oct-15,36.20,36.45,35.83,35.93,609327
29-Oct-15,36.30,36.52,36.08,36.28,341269
28-Oct-15,35.58,36.50,35.28,36.44,373646
27-Oct-15,35.77,35.85,35.19,35.50,620469
26-Oct-15,35.81,35.99,35.59,35.92,502417
23-Oct-15,35.87,35.87,35.43,35.83,504705
22-Oct-15,35.26,35.64,35.08,35.43,416255
21-Oct-15,35.15,35.37,34.98,35.22,439666
20-Oct-15,35.09,35.19,34.68,34.95,364557
19-Oct-15,34.76,35.30,34.71,35.09,535046
16-Oct-15,34.64,35.01,34.55,34.91,616165
15-Oct-15,34.01,34.56,33.74,34.51,448254
14-Oct-15,34.17,34.53,33.75,33.96,478978
13-Oct-15,34.38,34.50,34.08,34.08,342785
12-Oct-15,34.64,34.64,34.28,34.61,393027
9-Oct-15,34.88,34.88,34.03,34.64,604924
8-Oct-15,34.75,35.12,34.41,34.93,556824
7-Oct-15,34.24,34.72,34.17,34.64,1007128
6-Oct-15,33.47,34.12,33.36,34.05,874715
5-Oct-15,33.10,33.58,33.04,33.47,884936
2-Oct-15,32.56,32.97,32.28,32.97,766823
1-Oct-15,33.60,33.89,32.87,32.97,677622
30-Sep-15,33.67,33.88,32.91,33.66,745997
29-Sep-15,33.81,33.97,33.09,33.33,463568
28-Sep-15,34.33,34.58,33.68,33.73,556616
25-Sep-15,35.27,35.27,34.40,34.52,374937
24-Sep-15,34.78,35.07,34.56,35.03,410676
23-Sep-15,34.65,35.12,34.62,34.82,619897
22-Sep-15,34.81,35.09,34.40,34.62,621593
21-Sep-15,35.47,35.72,35.06,35.20,533705
18-Sep-15,35.62,36.02,34.92,34.98,982496
17-Sep-15,35.87,36.48,35.73,36.08,771719
16-Sep-15,35.03,35.86,34.84,35.77,1372775
15-Sep-15,33.98,34.24,33.50,34.19,561766
14-Sep-15,34.03,34.19,33.72,33.78,574470
11-Sep-15,33.23,33.77,33.08,33.74,376930
10-Sep-15,33.69,33.93,33.06,33.33,679871
9-Sep-15,34.68,34.73,33.78,33.88,645461
8-Sep-15,33.70,34.40,33.58,34.28,562455
4-Sep-15,33.41,33.68,33.12,33.29,527570
3-Sep-15,33.87,34.29,33.72,33.84,354032
2-Sep-15,33.75,33.97,33.52,33.77,667353
1-Sep-15,34.20,34.39,33.41,33.51,514164
31-Aug-15,34.52,35.00,34.43,34.72,392757
28-Aug-15,34.89,35.09,34.33,34.62,522393
27-Aug-15,34.70,35.42,34.44,35.00,451990
26-Aug-15,34.49,34.67,33.60,34.53,590105
25-Aug-15,34.49,34.60,33.71,33.74,829541
24-Aug-15,33.30,34.67,32.61,33.74,1000890
21-Aug-15,35.36,35.78,34.62,34.75,825550
20-Aug-15,36.04,36.31,35.82,35.82,536888
19-Aug-15,36.49,36.66,36.19,36.39,890167
18-Aug-15,36.16,36.81,36.16,36.72,625520
17-Aug-15,35.52,36.41,35.48,36.35,465010
14-Aug-15,35.80,35.94,35.55,35.73,488171
13-Aug-15,35.45,35.94,35.43,35.73,514780
12-Aug-15,35.32,35.87,35.02,35.54,791020
11-Aug-15,35.34,35.61,35.10,35.59,642009
10-Aug-15,35.62,35.95,35.30,35.56,908088
7-Aug-15,35.46,37.79,34.87,35.59,1130315
6-Aug-15,37.75,37.87,35.60,35.76,1260951
5-Aug-15,37.47,37.84,37.22,37.80,614464
4-Aug-15,37.38,37.80,37.23,37.25,383709
3-Aug-15,37.83,37.93,37.14,37.38,434436
31-Jul-15,37.59,38.07,37.47,37.88,488966
30-Jul-15,37.08,37.60,36.92,37.53,642658
29-Jul-15,37.49,37.59,37.05,37.21,565352
28-Jul-15,37.43,37.58,36.92,37.37,547097
27-Jul-15,37.81,37.81,37.21,37.30,486495
24-Jul-15,38.78,38.80,37.92,38.02,367761
23-Jul-15,38.95,39.22,38.64,38.80,422096
22-Jul-15,38.44,38.77,38.33,38.73,273542
21-Jul-15,38.95,39.11,38.43,38.47,254922
20-Jul-15,39.04,39.16,38.91,39.02,336987
17-Jul-15,39.62,39.70,39.01,39.14,320668
16-Jul-15,39.90,40.05,39.70,39.77,520657
15-Jul-15,39.89,40.10,39.74,39.77,573041
14-Jul-15,39.97,40.21,39.88,39.92,547553
13-Jul-15,39.05,40.03,39.05,40.00,910950
10-Jul-15,38.41,39.67,38.35,38.75,660125
9-Jul-15,38.56,38.56,37.85,38.10,537300
8-Jul-15,38.42,38.63,37.49,38.20,842032
7-Jul-15,39.27,39.33,37.91,38.71,943909
6-Jul-15,38.81,39.33,38.73,39.27,789160
2-Jul-15,38.77,39.22,38.55,39.09,913978
1-Jul-15,39.24,39.27,38.11,38.65,1351053
30-Jun-15,40.10,40.11,38.60,39.06,1224398
29-Jun-15,40.61,40.85,39.91,39.93,446561
26-Jun-15,40.90,41.03,40.55,40.94,502435
25-Jun-15,40.89,41.11,40.65,40.83,320165
24-Jun-15,41.17,41.40,40.60,40.88,425660
23-Jun-15,41.23,41.54,41.16,41.30,492112
22-Jun-15,41.64,42.30,41.21,41.28,520399
19-Jun-15,41.25,41.28,40.89,40.97,879722
18-Jun-15,41.19,41.57,41.10,41.23,461740
17-Jun-15,40.61,41.26,40.40,41.07,847991
16-Jun-15,40.12,40.30,39.89,40.23,498532
15-Jun-15,40.03,40.47,39.70,40.40,561932
12-Jun-15,39.80,40.23,39.66,40.14,461884
11-Jun-15,39.55,39.91,39.49,39.89,577703
10-Jun-15,39.06,39.62,39.01,39.44,737165
9-Jun-15,39.67,40.18,38.86,38.96,642303
8-Jun-15,39.94,40.03,39.28,39.28,362952
5-Jun-15,39.33,40.15,39.01,40.10,698457
4-Jun-15,39.92,40.05,39.22,39.32,905831
3-Jun-15,39.68,40.20,39.58,39.92,554858
2-Jun-15,39.66,39.95,39.44,39.71,298404
1-Jun-15,39.90,39.90,39.49,39.77,564483
29-May-15,40.17,40.30,39.75,39.77,350208
28-May-15,40.61,40.84,40.15,40.24,463910
27-May-15,40.49,40.74,40.37,40.66,390484
26-May-15,41.26,41.27,40.52,40.57,462790
22-May-15,41.45,41.69,41.25,41.35,418896
21-May-15,41.02,41.60,40.54,41.53,548802
20-May-15,41.57,41.57,41.05,41.13,601675
19-May-15,41.14,41.73,40.91,41.50,675439
18-May-15,40.57,41.16,40.45,41.14,507691
15-May-15,40.60,40.87,40.40,40.59,526803
14-May-15,40.85,41.05,40.54,40.62,703248
13-May-15,40.33,40.78,40.02,40.75,926408
12-May-15,40.35,40.45,39.75,40.44,1416738
11-May-15,39.99,40.54,39.96,40.45,1434194
8-May-15,40.91,41.57,39.73,40.01,1642029
7-May-15,41.20,41.94,40.96,41.23,1410086
6-May-15,41.21,41.40,40.56,41.13,943560
5-May-15,41.78,41.94,40.60,41.23,1435183
4-May-15,42.03,42.22,41.70,42.07,758121
1-May-15,41.92,42.45,41.82,42.11,688486
30-Apr-15,42.27,42.57,41.60,41.71,684254
29-Apr-15,43.37,43.42,42.44,42.51,720018
28-Apr-15,43.85,43.96,43.40,43.51,291291
27-Apr-15,44.74,44.87,43.80,43.91,444433
24-Apr-15,44.43,44.76,44.13,44.75,513627
23-Apr-15,43.50,44.41,43.45,44.39,576675
22-Apr-15,43.66,43.75,43.24,43.54,442242
21-Apr-15,43.28,43.70,43.17,43.66,401562
20-Apr-15,43.73,44.11,42.99,43.22,737647
17-Apr-15,44.05,44.06,43.38,43.53,658607
16-Apr-15,43.65,44.55,43.25,44.24,1021945
15-Apr-15,44.17,44.24,43.76,43.79,734387
14-Apr-15,44.46,44.47,43.89,44.14,583311
13-Apr-15,44.33,44.60,44.23,44.42,502891
10-Apr-15,44.07,44.57,44.02,44.45,1229559
9-Apr-15,43.90,44.23,43.76,44.01,682498
8-Apr-15,43.94,44.29,43.76,44.09,817836
7-Apr-15,44.15,44.60,43.86,43.89,583149
6-Apr-15,43.91,44.33,43.82,44.15,1258980
2-Apr-15,43.98,44.30,43.82,44.00,774619
1-Apr-15,43.85,44.00,43.33,43.94,1104844
31-Mar-15,43.68,44.10,43.59,43.83,907289
30-Mar-15,43.89,44.15,43.71,43.80,663692
27-Mar-15,43.00,43.83,43.00,43.80,626560
26-Mar-15,42.69,43.23,42.29,43.12,852474
25-Mar-15,42.96,43.25,42.66,42.95,1028224
24-Mar-15,43.15,43.51,42.96,43.06,503372
23-Mar-15,43.26,43.37,42.94,43.23,819706
20-Mar-15,43.82,44.02,43.15,43.38,879961
19-Mar-15,44.15,44.17,43.61,43.69,677273
18-Mar-15,43.30,44.35,42.96,44.20,1710108
17-Mar-15,42.75,43.31,42.53,43.16,1882189
16-Mar-15,41.88,42.90,41.64,42.86,803388
13-Mar-15,41.41,41.74,41.19,41.50,413132
12-Mar-15,41.14,41.67,41.14,41.53,638830
11-Mar-15,41.53,41.75,41.00,41.14,630084
10-Mar-15,42.39,42.53,41.67,41.68,485833
9-Mar-15,42.48,42.91,42.42,42.57,602430
6-Mar-15,42.38,42.67,42.15,42.48,888069
5-Mar-15,42.33,42.54,41.98,42.30,643243
4-Mar-15,40.65,42.24,40.42,42.20,1194769
3-Mar-15,41.78,41.83,40.32,40.79,910472
2-Mar-15,41.76,41.81,40.83,41.75,1703467
27-Feb-15,44.56,44.66,41.56,41.63,1664241
26-Feb-15,44.43,44.50,43.96,44.01,835297
25-Feb-15,44.00,44.51,43.97,44.22,809557
24-Feb-15,44.19,44.22,43.80,43.93,558212
23-Feb-15,44.22,44.49,43.93,44.11,368150
20-Feb-15,43.98,44.23,43.78,44.12,325233
19-Feb-15,44.01,44.25,43.95,44.09,355183
18-Feb-15,43.67,43.99,43.36,43.93,521392
17-Feb-15,43.77,44.08,43.59,43.78,648734
13-Feb-15,43.91,44.24,43.14,43.73,581045
12-Feb-15,43.67,44.06,43.25,43.90,559149
11-Feb-15,43.96,44.09,43.54,43.59,368139
10-Feb-15,43.92,44.13,43.69,43.97,530925
9-Feb-15,43.43,43.91,43.22,43.65,602491
6-Feb-15,43.83,44.13,43.39,43.53,673476
5-Feb-15,43.99,44.18,43.70,43.77,538004
4-Feb-15,43.99,44.43,43.75,44.09,458370
3-Feb-15,43.76,44.17,43.57,44.12,445910
2-Feb-15,43.45,43.76,42.45,43.63,663286
30-Jan-15,43.62,43.93,42.96,43.10,626195
29-Jan-15,44.23,44.23,43.37,43.89,547709
28-Jan-15,44.46,44.77,43.84,44.10,399187
27-Jan-15,44.16,44.54,44.00,44.20,422131
26-Jan-15,44.12,44.57,43.86,44.52,420842
23-Jan-15,43.86,44.23,43.77,44.08,438073
22-Jan-15,43.60,43.96,43.36,43.75,659076
21-Jan-15,43.04,43.57,42.88,43.39,598027
20-Jan-15,43.71,43.92,42.76,43.20,707265
16-Jan-15,43.10,43.82,42.96,43.70,419570
15-Jan-15,43.89,44.01,43.10,43.12,394229
14-Jan-15,44.00,44.53,43.62,43.85,297703
13-Jan-15,45.13,45.25,44.09,44.57,577177
12-Jan-15,45.04,45.09,44.61,44.84,534324
9-Jan-15,45.03,45.08,44.46,44.94,484924
8-Jan-15,44.75,45.17,44.70,45.07,1316339
7-Jan-15,42.52,43.84,42.46,43.81,663530
6-Jan-15,43.60,43.75,42.11,42.27,1225298
5-Jan-15,43.65,44.16,43.46,43.50,665336
2-Jan-15,43.99,44.21,43.37,43.83,432952
31-Dec-14,43.93,44.13,43.57,43.61,535461
30-Dec-14,44.23,44.37,43.84,43.98,508792
29-Dec-14,43.92,44.82,43.92,44.20,881529
26-Dec-14,44.25,44.30,43.86,43.91,263853
24-Dec-14,44.25,44.32,43.94,44.01,243716
23-Dec-14,44.28,44.49,43.92,44.00,650811
22-Dec-14,44.20,44.39,43.90,44.05,577277
19-Dec-14,44.40,44.62,43.73,44.03,1236071
18-Dec-14,44.69,44.72,43.99,44.32,1216936
17-Dec-14,43.41,44.31,43.19,44.27,1154409
16-Dec-14,42.98,44.13,42.72,42.94,1369682
15-Dec-14,42.96,43.47,42.62,42.94,895948
12-Dec-14,42.65,43.47,42.65,42.76,1152410
11-Dec-14,42.61,43.67,42.38,42.84,1288614
10-Dec-14,42.15,42.88,41.77,41.82,868624
9-Dec-14,42.39,42.49,41.78,42.09,1087658
8-Dec-14,42.61,43.08,42.55,42.79,796669
5-Dec-14,43.14,43.33,42.41,42.55,735801
4-Dec-14,43.21,43.40,42.95,43.04,512869
3-Dec-14,42.86,43.34,42.78,43.21,511595
2-Dec-14,42.69,43.15,42.69,42.80,482756
1-Dec-14,43.50,43.60,42.63,42.70,856353
28-Nov-14,43.36,44.20,43.24,43.66,548353
26-Nov-14,43.50,43.71,43.25,43.29,369999
25-Nov-14,43.45,43.80,43.34,43.50,500137
24-Nov-14,43.19,43.56,43.14,43.38,745968
21-Nov-14,43.69,43.71,43.08,43.29,796860
20-Nov-14,43.16,43.69,43.01,43.30,990651
19-Nov-14,42.54,43.35,42.39,43.14,833483
18-Nov-14,42.93,43.15,42.20,42.42,1759147
17-Nov-14,41.35,42.32,41.20,41.91,719480
14-Nov-14,41.22,41.86,41.22,41.50,1316161
13-Nov-14,40.60,41.43,40.54,41.04,1168484
12-Nov-14,39.77,40.95,39.70,40.40,1295116
11-Nov-14,40.41,40.76,39.31,39.69,972985
10-Nov-14,39.69,40.30,39.53,39.75,998339
7-Nov-14,39.66,39.73,39.27,39.56,623245
6-Nov-14,39.83,40.30,39.36,39.49,1361050
5-Nov-14,37.80,38.89,37.80,38.88,836990
4-Nov-14,37.61,37.89,37.35,37.43,541339
3-Nov-14,38.25,38.40,37.63,37.72,649146
31-Oct-14,37.99,38.60,37.87,38.25,811755
30-Oct-14,37.36,37.91,37.17,37.82,334204
29-Oct-14,37.46,37.76,37.16,37.44,281549
28-Oct-14,36.75,37.44,36.73,37.43,328447
27-Oct-14,36.95,36.98,36.46,36.69,328183
24-Oct-14,36.83,37.03,36.66,36.94,324539
23-Oct-14,36.50,36.95,36.42,36.81,439609
22-Oct-14,36.25,36.49,35.98,36.26,555706
21-Oct-14,35.76,36.37,35.61,36.20,491729
20-Oct-14,35.39,35.68,35.34,35.53,386937
17-Oct-14,34.96,35.50,34.59,35.35,521917
16-Oct-14,33.75,34.76,33.57,34.66,645165
15-Oct-14,34.71,34.78,33.29,34.30,1139513
14-Oct-14,35.63,35.63,34.92,35.10,1173919
13-Oct-14,35.91,35.92,35.04,35.27,754284
10-Oct-14,36.09,36.48,35.93,36.10,889107
9-Oct-14,36.29,36.42,35.85,36.04,935454
8-Oct-14,36.40,36.62,35.88,36.46,978501
7-Oct-14,36.15,36.40,36.02,36.35,658464
6-Oct-14,36.32,36.41,35.98,36.32,384188
3-Oct-14,36.67,36.96,36.15,36.27,996126
2-Oct-14,36.12,36.70,35.93,36.44,640262
1-Oct-14,35.89,36.09,35.75,36.00,885687
30-Sep-14,36.14,36.22,35.89,35.95,392069
29-Sep-14,35.70,36.27,35.48,36.19,314556
26-Sep-14,35.60,36.07,35.60,35.93,308570
25-Sep-14,35.77,36.04,35.64,35.70,705075
24-Sep-14,35.65,36.02,35.50,35.88,432158
23-Sep-14,35.46,35.88,35.30,35.74,554177
22-Sep-14,35.94,35.95,35.51,35.66,423132
19-Sep-14,36.15,36.44,35.86,36.06,659638
18-Sep-14,36.20,36.45,36.00,36.09,367116
17-Sep-14,36.02,36.38,35.88,36.13,332435
16-Sep-14,35.53,36.24,35.53,36.08,605360
15-Sep-14,35.15,35.78,35.08,35.63,727718
12-Sep-14,35.38,35.45,34.91,35.18,250523
11-Sep-14,34.91,35.43,34.91,35.33,479978
10-Sep-14,35.11,35.18,34.77,35.07,254566
9-Sep-14,35.08,35.50,34.84,34.99,421439
8-Sep-14,35.07,35.39,34.65,34.91,359012
5-Sep-14,35.03,35.45,34.75,35.07,343646
4-Sep-14,35.15,35.86,34.78,35.12,507016
3-Sep-14,34.94,35.22,34.89,35.14,427813
2-Sep-14,34.81,35.14,34.49,34.88,619929
29-Aug-14,34.90,35.42,34.75,34.84,477812
28-Aug-14,34.86,35.08,34.75,34.88,259285
27-Aug-14,34.84,35.20,34.75,35.00,552847
26-Aug-14,35.14,35.20,34.72,34.82,544452
25-Aug-14,34.93,35.27,34.84,35.20,389202
22-Aug-14,34.49,34.95,34.49,34.85,416936
21-Aug-14,34.90,34.90,34.24,34.43,557267
20-Aug-14,34.97,34.97,34.64,34.90,259769
19-Aug-14,34.74,35.06,34.67,35.04,356214
18-Aug-14,34.91,35.02,34.63,34.76,380146
15-Aug-14,35.30,35.33,34.38,34.74,504451
14-Aug-14,34.34,35.03,34.34,34.97,430651
13-Aug-14,34.74,34.82,34.05,34.32,950182
12-Aug-14,36.05,36.32,33.89,34.83,2040684
11-Aug-14,36.61,36.86,36.32,36.57,770843
8-Aug-14,36.42,36.82,35.75,36.46,700573
7-Aug-14,38.00,38.66,35.58,36.18,2793833
6-Aug-14,32.95,33.82,32.77,33.54,240232
5-Aug-14,33.12,33.42,32.80,33.07,284576
4-Aug-14,33.41,33.60,32.89,33.24,428555
1-Aug-14,33.46,33.90,33.10,33.41,531261
31-Jul-14,33.69,33.93,33.24,33.43,330693
30-Jul-14,33.44,34.03,33.05,33.92,444769
29-Jul-14,33.19,33.48,33.04,33.31,284741
28-Jul-14,33.31,33.33,32.88,33.08,357535
25-Jul-14,33.49,33.63,33.23,33.38,227447
24-Jul-14,33.26,33.73,33.26,33.60,398352
23-Jul-14,33.13,33.31,32.94,33.22,343678
22-Jul-14,33.03,33.11,32.85,32.94,185431
21-Jul-14,33.04,33.14,32.74,32.94,206226
18-Jul-14,32.75,33.25,32.56,33.22,266230
17-Jul-14,32.71,33.00,32.48,32.67,315134
16-Jul-14,32.93,33.05,32.54,32.97,449645
15-Jul-14,33.06,33.39,32.80,32.82,432118
14-Jul-14,33.48,33.48,32.74,33.02,547848
11-Jul-14,33.38,33.45,33.07,33.36,179015
10-Jul-14,33.43,34.03,33.31,33.47,258555
9-Jul-14,33.86,34.12,33.85,33.99,286934
8-Jul-14,34.44,34.44,33.83,33.84,468434
7-Jul-14,34.24,34.86,34.24,34.56,326180
3-Jul-14,34.24,34.70,34.21,34.39,347726
2-Jul-14,34.26,34.48,33.83,34.09,414764
1-Jul-14,34.49,34.59,34.26,34.38,668827
30-Jun-14,34.22,34.55,33.97,34.50,731274
27-Jun-14,34.30,34.49,34.02,34.13,1892300
26-Jun-14,34.47,34.55,34.09,34.47,291371
25-Jun-14,34.50,34.74,34.25,34.65,490390
24-Jun-14,34.76,34.96,34.43,34.74,598643
23-Jun-14,34.64,34.90,34.54,34.87,1103360
20-Jun-14,34.66,34.72,34.32,34.50,995008
19-Jun-14,34.48,34.68,34.41,34.52,468835
18-Jun-14,34.51,34.67,34.27,34.49,798897
17-Jun-14,34.38,34.84,34.37,34.49,702897
16-Jun-14,34.17,34.46,34.13,34.43,441954
13-Jun-14,34.16,34.25,33.93,34.23,498204
12-Jun-14,34.42,34.60,34.09,34.12,596389
11-Jun-14,34.63,34.76,34.36,34.56,386802
10-Jun-14,34.40,34.98,34.38,34.78,680061
9-Jun-14,34.75,34.99,34.44,34.60,781823
6-Jun-14,34.52,35.00,34.48,34.90,632093
5-Jun-14,34.01,34.54,33.79,34.45,504707
4-Jun-14,33.46,34.19,33.34,33.98,538906
3-Jun-14,33.02,33.83,32.93,33.63,652410
2-Jun-14,33.20,33.37,32.87,33.21,392263
30-May-14,32.71,33.15,32.67,33.07,439748
29-May-14,32.45,32.75,32.24,32.69,304838
28-May-14,32.11,32.44,32.05,32.33,390157
27-May-14,32.19,32.31,32.05,32.20,547650
23-May-14,31.73,32.13,31.30,32.01,649737
22-May-14,31.20,32.17,31.19,31.76,768932
21-May-14,30.61,30.87,30.32,30.73,303685
20-May-14,30.93,30.93,30.37,30.53,513342
19-May-14,30.89,31.32,30.70,31.00,627209
16-May-14,31.01,31.23,30.76,30.99,404849
15-May-14,31.44,31.59,30.65,31.03,979006
14-May-14,31.95,32.10,31.39,31.66,1099688
13-May-14,34.00,34.26,31.94,32.17,1391258
12-May-14,32.90,33.53,32.70,33.28,730327
9-May-14,31.79,32.80,31.79,32.75,549959
8-May-14,31.55,32.78,31.42,31.80,493665
7-May-14,31.96,31.96,31.32,31.64,761587
6-May-14,32.05,32.14,31.51,31.88,600781
5-May-14,32.28,32.60,32.16,32.21,669475
2-May-14,32.06,32.73,31.94,32.50,567020
1-May-14,32.75,32.99,31.54,31.97,759101
30-Apr-14,32.52,32.76,32.04,32.63,922389
29-Apr-14,32.92,33.06,32.35,32.46,842563
28-Apr-14,30.84,33.91,30.83,32.99,3407607
25-Apr-14,30.57,30.67,30.18,30.28,440220
24-Apr-14,30.99,30.99,30.53,30.78,542194
23-Apr-14,31.12,31.29,30.79,30.92,395227
22-Apr-14,31.00,31.42,31.00,31.20,488813
21-Apr-14,30.78,31.22,30.70,31.00,440135
17-Apr-14,30.15,30.83,30.15,30.74,626890
16-Apr-14,30.22,30.41,29.81,30.31,510868
15-Apr-14,30.03,30.32,29.55,30.15,511825
14-Apr-14,30.50,30.60,29.86,30.02,773802
11-Apr-14,30.48,30.82,30.21,30.35,615879
10-Apr-14,31.01,31.31,30.81,31.00,1010048
9-Apr-14,30.97,31.17,30.77,31.12,411263
8-Apr-14,30.60,31.16,30.50,30.87,533870
7-Apr-14,31.00,31.06,30.48,30.55,582009
4-Apr-14,31.74,31.74,30.98,31.16,466575
3-Apr-14,31.77,31.91,31.46,31.67,475699
2-Apr-14,32.03,32.13,31.77,31.81,610564
1-Apr-14,31.34,32.19,31.21,32.10,814198
31-Mar-14,30.85,31.33,30.81,31.24,600460
28-Mar-14,30.60,31.23,30.60,30.72,476725
27-Mar-14,30.93,31.34,30.50,30.59,752771
26-Mar-14,30.12,31.38,30.04,31.12,2130172
25-Mar-14,30.02,30.16,29.53,30.00,2650427
24-Mar-14,30.80,30.90,30.26,30.48,1104908
21-Mar-14,30.56,30.88,30.44,30.72,1008679
20-Mar-14,30.76,30.88,30.52,30.59,329994
19-Mar-14,31.15,31.23,30.73,30.81,362281
18-Mar-14,31.15,31.23,30.98,31.10,733112
17-Mar-14,31.11,31.24,30.97,31.12,336364
14-Mar-14,30.94,31.13,30.76,31.01,579010
13-Mar-14,30.96,31.25,30.79,30.93,792999
12-Mar-14,31.00,31.20,30.84,30.99,954251
11-Mar-14,31.19,31.31,31.00,31.24,537929
10-Mar-14,31.06,31.49,31.00,31.20,1357161
7-Mar-14,31.40,31.50,30.80,30.97,1263439
6-Mar-14,32.34,32.49,31.07,31.36,1271682
5-Mar-14,32.38,32.94,32.21,32.90,609772
4-Mar-14,32.56,32.71,32.19,32.35,592712
3-Mar-14,32.21,32.52,32.07,32.29,526808
28-Feb-14,32.40,32.94,32.25,32.53,560368
27-Feb-14,31.86,32.54,31.85,32.38,651645
26-Feb-14,31.46,32.12,31.44,31.94,461831
25-Feb-14,31.01,31.80,30.89,31.42,769042
24-Feb-14,30.72,31.92,30.72,31.54,781774
21-Feb-14,30.78,30.86,30.38,30.72,454765
20-Feb-14,30.63,30.95,30.46,30.78,375051
19-Feb-14,31.31,31.41,30.60,30.61,593178
18-Feb-14,30.57,31.61,30.53,31.38,973723
14-Feb-14,30.00,30.59,29.94,30.46,404446
13-Feb-14,30.00,30.31,29.90,30.16,603405
12-Feb-14,30.27,30.30,30.00,30.07,996893
11-Feb-14,30.34,30.47,30.15,30.17,632437
10-Feb-14,30.65,30.73,30.11,30.22,884216
7-Feb-14,30.69,30.93,30.45,30.55,686096
6-Feb-14,30.31,30.81,30.31,30.58,579860
5-Feb-14,30.75,30.80,30.05,30.23,1133624
4-Feb-14,31.31,31.51,30.71,30.76,1310765
3-Feb-14,31.97,32.26,30.96,31.37,1936889
31-Jan-14,31.70,32.15,31.52,31.93,739018
30-Jan-14,32.29,32.55,31.89,32.13,567784
29-Jan-14,31.87,32.37,31.64,32.02,889047
28-Jan-14,31.39,32.21,31.39,32.08,926072
27-Jan-14,31.46,31.73,30.86,31.40,1166957
24-Jan-14,31.95,31.96,30.83,31.47,2309238
23-Jan-14,32.81,32.90,32.37,32.71,541263
22-Jan-14,33.05,33.53,32.99,32.99,414813
21-Jan-14,33.06,33.19,32.41,32.94,592427
17-Jan-14,33.12,33.29,32.71,33.00,495600
16-Jan-14,32.68,33.42,32.50,33.14,1073492
15-Jan-14,32.81,32.91,32.51,32.79,320527
14-Jan-14,32.56,33.10,32.55,32.73,623279
13-Jan-14,33.18,33.38,32.26,32.62,848745
10-Jan-14,33.22,33.49,32.93,33.40,768405
9-Jan-14,33.96,33.98,33.16,33.32,763925
8-Jan-14,33.65,33.82,33.21,33.81,1158082
7-Jan-14,33.88,34.86,33.14,33.76,3294709
6-Jan-14,35.50,35.70,34.78,34.88,1062540
3-Jan-14,35.84,36.33,35.23,35.49,1116371
2-Jan-14,36.71,36.71,35.71,35.83,813853
31-Dec-13,36.70,36.88,36.29,36.72,777308
30-Dec-13,36.27,36.92,36.14,36.68,711908
27-Dec-13,36.30,36.47,35.95,36.29,241410
26-Dec-13,36.02,36.43,36.00,36.38,316112
24-Dec-13,36.03,36.38,35.78,35.85,127998
23-Dec-13,36.31,36.44,35.85,36.07,583004
20-Dec-13,35.44,36.42,35.08,36.33,1589017
19-Dec-13,35.38,35.42,34.90,35.34,533903
18-Dec-13,34.80,35.52,34.52,35.46,608272
17-Dec-13,34.81,35.84,34.53,34.81,1175575
16-Dec-13,33.50,35.08,33.50,34.99,1119590
13-Dec-13,33.80,33.91,33.38,33.52,423660
12-Dec-13,33.55,34.01,33.36,33.68,1081264
11-Dec-13,33.88,34.36,33.66,33.75,1143014
10-Dec-13,33.50,34.43,33.21,33.95,1328021
9-Dec-13,33.20,33.89,33.16,33.61,988509
6-Dec-13,33.42,33.65,32.88,33.32,730111
5-Dec-13,32.71,33.50,32.58,33.25,720146
4-Dec-13,32.53,33.29,32.53,32.80,745813
3-Dec-13,32.85,33.02,32.38,32.53,1557792
2-Dec-13,33.45,33.45,32.74,32.88,1422549
29-Nov-13,33.63,33.76,32.86,32.89,331378
27-Nov-13,33.50,33.97,33.34,33.50,1243878
26-Nov-13,33.42,33.67,33.27,33.45,565249
25-Nov-13,33.05,33.51,32.86,33.26,786382
22-Nov-13,32.65,32.84,32.45,32.70,654117
21-Nov-13,32.57,32.85,32.44,32.71,966578
20-Nov-13,32.60,32.60,32.14,32.47,737894
19-Nov-13,32.86,33.00,32.14,32.60,1112995
18-Nov-13,33.60,33.91,32.99,33.06,601555
15-Nov-13,33.03,33.72,33.01,33.58,690869
14-Nov-13,32.85,33.05,32.52,33.00,796712
13-Nov-13,32.92,33.25,32.69,32.79,714040
12-Nov-13,33.30,33.50,32.77,33.02,855759
11-Nov-13,32.43,33.71,32.43,33.29,1246863
8-Nov-13,31.38,32.56,31.35,32.56,9036932
7-Nov-13,33.25,33.50,32.30,32.44,1492778
6-Nov-13,33.23,34.37,33.21,33.30,956917
5-Nov-13,31.60,33.59,31.60,33.27,1045219
4-Nov-13,32.52,32.87,31.60,32.40,1136558
1-Nov-13,32.27,33.02,32.27,33.01,723128
31-Oct-13,32.30,32.76,32.00,32.24,446097
30-Oct-13,31.93,32.32,31.86,32.28,375231
29-Oct-13,31.98,32.02,31.59,31.97,303517
28-Oct-13,31.83,32.26,31.67,31.96,432660
25-Oct-13,31.39,31.79,31.11,31.75,235539
24-Oct-13,31.22,31.55,31.10,31.41,191045
23-Oct-13,31.36,31.76,31.06,31.25,391031
22-Oct-13,31.30,31.98,31.22,31.43,500923
21-Oct-13,31.52,31.52,31.00,31.18,410448
18-Oct-13,30.65,31.51,30.61,31.42,1052782
17-Oct-13,30.51,30.67,30.21,30.56,912948
16-Oct-13,30.49,30.79,30.27,30.46,1030613
15-Oct-13,30.40,30.94,30.19,30.41,756706
14-Oct-13,30.65,30.65,30.16,30.61,1038891
11-Oct-13,29.89,30.86,29.80,30.75,703763
10-Oct-13,29.33,30.18,29.23,29.93,632696
9-Oct-13,29.19,29.31,28.91,29.19,878745
8-Oct-13,29.57,29.73,29.02,29.21,717857
7-Oct-13,29.89,30.15,29.54,29.59,637306
4-Oct-13,30.25,30.74,30.12,30.26,639811
3-Oct-13,30.46,30.78,30.06,30.34,1809448
2-Oct-13,30.06,30.73,29.77,30.44,594189
1-Oct-13,29.84,30.48,29.82,30.16,818682
30-Sep-13,30.00,30.23,29.70,29.80,803369
27-Sep-13,30.25,30.82,30.11,30.12,505338
26-Sep-13,30.24,31.06,30.24,30.48,424357
25-Sep-13,30.96,31.33,30.34,30.35,585355
24-Sep-13,30.33,31.24,30.02,31.00,1082531
23-Sep-13,29.84,30.51,29.78,30.33,877296
20-Sep-13,29.91,30.08,29.75,29.94,1566800
19-Sep-13,30.50,30.50,29.79,29.80,749429
18-Sep-13,30.14,30.59,29.90,30.35,842082
17-Sep-13,30.23,30.55,29.97,30.00,566729
16-Sep-13,30.75,30.83,29.90,30.07,1373497
13-Sep-13,29.83,30.04,29.74,29.86,412741
12-Sep-13,30.21,30.31,29.58,29.79,732489
11-Sep-13,30.28,30.93,30.00,30.25,549718
10-Sep-13,30.00,30.55,29.82,30.25,655204
9-Sep-13,29.53,30.00,29.44,29.92,500632
6-Sep-13,29.81,29.82,29.05,29.54,466976
5-Sep-13,29.77,29.95,29.50,29.63,563042
4-Sep-13,29.64,30.10,29.58,29.74,570117
3-Sep-13,29.95,30.10,29.17,29.59,880628
30-Aug-13,29.75,29.94,29.28,29.50,513158
29-Aug-13,29.74,30.36,29.57,29.75,631667
28-Aug-13,29.66,29.90,29.50,29.70,447085
27-Aug-13,30.25,30.54,29.57,29.72,790453
26-Aug-13,31.07,31.20,30.46,30.52,731225
23-Aug-13,31.97,31.97,30.71,31.01,940152
22-Aug-13,31.74,31.99,31.44,31.86,453257
21-Aug-13,32.29,32.42,31.65,31.74,488048
20-Aug-13,31.68,32.64,31.64,32.37,772346
19-Aug-13,31.84,32.37,31.53,31.78,466600
16-Aug-13,31.80,32.25,31.55,31.89,673108
15-Aug-13,31.74,32.34,31.37,31.79,673723
14-Aug-13,32.41,33.35,31.78,32.07,1486349
13-Aug-13,32.72,35.00,32.15,33.26,1581270
12-Aug-13,32.33,33.01,32.33,32.88,1597268
9-Aug-13,32.50,32.99,32.34,32.57,835188
8-Aug-13,32.83,32.90,32.41,32.56,1215734
7-Aug-13,32.59,32.81,31.06,32.62,636647
6-Aug-13,32.64,32.90,32.26,32.85,339173
5-Aug-13,32.62,32.90,32.60,32.78,353062
2-Aug-13,32.57,32.79,32.38,32.57,348370
1-Aug-13,32.96,33.96,32.48,32.73,833287
31-Jul-13,32.76,33.25,32.51,32.61,439576
30-Jul-13,32.87,33.04,32.27,32.78,386921
29-Jul-13,32.75,33.18,32.68,32.84,362831
26-Jul-13,32.86,33.70,32.45,32.77,889852
25-Jul-13,31.01,33.18,31.01,33.01,601861
24-Jul-13,32.19,32.43,31.64,31.68,465276
23-Jul-13,31.75,32.67,31.33,32.12,707228
22-Jul-13,32.42,32.49,31.84,31.91,494245
19-Jul-13,32.05,32.60,31.81,32.59,669525
18-Jul-13,32.03,32.55,31.92,32.19,585416
17-Jul-13,32.00,32.08,31.69,32.02,603460
16-Jul-13,31.94,32.01,31.43,32.00,462773
15-Jul-13,31.44,32.17,31.09,31.97,482173
12-Jul-13,31.95,32.30,31.31,31.37,470520
11-Jul-13,32.36,32.64,31.86,32.05,623236
10-Jul-13,32.05,32.50,31.96,32.27,589369
9-Jul-13,31.52,32.50,31.50,32.14,1018779
8-Jul-13,31.77,31.86,31.16,31.52,967241
5-Jul-13,31.72,31.84,31.24,31.79,938426
3-Jul-13,31.20,31.68,31.20,31.61,1504256
2-Jul-13,30.86,31.59,30.78,31.39,617343
1-Jul-13,30.83,31.36,30.69,30.98,843174
28-Jun-13,31.00,31.08,30.31,30.81,1442184
27-Jun-13,31.47,31.60,30.85,30.97,1081416
26-Jun-13,32.01,32.05,31.22,31.39,762082
25-Jun-13,32.25,32.35,31.72,31.89,1263650
24-Jun-13,31.88,32.29,31.38,32.10,1070587
21-Jun-13,32.17,32.46,31.70,32.32,2406175
20-Jun-13,32.74,32.76,32.10,32.16,1890748
19-Jun-13,33.30,33.37,32.83,33.08,2169706
18-Jun-13,32.59,33.26,32.59,33.15,972501
17-Jun-13,32.41,32.95,32.35,32.65,775477
14-Jun-13,32.55,32.69,32.34,32.41,1105320
13-Jun-13,32.16,32.70,32.03,32.65,1049882
12-Jun-13,31.86,32.24,31.84,32.11,929524
11-Jun-13,31.22,32.02,31.22,31.73,1135381
10-Jun-13,32.60,32.79,32.01,32.06,848315
7-Jun-13,31.90,33.03,31.85,32.79,1816907
6-Jun-13,31.38,32.15,31.38,31.79,1412755
5-Jun-13,31.11,31.82,30.93,31.46,2769838
4-Jun-13,31.00,31.63,30.81,31.00,3709535
3-Jun-13,30.58,31.90,30.58,30.80,2126022
31-May-13,31.19,31.44,30.39,30.39,2950988
30-May-13,31.88,32.31,31.27,31.38,1657002
29-May-13,32.77,32.90,31.91,31.99,1768272
28-May-13,33.36,33.50,32.83,32.97,1716409
24-May-13,33.28,33.73,33.06,33.09,1367044
23-May-13,33.00,33.47,32.94,33.16,2225907
22-May-13,32.30,33.94,32.30,33.35,1992750
21-May-13,32.69,33.27,32.32,32.42,2420467
20-May-13,33.15,33.60,32.06,32.92,1804001
17-May-13,33.20,33.57,33.00,33.29,1977144
16-May-13,33.04,33.65,32.81,33.10,1392467
15-May-13,32.26,33.27,31.88,32.96,2727333
14-May-13,30.36,32.95,30.36,32.71,4037189
13-May-13,29.91,30.47,29.89,30.36,2576475
10-May-13,30.18,30.30,29.70,30.08,2819766
9-May-13,30.61,30.80,29.96,30.14,3595142
8-May-13,30.59,32.09,30.38,30.75,5726575
7-May-13,30.00,30.96,29.91,30.50,3446889
6-May-13,29.74,29.98,29.08,29.85,2337748
3-May-13,30.19,31.22,29.35,29.80,4035371
2-May-13,30.25,30.50,28.70,30.28,6357441
1-May-13,30.74,31.62,29.64,30.20,15094144
30-Apr-13,29.59,30.38,29.59,30.10,1792070
29-Apr-13,28.60,29.89,28.60,29.50,1940348
26-Apr-13,28.13,29.07,28.13,28.60,1192956
25-Apr-13,27.99,28.50,27.64,28.13,682604
24-Apr-13,28.29,28.50,27.85,27.90,1158079
23-Apr-13,28.75,28.78,27.85,28.44,1530139
22-Apr-13,29.80,29.80,28.10,28.64,911107
19-Apr-13,28.50,29.50,27.95,29.00,862734
18-Apr-13,28.72,28.72,27.75,28.35,1329610
17-Apr-13,28.00,29.90,27.01,28.49,908373
