﻿Date,Open,High,Low,Close,Volume
20-Jun-17,37.54,37.79,37.27,37.38,1028277
19-Jun-17,37.36,37.69,37.13,37.46,721906
16-Jun-17,36.75,37.25,36.49,36.90,1628132
15-Jun-17,36.35,37.03,36.16,36.97,1182184
14-Jun-17,36.97,37.04,36.60,36.74,842900
13-Jun-17,37.02,37.02,36.57,36.83,888931
12-Jun-17,37.30,37.34,36.86,37.01,978161
9-Jun-17,36.85,37.60,36.49,37.30,1181708
8-Jun-17,36.97,37.26,36.76,36.93,1012536
7-Jun-17,37.07,37.29,36.79,36.85,1043308
6-Jun-17,37.06,37.33,36.84,36.95,644859
5-Jun-17,37.05,37.57,36.91,37.25,571284
2-Jun-17,36.50,37.71,36.50,37.12,733586
1-Jun-17,35.54,36.40,35.48,36.38,867891
31-May-17,35.68,35.91,35.08,35.53,1013453
30-May-17,35.94,36.07,35.25,35.51,691484
26-May-17,35.40,36.20,35.30,35.99,618320
25-May-17,35.86,35.99,35.06,35.39,953169
24-May-17,34.83,35.76,34.69,35.63,1148817
23-May-17,34.31,34.93,34.12,34.68,872388
22-May-17,33.91,34.59,33.83,34.17,644228
19-May-17,33.35,34.08,33.35,33.82,583013
18-May-17,33.51,33.67,33.29,33.36,847591
17-May-17,33.77,34.02,33.39,33.52,1181201
16-May-17,33.69,34.44,33.61,34.26,1179348
15-May-17,33.02,33.70,32.50,33.65,1102000
12-May-17,31.96,32.29,31.88,32.23,540048
11-May-17,31.73,32.18,31.61,32.00,985425
10-May-17,31.48,32.10,31.01,31.81,851138
9-May-17,31.49,32.07,31.36,31.51,1053507
8-May-17,31.77,31.80,31.22,31.40,1010369
5-May-17,29.55,34.81,29.55,31.75,3301306
4-May-17,29.17,29.33,28.76,28.93,646576
3-May-17,29.17,29.20,28.92,29.00,1183171
2-May-17,29.62,29.69,29.25,29.31,617849
1-May-17,29.38,29.70,29.35,29.50,1120697
28-Apr-17,29.60,29.66,29.27,29.28,709761
27-Apr-17,29.39,29.78,29.12,29.51,570875
26-Apr-17,29.04,29.62,29.00,29.28,579284
25-Apr-17,28.72,29.21,28.49,29.00,483615
24-Apr-17,28.59,28.84,28.41,28.46,415670
21-Apr-17,28.19,28.32,27.95,28.08,410618
20-Apr-17,28.02,28.42,27.92,28.29,386852
19-Apr-17,27.89,28.24,27.80,27.90,498909
18-Apr-17,27.88,27.97,27.63,27.79,383873
17-Apr-17,27.80,28.15,27.56,28.09,474623
13-Apr-17,27.93,28.05,27.48,27.66,342515
12-Apr-17,28.37,28.45,27.86,27.97,328974
11-Apr-17,28.19,28.50,28.12,28.48,336993
10-Apr-17,28.43,28.82,28.26,28.31,275438
7-Apr-17,27.96,28.62,27.84,28.40,571978
6-Apr-17,27.80,28.21,27.70,28.19,516097
5-Apr-17,27.93,28.36,27.68,27.76,498172
4-Apr-17,28.26,28.43,27.65,27.86,516664
3-Apr-17,28.41,28.65,28.15,28.29,518891
31-Mar-17,28.54,28.57,28.22,28.32,510405
30-Mar-17,28.61,28.77,28.42,28.51,458318
29-Mar-17,28.48,28.73,28.32,28.61,370825
28-Mar-17,28.33,28.66,28.20,28.51,481907
27-Mar-17,27.70,28.59,27.70,28.45,1233245
24-Mar-17,27.96,28.27,27.94,28.03,324633
23-Mar-17,28.07,28.43,27.92,27.97,340559
22-Mar-17,28.06,28.32,27.70,28.16,382209
21-Mar-17,28.58,28.64,27.74,27.97,722910
20-Mar-17,28.76,28.96,28.26,28.45,307813
17-Mar-17,28.72,29.05,28.27,28.73,1166885
16-Mar-17,29.06,29.06,28.42,28.55,643484
15-Mar-17,28.75,29.10,28.64,28.96,774199
14-Mar-17,28.72,28.82,28.36,28.65,704244
13-Mar-17,28.32,29.02,28.28,28.93,682985
10-Mar-17,28.41,28.70,28.27,28.38,447985
9-Mar-17,28.78,28.90,28.43,28.50,449387
8-Mar-17,29.17,29.36,28.67,28.74,391436
7-Mar-17,28.64,29.16,28.64,29.03,659868
6-Mar-17,28.79,29.06,28.60,28.99,379786
3-Mar-17,29.07,29.40,28.83,28.93,467058
2-Mar-17,29.53,29.67,29.03,29.05,491480
1-Mar-17,28.97,29.66,28.42,29.50,845847
28-Feb-17,28.82,29.02,28.58,28.70,764939
27-Feb-17,28.38,29.12,28.34,29.11,662939
24-Feb-17,28.08,28.53,27.93,28.35,591143
23-Feb-17,28.45,28.55,28.07,28.23,609661
22-Feb-17,28.87,28.99,28.38,28.40,403427
21-Feb-17,29.03,29.16,28.67,28.88,431157
17-Feb-17,29.05,29.29,28.85,29.06,686596
16-Feb-17,29.28,29.34,28.64,28.91,497896
15-Feb-17,29.08,29.34,28.92,29.19,803943
14-Feb-17,28.28,29.25,28.19,29.24,699747
13-Feb-17,29.46,29.57,28.46,28.50,708120
10-Feb-17,28.71,29.28,28.36,29.25,708705
9-Feb-17,28.35,28.98,28.35,28.66,712692
8-Feb-17,28.35,28.56,27.88,28.36,1124785
7-Feb-17,29.29,30.22,28.29,28.36,1494034
6-Feb-17,27.97,28.32,27.90,27.98,714519
3-Feb-17,27.95,28.25,27.77,28.19,632435
2-Feb-17,27.89,27.98,27.45,27.89,683843
1-Feb-17,26.77,28.02,26.71,27.99,1212919
31-Jan-17,25.89,26.94,25.89,26.76,1642950
30-Jan-17,26.74,26.76,25.99,26.14,1095957
27-Jan-17,27.62,27.79,26.81,26.89,1019243
26-Jan-17,27.40,27.74,27.24,27.51,850931
25-Jan-17,27.16,27.70,26.94,27.48,659947
24-Jan-17,26.68,27.02,26.33,26.92,657883
23-Jan-17,26.10,26.86,26.04,26.54,982872
20-Jan-17,25.88,26.22,25.72,26.21,640748
19-Jan-17,25.98,26.10,25.69,25.96,491671
18-Jan-17,26.07,26.20,25.88,26.00,424168
17-Jan-17,26.03,26.15,25.51,25.88,499368
13-Jan-17,26.30,26.50,26.24,26.33,339860
12-Jan-17,26.32,26.35,25.64,26.12,620059
11-Jan-17,26.75,26.98,26.09,26.43,928856
10-Jan-17,26.96,27.06,26.54,26.86,504650
9-Jan-17,26.89,27.09,26.48,26.91,654131
6-Jan-17,26.86,27.16,26.80,26.88,598290
5-Jan-17,27.21,27.40,26.65,26.90,728380
4-Jan-17,27.06,27.41,26.83,27.31,738775
3-Jan-17,27.09,27.36,26.51,27.00,877273
30-Dec-16,26.82,27.12,26.62,26.96,366150
29-Dec-16,26.72,26.96,26.56,26.71,500996
28-Dec-16,26.84,26.89,26.56,26.67,388428
27-Dec-16,26.89,27.14,26.79,26.83,291520
23-Dec-16,26.28,26.98,26.28,26.90,471073
22-Dec-16,26.26,26.51,26.16,26.34,426287
21-Dec-16,26.98,26.98,26.32,26.38,591420
20-Dec-16,26.79,26.97,26.61,26.87,760085
19-Dec-16,26.80,27.43,26.58,26.79,924298
16-Dec-16,26.68,27.12,26.65,26.88,2909496
15-Dec-16,26.21,26.85,26.00,26.73,916966
14-Dec-16,25.62,26.16,25.62,26.06,766714
13-Dec-16,25.22,25.70,25.08,25.60,787230
12-Dec-16,24.30,25.08,24.30,25.02,786476
9-Dec-16,24.38,24.94,24.38,24.54,690668
8-Dec-16,23.61,24.38,23.41,24.35,1220933
7-Dec-16,23.19,23.72,23.09,23.68,805900
6-Dec-16,23.57,23.68,23.36,23.49,702871
5-Dec-16,23.75,23.95,23.46,23.61,679862
2-Dec-16,23.03,23.82,23.03,23.65,793019
1-Dec-16,23.72,24.14,22.94,23.13,953266
30-Nov-16,24.14,24.48,23.79,23.93,839573
29-Nov-16,24.47,24.57,23.88,24.11,852840
28-Nov-16,24.87,25.03,24.25,24.30,679016
25-Nov-16,25.08,25.24,24.33,24.94,604719
23-Nov-16,24.62,25.24,24.24,25.22,517353
22-Nov-16,25.11,25.22,24.56,24.93,780442
21-Nov-16,25.63,25.86,24.76,25.02,1078460
18-Nov-16,25.69,25.80,25.40,25.62,792726
17-Nov-16,25.56,25.85,25.30,25.72,771682
16-Nov-16,25.43,25.72,25.42,25.57,830689
15-Nov-16,25.18,25.51,24.72,25.43,583859
14-Nov-16,25.53,25.79,25.07,25.26,768936
11-Nov-16,25.23,25.54,24.83,25.33,733422
10-Nov-16,25.53,26.03,25.04,25.32,867104
9-Nov-16,24.54,25.39,24.54,25.08,1111336
8-Nov-16,24.00,24.10,23.02,23.65,968329
7-Nov-16,22.68,23.05,22.66,22.88,706670
4-Nov-16,21.87,22.67,21.85,22.33,624468
3-Nov-16,22.50,22.59,21.83,21.85,627446
2-Nov-16,22.97,23.23,22.42,22.42,602186
1-Nov-16,22.84,23.01,22.55,22.95,918029
31-Oct-16,23.09,23.18,22.81,22.81,498837
28-Oct-16,23.30,23.33,22.85,22.99,506583
27-Oct-16,23.42,23.57,23.31,23.42,774539
26-Oct-16,23.74,23.74,22.94,23.36,982577
25-Oct-16,24.38,24.38,23.75,23.80,576082
24-Oct-16,24.99,24.99,24.15,24.25,443120
21-Oct-16,24.16,24.42,23.93,24.37,517382
20-Oct-16,24.44,24.90,24.22,24.43,974643
19-Oct-16,23.97,24.23,23.76,24.03,557704
18-Oct-16,23.84,24.11,23.59,24.00,1273554
17-Oct-16,23.49,23.65,23.24,23.40,650585
14-Oct-16,23.93,24.07,23.42,23.58,829900
13-Oct-16,23.89,24.10,23.59,23.73,1094212
12-Oct-16,24.80,24.90,24.20,24.23,506225
11-Oct-16,25.85,25.91,24.68,24.68,1156494
10-Oct-16,25.66,26.19,25.66,26.15,681746
7-Oct-16,25.92,26.03,25.42,25.68,830915
6-Oct-16,25.70,25.99,25.37,25.98,975544
5-Oct-16,26.00,26.30,25.80,25.87,746941
4-Oct-16,25.91,26.26,25.85,25.94,754500
3-Oct-16,25.59,25.84,25.36,25.83,1036457
30-Sep-16,25.66,26.03,25.61,25.84,1849444
29-Sep-16,26.78,26.78,25.56,25.60,1373596
28-Sep-16,26.33,26.52,25.98,26.31,894214
27-Sep-16,26.20,26.47,26.05,26.37,1089801
26-Sep-16,26.45,26.67,26.12,26.21,1188472
23-Sep-16,26.68,26.83,26.44,26.70,4129405
22-Sep-16,26.38,26.95,26.38,26.63,1338016
21-Sep-16,26.28,26.75,26.00,26.54,1347230
20-Sep-16,26.31,26.68,26.09,26.21,1241676
19-Sep-16,25.65,26.26,25.65,26.09,1881378
16-Sep-16,25.39,25.69,25.21,25.59,2827846
15-Sep-16,24.19,25.28,24.06,25.27,2651306
14-Sep-16,24.13,24.22,23.62,24.15,1414470
13-Sep-16,23.93,24.11,23.33,23.86,1610502
12-Sep-16,23.58,24.25,23.50,24.22,2472841
9-Sep-16,23.83,23.84,23.53,23.61,2514372
8-Sep-16,23.77,24.00,23.61,23.89,3809468
7-Sep-16,23.31,23.76,23.28,23.72,9736903
6-Sep-16,25.24,25.84,25.12,25.28,718951
2-Sep-16,25.48,25.61,25.03,25.24,690826
1-Sep-16,25.15,25.62,24.90,25.23,711891
31-Aug-16,24.99,25.46,24.86,25.23,874032
30-Aug-16,24.20,25.24,23.52,25.07,1472902
29-Aug-16,25.29,25.38,24.93,25.09,1099213
26-Aug-16,24.92,25.17,24.74,25.00,970819
25-Aug-16,24.91,25.29,24.71,24.97,731515
24-Aug-16,25.61,26.04,24.86,25.02,839761
23-Aug-16,24.80,25.81,24.74,25.53,1265010
22-Aug-16,25.29,25.30,24.66,24.70,618756
19-Aug-16,24.90,25.35,24.82,25.23,728545
18-Aug-16,25.20,25.20,24.73,25.01,857345
17-Aug-16,25.02,25.17,24.86,24.94,475510
16-Aug-16,25.00,25.08,24.70,24.92,798765
15-Aug-16,24.45,25.21,24.45,25.00,989615
12-Aug-16,25.18,25.35,24.53,24.60,905663
11-Aug-16,25.10,25.43,25.03,25.34,566282
10-Aug-16,25.14,25.14,24.59,25.08,426938
9-Aug-16,25.30,25.54,24.97,25.19,507820
8-Aug-16,25.41,25.46,24.97,25.13,448589
5-Aug-16,25.62,25.71,25.25,25.33,422458
4-Aug-16,25.42,25.58,25.20,25.48,471873
3-Aug-16,25.14,25.40,24.88,25.32,456935
2-Aug-16,25.79,25.96,25.02,25.20,724831
1-Aug-16,25.62,25.97,25.39,25.77,480768
29-Jul-16,25.54,25.80,25.26,25.54,847743
28-Jul-16,25.07,25.79,25.04,25.65,783859
27-Jul-16,24.53,25.17,24.52,25.15,440723
26-Jul-16,24.47,24.75,24.30,24.44,670457
25-Jul-16,24.36,24.52,23.94,24.48,360791
22-Jul-16,24.75,24.75,24.07,24.21,540427
21-Jul-16,24.67,25.07,24.58,24.66,626233
20-Jul-16,24.32,24.77,24.32,24.59,588741
19-Jul-16,24.09,24.40,24.02,24.30,591801
18-Jul-16,23.81,24.31,23.71,24.31,809765
15-Jul-16,23.90,24.03,23.63,23.99,568928
14-Jul-16,23.43,23.77,23.23,23.76,471396
13-Jul-16,23.97,24.00,23.29,23.30,669407
12-Jul-16,23.52,24.00,23.35,23.74,1585369
11-Jul-16,23.51,23.69,23.34,23.54,1248659
8-Jul-16,23.20,23.56,23.07,23.43,885457
7-Jul-16,22.90,23.12,22.69,23.03,1032744
6-Jul-16,22.70,23.03,22.53,22.82,1018716
5-Jul-16,23.07,23.34,22.52,22.66,742280
1-Jul-16,22.89,23.34,22.84,23.18,927753
30-Jun-16,22.75,22.99,22.51,22.99,1346809
29-Jun-16,22.51,22.77,22.20,22.72,1110752
28-Jun-16,21.31,22.18,21.30,22.13,1380035
27-Jun-16,22.93,23.16,20.94,21.29,1943263
24-Jun-16,22.89,23.20,22.53,22.79,2796287
23-Jun-16,23.41,23.74,23.36,23.66,1500386
22-Jun-16,22.90,23.39,22.85,23.19,1486215
21-Jun-16,23.41,23.41,22.53,22.86,1815405
20-Jun-16,22.50,22.88,22.19,22.64,2036530
17-Jun-16,22.15,22.20,21.30,21.44,3506528
16-Jun-16,22.89,22.89,21.71,22.17,1393689
15-Jun-16,22.80,23.03,22.49,22.89,1855096
14-Jun-16,22.40,22.73,21.82,22.46,1976854
13-Jun-16,22.95,23.43,22.48,22.57,1478691
10-Jun-16,23.46,23.46,22.70,22.91,1587804
9-Jun-16,24.19,24.19,23.21,23.46,2238728
8-Jun-16,23.91,24.16,23.64,24.06,2461342
7-Jun-16,24.50,24.65,23.81,23.83,6914725
6-Jun-16,25.61,26.39,25.48,26.22,953579
3-Jun-16,26.42,26.57,25.15,26.35,1500811
2-Jun-16,25.88,26.31,24.87,26.30,2809926
1-Jun-16,28.14,28.62,27.49,27.81,2718425
31-May-16,29.03,29.05,28.08,28.12,1547884
27-May-16,29.25,29.57,28.69,28.99,794553
26-May-16,29.15,29.38,28.90,29.14,366449
25-May-16,28.98,29.24,28.70,29.06,496871
24-May-16,28.55,28.97,28.32,28.75,1023065
23-May-16,28.59,29.48,27.59,28.27,1662331
20-May-16,26.83,28.68,26.80,28.65,2460349
19-May-16,26.23,27.33,26.10,26.59,1627242
18-May-16,25.49,26.18,25.49,26.11,1524549
17-May-16,24.78,25.98,24.78,25.52,1654947
16-May-16,23.83,25.20,23.83,25.11,1618206
13-May-16,23.82,24.24,23.67,23.85,680317
12-May-16,24.50,24.50,23.60,23.80,907230
11-May-16,25.09,25.10,24.34,24.35,581407
10-May-16,24.60,24.82,24.14,24.77,752727
9-May-16,24.60,24.93,24.35,24.44,1211119
6-May-16,25.21,25.39,24.20,24.47,1777295
5-May-16,26.50,26.88,25.08,25.44,3367116
4-May-16,29.05,29.43,28.83,29.24,609676
3-May-16,29.50,29.71,28.84,29.35,710323
2-May-16,29.52,29.59,29.00,29.41,403039
29-Apr-16,29.61,29.71,29.18,29.53,737184
28-Apr-16,29.72,30.28,29.39,29.74,549195
27-Apr-16,29.67,30.21,29.67,29.85,747771
26-Apr-16,29.45,29.66,29.09,29.65,911250
25-Apr-16,29.55,29.80,29.17,29.45,320740
22-Apr-16,29.49,30.08,29.49,29.78,571149
21-Apr-16,29.53,29.71,29.10,29.40,530879
20-Apr-16,29.60,30.03,29.30,29.77,447032
19-Apr-16,29.90,30.15,29.46,29.62,616087
18-Apr-16,30.09,30.36,29.79,29.80,612957
15-Apr-16,29.70,30.35,29.40,30.30,1268297
14-Apr-16,29.68,30.74,29.51,29.75,3360284
13-Apr-16,28.73,32.24,28.34,29.66,5351631
12-Apr-16,27.30,28.54,27.30,28.48,906799
11-Apr-16,28.18,28.43,27.11,27.35,777940
8-Apr-16,28.10,28.82,27.93,28.11,1387622
7-Apr-16,27.66,28.65,27.63,27.84,1514957
6-Apr-16,27.82,28.27,27.65,27.74,1056018
5-Apr-16,27.12,27.81,27.12,27.71,1569586
4-Apr-16,26.73,27.85,26.56,27.33,1517121
1-Apr-16,26.52,26.74,26.14,26.60,1024635
31-Mar-16,26.93,27.60,26.58,26.67,772244
30-Mar-16,27.39,27.44,26.65,26.82,581086
29-Mar-16,26.15,27.25,25.92,27.22,615232
28-Mar-16,26.20,26.61,25.77,26.16,322309
24-Mar-16,25.85,26.27,25.57,26.12,273693
23-Mar-16,26.77,26.80,25.96,25.96,313092
22-Mar-16,26.14,26.93,26.03,26.77,298021
21-Mar-16,25.81,26.32,25.81,26.10,466923
18-Mar-16,25.17,25.96,24.71,25.91,1068800
17-Mar-16,25.45,25.65,24.96,25.27,485573
16-Mar-16,25.57,25.99,25.10,25.42,527521
15-Mar-16,26.01,26.29,25.47,25.54,589636
14-Mar-16,25.91,26.38,25.55,26.34,492720
11-Mar-16,25.39,25.97,25.24,25.93,493482
10-Mar-16,25.25,25.66,24.68,25.21,311763
9-Mar-16,25.27,25.41,24.91,25.22,358708
8-Mar-16,25.69,25.84,25.15,25.21,336954
7-Mar-16,25.53,26.22,25.34,25.82,473045
4-Mar-16,25.49,25.66,25.17,25.66,367773
3-Mar-16,25.55,25.55,24.97,25.40,368927
2-Mar-16,25.21,25.48,25.01,25.45,358642
1-Mar-16,24.51,25.24,24.22,25.23,499837
29-Feb-16,24.73,24.75,24.23,24.27,496114
26-Feb-16,25.09,25.09,24.50,24.73,496316
25-Feb-16,24.83,25.07,24.62,24.99,502318
24-Feb-16,24.24,24.83,24.17,24.82,382199
23-Feb-16,24.12,25.04,24.07,24.56,653566
22-Feb-16,24.17,24.50,23.86,24.19,641171
19-Feb-16,23.62,23.99,23.37,23.98,575092
18-Feb-16,23.91,24.42,23.56,23.66,703358
17-Feb-16,23.15,24.01,22.91,23.92,851027
16-Feb-16,22.46,23.29,22.02,23.02,812873
12-Feb-16,21.44,22.17,21.17,22.12,727866
11-Feb-16,20.50,21.32,20.18,21.26,817328
10-Feb-16,20.50,21.78,18.92,20.86,1273056
9-Feb-16,20.80,21.40,20.50,20.97,472944
8-Feb-16,21.43,21.43,20.77,21.20,703715
5-Feb-16,22.08,22.38,21.56,21.68,481382
4-Feb-16,22.59,22.82,22.01,22.20,382904
3-Feb-16,22.93,22.93,22.01,22.70,550675
2-Feb-16,22.92,23.07,22.29,22.77,509601
1-Feb-16,23.42,23.54,22.81,23.08,590781
29-Jan-16,22.54,23.54,22.29,23.53,911862
28-Jan-16,23.08,23.20,22.17,22.48,404472
27-Jan-16,23.40,23.61,22.86,22.96,329615
26-Jan-16,23.53,23.77,23.09,23.50,469602
25-Jan-16,23.68,23.89,23.26,23.34,427010
22-Jan-16,23.55,23.73,22.90,23.73,626050
21-Jan-16,24.03,24.08,23.14,23.15,642452
20-Jan-16,23.58,24.24,22.61,24.02,800817
19-Jan-16,24.59,24.64,23.53,23.92,574537
15-Jan-16,23.69,24.39,23.69,24.31,589006
14-Jan-16,23.90,24.62,23.26,24.39,420214
13-Jan-16,24.88,25.16,23.72,23.85,594902
12-Jan-16,24.52,24.88,23.97,24.82,716544
11-Jan-16,24.32,24.44,23.76,24.25,711234
8-Jan-16,24.40,24.58,24.19,24.27,736640
7-Jan-16,24.36,24.50,24.05,24.26,605405
6-Jan-16,24.88,25.14,24.59,24.85,556585
5-Jan-16,24.50,25.28,24.33,25.21,535175
4-Jan-16,24.55,24.85,24.21,24.39,595042
31-Dec-15,25.15,25.50,24.98,25.03,425750
30-Dec-15,25.36,25.55,25.16,25.30,409867
29-Dec-15,25.18,25.45,24.97,25.35,503668
28-Dec-15,24.91,25.17,24.70,25.06,470641
24-Dec-15,25.00,25.11,24.84,24.95,188177
23-Dec-15,25.09,25.24,24.98,25.04,452826
22-Dec-15,24.47,25.09,24.28,25.01,608898
21-Dec-15,25.26,25.50,25.17,25.19,645516
18-Dec-15,26.14,26.14,25.12,25.17,3119245
17-Dec-15,26.75,27.05,26.34,26.36,500993
16-Dec-15,26.72,26.72,26.14,26.54,345913
15-Dec-15,26.05,26.64,26.02,26.30,575787
14-Dec-15,25.95,26.27,25.74,25.82,740458
11-Dec-15,25.40,26.13,25.40,25.97,698445
10-Dec-15,25.70,26.31,25.70,26.29,501421
9-Dec-15,25.01,26.23,24.99,25.61,931581
8-Dec-15,26.75,27.39,26.48,27.05,267997
7-Dec-15,27.65,27.76,26.69,27.02,412174
4-Dec-15,26.93,27.69,26.85,27.65,279204
3-Dec-15,27.70,27.84,26.54,26.79,349435
2-Dec-15,28.22,28.30,27.52,27.58,301023
1-Dec-15,28.05,28.54,27.83,28.16,535994
30-Nov-15,28.53,28.69,27.71,27.85,448112
27-Nov-15,28.38,28.75,28.26,28.53,96820
25-Nov-15,28.11,28.72,27.99,28.40,198772
24-Nov-15,27.33,28.30,27.03,28.15,399928
23-Nov-15,27.31,27.88,27.31,27.56,193655
20-Nov-15,27.45,27.72,27.06,27.40,277055
19-Nov-15,27.78,27.85,27.04,27.26,279244
18-Nov-15,27.01,27.92,26.79,27.76,404560
17-Nov-15,26.61,27.12,26.33,26.91,573722
16-Nov-15,27.52,27.75,26.58,26.70,563102
13-Nov-15,27.08,27.85,26.83,27.58,308994
12-Nov-15,27.66,28.05,27.16,27.27,465073
11-Nov-15,28.31,28.59,27.84,27.89,378943
10-Nov-15,28.14,28.49,27.78,28.22,1102860
9-Nov-15,28.28,28.40,27.95,28.25,278094
6-Nov-15,27.64,28.40,27.35,28.37,275729
5-Nov-15,28.11,28.27,27.60,27.84,365151
4-Nov-15,27.54,28.58,27.54,28.11,795972
3-Nov-15,27.37,27.65,26.82,27.35,454465
2-Nov-15,26.64,27.64,26.44,27.52,444643
30-Oct-15,26.61,26.90,26.25,26.58,479700
29-Oct-15,27.13,27.49,26.51,26.63,286447
28-Oct-15,25.78,27.39,25.74,27.31,468083
27-Oct-15,25.95,26.46,25.66,25.82,379159
26-Oct-15,26.00,26.28,25.59,25.87,250739
23-Oct-15,25.73,26.29,25.56,26.14,486019
22-Oct-15,25.61,25.94,24.75,25.36,547336
21-Oct-15,26.10,26.24,24.83,25.53,347972
20-Oct-15,26.76,26.80,25.71,25.85,420464
19-Oct-15,26.57,27.28,26.26,26.74,396966
16-Oct-15,26.47,27.07,26.25,26.70,631591
15-Oct-15,24.96,26.37,24.60,26.34,822730
14-Oct-15,24.23,25.02,24.10,24.99,688788
13-Oct-15,24.42,25.03,24.08,24.09,448101
12-Oct-15,24.52,24.73,24.30,24.54,405059
9-Oct-15,24.40,24.54,23.84,24.54,437304
8-Oct-15,24.22,24.31,23.63,24.24,323878
7-Oct-15,24.17,24.51,23.78,24.32,404542
6-Oct-15,24.97,25.11,23.73,23.98,674433
5-Oct-15,25.46,25.67,24.81,25.05,585568
2-Oct-15,24.50,25.29,24.17,25.29,497735
1-Oct-15,24.32,24.69,24.13,24.61,655649
30-Sep-15,24.87,25.20,24.05,24.30,1151751
29-Sep-15,24.89,25.77,24.22,24.38,637878
28-Sep-15,25.89,25.89,24.72,24.92,898317
25-Sep-15,27.26,27.43,25.44,25.88,620191
24-Sep-15,27.05,27.17,26.47,26.91,392503
23-Sep-15,27.36,27.74,27.07,27.12,387468
22-Sep-15,27.15,27.48,26.74,27.39,695883
21-Sep-15,28.37,28.57,27.29,27.40,561904
18-Sep-15,28.40,28.75,28.21,28.28,1378178
17-Sep-15,28.33,29.00,28.30,28.63,362544
16-Sep-15,28.29,28.71,28.12,28.53,639871
15-Sep-15,28.14,28.32,27.92,28.28,646481
14-Sep-15,28.44,28.52,27.89,28.05,802531
11-Sep-15,27.70,28.39,27.48,28.33,427478
10-Sep-15,28.00,28.62,27.90,28.18,693455
9-Sep-15,29.60,29.66,28.66,28.70,568582
8-Sep-15,28.46,29.35,28.25,29.31,813289
4-Sep-15,28.02,28.56,27.09,28.03,1332859
3-Sep-15,30.93,31.54,28.25,28.51,2408012
2-Sep-15,31.37,31.54,31.03,31.54,1555876
1-Sep-15,31.29,31.55,30.93,31.01,1053159
31-Aug-15,32.16,32.66,31.73,31.79,633051
28-Aug-15,31.95,32.24,31.59,32.16,855931
27-Aug-15,31.70,32.37,31.54,31.96,770337
26-Aug-15,31.47,31.66,30.61,31.57,645794
25-Aug-15,31.62,31.64,30.68,30.79,701934
24-Aug-15,30.21,31.96,28.91,30.80,892626
21-Aug-15,32.15,32.52,31.24,31.82,893849
20-Aug-15,33.70,33.81,32.65,32.70,726974
19-Aug-15,33.84,34.30,33.50,34.04,713504
18-Aug-15,34.08,34.40,33.87,34.01,545333
17-Aug-15,32.99,34.20,32.70,34.17,760695
14-Aug-15,32.52,33.20,32.18,33.13,513322
13-Aug-15,33.07,33.15,32.59,32.66,511364
12-Aug-15,32.94,33.18,32.37,32.97,721750
11-Aug-15,33.41,33.63,32.94,33.19,698843
10-Aug-15,34.00,34.24,33.50,33.61,728714
7-Aug-15,33.53,34.01,33.18,33.82,1036591
6-Aug-15,34.23,34.31,33.15,33.78,815660
5-Aug-15,34.07,34.42,33.92,34.21,906922
4-Aug-15,33.93,34.10,33.68,33.86,757617
3-Aug-15,34.08,34.22,33.48,33.91,1272444
31-Jul-15,33.42,34.14,33.38,34.08,15796415
30-Jul-15,33.69,33.74,33.12,33.25,1557872
29-Jul-15,33.04,33.78,33.00,33.69,1218658
28-Jul-15,31.71,33.03,31.52,33.01,1531255
27-Jul-15,30.92,31.65,30.92,31.61,2346901
24-Jul-15,30.29,30.45,29.98,30.09,673571
23-Jul-15,29.89,30.44,29.68,30.40,600441
22-Jul-15,29.30,30.00,29.20,29.93,306906
21-Jul-15,29.40,29.59,29.11,29.45,308015
20-Jul-15,29.78,29.92,29.25,29.41,549266
17-Jul-15,29.91,30.13,29.62,29.81,353029
16-Jul-15,29.92,30.25,29.68,29.88,487779
15-Jul-15,29.98,30.20,29.55,29.86,606681
14-Jul-15,29.19,29.99,28.93,29.90,575064
13-Jul-15,29.21,29.34,28.83,29.15,795324
10-Jul-15,29.16,29.60,28.86,28.96,383659
9-Jul-15,29.02,29.03,28.62,28.96,427820
8-Jul-15,29.35,29.35,28.41,28.68,359227
7-Jul-15,29.28,29.60,28.84,29.55,602218
6-Jul-15,29.45,29.74,28.94,29.20,922707
2-Jul-15,29.83,29.84,29.46,29.62,402140
1-Jul-15,29.63,30.08,29.41,29.72,406706
30-Jun-15,29.74,29.74,29.16,29.33,443265
29-Jun-15,29.73,30.00,29.36,29.44,881020
26-Jun-15,29.99,30.17,29.72,29.77,2975679
25-Jun-15,30.01,30.11,29.61,29.91,708853
24-Jun-15,30.59,30.89,29.96,29.98,568799
23-Jun-15,30.86,30.94,30.49,30.76,684900
22-Jun-15,30.76,31.07,30.60,30.79,558912
19-Jun-15,30.54,30.84,30.20,30.50,1400029
18-Jun-15,30.58,31.36,30.56,30.69,1005608
17-Jun-15,30.43,30.73,30.33,30.57,752032
16-Jun-15,29.91,30.50,29.88,30.41,629130
15-Jun-15,29.91,30.24,29.28,30.02,756905
12-Jun-15,29.62,30.20,29.51,30.06,1052407
11-Jun-15,29.56,29.94,29.40,29.75,528473
10-Jun-15,28.91,29.68,28.86,29.54,795820
9-Jun-15,29.04,29.36,28.43,28.94,730655
8-Jun-15,29.65,29.89,28.85,29.08,867019
5-Jun-15,29.05,29.69,29.03,29.61,1443668
4-Jun-15,29.00,29.29,29.00,29.08,1799334
3-Jun-15,28.80,29.13,28.62,29.09,9207757
2-Jun-15,30.44,30.68,29.23,29.35,1308038
1-Jun-15,31.56,31.92,30.57,30.71,798313
29-May-15,31.88,32.11,31.18,31.96,606053
28-May-15,31.27,31.94,31.18,31.90,415737
27-May-15,31.07,31.46,31.07,31.30,380851
26-May-15,31.16,31.38,30.71,31.12,287338
22-May-15,31.16,31.56,31.03,31.44,168288
21-May-15,31.26,31.61,30.98,31.23,294023
20-May-15,31.00,31.41,30.82,31.18,246763
19-May-15,30.85,31.15,30.74,31.02,356805
18-May-15,30.29,31.20,30.16,31.00,280859
15-May-15,29.36,30.44,29.08,30.43,318325
14-May-15,28.71,29.44,28.67,29.32,404070
13-May-15,28.31,28.72,28.21,28.56,467425
12-May-15,28.25,28.40,28.01,28.20,472006
11-May-15,28.34,28.58,28.25,28.31,320980
8-May-15,28.48,28.63,27.92,28.32,350828
7-May-15,28.73,28.87,28.16,28.17,294388
6-May-15,28.70,29.77,26.17,28.80,994026
5-May-15,29.27,29.53,28.59,29.18,418095
4-May-15,29.16,29.95,29.05,29.39,327221
1-May-15,28.93,29.32,28.60,29.21,346642
30-Apr-15,29.71,29.96,28.55,28.77,370227
29-Apr-15,29.72,30.40,29.38,29.71,537699
28-Apr-15,30.04,30.30,29.35,29.77,262436
27-Apr-15,30.95,31.06,29.93,29.99,286028
24-Apr-15,31.09,31.13,30.94,31.00,226463
23-Apr-15,30.99,31.23,30.76,31.05,318721
22-Apr-15,31.04,31.35,30.74,31.06,251338
21-Apr-15,31.21,31.29,30.94,31.02,159250
20-Apr-15,30.59,31.00,30.50,30.99,209963
17-Apr-15,30.99,31.08,30.51,30.57,225576
16-Apr-15,30.85,31.62,30.85,31.09,146037
15-Apr-15,30.88,31.12,30.64,31.01,205254
14-Apr-15,30.51,30.77,30.49,30.72,266611
13-Apr-15,30.62,31.04,30.50,30.53,241703
10-Apr-15,31.08,31.14,30.68,30.73,328863
9-Apr-15,30.92,31.65,30.61,30.98,242053
8-Apr-15,30.53,30.93,30.40,30.80,197015
7-Apr-15,30.50,30.83,30.38,30.46,241910
6-Apr-15,30.48,30.76,30.33,30.54,270653
2-Apr-15,30.89,31.22,30.45,30.63,343991
1-Apr-15,31.02,31.02,30.19,30.86,525734
31-Mar-15,31.11,31.36,30.84,31.15,357970
30-Mar-15,30.31,31.20,29.90,31.17,360942
27-Mar-15,30.14,30.73,29.96,30.10,408007
26-Mar-15,30.25,30.50,29.90,30.10,248093
25-Mar-15,30.70,30.92,30.31,30.44,662809
24-Mar-15,30.77,31.03,30.50,30.65,301162
23-Mar-15,31.01,31.07,30.68,30.85,251569
20-Mar-15,31.49,31.64,30.91,31.11,1189868
19-Mar-15,31.31,31.66,31.08,31.50,904295
18-Mar-15,31.04,31.54,30.85,31.30,975194
17-Mar-15,30.71,31.09,30.58,31.08,528777
16-Mar-15,30.92,30.94,30.07,30.89,590107
13-Mar-15,30.06,30.35,29.68,30.35,1576134
12-Mar-15,30.40,30.49,29.91,30.02,561445
11-Mar-15,29.82,30.48,29.80,30.23,789859
10-Mar-15,29.63,29.98,29.34,29.80,768084
9-Mar-15,29.80,30.05,29.57,29.82,699220
6-Mar-15,29.75,30.01,29.69,29.76,819031
5-Mar-15,29.69,29.98,29.64,29.75,1323708
4-Mar-15,29.51,29.79,29.35,29.77,9323169
3-Mar-15,28.33,30.65,28.16,29.99,864032
2-Mar-15,27.50,28.59,26.74,28.46,431007
27-Feb-15,29.59,29.79,27.92,27.97,372081
26-Feb-15,28.84,29.67,28.80,29.60,205260
25-Feb-15,28.41,28.90,28.13,28.87,201712
24-Feb-15,28.26,28.38,27.61,28.35,213197
23-Feb-15,28.16,28.29,27.79,28.19,222645
20-Feb-15,28.74,29.22,28.00,28.15,384257
19-Feb-15,27.73,29.03,27.73,29.01,344768
18-Feb-15,27.42,27.91,27.19,27.74,281902
17-Feb-15,27.50,27.66,27.06,27.34,508557
13-Feb-15,28.50,28.78,27.40,27.52,421626
12-Feb-15,29.42,29.43,27.67,28.58,470365
11-Feb-15,27.80,30.32,27.66,29.32,752452
10-Feb-15,27.79,27.98,27.52,27.88,271985
9-Feb-15,27.44,27.82,27.28,27.55,258145
6-Feb-15,27.44,27.72,27.26,27.44,343868
5-Feb-15,27.68,27.72,27.41,27.49,244476
4-Feb-15,27.58,27.90,27.30,27.55,281968
3-Feb-15,27.72,27.89,27.39,27.78,278936
2-Feb-15,27.62,27.75,27.25,27.64,243853
30-Jan-15,27.56,28.00,27.46,27.62,394947
29-Jan-15,27.85,28.00,27.35,27.72,406479
28-Jan-15,28.23,28.45,27.61,27.74,527367
27-Jan-15,28.14,28.84,28.04,28.20,309809
26-Jan-15,27.09,28.62,27.03,28.33,344768
23-Jan-15,27.84,28.22,27.14,27.20,443638
22-Jan-15,27.69,28.24,27.17,27.91,425624
21-Jan-15,27.94,28.25,27.19,27.53,334335
20-Jan-15,27.99,28.60,27.80,27.99,452988
16-Jan-15,27.20,28.37,27.18,28.07,450748
15-Jan-15,27.94,28.16,27.34,27.40,390980
14-Jan-15,27.87,28.28,27.70,27.97,231478
13-Jan-15,27.90,28.39,27.54,28.13,505180
12-Jan-15,27.65,28.56,27.54,27.67,449578
9-Jan-15,28.02,28.02,27.55,27.57,426341
8-Jan-15,28.02,28.55,27.84,27.99,183802
7-Jan-15,26.73,27.90,26.64,27.81,457211
6-Jan-15,28.08,28.23,26.32,26.55,622116
5-Jan-15,27.43,28.50,27.22,28.08,455243
2-Jan-15,28.04,28.04,27.17,27.51,187260
31-Dec-14,28.05,28.88,27.78,27.88,186086
30-Dec-14,27.71,28.26,27.66,28.06,145467
29-Dec-14,28.41,28.64,27.49,27.94,200494
26-Dec-14,27.54,28.68,27.54,28.49,169201
24-Dec-14,27.23,27.63,26.62,27.38,186034
23-Dec-14,28.71,28.71,27.06,27.15,424424
22-Dec-14,29.17,29.98,28.55,28.63,280757
19-Dec-14,28.77,29.50,28.46,29.19,1718753
18-Dec-14,29.49,29.87,28.40,28.69,487906
17-Dec-14,28.56,29.23,27.95,29.18,458030
16-Dec-14,28.81,29.12,28.22,28.57,464249
15-Dec-14,28.74,29.32,27.91,28.94,381039
12-Dec-14,28.74,29.04,28.15,28.58,368897
11-Dec-14,29.46,30.18,28.75,29.02,385381
10-Dec-14,29.25,29.53,28.77,29.42,368953
9-Dec-14,28.56,29.60,28.50,29.13,284775
8-Dec-14,29.01,29.44,28.70,28.91,243730
5-Dec-14,28.93,29.42,28.67,29.16,264057
4-Dec-14,28.57,29.20,28.13,28.93,584714
3-Dec-14,28.40,28.83,28.03,28.51,443027
2-Dec-14,28.38,29.52,27.43,28.43,811860
1-Dec-14,28.79,29.04,27.91,28.30,406491
28-Nov-14,28.64,29.09,28.42,28.79,161236
26-Nov-14,28.23,28.72,27.77,28.72,711323
25-Nov-14,27.08,27.89,26.56,27.85,552908
24-Nov-14,26.61,27.48,26.56,26.97,489245
21-Nov-14,26.44,26.75,26.04,26.55,634889
20-Nov-14,25.57,26.38,25.55,26.06,449806
19-Nov-14,25.43,26.39,24.88,25.70,478675
18-Nov-14,25.81,26.04,25.16,25.43,330593
17-Nov-14,23.93,26.16,23.70,25.64,514327
14-Nov-14,24.14,24.40,22.85,24.05,743829
13-Nov-14,23.86,24.54,23.74,23.81,458358
12-Nov-14,24.15,24.30,23.64,23.72,776548
11-Nov-14,24.81,24.97,24.17,24.21,354720
10-Nov-14,24.81,25.01,24.42,24.77,251066
7-Nov-14,24.58,24.92,24.37,24.73,272083
6-Nov-14,25.04,25.28,24.44,24.74,255064
5-Nov-14,25.44,25.44,24.87,25.09,262966
4-Nov-14,25.85,25.89,25.25,25.35,157957
3-Nov-14,26.00,26.25,25.50,25.90,228162
31-Oct-14,26.03,26.34,25.60,26.03,367141
30-Oct-14,25.38,26.00,24.87,25.64,305996
29-Oct-14,25.28,25.62,25.04,25.55,254099
28-Oct-14,24.50,25.46,24.40,25.20,488658
27-Oct-14,24.68,24.79,23.45,24.46,308615
24-Oct-14,24.37,25.04,24.22,24.94,241807
23-Oct-14,24.20,24.40,24.11,24.26,509883
22-Oct-14,25.13,25.24,24.04,24.07,284252
21-Oct-14,23.99,25.28,23.85,25.19,624832
20-Oct-14,23.63,24.21,23.46,23.96,246863
17-Oct-14,24.44,24.67,23.53,23.63,225338
16-Oct-14,24.01,24.59,23.80,24.25,395210
15-Oct-14,23.49,24.30,23.22,24.22,337632
14-Oct-14,23.57,23.91,23.43,23.73,468492
13-Oct-14,23.66,23.98,23.43,23.52,451025
10-Oct-14,24.22,24.22,23.64,23.67,639781
9-Oct-14,25.35,25.48,24.38,24.42,469145
8-Oct-14,24.65,25.59,24.58,25.48,425469
7-Oct-14,24.84,25.03,24.54,24.73,396031
6-Oct-14,25.17,25.19,24.64,24.98,520482
3-Oct-14,25.66,25.74,25.10,25.13,339000
2-Oct-14,23.90,25.69,23.88,25.35,945367
1-Oct-14,24.93,25.10,23.21,23.85,1214517
30-Sep-14,25.13,25.30,24.67,25.03,4606484
29-Sep-14,24.72,25.23,24.52,25.17,876229
26-Sep-14,24.60,25.12,24.50,25.04,927525
25-Sep-14,24.91,25.15,24.65,24.68,1202611
24-Sep-14,23.97,25.00,23.83,24.84,1333045
23-Sep-14,24.12,24.20,23.58,23.97,1185737
22-Sep-14,23.64,24.06,23.41,23.99,713002
19-Sep-14,24.12,24.63,23.09,23.68,2784756
18-Sep-14,24.31,24.44,23.96,24.19,751328
17-Sep-14,24.29,24.90,24.15,24.31,750612
16-Sep-14,25.05,25.40,23.82,24.22,974557
15-Sep-14,23.58,24.88,23.58,24.84,1157503
12-Sep-14,23.00,23.90,23.00,23.49,691089
11-Sep-14,22.81,23.70,22.60,23.25,929995
10-Sep-14,22.48,23.18,22.40,22.99,976551
9-Sep-14,22.53,23.09,22.19,22.48,945831
8-Sep-14,22.35,22.80,22.26,22.50,654132
5-Sep-14,21.50,22.55,21.50,22.40,835298
4-Sep-14,21.59,21.95,21.21,21.50,445570
3-Sep-14,21.64,21.80,21.52,21.68,329716
2-Sep-14,21.35,21.79,21.32,21.70,665741
29-Aug-14,21.50,21.74,21.33,21.50,1271821
28-Aug-14,21.10,21.70,21.02,21.50,3070248
27-Aug-14,21.20,21.35,21.15,21.27,265050
26-Aug-14,21.15,21.45,21.15,21.32,691048
25-Aug-14,20.74,21.31,20.55,21.20,558939
22-Aug-14,20.75,20.91,20.66,20.85,259679
21-Aug-14,20.54,20.74,20.54,20.72,221909
20-Aug-14,20.51,20.75,20.50,20.58,291124
19-Aug-14,20.50,20.68,20.50,20.63,403960
18-Aug-14,21.20,21.20,20.41,20.66,186915
15-Aug-14,20.68,20.68,20.45,20.51,143341
14-Aug-14,20.50,20.59,20.45,20.50,200595
13-Aug-14,20.50,20.60,20.47,20.53,438485
12-Aug-14,20.45,20.55,20.45,20.50,240691
11-Aug-14,20.51,20.60,20.44,20.50,442471
8-Aug-14,20.49,20.68,20.40,20.53,402530
7-Aug-14,20.33,20.49,20.30,20.42,546020
6-Aug-14,20.20,20.33,20.05,20.33,900913
5-Aug-14,19.94,20.48,19.77,20.21,1077591
4-Aug-14,19.85,20.10,19.60,20.01,592817
1-Aug-14,20.00,20.10,19.34,19.85,2125626
31-Jul-14,20.00,20.33,19.30,19.99,14208657
