﻿Date,Open,High,Low,Close,Volume
20-Jun-17,22.19,22.32,21.98,22.06,277762
19-Jun-17,22.26,22.46,22.02,22.29,515677
16-Jun-17,21.77,22.15,21.70,22.12,626095
15-Jun-17,21.76,22.01,21.55,21.85,235449
14-Jun-17,22.22,22.29,21.71,21.96,227238
13-Jun-17,22.12,22.32,21.86,22.11,259429
12-Jun-17,21.72,22.20,21.13,21.97,492256
9-Jun-17,23.02,23.16,21.55,21.88,579600
8-Jun-17,22.68,23.07,22.40,23.00,463135
7-Jun-17,22.68,23.04,22.57,22.67,531683
6-Jun-17,22.40,22.83,22.21,22.72,514603
5-Jun-17,22.88,22.96,22.40,22.48,280252
2-Jun-17,22.91,23.08,22.70,22.91,654792
1-Jun-17,22.05,22.83,21.91,22.79,474249
31-May-17,22.23,22.30,21.59,21.92,696442
30-May-17,22.42,22.54,22.09,22.12,392382
26-May-17,22.64,22.64,22.20,22.43,354582
25-May-17,22.85,22.95,22.60,22.71,297969
24-May-17,22.76,22.95,22.56,22.73,343000
23-May-17,22.67,22.96,22.42,22.76,343058
22-May-17,22.44,22.79,22.38,22.62,374705
19-May-17,22.48,22.72,22.23,22.43,1193500
18-May-17,22.27,22.69,22.04,22.26,705344
17-May-17,22.66,22.75,22.30,22.33,685862
16-May-17,23.16,23.43,22.86,23.00,833180
15-May-17,22.37,23.11,22.15,23.04,1403417
12-May-17,21.30,21.84,21.13,21.79,761323
11-May-17,21.17,21.38,20.76,21.14,332806
10-May-17,21.49,21.55,21.23,21.36,461227
9-May-17,21.07,21.64,21.07,21.51,455738
8-May-17,21.10,21.31,20.96,21.08,561344
5-May-17,20.39,21.19,20.28,21.09,571183
4-May-17,20.49,20.51,20.10,20.33,338111
3-May-17,20.38,20.65,20.31,20.52,441415
2-May-17,20.08,20.54,20.07,20.32,667227
1-May-17,20.33,20.67,20.28,20.47,419159
28-Apr-17,20.13,20.49,19.82,20.33,605411
27-Apr-17,20.27,20.50,20.04,20.10,400712
26-Apr-17,20.63,20.77,20.10,20.13,457118
25-Apr-17,20.33,20.72,20.15,20.61,703809
24-Apr-17,20.42,20.42,19.69,20.24,804984
21-Apr-17,19.49,20.24,19.29,20.14,1164552
20-Apr-17,19.95,20.03,19.42,19.48,897757
19-Apr-17,19.66,20.25,19.47,19.91,1646924
18-Apr-17,21.31,21.31,19.06,19.71,7881856
17-Apr-17,23.26,23.50,22.76,23.41,1110284
13-Apr-17,23.26,23.78,23.11,23.16,587750
12-Apr-17,23.46,23.62,23.09,23.22,311252
11-Apr-17,23.06,23.52,22.84,23.50,307242
10-Apr-17,23.37,23.81,23.05,23.13,446612
7-Apr-17,23.22,23.42,23.01,23.36,343444
6-Apr-17,23.04,23.24,22.85,23.22,382301
5-Apr-17,23.52,23.76,22.77,23.00,569417
4-Apr-17,23.27,23.88,23.15,23.38,506965
3-Apr-17,23.21,23.44,22.80,23.42,442593
31-Mar-17,23.18,23.33,23.10,23.11,456438
30-Mar-17,23.56,23.78,23.11,23.18,267896
29-Mar-17,23.13,23.67,23.07,23.59,290340
28-Mar-17,23.18,23.36,22.92,23.12,327624
27-Mar-17,22.74,23.24,22.58,23.17,219211
24-Mar-17,23.17,23.38,22.92,23.04,181448
23-Mar-17,23.05,23.39,22.76,23.01,242916
22-Mar-17,22.92,23.17,22.54,23.04,293341
21-Mar-17,23.45,23.56,22.65,22.85,511817
20-Mar-17,23.39,23.71,23.26,23.31,533312
17-Mar-17,23.65,23.71,23.19,23.28,486277
16-Mar-17,22.89,23.74,22.89,23.63,511935
15-Mar-17,23.00,23.04,22.58,22.77,522362
14-Mar-17,22.91,23.02,22.44,22.92,350547
13-Mar-17,22.67,23.29,22.60,22.99,410425
10-Mar-17,22.72,22.99,22.68,22.75,323166
9-Mar-17,22.67,22.82,22.27,22.47,357364
8-Mar-17,22.76,23.03,22.75,22.81,236817
7-Mar-17,22.94,23.10,22.66,22.72,306449
6-Mar-17,23.14,23.34,22.76,22.95,366443
3-Mar-17,23.36,23.42,23.01,23.34,362229
2-Mar-17,23.78,23.96,23.35,23.46,454453
1-Mar-17,23.92,24.05,23.64,23.89,674978
28-Feb-17,23.78,23.96,23.50,23.66,533050
27-Feb-17,23.76,24.17,23.75,24.02,645382
24-Feb-17,23.13,23.88,22.91,23.87,424402
23-Feb-17,23.72,23.73,23.04,23.48,493646
22-Feb-17,23.78,24.03,23.60,23.68,269495
21-Feb-17,24.00,24.23,23.92,23.95,604005
17-Feb-17,23.42,24.01,23.31,24.00,412187
16-Feb-17,23.68,23.95,23.33,23.58,457447
15-Feb-17,23.81,23.88,23.34,23.70,598753
14-Feb-17,23.71,24.16,23.66,23.92,394067
13-Feb-17,24.42,24.42,23.82,23.86,541914
10-Feb-17,24.06,24.51,23.85,24.43,803580
9-Feb-17,23.94,24.37,23.93,24.07,499684
8-Feb-17,23.92,24.37,23.50,24.08,710816
7-Feb-17,24.00,24.48,23.85,24.24,959203
6-Feb-17,24.00,24.15,23.61,24.00,573559
3-Feb-17,23.45,23.92,23.27,23.86,487714
2-Feb-17,23.45,23.50,22.95,23.27,519794
1-Feb-17,23.67,23.91,23.28,23.46,610003
31-Jan-17,22.58,23.77,22.41,23.49,995320
30-Jan-17,22.50,22.76,21.52,22.61,956618
27-Jan-17,23.21,23.23,22.78,22.84,769010
26-Jan-17,23.80,23.98,23.08,23.21,628023
25-Jan-17,23.41,24.02,22.75,23.76,931934
24-Jan-17,23.23,23.31,22.66,23.14,607973
23-Jan-17,23.25,23.40,22.84,23.15,507759
20-Jan-17,23.21,23.44,22.80,23.32,610281
19-Jan-17,23.00,23.37,22.98,23.14,824902
18-Jan-17,23.09,23.12,22.75,22.99,835072
17-Jan-17,24.08,24.20,22.79,22.89,1253451
13-Jan-17,24.00,24.33,23.79,24.21,1503431
12-Jan-17,24.37,24.38,23.39,23.99,2254130
11-Jan-17,24.10,25.59,24.04,24.83,2751955
10-Jan-17,25.50,25.66,23.77,24.02,3911347
9-Jan-17,23.30,23.98,22.47,23.77,1945364
6-Jan-17,22.57,22.89,22.24,22.78,381722
5-Jan-17,22.80,22.86,22.36,22.52,287225
4-Jan-17,22.32,22.99,22.18,22.93,405339
3-Jan-17,22.28,22.57,21.88,22.27,465751
30-Dec-16,21.45,21.87,21.15,21.43,307454
29-Dec-16,21.64,21.88,21.21,21.42,350721
28-Dec-16,22.44,22.56,21.58,21.60,405135
27-Dec-16,22.21,22.57,22.21,22.45,294279
23-Dec-16,21.87,22.33,21.80,22.21,245120
22-Dec-16,22.13,22.68,21.89,21.93,390262
21-Dec-16,22.50,22.59,21.90,22.11,236954
20-Dec-16,22.39,22.73,22.26,22.54,282469
19-Dec-16,22.44,22.56,22.23,22.33,304511
16-Dec-16,22.78,22.85,22.19,22.42,1111591
15-Dec-16,22.50,23.08,22.38,22.79,394541
14-Dec-16,22.80,23.12,22.39,22.49,353825
13-Dec-16,22.50,23.06,22.33,22.95,549838
12-Dec-16,22.78,22.93,22.08,22.39,455157
9-Dec-16,23.15,23.26,22.73,22.89,262347
8-Dec-16,23.05,23.43,22.83,23.29,475022
7-Dec-16,22.88,23.24,22.33,23.11,346834
6-Dec-16,23.10,23.14,22.24,22.96,412024
5-Dec-16,22.06,23.18,21.84,23.14,451132
2-Dec-16,20.93,21.90,20.64,21.83,381017
1-Dec-16,22.02,22.36,21.05,21.19,510302
30-Nov-16,22.74,22.77,21.85,22.04,460984
29-Nov-16,22.64,23.09,22.55,22.74,566869
28-Nov-16,23.67,23.98,22.53,22.69,556519
25-Nov-16,24.11,24.11,23.37,23.79,215952
23-Nov-16,24.00,24.11,23.68,24.01,262464
22-Nov-16,24.03,24.28,23.75,24.26,445379
21-Nov-16,24.17,24.31,23.93,24.31,309855
18-Nov-16,24.30,24.34,23.79,24.08,318723
17-Nov-16,24.24,24.47,24.01,24.24,274194
16-Nov-16,24.09,24.30,23.62,24.23,437955
15-Nov-16,24.27,24.34,23.85,24.27,422671
14-Nov-16,24.20,24.30,23.22,23.79,364934
11-Nov-16,23.15,24.20,23.09,24.14,556757
10-Nov-16,23.52,23.85,22.82,23.28,601291
9-Nov-16,22.21,23.49,22.07,23.31,494955
8-Nov-16,23.58,23.69,22.56,22.82,694227
7-Nov-16,23.77,23.87,23.56,23.86,431389
4-Nov-16,22.79,23.49,22.33,23.18,448072
3-Nov-16,22.16,22.89,22.02,22.76,550516
2-Nov-16,22.61,22.77,22.08,22.17,675779
1-Nov-16,23.44,23.53,22.34,22.59,585939
31-Oct-16,23.68,23.72,23.01,23.32,464222
28-Oct-16,23.49,24.00,23.48,23.59,406215
27-Oct-16,24.47,24.47,23.41,23.45,344754
26-Oct-16,24.10,24.28,23.88,23.95,410132
25-Oct-16,24.08,24.50,23.84,24.34,961636
24-Oct-16,24.01,24.14,23.82,24.02,437593
21-Oct-16,23.68,24.13,23.60,23.75,507841
20-Oct-16,23.35,24.14,22.84,23.83,957156
19-Oct-16,23.58,23.97,23.06,23.72,899251
18-Oct-16,24.96,25.00,23.57,24.01,1516040
17-Oct-16,25.49,25.75,25.00,25.05,702822
14-Oct-16,25.66,26.40,25.50,25.52,1605440
13-Oct-16,25.13,26.40,25.00,25.36,2369420
12-Oct-16,26.53,26.69,25.12,25.47,7126563
11-Oct-16,24.30,24.47,23.27,23.33,1492059
10-Oct-16,24.12,24.94,23.99,24.04,488671
7-Oct-16,24.58,24.75,23.62,23.83,406094
6-Oct-16,24.79,24.95,24.40,24.64,242302
5-Oct-16,24.71,25.07,24.36,24.86,432262
4-Oct-16,24.98,25.26,24.37,24.65,505778
3-Oct-16,25.41,25.52,24.80,24.95,254500
30-Sep-16,25.08,25.62,24.96,25.48,410794
29-Sep-16,25.20,25.23,24.67,24.84,200425
28-Sep-16,25.19,25.77,25.01,25.18,302485
27-Sep-16,24.54,25.24,24.48,25.17,259015
26-Sep-16,24.78,24.90,24.19,24.48,174211
23-Sep-16,25.00,25.23,24.81,25.01,266488
22-Sep-16,24.51,24.95,24.45,24.86,322938
21-Sep-16,23.62,24.34,23.43,24.15,324273
20-Sep-16,24.06,24.26,23.39,23.41,189317
19-Sep-16,24.23,24.53,23.66,23.89,317956
16-Sep-16,23.61,23.97,23.36,23.95,991561
15-Sep-16,23.19,23.81,22.99,23.78,290430
14-Sep-16,22.69,23.50,22.69,23.24,403573
13-Sep-16,23.47,23.68,22.31,22.69,576299
12-Sep-16,22.90,23.69,22.63,23.69,399788
9-Sep-16,23.96,24.10,23.12,23.15,308195
8-Sep-16,24.33,24.47,24.06,24.28,224360
7-Sep-16,23.94,24.44,23.82,24.34,358384
6-Sep-16,23.97,24.32,23.05,23.94,360610
2-Sep-16,23.84,24.16,23.64,23.96,341528
1-Sep-16,23.11,23.75,22.90,23.69,258149
31-Aug-16,23.40,23.65,22.79,23.20,489745
30-Aug-16,23.90,23.90,23.08,23.51,619496
29-Aug-16,22.34,22.87,22.01,22.63,377528
26-Aug-16,21.88,22.39,21.88,22.25,212608
25-Aug-16,22.05,22.31,21.76,21.88,327998
24-Aug-16,21.92,22.23,21.87,22.10,383087
23-Aug-16,21.90,22.01,21.82,21.96,357003
22-Aug-16,21.74,21.93,21.56,21.78,263507
19-Aug-16,21.82,22.04,21.65,21.80,217676
18-Aug-16,21.63,22.05,21.58,21.85,196587
17-Aug-16,21.80,22.02,21.45,21.62,195347
16-Aug-16,21.53,22.05,21.46,21.83,211885
15-Aug-16,20.92,21.81,20.75,21.57,278472
12-Aug-16,21.39,21.70,20.14,20.90,722432
11-Aug-16,21.95,22.38,21.68,22.08,261779
10-Aug-16,21.88,21.96,20.71,21.90,255829
9-Aug-16,21.87,22.06,21.67,21.86,208017
8-Aug-16,21.98,22.25,21.61,21.88,345232
5-Aug-16,22.08,22.34,21.89,22.00,524011
4-Aug-16,21.97,22.40,21.74,22.04,307116
3-Aug-16,21.44,22.11,21.20,21.98,526995
2-Aug-16,22.12,22.25,21.42,21.61,649785
1-Aug-16,22.18,22.50,21.93,22.18,575456
29-Jul-16,22.35,22.35,21.45,22.08,1066865
28-Jul-16,21.71,22.44,21.51,22.44,560704
27-Jul-16,21.64,21.87,21.45,21.60,321880
26-Jul-16,21.27,21.73,21.27,21.52,243039
25-Jul-16,21.12,21.50,20.89,21.35,367926
22-Jul-16,21.29,21.38,20.48,21.16,440327
21-Jul-16,20.80,21.37,20.75,21.14,671402
20-Jul-16,20.50,20.95,20.36,20.78,485720
19-Jul-16,20.61,20.72,20.08,20.35,415884
18-Jul-16,20.20,20.75,19.92,20.69,582096
15-Jul-16,20.37,20.48,19.89,20.09,836542
14-Jul-16,19.90,20.41,19.49,20.30,1387136
13-Jul-16,19.77,19.85,18.97,19.78,1806878
12-Jul-16,19.59,19.78,19.28,19.57,1183689
11-Jul-16,18.67,19.89,18.67,19.60,2690129
8-Jul-16,18.22,18.47,17.50,18.43,4288651
7-Jul-16,15.24,15.66,15.08,15.51,948921
6-Jul-16,14.63,15.20,14.48,15.00,347110
5-Jul-16,15.00,15.14,14.64,14.77,322859
1-Jul-16,15.06,15.26,14.91,15.18,222666
30-Jun-16,15.05,15.22,14.69,15.14,299852
29-Jun-16,14.71,15.02,14.48,14.97,270631
28-Jun-16,14.21,14.69,14.21,14.53,440480
27-Jun-16,14.48,14.72,13.91,14.03,549785
24-Jun-16,15.08,15.38,14.54,14.70,1734687
23-Jun-16,15.21,15.92,15.15,15.90,305308
22-Jun-16,15.23,15.27,14.84,14.96,358150
21-Jun-16,15.28,15.39,14.84,15.17,302239
20-Jun-16,14.60,15.38,14.60,15.23,453282
17-Jun-16,14.82,14.84,14.35,14.45,1478694
16-Jun-16,14.74,14.96,14.49,14.76,370027
15-Jun-16,14.85,15.32,14.68,14.83,510190
14-Jun-16,15.05,15.26,14.76,14.85,488211
13-Jun-16,15.31,15.51,15.14,15.18,253292
10-Jun-16,15.44,15.64,15.20,15.32,260676
9-Jun-16,15.92,16.06,15.47,15.71,350174
8-Jun-16,15.80,16.27,15.72,15.92,370528
7-Jun-16,15.82,15.96,15.60,15.76,430470
6-Jun-16,16.83,16.83,15.57,15.79,1039434
3-Jun-16,17.51,17.65,17.30,17.46,259154
2-Jun-16,17.36,17.57,17.09,17.50,340914
1-Jun-16,17.12,17.64,17.02,17.46,749597
31-May-16,17.20,17.34,16.92,17.21,513453
27-May-16,16.69,17.21,16.50,17.16,258093
26-May-16,17.20,17.25,16.96,17.06,318766
25-May-16,17.04,17.18,16.87,17.13,315251
24-May-16,16.68,17.17,16.57,17.08,434719
23-May-16,16.67,16.85,16.52,16.63,290112
20-May-16,15.97,16.89,15.97,16.66,574329
19-May-16,16.26,16.50,15.98,16.23,252917
18-May-16,15.95,16.43,15.95,16.30,339333
17-May-16,16.05,16.31,15.92,16.20,499008
16-May-16,16.42,16.42,14.92,16.14,1296826
13-May-16,16.45,16.92,16.45,16.60,224005
12-May-16,16.60,16.79,16.09,16.46,253099
11-May-16,16.65,16.94,16.37,16.55,233926
10-May-16,16.10,16.81,16.02,16.74,170950
9-May-16,16.16,16.26,15.77,16.16,211567
6-May-16,16.10,16.56,16.04,16.25,440471
5-May-16,16.64,16.80,16.27,16.28,165879
4-May-16,16.60,16.94,16.33,16.61,334008
3-May-16,16.97,17.10,16.52,16.66,346111
2-May-16,17.62,17.81,16.85,17.08,467171
29-Apr-16,18.07,18.16,17.43,17.62,524222
28-Apr-16,18.16,18.54,18.00,18.04,1106196
27-Apr-16,17.28,18.60,16.91,18.18,3537452
26-Apr-16,15.88,15.92,15.16,15.55,669181
25-Apr-16,15.80,16.05,15.79,15.89,544514
22-Apr-16,15.58,15.94,15.47,15.79,693460
21-Apr-16,15.67,15.81,15.54,15.64,528537
20-Apr-16,15.33,15.89,15.32,15.64,317666
19-Apr-16,15.97,16.00,15.30,15.38,172721
18-Apr-16,15.57,15.97,15.52,15.92,295032
15-Apr-16,15.90,15.97,15.52,15.58,251804
14-Apr-16,15.68,16.01,15.57,15.91,192677
13-Apr-16,15.40,15.88,15.40,15.70,334623
12-Apr-16,15.16,15.52,15.10,15.30,227371
11-Apr-16,15.60,15.78,15.06,15.08,210546
8-Apr-16,15.10,15.42,14.97,15.41,237681
7-Apr-16,15.29,15.56,14.81,14.93,236918
6-Apr-16,15.56,15.74,15.21,15.50,211932
5-Apr-16,15.49,15.64,15.15,15.56,231703
4-Apr-16,15.62,15.93,15.54,15.71,173335
1-Apr-16,15.22,15.57,15.00,15.57,190211
31-Mar-16,15.15,15.71,15.12,15.40,259943
30-Mar-16,15.02,15.52,15.02,15.15,197042
29-Mar-16,14.89,15.12,14.59,14.98,238069
28-Mar-16,14.40,14.94,14.01,14.94,313492
24-Mar-16,14.26,14.27,13.82,14.26,262707
23-Mar-16,15.22,15.27,14.23,14.35,290399
22-Mar-16,15.27,15.66,15.16,15.28,185122
21-Mar-16,15.50,15.63,15.12,15.35,390989
18-Mar-16,14.86,15.59,14.72,15.48,1184756
17-Mar-16,14.28,15.00,14.11,14.74,327708
16-Mar-16,13.29,14.29,13.29,14.24,300094
15-Mar-16,14.00,14.10,13.20,13.34,274062
14-Mar-16,14.16,14.31,13.95,14.08,261519
11-Mar-16,13.49,14.29,13.48,14.21,255339
10-Mar-16,13.90,13.97,13.07,13.39,261388
9-Mar-16,13.68,13.98,13.65,13.78,158528
8-Mar-16,14.25,14.30,13.60,13.62,264492
7-Mar-16,13.84,14.39,13.81,14.29,341356
4-Mar-16,13.91,14.74,13.68,13.83,382232
3-Mar-16,13.75,14.11,13.72,13.90,317511
2-Mar-16,13.31,13.76,13.19,13.76,217110
1-Mar-16,13.00,13.38,12.87,13.33,271960
29-Feb-16,12.82,13.16,12.75,12.86,240949
26-Feb-16,12.59,13.18,12.59,12.87,287289
25-Feb-16,12.58,12.62,12.06,12.57,393328
24-Feb-16,12.13,12.55,11.76,12.47,291450
23-Feb-16,12.28,12.48,12.02,12.21,268059
22-Feb-16,12.35,12.85,12.33,12.34,496737
19-Feb-16,11.80,12.33,11.72,12.28,382407
18-Feb-16,11.73,11.93,11.52,11.80,259270
17-Feb-16,11.36,12.17,11.11,11.72,522878
16-Feb-16,10.89,11.58,10.81,11.39,482212
12-Feb-16,11.04,11.06,10.33,10.80,415317
11-Feb-16,10.22,11.25,10.20,10.99,578732
10-Feb-16,10.50,10.81,10.17,10.44,482095
9-Feb-16,10.45,10.58,9.94,10.36,715079
8-Feb-16,11.34,11.49,10.27,10.66,760804
5-Feb-16,12.15,12.15,11.49,11.56,695761
4-Feb-16,11.47,12.48,11.47,12.25,879768
3-Feb-16,11.55,11.61,11.14,11.59,649282
2-Feb-16,11.57,11.77,11.25,11.50,868980
1-Feb-16,10.51,11.99,10.31,11.75,2307976
29-Jan-16,10.37,10.78,10.37,10.58,434198
28-Jan-16,10.35,10.59,10.05,10.33,651151
27-Jan-16,10.64,10.78,10.26,10.29,585152
26-Jan-16,10.71,10.84,10.37,10.72,656439
25-Jan-16,10.61,10.85,10.45,10.71,1141967
22-Jan-16,10.51,11.03,10.37,10.69,766683
21-Jan-16,10.55,10.92,10.07,10.32,936228
20-Jan-16,9.62,10.36,9.44,10.29,1156096
19-Jan-16,10.45,10.50,9.95,10.09,1325734
15-Jan-16,10.20,10.54,9.99,10.41,1091055
14-Jan-16,10.31,10.66,10.02,10.50,1096963
13-Jan-16,10.81,10.92,9.92,10.28,1277356
12-Jan-16,10.68,11.06,10.21,10.49,879143
11-Jan-16,10.62,10.83,10.49,10.62,1992265
8-Jan-16,11.13,11.67,10.52,10.73,8048464
7-Jan-16,17.00,17.09,16.38,16.43,764224
6-Jan-16,17.50,17.75,17.16,17.34,537859
5-Jan-16,18.30,18.68,17.70,17.81,521316
4-Jan-16,18.42,18.65,17.67,18.30,536315
31-Dec-15,18.53,18.90,18.29,18.68,239174
30-Dec-15,18.78,19.28,18.50,18.57,361169
29-Dec-15,19.23,19.26,18.44,18.83,519732
28-Dec-15,19.00,19.12,18.41,19.11,414909
24-Dec-15,18.63,19.40,18.63,19.15,157851
23-Dec-15,18.77,18.87,18.45,18.63,220267
22-Dec-15,17.94,18.86,17.94,18.62,301574
21-Dec-15,18.86,18.86,17.71,17.91,438691
18-Dec-15,18.03,18.79,18.02,18.65,1219358
17-Dec-15,18.31,18.48,17.98,18.11,410571
16-Dec-15,17.71,18.68,17.71,18.20,612488
15-Dec-15,17.00,17.74,16.92,17.56,367837
14-Dec-15,17.23,17.37,16.31,16.80,388455
11-Dec-15,17.72,17.96,17.09,17.22,234873
10-Dec-15,17.65,18.31,17.65,17.99,241987
9-Dec-15,17.96,18.50,17.62,17.71,304172
8-Dec-15,17.49,18.24,17.35,18.02,304975
7-Dec-15,18.54,18.59,17.27,17.72,392521
4-Dec-15,18.67,19.11,18.49,18.61,362296
3-Dec-15,19.15,19.25,18.24,18.67,706473
2-Dec-15,19.49,19.88,19.01,19.18,271807
1-Dec-15,19.10,19.59,18.93,19.54,293891
30-Nov-15,18.94,19.39,18.87,19.03,366749
27-Nov-15,19.05,19.05,18.60,18.88,332390
25-Nov-15,18.78,19.20,18.76,19.00,419535
24-Nov-15,17.81,18.83,17.66,18.81,588311
23-Nov-15,17.46,18.12,17.38,17.84,999551
20-Nov-15,18.10,18.26,17.48,17.50,818183
19-Nov-15,18.33,18.43,18.03,18.08,582824
18-Nov-15,18.35,18.81,18.11,18.33,444663
17-Nov-15,19.23,19.23,18.10,18.27,1474760
16-Nov-15,18.89,19.29,18.70,19.22,199397
13-Nov-15,18.91,19.25,18.70,18.95,457155
12-Nov-15,19.24,19.76,18.92,19.04,324010
11-Nov-15,19.77,19.77,18.94,19.34,407365
10-Nov-15,20.59,20.68,19.54,19.78,360975
9-Nov-15,21.10,21.37,20.63,20.70,271871
6-Nov-15,19.74,21.26,19.73,21.18,279151
5-Nov-15,20.32,20.33,19.28,19.80,435629
4-Nov-15,20.29,20.98,20.22,20.51,438183
3-Nov-15,20.05,20.99,20.05,20.22,622278
2-Nov-15,19.16,20.46,19.07,20.07,472131
30-Oct-15,18.84,19.75,18.67,19.18,417371
29-Oct-15,19.23,19.65,18.43,18.74,386122
28-Oct-15,18.11,19.39,18.01,19.25,544464
27-Oct-15,18.37,18.46,17.94,18.02,485978
26-Oct-15,18.28,18.98,17.92,18.43,525161
23-Oct-15,18.32,18.82,18.10,18.25,408890
22-Oct-15,18.53,18.90,17.86,18.52,497147
21-Oct-15,19.03,19.12,18.07,18.51,459128
20-Oct-15,19.01,19.10,18.55,18.93,276624
19-Oct-15,19.08,19.35,18.60,19.03,359136
16-Oct-15,19.11,19.48,18.67,19.00,373486
15-Oct-15,18.20,19.21,18.13,19.16,366846
14-Oct-15,18.73,19.09,18.08,18.50,374325
13-Oct-15,18.97,19.36,18.53,18.57,352096
12-Oct-15,19.47,19.49,18.64,19.08,539206
9-Oct-15,19.07,19.52,18.59,19.47,488693
8-Oct-15,19.08,19.20,18.50,19.01,382967
7-Oct-15,18.80,19.64,18.38,19.11,770998
6-Oct-15,18.03,18.85,18.00,18.77,630075
5-Oct-15,18.51,18.94,17.45,18.28,993040
2-Oct-15,15.80,18.06,15.62,17.94,2552702
1-Oct-15,15.52,15.99,15.14,15.89,2879413
30-Sep-15,15.99,16.75,14.77,15.58,9614589
29-Sep-15,25.16,25.16,23.04,23.55,1219693
28-Sep-15,25.26,25.72,24.46,24.63,578515
25-Sep-15,27.37,27.55,24.73,25.39,1036539
24-Sep-15,27.62,27.96,27.14,27.30,936955
23-Sep-15,27.96,28.37,27.61,28.02,329736
22-Sep-15,28.13,28.25,27.82,27.98,422932
21-Sep-15,29.76,29.98,27.86,28.30,611776
18-Sep-15,28.21,29.99,28.21,29.63,1340848
17-Sep-15,27.58,28.96,27.48,28.52,450211
16-Sep-15,27.71,27.99,27.48,27.66,187702
15-Sep-15,27.60,27.94,27.41,27.76,121077
14-Sep-15,27.78,28.00,27.41,27.60,193902
11-Sep-15,27.10,27.81,26.91,27.57,383860
10-Sep-15,26.79,27.40,26.25,27.10,190740
9-Sep-15,26.97,27.37,26.68,26.75,201819
8-Sep-15,26.37,26.89,26.16,26.67,252288
4-Sep-15,25.87,26.22,25.55,25.79,156935
3-Sep-15,25.67,26.16,25.46,26.08,228768
2-Sep-15,26.03,26.18,24.63,25.66,354793
1-Sep-15,25.82,26.15,25.59,25.82,377088
31-Aug-15,26.51,26.84,26.18,26.29,405909
28-Aug-15,25.53,26.60,25.42,26.56,381788
27-Aug-15,25.72,25.98,24.95,25.59,349506
26-Aug-15,25.13,25.47,24.72,25.45,457384
25-Aug-15,24.86,25.54,24.61,24.75,803976
24-Aug-15,22.58,24.73,21.85,24.01,608937
21-Aug-15,24.07,24.46,23.31,24.03,534053
20-Aug-15,25.44,25.58,24.46,24.54,533547
19-Aug-15,26.11,26.45,25.50,25.73,252724
18-Aug-15,26.20,26.52,26.02,26.20,493636
17-Aug-15,25.68,26.49,25.52,26.21,400645
14-Aug-15,26.28,26.31,25.56,25.83,185356
13-Aug-15,26.28,26.58,25.98,26.35,325732
12-Aug-15,26.26,26.43,25.37,26.16,254251
11-Aug-15,26.71,27.23,26.15,26.50,407925
10-Aug-15,26.13,27.00,26.03,26.93,400878
7-Aug-15,25.81,26.77,25.51,25.91,451087
6-Aug-15,27.24,27.24,25.42,25.98,356040
5-Aug-15,27.19,27.60,26.79,27.06,294555
4-Aug-15,27.04,27.38,26.63,26.85,365541
3-Aug-15,27.48,27.49,26.54,27.15,563957
31-Jul-15,27.06,27.81,26.92,27.44,233373
30-Jul-15,27.55,27.55,26.69,27.12,378081
29-Jul-15,27.68,27.86,27.05,27.58,263176
28-Jul-15,27.80,27.83,26.36,27.58,663790
27-Jul-15,28.66,29.10,27.25,27.83,408132
24-Jul-15,30.07,30.77,28.93,28.99,799165
23-Jul-15,29.20,30.62,29.18,30.08,1422825
22-Jul-15,29.00,29.39,28.28,28.35,474064
21-Jul-15,28.60,29.17,28.39,29.12,453423
20-Jul-15,29.53,30.03,28.56,28.67,474575
17-Jul-15,30.17,30.56,29.51,29.75,628395
16-Jul-15,30.39,31.01,30.16,30.23,538048
15-Jul-15,30.90,31.08,30.07,30.21,598946
14-Jul-15,30.37,31.10,29.84,30.96,1218746
13-Jul-15,31.90,32.12,30.23,30.34,1943213
10-Jul-15,32.55,32.70,30.80,31.55,7359792
9-Jul-15,39.43,39.99,39.00,39.12,1033587
8-Jul-15,38.95,39.40,38.45,38.71,308538
7-Jul-15,39.19,39.19,37.32,39.07,210106
6-Jul-15,39.13,39.70,38.69,39.20,205416
2-Jul-15,39.67,39.71,38.79,39.51,149549
1-Jul-15,40.29,40.72,39.27,39.54,304806
30-Jun-15,38.72,40.08,38.56,39.62,365719
29-Jun-15,39.73,40.29,38.21,38.30,296655
26-Jun-15,40.70,40.90,40.05,40.42,323144
25-Jun-15,40.97,41.70,40.64,40.86,280468
24-Jun-15,42.20,42.60,39.74,40.84,405429
23-Jun-15,42.95,43.00,42.25,42.56,269844
22-Jun-15,43.21,43.22,42.49,42.71,346991
19-Jun-15,42.88,42.93,42.42,42.74,402684
18-Jun-15,42.60,43.00,42.43,42.67,431240
17-Jun-15,42.48,42.55,42.01,42.39,323569
16-Jun-15,41.24,42.32,40.82,42.00,377780
15-Jun-15,41.70,41.86,39.72,41.20,537728
12-Jun-15,40.71,42.22,40.54,42.14,341117
11-Jun-15,40.98,41.29,40.64,40.88,325368
10-Jun-15,39.79,40.94,39.70,40.85,338569
9-Jun-15,39.72,39.78,38.36,39.50,249327
8-Jun-15,40.29,40.60,39.04,39.61,425687
5-Jun-15,39.46,40.95,38.37,40.82,371031
4-Jun-15,40.63,41.34,39.22,39.46,370960
3-Jun-15,40.43,41.49,40.26,40.77,558968
2-Jun-15,39.75,40.45,39.33,40.08,389635
1-Jun-15,39.39,39.76,38.76,39.40,338947
29-May-15,39.01,39.50,38.73,39.34,419355
28-May-15,38.56,39.22,38.32,39.05,343325
27-May-15,38.52,39.19,38.23,38.58,322032
26-May-15,38.50,38.72,37.76,38.55,334104
22-May-15,38.31,39.14,38.31,38.88,319912
21-May-15,38.96,39.50,38.47,38.74,407559
20-May-15,37.83,38.99,37.48,38.92,626279
19-May-15,37.16,37.63,36.77,37.61,610448
18-May-15,36.79,37.25,35.25,36.88,1379812
15-May-15,39.00,39.10,37.49,37.51,458191
14-May-15,38.96,39.54,38.82,39.16,338175
13-May-15,38.89,39.46,38.41,39.45,421683
12-May-15,38.59,38.89,37.50,38.70,266362
11-May-15,39.23,39.35,38.43,38.62,478444
8-May-15,39.88,40.55,39.04,39.20,529788
7-May-15,39.70,40.26,38.95,39.02,391237
6-May-15,40.24,40.24,39.00,39.48,330810
5-May-15,41.25,41.49,39.24,39.75,502752
4-May-15,41.16,41.90,40.48,41.73,508172
1-May-15,41.12,41.87,40.56,40.71,625688
30-Apr-15,41.90,42.98,39.78,40.53,762161
29-Apr-15,42.94,43.97,42.66,43.60,608799
28-Apr-15,42.66,45.34,41.10,42.85,1201508
27-Apr-15,46.13,46.38,43.14,43.43,939568
24-Apr-15,45.95,46.57,44.90,46.12,682963
23-Apr-15,45.56,46.78,45.20,45.88,403214
22-Apr-15,46.00,46.20,45.02,45.71,435446
21-Apr-15,44.47,46.34,44.33,45.79,738728
20-Apr-15,43.82,44.36,43.14,43.85,412184
17-Apr-15,43.42,43.69,41.89,43.46,370913
16-Apr-15,43.92,44.53,43.36,44.00,280091
15-Apr-15,43.17,44.25,42.96,44.00,256746
14-Apr-15,43.95,45.46,42.92,43.20,724017
13-Apr-15,45.22,45.81,42.13,44.04,1303244
10-Apr-15,44.08,45.33,43.83,45.08,633606
9-Apr-15,43.00,44.40,41.50,44.04,879345
8-Apr-15,40.80,42.96,40.50,42.92,867829
7-Apr-15,39.67,42.21,39.14,40.63,871296
6-Apr-15,38.81,39.98,38.39,39.50,251166
2-Apr-15,38.63,39.50,38.28,39.16,216364
1-Apr-15,38.07,38.85,37.51,38.62,295963
31-Mar-15,39.16,39.41,38.03,38.47,157795
30-Mar-15,38.67,40.18,38.00,39.53,291114
27-Mar-15,37.32,38.67,37.05,38.26,189750
26-Mar-15,37.07,37.49,36.15,37.33,157455
25-Mar-15,39.08,39.41,37.25,37.27,466115
24-Mar-15,40.50,40.52,38.61,38.97,350328
23-Mar-15,38.46,40.51,37.69,40.39,368633
20-Mar-15,40.00,40.00,38.00,38.33,626649
19-Mar-15,38.36,40.00,38.20,39.97,404655
18-Mar-15,38.19,38.92,37.80,38.30,127478
17-Mar-15,37.43,38.57,36.80,38.52,247299
16-Mar-15,37.10,37.72,36.47,37.49,251427
13-Mar-15,37.98,38.54,36.64,36.79,230049
12-Mar-15,38.04,38.53,37.62,37.91,140975
11-Mar-15,38.71,38.71,37.53,37.73,184474
10-Mar-15,38.85,39.19,38.28,38.57,262027
9-Mar-15,38.56,39.30,37.60,39.28,292750
6-Mar-15,39.00,39.22,37.17,38.45,485104
5-Mar-15,37.64,38.66,36.67,38.61,175673
4-Mar-15,37.61,37.85,36.60,37.62,314783
3-Mar-15,38.34,38.35,37.30,37.79,177904
2-Mar-15,37.96,38.35,37.27,38.35,292857
27-Feb-15,38.33,38.88,37.61,38.09,268810
26-Feb-15,38.04,40.07,38.03,38.56,354530
25-Feb-15,38.44,38.50,37.16,38.18,339049
24-Feb-15,39.00,39.18,37.83,38.57,522388
23-Feb-15,39.00,39.72,38.45,39.13,378291
20-Feb-15,37.54,39.18,37.54,39.06,295843
19-Feb-15,36.84,37.66,36.36,37.61,289727
18-Feb-15,36.65,37.13,36.28,37.03,296746
17-Feb-15,35.77,36.71,35.26,36.65,492989
13-Feb-15,36.80,36.90,34.64,35.68,921537
12-Feb-15,36.75,37.49,36.20,36.82,288188
11-Feb-15,35.07,36.70,34.92,36.60,474976
10-Feb-15,33.50,35.28,33.25,35.20,370905
9-Feb-15,33.70,33.74,33.05,33.32,167356
6-Feb-15,34.75,34.90,33.87,33.89,228176
5-Feb-15,33.19,34.89,32.03,34.71,1010858
4-Feb-15,33.30,34.36,33.03,33.13,221217
3-Feb-15,33.63,33.92,32.00,33.48,368425
2-Feb-15,33.92,33.98,32.41,33.63,293686
30-Jan-15,34.70,35.24,33.76,33.86,154260
29-Jan-15,35.44,35.70,34.66,34.96,529488
28-Jan-15,36.26,36.68,35.27,35.44,136752
27-Jan-15,35.10,36.16,34.71,35.86,176748
26-Jan-15,35.18,35.80,35.00,35.76,139522
23-Jan-15,35.32,35.49,34.59,35.00,122831
22-Jan-15,34.47,35.46,33.52,35.29,140013
21-Jan-15,35.07,35.66,34.01,34.10,172951
20-Jan-15,35.59,35.86,35.05,35.29,229734
16-Jan-15,33.66,35.84,33.61,35.51,316615
15-Jan-15,36.86,37.06,33.59,33.73,746998
14-Jan-15,37.30,38.16,36.26,36.83,275917
13-Jan-15,39.65,40.00,37.21,38.05,607266
12-Jan-15,38.00,40.71,37.90,40.21,510106
9-Jan-15,40.29,40.30,36.02,38.02,1197579
8-Jan-15,39.26,40.28,38.53,40.15,878600
7-Jan-15,37.78,39.09,37.70,38.92,485410
6-Jan-15,36.69,37.08,35.80,36.86,335523
5-Jan-15,34.79,37.00,34.50,36.51,345706
2-Jan-15,36.05,36.18,34.35,34.98,153265
31-Dec-14,35.83,36.57,35.70,35.84,79741
30-Dec-14,36.54,36.94,35.01,35.87,183388
29-Dec-14,37.92,37.98,36.31,36.71,144229
26-Dec-14,38.00,38.11,37.77,37.80,64882
24-Dec-14,37.83,38.23,37.55,37.96,72718
23-Dec-14,38.12,38.20,37.35,37.67,127294
22-Dec-14,37.54,38.03,36.90,38.01,235200
19-Dec-14,37.40,37.45,36.44,37.38,349442
18-Dec-14,36.91,37.72,36.52,37.28,252730
17-Dec-14,36.55,36.87,35.93,36.80,142574
16-Dec-14,36.32,36.94,35.79,35.83,119806
15-Dec-14,35.74,37.09,35.50,36.65,220034
12-Dec-14,36.40,37.12,36.22,36.50,96464
11-Dec-14,36.36,37.00,36.30,36.84,191377
10-Dec-14,36.26,37.50,36.14,36.26,375836
9-Dec-14,35.01,36.17,34.98,36.05,194052
8-Dec-14,35.05,35.81,34.77,35.51,157720
5-Dec-14,34.75,35.07,34.49,35.06,183028
4-Dec-14,34.88,35.21,34.55,34.79,79047
3-Dec-14,34.88,35.07,34.50,34.97,100374
2-Dec-14,34.43,34.77,34.00,34.61,135348
1-Dec-14,35.65,35.65,34.11,34.21,220616
28-Nov-14,36.00,36.72,35.51,35.93,137724
26-Nov-14,35.94,36.09,35.41,35.85,141792
25-Nov-14,35.05,36.37,34.72,35.80,321609
24-Nov-14,35.49,35.96,34.50,34.88,214079
21-Nov-14,36.09,36.09,34.95,35.28,273115
20-Nov-14,35.27,36.08,34.75,35.51,193814
19-Nov-14,35.78,36.01,35.08,35.49,178038
18-Nov-14,35.21,36.19,35.05,36.02,251686
17-Nov-14,35.09,35.45,34.75,35.30,312537
14-Nov-14,34.19,35.46,34.05,35.34,358825
13-Nov-14,34.33,34.95,33.88,34.36,212653
12-Nov-14,34.48,34.52,33.41,34.50,191772
11-Nov-14,33.63,35.00,33.15,34.67,1001623
10-Nov-14,32.14,33.50,31.80,33.15,320035
7-Nov-14,31.82,32.14,31.42,32.02,192442
6-Nov-14,31.24,32.51,31.09,32.00,217910
5-Nov-14,31.74,32.25,30.85,31.32,304552
4-Nov-14,31.69,32.23,31.09,31.66,525032
3-Nov-14,32.05,32.75,30.77,31.90,483819
31-Oct-14,30.60,32.39,30.21,32.15,689055
30-Oct-14,29.85,30.50,28.95,30.16,293326
29-Oct-14,28.65,30.30,28.59,29.95,647126
28-Oct-14,28.58,29.57,28.26,29.49,211326
27-Oct-14,28.47,28.86,28.21,28.48,116723
24-Oct-14,28.86,29.00,28.50,28.60,127607
23-Oct-14,29.54,29.80,28.61,28.94,260663
22-Oct-14,29.90,30.45,29.29,29.42,302487
21-Oct-14,30.06,30.20,29.79,29.99,329676
20-Oct-14,29.43,30.22,29.43,29.98,286059
17-Oct-14,30.00,30.07,28.81,29.29,310207
16-Oct-14,29.35,30.25,29.06,29.73,288644
15-Oct-14,29.00,30.12,28.00,29.99,567044
14-Oct-14,28.76,29.50,27.54,29.39,464345
13-Oct-14,26.30,28.95,25.93,28.61,460140
10-Oct-14,27.41,27.49,25.56,26.23,427114
9-Oct-14,27.75,27.75,26.23,26.64,440867
8-Oct-14,27.24,27.84,26.05,27.77,215046
7-Oct-14,28.71,28.75,27.05,27.13,202017
6-Oct-14,27.00,28.85,26.92,28.82,352417
3-Oct-14,25.63,27.20,25.33,26.92,282566
2-Oct-14,25.08,25.57,24.44,25.36,92333
1-Oct-14,25.69,25.69,24.31,24.76,174349
30-Sep-14,25.48,25.84,25.16,25.65,176469
29-Sep-14,24.66,25.43,24.59,25.39,70258
26-Sep-14,24.48,25.27,24.48,25.10,54724
25-Sep-14,25.38,25.38,24.24,24.46,74461
24-Sep-14,24.59,25.46,24.59,25.38,74857
23-Sep-14,24.37,25.12,24.37,24.66,93158
22-Sep-14,25.50,25.63,24.32,24.54,213778
19-Sep-14,26.45,26.80,25.56,25.69,206439
18-Sep-14,26.20,26.65,26.19,26.41,82927
17-Sep-14,26.23,26.72,25.75,26.01,107927
16-Sep-14,26.50,26.86,25.86,26.65,81490
15-Sep-14,28.34,28.40,26.28,26.59,166597
12-Sep-14,28.93,28.93,28.25,28.47,156387
11-Sep-14,28.82,29.20,28.56,28.90,301894
10-Sep-14,28.97,29.17,28.08,28.87,317586
9-Sep-14,27.42,28.85,27.15,28.75,394484
8-Sep-14,26.26,27.31,26.06,27.29,409216
5-Sep-14,26.02,26.29,25.32,26.23,315820
4-Sep-14,26.33,26.67,26.00,26.17,233428
3-Sep-14,25.42,26.58,25.27,26.06,482682
2-Sep-14,25.07,25.76,24.77,25.18,214117
29-Aug-14,24.04,25.85,23.95,24.85,210982
28-Aug-14,24.45,24.60,23.95,24.07,124194
27-Aug-14,24.98,25.23,24.25,24.51,103178
26-Aug-14,24.82,25.03,24.47,24.92,89548
25-Aug-14,25.26,25.75,24.80,24.83,81521
22-Aug-14,25.07,25.18,24.55,25.00,130696
21-Aug-14,26.30,26.30,24.90,24.95,290254
20-Aug-14,26.63,26.63,25.92,26.23,90972
19-Aug-14,26.75,27.09,26.22,26.67,90802
18-Aug-14,26.68,27.00,26.48,26.73,107952
15-Aug-14,26.88,27.10,26.25,26.57,108518
14-Aug-14,27.38,27.71,26.73,26.82,157610
13-Aug-14,28.00,28.29,27.30,27.46,122688
12-Aug-14,27.64,27.99,27.52,27.84,69953
11-Aug-14,27.42,28.48,27.07,27.92,111509
8-Aug-14,27.14,27.64,27.01,27.22,110467
7-Aug-14,28.04,28.42,27.02,27.23,133432
6-Aug-14,27.77,28.32,27.41,28.14,214938
5-Aug-14,28.44,28.95,27.91,28.12,148769
4-Aug-14,28.05,28.91,27.50,28.71,126727
1-Aug-14,27.69,28.21,27.13,27.99,185578
31-Jul-14,28.88,28.91,27.36,27.77,117855
30-Jul-14,29.00,29.34,28.87,29.17,94563
29-Jul-14,29.24,29.35,28.72,28.92,66823
28-Jul-14,29.00,29.39,28.61,29.22,135762
25-Jul-14,28.43,29.19,27.61,28.93,216008
24-Jul-14,30.04,30.04,28.00,28.43,431593
23-Jul-14,31.37,31.37,29.86,30.37,188894
22-Jul-14,31.69,31.93,30.94,31.26,247365
21-Jul-14,30.75,31.68,30.72,31.48,191799
18-Jul-14,30.59,31.24,29.44,30.90,358983
17-Jul-14,32.22,32.46,30.66,30.72,199906
16-Jul-14,32.30,32.71,31.55,32.32,209078
15-Jul-14,33.40,33.60,32.00,32.28,302541
14-Jul-14,34.08,34.90,33.78,34.56,298449
11-Jul-14,34.61,35.15,32.53,33.87,746470
10-Jul-14,32.43,34.60,32.27,34.00,434435
9-Jul-14,33.19,33.54,32.71,33.34,122939
8-Jul-14,32.27,33.00,31.73,32.92,123935
7-Jul-14,33.77,33.80,32.16,32.53,143686
3-Jul-14,33.33,33.98,32.45,33.97,85157
2-Jul-14,31.49,33.17,31.20,33.09,301714
1-Jul-14,31.42,31.42,30.40,31.05,145078
30-Jun-14,31.37,31.80,30.84,31.02,108080
27-Jun-14,31.20,31.98,31.00,31.50,382082
26-Jun-14,31.38,31.62,31.08,31.61,59228
25-Jun-14,30.06,31.50,30.06,31.49,96843
24-Jun-14,30.12,30.63,30.05,30.56,137207
23-Jun-14,30.43,30.50,30.13,30.35,185422
20-Jun-14,29.95,30.64,29.31,30.30,486191
19-Jun-14,29.99,30.00,29.53,29.75,97672
18-Jun-14,28.63,29.48,28.49,29.46,112166
17-Jun-14,29.12,29.48,28.38,28.47,125901
16-Jun-14,29.04,29.75,28.99,29.32,86934
13-Jun-14,29.42,29.50,28.95,29.39,46147
12-Jun-14,29.50,29.92,28.91,29.50,93218
11-Jun-14,29.16,29.70,28.82,29.66,148956
10-Jun-14,28.77,29.48,28.54,29.35,83425
9-Jun-14,28.18,28.93,27.95,28.84,116127
6-Jun-14,27.89,28.52,27.43,28.08,74788
5-Jun-14,27.66,28.18,27.02,27.50,140159
4-Jun-14,27.61,27.92,27.35,27.72,107958
3-Jun-14,27.58,27.95,26.91,27.86,102598
2-Jun-14,29.13,29.34,27.66,27.82,140981
30-May-14,30.95,30.95,28.40,29.49,274971
29-May-14,30.52,31.89,30.52,31.51,117233
28-May-14,30.28,30.95,30.28,30.37,82451
27-May-14,29.55,30.74,29.55,30.15,179839
23-May-14,28.50,29.17,28.47,29.13,82057
22-May-14,28.41,28.81,27.57,28.70,110675
21-May-14,28.52,28.77,27.92,28.25,95532
20-May-14,27.89,28.89,27.71,28.68,92751
19-May-14,27.60,28.21,27.00,28.13,126738
16-May-14,27.26,27.40,26.64,27.33,85071
15-May-14,26.80,27.39,26.15,27.33,107681
14-May-14,25.66,26.90,25.18,26.77,150362
13-May-14,25.00,25.55,24.38,25.40,110943
12-May-14,24.95,25.78,24.50,25.11,117757
9-May-14,24.34,25.44,23.99,24.53,128714
8-May-14,24.25,25.38,24.04,24.82,212328
7-May-14,25.24,25.80,23.53,24.54,278322
6-May-14,25.90,25.98,24.87,25.53,230044
5-May-14,25.10,26.52,25.03,26.07,340085
2-May-14,27.78,28.36,25.33,25.50,232576
1-May-14,26.30,28.75,26.30,27.61,501941
30-Apr-14,25.88,26.15,24.61,25.83,153742
29-Apr-14,25.63,26.21,25.20,25.33,112557
28-Apr-14,28.06,28.50,24.32,25.64,530623
25-Apr-14,29.81,31.00,27.02,27.71,893392
24-Apr-14,28.00,28.26,26.85,27.69,248099
23-Apr-14,27.99,28.00,26.83,27.89,91754
22-Apr-14,26.97,28.48,26.75,27.81,128603
21-Apr-14,27.13,27.51,25.60,26.91,129594
17-Apr-14,27.74,27.74,26.86,27.07,159423
16-Apr-14,28.00,28.05,27.15,27.86,83518
15-Apr-14,28.26,28.50,26.25,27.13,143720
14-Apr-14,28.80,29.73,27.58,27.76,113307
11-Apr-14,30.38,30.98,27.01,27.79,183592
10-Apr-14,31.00,31.25,29.66,30.44,126093
9-Apr-14,32.56,33.64,31.17,31.76,92224
8-Apr-14,29.31,34.10,29.31,32.37,233304
7-Apr-14,30.33,30.45,28.00,29.07,223530
4-Apr-14,34.47,35.00,30.55,30.75,152546
3-Apr-14,33.88,34.20,32.89,33.02,56220
2-Apr-14,35.59,35.59,33.60,34.05,56663
1-Apr-14,34.50,35.01,33.37,35.01,61184
31-Mar-14,32.10,34.18,32.10,33.94,92302
28-Mar-14,32.37,33.65,32.29,32.88,61558
27-Mar-14,32.00,32.62,31.42,32.34,50302
26-Mar-14,34.06,34.62,32.05,32.25,141113
25-Mar-14,35.56,35.79,33.05,34.00,119430
24-Mar-14,35.54,35.54,32.13,35.24,150768
21-Mar-14,35.51,36.00,34.85,35.13,80659
20-Mar-14,35.69,35.80,35.00,35.31,72174
19-Mar-14,36.19,36.39,35.00,35.83,90326
18-Mar-14,34.36,36.46,34.01,36.11,98294
17-Mar-14,35.09,35.60,34.01,34.20,119807
14-Mar-14,35.50,35.50,33.10,34.69,266758
13-Mar-14,36.31,36.94,35.41,35.91,113886
12-Mar-14,35.25,37.01,35.22,36.29,124830
11-Mar-14,38.30,39.28,35.70,36.23,260515
10-Mar-14,41.90,42.00,37.71,38.14,297615
7-Mar-14,42.08,43.00,41.00,41.84,207520
6-Mar-14,39.13,44.40,39.13,41.09,665672
5-Mar-14,35.09,38.95,35.00,38.48,223196
4-Mar-14,35.91,36.21,34.89,35.21,124208
3-Mar-14,35.52,36.01,34.00,34.71,97630
28-Feb-14,37.85,38.10,34.32,35.95,162309
27-Feb-14,38.39,38.39,37.37,37.51,82177
26-Feb-14,35.76,39.41,35.54,38.01,300414
25-Feb-14,37.07,37.14,35.00,35.62,110500
24-Feb-14,36.60,37.37,35.75,36.88,188703
21-Feb-14,34.15,36.93,33.63,35.51,224687
20-Feb-14,32.89,34.24,32.50,33.76,65879
19-Feb-14,34.25,34.53,32.56,32.98,62030
18-Feb-14,33.51,34.48,33.36,34.26,59979
14-Feb-14,33.89,34.87,33.01,33.23,75987
13-Feb-14,32.30,33.95,32.01,33.78,76975
12-Feb-14,32.00,33.30,32.00,32.56,65553
11-Feb-14,33.58,33.58,31.40,33.00,110821
10-Feb-14,32.28,35.05,31.26,33.35,130426
7-Feb-14,30.70,32.20,30.00,32.20,160550
6-Feb-14,30.86,31.00,30.00,30.62,84735
5-Feb-14,31.20,31.78,29.76,30.80,156054
4-Feb-14,32.44,33.07,31.45,31.59,187985
3-Feb-14,34.40,34.56,31.60,32.42,174521
31-Jan-14,35.01,35.66,34.16,34.31,90502
30-Jan-14,33.50,35.85,33.44,35.34,180092
29-Jan-14,32.30,34.64,32.21,33.27,143264
28-Jan-14,33.02,33.75,32.38,33.35,77678
27-Jan-14,33.35,33.53,31.18,32.96,198989
24-Jan-14,34.85,34.85,33.20,33.60,132733
23-Jan-14,35.75,35.99,33.80,34.84,127819
22-Jan-14,35.25,36.26,34.51,35.68,113448
21-Jan-14,36.82,36.82,33.55,35.21,199655
17-Jan-14,37.84,39.44,35.03,35.78,369167
16-Jan-14,34.54,37.90,34.44,36.92,265097
15-Jan-14,35.33,35.33,34.00,34.59,163814
14-Jan-14,34.69,35.82,33.53,34.15,225650
13-Jan-14,37.31,37.54,33.33,34.08,317727
10-Jan-14,34.61,37.56,32.55,36.47,651380
9-Jan-14,38.24,39.00,36.11,39.00,411196
8-Jan-14,39.75,40.30,37.74,37.75,248733
7-Jan-14,38.42,39.72,37.74,39.53,155135
6-Jan-14,39.00,39.49,37.50,38.08,401017
3-Jan-14,38.69,38.69,37.71,37.85,256362
2-Jan-14,39.60,41.30,36.66,37.17,554966
31-Dec-13,36.60,39.75,36.50,39.68,476710
30-Dec-13,35.83,39.40,35.00,35.97,644612
27-Dec-13,29.74,35.95,28.33,35.49,927623
26-Dec-13,29.35,29.72,29.00,29.49,107916
24-Dec-13,30.00,30.50,28.17,28.49,139876
23-Dec-13,25.75,30.00,25.75,29.96,391661
20-Dec-13,25.50,26.29,25.05,25.58,450156
19-Dec-13,26.11,26.50,25.21,25.50,83142
18-Dec-13,25.75,26.46,25.00,25.17,136720
17-Dec-13,24.85,25.90,24.02,25.83,165419
16-Dec-13,24.55,24.75,23.74,24.67,104374
13-Dec-13,24.10,24.10,23.19,23.50,87365
12-Dec-13,23.20,24.25,22.68,24.18,148827
11-Dec-13,24.35,24.45,22.32,23.05,177302
10-Dec-13,25.30,25.40,23.62,23.74,178018
9-Dec-13,23.25,25.54,23.00,25.30,395675
6-Dec-13,22.50,23.35,22.50,23.02,102727
5-Dec-13,23.50,23.50,22.53,22.75,98077
4-Dec-13,21.67,23.00,21.51,22.70,124749
3-Dec-13,23.15,23.40,21.25,21.84,307249
2-Dec-13,21.50,23.19,20.87,23.00,513301
29-Nov-13,20.60,20.75,20.18,20.70,23231
27-Nov-13,19.70,20.49,19.57,20.40,50567
26-Nov-13,19.89,20.25,19.55,19.65,57207
25-Nov-13,20.32,20.51,19.83,20.15,55276
22-Nov-13,20.49,20.60,19.88,20.59,81343
21-Nov-13,19.40,20.13,18.85,19.99,193673
20-Nov-13,20.10,20.15,18.63,19.20,377632
19-Nov-13,21.07,21.36,20.05,20.40,87961
18-Nov-13,21.01,21.49,20.37,21.11,220304
15-Nov-13,22.08,22.08,20.92,21.00,96457
14-Nov-13,21.93,21.97,21.41,21.73,105948
13-Nov-13,20.85,22.00,20.83,21.93,142805
12-Nov-13,22.06,22.35,20.59,20.75,141795
11-Nov-13,21.45,22.37,21.00,21.70,220290
8-Nov-13,20.45,21.29,20.02,21.23,433278
7-Nov-13,21.70,21.70,18.84,20.04,869840
6-Nov-13,22.20,23.80,20.78,21.55,6955483
