﻿Date,Open,High,Low,Close,Volume
20-Jun-17,29.68,30.39,29.50,29.64,271349
19-Jun-17,28.95,29.90,28.72,29.69,237370
16-Jun-17,29.01,29.68,28.71,28.75,686051
15-Jun-17,28.70,29.70,28.63,29.24,518532
14-Jun-17,28.08,28.94,27.90,28.86,403589
13-Jun-17,28.21,28.54,27.63,28.01,313004
12-Jun-17,27.60,28.22,27.06,28.15,431203
9-Jun-17,27.52,27.90,27.17,27.57,317442
8-Jun-17,27.28,27.71,26.95,27.65,599924
7-Jun-17,26.90,27.64,26.89,27.33,346291
6-Jun-17,27.22,27.69,26.65,26.93,608043
5-Jun-17,27.75,27.79,26.66,27.26,381968
2-Jun-17,27.44,28.13,27.41,27.88,242143
1-Jun-17,27.50,27.92,26.80,27.33,387274
31-May-17,27.51,27.76,26.91,27.42,652840
30-May-17,27.31,27.95,26.90,27.47,566686
26-May-17,27.87,28.20,27.25,27.36,471594
25-May-17,27.44,27.91,27.10,27.85,348837
24-May-17,27.86,28.25,27.25,27.52,318093
23-May-17,27.85,28.06,27.16,27.88,673376
22-May-17,28.10,28.20,27.53,27.82,419218
19-May-17,27.90,28.42,27.75,28.01,279478
18-May-17,27.48,28.01,27.23,27.93,760491
17-May-17,28.02,28.36,27.24,27.41,746181
16-May-17,27.34,28.89,27.34,28.44,1174706
15-May-17,26.88,27.30,26.64,27.22,667053
12-May-17,26.40,26.96,26.09,26.92,1365569
11-May-17,26.90,26.90,25.82,26.41,2046782
10-May-17,29.13,29.14,25.63,27.27,4894975
9-May-17,32.44,32.97,31.29,32.16,120832
8-May-17,31.92,31.93,31.22,31.74,145110
5-May-17,32.18,32.18,31.39,31.96,187474
4-May-17,32.63,32.82,31.34,32.22,217934
3-May-17,33.00,33.44,32.14,32.47,111161
2-May-17,33.64,33.75,32.89,33.21,104848
1-May-17,34.06,34.45,33.36,33.65,108670
28-Apr-17,34.20,34.45,33.11,34.06,231123
27-Apr-17,33.31,34.22,32.99,33.84,156431
26-Apr-17,33.29,33.63,32.96,33.36,119837
25-Apr-17,33.01,33.50,32.55,33.29,106270
24-Apr-17,33.07,33.07,32.39,32.82,130308
21-Apr-17,33.33,33.42,32.12,32.54,221622
20-Apr-17,33.65,33.65,33.07,33.46,88059
19-Apr-17,33.63,33.89,33.23,33.45,170861
18-Apr-17,33.96,33.96,33.03,33.47,107361
17-Apr-17,34.16,34.22,33.80,34.07,86109
13-Apr-17,33.69,35.76,33.31,34.17,156893
12-Apr-17,33.52,33.97,33.08,33.74,183756
11-Apr-17,33.52,33.71,32.96,33.57,101330
10-Apr-17,33.99,34.40,33.56,33.62,162385
7-Apr-17,33.90,33.96,33.20,33.86,267059
6-Apr-17,34.26,34.57,33.37,33.99,270752
5-Apr-17,33.78,34.46,33.30,34.14,249082
4-Apr-17,33.97,34.55,33.43,33.71,347898
3-Apr-17,34.03,34.20,32.88,34.02,332253
31-Mar-17,34.95,34.95,33.81,34.11,690456
30-Mar-17,35.19,35.22,33.89,34.59,302092
29-Mar-17,35.36,35.66,34.86,35.11,208852
28-Mar-17,35.71,36.21,34.80,35.21,249414
27-Mar-17,34.43,36.17,34.17,35.91,290873
24-Mar-17,34.54,35.07,34.20,34.75,260766
23-Mar-17,34.11,35.17,34.02,34.38,246692
22-Mar-17,33.80,34.44,33.40,34.16,173561
21-Mar-17,35.46,35.46,33.64,33.69,281230
20-Mar-17,34.10,35.63,33.22,35.45,223618
17-Mar-17,34.21,34.43,32.79,34.14,481059
16-Mar-17,35.48,35.68,33.35,34.51,644539
15-Mar-17,35.30,36.38,35.13,36.16,169450
14-Mar-17,35.59,35.70,34.90,35.22,117670
13-Mar-17,35.39,36.42,35.11,35.78,242789
10-Mar-17,36.32,36.51,34.13,35.51,449910
9-Mar-17,36.91,37.38,35.66,36.12,313721
8-Mar-17,36.50,38.03,36.31,37.36,331675
7-Mar-17,37.82,37.99,36.39,36.47,279212
6-Mar-17,37.13,38.39,36.64,38.03,633566
3-Mar-17,35.51,38.75,34.87,37.59,1253285
2-Mar-17,34.39,36.04,34.05,35.43,3157707
1-Mar-17,34.28,36.68,32.07,34.32,682880
28-Feb-17,34.13,34.34,33.50,33.69,152855
27-Feb-17,33.11,34.38,33.05,34.18,367563
24-Feb-17,33.05,33.54,32.86,33.20,80633
23-Feb-17,33.74,33.74,32.73,33.32,116961
22-Feb-17,33.53,33.69,33.28,33.58,163167
21-Feb-17,33.94,33.99,33.40,33.61,267176
17-Feb-17,33.08,34.00,32.62,33.84,216975
16-Feb-17,32.07,33.55,29.88,33.24,369723
15-Feb-17,30.04,32.16,29.64,32.12,390930
14-Feb-17,29.51,30.26,29.32,30.21,242924
13-Feb-17,29.31,29.94,29.31,29.59,176421
10-Feb-17,29.05,29.40,28.87,29.29,163476
9-Feb-17,28.57,29.50,28.57,29.01,166360
8-Feb-17,28.40,28.90,28.15,28.55,224020
7-Feb-17,29.22,29.22,28.50,28.61,79485
6-Feb-17,29.08,29.50,28.78,29.19,63921
3-Feb-17,29.00,29.50,28.70,29.32,107937
2-Feb-17,29.11,29.50,28.88,28.91,120432
1-Feb-17,29.47,30.14,28.95,29.33,198460
31-Jan-17,27.76,30.28,27.32,29.44,232382
30-Jan-17,28.08,28.08,27.36,28.00,188817
27-Jan-17,28.00,28.50,27.87,28.18,282161
26-Jan-17,28.27,28.53,27.79,27.98,101666
25-Jan-17,28.72,28.72,27.76,28.28,190242
24-Jan-17,28.41,28.55,27.80,28.41,219700
23-Jan-17,28.33,28.59,27.99,28.37,345830
20-Jan-17,29.18,29.20,28.13,28.29,296070
19-Jan-17,30.01,30.74,28.83,29.18,381316
18-Jan-17,28.64,29.44,28.44,29.20,306943
17-Jan-17,30.14,30.25,28.18,28.44,497146
13-Jan-17,29.48,31.11,29.48,30.39,381559
12-Jan-17,29.51,29.72,28.81,29.49,349399
11-Jan-17,31.30,31.54,29.21,29.73,403499
10-Jan-17,32.00,32.22,31.12,31.31,187044
9-Jan-17,31.92,32.28,31.24,31.87,152663
6-Jan-17,32.01,33.78,31.66,31.71,176296
5-Jan-17,32.54,33.15,31.23,31.95,350346
4-Jan-17,30.82,32.61,30.74,32.60,256394
3-Jan-17,30.61,30.82,29.84,30.70,213072
30-Dec-16,29.87,30.44,29.54,30.33,141560
29-Dec-16,29.68,29.99,29.43,29.83,88667
28-Dec-16,29.91,30.28,29.50,29.62,110509
27-Dec-16,30.68,31.17,29.81,29.82,204382
23-Dec-16,29.91,30.75,29.91,30.57,101133
22-Dec-16,30.74,30.74,29.78,29.94,163321
21-Dec-16,31.60,32.10,30.73,30.74,216694
20-Dec-16,31.85,32.10,31.45,31.66,180684
19-Dec-16,31.63,32.42,31.40,31.71,336297
16-Dec-16,30.75,32.24,30.70,31.40,765619
15-Dec-16,30.60,31.16,30.34,30.51,308106
14-Dec-16,31.03,31.99,30.02,30.36,330718
13-Dec-16,30.89,31.23,30.68,31.02,337248
12-Dec-16,30.49,30.84,30.07,30.68,120359
9-Dec-16,30.14,31.00,30.14,30.72,127628
8-Dec-16,29.85,30.51,28.87,29.88,228697
7-Dec-16,31.03,31.49,29.51,29.86,432548
6-Dec-16,31.21,31.58,30.55,31.41,151400
5-Dec-16,31.05,31.91,30.88,31.13,148524
2-Dec-16,30.11,31.35,30.00,30.98,101891
1-Dec-16,32.00,32.00,29.84,30.28,367407
30-Nov-16,32.79,32.80,31.63,31.98,165141
29-Nov-16,32.78,33.00,32.20,32.57,86967
28-Nov-16,33.71,33.84,32.57,32.72,105580
25-Nov-16,33.85,33.92,33.16,33.81,74159
23-Nov-16,32.48,33.73,32.04,33.64,64869
22-Nov-16,33.99,33.99,32.70,32.98,116077
21-Nov-16,33.56,33.96,33.08,33.86,96792
18-Nov-16,34.13,34.52,33.37,33.60,100020
17-Nov-16,34.30,34.72,33.71,33.99,96936
16-Nov-16,33.39,35.25,33.15,34.16,162353
15-Nov-16,35.20,35.20,33.24,33.80,385270
14-Nov-16,35.49,35.61,34.68,35.26,417896
11-Nov-16,35.64,35.64,34.09,35.15,594116
10-Nov-16,34.65,36.34,34.56,35.72,815926
9-Nov-16,32.30,35.53,32.30,33.85,948421
8-Nov-16,29.69,30.93,27.92,30.57,262800
7-Nov-16,29.10,29.72,28.93,29.62,140910
4-Nov-16,28.74,29.39,28.59,28.67,204490
3-Nov-16,30.57,30.69,28.06,28.59,378429
2-Nov-16,31.23,31.30,30.37,30.39,144828
1-Nov-16,31.51,31.64,30.63,31.31,133465
31-Oct-16,31.57,31.83,31.27,31.35,85969
28-Oct-16,31.95,31.95,31.08,31.60,153653
27-Oct-16,32.25,32.47,31.92,32.08,116838
26-Oct-16,32.61,33.24,31.64,31.90,110677
25-Oct-16,33.05,33.16,32.40,32.60,84874
24-Oct-16,33.71,33.92,32.33,33.06,72795
21-Oct-16,33.70,34.24,32.50,33.55,155633
20-Oct-16,32.90,34.34,32.80,33.92,146182
19-Oct-16,33.13,33.43,32.13,32.86,136973
18-Oct-16,32.84,33.21,32.38,32.99,88884
17-Oct-16,32.55,32.89,31.94,32.41,136847
14-Oct-16,33.47,34.09,32.41,32.62,118995
13-Oct-16,32.87,33.80,32.76,33.36,87303
12-Oct-16,34.18,34.24,33.13,33.21,105161
11-Oct-16,35.08,35.37,33.90,34.21,130452
10-Oct-16,35.09,35.47,34.82,35.36,97654
7-Oct-16,34.92,35.62,34.57,34.76,129375
6-Oct-16,34.82,35.42,34.28,34.93,203352
5-Oct-16,34.95,35.48,34.84,35.04,154866
4-Oct-16,34.97,35.03,34.28,34.77,119867
3-Oct-16,34.25,35.18,33.35,35.03,356260
30-Sep-16,32.83,34.20,32.06,33.82,198541
29-Sep-16,34.00,34.00,32.64,32.67,150360
28-Sep-16,34.24,34.60,33.63,34.07,82059
27-Sep-16,33.83,34.26,33.64,34.24,124011
26-Sep-16,33.76,34.72,33.21,33.92,211228
23-Sep-16,34.40,34.61,33.87,34.08,181379
22-Sep-16,34.81,35.26,34.16,34.55,185942
21-Sep-16,35.98,36.01,34.37,34.47,274154
20-Sep-16,35.34,36.16,34.38,35.57,441707
19-Sep-16,34.79,35.31,34.42,35.03,267925
16-Sep-16,33.59,34.91,32.65,34.71,592875
15-Sep-16,32.68,33.85,31.67,33.60,139684
14-Sep-16,31.95,33.58,31.35,32.60,308874
13-Sep-16,32.72,32.74,31.28,31.80,212565
12-Sep-16,32.34,33.00,32.13,32.97,236898
9-Sep-16,32.70,32.88,32.30,32.52,166770
8-Sep-16,33.06,33.20,32.48,33.06,87834
7-Sep-16,32.34,33.16,32.27,33.07,225581
6-Sep-16,32.72,33.17,32.15,32.31,131672
2-Sep-16,32.39,32.98,32.01,32.52,216590
1-Sep-16,30.94,32.26,30.64,32.22,197402
31-Aug-16,31.19,31.57,30.52,31.04,251818
30-Aug-16,31.31,31.72,30.92,31.20,120492
29-Aug-16,31.62,31.71,30.94,31.32,111591
26-Aug-16,31.52,32.14,31.18,31.51,94724
25-Aug-16,31.96,33.00,30.98,31.32,295380
24-Aug-16,33.79,34.85,31.72,31.85,285358
23-Aug-16,33.14,33.96,33.07,33.89,169955
22-Aug-16,32.00,33.07,31.71,33.03,195325
19-Aug-16,31.70,32.39,31.37,32.00,123892
18-Aug-16,31.56,31.99,31.49,31.75,123703
17-Aug-16,31.20,31.77,30.44,31.60,179769
16-Aug-16,31.40,31.82,31.21,31.29,141366
15-Aug-16,31.54,32.22,31.45,31.59,131106
12-Aug-16,31.20,31.77,30.90,31.49,148002
11-Aug-16,31.12,32.49,30.66,31.34,125349
10-Aug-16,31.09,31.35,30.62,31.02,209712
9-Aug-16,31.29,32.08,30.65,31.09,228442
8-Aug-16,32.28,32.28,31.20,31.36,125017
5-Aug-16,32.37,32.77,31.95,32.26,175286
4-Aug-16,33.32,33.53,32.16,32.24,234853
3-Aug-16,32.91,33.27,32.38,33.26,247571
2-Aug-16,33.21,33.61,32.36,32.85,215409
1-Aug-16,33.65,34.15,32.58,33.20,219330
29-Jul-16,33.16,34.00,33.03,33.56,657282
28-Jul-16,34.16,34.50,32.67,33.15,407662
27-Jul-16,32.38,34.65,32.25,34.37,387172
26-Jul-16,31.88,32.72,31.78,32.39,163144
25-Jul-16,31.74,32.24,31.02,32.09,159696
22-Jul-16,32.00,32.26,31.22,31.71,123364
21-Jul-16,31.69,32.35,31.59,32.00,193248
20-Jul-16,31.03,31.61,30.76,31.51,147853
19-Jul-16,31.07,31.11,30.09,30.83,198005
18-Jul-16,30.02,31.38,29.85,31.23,360991
15-Jul-16,30.14,30.39,29.75,30.34,205494
14-Jul-16,29.37,30.08,28.51,29.99,346866
13-Jul-16,30.31,30.47,28.81,28.94,230755
12-Jul-16,30.62,30.62,29.52,30.17,195814
11-Jul-16,30.99,31.02,29.52,30.27,291874
8-Jul-16,30.44,31.03,29.24,30.91,229567
7-Jul-16,30.36,30.47,29.57,30.34,146878
6-Jul-16,29.98,30.64,29.91,30.20,167279
5-Jul-16,29.67,30.55,28.88,30.03,277011
1-Jul-16,29.21,29.99,29.06,29.93,264004
30-Jun-16,29.85,29.85,28.43,29.25,342000
29-Jun-16,29.05,29.98,28.69,29.91,226472
28-Jun-16,27.74,28.77,27.56,28.73,354903
27-Jun-16,28.65,29.04,27.15,27.36,306438
24-Jun-16,28.71,29.93,28.44,28.83,1355815
23-Jun-16,29.66,30.16,29.22,30.05,313367
22-Jun-16,28.87,29.72,28.10,29.30,313888
21-Jun-16,29.38,29.38,28.29,28.82,216223
20-Jun-16,29.27,29.56,28.52,29.39,244666
17-Jun-16,29.60,29.82,28.50,28.90,563111
16-Jun-16,29.56,29.87,28.88,29.77,244626
15-Jun-16,29.35,29.95,28.90,29.89,320329
14-Jun-16,29.76,29.85,28.84,29.28,349878
13-Jun-16,30.34,30.85,29.78,29.87,362074
10-Jun-16,29.82,30.60,28.76,30.27,431021
9-Jun-16,29.78,31.73,29.69,30.11,723158
8-Jun-16,29.74,30.49,28.54,29.80,2837968
7-Jun-16,30.41,30.48,29.75,30.21,118719
6-Jun-16,30.30,30.82,29.22,30.62,295244
3-Jun-16,30.63,30.88,29.70,30.33,634648
2-Jun-16,34.00,34.00,30.05,30.66,2431149
1-Jun-16,31.36,32.36,30.98,32.00,330551
31-May-16,31.35,31.97,31.18,31.74,272009
27-May-16,31.23,31.86,30.84,31.16,193001
26-May-16,30.94,31.37,30.60,31.29,125759
25-May-16,31.01,31.86,30.29,30.90,204875
24-May-16,30.71,31.00,30.43,30.93,208292
23-May-16,30.93,31.38,30.24,30.49,343976
20-May-16,30.60,31.06,30.16,30.87,236675
19-May-16,31.26,31.68,30.02,30.26,215320
18-May-16,30.59,32.07,30.59,31.76,233184
17-May-16,29.95,31.62,29.95,30.83,404088
16-May-16,28.50,30.31,28.36,30.22,428129
13-May-16,27.26,28.14,26.96,27.80,190072
12-May-16,28.33,28.68,26.48,27.28,216058
11-May-16,28.73,29.31,27.97,28.14,396137
10-May-16,29.00,29.44,26.52,28.69,1450384
9-May-16,23.55,24.91,23.33,24.46,105580
6-May-16,23.83,24.73,23.42,23.60,164179
5-May-16,24.78,24.78,23.75,23.94,329053
4-May-16,25.09,25.31,24.52,24.68,171858
3-May-16,25.06,25.68,24.90,25.35,116661
2-May-16,25.38,25.51,24.52,25.38,164312
29-Apr-16,25.46,25.71,24.90,25.29,123667
28-Apr-16,25.09,26.15,24.70,25.55,139919
27-Apr-16,25.22,25.52,24.84,25.12,118814
26-Apr-16,25.36,25.63,24.37,25.18,117682
25-Apr-16,25.91,25.92,25.10,25.37,184732
22-Apr-16,26.02,26.30,25.59,25.88,167756
21-Apr-16,25.53,25.97,25.34,25.90,150725
20-Apr-16,26.17,26.53,25.04,25.54,244195
19-Apr-16,25.71,27.29,25.57,26.13,247295
18-Apr-16,24.31,26.10,24.28,25.78,217916
15-Apr-16,23.89,24.91,23.75,24.46,103018
14-Apr-16,24.63,24.96,23.87,24.02,233346
13-Apr-16,23.88,24.59,23.22,24.51,158755
12-Apr-16,23.50,23.87,22.84,23.73,114821
11-Apr-16,24.00,24.00,23.07,23.54,145121
8-Apr-16,23.99,24.03,23.17,23.93,107649
7-Apr-16,24.09,24.79,23.40,23.64,132618
6-Apr-16,22.59,24.43,22.59,24.27,203175
5-Apr-16,21.21,23.00,21.21,22.50,246244
4-Apr-16,21.27,21.49,21.01,21.38,211516
1-Apr-16,20.70,21.27,20.13,21.25,237850
31-Mar-16,20.41,21.45,20.08,20.68,295664
30-Mar-16,21.05,21.63,20.18,20.25,234035
29-Mar-16,20.22,20.97,19.99,20.88,363930
28-Mar-16,20.27,20.31,19.62,20.25,162644
24-Mar-16,19.74,20.73,19.47,20.33,141604
23-Mar-16,20.53,20.70,19.66,19.86,168741
22-Mar-16,20.43,21.01,20.43,20.68,323354
21-Mar-16,19.91,20.52,19.63,20.45,402318
18-Mar-16,18.86,20.08,18.34,19.88,356513
17-Mar-16,19.56,19.77,17.42,18.67,660010
16-Mar-16,19.46,19.75,18.51,19.54,223792
15-Mar-16,21.20,21.33,19.72,19.93,147380
14-Mar-16,20.99,21.94,20.49,21.37,219458
11-Mar-16,21.16,21.30,20.57,21.10,167905
10-Mar-16,21.34,21.64,20.98,21.21,63175
9-Mar-16,21.64,21.87,21.00,21.31,110209
8-Mar-16,22.81,23.00,21.57,21.74,106249
7-Mar-16,22.55,23.20,22.44,23.03,67184
4-Mar-16,21.71,23.27,21.64,22.59,215661
3-Mar-16,22.93,23.15,21.42,21.80,215883
2-Mar-16,22.36,23.81,21.16,23.26,165323
1-Mar-16,23.51,23.51,22.03,22.50,128158
29-Feb-16,23.43,24.76,22.57,23.06,196577
26-Feb-16,23.37,23.98,22.81,23.48,106789
25-Feb-16,23.46,23.72,22.28,23.08,118157
24-Feb-16,21.91,23.87,21.36,23.42,185423
23-Feb-16,23.45,24.35,22.14,22.15,180887
22-Feb-16,22.53,23.68,22.16,23.61,248924
19-Feb-16,21.61,22.48,21.47,22.23,70940
18-Feb-16,23.29,23.29,21.65,21.73,97530
17-Feb-16,22.65,24.26,22.51,23.21,142722
16-Feb-16,21.77,22.84,21.12,22.50,226064
12-Feb-16,23.98,25.54,21.32,21.45,239409
11-Feb-16,24.20,24.72,23.24,23.62,136586
10-Feb-16,24.46,25.63,24.37,24.75,84238
9-Feb-16,23.72,24.77,23.34,24.31,105948
8-Feb-16,25.92,26.50,23.64,24.17,123002
5-Feb-16,25.80,26.57,25.43,26.37,205026
4-Feb-16,26.29,27.09,25.44,25.94,109537
3-Feb-16,26.70,26.76,25.14,26.37,101714
2-Feb-16,27.01,27.05,25.95,26.37,73380
1-Feb-16,27.87,28.21,26.75,27.37,120652
29-Jan-16,27.14,28.30,26.96,28.00,174549
28-Jan-16,27.88,27.88,26.41,27.25,155138
27-Jan-16,28.55,29.06,27.40,27.65,140285
26-Jan-16,28.88,29.07,27.42,28.53,128525
25-Jan-16,28.21,29.41,28.21,28.74,187084
22-Jan-16,27.32,28.46,26.70,28.40,131524
21-Jan-16,27.32,27.32,26.58,26.85,84276
20-Jan-16,25.16,27.90,24.96,27.25,143738
19-Jan-16,29.24,29.24,24.42,25.51,229734
15-Jan-16,28.38,28.95,27.75,28.74,172123
14-Jan-16,28.40,30.16,27.31,29.24,232634
13-Jan-16,30.48,30.92,27.89,28.09,169520
12-Jan-16,29.75,30.83,29.50,30.41,166251
11-Jan-16,30.89,31.00,28.51,29.54,246151
8-Jan-16,31.95,32.94,30.47,30.72,165644
7-Jan-16,32.28,32.61,31.26,31.29,186496
6-Jan-16,33.00,33.61,32.52,33.00,114893
5-Jan-16,33.56,34.25,33.14,33.60,101395
4-Jan-16,33.89,34.31,32.58,33.40,168863
31-Dec-15,34.84,35.17,34.22,34.61,191004
30-Dec-15,34.74,35.36,34.59,35.00,78939
29-Dec-15,35.05,35.73,34.75,34.91,86848
28-Dec-15,35.34,35.75,34.35,34.91,104733
24-Dec-15,34.74,35.63,34.63,35.42,49207
23-Dec-15,33.83,34.87,33.75,34.58,87881
22-Dec-15,34.03,34.53,32.87,33.99,104677
21-Dec-15,33.93,34.65,33.16,33.92,152594
18-Dec-15,33.63,34.75,33.41,33.76,1763182
17-Dec-15,33.50,33.84,32.30,33.18,208225
16-Dec-15,31.03,33.66,30.97,33.33,272387
15-Dec-15,30.94,31.24,29.92,30.95,257611
14-Dec-15,29.26,31.00,29.26,30.93,330575
11-Dec-15,28.96,29.43,28.48,29.20,194628
10-Dec-15,28.58,29.63,28.58,29.53,128707
9-Dec-15,27.75,28.94,27.48,28.65,137051
8-Dec-15,27.11,27.86,26.99,27.73,110217
7-Dec-15,27.74,27.90,26.39,26.87,129310
4-Dec-15,28.19,28.19,26.96,27.84,114691
3-Dec-15,28.81,29.31,27.63,28.21,94899
2-Dec-15,29.13,29.73,28.68,28.80,102721
1-Dec-15,30.60,30.87,28.34,29.23,145788
30-Nov-15,30.00,31.25,29.29,30.81,213063
27-Nov-15,29.23,30.00,29.14,29.98,93175
25-Nov-15,29.77,29.93,28.45,29.24,118683
24-Nov-15,28.05,29.98,27.78,29.90,160022
23-Nov-15,28.50,28.92,28.05,28.34,154179
20-Nov-15,28.29,28.76,28.12,28.41,50542
19-Nov-15,27.06,28.79,27.06,28.10,119728
18-Nov-15,28.41,28.63,27.73,28.44,86287
17-Nov-15,28.03,28.51,27.68,28.24,92956
16-Nov-15,27.92,28.57,27.28,27.96,111278
13-Nov-15,27.46,29.94,27.40,27.99,129542
12-Nov-15,28.01,28.43,26.08,27.69,125596
11-Nov-15,27.66,28.77,27.14,28.26,139293
10-Nov-15,28.00,28.67,27.36,28.10,129551
9-Nov-15,29.89,29.98,28.12,28.44,111035
6-Nov-15,28.35,29.99,27.85,29.89,195954
5-Nov-15,28.65,28.93,27.71,28.45,82278
4-Nov-15,28.99,29.00,27.70,28.67,125938
3-Nov-15,28.20,29.20,27.98,28.88,149545
2-Nov-15,27.09,28.70,26.68,28.44,103963
30-Oct-15,27.02,27.72,26.03,26.99,141805
29-Oct-15,28.93,29.15,26.96,27.12,53884
28-Oct-15,29.66,30.18,28.28,28.94,152630
27-Oct-15,27.00,30.21,27.00,29.49,255683
26-Oct-15,26.96,27.89,26.29,27.09,75404
23-Oct-15,25.27,27.20,24.98,26.93,118418
22-Oct-15,24.67,25.22,23.38,24.98,111630
21-Oct-15,25.72,27.77,23.62,24.59,100432
20-Oct-15,26.45,26.45,23.93,25.54,212825
19-Oct-15,25.87,26.68,25.42,26.07,72166
16-Oct-15,25.67,26.24,25.00,26.02,86529
15-Oct-15,23.94,25.59,23.72,25.58,122718
14-Oct-15,24.40,24.70,23.61,23.95,123892
13-Oct-15,24.26,24.79,23.55,24.27,124075
12-Oct-15,26.27,26.75,24.38,24.53,130433
9-Oct-15,25.48,26.17,25.19,26.14,126402
8-Oct-15,24.72,25.70,23.84,25.33,127323
7-Oct-15,25.05,25.94,24.11,24.87,221443
6-Oct-15,25.72,25.72,23.46,24.75,151065
5-Oct-15,25.44,26.57,24.10,25.68,108872
2-Oct-15,23.51,25.38,23.41,25.35,121161
1-Oct-15,23.59,23.90,22.39,23.69,208390
30-Sep-15,22.26,23.35,21.57,23.34,289449
29-Sep-15,23.29,23.71,21.91,22.07,70032
28-Sep-15,25.99,25.99,23.16,23.36,177806
25-Sep-15,30.15,30.22,25.45,26.23,407613
24-Sep-15,29.40,30.21,29.14,29.82,118150
23-Sep-15,30.19,30.49,29.41,29.49,87491
22-Sep-15,30.10,30.44,29.09,30.00,249024
21-Sep-15,31.39,32.13,29.68,30.33,206474
18-Sep-15,29.54,31.49,29.51,31.37,213769
17-Sep-15,29.39,30.58,29.39,29.97,68020
16-Sep-15,29.23,29.54,28.30,29.29,113016
15-Sep-15,28.94,29.36,28.16,29.30,129983
14-Sep-15,28.05,29.99,27.36,29.00,213634
11-Sep-15,26.24,27.60,26.15,27.46,61653
10-Sep-15,25.99,27.23,25.89,26.43,105293
9-Sep-15,27.22,27.22,25.64,26.07,82488
8-Sep-15,25.48,27.06,25.41,26.93,111887
4-Sep-15,25.24,25.51,25.02,25.35,73459
3-Sep-15,26.36,26.64,25.52,25.56,65919
2-Sep-15,25.98,26.52,25.26,26.45,89061
1-Sep-15,25.16,27.01,25.02,25.94,168797
31-Aug-15,27.36,27.40,24.98,25.70,478999
28-Aug-15,26.39,27.76,26.18,27.24,163432
27-Aug-15,25.28,26.44,24.55,26.33,139885
26-Aug-15,24.52,25.15,23.81,25.08,162452
25-Aug-15,24.12,25.00,23.23,24.12,195050
24-Aug-15,23.35,23.54,21.61,23.22,246463
21-Aug-15,23.92,24.69,23.77,24.15,476617
20-Aug-15,23.75,24.37,23.26,24.05,151095
19-Aug-15,25.25,26.39,23.93,23.96,492941
18-Aug-15,25.15,26.00,24.68,24.76,62210
17-Aug-15,24.70,25.51,23.77,25.15,200318
14-Aug-15,25.27,25.85,24.25,24.35,264849
13-Aug-15,24.93,25.60,24.85,25.27,60084
12-Aug-15,24.81,25.90,24.14,25.05,277251
11-Aug-15,26.43,27.10,24.42,24.93,263252
10-Aug-15,24.92,27.74,24.92,26.90,282116
7-Aug-15,24.16,25.18,24.16,24.80,275195
6-Aug-15,23.01,24.67,22.98,24.43,1903628
5-Aug-15,22.03,22.36,21.01,22.08,130679
4-Aug-15,22.50,22.83,22.21,22.46,36463
3-Aug-15,22.52,23.07,22.34,22.43,28887
31-Jul-15,22.14,23.69,22.14,22.58,42572
30-Jul-15,22.41,23.00,21.63,22.58,44089
29-Jul-15,24.30,24.33,22.52,22.62,82381
28-Jul-15,24.35,24.63,24.20,24.37,49102
27-Jul-15,24.60,24.72,23.39,24.32,97988
24-Jul-15,24.31,24.90,24.18,24.63,71322
23-Jul-15,25.09,25.24,23.95,24.19,204303
22-Jul-15,22.96,25.22,22.75,24.91,224203
21-Jul-15,22.76,23.31,22.60,23.05,122007
20-Jul-15,21.97,22.75,21.72,22.58,146270
17-Jul-15,20.72,21.96,20.72,21.85,153154
16-Jul-15,20.81,21.15,20.56,20.72,52030
15-Jul-15,20.50,21.25,20.39,20.65,215921
14-Jul-15,20.00,20.67,19.75,20.55,182625
13-Jul-15,18.47,20.11,18.47,19.90,128217
10-Jul-15,18.03,18.40,17.95,18.22,47774
9-Jul-15,17.77,18.10,17.77,17.92,27137
8-Jul-15,17.70,17.99,17.50,17.61,36912
7-Jul-15,17.95,18.04,17.63,17.85,53689
6-Jul-15,17.92,18.22,17.80,17.96,43423
2-Jul-15,17.70,18.02,17.60,17.95,53244
1-Jul-15,17.53,18.00,17.51,17.74,86900
30-Jun-15,17.27,18.01,17.27,17.55,80016
29-Jun-15,17.01,17.38,16.80,17.22,73174
26-Jun-15,17.00,17.31,16.80,17.00,816010
25-Jun-15,16.59,16.99,16.48,16.99,106383
24-Jun-15,16.40,16.80,16.31,16.46,22987
23-Jun-15,16.25,16.65,16.25,16.50,44503
22-Jun-15,16.31,16.78,16.21,16.32,51787
19-Jun-15,16.10,16.42,16.09,16.31,37729
18-Jun-15,16.27,16.50,15.94,16.15,62065
17-Jun-15,15.98,16.29,15.89,16.17,40909
16-Jun-15,15.87,16.01,15.87,15.94,54803
15-Jun-15,15.81,16.19,15.56,15.94,57078
12-Jun-15,15.89,16.00,15.89,15.95,15986
11-Jun-15,15.98,16.00,15.79,16.00,37549
10-Jun-15,15.73,16.02,15.53,16.00,48807
9-Jun-15,16.00,16.00,15.50,15.59,57520
8-Jun-15,15.75,16.00,15.52,15.80,36391
5-Jun-15,15.23,15.81,14.77,15.75,22365
4-Jun-15,15.68,15.97,14.63,15.19,35689
3-Jun-15,15.62,15.98,15.38,15.79,48429
2-Jun-15,15.44,15.80,14.89,15.66,25647
1-Jun-15,15.00,15.63,14.81,15.54,35878
29-May-15,15.00,15.09,14.87,15.00,40820
28-May-15,14.84,15.10,14.84,15.00,21851
27-May-15,14.90,15.00,14.85,14.95,35472
26-May-15,14.83,14.99,14.72,14.87,37552
22-May-15,14.94,15.00,14.79,14.85,20453
21-May-15,14.95,15.10,14.94,15.01,37561
20-May-15,15.00,15.00,14.87,14.94,26964
19-May-15,15.00,15.08,14.89,15.01,32437
18-May-15,14.90,15.07,14.71,14.98,37794
15-May-15,15.00,15.00,14.87,14.97,22514
14-May-15,14.95,15.10,14.92,15.04,25713
13-May-15,14.94,14.99,14.75,14.92,42524
12-May-15,14.96,15.15,14.85,14.99,19253
11-May-15,14.80,15.53,14.80,14.99,19440
8-May-15,14.70,15.08,14.61,14.78,17164
7-May-15,14.54,15.07,14.50,14.59,25507
6-May-15,14.20,14.75,14.20,14.67,21404
5-May-15,14.65,14.65,14.20,14.34,27148
4-May-15,14.96,15.00,14.55,14.60,13694
1-May-15,14.77,14.89,14.61,14.78,20499
30-Apr-15,14.83,14.97,14.56,14.75,40363
29-Apr-15,15.00,15.17,14.76,14.77,11505
28-Apr-15,14.80,15.31,14.57,15.05,19274
27-Apr-15,15.08,15.09,14.29,14.76,53219
24-Apr-15,15.46,15.46,14.71,14.96,21614
23-Apr-15,15.42,15.42,15.04,15.10,14369
22-Apr-15,16.06,16.06,15.00,15.36,47379
21-Apr-15,15.37,16.00,15.26,15.98,49601
20-Apr-15,15.09,15.30,15.00,15.27,100598
17-Apr-15,14.90,15.09,14.88,15.03,54109
16-Apr-15,14.95,15.03,14.95,15.00,73104
15-Apr-15,15.07,15.24,14.96,15.00,93488
14-Apr-15,15.10,15.54,14.75,14.99,112044
13-Apr-15,15.04,15.16,14.95,15.15,42029
10-Apr-15,15.25,15.25,14.88,15.00,21218
9-Apr-15,15.56,15.86,14.99,15.15,47307
8-Apr-15,15.18,15.68,15.00,15.53,742205
7-Apr-15,15.45,15.66,14.97,15.23,15725
6-Apr-15,15.90,15.90,15.36,15.52,11064
2-Apr-15,15.00,16.08,15.00,15.91,25791
1-Apr-15,15.27,15.27,14.76,15.01,65165
31-Mar-15,15.34,15.45,15.18,15.35,22413
30-Mar-15,15.16,15.50,15.08,15.32,44984
27-Mar-15,15.87,15.89,15.02,15.14,41715
26-Mar-15,15.65,16.20,15.25,15.93,70602
25-Mar-15,15.06,15.50,14.57,14.65,89031
24-Mar-15,16.50,16.98,15.00,15.13,94156
23-Mar-15,16.00,16.73,15.48,16.11,114825
20-Mar-15,15.23,15.33,15.03,15.27,24877
19-Mar-15,15.36,15.47,15.00,15.21,34672
18-Mar-15,15.08,15.28,14.95,15.09,26939
17-Mar-15,15.18,15.30,15.00,15.08,56593
16-Mar-15,15.00,15.21,14.94,15.18,71894
13-Mar-15,15.40,15.76,15.00,15.00,47340
12-Mar-15,16.14,16.14,15.07,15.56,54704
11-Mar-15,16.00,16.10,16.00,16.01,11701
10-Mar-15,16.06,16.21,16.00,16.00,52938
9-Mar-15,16.00,16.30,16.00,16.13,12834
6-Mar-15,16.30,16.40,16.01,16.10,23792
5-Mar-15,16.49,16.50,16.10,16.40,15021
4-Mar-15,16.10,16.30,15.75,16.09,18179
3-Mar-15,16.25,16.25,16.10,16.11,6411
2-Mar-15,16.73,16.73,16.00,16.29,57491
27-Feb-15,17.68,17.72,16.73,16.73,35056
26-Feb-15,17.13,17.99,17.00,17.90,12419
25-Feb-15,16.83,17.43,16.35,16.91,9732
24-Feb-15,17.09,17.09,16.21,16.23,4294
23-Feb-15,16.01,16.40,15.87,16.15,46229
20-Feb-15,16.05,16.34,15.77,16.00,82684
19-Feb-15,16.39,16.41,16.00,16.01,12158
18-Feb-15,16.24,16.33,16.13,16.27,9521
17-Feb-15,16.68,16.70,16.13,16.26,7628
13-Feb-15,16.81,16.94,16.42,16.52,22851
12-Feb-15,16.45,17.31,16.13,16.63,18015
11-Feb-15,16.07,16.65,16.07,16.31,12355
10-Feb-15,17.22,17.58,16.01,16.15,37412
9-Feb-15,15.95,17.78,15.90,17.25,104409
6-Feb-15,15.73,16.80,15.00,16.70,69225
5-Feb-15,15.13,15.83,15.01,15.73,58822
4-Feb-15,17.12,17.12,14.86,15.01,123015
3-Feb-15,17.47,17.47,16.76,16.93,25001
2-Feb-15,17.00,17.33,16.80,17.33,20529
30-Jan-15,16.96,17.14,16.72,16.85,31051
29-Jan-15,16.93,17.30,16.90,17.09,10894
28-Jan-15,18.09,18.84,16.98,17.14,20280
27-Jan-15,16.98,17.58,16.80,17.35,33084
26-Jan-15,17.47,17.59,16.76,17.11,58020
23-Jan-15,18.14,18.42,17.05,17.37,32717
22-Jan-15,18.69,18.90,17.86,18.09,67051
21-Jan-15,19.24,19.32,18.12,18.20,41790
20-Jan-15,20.00,20.00,18.71,19.27,38440
16-Jan-15,19.69,20.01,18.76,19.98,53409
15-Jan-15,19.34,19.97,19.28,19.79,45953
14-Jan-15,19.40,19.66,18.97,19.13,66551
13-Jan-15,19.31,19.55,19.15,19.52,110794
12-Jan-15,19.45,19.58,18.78,19.29,54110
9-Jan-15,19.45,20.02,18.75,19.41,22766
8-Jan-15,19.95,21.27,19.09,20.06,74168
7-Jan-15,18.50,20.00,18.45,19.96,52048
6-Jan-15,17.75,18.33,17.56,17.80,67178
5-Jan-15,17.69,17.77,17.40,17.65,53780
2-Jan-15,18.16,18.44,17.38,17.70,40538
31-Dec-14,18.30,18.63,17.90,18.11,30335
30-Dec-14,18.95,18.95,17.38,18.22,110630
29-Dec-14,18.63,20.62,18.50,18.92,132390
26-Dec-14,19.73,20.20,18.40,18.57,53430
24-Dec-14,19.25,20.30,18.07,19.65,62364
23-Dec-14,20.77,20.77,18.24,19.27,135032
22-Dec-14,20.42,21.86,19.58,19.71,91126
19-Dec-14,21.65,21.85,20.03,20.29,1188634
18-Dec-14,21.50,21.75,20.35,21.74,131182
17-Dec-14,20.59,21.56,19.51,21.30,228800
16-Dec-14,21.17,22.94,19.70,21.03,115005
15-Dec-14,19.95,22.23,19.95,21.37,172722
12-Dec-14,20.65,21.86,19.46,20.00,128703
11-Dec-14,18.15,22.30,18.10,20.92,133105
10-Dec-14,17.79,18.52,17.21,18.06,245606
9-Dec-14,17.94,17.94,16.35,17.73,30313
8-Dec-14,17.59,17.98,16.84,17.84,43854
5-Dec-14,17.35,17.88,17.22,17.50,64600
4-Dec-14,16.90,17.50,16.68,17.22,45135
3-Dec-14,17.08,17.50,16.64,17.09,92585
2-Dec-14,16.20,17.12,16.20,17.07,61550
1-Dec-14,17.22,17.25,16.26,16.67,36609
28-Nov-14,17.07,17.25,17.02,17.25,21969
26-Nov-14,16.94,17.87,16.82,17.25,86786
25-Nov-14,16.49,17.21,16.04,17.00,129556
24-Nov-14,16.34,17.33,16.13,16.60,76938
21-Nov-14,16.43,16.59,16.01,16.36,43464
20-Nov-14,16.08,16.31,16.00,16.20,83762
19-Nov-14,16.50,16.50,15.86,16.01,40310
18-Nov-14,16.00,16.37,16.00,16.29,86534
17-Nov-14,16.00,16.52,15.50,15.97,36748
14-Nov-14,16.18,16.18,15.76,16.05,25172
13-Nov-14,16.25,16.35,15.62,16.24,68303
12-Nov-14,15.99,16.33,15.84,16.25,47029
11-Nov-14,16.30,16.30,15.90,16.03,6924
10-Nov-14,16.12,16.12,15.75,15.97,6393
7-Nov-14,15.45,16.14,15.45,15.78,10051
6-Nov-14,15.90,16.00,15.01,15.37,17103
5-Nov-14,15.94,16.02,15.47,15.80,8095
4-Nov-14,15.22,16.01,15.22,15.39,18437
3-Nov-14,15.32,15.36,15.20,15.20,9464
31-Oct-14,16.47,16.63,14.92,15.37,97869
30-Oct-14,16.07,16.33,16.07,16.33,15180
29-Oct-14,16.35,16.77,15.97,16.40,78704
28-Oct-14,15.48,16.32,15.02,16.17,115291
27-Oct-14,15.30,15.59,15.08,15.50,50679
24-Oct-14,14.92,15.30,14.72,15.07,36947
23-Oct-14,14.95,15.08,13.32,14.62,88190
22-Oct-14,14.55,15.44,14.50,14.56,9248
21-Oct-14,14.34,15.15,14.34,14.80,40767
20-Oct-14,14.02,14.49,13.74,14.48,28440
17-Oct-14,13.62,14.27,13.62,14.17,54763
16-Oct-14,14.00,14.08,12.85,14.08,7570
15-Oct-14,13.37,14.48,12.76,14.13,64974
14-Oct-14,13.61,14.34,12.68,13.62,148508
13-Oct-14,14.33,14.39,13.39,13.52,36144
10-Oct-14,14.38,14.61,14.02,14.12,191826
9-Oct-14,14.59,14.76,14.21,14.39,209856
8-Oct-14,14.35,14.85,14.35,14.55,216119
7-Oct-14,14.55,15.08,14.40,14.68,215371
6-Oct-14,15.65,15.65,14.14,14.85,978354
3-Oct-14,18.00,18.50,15.02,15.55,5631288
