﻿Date,Open,High,Low,Close,Volume
20-Jun-17,17.36,17.59,17.22,17.45,329385
19-Jun-17,17.49,17.49,17.09,17.40,254411
16-Jun-17,17.52,17.52,17.01,17.21,397878
15-Jun-17,17.56,17.64,16.89,17.10,273856
14-Jun-17,17.45,17.84,17.18,17.61,321271
13-Jun-17,17.02,17.57,16.85,17.29,330727
12-Jun-17,16.65,17.08,16.26,16.91,562122
9-Jun-17,17.34,17.63,16.59,16.60,986535
8-Jun-17,16.99,17.25,16.01,17.08,1198454
7-Jun-17,18.20,18.40,16.45,16.75,3436120
6-Jun-17,20.70,21.52,20.27,20.57,769077
5-Jun-17,19.89,20.64,19.82,20.63,274820
2-Jun-17,20.19,20.35,19.75,19.96,244816
1-Jun-17,19.51,20.22,19.00,20.13,251889
31-May-17,19.50,19.56,18.88,19.52,169501
30-May-17,19.91,20.10,19.39,19.54,121442
26-May-17,19.34,19.81,19.25,19.79,184310
25-May-17,19.80,19.95,19.36,19.37,235247
24-May-17,20.48,20.65,19.65,19.69,381116
23-May-17,21.18,21.20,20.45,20.53,209884
22-May-17,20.38,21.27,20.20,21.19,224320
19-May-17,20.59,20.93,20.06,20.22,311576
18-May-17,20.89,21.34,20.61,20.64,221702
17-May-17,21.28,21.35,20.77,20.88,176905
16-May-17,21.70,21.78,21.34,21.39,181154
15-May-17,21.15,21.66,21.15,21.60,143845
12-May-17,21.25,21.28,20.47,21.17,184424
11-May-17,21.89,21.89,21.03,21.23,121019
10-May-17,21.82,22.04,21.47,21.88,109730
9-May-17,21.73,22.03,21.67,21.87,126074
8-May-17,21.20,21.76,21.14,21.63,174556
5-May-17,20.94,21.25,20.63,21.13,111324
4-May-17,20.90,20.92,20.38,20.83,121707
3-May-17,21.24,21.34,20.69,20.90,149336
2-May-17,21.65,21.94,21.02,21.35,197707
1-May-17,22.31,22.49,21.43,21.56,316814
28-Apr-17,22.73,22.77,21.65,22.15,510435
27-Apr-17,21.75,22.89,21.68,22.60,708638
26-Apr-17,21.64,22.34,21.48,21.85,279462
25-Apr-17,20.92,21.57,20.84,21.51,292847
24-Apr-17,21.06,21.21,20.56,20.84,203623
21-Apr-17,20.52,20.90,20.24,20.83,260846
20-Apr-17,20.46,20.78,20.15,20.46,213880
19-Apr-17,20.28,20.62,19.83,20.33,327652
18-Apr-17,20.25,20.67,20.02,20.20,153664
17-Apr-17,20.61,21.16,19.50,20.23,393425
13-Apr-17,20.97,21.14,20.62,20.62,153101
12-Apr-17,21.10,21.48,20.74,20.99,152093
11-Apr-17,20.60,21.22,20.30,21.15,208748
10-Apr-17,20.54,20.74,20.29,20.63,198091
7-Apr-17,20.89,21.26,20.33,20.57,181391
6-Apr-17,20.48,21.28,20.28,20.96,345577
5-Apr-17,20.80,20.84,20.27,20.48,367850
4-Apr-17,20.80,20.99,20.54,20.70,235270
3-Apr-17,21.29,21.29,20.49,20.85,331216
31-Mar-17,21.59,21.81,21.25,21.29,161105
30-Mar-17,21.52,21.92,21.25,21.59,246278
29-Mar-17,21.55,22.04,21.28,21.89,223296
28-Mar-17,21.70,21.81,21.31,21.58,334715
27-Mar-17,22.57,22.70,21.50,21.62,415324
24-Mar-17,22.50,23.00,22.36,22.76,463156
23-Mar-17,22.05,22.68,21.85,22.37,480848
22-Mar-17,23.42,23.42,21.06,22.02,3375912
21-Mar-17,19.48,19.51,18.88,19.26,543094
20-Mar-17,19.00,19.61,18.85,19.30,466957
17-Mar-17,18.49,18.93,18.27,18.85,247750
16-Mar-17,19.05,19.16,18.25,18.43,302558
15-Mar-17,18.80,19.36,18.70,19.20,217369
14-Mar-17,18.93,18.95,18.60,18.74,114296
13-Mar-17,18.80,19.01,18.62,18.96,178827
10-Mar-17,18.88,18.96,18.53,18.83,276872
9-Mar-17,19.11,19.11,18.57,18.76,220080
8-Mar-17,18.67,19.32,18.34,19.04,256012
7-Mar-17,18.95,19.41,18.54,18.78,178345
6-Mar-17,19.63,19.75,18.96,19.09,343631
3-Mar-17,20.31,20.58,19.55,19.63,275556
2-Mar-17,21.00,21.09,20.16,20.30,229795
1-Mar-17,21.41,21.42,20.94,21.05,207463
28-Feb-17,21.14,21.52,20.82,21.09,396466
27-Feb-17,21.60,21.60,20.87,21.21,342331
24-Feb-17,21.29,21.99,20.66,21.51,384707
23-Feb-17,21.08,21.25,20.05,20.11,235754
22-Feb-17,21.45,21.46,21.02,21.15,343813
21-Feb-17,22.02,22.27,21.46,21.51,243732
17-Feb-17,22.20,22.24,21.98,22.10,128604
16-Feb-17,22.50,22.59,22.15,22.23,93717
15-Feb-17,22.75,22.95,22.34,22.50,135076
14-Feb-17,23.16,23.20,22.77,22.87,72798
13-Feb-17,23.61,23.76,23.08,23.17,85437
10-Feb-17,23.02,23.64,22.88,23.43,94592
9-Feb-17,22.31,23.16,22.26,23.03,87622
8-Feb-17,22.10,22.32,21.56,22.29,177429
7-Feb-17,22.73,22.76,22.12,22.20,171880
6-Feb-17,22.58,22.96,22.30,22.77,186463
3-Feb-17,23.00,23.27,22.42,22.73,142803
2-Feb-17,22.57,23.20,22.26,22.96,151299
1-Feb-17,22.77,23.00,22.32,22.77,190738
31-Jan-17,22.23,22.83,21.79,22.62,233657
30-Jan-17,22.80,23.09,21.50,22.28,379662
27-Jan-17,23.24,23.43,22.86,22.97,211788
26-Jan-17,23.73,24.00,23.33,23.36,162079
25-Jan-17,23.25,23.98,23.25,23.69,179847
24-Jan-17,23.27,23.41,22.58,23.19,333003
23-Jan-17,24.10,24.40,23.25,23.31,208528
20-Jan-17,24.24,24.64,23.92,24.25,194974
19-Jan-17,25.00,25.25,24.17,24.23,245746
18-Jan-17,25.62,25.62,24.52,25.08,272947
17-Jan-17,25.57,25.88,25.02,25.67,272891
13-Jan-17,25.75,26.38,25.50,25.57,143375
12-Jan-17,25.82,26.31,25.56,25.62,179986
11-Jan-17,26.52,26.79,25.48,25.96,203148
10-Jan-17,25.74,26.88,25.74,26.50,175077
9-Jan-17,25.83,26.26,25.25,25.79,303266
6-Jan-17,26.03,26.13,25.65,25.91,221591
5-Jan-17,26.43,26.52,25.52,25.84,408650
4-Jan-17,26.22,26.99,26.22,26.77,321956
3-Jan-17,25.67,26.31,25.44,26.19,303796
30-Dec-16,25.48,26.00,25.33,25.40,175697
29-Dec-16,25.40,25.77,24.90,25.45,178588
28-Dec-16,26.21,26.35,25.30,25.53,167715
27-Dec-16,26.04,26.33,25.67,26.17,201011
23-Dec-16,26.20,26.36,25.86,26.12,115614
22-Dec-16,26.44,26.88,25.95,26.36,261127
21-Dec-16,27.04,27.55,26.10,26.66,192590
20-Dec-16,25.23,27.56,25.23,27.20,549500
19-Dec-16,25.16,26.06,25.02,25.35,392449
16-Dec-16,26.71,26.99,24.98,25.01,659249
15-Dec-16,27.72,27.72,26.31,26.93,643628
14-Dec-16,27.35,27.91,27.32,27.85,380507
13-Dec-16,28.90,29.13,27.33,27.56,481399
12-Dec-16,28.64,28.86,27.00,28.80,655970
9-Dec-16,30.00,30.11,27.73,28.55,2814637
8-Dec-16,34.14,37.49,33.40,37.04,709151
7-Dec-16,33.75,34.15,32.65,33.95,317843
6-Dec-16,34.26,34.39,33.48,33.92,254608
5-Dec-16,33.01,34.17,32.91,34.06,410007
2-Dec-16,33.57,34.96,32.13,32.88,365901
1-Dec-16,33.45,33.91,32.71,33.53,230133
30-Nov-16,36.29,36.29,33.08,33.51,609037
29-Nov-16,37.64,38.19,34.91,35.00,547213
28-Nov-16,35.48,37.84,34.66,37.64,312243
25-Nov-16,34.05,35.30,33.90,35.25,65914
23-Nov-16,33.73,34.18,33.08,33.84,142103
22-Nov-16,32.75,33.76,32.65,33.49,115490
21-Nov-16,32.46,32.70,32.17,32.47,130998
18-Nov-16,33.02,33.23,31.88,32.25,403168
17-Nov-16,31.60,32.82,31.21,32.78,112707
16-Nov-16,31.70,32.35,31.33,31.55,123320
15-Nov-16,31.71,32.06,31.02,31.72,126362
14-Nov-16,30.91,32.10,30.50,31.94,206107
11-Nov-16,29.82,30.91,29.43,30.38,208944
10-Nov-16,28.23,29.83,27.76,29.75,127169
9-Nov-16,26.34,28.06,26.34,28.04,175625
8-Nov-16,27.15,27.15,26.70,26.86,241912
7-Nov-16,27.38,27.70,26.94,27.29,199137
4-Nov-16,26.75,27.13,26.26,26.99,226162
3-Nov-16,26.87,26.94,26.54,26.81,214692
2-Nov-16,26.97,27.40,26.58,26.94,233814
1-Nov-16,27.06,27.11,26.35,27.00,607811
31-Oct-16,26.83,27.37,26.48,27.15,250007
28-Oct-16,26.86,27.16,26.68,26.69,140005
27-Oct-16,26.58,26.91,26.21,26.87,216371
26-Oct-16,26.57,26.70,26.37,26.45,169252
25-Oct-16,26.48,26.86,26.37,26.70,159827
24-Oct-16,26.40,26.67,26.30,26.51,225837
21-Oct-16,26.64,26.85,26.01,26.50,221146
20-Oct-16,27.21,27.35,26.35,26.74,304091
19-Oct-16,27.63,27.63,27.18,27.40,251890
18-Oct-16,27.91,27.91,27.46,27.61,169785
17-Oct-16,26.94,27.83,26.82,27.62,366163
14-Oct-16,27.44,27.50,26.84,27.02,242536
13-Oct-16,27.43,27.54,27.06,27.40,97765
12-Oct-16,27.21,27.93,27.08,27.59,174857
11-Oct-16,26.92,27.46,26.85,27.20,216348
10-Oct-16,27.74,27.87,27.00,27.13,198378
7-Oct-16,27.24,28.24,26.77,27.67,318535
6-Oct-16,26.86,27.10,26.54,26.93,227872
5-Oct-16,26.93,26.93,26.38,26.84,176611
4-Oct-16,26.29,26.87,26.07,26.72,229974
3-Oct-16,26.49,26.50,25.81,26.42,187338
30-Sep-16,26.75,26.82,26.10,26.51,111927
29-Sep-16,26.90,26.90,26.42,26.58,126220
28-Sep-16,27.05,27.26,26.55,26.82,162037
27-Sep-16,26.74,27.15,26.42,27.00,190232
26-Sep-16,27.36,27.52,26.65,26.70,154892
23-Sep-16,27.94,28.20,27.31,27.60,156544
22-Sep-16,27.86,28.24,27.32,28.05,280669
21-Sep-16,28.06,28.14,27.30,27.76,215888
20-Sep-16,27.89,28.00,27.34,27.72,129657
19-Sep-16,28.03,28.14,27.40,27.86,135870
16-Sep-16,28.09,28.34,27.72,28.00,329650
15-Sep-16,28.28,28.35,27.79,28.07,140764
14-Sep-16,27.60,28.17,27.48,28.13,200895
13-Sep-16,27.94,27.94,26.86,27.59,199433
12-Sep-16,28.09,28.99,27.55,28.25,206040
9-Sep-16,30.70,31.79,28.00,28.31,601914
8-Sep-16,29.48,29.55,28.68,29.16,270512
7-Sep-16,29.58,29.78,29.10,29.58,236703
6-Sep-16,29.86,31.01,29.10,29.47,307918
2-Sep-16,30.23,30.54,29.47,29.64,190090
1-Sep-16,30.31,30.54,28.76,29.50,241287
31-Aug-16,29.90,30.35,29.01,30.31,303061
30-Aug-16,29.60,30.60,29.43,30.00,358044
29-Aug-16,29.50,29.62,29.01,29.36,102912
26-Aug-16,29.39,29.70,28.91,29.22,56092
25-Aug-16,29.55,29.68,28.82,29.32,113746
24-Aug-16,30.43,30.43,29.56,29.67,98022
23-Aug-16,30.27,30.55,29.92,30.32,75882
22-Aug-16,30.55,30.82,29.89,30.25,71835
19-Aug-16,30.91,30.92,30.06,30.61,130080
18-Aug-16,30.00,31.19,29.94,30.86,248833
17-Aug-16,28.70,30.20,28.70,30.02,246269
16-Aug-16,29.01,29.21,28.52,28.68,152035
15-Aug-16,29.04,29.25,28.84,29.01,80742
12-Aug-16,28.34,29.12,28.24,29.01,130760
11-Aug-16,28.51,29.05,28.27,28.38,125637
10-Aug-16,29.25,29.71,28.22,28.55,165351
9-Aug-16,28.88,29.27,28.63,29.21,211938
8-Aug-16,28.70,29.38,28.48,29.20,394436
5-Aug-16,27.90,28.50,27.48,28.44,208861
4-Aug-16,27.03,27.77,26.60,27.72,266788
3-Aug-16,25.64,27.19,25.50,27.15,350043
2-Aug-16,25.73,26.85,24.68,25.75,344454
1-Aug-16,24.67,25.56,24.23,25.53,166051
29-Jul-16,24.41,25.00,24.00,24.80,98065
28-Jul-16,24.99,24.99,24.00,24.54,149911
27-Jul-16,24.97,25.33,24.53,24.94,115348
26-Jul-16,24.97,25.93,24.72,24.85,318243
25-Jul-16,24.97,25.40,24.68,24.98,172951
22-Jul-16,24.65,25.12,24.48,24.89,87161
21-Jul-16,24.79,25.40,24.38,24.63,143171
20-Jul-16,25.00,25.28,24.00,24.91,324821
19-Jul-16,24.83,25.98,24.10,24.88,201717
18-Jul-16,24.28,25.07,24.01,25.00,171079
15-Jul-16,24.64,24.64,23.93,24.23,118256
14-Jul-16,24.63,24.85,24.26,24.44,91871
13-Jul-16,24.87,24.87,24.12,24.26,85307
12-Jul-16,25.08,25.40,24.67,24.68,327141
11-Jul-16,24.67,25.01,24.19,24.98,168131
8-Jul-16,24.39,25.39,24.25,24.41,158281
7-Jul-16,24.39,24.58,23.78,24.28,140213
6-Jul-16,23.21,24.24,23.12,24.22,219225
5-Jul-16,23.68,23.68,22.75,23.45,157836
1-Jul-16,24.47,24.93,23.71,23.85,235786
30-Jun-16,24.25,24.64,24.00,24.46,202513
29-Jun-16,23.58,24.19,23.30,24.06,137794
28-Jun-16,23.16,23.89,23.03,23.35,158198
27-Jun-16,23.17,23.42,22.45,22.93,235597
24-Jun-16,23.40,23.93,22.68,23.30,673554
23-Jun-16,24.80,24.88,23.71,24.00,448950
22-Jun-16,24.86,24.91,24.11,24.50,132386
21-Jun-16,25.92,25.98,24.60,24.75,302796
20-Jun-16,25.01,26.32,25.00,25.65,455343
17-Jun-16,24.33,24.82,24.05,24.52,243594
16-Jun-16,23.58,24.31,23.34,24.20,302433
15-Jun-16,23.81,24.25,23.38,23.62,150463
14-Jun-16,24.10,24.73,23.13,23.85,226535
13-Jun-16,24.09,24.40,24.00,24.08,206313
10-Jun-16,24.30,24.57,23.95,24.23,371200
9-Jun-16,25.00,25.35,24.46,24.69,321028
8-Jun-16,24.33,25.51,24.00,25.04,664400
7-Jun-16,26.42,26.64,25.52,25.64,327876
6-Jun-16,26.13,26.43,25.58,26.15,259931
3-Jun-16,26.69,27.14,25.73,26.07,189212
2-Jun-16,26.60,26.95,26.26,26.50,207741
1-Jun-16,26.27,27.18,26.25,26.56,222691
31-May-16,26.79,27.00,25.63,26.50,230362
27-May-16,25.49,27.21,24.91,26.49,323480
26-May-16,25.12,25.34,24.39,24.88,109874
25-May-16,24.55,25.17,24.03,25.12,201125
24-May-16,23.99,24.51,23.41,24.42,123985
23-May-16,23.19,24.00,23.13,23.75,112384
20-May-16,22.50,23.15,22.39,23.03,66616
19-May-16,22.00,22.49,22.00,22.35,36394
18-May-16,22.08,22.40,21.78,22.06,73777
17-May-16,22.83,23.05,22.23,22.24,281028
16-May-16,22.62,23.33,22.57,22.95,356532
13-May-16,22.43,23.10,22.24,22.62,78970
12-May-16,22.25,22.50,21.88,22.44,158212
11-May-16,22.59,22.59,21.95,22.17,123843
10-May-16,23.11,23.26,22.17,22.73,106584
9-May-16,22.32,23.42,22.32,23.01,105354
6-May-16,21.90,23.23,21.41,22.27,96177
5-May-16,22.50,22.73,21.94,22.00,96247
4-May-16,22.00,22.54,21.13,22.33,174464
3-May-16,23.74,23.74,21.75,22.08,202820
2-May-16,24.00,24.52,22.78,23.75,240805
29-Apr-16,24.72,24.99,23.34,23.79,132351
28-Apr-16,24.57,25.10,24.34,24.58,150453
27-Apr-16,24.84,24.84,24.01,24.46,106997
26-Apr-16,24.07,24.95,23.92,24.71,115679
25-Apr-16,25.03,25.64,23.80,23.97,152873
22-Apr-16,24.94,25.11,24.76,25.06,135249
21-Apr-16,24.71,25.24,24.52,24.83,179891
20-Apr-16,24.76,25.07,24.10,24.59,107875
19-Apr-16,25.06,25.41,23.95,24.66,278440
18-Apr-16,24.84,25.32,24.50,25.06,282995
15-Apr-16,22.40,24.77,22.27,24.69,458825
14-Apr-16,22.46,22.46,21.50,22.38,190976
13-Apr-16,21.94,23.15,21.72,22.31,192763
12-Apr-16,22.77,22.77,21.50,21.60,157861
11-Apr-16,21.91,23.68,21.75,22.66,377348
8-Apr-16,19.50,22.23,19.40,21.73,870045
7-Apr-16,17.29,18.60,17.22,17.82,272631
6-Apr-16,17.45,17.98,17.02,17.39,118975
5-Apr-16,19.45,19.68,17.10,17.27,254268
4-Apr-16,20.00,20.10,19.25,19.45,140232
1-Apr-16,19.28,20.03,19.25,19.89,45295
31-Mar-16,19.50,19.56,19.16,19.49,117477
30-Mar-16,19.50,19.85,19.36,19.41,71705
29-Mar-16,19.14,19.59,18.88,19.50,215876
28-Mar-16,19.50,19.60,18.64,19.08,188710
24-Mar-16,18.99,19.58,18.61,19.40,235819
23-Mar-16,19.88,20.20,18.52,19.18,319099
22-Mar-16,20.01,20.60,19.77,19.98,303580
21-Mar-16,19.97,20.54,19.83,20.26,187564
18-Mar-16,19.84,19.94,19.06,19.77,552858
17-Mar-16,19.31,19.79,19.22,19.66,199289
16-Mar-16,18.55,19.64,18.29,19.28,340501
15-Mar-16,18.72,18.90,18.22,18.63,238693
14-Mar-16,18.41,18.96,18.13,18.73,218525
11-Mar-16,17.75,18.65,17.52,18.37,253588
10-Mar-16,17.68,17.89,17.47,17.71,137199
9-Mar-16,17.41,18.00,17.27,17.67,74752
8-Mar-16,17.23,17.98,16.99,17.35,168665
7-Mar-16,16.70,18.00,16.70,17.25,264863
4-Mar-16,16.80,17.07,16.46,16.84,69158
3-Mar-16,16.71,17.21,16.33,16.69,106653
2-Mar-16,16.88,16.90,16.34,16.62,87460
1-Mar-16,16.72,17.20,16.55,17.00,73957
29-Feb-16,16.58,17.48,16.37,16.55,105358
26-Feb-16,17.37,17.66,17.03,17.31,66857
25-Feb-16,16.44,17.80,16.43,17.29,108721
24-Feb-16,16.10,16.98,15.93,16.56,77898
23-Feb-16,16.99,16.99,15.91,16.23,205193
22-Feb-16,16.75,17.20,16.72,16.90,109904
19-Feb-16,16.10,16.98,15.86,16.78,84032
18-Feb-16,16.40,16.40,15.86,16.18,42749
17-Feb-16,15.61,16.40,15.61,16.31,64096
16-Feb-16,15.09,15.47,14.99,15.32,70491
12-Feb-16,14.49,15.08,14.47,14.99,44301
11-Feb-16,14.15,14.48,14.00,14.39,35619
10-Feb-16,14.22,14.45,14.15,14.35,20362
9-Feb-16,14.27,14.49,14.00,14.03,78769
8-Feb-16,14.05,14.51,14.00,14.38,73137
5-Feb-16,14.51,15.24,14.09,14.09,75663
4-Feb-16,15.00,15.47,14.51,14.77,123913
3-Feb-16,16.33,16.47,14.50,15.45,152275
2-Feb-16,16.42,16.84,16.19,16.35,175914
1-Feb-16,16.60,16.99,16.15,16.46,76290
29-Jan-16,16.78,17.09,16.23,16.51,129246
28-Jan-16,17.30,17.40,16.31,16.50,206825
27-Jan-16,16.65,18.23,16.51,17.27,432380
26-Jan-16,15.75,16.73,15.61,16.68,138870
25-Jan-16,15.57,15.93,15.46,15.63,75170
22-Jan-16,15.00,15.58,14.77,15.56,146867
21-Jan-16,14.45,14.98,14.19,14.75,61015
20-Jan-16,13.80,14.57,13.52,14.51,186206
19-Jan-16,14.31,14.72,13.98,14.08,116205
15-Jan-16,14.30,14.46,13.97,14.16,103644
14-Jan-16,14.31,14.88,13.97,14.60,62289
13-Jan-16,15.03,15.03,14.10,14.36,106247
12-Jan-16,15.16,15.16,14.63,15.04,105246
11-Jan-16,14.14,15.05,14.06,14.95,185598
8-Jan-16,15.10,15.10,13.95,13.99,130774
7-Jan-16,14.90,15.00,14.55,14.91,83582
6-Jan-16,14.52,15.00,14.29,14.96,92699
5-Jan-16,14.88,14.88,14.46,14.68,103732
4-Jan-16,14.51,14.94,14.29,14.73,105911
31-Dec-15,14.59,14.90,14.56,14.59,84572
30-Dec-15,14.96,15.05,14.50,14.57,149040
29-Dec-15,14.71,15.11,14.61,14.89,120858
28-Dec-15,14.56,14.93,14.30,14.74,151557
24-Dec-15,14.83,14.94,14.20,14.47,89024
23-Dec-15,13.96,14.63,13.80,14.54,217091
22-Dec-15,14.54,14.72,13.80,13.94,322147
21-Dec-15,14.50,14.80,14.45,14.69,127083
18-Dec-15,15.95,15.95,14.12,14.62,1468603
17-Dec-15,16.38,16.75,15.67,15.70,264452
16-Dec-15,16.43,16.84,16.18,16.36,219604
15-Dec-15,16.39,16.92,16.13,16.15,349867
14-Dec-15,16.45,16.45,15.84,15.95,62991
11-Dec-15,16.15,16.64,15.80,16.44,176871
10-Dec-15,16.10,16.27,15.90,16.20,115557
9-Dec-15,16.00,16.18,15.73,15.96,87413
8-Dec-15,16.00,16.40,15.66,15.94,109462
7-Dec-15,16.40,16.56,15.51,16.00,189778
4-Dec-15,15.46,16.97,15.15,15.98,209612
3-Dec-15,15.01,15.50,14.78,15.32,168814
2-Dec-15,15.68,16.49,14.97,15.04,216820
1-Dec-15,14.44,16.36,14.26,15.47,394277
30-Nov-15,14.59,14.85,13.75,14.35,191066
27-Nov-15,14.50,14.59,14.00,14.21,55981
25-Nov-15,14.48,14.52,14.25,14.33,69368
24-Nov-15,14.17,14.66,14.10,14.30,234294
23-Nov-15,14.33,15.20,13.80,14.16,573370
20-Nov-15,13.00,14.45,12.76,13.65,3342442
