﻿Date,Open,High,Low,Close,Volume
20-Jun-17,20.75,21.00,20.10,20.45,594913
19-Jun-17,20.40,20.90,20.30,20.75,624928
16-Jun-17,20.10,20.45,19.90,20.25,827391
15-Jun-17,20.60,21.50,20.10,20.45,642695
14-Jun-17,21.50,21.50,20.75,20.80,898729
13-Jun-17,21.55,21.75,21.40,21.55,449568
12-Jun-17,21.25,21.50,21.05,21.40,476272
9-Jun-17,21.50,21.65,21.22,21.25,486911
8-Jun-17,21.50,21.82,21.30,21.50,938967
7-Jun-17,20.95,21.80,20.80,21.60,1518142
6-Jun-17,20.70,21.09,20.52,20.95,535485
5-Jun-17,20.80,21.05,20.50,20.85,430493
2-Jun-17,20.80,21.00,20.55,20.85,556618
1-Jun-17,20.80,20.95,20.45,20.85,394581
31-May-17,20.80,20.90,20.25,20.75,535918
30-May-17,20.55,20.70,20.40,20.70,392109
26-May-17,20.50,20.80,20.34,20.55,950605
25-May-17,20.80,20.80,20.45,20.50,498793
24-May-17,20.55,20.80,20.55,20.80,471034
23-May-17,20.55,20.80,20.20,20.55,1574599
22-May-17,19.75,20.55,19.75,20.45,630493
19-May-17,20.10,20.18,19.70,19.70,759037
18-May-17,20.10,20.25,19.75,19.95,1052469
17-May-17,20.30,20.55,20.05,20.22,914502
16-May-17,20.80,20.90,20.45,20.65,801449
15-May-17,20.75,20.85,20.48,20.70,979743
12-May-17,20.45,20.84,20.20,20.70,839452
11-May-17,20.80,21.00,20.25,20.55,1090643
10-May-17,20.60,21.15,20.25,20.90,1483288
9-May-17,20.00,20.62,19.75,20.45,3036390
8-May-17,20.00,20.05,19.35,19.90,1588442
5-May-17,18.45,20.15,18.05,20.00,1279694
4-May-17,19.60,19.85,19.18,19.55,908018
3-May-17,19.15,19.65,18.95,19.55,996982
2-May-17,19.10,19.52,18.90,19.30,809918
1-May-17,19.20,19.35,18.75,19.15,949051
28-Apr-17,18.90,19.55,18.65,19.12,849893
27-Apr-17,19.60,19.68,18.60,19.25,890372
26-Apr-17,18.40,19.75,18.40,19.50,1243894
25-Apr-17,17.90,18.60,17.75,18.40,1574325
24-Apr-17,18.50,18.50,17.30,17.80,2341874
21-Apr-17,19.10,19.10,18.00,18.40,636677
20-Apr-17,18.95,19.25,18.55,19.10,467499
19-Apr-17,18.75,19.10,18.45,18.80,654551
18-Apr-17,18.70,18.80,18.02,18.60,533913
17-Apr-17,18.55,18.90,18.35,18.70,401133
13-Apr-17,19.05,19.08,18.35,18.50,265477
12-Apr-17,19.55,19.60,18.90,19.05,214854
11-Apr-17,19.25,19.70,19.05,19.60,395055
10-Apr-17,19.25,19.35,18.95,19.20,207881
7-Apr-17,19.20,19.30,19.10,19.20,290309
6-Apr-17,18.90,19.35,18.65,19.25,643361
5-Apr-17,19.20,19.30,18.62,18.80,469401
4-Apr-17,18.85,19.10,18.70,19.10,249833
3-Apr-17,18.80,18.95,18.60,18.88,273003
31-Mar-17,18.95,19.10,18.55,18.92,367648
30-Mar-17,18.75,19.05,18.45,18.95,205482
29-Mar-17,18.80,18.90,18.40,18.75,288744
28-Mar-17,17.90,18.90,17.75,18.90,671614
27-Mar-17,17.50,18.05,17.45,17.90,227557
24-Mar-17,17.65,18.05,17.50,17.70,210945
23-Mar-17,17.50,18.00,17.50,17.65,328100
22-Mar-17,17.60,18.00,17.40,17.55,294420
21-Mar-17,18.65,18.80,17.55,17.60,469483
20-Mar-17,18.80,18.90,18.50,18.65,197736
17-Mar-17,18.60,19.20,18.55,18.85,569919
16-Mar-17,19.80,19.85,18.50,18.60,547334
15-Mar-17,19.20,19.80,19.15,19.70,2034966
14-Mar-17,18.70,19.30,18.40,19.15,376173
13-Mar-17,18.05,19.00,18.05,18.70,443942
10-Mar-17,17.80,18.45,17.55,18.05,658520
9-Mar-17,18.15,18.28,17.45,17.75,680295
8-Mar-17,18.15,18.55,17.85,18.10,382355
7-Mar-17,18.00,18.10,17.80,18.00,435664
6-Mar-17,18.25,18.32,17.95,18.05,769524
3-Mar-17,17.70,18.30,17.70,18.20,1203096
2-Mar-17,17.20,17.75,17.10,17.70,524569
1-Mar-17,16.45,17.32,16.40,17.15,602983
28-Feb-17,16.15,16.40,15.95,16.30,292483
27-Feb-17,16.10,16.20,15.90,16.15,132583
24-Feb-17,15.90,16.25,15.90,16.10,139996
23-Feb-17,16.50,16.60,15.95,16.05,381042
22-Feb-17,16.35,16.65,16.25,16.40,146135
21-Feb-17,16.65,16.70,16.22,16.40,180224
17-Feb-17,16.40,16.55,16.20,16.55,168206
16-Feb-17,16.65,16.66,15.90,16.40,322505
15-Feb-17,15.90,16.80,15.90,16.60,600819
14-Feb-17,16.15,16.40,15.78,16.00,273017
13-Feb-17,16.15,16.35,16.00,16.25,281738
10-Feb-17,15.75,16.25,15.63,16.15,315126
9-Feb-17,15.55,15.72,15.40,15.60,97794
8-Feb-17,15.30,15.70,15.10,15.50,225023
7-Feb-17,15.60,15.85,15.30,15.40,213916
6-Feb-17,15.95,16.05,15.35,15.50,216829
3-Feb-17,15.70,16.15,15.65,16.00,457046
2-Feb-17,15.55,16.00,15.50,15.65,270715
1-Feb-17,15.55,15.80,15.45,15.60,287929
31-Jan-17,15.05,15.60,15.00,15.50,227825
30-Jan-17,15.35,15.35,14.90,15.10,196871
27-Jan-17,15.50,15.60,15.42,15.50,109169
26-Jan-17,15.95,16.20,15.45,15.50,190155
25-Jan-17,16.10,16.15,15.80,16.00,190793
24-Jan-17,15.40,16.05,15.40,15.95,223507
23-Jan-17,15.45,15.65,15.35,15.40,183875
20-Jan-17,15.55,15.70,15.35,15.50,193984
19-Jan-17,15.80,15.90,15.50,15.55,253729
18-Jan-17,15.50,16.20,15.40,15.80,443515
17-Jan-17,15.85,15.95,15.35,15.45,340825
13-Jan-17,16.25,16.50,15.90,16.00,239680
12-Jan-17,16.55,16.64,16.05,16.15,543598
11-Jan-17,16.60,16.75,16.20,16.70,469811
10-Jan-17,16.25,16.60,16.10,16.50,779186
9-Jan-17,16.20,16.45,15.65,16.10,891053
6-Jan-17,16.75,16.80,16.50,16.60,220185
5-Jan-17,16.85,17.15,16.40,16.65,218142
4-Jan-17,17.20,17.35,16.55,16.90,425836
3-Jan-17,17.10,17.50,16.55,17.05,490239
30-Dec-16,16.75,17.00,16.57,16.95,535403
29-Dec-16,16.60,16.85,16.45,16.80,345527
28-Dec-16,16.50,16.60,16.30,16.55,263590
27-Dec-16,16.50,16.65,16.35,16.45,180956
23-Dec-16,16.45,16.65,16.35,16.55,182606
22-Dec-16,16.75,16.80,16.25,16.50,236975
21-Dec-16,16.45,16.80,16.45,16.70,336190
20-Dec-16,16.35,16.65,16.30,16.55,269322
19-Dec-16,16.35,16.65,16.30,16.50,385496
16-Dec-16,16.50,16.65,16.25,16.45,640779
15-Dec-16,16.40,16.80,16.30,16.40,319617
14-Dec-16,16.30,16.60,16.23,16.45,230773
13-Dec-16,16.20,16.60,15.80,16.35,574852
12-Dec-16,16.65,16.65,15.95,16.00,375423
9-Dec-16,16.55,16.85,16.40,16.60,474915
8-Dec-16,16.55,16.85,16.45,16.55,490283
7-Dec-16,15.95,16.65,15.95,16.60,457620
6-Dec-16,15.85,16.05,15.63,15.95,484599
5-Dec-16,15.25,16.00,15.10,15.75,707675
2-Dec-16,15.15,16.20,14.85,15.20,1175939
1-Dec-16,13.75,15.25,13.65,15.25,1137962
30-Nov-16,13.45,13.75,13.25,13.75,517910
29-Nov-16,13.10,13.60,13.00,13.35,834234
28-Nov-16,13.40,13.50,13.05,13.20,498672
25-Nov-16,13.55,13.58,13.25,13.45,107480
23-Nov-16,13.50,13.80,13.30,13.60,325880
22-Nov-16,13.40,13.75,13.30,13.40,427197
21-Nov-16,13.55,13.80,13.25,13.35,336712
18-Nov-16,13.95,14.00,13.50,13.55,351090
17-Nov-16,13.25,13.90,13.15,13.85,518502
16-Nov-16,13.00,13.25,12.85,13.15,251725
15-Nov-16,12.80,13.10,12.60,13.00,497529
14-Nov-16,12.70,13.01,12.30,12.85,683037
11-Nov-16,11.95,12.70,11.80,12.60,559358
10-Nov-16,11.80,12.25,11.75,11.95,547291
9-Nov-16,11.15,11.85,11.10,11.65,335411
8-Nov-16,10.85,11.35,10.65,11.30,425095
7-Nov-16,10.95,11.20,10.75,10.80,367632
4-Nov-16,10.80,11.62,10.70,10.80,671663
3-Nov-16,11.50,11.60,10.95,11.05,598806
2-Nov-16,11.80,11.95,11.40,11.45,408268
1-Nov-16,12.05,12.30,11.70,11.80,284135
31-Oct-16,12.10,12.35,11.90,12.10,348372
28-Oct-16,12.00,12.35,12.00,12.10,210568
27-Oct-16,12.05,12.12,11.85,12.10,266356
26-Oct-16,12.05,12.15,11.85,12.00,301623
25-Oct-16,12.65,12.80,12.05,12.10,131651
24-Oct-16,12.50,12.80,12.35,12.55,113753
21-Oct-16,12.55,12.65,12.35,12.55,240414
20-Oct-16,12.75,12.85,12.55,12.70,307019
19-Oct-16,12.90,13.05,12.45,12.80,255364
18-Oct-16,13.05,13.10,12.75,12.80,299979
17-Oct-16,13.00,13.20,12.90,12.95,190279
14-Oct-16,13.35,13.55,12.86,13.15,370984
13-Oct-16,13.75,13.75,13.25,13.40,391807
12-Oct-16,13.95,14.05,13.78,13.85,250573
11-Oct-16,14.25,14.25,13.80,13.90,332092
10-Oct-16,14.05,14.35,14.05,14.30,370061
7-Oct-16,14.24,14.24,13.92,14.09,233274
6-Oct-16,13.95,14.25,13.78,14.18,429918
5-Oct-16,14.20,14.24,13.72,13.98,565901
4-Oct-16,14.13,14.37,14.07,14.17,439063
3-Oct-16,14.04,14.29,14.02,14.13,282534
30-Sep-16,14.19,14.47,13.95,14.06,765361
29-Sep-16,14.27,14.37,14.09,14.21,351384
28-Sep-16,14.52,14.72,14.19,14.34,469369
27-Sep-16,14.85,14.94,14.43,14.52,286879
26-Sep-16,14.66,15.20,14.54,14.89,527193
23-Sep-16,14.56,14.73,14.33,14.66,528041
22-Sep-16,14.15,14.66,13.98,14.62,723073
21-Sep-16,13.69,14.50,13.52,14.04,784811
20-Sep-16,13.90,14.45,13.31,13.61,1628893
19-Sep-16,14.42,14.67,13.74,13.84,4134600
16-Sep-16,14.36,14.43,14.10,14.25,266255
15-Sep-16,14.03,14.36,13.90,14.34,87990
14-Sep-16,13.95,14.13,13.88,13.99,73499
13-Sep-16,14.05,14.11,13.90,13.95,175900
12-Sep-16,13.90,14.11,13.90,14.09,203658
9-Sep-16,14.31,14.38,13.99,14.01,202525
8-Sep-16,14.51,14.60,14.30,14.38,137477
7-Sep-16,14.25,14.54,14.22,14.51,175401
6-Sep-16,14.26,14.41,14.05,14.20,157201
2-Sep-16,14.15,14.19,13.90,14.17,220212
1-Sep-16,13.93,14.19,13.79,14.11,208829
31-Aug-16,14.01,14.09,13.80,13.96,301184
30-Aug-16,13.99,14.18,13.73,14.00,512019
29-Aug-16,14.17,14.29,13.68,13.97,277844
26-Aug-16,13.86,14.16,13.81,14.10,208027
25-Aug-16,14.25,14.38,14.05,14.13,175071
24-Aug-16,14.34,14.39,14.23,14.29,74697
23-Aug-16,14.47,14.68,14.28,14.38,74617
22-Aug-16,14.29,14.60,14.22,14.35,176762
19-Aug-16,14.20,14.40,13.96,14.29,275543
18-Aug-16,13.63,14.00,13.52,14.00,302120
17-Aug-16,13.89,13.91,13.59,13.59,235139
16-Aug-16,13.99,14.00,13.70,13.89,120994
15-Aug-16,13.99,14.20,13.95,13.97,151668
12-Aug-16,13.98,14.09,13.56,13.79,253781
11-Aug-16,14.36,14.44,13.94,13.97,243142
10-Aug-16,14.49,14.50,14.24,14.32,155117
9-Aug-16,14.40,14.50,14.25,14.40,166756
8-Aug-16,14.50,15.00,14.00,14.32,345553
5-Aug-16,14.41,14.56,13.34,13.81,855612
4-Aug-16,14.35,14.69,14.35,14.48,212909
3-Aug-16,14.48,14.50,14.27,14.37,124608
2-Aug-16,14.39,14.59,14.25,14.47,192721
1-Aug-16,14.46,14.46,14.09,14.39,200457
29-Jul-16,14.50,14.60,14.42,14.45,155473
28-Jul-16,14.57,14.59,14.41,14.46,90235
27-Jul-16,14.52,14.60,14.39,14.54,89560
26-Jul-16,14.50,14.79,14.46,14.53,96137
25-Jul-16,14.54,14.59,14.37,14.51,120673
22-Jul-16,14.37,14.60,14.32,14.53,65174
21-Jul-16,14.49,14.64,14.28,14.41,92745
20-Jul-16,14.77,14.82,14.31,14.54,231162
19-Jul-16,14.67,14.85,14.62,14.78,72297
18-Jul-16,14.75,14.89,14.62,14.66,188139
15-Jul-16,14.93,14.94,14.70,14.81,118631
14-Jul-16,15.20,15.20,14.85,14.86,139202
13-Jul-16,15.24,15.24,14.99,15.09,104813
12-Jul-16,15.29,15.33,15.04,15.16,156974
11-Jul-16,15.11,15.36,14.98,15.22,161863
8-Jul-16,15.01,15.17,14.85,15.09,93597
7-Jul-16,15.02,15.12,14.70,14.86,130976
6-Jul-16,14.86,15.10,14.83,14.97,92526
5-Jul-16,15.32,15.60,14.82,14.97,134299
1-Jul-16,15.20,15.44,15.04,15.32,219629
30-Jun-16,14.82,15.23,14.78,15.20,314484
29-Jun-16,14.44,14.76,14.44,14.74,146301
28-Jun-16,14.13,14.34,14.00,14.31,182757
27-Jun-16,14.33,14.56,13.92,14.09,263679
24-Jun-16,13.93,14.67,13.45,14.54,753757
23-Jun-16,14.83,14.92,14.56,14.72,149308
22-Jun-16,14.75,14.90,14.69,14.70,107043
21-Jun-16,14.96,14.97,14.59,14.79,154556
20-Jun-16,14.49,15.09,14.44,14.93,199860
17-Jun-16,14.54,14.87,14.27,14.37,494940
16-Jun-16,14.81,14.88,14.49,14.61,411803
15-Jun-16,14.90,14.91,14.73,14.75,172425
14-Jun-16,14.90,15.14,14.34,14.80,310226
13-Jun-16,15.11,15.25,14.87,14.98,225392
10-Jun-16,15.13,15.27,14.86,15.12,177055
9-Jun-16,15.23,15.29,15.10,15.27,160842
8-Jun-16,15.31,15.36,15.14,15.22,153796
7-Jun-16,14.93,15.37,14.87,15.24,332631
6-Jun-16,14.93,14.93,14.72,14.87,154487
3-Jun-16,14.91,14.91,14.68,14.85,255660
2-Jun-16,14.84,15.31,14.77,14.82,370954
1-Jun-16,14.78,14.98,14.52,14.80,1070627
31-May-16,14.51,15.00,14.41,14.90,615740
27-May-16,14.13,14.40,14.13,14.40,115822
26-May-16,13.93,14.22,13.87,14.09,129984
25-May-16,13.88,14.22,13.82,13.95,173302
24-May-16,13.46,14.03,13.36,13.84,355463
23-May-16,13.65,13.68,13.28,13.32,224267
20-May-16,13.83,14.04,13.51,13.66,127222
19-May-16,13.80,13.99,13.49,13.74,114363
18-May-16,13.36,14.00,13.18,13.89,245030
17-May-16,13.87,13.93,13.19,13.37,200249
16-May-16,13.58,13.95,13.54,13.87,171977
13-May-16,13.77,13.95,13.36,13.60,258671
12-May-16,13.90,14.13,13.40,13.79,218513
11-May-16,13.99,14.00,13.75,13.82,325827
10-May-16,13.60,13.97,13.50,13.96,338636
9-May-16,13.53,13.70,13.08,13.60,261768
6-May-16,12.55,13.51,12.51,13.43,347317
5-May-16,12.96,13.31,12.80,13.15,249531
4-May-16,13.12,13.31,12.81,12.90,229369
3-May-16,13.34,13.43,12.89,13.21,223412
2-May-16,13.15,13.40,13.08,13.36,157462
29-Apr-16,13.28,13.30,12.97,13.11,241425
28-Apr-16,12.84,13.30,12.79,13.25,382039
27-Apr-16,12.85,12.99,12.55,12.78,149726
26-Apr-16,12.61,12.87,12.52,12.86,197195
25-Apr-16,12.67,12.68,12.44,12.61,219411
22-Apr-16,12.52,12.65,12.45,12.63,276715
21-Apr-16,12.59,12.68,12.33,12.54,326147
20-Apr-16,13.00,13.10,12.58,12.65,174019
19-Apr-16,12.90,13.05,12.82,12.95,341793
18-Apr-16,12.80,13.03,12.73,12.83,335119
15-Apr-16,12.47,12.78,12.47,12.72,244190
14-Apr-16,12.69,12.80,12.42,12.50,197779
13-Apr-16,12.74,13.21,12.37,12.67,338697
12-Apr-16,12.49,12.77,12.14,12.62,330217
11-Apr-16,12.21,12.52,12.11,12.50,349368
8-Apr-16,11.90,12.25,11.79,12.23,222939
7-Apr-16,11.89,12.02,11.61,11.84,256654
6-Apr-16,11.65,11.91,11.64,11.85,169331
5-Apr-16,11.39,11.77,11.34,11.70,179135
4-Apr-16,11.13,11.52,11.05,11.48,306693
1-Apr-16,11.41,11.48,11.12,11.16,176846
31-Mar-16,11.57,11.60,11.42,11.44,125325
30-Mar-16,11.60,11.65,11.39,11.60,151466
29-Mar-16,10.95,11.58,10.95,11.54,201468
28-Mar-16,10.87,11.20,10.78,11.01,160170
24-Mar-16,10.79,11.11,10.74,10.88,142274
23-Mar-16,10.85,10.93,10.57,10.87,185438
22-Mar-16,10.90,11.02,10.81,10.84,185982
21-Mar-16,11.00,11.25,10.90,10.95,305030
18-Mar-16,11.12,11.39,10.84,10.98,534311
17-Mar-16,11.03,11.27,10.94,11.00,383824
16-Mar-16,10.81,11.54,10.81,11.01,798020
15-Mar-16,10.84,10.99,10.42,10.80,314044
14-Mar-16,10.97,11.09,10.79,10.80,421413
11-Mar-16,11.06,11.15,10.72,10.86,366577
10-Mar-16,10.79,11.10,10.67,11.03,159793
9-Mar-16,10.59,10.94,10.43,10.77,102013
8-Mar-16,10.50,10.60,10.46,10.50,115799
7-Mar-16,10.56,11.00,10.49,10.60,300921
4-Mar-16,10.47,10.98,10.31,10.51,439923
3-Mar-16,10.60,10.66,10.29,10.50,197588
2-Mar-16,10.27,10.81,10.23,10.50,633579
1-Mar-16,10.06,10.25,9.50,10.21,2116898
29-Feb-16,9.89,10.25,9.89,10.01,209452
26-Feb-16,9.86,10.13,9.55,9.92,85784
25-Feb-16,9.69,10.22,9.29,9.87,64753
24-Feb-16,9.41,9.71,9.01,9.69,67682
23-Feb-16,9.67,9.87,9.49,9.53,77584
22-Feb-16,9.56,10.00,9.56,9.75,81907
19-Feb-16,9.58,10.02,9.47,9.57,61935
18-Feb-16,9.59,10.96,9.40,9.60,90068
17-Feb-16,9.42,9.73,9.35,9.65,139675
16-Feb-16,9.36,9.50,9.17,9.40,90429
12-Feb-16,9.37,9.45,9.14,9.23,124334
11-Feb-16,9.09,9.38,9.04,9.18,109843
10-Feb-16,9.25,9.50,9.22,9.25,125923
9-Feb-16,9.35,9.65,9.09,9.17,167329
8-Feb-16,9.39,9.51,8.94,9.46,217463
5-Feb-16,9.92,10.23,9.48,9.52,205351
4-Feb-16,10.04,10.14,9.98,9.95,115241
3-Feb-16,10.37,10.40,9.81,10.05,191986
2-Feb-16,10.25,10.48,10.08,10.33,244375
1-Feb-16,10.30,10.67,10.13,10.33,408700
29-Jan-16,10.32,10.55,10.19,10.32,223493
28-Jan-16,10.53,10.76,10.24,10.33,205201
27-Jan-16,10.57,10.69,10.42,10.48,105107
26-Jan-16,10.65,10.98,10.26,10.59,350547
25-Jan-16,10.56,10.85,10.56,10.64,120245
22-Jan-16,10.88,10.88,10.53,10.77,152939
21-Jan-16,10.43,10.80,9.60,10.65,223825
20-Jan-16,10.42,10.68,9.81,10.55,253760
19-Jan-16,10.45,10.69,10.05,10.56,168013
15-Jan-16,10.14,10.48,10.10,10.34,215097
14-Jan-16,10.65,10.65,10.19,10.38,192352
13-Jan-16,10.56,10.89,10.35,10.54,282009
12-Jan-16,10.78,10.82,10.26,10.54,290887
11-Jan-16,10.61,10.95,10.61,10.66,250286
8-Jan-16,10.69,11.03,10.61,10.66,277659
7-Jan-16,10.83,10.85,10.51,10.65,201821
6-Jan-16,10.95,11.25,10.84,11.10,109073
5-Jan-16,10.63,11.19,10.35,11.09,161126
4-Jan-16,10.85,10.91,10.37,10.59,216454
31-Dec-15,11.06,11.20,10.78,11.00,332738
30-Dec-15,11.35,11.40,10.93,11.10,142504
29-Dec-15,11.15,11.61,11.10,11.40,195224
28-Dec-15,11.19,11.33,10.87,11.23,200931
24-Dec-15,10.47,11.42,10.47,11.19,309613
23-Dec-15,10.25,10.45,10.14,10.36,83876
22-Dec-15,10.12,10.25,9.99,10.17,60185
21-Dec-15,10.36,10.70,9.79,10.10,495830
18-Dec-15,10.61,10.81,10.15,10.31,180468
17-Dec-15,10.00,10.68,9.94,10.57,202474
16-Dec-15,9.72,9.94,9.55,9.88,95966
15-Dec-15,9.70,9.86,9.51,9.62,73243
14-Dec-15,9.98,10.03,9.58,9.66,97311
11-Dec-15,10.03,10.43,9.82,10.00,116948
10-Dec-15,10.12,10.29,9.82,10.15,83119
9-Dec-15,10.27,10.43,9.81,10.23,101101
8-Dec-15,10.21,10.49,10.06,10.29,111545
7-Dec-15,10.28,10.71,10.12,10.23,198400
4-Dec-15,9.73,10.44,9.52,10.39,491680
3-Dec-15,9.48,9.87,9.02,9.74,125722
2-Dec-15,9.75,9.91,9.34,9.48,571379
1-Dec-15,9.73,9.83,9.50,9.75,85699
30-Nov-15,9.92,9.92,9.51,9.69,82583
27-Nov-15,9.29,9.84,8.91,9.79,73658
25-Nov-15,9.40,9.41,9.21,9.26,53867
24-Nov-15,8.97,9.43,8.91,9.24,131646
23-Nov-15,8.77,9.02,8.61,8.83,61237
20-Nov-15,8.77,8.90,8.47,8.82,179907
19-Nov-15,8.98,9.43,8.58,8.71,66053
18-Nov-15,8.75,8.96,8.70,8.94,89887
17-Nov-15,8.85,8.99,8.64,8.71,80863
16-Nov-15,9.12,9.17,8.80,8.87,113135
13-Nov-15,9.16,9.36,9.02,9.14,86106
12-Nov-15,9.55,9.77,9.08,9.21,86550
11-Nov-15,9.77,9.84,9.58,9.62,91508
10-Nov-15,9.63,9.93,9.32,9.73,97650
9-Nov-15,9.89,9.92,9.50,9.63,108549
6-Nov-15,9.77,10.02,9.67,9.89,102918
5-Nov-15,10.00,10.13,9.44,9.83,123718
4-Nov-15,10.01,10.20,9.97,10.05,200790
3-Nov-15,10.00,10.10,9.87,10.00,169886
2-Nov-15,10.00,10.21,9.90,10.03,198670
30-Oct-15,9.91,10.05,9.61,9.90,212695
29-Oct-15,9.60,10.32,9.55,9.82,368201
28-Oct-15,9.14,9.49,9.08,9.49,137467
27-Oct-15,8.89,9.25,8.49,9.13,290900
26-Oct-15,9.36,9.59,9.15,9.22,254996
23-Oct-15,9.20,9.50,9.17,9.40,266585
22-Oct-15,8.82,9.12,8.73,9.09,77659
21-Oct-15,8.94,9.00,8.53,8.74,102493
20-Oct-15,9.03,9.15,8.82,8.88,65930
19-Oct-15,9.40,9.47,9.03,9.08,110955
16-Oct-15,9.44,9.48,9.30,9.41,97884
15-Oct-15,9.45,9.49,9.29,9.41,199137
14-Oct-15,9.26,9.50,9.26,9.39,69598
13-Oct-15,9.29,9.37,9.18,9.29,244705
12-Oct-15,9.22,9.40,9.10,9.29,81231
9-Oct-15,9.24,9.49,9.14,9.19,153383
8-Oct-15,9.26,9.31,9.11,9.17,99536
7-Oct-15,9.09,9.30,9.00,9.26,145193
6-Oct-15,9.03,9.33,9.00,9.06,88725
5-Oct-15,9.25,9.33,8.98,9.00,164611
2-Oct-15,9.02,9.33,8.94,9.25,97638
1-Oct-15,9.08,9.24,8.93,9.06,95065
30-Sep-15,9.13,9.26,8.83,9.02,178056
29-Sep-15,8.80,9.15,8.80,9.02,135128
28-Sep-15,9.00,9.11,8.69,8.80,133438
25-Sep-15,9.43,9.45,8.87,9.05,193123
24-Sep-15,9.19,9.45,9.14,9.30,95464
23-Sep-15,9.29,9.40,9.14,9.22,78255
22-Sep-15,9.52,9.52,9.18,9.23,83883
21-Sep-15,9.35,9.66,9.29,9.50,84526
18-Sep-15,9.59,9.69,9.17,9.28,237566
17-Sep-15,9.44,9.89,9.39,9.77,455383
16-Sep-15,9.32,9.55,9.30,9.38,95408
15-Sep-15,9.23,9.32,9.14,9.29,59281
14-Sep-15,9.30,9.32,9.04,9.15,44363
11-Sep-15,9.12,9.32,9.00,9.25,115498
10-Sep-15,9.10,9.28,9.01,9.16,59752
9-Sep-15,9.47,9.53,9.00,9.06,199226
8-Sep-15,9.37,9.51,9.26,9.35,115781
4-Sep-15,9.27,9.43,9.15,9.21,45264
3-Sep-15,9.38,9.53,9.33,9.39,77587
2-Sep-15,9.40,9.53,9.31,9.37,142016
1-Sep-15,9.27,9.57,9.27,9.30,229593
31-Aug-15,9.11,9.73,9.11,9.42,167710
28-Aug-15,9.52,9.84,9.45,9.70,218977
27-Aug-15,9.32,9.73,9.12,9.50,135588
26-Aug-15,9.33,9.59,9.02,9.27,144021
25-Aug-15,9.36,9.36,8.90,9.09,91228
24-Aug-15,9.27,9.55,8.54,9.08,109365
21-Aug-15,9.19,9.72,9.19,9.60,160761
20-Aug-15,9.65,9.65,9.35,9.36,138766
19-Aug-15,9.69,9.77,9.56,9.70,126922
18-Aug-15,9.79,9.96,9.58,9.72,194368
17-Aug-15,8.82,10.04,8.82,9.79,323006
14-Aug-15,9.30,9.40,8.74,8.80,268860
13-Aug-15,9.30,9.43,9.06,9.35,65216
12-Aug-15,9.23,9.49,8.99,9.26,224595
11-Aug-15,9.39,9.47,8.99,9.28,133879
10-Aug-15,9.25,9.45,9.14,9.41,215040
7-Aug-15,8.93,9.26,8.93,9.15,178790
6-Aug-15,9.00,9.61,8.82,8.98,387876
5-Aug-15,8.86,8.90,8.63,8.76,146997
4-Aug-15,8.45,8.87,8.45,8.78,55992
3-Aug-15,8.42,8.55,8.36,8.41,115881
31-Jul-15,8.31,8.95,7.92,8.45,129257
30-Jul-15,8.06,8.36,8.02,8.29,77255
29-Jul-15,8.27,8.33,8.05,8.11,56757
28-Jul-15,8.37,8.98,7.93,8.27,120148
27-Jul-15,8.74,8.75,8.27,8.37,124108
24-Jul-15,8.64,8.82,8.50,8.78,85712
23-Jul-15,9.11,9.24,8.69,8.71,108394
22-Jul-15,8.84,9.25,8.80,8.98,72615
21-Jul-15,8.83,9.02,8.62,8.83,151632
20-Jul-15,8.88,8.88,8.53,8.77,95445
17-Jul-15,9.06,9.07,8.68,8.79,91352
16-Jul-15,9.09,9.20,8.93,9.02,72711
15-Jul-15,9.14,9.22,8.90,9.02,93913
14-Jul-15,8.84,9.25,8.75,9.18,170030
13-Jul-15,8.95,9.19,8.80,8.89,212229
10-Jul-15,8.35,8.99,8.35,8.95,272723
9-Jul-15,8.07,8.40,7.98,8.33,393182
8-Jul-15,7.89,8.21,7.82,8.01,1220116
7-Jul-15,8.25,8.25,7.80,8.05,193383
6-Jul-15,7.83,8.15,7.66,8.13,231868
2-Jul-15,7.96,8.06,7.56,7.83,158561
1-Jul-15,7.84,8.00,7.69,7.91,105976
30-Jun-15,7.92,7.92,7.40,7.82,148496
29-Jun-15,7.83,8.04,7.63,7.91,139896
26-Jun-15,7.93,7.99,7.50,7.76,3562981
25-Jun-15,7.70,8.00,7.44,7.96,193055
24-Jun-15,7.49,7.61,7.35,7.45,111006
23-Jun-15,7.75,7.75,7.35,7.52,189506
22-Jun-15,7.73,8.05,7.35,7.69,178661
19-Jun-15,7.90,7.92,7.63,7.79,117356
18-Jun-15,7.78,7.89,7.52,7.76,95745
17-Jun-15,7.98,7.99,7.76,7.83,101206
16-Jun-15,7.96,8.05,7.79,7.99,59237
15-Jun-15,7.84,8.07,7.72,7.92,85647
12-Jun-15,8.21,8.22,7.80,7.88,51927
11-Jun-15,7.61,8.07,7.51,7.90,64771
10-Jun-15,7.77,7.77,7.42,7.61,143572
9-Jun-15,8.09,8.09,7.63,7.73,134633
8-Jun-15,8.25,8.25,8.02,8.06,120741
5-Jun-15,8.22,8.34,8.17,8.25,94093
4-Jun-15,8.44,8.52,8.13,8.28,94849
3-Jun-15,8.23,8.52,8.23,8.49,80724
2-Jun-15,8.44,8.50,8.13,8.20,120411
1-Jun-15,8.10,8.55,8.00,8.37,168622
29-May-15,8.25,8.53,8.10,8.16,89899
28-May-15,8.55,8.55,8.24,8.31,86020
27-May-15,8.75,8.75,8.32,8.52,182437
26-May-15,8.24,8.76,8.18,8.73,151505
22-May-15,8.10,8.27,8.05,8.16,110285
21-May-15,8.25,8.26,7.99,8.16,111757
20-May-15,8.28,8.45,8.06,8.20,116963
19-May-15,8.07,8.34,7.99,8.26,397453
18-May-15,8.00,8.09,7.72,8.08,164796
15-May-15,7.90,8.05,7.50,8.00,1101215
14-May-15,7.53,7.98,7.49,7.87,428265
13-May-15,7.12,7.54,7.10,7.53,164780
12-May-15,7.02,7.21,6.90,7.12,178874
11-May-15,6.90,7.15,6.90,7.08,108973
8-May-15,7.01,7.20,7.00,7.09,66210
7-May-15,7.05,7.14,6.99,6.99,96227
6-May-15,7.10,7.19,6.99,7.06,95423
5-May-15,7.05,7.12,6.92,7.05,72460
4-May-15,7.10,7.12,7.01,7.09,64170
1-May-15,7.00,7.16,6.92,7.10,89431
30-Apr-15,7.00,7.06,6.87,7.05,66585
29-Apr-15,6.83,7.10,6.80,7.00,65274
28-Apr-15,6.95,7.09,6.75,6.91,159600
27-Apr-15,7.19,7.19,6.98,7.00,89037
24-Apr-15,7.30,7.40,6.93,7.00,95838
23-Apr-15,7.50,7.69,7.17,7.20,129697
22-Apr-15,7.23,7.50,7.16,7.50,77745
21-Apr-15,7.29,7.49,7.01,7.20,82947
20-Apr-15,7.00,7.19,6.88,7.19,203889
17-Apr-15,7.00,7.00,6.83,6.91,76604
16-Apr-15,6.80,7.03,6.80,7.00,106765
15-Apr-15,6.63,6.90,6.40,6.84,170478
14-Apr-15,6.64,6.93,6.55,6.62,380295
13-Apr-15,6.30,6.65,6.24,6.64,266441
10-Apr-15,6.21,6.42,6.13,6.33,181394
9-Apr-15,6.17,6.17,5.95,6.14,150635
8-Apr-15,5.99,6.11,5.85,6.08,76726
7-Apr-15,5.80,6.00,5.55,5.91,285045
6-Apr-15,5.16,5.44,5.16,5.34,70889
2-Apr-15,5.11,5.66,5.05,5.25,576761
1-Apr-15,5.00,5.15,5.00,5.12,283430
31-Mar-15,5.00,5.06,4.99,5.03,17750
30-Mar-15,5.12,5.12,4.99,5.04,46538
27-Mar-15,5.00,5.12,4.99,5.12,19245
26-Mar-15,4.88,5.09,4.88,5.04,55850
25-Mar-15,4.97,5.10,4.85,4.95,67036
24-Mar-15,4.93,5.34,4.93,5.02,176677
23-Mar-15,4.81,5.01,4.69,4.92,55703
20-Mar-15,4.57,4.86,4.57,4.83,112594
19-Mar-15,4.82,4.95,4.56,4.61,80649
18-Mar-15,5.02,5.10,4.53,4.73,86814
17-Mar-15,4.93,5.22,4.83,5.08,571936
16-Mar-15,5.13,5.14,4.88,5.00,105598
13-Mar-15,5.36,5.36,4.88,5.11,102450
12-Mar-15,5.47,5.47,5.10,5.36,147462
11-Mar-15,5.56,5.64,5.36,5.43,165703
10-Mar-15,5.10,5.68,5.08,5.55,169895
9-Mar-15,5.00,5.14,4.99,5.14,116541
6-Mar-15,4.96,5.10,4.95,5.00,65577
5-Mar-15,4.77,5.17,4.60,4.99,107246
4-Mar-15,4.68,4.88,4.61,4.78,138106
3-Mar-15,4.55,4.80,4.55,4.66,137656
2-Mar-15,4.62,4.65,4.45,4.51,85179
27-Feb-15,4.60,4.65,4.52,4.60,70585
26-Feb-15,4.50,4.61,4.39,4.55,71255
25-Feb-15,4.51,4.60,4.36,4.50,152305
24-Feb-15,4.50,4.65,4.40,4.65,10956
23-Feb-15,4.41,4.50,4.41,4.50,15193
20-Feb-15,4.49,4.57,4.32,4.55,38237
19-Feb-15,4.10,4.50,4.05,4.50,117291
18-Feb-15,4.19,4.20,4.08,4.13,75113
17-Feb-15,4.25,4.25,4.14,4.25,22946
13-Feb-15,4.17,4.20,4.12,4.20,8321
12-Feb-15,4.21,4.25,4.12,4.19,49442
11-Feb-15,4.16,4.21,4.13,4.16,36729
10-Feb-15,4.19,4.24,4.05,4.16,130055
9-Feb-15,4.15,4.18,4.11,4.18,3855
6-Feb-15,4.20,4.20,4.10,4.12,31333
5-Feb-15,3.93,4.15,3.92,4.15,17737
4-Feb-15,3.92,3.93,3.89,3.89,2647
3-Feb-15,4.03,4.03,3.89,3.89,1669
2-Feb-15,3.93,3.95,3.90,3.91,6149
30-Jan-15,3.97,4.09,3.96,3.96,2675
29-Jan-15,3.96,3.97,3.89,3.97,4700
28-Jan-15,4.04,4.04,4.02,4.02,400
27-Jan-15,4.00,4.05,4.00,4.00,2939
26-Jan-15,3.98,4.04,3.91,3.98,4817
23-Jan-15,4.00,4.02,3.93,4.02,13477
22-Jan-15,4.10,4.13,4.01,4.01,1628
21-Jan-15,4.02,4.08,3.92,4.03,3073
20-Jan-15,3.91,4.19,3.81,4.18,2450
16-Jan-15,4.15,4.19,3.92,4.19,8163
15-Jan-15,4.09,4.14,3.88,4.13,5250
14-Jan-15,4.17,4.19,4.06,4.10,5505
13-Jan-15,4.20,4.20,4.06,4.20,5895
12-Jan-15,4.07,4.20,4.07,4.20,5749
9-Jan-15,4.18,4.18,4.18,4.18,100
8-Jan-15,4.23,4.24,4.16,4.20,4448
7-Jan-15,4.24,4.29,4.12,4.29,22335
6-Jan-15,4.24,4.25,4.00,4.07,8974
5-Jan-15,3.90,4.28,3.88,4.25,15646
2-Jan-15,4.24,4.24,3.88,4.04,2153
31-Dec-14,4.03,4.18,3.92,4.05,28207
30-Dec-14,4.31,4.31,4.02,4.14,12194
29-Dec-14,4.21,4.31,3.80,4.24,13406
26-Dec-14,4.30,4.30,4.07,4.21,9078
24-Dec-14,4.32,4.38,4.01,4.38,21290
23-Dec-14,4.21,4.40,4.21,4.33,9923
22-Dec-14,4.19,4.35,4.19,4.34,123547
19-Dec-14,4.30,4.30,4.14,4.24,145407
18-Dec-14,4.25,4.30,4.11,4.30,17027
17-Dec-14,4.22,4.24,4.01,4.24,16860
16-Dec-14,4.17,4.25,4.06,4.25,19253
15-Dec-14,4.09,4.26,3.98,4.15,24693
12-Dec-14,4.05,4.09,4.00,4.05,7513
11-Dec-14,4.07,4.09,4.00,4.08,5944
10-Dec-14,4.10,4.16,4.05,4.05,16397
9-Dec-14,4.25,4.27,4.07,4.11,22362
8-Dec-14,4.20,4.20,4.02,4.14,48802
5-Dec-14,4.27,4.27,4.17,4.24,8653
4-Dec-14,4.28,4.28,4.08,4.26,23291
3-Dec-14,4.06,4.28,4.00,4.28,6440
2-Dec-14,4.17,4.28,4.04,4.27,9781
1-Dec-14,4.00,4.31,4.00,4.18,7560
28-Nov-14,4.14,4.14,4.14,4.14,100
26-Nov-14,4.05,4.20,4.02,4.14,9527
25-Nov-14,4.30,4.30,4.06,4.22,3211
24-Nov-14,4.24,4.31,4.20,4.31,1900
21-Nov-14,4.25,4.30,4.17,4.30,11664
20-Nov-14,4.15,4.21,4.15,4.21,4948
19-Nov-14,4.18,4.25,4.18,4.20,4904
18-Nov-14,4.27,4.30,4.16,4.25,21054
17-Nov-14,4.31,4.31,4.21,4.26,7156
14-Nov-14,4.33,4.33,4.11,4.32,21089
13-Nov-14,4.25,4.40,4.25,4.31,18909
12-Nov-14,4.22,4.33,4.22,4.27,74338
11-Nov-14,4.21,4.28,4.20,4.20,6462
10-Nov-14,4.22,4.22,4.20,4.20,2771
7-Nov-14,4.21,4.29,4.20,4.24,79440
6-Nov-14,4.25,4.29,4.21,4.24,34136
5-Nov-14,4.20,4.30,4.20,4.27,27163
4-Nov-14,4.20,4.23,4.20,4.20,39237
3-Nov-14,4.18,4.25,4.11,4.24,34832
31-Oct-14,4.15,4.15,4.06,4.12,2515
30-Oct-14,4.03,4.15,4.03,4.07,6021
29-Oct-14,4.07,4.12,4.04,4.04,2510
28-Oct-14,3.97,4.15,3.97,4.15,18153
27-Oct-14,4.04,4.21,4.04,4.15,6735
24-Oct-14,4.10,4.10,4.01,4.10,28573
23-Oct-14,4.09,4.14,4.04,4.04,41199
22-Oct-14,4.03,4.11,3.93,4.06,44358
21-Oct-14,3.92,4.08,3.92,4.01,187361
20-Oct-14,3.97,4.08,3.91,4.04,8489
17-Oct-14,4.04,4.05,3.94,4.00,11790
16-Oct-14,3.86,4.03,3.86,3.96,7600
15-Oct-14,3.75,4.05,3.75,4.00,88170
14-Oct-14,4.00,4.02,3.78,4.00,33372
13-Oct-14,4.00,4.00,3.90,3.98,16086
10-Oct-14,3.99,4.06,3.95,4.00,12245
9-Oct-14,4.06,4.11,4.00,4.10,115033
8-Oct-14,4.22,4.26,3.95,4.25,94120
7-Oct-14,3.95,4.05,3.94,4.00,15162
6-Oct-14,3.90,4.16,3.77,4.13,14260
3-Oct-14,4.00,4.29,3.91,4.15,38348
2-Oct-14,4.08,4.27,3.74,4.27,32502
1-Oct-14,4.21,4.21,4.03,4.10,105903
30-Sep-14,4.14,4.25,4.00,4.21,26059
29-Sep-14,4.39,4.39,4.00,4.23,138666
26-Sep-14,4.00,4.40,4.00,4.40,161486
25-Sep-14,4.35,4.44,3.80,4.00,29760
24-Sep-14,3.70,4.34,3.61,4.34,94422
23-Sep-14,4.45,4.45,3.90,4.26,81702
22-Sep-14,4.75,4.75,4.10,4.35,21886
