﻿Date,Open,High,Low,Close,Volume
20-Jun-17,41.11,42.73,40.92,41.79,490505
19-Jun-17,40.53,41.29,39.68,41.17,795158
16-Jun-17,40.64,40.94,40.18,40.55,503373
15-Jun-17,40.68,41.43,40.26,40.99,289489
14-Jun-17,41.35,41.77,40.64,40.97,392257
13-Jun-17,39.35,41.56,39.35,41.09,549712
12-Jun-17,40.54,40.58,38.32,39.22,717520
9-Jun-17,40.59,42.61,40.11,40.99,762003
8-Jun-17,39.43,40.72,39.27,40.68,377743
7-Jun-17,39.19,39.59,38.83,39.44,534978
6-Jun-17,37.52,39.27,37.26,39.02,631009
5-Jun-17,40.85,40.85,37.51,37.70,1062978
2-Jun-17,41.33,41.89,40.44,40.99,790962
1-Jun-17,40.52,41.74,40.43,41.26,434976
31-May-17,40.42,41.17,40.26,40.71,573014
30-May-17,40.00,40.59,39.69,40.52,445673
26-May-17,40.00,40.32,39.50,39.95,304937
25-May-17,40.27,40.32,39.53,39.92,357514
24-May-17,39.13,40.70,39.05,40.03,600262
23-May-17,37.27,39.08,37.02,39.01,866947
22-May-17,36.65,37.56,36.59,37.12,656578
19-May-17,37.25,37.40,36.51,36.83,519656
18-May-17,37.19,37.98,36.80,37.29,755533
17-May-17,40.07,40.07,37.04,37.30,1040153
16-May-17,40.30,40.54,38.83,40.52,513129
15-May-17,39.55,40.49,39.55,40.14,521925
12-May-17,40.90,41.08,39.48,39.53,627523
11-May-17,42.37,42.77,40.92,40.95,496420
10-May-17,41.13,43.00,40.67,42.51,787043
9-May-17,40.83,41.28,39.88,41.03,702145
8-May-17,42.27,42.98,40.68,40.77,803540
5-May-17,42.75,43.25,40.57,41.69,1465836
4-May-17,42.70,45.00,42.13,42.61,3579439
3-May-17,47.74,48.39,46.53,47.62,1089991
2-May-17,48.20,48.89,47.50,48.18,372823
1-May-17,47.53,48.30,47.51,48.17,331353
28-Apr-17,47.41,47.91,47.15,47.53,217939
27-Apr-17,46.94,47.68,46.50,47.36,229863
26-Apr-17,46.67,47.05,46.33,46.87,291543
25-Apr-17,46.66,47.14,46.42,46.60,265771
24-Apr-17,46.40,46.69,45.19,46.44,341245
21-Apr-17,45.35,45.89,44.94,45.63,419684
20-Apr-17,44.30,45.91,44.21,45.33,384452
19-Apr-17,43.39,44.45,43.27,44.16,541342
18-Apr-17,44.53,44.53,42.23,43.26,984074
17-Apr-17,44.08,45.84,43.07,44.57,1152344
13-Apr-17,47.50,47.50,43.50,44.28,1301037
12-Apr-17,48.84,48.84,47.36,47.92,533959
11-Apr-17,47.46,49.04,47.10,48.86,517347
10-Apr-17,49.47,50.50,47.30,47.58,1370489
7-Apr-17,50.55,51.51,50.09,51.50,322355
6-Apr-17,50.33,50.57,49.39,50.55,350251
5-Apr-17,52.22,52.39,50.06,50.45,396642
4-Apr-17,52.24,52.48,51.72,52.00,343165
3-Apr-17,51.32,52.30,51.10,52.23,333747
31-Mar-17,51.05,52.32,50.99,51.30,439133
30-Mar-17,50.30,51.74,49.76,51.27,384708
29-Mar-17,50.27,51.30,50.12,50.24,392841
28-Mar-17,51.13,51.46,49.99,50.25,298537
27-Mar-17,49.79,51.09,49.20,50.79,530501
24-Mar-17,49.00,50.44,49.00,50.29,384413
23-Mar-17,48.41,49.36,47.94,48.90,369892
22-Mar-17,48.04,48.50,47.23,48.26,317666
21-Mar-17,48.76,49.27,47.72,47.97,361019
20-Mar-17,49.06,49.36,47.50,48.40,293041
17-Mar-17,47.66,49.38,47.02,48.89,918078
16-Mar-17,46.43,48.60,46.10,47.76,924894
15-Mar-17,44.56,46.27,44.56,45.71,450970
14-Mar-17,44.55,44.90,43.65,44.31,376159
13-Mar-17,45.80,46.28,44.97,45.01,577326
10-Mar-17,45.72,46.33,45.36,46.02,718818
9-Mar-17,42.40,45.69,42.31,45.54,717641
8-Mar-17,44.00,44.20,42.13,42.43,608690
7-Mar-17,44.44,44.70,43.62,44.07,451712
6-Mar-17,44.28,45.57,44.00,44.88,534714
3-Mar-17,46.72,47.22,44.40,44.71,1554750
2-Mar-17,51.91,52.49,47.03,47.70,2057963
1-Mar-17,45.93,46.50,44.58,45.79,889047
28-Feb-17,46.62,47.50,45.41,45.50,685434
27-Feb-17,46.05,46.64,45.84,46.30,329118
24-Feb-17,44.62,46.32,43.50,46.19,462423
23-Feb-17,46.06,46.16,44.13,44.88,480700
22-Feb-17,46.27,46.82,45.60,46.10,221370
21-Feb-17,45.70,46.06,44.98,45.60,259449
17-Feb-17,45.49,45.75,44.90,45.62,205719
16-Feb-17,45.92,46.15,45.08,45.44,276388
15-Feb-17,45.98,46.43,45.60,45.77,278528
14-Feb-17,44.77,46.09,44.62,45.98,335599
13-Feb-17,44.86,45.24,44.62,44.67,255257
10-Feb-17,45.13,45.35,44.59,44.59,304509
9-Feb-17,45.50,45.72,44.97,45.08,423407
8-Feb-17,44.33,45.26,43.95,45.10,425567
7-Feb-17,44.08,44.63,43.60,44.33,537695
6-Feb-17,43.60,44.11,42.35,43.96,513775
3-Feb-17,43.00,43.77,43.00,43.59,501028
2-Feb-17,41.19,42.95,41.01,42.83,654447
1-Feb-17,41.35,41.44,40.82,41.11,515368
31-Jan-17,38.20,41.42,38.19,41.22,1305748
30-Jan-17,38.52,38.60,37.51,38.05,294056
27-Jan-17,39.14,39.33,38.58,38.81,247333
26-Jan-17,39.03,39.05,38.41,38.99,578874
25-Jan-17,38.80,39.21,38.55,38.99,393289
24-Jan-17,38.45,38.81,37.85,38.52,370242
23-Jan-17,38.38,38.78,37.82,38.00,394759
20-Jan-17,38.14,38.50,37.76,38.44,357800
19-Jan-17,38.87,38.94,37.96,38.13,333178
18-Jan-17,39.00,39.26,38.41,38.73,267636
17-Jan-17,39.47,39.58,38.30,38.56,450412
13-Jan-17,40.06,41.00,39.36,39.48,805270
12-Jan-17,38.65,40.06,38.45,39.97,651023
11-Jan-17,38.40,39.13,37.28,38.88,519137
10-Jan-17,38.50,38.74,37.40,38.21,637855
9-Jan-17,36.65,38.95,36.55,38.35,1235615
6-Jan-17,35.62,36.43,34.91,36.32,940762
5-Jan-17,34.27,34.45,33.53,33.61,264400
4-Jan-17,33.89,34.44,33.18,34.20,479949
3-Jan-17,34.82,34.84,33.48,33.72,344473
30-Dec-16,34.66,34.86,34.09,34.30,361739
29-Dec-16,35.12,35.49,34.32,34.60,330167
28-Dec-16,35.49,36.00,35.01,35.08,326213
27-Dec-16,35.60,35.83,34.28,35.42,479904
23-Dec-16,33.94,35.12,33.91,34.99,426544
22-Dec-16,33.77,34.18,33.22,33.93,313656
21-Dec-16,34.27,34.49,33.52,33.78,266134
20-Dec-16,34.17,34.45,33.74,34.19,219790
19-Dec-16,34.11,34.35,34.03,34.12,375263
16-Dec-16,34.20,34.50,33.23,34.00,771539
15-Dec-16,33.73,34.23,33.43,34.02,347843
14-Dec-16,34.23,34.45,33.16,33.81,461861
13-Dec-16,32.90,34.34,32.90,34.10,1137964
12-Dec-16,32.82,33.13,32.09,33.01,401723
9-Dec-16,33.59,34.01,32.78,33.15,486699
8-Dec-16,34.14,34.14,33.05,33.56,584235
7-Dec-16,32.76,34.68,32.63,34.27,522893
6-Dec-16,32.19,33.01,31.36,32.99,419876
5-Dec-16,32.30,32.60,31.89,32.15,417459
2-Dec-16,30.57,32.86,30.57,32.04,444122
1-Dec-16,31.21,31.47,30.25,30.61,418862
30-Nov-16,31.27,31.38,30.76,31.21,286491
29-Nov-16,31.37,32.00,31.15,31.21,198539
28-Nov-16,32.57,32.70,31.24,31.35,246308
25-Nov-16,33.10,33.10,32.49,32.70,78718
23-Nov-16,32.48,33.33,32.46,32.99,185945
22-Nov-16,32.58,32.93,32.03,32.72,332425
21-Nov-16,33.35,33.59,32.35,32.59,223375
18-Nov-16,33.70,33.81,33.04,33.19,279286
17-Nov-16,33.48,34.44,33.32,33.65,367168
16-Nov-16,33.83,34.32,33.00,33.24,380916
15-Nov-16,33.23,34.27,33.10,33.90,422507
14-Nov-16,34.26,34.35,33.14,33.78,1283740
11-Nov-16,34.31,34.70,28.72,34.01,2709256
10-Nov-16,35.38,35.53,34.44,34.78,519187
9-Nov-16,32.84,35.48,32.84,35.17,645374
8-Nov-16,33.03,33.99,32.67,33.59,320983
7-Nov-16,32.98,33.80,32.97,33.64,331050
4-Nov-16,31.43,32.65,31.20,32.14,231423
3-Nov-16,33.12,33.15,31.50,31.54,339772
2-Nov-16,34.10,34.86,33.03,33.13,563702
1-Nov-16,33.47,33.74,32.70,33.18,256845
31-Oct-16,32.65,33.43,32.04,33.40,344015
28-Oct-16,33.63,33.77,31.67,32.65,606177
27-Oct-16,35.31,35.35,33.63,33.70,370235
26-Oct-16,34.84,34.92,33.45,34.52,801550
25-Oct-16,36.08,36.70,35.60,35.63,450826
24-Oct-16,35.00,36.16,35.00,36.08,415153
21-Oct-16,34.26,34.98,34.10,34.88,343344
20-Oct-16,34.50,35.38,34.06,34.68,359388
19-Oct-16,35.23,35.46,34.21,34.52,324233
18-Oct-16,35.87,36.22,35.12,35.27,457186
17-Oct-16,35.33,36.00,34.67,35.50,382606
14-Oct-16,36.00,36.17,35.60,35.62,171257
13-Oct-16,34.91,35.97,33.54,35.73,498051
12-Oct-16,36.33,36.48,35.08,35.78,560983
11-Oct-16,37.99,37.99,36.01,36.16,517018
10-Oct-16,38.28,38.32,37.60,37.95,369960
7-Oct-16,38.80,38.80,37.27,38.17,527690
6-Oct-16,38.61,39.02,38.31,38.68,258578
5-Oct-16,38.47,38.91,38.31,38.73,218228
4-Oct-16,38.35,38.51,37.62,38.33,429165
3-Oct-16,37.90,38.49,37.42,38.48,333692
30-Sep-16,37.80,38.33,37.64,37.74,315183
29-Sep-16,39.17,39.17,37.19,37.57,507911
28-Sep-16,39.25,39.40,38.64,39.25,350544
27-Sep-16,38.13,39.29,38.04,39.26,395167
26-Sep-16,38.97,39.00,37.60,38.24,336619
23-Sep-16,39.00,39.82,38.95,39.15,365535
22-Sep-16,38.08,39.06,37.85,38.95,553929
21-Sep-16,37.25,37.91,37.06,37.84,484502
20-Sep-16,37.09,37.50,36.87,37.17,500433
19-Sep-16,37.72,37.97,36.75,36.99,675097
16-Sep-16,37.37,37.53,36.26,37.30,931555
15-Sep-16,35.20,37.75,35.15,37.42,1464453
14-Sep-16,34.00,35.13,33.89,35.12,1154064
13-Sep-16,33.64,34.25,33.23,34.14,983659
12-Sep-16,32.06,33.73,32.02,33.68,1067783
9-Sep-16,31.39,32.80,31.39,32.05,646911
8-Sep-16,30.99,31.74,30.40,31.69,408058
7-Sep-16,31.32,31.47,30.69,30.99,464745
6-Sep-16,30.85,31.52,30.79,31.26,549478
2-Sep-16,30.01,30.90,29.93,30.69,563987
1-Sep-16,29.90,30.29,29.68,30.07,387008
31-Aug-16,30.09,30.27,29.67,29.84,234359
30-Aug-16,30.00,30.33,29.83,30.00,378966
29-Aug-16,29.83,30.25,29.69,30.02,352436
26-Aug-16,29.14,29.95,29.06,29.76,535688
25-Aug-16,29.75,29.92,28.26,29.02,1254043
24-Aug-16,31.00,31.29,29.76,29.81,440134
23-Aug-16,30.97,31.53,30.89,30.97,244268
22-Aug-16,29.94,31.28,29.70,30.90,640053
19-Aug-16,31.38,31.38,30.00,30.35,727993
18-Aug-16,31.55,31.82,31.19,31.64,246593
17-Aug-16,31.23,31.57,30.82,31.49,362276
16-Aug-16,33.50,33.65,31.08,31.37,805309
15-Aug-16,33.64,34.21,33.50,33.68,236747
12-Aug-16,33.34,33.95,33.31,33.72,178955
11-Aug-16,33.66,34.11,33.41,33.43,419506
10-Aug-16,33.69,33.97,33.37,33.66,450119
9-Aug-16,33.67,34.21,32.99,33.59,437194
8-Aug-16,33.04,33.65,32.73,33.63,506928
5-Aug-16,33.19,33.50,32.74,33.04,357467
4-Aug-16,32.65,33.71,32.40,33.23,596845
3-Aug-16,33.57,33.80,30.50,32.90,1592577
2-Aug-16,36.50,36.50,32.73,34.21,1928460
1-Aug-16,34.43,34.48,32.88,33.93,713134
29-Jul-16,34.83,35.36,34.45,34.96,280729
28-Jul-16,35.15,35.37,34.63,34.75,165047
27-Jul-16,35.00,35.11,34.67,35.08,327112
26-Jul-16,34.15,35.00,34.08,35.00,382946
25-Jul-16,34.00,34.52,33.86,34.26,284252
22-Jul-16,33.91,34.18,33.55,34.11,186066
21-Jul-16,32.77,34.38,32.77,33.80,573112
20-Jul-16,32.77,33.37,32.72,32.85,309989
19-Jul-16,33.24,33.90,32.43,32.78,480524
18-Jul-16,31.36,32.97,31.20,32.87,602398
15-Jul-16,31.00,31.48,30.38,31.45,342171
14-Jul-16,30.19,31.02,29.89,30.85,263348
13-Jul-16,29.78,30.70,29.52,30.04,633566
12-Jul-16,29.20,30.05,28.98,29.71,529658
11-Jul-16,29.33,29.52,29.15,29.16,198590
8-Jul-16,28.98,29.79,28.98,29.24,266856
7-Jul-16,29.11,29.31,28.70,28.96,135846
6-Jul-16,28.80,29.33,28.64,28.95,183075
5-Jul-16,29.19,29.29,28.85,28.88,114491
1-Jul-16,29.07,29.49,28.78,29.31,219298
30-Jun-16,28.88,29.35,28.61,29.16,315903
29-Jun-16,28.06,28.81,27.98,28.78,356962
28-Jun-16,27.76,28.08,27.59,27.86,234835
27-Jun-16,28.02,28.02,26.96,27.30,458403
24-Jun-16,28.36,29.21,27.84,28.17,1376560
23-Jun-16,29.59,29.69,28.59,28.75,272057
22-Jun-16,29.39,29.77,29.20,29.32,236687
21-Jun-16,29.50,29.95,28.91,29.28,358517
20-Jun-16,29.37,30.01,29.25,29.53,396355
17-Jun-16,29.18,29.28,28.45,28.88,310153
16-Jun-16,28.76,29.38,28.43,29.08,364193
15-Jun-16,27.40,29.67,27.39,28.75,851581
14-Jun-16,26.43,27.28,26.22,27.21,296088
13-Jun-16,27.18,27.65,26.45,26.46,241697
10-Jun-16,26.72,27.60,26.50,27.29,279755
9-Jun-16,26.78,26.98,26.58,26.96,235076
8-Jun-16,26.86,27.11,26.80,26.90,226645
7-Jun-16,26.30,27.00,26.26,26.95,407353
6-Jun-16,24.86,26.58,24.74,26.20,611067
3-Jun-16,24.92,25.08,24.63,24.81,394491
2-Jun-16,24.30,24.76,24.25,24.69,406918
1-Jun-16,24.00,24.35,23.47,24.32,424499
31-May-16,24.36,24.48,24.13,24.35,217435
27-May-16,24.42,24.68,24.22,24.36,131783
26-May-16,24.88,24.94,24.26,24.47,94183
25-May-16,24.69,25.00,24.42,24.79,244115
24-May-16,23.76,24.79,23.76,24.55,312183
23-May-16,24.15,24.79,23.91,23.96,137790
20-May-16,24.03,24.22,23.75,24.20,221376
19-May-16,24.14,24.38,23.63,23.91,190428
18-May-16,24.16,24.50,24.03,24.20,183192
17-May-16,24.32,24.77,23.96,24.44,271405
16-May-16,24.07,24.73,23.94,24.44,322962
13-May-16,24.00,24.33,23.85,24.23,372903
12-May-16,23.73,24.15,23.46,24.00,228890
11-May-16,23.99,24.25,23.20,23.63,322057
10-May-16,24.10,24.33,23.70,24.25,211115
9-May-16,23.33,24.56,23.15,24.08,275627
6-May-16,23.38,23.61,23.00,23.03,180435
5-May-16,24.79,24.93,23.22,23.50,578560
4-May-16,24.35,25.33,23.62,24.77,3200434
3-May-16,19.80,20.08,19.57,19.87,262238
2-May-16,19.37,19.99,19.29,19.78,546284
29-Apr-16,18.80,18.94,18.39,18.84,158334
28-Apr-16,18.76,18.94,18.66,18.75,118996
27-Apr-16,18.83,19.03,18.63,18.82,156846
26-Apr-16,18.60,18.86,18.54,18.84,238023
25-Apr-16,18.49,18.74,18.24,18.74,250408
22-Apr-16,18.26,18.74,18.06,18.45,146430
21-Apr-16,17.98,18.84,17.79,17.99,179034
20-Apr-16,18.64,18.69,17.70,18.18,426655
19-Apr-16,19.10,19.36,18.68,18.83,173156
18-Apr-16,18.56,19.26,18.39,19.11,148755
15-Apr-16,18.16,18.59,17.79,18.55,133421
14-Apr-16,17.74,18.25,17.63,18.23,229139
13-Apr-16,17.07,17.82,17.00,17.42,181477
12-Apr-16,16.50,17.10,16.30,16.99,211868
11-Apr-16,16.58,16.68,16.26,16.50,127204
8-Apr-16,17.33,17.33,16.26,16.56,224575
7-Apr-16,17.00,17.47,16.81,17.10,92395
6-Apr-16,16.50,17.23,16.35,17.19,178081
5-Apr-16,17.22,17.25,16.42,16.49,168056
4-Apr-16,17.04,17.40,16.59,17.27,139694
1-Apr-16,16.74,17.22,16.59,17.14,166693
31-Mar-16,17.10,17.27,16.80,16.86,125243
30-Mar-16,15.92,17.32,15.92,17.10,409488
29-Mar-16,15.84,16.12,15.18,15.80,186787
28-Mar-16,16.00,16.28,15.75,15.93,173664
24-Mar-16,16.30,16.46,15.98,16.01,79526
23-Mar-16,16.16,16.66,15.92,16.36,147854
22-Mar-16,16.20,16.34,16.09,16.27,40987
21-Mar-16,16.56,16.78,16.27,16.28,92595
18-Mar-16,16.22,16.89,16.22,16.67,396722
17-Mar-16,15.68,16.61,15.52,16.35,262969
16-Mar-16,15.50,15.71,15.00,15.66,446619
15-Mar-16,16.75,16.77,15.65,15.75,178519
14-Mar-16,17.06,17.47,16.89,16.95,121626
11-Mar-16,16.57,17.22,16.57,17.14,104480
10-Mar-16,17.10,17.40,16.00,16.49,135960
9-Mar-16,17.35,17.46,16.97,17.12,110275
8-Mar-16,17.19,17.45,17.00,17.16,123419
7-Mar-16,16.24,17.31,16.24,17.19,214710
4-Mar-16,15.91,16.53,15.74,16.40,275641
3-Mar-16,15.87,16.24,15.69,15.91,179262
2-Mar-16,16.37,16.46,15.74,15.99,480773
1-Mar-16,16.60,17.00,16.38,16.87,208917
29-Feb-16,16.56,16.88,16.22,16.46,303708
26-Feb-16,16.09,16.89,16.02,16.58,391400
25-Feb-16,16.45,16.55,16.00,16.10,200793
24-Feb-16,16.27,16.80,16.02,16.44,146421
23-Feb-16,16.59,16.86,16.27,16.51,98187
22-Feb-16,16.60,17.09,16.39,16.73,190797
19-Feb-16,16.17,17.01,15.81,16.57,122113
18-Feb-16,16.28,17.19,15.68,16.18,205388
17-Feb-16,15.58,16.70,15.38,16.30,229128
16-Feb-16,15.51,15.72,14.96,15.48,168094
12-Feb-16,15.71,16.45,15.25,15.36,207002
11-Feb-16,15.28,16.01,14.99,15.49,200343
10-Feb-16,15.31,16.19,14.87,15.60,191526
9-Feb-16,14.96,15.84,14.70,14.91,262381
8-Feb-16,15.53,15.53,14.25,14.81,342749
5-Feb-16,16.64,16.70,15.64,15.82,270044
4-Feb-16,16.68,17.38,16.67,16.75,138730
3-Feb-16,16.92,16.92,16.41,16.69,331980
2-Feb-16,16.34,17.01,16.21,16.85,275991
1-Feb-16,16.10,17.08,15.89,16.46,451876
29-Jan-16,15.08,16.46,15.08,16.32,186907
28-Jan-16,15.00,15.18,14.36,15.00,215797
27-Jan-16,15.34,15.37,14.33,14.92,223493
26-Jan-16,15.86,15.86,15.14,15.40,171816
25-Jan-16,16.15,16.41,15.66,15.74,175454
22-Jan-16,16.39,16.44,15.93,16.34,157666
21-Jan-16,16.25,16.95,15.68,16.19,248505
20-Jan-16,16.13,16.32,15.02,16.24,272487
19-Jan-16,19.00,19.18,16.14,16.23,370932
15-Jan-16,19.06,19.27,18.53,19.12,124663
14-Jan-16,18.58,19.71,18.00,19.53,295006
13-Jan-16,24.42,24.50,18.14,18.59,790943
12-Jan-16,24.95,25.97,24.86,25.12,121070
11-Jan-16,25.08,25.20,24.64,25.02,125198
8-Jan-16,25.09,25.50,24.71,24.94,210883
7-Jan-16,24.30,25.34,24.10,25.00,111534
6-Jan-16,24.65,25.47,24.46,24.84,101228
5-Jan-16,23.89,25.19,23.68,24.87,65535
4-Jan-16,24.16,24.48,23.43,23.85,136067
31-Dec-15,24.85,25.09,24.33,24.69,72201
30-Dec-15,24.89,25.24,24.76,24.86,55437
29-Dec-15,25.53,25.60,24.24,25.03,108823
28-Dec-15,25.81,26.01,25.13,25.58,111576
24-Dec-15,25.98,26.34,25.82,25.98,25034
23-Dec-15,24.64,26.36,24.25,25.91,114656
22-Dec-15,24.25,25.30,24.15,25.21,87384
21-Dec-15,24.32,25.46,24.32,24.43,127006
18-Dec-15,24.65,24.95,24.08,24.36,163325
17-Dec-15,24.80,24.97,24.46,24.82,86841
16-Dec-15,23.49,24.80,23.32,24.78,114337
15-Dec-15,22.20,23.38,22.20,23.15,89381
14-Dec-15,22.18,22.38,21.82,21.97,67089
11-Dec-15,23.43,23.65,22.05,22.21,71601
10-Dec-15,23.95,24.23,23.48,23.74,88069
9-Dec-15,23.59,23.96,23.35,23.82,73451
8-Dec-15,23.45,23.68,23.17,23.53,71920
7-Dec-15,23.59,23.89,23.12,23.45,62735
4-Dec-15,23.23,23.76,23.03,23.67,71852
3-Dec-15,24.53,24.92,23.20,23.33,122204
2-Dec-15,24.72,25.22,24.35,24.62,97266
1-Dec-15,25.88,25.88,24.55,24.81,134013
30-Nov-15,26.27,26.27,25.48,25.90,120913
27-Nov-15,26.93,26.93,26.20,26.26,21923
25-Nov-15,26.41,26.97,26.26,26.87,98642
24-Nov-15,25.12,26.52,25.12,26.34,83966
23-Nov-15,26.00,26.51,25.09,25.33,111193
20-Nov-15,25.95,27.64,25.80,25.91,177164
19-Nov-15,25.57,25.90,25.31,25.61,77824
18-Nov-15,24.54,25.68,24.54,25.62,123667
17-Nov-15,24.46,24.73,23.80,24.54,97578
16-Nov-15,24.09,24.67,23.86,24.27,152997
13-Nov-15,22.18,24.30,22.18,24.11,294463
12-Nov-15,21.99,22.18,21.52,21.99,289260
11-Nov-15,22.84,22.84,20.54,21.99,867243
10-Nov-15,19.11,19.28,18.53,18.76,170928
9-Nov-15,19.70,19.70,18.84,19.07,217820
6-Nov-15,19.50,19.64,19.03,19.54,90725
5-Nov-15,20.85,21.04,19.17,19.46,128436
4-Nov-15,20.31,21.15,20.27,20.85,122077
3-Nov-15,19.55,20.51,19.40,20.34,175919
2-Nov-15,20.11,20.21,19.30,19.56,259180
30-Oct-15,20.51,20.59,19.71,20.04,427034
29-Oct-15,20.29,20.91,20.12,20.29,174429
28-Oct-15,21.04,21.04,19.79,20.32,171431
27-Oct-15,21.62,22.00,20.78,21.00,146972
26-Oct-15,21.90,22.15,21.43,21.71,140471
23-Oct-15,21.56,22.12,21.14,21.96,173740
22-Oct-15,21.93,22.06,20.79,21.27,233563
21-Oct-15,22.51,22.51,21.86,21.93,198281
20-Oct-15,22.99,23.10,22.25,22.43,192390
19-Oct-15,22.77,23.28,22.74,23.01,186731
16-Oct-15,22.34,22.98,22.15,22.88,138723
15-Oct-15,21.50,22.40,21.50,22.34,79087
14-Oct-15,21.92,22.15,21.25,21.70,169119
13-Oct-15,20.63,22.00,20.63,21.93,173418
12-Oct-15,20.49,21.07,20.04,20.85,122041
9-Oct-15,20.96,20.96,20.32,20.68,111513
8-Oct-15,21.28,21.48,20.50,20.85,139448
7-Oct-15,20.65,21.55,20.53,21.43,107311
6-Oct-15,21.03,21.03,20.13,20.43,183853
5-Oct-15,22.11,22.54,20.98,21.00,154109
2-Oct-15,22.35,22.35,21.46,22.01,130119
1-Oct-15,24.13,24.28,22.36,22.45,102719
30-Sep-15,23.57,25.31,22.67,24.19,1224529
29-Sep-15,22.59,25.25,22.59,23.50,285498
28-Sep-15,24.48,24.48,21.59,22.69,209363
25-Sep-15,25.57,25.82,24.33,24.72,193676
24-Sep-15,26.63,26.75,25.35,25.64,156248
23-Sep-15,27.69,27.92,26.56,26.90,142453
22-Sep-15,27.40,28.20,26.87,27.51,326831
21-Sep-15,29.15,29.68,26.12,27.28,707195
18-Sep-15,31.50,32.00,30.51,30.55,679137
17-Sep-15,31.15,31.96,30.50,31.70,244612
16-Sep-15,31.50,32.22,30.60,31.39,136438
15-Sep-15,30.60,31.95,30.60,31.45,190762
14-Sep-15,31.69,32.30,30.64,30.90,122379
11-Sep-15,31.58,32.18,31.40,31.70,82019
10-Sep-15,31.13,32.11,31.13,31.74,76998
9-Sep-15,32.48,33.74,30.79,31.29,121351
8-Sep-15,30.31,32.59,30.31,32.19,150496
4-Sep-15,29.63,30.48,29.44,30.26,102171
3-Sep-15,29.68,30.57,29.67,29.90,128647
2-Sep-15,29.48,30.98,29.48,29.85,225945
1-Sep-15,29.22,30.08,28.33,29.51,131371
31-Aug-15,28.92,29.61,28.26,29.37,102783
28-Aug-15,28.10,28.80,27.91,28.74,82936
27-Aug-15,28.85,29.82,27.82,27.85,165461
26-Aug-15,28.00,28.65,27.61,28.11,120194
25-Aug-15,29.00,30.40,27.84,27.84,195253
24-Aug-15,31.30,31.98,28.80,28.80,221269
21-Aug-15,32.05,33.19,31.55,32.64,151071
20-Aug-15,32.85,32.85,31.66,32.01,90614
19-Aug-15,32.75,33.92,32.31,32.85,135238
18-Aug-15,32.17,33.57,31.91,32.91,112215
17-Aug-15,32.00,32.95,31.32,31.87,105761
14-Aug-15,32.68,32.90,31.03,31.80,100940
13-Aug-15,30.30,33.13,30.25,32.73,228823
12-Aug-15,32.69,33.48,30.61,31.87,230674
11-Aug-15,32.00,32.86,30.26,32.74,351853
10-Aug-15,31.07,31.86,30.90,31.48,71090
7-Aug-15,30.65,31.03,29.50,30.60,67906
6-Aug-15,32.54,32.54,29.50,30.20,173828
5-Aug-15,33.08,33.10,32.13,32.30,61336
4-Aug-15,31.76,33.09,31.56,32.26,118713
3-Aug-15,32.18,33.25,31.38,31.69,131497
31-Jul-15,32.25,32.75,31.76,31.79,174572
30-Jul-15,31.70,33.44,31.30,32.32,187441
29-Jul-15,30.77,32.76,29.83,32.00,126066
28-Jul-15,30.53,30.78,28.50,30.77,144821
27-Jul-15,31.73,31.73,30.57,30.61,149908
24-Jul-15,32.40,32.91,31.08,32.12,153854
23-Jul-15,30.38,32.29,30.38,32.00,131852
22-Jul-15,32.10,32.10,30.65,30.72,35474
21-Jul-15,31.45,32.25,30.09,31.98,168333
20-Jul-15,31.29,31.95,29.78,31.01,228582
17-Jul-15,28.32,32.72,28.32,31.95,1024125
16-Jul-15,29.15,29.98,28.06,28.64,1030538
15-Jul-15,29.65,29.80,29.10,29.18,74079
14-Jul-15,29.90,30.20,29.54,29.75,136901
13-Jul-15,31.00,31.25,29.77,30.00,170776
10-Jul-15,30.99,33.35,30.33,30.75,162985
9-Jul-15,29.10,30.63,29.00,30.24,107754
8-Jul-15,29.57,29.73,27.51,29.00,345267
7-Jul-15,30.45,30.94,28.55,29.00,63174
6-Jul-15,28.00,30.99,28.00,30.01,166536
2-Jul-15,27.80,28.21,27.04,28.09,178652
1-Jul-15,28.83,29.00,27.87,28.00,150040
30-Jun-15,27.39,29.89,27.39,28.98,223926
29-Jun-15,27.70,28.48,27.51,28.00,386879
26-Jun-15,30.39,30.39,27.51,28.00,1116482
25-Jun-15,29.11,31.95,28.00,31.22,7563434
