﻿Date,Open,High,Low,Close,Volume
20-Jun-17,37.19,37.37,36.93,37.37,1013404
19-Jun-17,36.95,37.12,36.82,37.00,903120
16-Jun-17,36.32,36.87,36.27,36.81,1657687
15-Jun-17,36.41,36.78,36.11,36.30,891074
14-Jun-17,35.78,36.57,35.78,36.49,1125616
13-Jun-17,36.28,36.43,36.20,36.36,1276146
12-Jun-17,36.32,36.50,36.18,36.23,1137859
9-Jun-17,36.65,36.70,36.20,36.28,786515
8-Jun-17,36.59,36.59,36.00,36.58,1183210
7-Jun-17,36.96,37.07,36.62,36.63,819385
6-Jun-17,37.10,37.12,36.87,36.91,1148387
5-Jun-17,37.02,37.23,36.82,37.09,1081109
2-Jun-17,37.24,37.25,36.97,37.12,1714466
1-Jun-17,36.61,37.23,36.61,36.91,1756965
31-May-17,36.82,37.03,36.58,36.71,1621013
30-May-17,36.78,37.01,36.72,36.86,1274888
26-May-17,36.46,36.86,36.35,36.77,974048
25-May-17,36.60,36.79,36.31,36.48,898347
24-May-17,36.51,36.76,36.44,36.56,1080220
23-May-17,36.53,36.67,36.34,36.43,1057140
22-May-17,36.15,36.51,36.04,36.40,1515458
19-May-17,36.30,36.30,35.88,36.16,1279065
18-May-17,35.48,36.08,35.36,36.03,1083544
17-May-17,35.60,35.76,35.41,35.59,1755615
16-May-17,35.70,35.74,35.34,35.61,1170793
15-May-17,35.61,35.78,35.38,35.62,1606483
12-May-17,35.55,35.73,35.50,35.62,1088624
11-May-17,35.53,35.67,35.18,35.57,1475209
10-May-17,35.75,35.75,35.30,35.61,1581887
9-May-17,35.31,35.51,35.20,35.35,1185067
8-May-17,35.42,35.43,34.94,35.28,1293410
5-May-17,35.15,35.36,35.04,35.35,1223297
4-May-17,35.09,35.15,34.78,35.10,1163776
3-May-17,35.21,35.21,34.95,35.15,939765
2-May-17,34.86,35.23,34.86,35.20,1457262
1-May-17,34.89,35.05,34.60,34.94,1433632
28-Apr-17,34.83,34.89,34.30,34.80,1662243
27-Apr-17,34.39,35.13,34.30,34.71,1323288
26-Apr-17,34.50,34.68,34.29,34.68,837068
25-Apr-17,34.31,34.63,34.18,34.56,1800100
24-Apr-17,34.75,34.88,34.23,34.29,791903
21-Apr-17,34.39,34.62,34.37,34.59,665319
20-Apr-17,34.48,34.52,34.27,34.47,617657
19-Apr-17,34.46,34.58,34.28,34.45,618964
18-Apr-17,34.34,34.49,34.26,34.45,1178121
17-Apr-17,34.21,34.35,34.07,34.34,685277
13-Apr-17,34.27,34.49,34.05,34.15,864981
12-Apr-17,34.53,34.62,34.21,34.30,875062
11-Apr-17,34.32,34.78,34.28,34.45,953049
10-Apr-17,34.26,34.41,34.11,34.32,610209
7-Apr-17,33.92,34.24,33.84,34.20,970085
6-Apr-17,33.64,33.90,33.34,33.87,750577
5-Apr-17,33.64,33.85,33.36,33.63,1247758
4-Apr-17,33.36,33.71,33.12,33.65,880220
3-Apr-17,33.31,33.49,33.20,33.33,776454
31-Mar-17,33.15,33.44,33.07,33.42,1002043
30-Mar-17,32.90,33.28,32.73,33.20,1497064
29-Mar-17,32.46,32.88,32.38,32.88,863560
28-Mar-17,32.25,32.46,32.05,32.41,535879
27-Mar-17,32.31,32.48,32.06,32.19,598533
24-Mar-17,32.18,32.42,32.05,32.32,1099069
23-Mar-17,31.88,32.31,31.86,31.99,890782
22-Mar-17,31.64,32.09,31.39,31.91,981750
21-Mar-17,31.89,31.94,31.51,31.64,740765
20-Mar-17,31.90,31.96,31.65,31.79,575915
17-Mar-17,31.30,32.00,31.12,31.97,2507974
16-Mar-17,31.02,31.28,30.76,31.07,680908
15-Mar-17,30.39,31.18,30.39,30.99,715188
14-Mar-17,30.41,30.48,30.25,30.32,468746
13-Mar-17,30.31,30.63,30.31,30.48,732759
10-Mar-17,30.55,30.74,30.22,30.27,651151
9-Mar-17,31.22,31.30,30.24,30.40,958110
8-Mar-17,32.35,32.42,31.76,31.82,1268594
7-Mar-17,32.41,32.49,32.34,32.48,757187
6-Mar-17,32.20,32.48,32.04,32.40,757687
3-Mar-17,32.03,32.36,31.89,32.35,854416
2-Mar-17,31.78,32.02,31.73,32.00,595340
1-Mar-17,31.90,32.27,31.84,31.90,677401
28-Feb-17,32.16,32.28,31.98,32.00,941050
27-Feb-17,32.07,32.37,32.03,32.27,520396
24-Feb-17,32.10,32.19,31.95,32.07,424668
23-Feb-17,31.99,32.13,31.63,32.07,577356
22-Feb-17,32.15,32.18,31.71,31.81,558720
21-Feb-17,31.85,32.21,31.66,32.18,546951
17-Feb-17,31.79,31.89,31.58,31.88,445533
16-Feb-17,31.57,31.86,31.57,31.77,426197
15-Feb-17,31.27,31.57,31.11,31.54,451862
14-Feb-17,31.52,31.54,31.13,31.51,399304
13-Feb-17,31.59,31.75,31.46,31.54,571964
10-Feb-17,31.43,31.64,31.36,31.59,287878
9-Feb-17,31.66,31.68,31.36,31.46,455200
8-Feb-17,31.77,31.80,31.57,31.64,358217
7-Feb-17,31.68,31.93,31.54,31.72,1000385
6-Feb-17,31.81,31.81,31.34,31.73,687007
3-Feb-17,31.57,31.87,31.49,31.82,731815
2-Feb-17,31.31,31.86,31.31,31.59,1094197
1-Feb-17,31.62,31.83,31.14,31.31,1136083
31-Jan-17,31.05,31.83,30.52,31.63,695085
30-Jan-17,31.18,31.22,30.96,31.10,598647
27-Jan-17,31.35,31.35,31.06,31.28,1624960
26-Jan-17,31.23,31.45,31.12,31.25,743222
25-Jan-17,31.18,31.34,31.12,31.25,297344
24-Jan-17,31.20,31.47,31.06,31.21,402891
23-Jan-17,30.80,31.24,30.76,31.19,452162
20-Jan-17,30.44,30.90,30.34,30.81,767604
19-Jan-17,30.60,30.70,30.28,30.40,452767
18-Jan-17,30.96,31.06,30.67,30.68,572234
17-Jan-17,30.81,31.02,30.80,30.96,791075
13-Jan-17,30.80,31.08,30.75,30.77,716712
12-Jan-17,30.76,30.92,30.58,30.91,493061
11-Jan-17,31.02,31.02,30.69,30.78,690089
10-Jan-17,31.16,31.25,30.84,30.99,799214
9-Jan-17,31.23,31.73,30.91,31.08,951758
6-Jan-17,31.46,31.76,31.21,31.23,1249461
5-Jan-17,31.44,31.65,31.18,31.62,1063061
4-Jan-17,30.88,31.42,30.52,31.42,1205534
3-Jan-17,30.77,30.87,30.40,30.79,827777
30-Dec-16,30.24,30.62,30.16,30.62,826600
29-Dec-16,30.06,30.40,29.99,30.31,812440
28-Dec-16,30.13,30.28,29.96,30.05,521821
27-Dec-16,30.35,30.45,29.98,30.13,856564
23-Dec-16,30.41,30.47,30.24,30.40,657569
22-Dec-16,30.10,30.45,29.93,30.45,931441
21-Dec-16,30.28,30.40,30.01,30.03,898882
20-Dec-16,30.05,30.32,29.97,30.28,795683
19-Dec-16,30.15,30.32,29.86,30.16,866153
16-Dec-16,29.95,30.18,29.67,30.00,1717131
15-Dec-16,29.46,29.84,29.32,29.78,2027816
14-Dec-16,30.82,30.82,29.98,30.06,1221198
13-Dec-16,30.95,31.04,30.49,30.79,964794
12-Dec-16,30.85,31.08,30.78,31.08,954376
9-Dec-16,31.00,31.29,30.89,31.00,625070
8-Dec-16,30.68,31.08,30.61,31.00,1143074
7-Dec-16,30.69,30.93,30.55,30.88,1284096
6-Dec-16,30.44,30.71,30.39,30.70,1386554
5-Dec-16,30.26,30.56,29.97,30.46,1146894
2-Dec-16,29.67,30.08,29.65,29.91,1283571
1-Dec-16,29.92,30.19,29.41,29.59,1545074
30-Nov-16,31.03,31.11,30.39,30.51,2281437
29-Nov-16,30.93,31.20,30.93,31.11,787997
28-Nov-16,30.52,30.99,30.50,30.85,1229315
25-Nov-16,30.73,31.49,30.56,30.60,285413
23-Nov-16,30.81,31.03,30.54,30.65,801474
22-Nov-16,30.70,31.11,30.46,31.01,1724562
21-Nov-16,30.25,30.70,30.25,30.59,1075613
18-Nov-16,30.35,30.42,30.11,30.22,933121
17-Nov-16,30.29,30.30,30.00,30.24,1279645
16-Nov-16,30.01,30.20,29.78,30.17,1447331
15-Nov-16,30.04,30.20,29.43,30.00,2567981
14-Nov-16,29.77,30.06,29.54,30.04,2550716
11-Nov-16,30.12,30.45,29.87,29.88,1742395
10-Nov-16,31.07,31.33,29.87,30.15,2583732
9-Nov-16,30.87,31.50,30.78,31.04,1662646
8-Nov-16,31.72,32.15,31.72,31.94,907735
7-Nov-16,31.64,32.05,31.64,31.77,630685
4-Nov-16,31.29,31.65,31.05,31.33,591971
3-Nov-16,31.57,31.61,31.15,31.20,844722
2-Nov-16,32.07,32.31,31.64,31.66,878476
1-Nov-16,32.84,32.87,32.02,32.03,690724
31-Oct-16,32.45,32.84,32.26,32.83,456937
28-Oct-16,32.15,32.41,32.13,32.29,539986
27-Oct-16,32.52,32.65,31.95,32.10,778180
26-Oct-16,32.70,32.70,32.24,32.64,721453
25-Oct-16,32.93,32.93,32.65,32.74,499602
24-Oct-16,32.79,33.28,32.76,32.91,848437
21-Oct-16,32.95,33.10,32.81,32.89,648394
20-Oct-16,33.10,33.15,32.81,32.95,385734
19-Oct-16,32.99,33.11,32.68,33.04,571220
18-Oct-16,33.05,33.24,32.87,32.99,471602
17-Oct-16,32.92,33.00,32.76,32.85,563386
14-Oct-16,32.97,33.02,32.59,32.85,752198
13-Oct-16,32.48,32.95,32.33,32.94,880403
12-Oct-16,32.27,32.54,32.20,32.48,608901
11-Oct-16,32.65,32.65,32.10,32.18,649426
10-Oct-16,32.55,32.83,32.47,32.66,532648
7-Oct-16,32.38,32.81,32.14,32.49,1414017
6-Oct-16,32.04,32.31,31.77,32.17,1920823
5-Oct-16,32.89,32.99,32.12,32.25,1695429
4-Oct-16,33.21,33.21,32.49,32.78,910460
3-Oct-16,33.47,33.47,33.02,33.17,786500
30-Sep-16,33.82,33.88,33.43,33.45,1380504
29-Sep-16,34.00,34.11,33.66,33.82,545300
28-Sep-16,33.87,34.19,33.73,34.02,723714
27-Sep-16,33.90,34.11,33.71,33.75,868716
26-Sep-16,34.00,34.06,33.80,33.80,999826
23-Sep-16,33.99,34.10,33.67,34.00,760366
22-Sep-16,33.66,34.16,33.56,34.00,763881
21-Sep-16,33.10,33.63,32.75,33.54,910071
20-Sep-16,33.20,33.44,32.99,33.02,1009549
19-Sep-16,32.92,33.05,32.74,33.00,730755
16-Sep-16,32.69,33.02,32.61,32.74,1843550
15-Sep-16,32.69,32.85,32.48,32.76,1512930
14-Sep-16,32.40,32.78,32.35,32.66,1961022
13-Sep-16,32.90,32.90,32.42,32.42,1110252
12-Sep-16,32.87,33.21,32.75,33.00,1390132
9-Sep-16,33.87,33.87,32.94,33.00,1835910
8-Sep-16,34.15,34.34,33.81,34.06,1252592
7-Sep-16,35.20,35.20,34.54,34.76,2022073
6-Sep-16,34.50,34.76,34.28,34.62,784623
2-Sep-16,34.29,34.75,34.29,34.47,720039
1-Sep-16,34.18,34.78,33.99,34.17,896233
31-Aug-16,34.13,34.49,34.10,34.21,1266541
30-Aug-16,34.20,34.33,34.09,34.14,653700
29-Aug-16,34.17,34.44,34.05,34.20,714523
26-Aug-16,34.64,34.69,33.93,34.03,1312739
25-Aug-16,34.78,34.89,34.46,34.49,911649
24-Aug-16,34.99,35.12,34.66,34.74,673882
23-Aug-16,35.00,35.04,34.86,34.91,560829
22-Aug-16,34.85,35.00,34.71,34.89,773677
19-Aug-16,34.95,34.98,34.67,34.85,750030
18-Aug-16,34.83,35.02,34.74,34.94,881085
17-Aug-16,34.80,34.96,34.19,34.85,1337006
16-Aug-16,35.14,35.47,34.72,34.74,1280747
15-Aug-16,35.50,35.67,35.23,35.25,1379608
12-Aug-16,35.49,35.55,35.22,35.41,1541621
11-Aug-16,35.69,35.69,35.12,35.52,1283659
10-Aug-16,35.82,35.94,35.57,35.65,869872
9-Aug-16,35.35,35.90,35.35,35.89,1663774
8-Aug-16,35.54,35.74,35.34,35.40,1210554
5-Aug-16,35.46,35.90,35.20,35.45,799320
4-Aug-16,35.38,35.67,35.38,35.42,554818
3-Aug-16,35.48,35.79,35.12,35.45,856153
2-Aug-16,35.84,35.97,35.38,35.41,1103440
1-Aug-16,35.88,35.98,35.61,35.87,939881
29-Jul-16,35.53,35.93,35.52,35.83,962685
28-Jul-16,35.42,35.69,35.27,35.59,697816
27-Jul-16,35.48,35.48,35.23,35.34,756565
26-Jul-16,35.48,35.57,35.26,35.40,960573
25-Jul-16,35.39,35.55,35.20,35.54,732084
22-Jul-16,35.16,35.50,35.00,35.37,1006348
21-Jul-16,35.22,35.37,35.12,35.22,947391
20-Jul-16,35.18,35.23,35.03,35.22,727020
19-Jul-16,35.09,35.17,34.81,35.15,732565
18-Jul-16,34.98,35.14,34.97,35.07,507287
15-Jul-16,35.15,35.20,34.83,35.12,745847
14-Jul-16,35.19,35.20,34.96,35.08,1427601
13-Jul-16,35.05,35.11,34.71,35.11,1832120
12-Jul-16,35.05,35.07,34.85,35.06,1519256
11-Jul-16,35.00,35.00,34.68,34.97,1108343
8-Jul-16,34.98,35.06,34.75,34.98,1592307
7-Jul-16,35.00,35.19,34.70,34.73,1097980
6-Jul-16,34.85,35.16,34.59,35.16,2329232
5-Jul-16,34.89,35.10,34.67,35.06,1405224
1-Jul-16,34.37,34.88,34.32,34.86,1759338
30-Jun-16,34.15,34.48,33.84,34.48,2146189
29-Jun-16,34.00,34.27,33.94,34.19,1031093
28-Jun-16,33.90,34.09,33.62,33.97,1869699
27-Jun-16,34.12,34.12,33.63,33.71,2616346
24-Jun-16,33.67,34.70,33.37,34.30,6334728
23-Jun-16,34.65,34.86,34.34,34.43,1046675
22-Jun-16,34.80,34.88,34.48,34.48,1232088
21-Jun-16,34.61,34.88,34.52,34.81,1252183
20-Jun-16,34.99,35.03,34.51,34.58,1696482
17-Jun-16,34.34,34.86,34.32,34.83,3412868
16-Jun-16,33.85,34.35,33.63,34.32,1640173
15-Jun-16,33.66,33.91,33.54,33.89,858230
14-Jun-16,33.78,33.88,33.42,33.57,1119729
13-Jun-16,34.10,34.30,33.64,33.77,1587776
10-Jun-16,33.75,34.11,33.52,34.07,1252536
9-Jun-16,33.88,34.07,33.76,33.97,927022
8-Jun-16,33.49,34.06,33.41,34.02,1187310
7-Jun-16,33.31,33.66,33.31,33.51,1182230
6-Jun-16,33.50,33.72,33.22,33.26,1460115
3-Jun-16,32.77,33.57,32.77,33.44,1205963
2-Jun-16,33.14,33.31,32.89,33.23,1472762
1-Jun-16,32.74,33.52,32.26,33.27,2735193
31-May-16,32.47,32.96,32.15,32.91,2152453
27-May-16,32.88,33.06,32.78,33.05,1545314
26-May-16,32.81,33.01,32.60,32.89,2013298
25-May-16,32.84,32.86,32.44,32.73,1190475
24-May-16,32.82,32.96,32.67,32.74,1123553
23-May-16,32.74,32.97,32.56,32.74,1408416
20-May-16,32.83,32.95,32.42,32.74,1675366
19-May-16,32.09,32.66,31.75,32.60,7773316
18-May-16,33.26,33.41,32.44,32.97,2089845
17-May-16,33.58,33.76,33.20,33.32,1998884
16-May-16,33.24,33.82,33.01,33.76,1185982
13-May-16,33.55,33.55,33.08,33.30,1359802
12-May-16,33.43,33.73,33.17,33.61,1262509
11-May-16,33.52,33.63,33.02,33.36,1711292
10-May-16,33.59,33.80,33.35,33.65,1874407
9-May-16,33.02,33.62,32.52,33.58,4038964
6-May-16,32.80,33.08,32.48,33.04,3020899
5-May-16,33.18,33.18,32.63,32.87,2315573
4-May-16,32.65,33.28,32.48,33.20,3011621
3-May-16,33.11,33.32,32.62,32.78,3184775
2-May-16,32.95,33.30,32.67,33.10,3536873
29-Apr-16,32.63,32.91,32.29,32.79,12808998
28-Apr-16,32.25,32.57,31.93,32.57,5721141
27-Apr-16,32.29,32.52,32.07,32.34,2444665
26-Apr-16,32.33,32.93,32.05,32.20,3421508
25-Apr-16,32.04,32.24,31.84,32.20,1987195
22-Apr-16,32.06,32.43,31.83,31.87,2799115
21-Apr-16,32.83,33.01,31.71,32.06,3444986
20-Apr-16,33.48,33.52,32.61,32.63,5093161
19-Apr-16,33.25,33.61,32.65,33.56,1990818
18-Apr-16,32.87,33.22,32.74,33.18,2297448
15-Apr-16,33.01,33.31,32.90,33.01,1661038
14-Apr-16,33.26,33.43,32.58,32.94,3688784
13-Apr-16,32.71,33.33,32.71,33.22,2673389
12-Apr-16,32.24,32.71,31.82,32.60,3785316
11-Apr-16,31.81,32.23,31.43,32.14,2460154
8-Apr-16,31.59,31.99,31.52,31.63,2895369
7-Apr-16,31.42,31.57,31.21,31.54,1937967
6-Apr-16,31.56,31.75,31.29,31.62,2020513
5-Apr-16,31.45,31.69,31.20,31.49,2688326
4-Apr-16,31.54,31.89,31.43,31.56,2685660
1-Apr-16,31.50,31.84,31.30,31.54,14284743
31-Mar-16,31.04,31.44,30.73,30.92,1584956
30-Mar-16,30.53,31.56,30.53,31.13,1841160
29-Mar-16,29.00,30.54,28.73,30.28,1928487
28-Mar-16,29.80,30.30,29.60,29.91,807969
24-Mar-16,29.43,29.79,29.15,29.76,734946
23-Mar-16,29.80,29.92,29.32,29.69,498270
22-Mar-16,29.66,29.87,29.52,29.85,475280
21-Mar-16,29.57,29.76,29.52,29.74,575347
18-Mar-16,29.71,29.89,29.26,29.53,1260985
17-Mar-16,29.42,29.93,29.10,29.65,630184
16-Mar-16,28.57,29.39,28.42,29.36,1056225
15-Mar-16,28.75,28.75,28.32,28.62,481948
14-Mar-16,28.78,29.00,28.65,28.77,572397
11-Mar-16,28.44,28.86,28.44,28.85,514019
10-Mar-16,28.75,28.91,27.99,28.33,384618
9-Mar-16,28.50,28.77,28.06,28.64,394644
8-Mar-16,28.52,28.65,28.27,28.47,1091778
7-Mar-16,28.21,28.90,28.12,28.68,914522
4-Mar-16,28.08,28.38,27.83,28.30,1317878
3-Mar-16,26.65,28.02,26.63,28.00,1606103
2-Mar-16,26.69,26.90,26.31,26.68,528169
1-Mar-16,26.27,26.95,26.17,26.68,908322
29-Feb-16,25.52,26.44,25.52,26.19,1170428
26-Feb-16,25.43,25.79,25.08,25.46,789610
25-Feb-16,25.21,26.10,25.07,25.35,724194
24-Feb-16,25.02,25.82,24.69,25.10,722363
23-Feb-16,25.42,25.63,25.05,25.18,984778
22-Feb-16,25.54,25.99,25.46,25.54,1190194
19-Feb-16,25.49,25.80,25.31,25.43,846171
18-Feb-16,25.77,26.03,24.95,25.63,1889208
17-Feb-16,26.05,26.66,25.78,26.25,1155270
16-Feb-16,25.77,26.12,25.51,26.01,536502
12-Feb-16,26.03,26.44,25.49,25.60,565971
11-Feb-16,25.85,26.05,25.64,25.85,691836
10-Feb-16,26.29,26.69,26.07,26.22,568309
9-Feb-16,25.95,26.30,25.71,26.19,1013461
8-Feb-16,26.69,26.89,25.51,26.09,811012
5-Feb-16,27.44,27.44,26.62,26.88,1428379
4-Feb-16,26.14,27.56,25.73,27.29,1470047
3-Feb-16,26.69,27.15,25.86,26.26,684424
2-Feb-16,26.50,26.73,26.22,26.57,855289
1-Feb-16,25.99,26.90,25.62,26.60,709857
29-Jan-16,25.26,26.10,25.26,26.08,793528
28-Jan-16,26.13,26.13,25.19,25.25,736687
27-Jan-16,25.72,25.72,25.11,25.28,554263
26-Jan-16,25.14,25.74,25.13,25.73,391034
25-Jan-16,25.44,25.66,25.08,25.08,795470
22-Jan-16,25.12,26.48,25.07,25.50,1192894
21-Jan-16,25.01,25.77,24.58,24.82,745777
20-Jan-16,26.05,26.05,24.21,24.96,1254919
19-Jan-16,26.10,27.96,26.00,26.26,764776
15-Jan-16,25.58,26.03,25.06,26.01,958373
14-Jan-16,25.56,26.21,25.20,25.93,744064
13-Jan-16,26.10,26.33,25.51,25.54,724240
12-Jan-16,26.71,26.85,25.69,26.09,1030385
11-Jan-16,26.80,27.14,26.54,26.55,907647
8-Jan-16,27.24,27.43,26.71,26.75,792468
7-Jan-16,27.48,27.58,27.14,27.16,428962
6-Jan-16,27.92,28.20,27.59,27.70,1005360
5-Jan-16,27.70,28.30,27.47,28.15,1198960
4-Jan-16,27.52,27.65,27.06,27.64,1121441
31-Dec-15,27.63,28.04,27.43,27.80,679096
30-Dec-15,28.20,28.42,27.74,27.77,810033
29-Dec-15,27.93,28.48,27.87,28.31,832153
28-Dec-15,28.00,28.00,27.46,27.93,636684
24-Dec-15,28.07,28.11,27.85,28.01,235740
23-Dec-15,27.95,28.14,27.80,28.12,570665
22-Dec-15,27.54,28.03,27.54,27.83,847140
21-Dec-15,27.41,27.86,27.37,27.67,950888
18-Dec-15,27.61,27.86,26.98,27.28,1738232
17-Dec-15,27.11,27.68,27.02,27.59,2598234
16-Dec-15,26.25,27.06,26.17,27.00,1355173
15-Dec-15,25.79,26.38,25.79,26.08,1297427
14-Dec-15,26.92,27.16,25.82,25.90,1210632
11-Dec-15,27.15,27.44,26.82,27.04,1210354
10-Dec-15,27.17,27.40,27.17,27.25,628297
9-Dec-15,27.04,27.51,26.80,27.23,571860
8-Dec-15,27.06,27.46,27.06,27.14,695292
7-Dec-15,27.17,27.34,26.84,27.15,1426981
4-Dec-15,27.15,27.52,27.15,27.37,651683
3-Dec-15,27.48,27.72,27.08,27.32,799193
2-Dec-15,27.45,27.69,27.26,27.44,1007224
1-Dec-15,27.19,27.62,27.19,27.51,574597
30-Nov-15,27.35,27.55,27.14,27.19,1223029
27-Nov-15,27.03,27.30,27.01,27.23,205013
25-Nov-15,27.41,27.84,27.39,27.63,354765
24-Nov-15,27.26,27.49,27.11,27.37,303056
23-Nov-15,27.46,27.76,27.33,27.40,431823
20-Nov-15,27.55,27.77,27.31,27.43,359862
19-Nov-15,27.82,27.99,27.49,27.49,471775
18-Nov-15,27.66,27.83,27.33,27.81,701570
17-Nov-15,27.58,27.84,27.43,27.61,1003597
16-Nov-15,27.64,27.82,27.42,27.59,744794
13-Nov-15,27.88,28.02,27.52,27.67,534343
12-Nov-15,28.01,28.14,27.81,27.91,584542
11-Nov-15,28.33,28.61,28.10,28.13,590276
10-Nov-15,28.77,29.00,28.25,28.31,474965
9-Nov-15,28.95,29.01,28.46,28.75,1262310
6-Nov-15,29.20,29.22,28.84,29.02,727169
5-Nov-15,29.27,29.49,29.04,29.35,400544
4-Nov-15,29.37,29.38,29.10,29.23,625717
3-Nov-15,29.48,29.49,29.23,29.41,468582
2-Nov-15,29.26,29.67,29.10,29.55,736964
30-Oct-15,28.75,29.24,28.29,29.17,1059921
29-Oct-15,29.60,29.65,28.68,28.84,1441025
28-Oct-15,29.85,30.27,29.51,29.99,528220
27-Oct-15,29.87,29.92,29.65,29.83,413407
26-Oct-15,30.24,30.31,29.87,29.95,357299
23-Oct-15,30.20,30.38,29.93,30.17,456051
22-Oct-15,30.11,30.53,29.84,30.09,618089
21-Oct-15,30.50,30.72,29.88,30.00,640367
20-Oct-15,30.08,30.56,29.85,30.44,715939
19-Oct-15,30.14,30.28,29.89,30.06,615286
16-Oct-15,30.94,31.02,30.10,30.32,1030367
15-Oct-15,30.50,31.00,30.19,30.95,436939
14-Oct-15,30.58,30.68,30.25,30.37,287495
13-Oct-15,30.71,30.79,30.39,30.56,341537
12-Oct-15,31.00,31.15,30.64,30.92,366515
9-Oct-15,30.91,31.00,30.50,30.98,299921
8-Oct-15,30.21,30.95,30.07,30.79,464500
7-Oct-15,30.50,30.70,29.78,30.31,773183
6-Oct-15,30.89,30.89,29.54,30.46,814492
5-Oct-15,30.25,30.92,30.10,30.80,897583
2-Oct-15,29.81,30.13,29.63,30.09,389975
1-Oct-15,29.72,29.91,29.41,29.91,615182
30-Sep-15,28.91,29.82,28.82,29.70,727388
29-Sep-15,29.22,29.22,28.50,28.68,1111402
28-Sep-15,30.38,30.39,29.12,29.16,582864
25-Sep-15,30.38,30.59,30.03,30.45,394382
24-Sep-15,29.94,30.16,29.67,30.08,669245
23-Sep-15,30.38,30.62,29.95,30.04,374641
22-Sep-15,31.04,31.16,30.19,30.31,1025704
21-Sep-15,31.47,31.55,31.18,31.29,453722
18-Sep-15,31.20,31.48,31.02,31.43,1327538
17-Sep-15,31.20,31.70,31.05,31.33,663509
16-Sep-15,30.91,31.44,30.66,31.21,809002
15-Sep-15,30.38,31.02,30.14,30.93,636346
14-Sep-15,30.13,30.37,29.91,30.35,387057
11-Sep-15,29.60,30.03,29.60,30.01,479465
10-Sep-15,29.79,29.98,29.53,29.66,495533
9-Sep-15,31.00,31.00,30.30,30.33,491322
8-Sep-15,30.81,30.93,30.41,30.82,477027
4-Sep-15,30.98,30.98,30.33,30.61,579884
3-Sep-15,30.73,31.05,30.67,30.96,408646
2-Sep-15,30.70,31.00,30.53,30.82,570242
1-Sep-15,30.68,31.08,30.22,30.53,953786
31-Aug-15,31.47,31.61,30.90,30.94,544160
28-Aug-15,31.34,31.68,31.26,31.58,562562
27-Aug-15,31.50,31.65,30.92,31.40,836594
26-Aug-15,31.11,31.42,30.75,31.39,1055845
25-Aug-15,31.27,31.49,30.58,30.87,975440
24-Aug-15,30.82,31.30,29.95,30.67,1400822
21-Aug-15,32.02,32.30,31.63,31.63,1004820
20-Aug-15,33.14,33.15,32.46,32.47,699617
19-Aug-15,33.63,33.63,33.18,33.31,776521
18-Aug-15,33.42,33.77,33.41,33.55,473356
17-Aug-15,33.08,33.57,32.91,33.53,538991
14-Aug-15,32.99,33.31,32.70,33.18,391025
13-Aug-15,33.11,33.11,32.52,32.97,385241
12-Aug-15,32.93,33.18,32.51,33.02,486276
11-Aug-15,32.75,33.24,32.45,33.15,1331991
10-Aug-15,32.96,33.21,32.63,32.74,442720
7-Aug-15,32.87,33.23,32.69,32.95,392926
6-Aug-15,33.30,33.30,32.60,33.07,585784
5-Aug-15,33.33,33.43,33.07,33.16,544413
4-Aug-15,33.26,33.45,32.99,33.19,548790
3-Aug-15,32.99,33.24,32.78,33.18,730363
31-Jul-15,33.42,33.44,32.49,32.75,916540
30-Jul-15,33.50,33.99,32.47,33.35,1771627
29-Jul-15,33.44,33.77,33.14,33.15,1514390
28-Jul-15,33.63,33.82,33.38,33.47,836495
27-Jul-15,32.42,33.81,32.37,33.55,794464
24-Jul-15,34.34,34.50,33.74,33.84,433512
23-Jul-15,34.79,35.02,33.94,34.23,1316316
22-Jul-15,35.00,35.26,34.44,34.86,921082
21-Jul-15,36.12,36.16,35.03,35.16,2276136
20-Jul-15,35.09,35.11,34.75,34.77,262367
17-Jul-15,35.11,35.25,34.73,34.86,358789
16-Jul-15,34.93,35.22,34.86,35.18,617586
15-Jul-15,35.01,35.14,34.67,34.82,431108
14-Jul-15,34.97,35.28,34.85,35.00,531979
13-Jul-15,35.87,36.07,35.03,35.06,653532
10-Jul-15,35.24,35.57,35.00,35.49,916853
9-Jul-15,35.10,35.57,34.79,35.03,525648
8-Jul-15,35.47,35.76,34.84,35.11,1192467
7-Jul-15,36.25,36.25,35.06,35.72,1736788
6-Jul-15,36.31,36.78,36.26,36.67,333510
2-Jul-15,36.73,36.84,36.32,36.65,528558
1-Jul-15,36.94,37.23,36.60,36.76,765024
30-Jun-15,36.67,37.03,36.45,36.66,627991
29-Jun-15,37.25,37.32,36.44,36.50,473560
26-Jun-15,37.58,37.60,37.01,37.35,731942
25-Jun-15,37.38,37.54,37.20,37.40,292940
24-Jun-15,37.41,37.59,37.25,37.39,355596
23-Jun-15,37.63,37.71,37.20,37.47,435058
22-Jun-15,38.28,38.28,37.47,37.53,585284
19-Jun-15,37.55,38.30,37.17,38.18,3383306
18-Jun-15,37.27,37.55,37.14,37.39,534872
17-Jun-15,36.65,37.09,36.45,37.08,543695
16-Jun-15,36.87,37.07,36.51,36.57,441078
15-Jun-15,36.79,37.05,36.47,36.90,394003
12-Jun-15,36.47,36.96,36.33,36.84,402862
11-Jun-15,36.50,36.50,36.06,36.48,534846
10-Jun-15,35.78,36.53,35.50,36.36,656610
9-Jun-15,35.77,35.98,35.52,35.61,467058
8-Jun-15,36.54,36.60,36.18,36.36,481086
5-Jun-15,36.45,37.35,36.41,36.55,814654
4-Jun-15,36.50,37.17,36.48,36.48,375079
3-Jun-15,37.02,37.06,36.50,36.62,321973
2-Jun-15,36.71,37.02,36.58,36.95,833588
1-Jun-15,36.74,37.03,36.51,36.80,377593
29-May-15,37.18,37.18,36.52,36.60,486288
28-May-15,37.28,37.28,36.76,37.14,287082
27-May-15,36.61,37.34,36.21,37.24,471564
26-May-15,36.87,36.96,36.50,36.68,363318
22-May-15,37.02,37.30,36.82,37.08,451631
21-May-15,36.98,37.15,36.72,37.14,349887
20-May-15,37.17,37.17,36.58,36.85,239936
19-May-15,37.19,37.41,36.95,37.17,338835
18-May-15,36.96,37.05,36.61,37.02,483974
15-May-15,36.84,37.24,36.59,37.01,327346
14-May-15,36.45,36.81,36.45,36.73,194578
13-May-15,36.56,36.73,36.38,36.43,249787
12-May-15,36.24,36.57,35.78,36.43,254691
11-May-15,36.17,36.63,36.17,36.33,362091
8-May-15,36.76,36.95,36.31,36.34,409413
7-May-15,36.24,36.64,36.02,36.49,641497
6-May-15,36.56,36.75,36.24,36.36,1099221
5-May-15,36.50,36.69,36.00,36.39,828835
4-May-15,36.33,37.22,36.28,36.68,805941
1-May-15,35.70,36.00,35.61,35.69,553078
30-Apr-15,36.21,36.35,35.69,35.70,488006
29-Apr-15,35.88,36.27,35.78,36.22,361228
28-Apr-15,36.10,36.38,36.06,36.24,239303
27-Apr-15,36.65,36.68,36.02,36.17,318623
24-Apr-15,36.58,36.77,36.25,36.59,489181
23-Apr-15,36.37,36.72,36.30,36.50,536015
22-Apr-15,36.35,36.51,36.30,36.50,341076
21-Apr-15,36.63,36.68,36.32,36.37,814997
20-Apr-15,36.60,36.60,36.28,36.45,378206
17-Apr-15,36.61,36.66,36.10,36.49,568849
16-Apr-15,36.52,36.61,35.95,36.60,428080
15-Apr-15,36.52,37.10,35.71,36.46,1043408
14-Apr-15,37.03,37.63,36.26,36.35,1291523
13-Apr-15,36.74,36.94,36.54,36.88,379186
10-Apr-15,36.64,37.18,36.56,36.70,416327
9-Apr-15,36.85,36.95,36.38,36.42,480354
8-Apr-15,36.73,36.90,36.44,36.75,469324
7-Apr-15,37.57,37.57,36.76,36.81,350076
6-Apr-15,37.25,37.63,36.95,37.45,484998
2-Apr-15,37.18,37.49,37.00,37.25,287443
1-Apr-15,36.96,37.20,36.62,37.10,410151
31-Mar-15,37.00,37.06,36.64,36.87,326948
30-Mar-15,36.95,37.31,36.58,37.00,647305
27-Mar-15,36.86,36.98,36.39,36.95,808706
26-Mar-15,37.03,37.20,36.56,36.79,429398
25-Mar-15,37.13,37.31,36.84,37.15,516556
24-Mar-15,37.49,37.64,36.98,37.00,569350
23-Mar-15,37.50,37.85,37.38,37.47,810833
20-Mar-15,36.87,37.68,36.48,37.65,949113
19-Mar-15,36.55,36.99,36.44,36.71,565525
18-Mar-15,36.86,36.88,36.24,36.58,677925
17-Mar-15,35.87,36.53,35.54,36.42,634363
16-Mar-15,36.13,36.14,35.77,36.06,565071
13-Mar-15,35.89,36.51,35.44,36.02,678734
12-Mar-15,37.01,37.14,36.68,36.78,591912
11-Mar-15,36.53,36.79,36.10,36.62,1117991
10-Mar-15,36.25,36.96,35.81,36.45,1504094
9-Mar-15,34.50,36.55,34.12,36.43,3479308
6-Mar-15,32.84,32.99,32.05,32.37,806068
5-Mar-15,33.69,33.82,33.49,33.54,704985
4-Mar-15,33.77,33.97,33.48,33.61,443557
3-Mar-15,33.73,33.93,33.50,33.76,720185
2-Mar-15,33.94,34.33,33.63,33.79,321248
27-Feb-15,33.38,33.93,33.34,33.85,885058
26-Feb-15,33.70,33.73,33.52,33.57,473336
25-Feb-15,33.96,34.11,33.61,33.77,559631
24-Feb-15,33.99,33.99,33.51,33.85,427812
23-Feb-15,33.88,33.95,33.49,33.91,380110
20-Feb-15,33.60,33.86,33.51,33.79,389305
19-Feb-15,33.80,33.80,33.48,33.61,364321
18-Feb-15,33.58,34.03,33.33,33.87,411908
17-Feb-15,33.52,33.71,33.30,33.50,260538
13-Feb-15,34.17,34.35,33.53,33.57,347195
12-Feb-15,34.00,34.35,33.89,34.13,517096
11-Feb-15,33.53,33.87,33.35,33.85,322315
10-Feb-15,33.56,33.66,33.13,33.56,406551
9-Feb-15,33.48,33.86,33.34,33.50,699388
6-Feb-15,33.76,33.76,33.26,33.46,683042
5-Feb-15,33.70,33.93,33.55,33.60,658160
4-Feb-15,33.78,34.05,33.41,33.57,846832
3-Feb-15,32.84,34.00,32.57,33.74,1635321
2-Feb-15,32.75,33.00,32.36,32.95,628029
30-Jan-15,32.42,33.19,32.28,32.63,426125
29-Jan-15,32.92,33.00,32.57,32.99,702790
28-Jan-15,33.13,33.24,32.69,32.80,770097
27-Jan-15,32.19,33.06,32.04,32.97,847027
26-Jan-15,32.59,32.78,32.47,32.65,1351510
23-Jan-15,32.45,32.57,32.05,32.47,2675088
22-Jan-15,32.22,32.48,32.08,32.44,798451
21-Jan-15,32.00,32.37,31.84,32.02,531755
20-Jan-15,32.31,32.35,31.70,31.92,436946
16-Jan-15,32.04,32.44,31.81,32.21,1376352
15-Jan-15,31.69,32.21,31.59,31.94,2623765
14-Jan-15,31.35,31.72,31.14,31.68,602455
13-Jan-15,31.16,31.50,31.10,31.43,407211
12-Jan-15,31.11,31.35,30.80,31.23,458448
9-Jan-15,30.30,31.36,30.30,31.19,1141952
8-Jan-15,29.33,29.86,29.25,29.51,1445991
7-Jan-15,28.69,29.26,28.49,29.21,845482
6-Jan-15,28.99,29.08,28.27,28.54,1243990
5-Jan-15,29.58,29.58,28.86,28.97,1343346
2-Jan-15,29.51,29.72,29.26,29.69,480013
31-Dec-14,29.48,29.64,29.26,29.34,396247
30-Dec-14,29.81,29.83,29.32,29.50,401365
29-Dec-14,29.62,30.06,29.43,29.82,364765
26-Dec-14,29.64,29.69,29.37,29.62,292740
24-Dec-14,29.63,29.74,29.47,29.54,431395
23-Dec-14,29.52,29.75,29.40,29.61,330927
22-Dec-14,28.99,29.52,28.86,29.50,687699
19-Dec-14,29.00,29.08,28.75,29.03,1648289
18-Dec-14,29.00,29.33,28.67,28.94,500851
17-Dec-14,28.23,28.92,28.16,28.91,637543
16-Dec-14,28.10,28.35,27.66,28.22,805498
15-Dec-14,28.68,28.89,28.01,28.16,646063
12-Dec-14,29.38,29.38,28.79,28.79,729210
11-Dec-14,29.46,29.71,29.39,29.39,366005
10-Dec-14,29.59,29.86,29.40,29.53,647580
9-Dec-14,29.78,30.00,29.51,29.73,591551
8-Dec-14,30.27,30.55,29.80,30.03,730656
5-Dec-14,30.14,30.23,29.92,30.22,779814
4-Dec-14,30.33,30.90,29.89,30.22,572763
3-Dec-14,30.55,30.74,30.30,30.34,463564
2-Dec-14,31.12,31.12,30.61,30.68,460182
1-Dec-14,31.53,31.86,31.04,31.12,430743
28-Nov-14,30.75,31.91,30.75,31.90,595607
26-Nov-14,32.28,32.30,31.70,31.72,783014
25-Nov-14,32.52,32.58,32.16,32.26,615197
24-Nov-14,32.06,32.55,31.98,32.43,701077
21-Nov-14,32.29,32.73,32.28,32.61,430338
20-Nov-14,32.06,32.37,32.06,32.24,517075
19-Nov-14,31.97,32.21,31.89,32.08,917864
18-Nov-14,32.01,32.28,32.00,32.10,357733
17-Nov-14,31.89,32.08,31.75,32.01,502230
14-Nov-14,32.02,32.21,31.75,31.97,763051
13-Nov-14,31.89,32.32,31.78,32.08,467174
12-Nov-14,31.85,32.10,31.76,31.78,906186
11-Nov-14,31.67,31.90,31.51,31.85,722763
10-Nov-14,31.91,32.14,31.68,31.72,432711
7-Nov-14,31.69,32.16,31.63,31.97,680345
6-Nov-14,31.63,31.81,31.50,31.63,745117
5-Nov-14,31.59,31.81,31.40,31.75,744746
4-Nov-14,31.48,31.60,31.46,31.51,813912
3-Nov-14,31.17,31.58,31.14,31.41,669882
31-Oct-14,31.36,31.66,31.04,31.25,858183
30-Oct-14,31.04,31.19,30.96,31.09,1325523
29-Oct-14,31.35,31.78,30.98,31.09,838576
28-Oct-14,32.30,32.30,31.00,31.46,666286
27-Oct-14,31.89,32.35,31.81,32.34,887180
24-Oct-14,32.08,32.10,31.75,31.98,436760
23-Oct-14,31.89,32.46,31.59,32.01,1459473
22-Oct-14,31.97,32.17,31.51,31.70,1173462
21-Oct-14,32.12,32.23,31.98,32.01,484765
20-Oct-14,31.63,32.16,31.41,32.15,908152
17-Oct-14,31.66,31.97,31.41,31.58,718772
16-Oct-14,30.65,31.53,30.65,31.45,690766
15-Oct-14,30.71,31.20,30.50,31.00,1215201
14-Oct-14,30.25,30.89,30.12,30.83,781249
13-Oct-14,30.27,30.65,30.03,30.06,511956
10-Oct-14,29.88,30.50,29.74,30.20,594259
9-Oct-14,30.21,30.31,29.73,29.94,1485629
8-Oct-14,30.23,30.44,30.02,30.20,1152370
7-Oct-14,30.90,30.94,30.16,30.26,629418
6-Oct-14,30.61,30.99,30.48,30.82,377120
3-Oct-14,30.54,30.64,30.23,30.60,1407857
2-Oct-14,30.90,30.98,30.02,30.37,987822
1-Oct-14,30.87,31.28,30.73,30.94,1936079
30-Sep-14,31.24,31.24,30.76,30.90,808857
29-Sep-14,31.14,31.37,30.88,31.20,620258
26-Sep-14,31.51,31.51,31.10,31.33,1277922
25-Sep-14,31.42,31.54,31.30,31.39,978784
24-Sep-14,31.88,32.03,31.47,31.51,455206
23-Sep-14,31.51,32.02,31.44,31.80,1033409
22-Sep-14,31.82,31.82,31.12,31.50,569731
19-Sep-14,31.51,31.82,31.41,31.59,4287246
18-Sep-14,31.84,31.87,31.35,31.46,828918
17-Sep-14,31.40,31.75,31.34,31.67,1243929
16-Sep-14,31.35,31.59,31.19,31.43,747035
15-Sep-14,31.26,31.79,31.11,31.55,1422454
12-Sep-14,32.38,32.57,31.42,31.45,1564338
11-Sep-14,32.70,32.83,32.32,32.40,919184
10-Sep-14,34.15,34.22,33.11,33.20,1035765
9-Sep-14,33.80,34.36,33.80,34.28,1030903
8-Sep-14,33.50,34.13,33.38,33.89,3039713
5-Sep-14,33.36,33.49,33.22,33.46,689233
4-Sep-14,33.27,33.38,33.11,33.34,777414
3-Sep-14,33.46,33.46,33.13,33.22,865044
2-Sep-14,33.31,33.49,33.11,33.36,1666772
29-Aug-14,33.29,33.44,33.11,33.30,686612
28-Aug-14,33.40,33.49,33.16,33.34,446599
27-Aug-14,33.75,33.81,33.40,33.46,1299504
26-Aug-14,33.53,33.70,33.48,33.59,175317
25-Aug-14,33.46,33.56,33.27,33.51,402857
22-Aug-14,33.40,33.62,33.12,33.26,455493
21-Aug-14,33.79,33.96,33.34,33.39,627739
20-Aug-14,33.58,34.00,33.55,33.68,914070
19-Aug-14,34.29,34.48,33.95,34.00,700513
18-Aug-14,34.56,34.64,34.20,34.28,625412
15-Aug-14,34.19,34.47,34.06,34.44,412718
14-Aug-14,34.10,34.36,33.91,34.14,303085
13-Aug-14,33.62,34.06,33.57,34.06,324093
12-Aug-14,33.36,33.66,33.30,33.52,338332
11-Aug-14,33.56,33.56,33.07,33.33,339751
8-Aug-14,33.42,33.42,32.80,33.20,520422
7-Aug-14,33.31,33.90,33.16,33.27,540741
6-Aug-14,33.61,33.63,33.02,33.26,461614
5-Aug-14,34.23,34.45,33.51,33.64,751048
4-Aug-14,34.27,34.31,33.77,34.23,438664
1-Aug-14,33.70,34.15,33.68,33.78,1568681
31-Jul-14,34.00,34.29,33.44,33.67,1328368
30-Jul-14,34.58,35.02,33.98,34.09,1120214
29-Jul-14,35.50,35.52,34.32,34.45,1122808
28-Jul-14,35.45,35.50,34.61,34.65,1302390
25-Jul-14,35.02,35.09,34.80,34.86,511192
24-Jul-14,36.00,36.25,34.98,35.06,511201
23-Jul-14,35.90,35.91,35.40,35.84,499795
22-Jul-14,35.15,35.93,34.78,35.88,3417835
21-Jul-14,35.00,35.14,34.92,34.99,451651
18-Jul-14,35.13,35.28,35.00,35.10,385360
17-Jul-14,35.00,35.18,34.90,34.98,647662
16-Jul-14,34.89,35.11,34.58,34.98,853974
15-Jul-14,34.86,35.05,34.52,34.80,711162
14-Jul-14,35.67,35.75,34.65,34.79,803756
11-Jul-14,35.06,35.68,34.79,35.61,1401413
10-Jul-14,35.30,35.98,35.20,35.73,545198
9-Jul-14,35.70,35.91,35.22,35.59,856303
8-Jul-14,35.38,35.70,35.18,35.56,491856
7-Jul-14,35.44,35.69,35.20,35.49,567660
3-Jul-14,35.83,36.03,35.27,35.56,398711
2-Jul-14,36.00,36.44,35.56,35.72,1890364
1-Jul-14,34.15,35.03,33.94,34.90,2256266
30-Jun-14,33.38,34.45,33.01,33.97,2123389
27-Jun-14,33.08,33.31,32.68,33.23,1673608
26-Jun-14,33.14,33.31,32.82,33.03,495210
25-Jun-14,33.14,33.36,33.12,33.24,631905
24-Jun-14,33.09,33.25,33.09,33.22,911046
23-Jun-14,33.09,33.20,32.81,33.08,848011
20-Jun-14,32.95,33.23,32.83,33.21,1101766
19-Jun-14,32.31,32.95,32.24,32.95,837871
18-Jun-14,32.62,32.63,32.18,32.41,1590687
17-Jun-14,32.82,33.21,32.50,32.51,615833
16-Jun-14,33.00,33.30,32.55,32.95,758555
13-Jun-14,32.94,33.09,32.75,33.00,326155
12-Jun-14,33.00,33.19,32.70,32.94,798986
11-Jun-14,33.23,33.48,32.92,33.04,503428
10-Jun-14,33.63,33.73,33.02,33.18,1149502
9-Jun-14,34.32,34.43,33.99,34.04,1207954
6-Jun-14,33.81,34.43,33.77,34.42,1477698
5-Jun-14,33.87,34.33,33.82,33.90,2342104
4-Jun-14,33.45,34.08,33.45,33.85,2215452
3-Jun-14,33.50,33.72,33.20,33.53,634463
2-Jun-14,33.66,33.94,33.37,33.60,880789
30-May-14,33.82,33.91,33.29,33.56,1252241
29-May-14,34.08,34.17,33.78,33.84,1426142
28-May-14,34.23,34.58,34.06,34.11,894860
27-May-14,34.04,34.29,34.00,34.17,665688
23-May-14,34.01,34.36,33.87,34.05,526458
22-May-14,34.00,34.20,33.80,33.89,503614
21-May-14,34.15,34.27,33.87,33.99,1251844
20-May-14,34.51,34.51,33.91,34.07,891238
19-May-14,34.72,34.85,34.30,34.42,1024187
16-May-14,34.56,34.92,34.35,34.89,599215
15-May-14,34.69,35.08,34.13,34.55,891893
14-May-14,35.36,36.00,34.78,34.84,1909636
13-May-14,35.64,35.84,34.90,34.97,4382909
12-May-14,35.47,36.01,35.36,35.50,603620
9-May-14,35.76,36.02,35.47,35.81,288048
8-May-14,35.83,36.13,35.44,35.85,436803
7-May-14,35.83,36.00,35.41,36.00,328357
6-May-14,35.87,36.00,35.56,35.61,293614
5-May-14,35.80,36.00,35.31,35.99,619003
2-May-14,36.32,36.71,35.89,36.00,667794
1-May-14,36.85,36.85,36.16,36.44,865690
30-Apr-14,35.58,37.02,35.58,36.75,870421
29-Apr-14,36.41,36.82,36.27,36.67,393256
28-Apr-14,36.05,36.70,35.82,36.36,502520
25-Apr-14,37.00,37.35,35.99,36.08,785865
24-Apr-14,36.57,37.66,36.52,37.14,1642020
23-Apr-14,38.23,38.23,37.40,37.60,337011
22-Apr-14,37.88,38.50,37.88,38.33,913844
21-Apr-14,37.72,37.87,37.39,37.70,1149135
17-Apr-14,36.32,37.57,36.32,37.52,650581
16-Apr-14,35.73,36.79,35.73,36.50,1041770
15-Apr-14,35.97,36.19,35.37,35.79,639850
14-Apr-14,35.88,36.27,35.61,36.00,359543
11-Apr-14,35.50,35.86,35.22,35.55,411187
10-Apr-14,36.23,36.56,35.34,35.55,912054
9-Apr-14,35.93,36.34,35.75,36.00,439678
8-Apr-14,35.89,36.20,35.57,35.75,519215
7-Apr-14,36.38,36.66,35.71,35.79,1020683
4-Apr-14,37.25,37.25,36.26,36.45,1244869
3-Apr-14,37.11,37.45,36.97,37.19,485011
2-Apr-14,37.37,37.49,37.09,37.21,560713
1-Apr-14,36.40,37.50,36.40,37.50,1170719
31-Mar-14,36.54,36.75,36.31,36.46,435050
28-Mar-14,36.65,37.06,36.12,36.18,429694
27-Mar-14,36.00,36.87,35.89,36.40,599759
26-Mar-14,36.45,37.24,36.10,36.12,1062132
25-Mar-14,36.32,36.75,36.16,36.58,539768
24-Mar-14,36.22,36.36,35.88,36.03,679160
21-Mar-14,36.23,36.59,35.91,36.24,1275611
20-Mar-14,36.16,36.34,35.92,36.25,289061
19-Mar-14,36.58,36.96,36.16,36.24,1419128
18-Mar-14,36.74,36.86,36.47,36.65,659816
17-Mar-14,37.24,37.58,36.70,36.84,479951
14-Mar-14,37.08,38.31,36.88,37.33,1007556
13-Mar-14,37.28,37.48,36.81,36.97,262543
12-Mar-14,36.31,37.59,36.21,37.47,470513
11-Mar-14,37.26,38.19,37.09,37.21,749356
10-Mar-14,38.51,39.02,37.59,37.82,793993
7-Mar-14,39.00,39.09,38.30,38.73,1003032
6-Mar-14,38.50,38.75,37.91,38.53,658618
5-Mar-14,38.12,38.59,37.56,38.24,762539
4-Mar-14,38.12,38.79,37.91,38.75,1034649
3-Mar-14,38.08,38.33,37.50,37.94,1673889
28-Feb-14,37.89,38.34,37.42,38.08,14828276
27-Feb-14,37.50,38.23,37.10,37.89,1921077
26-Feb-14,37.58,38.02,36.71,37.46,2174689
25-Feb-14,37.61,38.00,37.48,38.00,1367714
24-Feb-14,38.00,38.26,37.45,37.77,1738531
21-Feb-14,38.66,39.18,37.88,38.23,1732253
20-Feb-14,37.60,38.90,36.64,38.66,1324698
19-Feb-14,38.17,38.86,37.95,38.24,2121646
18-Feb-14,38.34,38.49,37.80,38.44,1691881
14-Feb-14,38.85,38.85,37.97,38.35,1448314
13-Feb-14,38.20,39.19,38.00,38.84,3226433
12-Feb-14,37.64,37.85,37.36,37.83,706318
11-Feb-14,36.90,37.90,36.80,37.50,1319291
10-Feb-14,36.87,37.20,36.60,37.08,668874
7-Feb-14,36.36,37.09,35.86,36.69,840015
6-Feb-14,34.63,36.10,34.60,35.97,1302727
5-Feb-14,34.34,34.88,34.00,34.52,768884
4-Feb-14,33.87,34.61,33.75,34.48,622267
3-Feb-14,34.47,35.07,33.76,33.98,1163089
31-Jan-14,34.62,35.18,33.98,34.70,2004165
30-Jan-14,34.68,35.11,34.42,34.60,756234
29-Jan-14,34.46,34.92,33.85,34.20,1049243
28-Jan-14,33.56,34.90,33.56,34.87,715038
27-Jan-14,34.81,35.53,34.16,34.38,675883
24-Jan-14,35.00,35.39,34.67,34.72,676652
23-Jan-14,35.65,35.85,35.38,35.45,470268
22-Jan-14,35.70,36.25,35.70,35.80,471682
21-Jan-14,35.91,36.43,35.91,36.32,376197
17-Jan-14,35.96,36.62,35.95,36.31,582635
16-Jan-14,36.84,37.46,36.29,36.51,809181
15-Jan-14,37.10,37.84,36.93,37.07,2119167
14-Jan-14,37.12,37.47,36.93,37.23,1381074
13-Jan-14,37.72,38.04,37.23,37.24,1506000
10-Jan-14,38.33,38.38,37.64,37.86,1620077
9-Jan-14,37.50,38.48,37.30,37.75,3437416
8-Jan-14,48.41,49.08,47.50,48.70,3430274
7-Jan-14,49.30,50.98,48.67,49.02,1698703
6-Jan-14,50.19,50.50,49.00,49.21,1468803
3-Jan-14,50.30,50.70,49.93,50.26,542437
2-Jan-14,50.65,51.57,50.34,50.43,855833
31-Dec-13,50.75,51.26,50.53,50.81,285035
30-Dec-13,49.39,50.60,48.51,50.48,286357
27-Dec-13,50.41,50.48,49.26,49.73,273466
26-Dec-13,50.61,50.61,50.05,50.24,164365
24-Dec-13,49.82,50.48,49.54,50.34,192033
23-Dec-13,49.80,50.00,49.39,49.91,250320
20-Dec-13,48.96,50.00,48.96,49.82,1087724
19-Dec-13,49.48,49.69,48.98,49.27,342477
18-Dec-13,50.00,50.00,48.84,49.43,2424077
17-Dec-13,49.56,50.50,49.56,49.62,530977
16-Dec-13,49.57,50.41,49.39,50.35,313795
13-Dec-13,50.50,50.50,49.71,50.06,413088
12-Dec-13,51.00,51.33,50.07,50.16,988656
11-Dec-13,50.00,51.94,49.40,50.82,901430
10-Dec-13,49.39,50.34,49.13,50.04,658407
9-Dec-13,48.23,49.95,47.15,49.74,1703491
6-Dec-13,46.68,47.39,46.37,47.26,617525
5-Dec-13,46.28,47.08,45.96,46.49,535035
4-Dec-13,46.45,46.85,46.01,46.43,256623
3-Dec-13,46.58,46.70,45.84,46.36,424669
2-Dec-13,46.74,47.11,45.60,47.04,524662
29-Nov-13,46.50,47.05,45.94,46.12,295886
27-Nov-13,46.21,46.89,46.09,46.68,240373
26-Nov-13,46.15,46.42,45.62,46.30,315130
25-Nov-13,45.31,46.12,44.86,45.94,1007540
22-Nov-13,45.71,46.15,45.06,46.12,872258
21-Nov-13,44.92,44.92,44.29,44.66,774181
20-Nov-13,45.00,45.00,44.27,44.60,1241564
19-Nov-13,44.51,45.04,44.28,44.52,1106201
18-Nov-13,45.20,45.48,44.84,45.07,431645
15-Nov-13,45.03,45.40,44.94,45.20,625335
14-Nov-13,44.49,45.45,44.49,44.95,1097415
13-Nov-13,44.34,45.12,44.34,44.90,881628
12-Nov-13,46.75,46.95,45.37,45.42,1063644
11-Nov-13,45.75,46.48,45.25,45.81,1224220
8-Nov-13,45.40,45.80,44.72,45.49,2594115
7-Nov-13,47.90,47.90,45.26,45.81,1110263
6-Nov-13,46.50,47.18,45.91,46.90,1583765
5-Nov-13,53.50,53.50,46.26,46.52,1145474
4-Nov-13,45.80,47.20,45.67,46.80,1771742
1-Nov-13,45.19,45.74,44.65,45.64,1043734
31-Oct-13,44.35,45.17,44.02,45.00,404748
30-Oct-13,44.94,45.73,44.00,44.36,263801
29-Oct-13,44.11,44.75,44.00,44.52,176204
28-Oct-13,44.50,44.78,44.00,44.39,59740
25-Oct-13,44.29,44.74,43.64,44.42,581384
24-Oct-13,43.60,44.13,43.41,43.84,964050
23-Oct-13,42.96,44.15,41.70,43.66,988435
22-Oct-13,44.02,44.68,43.44,44.55,1508459
21-Oct-13,44.01,44.28,43.55,44.20,316750
18-Oct-13,43.75,44.51,42.65,44.30,558447
17-Oct-13,44.83,44.83,41.03,43.23,1396233
16-Oct-13,41.40,41.40,41.10,41.27,763570
15-Oct-13,41.20,41.30,41.10,41.20,182068
14-Oct-13,41.00,42.00,40.25,41.20,315997
