﻿Date,Open,High,Low,Close,Volume
20-Jun-17,32.50,32.65,32.25,32.35,109264
19-Jun-17,33.00,33.25,32.35,32.55,162876
16-Jun-17,32.10,33.05,32.10,32.80,314494
15-Jun-17,31.95,32.40,31.90,32.40,141612
14-Jun-17,32.30,32.50,32.05,32.30,247887
13-Jun-17,32.35,32.57,32.15,32.25,169347
12-Jun-17,32.55,32.60,31.90,32.35,143083
9-Jun-17,33.25,33.30,32.50,32.55,295733
8-Jun-17,32.60,33.20,32.50,33.10,187189
7-Jun-17,32.20,32.60,31.90,32.50,216593
6-Jun-17,32.10,33.00,31.95,32.20,304946
5-Jun-17,33.05,33.10,32.20,32.25,314849
2-Jun-17,33.55,33.95,33.00,33.05,199753
1-Jun-17,32.20,33.65,32.17,33.55,356677
31-May-17,32.00,32.30,31.85,32.25,240145
30-May-17,31.45,32.15,31.30,31.95,169164
26-May-17,31.80,31.85,31.00,31.50,247609
25-May-17,29.10,31.80,29.00,31.80,940560
24-May-17,28.95,29.10,28.50,29.00,158269
23-May-17,29.05,29.20,28.48,28.85,238682
22-May-17,29.10,29.25,28.70,29.05,218002
19-May-17,28.95,29.55,28.85,28.95,258670
18-May-17,28.95,29.35,28.75,28.80,163144
17-May-17,29.20,29.70,29.10,29.10,165954
16-May-17,29.85,30.05,29.35,29.80,125261
15-May-17,29.55,30.00,29.55,29.85,124101
12-May-17,29.45,29.80,29.37,29.55,151222
11-May-17,30.00,30.50,29.70,29.75,203681
10-May-17,29.10,30.25,29.00,30.15,317658
9-May-17,28.80,29.35,28.60,29.10,210072
8-May-17,28.60,29.15,28.45,28.85,172746
5-May-17,29.00,29.25,28.55,28.70,267849
4-May-17,28.20,28.92,26.80,28.50,359487
3-May-17,28.20,28.38,27.65,28.30,242202
2-May-17,27.95,28.80,27.90,28.45,212611
1-May-17,27.60,28.30,27.60,28.00,225265
28-Apr-17,27.80,27.95,27.30,27.50,243272
27-Apr-17,28.50,28.55,27.75,27.85,176793
26-Apr-17,28.70,28.85,28.25,28.35,281845
25-Apr-17,28.30,29.00,28.10,28.75,678070
24-Apr-17,28.65,28.80,27.95,28.05,352602
21-Apr-17,27.45,28.30,27.10,28.15,331662
20-Apr-17,27.40,27.95,27.20,27.60,220826
19-Apr-17,26.50,27.35,26.48,27.15,298102
18-Apr-17,26.05,26.55,26.05,26.35,191268
17-Apr-17,25.65,26.25,25.45,26.25,197361
13-Apr-17,25.25,25.80,25.25,25.50,237433
12-Apr-17,25.50,25.70,25.20,25.35,242324
11-Apr-17,25.55,25.85,25.35,25.60,283569
10-Apr-17,25.25,26.52,24.95,25.65,378294
7-Apr-17,24.75,25.25,24.60,25.15,353948
6-Apr-17,23.60,24.80,23.10,24.75,295291
5-Apr-17,24.15,24.40,23.50,23.65,241408
4-Apr-17,23.40,24.10,23.35,23.95,222300
3-Apr-17,24.45,24.45,23.55,23.55,303388
31-Mar-17,24.45,24.48,23.55,24.35,272767
30-Mar-17,23.75,24.45,23.75,24.45,251623
29-Mar-17,23.60,23.91,23.25,23.70,282351
28-Mar-17,23.45,23.70,22.95,23.65,208473
27-Mar-17,23.10,23.65,23.10,23.50,148578
24-Mar-17,23.10,23.70,23.10,23.65,157213
23-Mar-17,23.50,23.80,23.10,23.25,268323
22-Mar-17,24.10,24.35,23.45,23.55,274896
21-Mar-17,25.35,25.40,24.05,24.15,396864
20-Mar-17,25.25,25.55,24.95,25.20,214170
17-Mar-17,25.30,25.50,25.10,25.35,308975
16-Mar-17,25.10,25.60,24.70,25.25,172867
15-Mar-17,23.85,25.10,23.75,24.90,266061
14-Mar-17,24.50,24.65,23.50,23.55,308274
13-Mar-17,23.90,24.70,23.80,24.60,254877
10-Mar-17,23.75,24.22,23.50,24.00,488458
9-Mar-17,25.95,26.00,23.10,23.50,829675
8-Mar-17,26.30,27.05,24.60,25.50,700282
7-Mar-17,26.30,27.80,26.25,26.90,573552
6-Mar-17,26.75,26.95,26.20,26.35,88857
3-Mar-17,27.50,27.85,26.80,27.00,243066
2-Mar-17,27.90,28.15,27.48,27.55,141539
1-Mar-17,28.20,28.50,27.65,28.20,173998
28-Feb-17,28.80,28.80,27.70,27.90,148848
27-Feb-17,28.00,28.90,27.85,28.90,119516
24-Feb-17,28.30,28.65,28.00,28.00,60814
23-Feb-17,28.90,28.90,28.00,28.45,109392
22-Feb-17,28.45,28.95,28.20,28.80,119510
21-Feb-17,29.05,29.13,28.15,28.50,110795
17-Feb-17,29.10,29.25,28.70,29.00,108541
16-Feb-17,28.85,29.55,28.85,29.05,116640
15-Feb-17,28.60,29.15,28.45,28.80,145867
14-Feb-17,28.50,28.75,28.25,28.75,100741
13-Feb-17,28.35,28.80,28.05,28.60,160017
10-Feb-17,28.35,28.40,27.90,28.15,94914
9-Feb-17,27.95,28.50,27.85,28.35,81894
8-Feb-17,27.75,27.95,27.25,27.65,136136
7-Feb-17,27.50,27.75,27.25,27.65,77746
6-Feb-17,28.20,28.20,27.38,27.50,65690
3-Feb-17,27.55,28.20,27.55,28.15,107063
2-Feb-17,27.75,27.94,27.25,27.40,72741
1-Feb-17,28.35,28.35,27.20,27.90,233241
31-Jan-17,28.45,28.50,28.20,28.25,94905
30-Jan-17,29.15,29.15,28.35,28.50,86062
27-Jan-17,29.30,29.40,28.75,29.35,71731
26-Jan-17,29.25,29.45,28.95,29.30,83799
25-Jan-17,29.15,29.40,28.95,29.25,83723
24-Jan-17,28.90,29.25,28.50,28.95,219604
23-Jan-17,28.80,29.05,28.70,28.80,135258
20-Jan-17,28.45,29.20,28.45,28.85,242734
19-Jan-17,28.75,28.85,28.18,28.40,120363
18-Jan-17,28.05,28.80,27.90,28.75,146292
17-Jan-17,28.50,28.50,27.90,28.05,100371
13-Jan-17,28.55,29.10,28.45,28.55,123520
12-Jan-17,29.50,29.50,28.00,28.45,123816
11-Jan-17,29.20,29.70,28.85,29.60,321367
10-Jan-17,27.80,29.45,27.80,29.15,521754
9-Jan-17,27.90,28.05,27.30,27.60,202252
6-Jan-17,28.20,28.20,27.60,27.80,101349
5-Jan-17,27.95,28.65,27.95,28.25,91931
4-Jan-17,27.95,28.50,27.90,28.10,156650
3-Jan-17,29.00,29.12,27.55,27.75,196492
30-Dec-16,28.50,28.90,28.05,28.75,123095
29-Dec-16,28.10,28.50,28.10,28.30,86836
28-Dec-16,28.65,28.65,27.90,27.95,97713
27-Dec-16,27.75,28.75,27.75,28.70,69092
23-Dec-16,28.15,28.50,27.63,27.90,121109
22-Dec-16,28.75,28.85,28.00,28.40,82944
21-Dec-16,28.60,28.95,27.60,28.75,210050
20-Dec-16,28.75,29.75,28.40,28.65,274215
19-Dec-16,28.50,28.85,28.00,28.70,375603
16-Dec-16,27.40,27.50,27.00,27.20,287530
15-Dec-16,26.85,27.60,26.70,27.25,299900
14-Dec-16,26.70,26.95,26.55,26.70,109743
13-Dec-16,26.95,27.10,26.75,26.80,127210
12-Dec-16,26.70,27.15,26.03,26.35,120819
9-Dec-16,27.45,27.55,26.60,26.85,145254
8-Dec-16,27.50,27.60,27.10,27.40,136057
7-Dec-16,25.70,27.50,25.65,27.50,259751
6-Dec-16,25.50,26.00,25.20,25.70,74733
5-Dec-16,24.80,25.35,24.80,25.35,70434
2-Dec-16,24.85,25.30,24.75,24.75,79584
1-Dec-16,25.40,25.40,24.65,24.90,183239
30-Nov-16,25.90,26.00,25.05,25.40,91685
29-Nov-16,25.75,26.00,25.35,25.80,86067
28-Nov-16,25.50,25.85,25.20,25.80,260007
25-Nov-16,25.25,25.65,25.25,25.50,42659
23-Nov-16,24.85,25.40,24.80,25.30,117388
22-Nov-16,24.45,25.00,24.30,24.90,223574
21-Nov-16,24.60,24.85,24.20,24.35,111978
18-Nov-16,24.70,24.95,24.45,24.50,126581
17-Nov-16,23.65,25.12,23.60,24.50,234128
16-Nov-16,23.35,23.65,23.25,23.60,115905
15-Nov-16,23.00,23.35,22.70,23.25,100500
14-Nov-16,23.25,23.50,22.70,23.00,172114
11-Nov-16,22.75,23.20,22.70,23.00,349374
10-Nov-16,24.20,24.25,22.75,23.00,260403
9-Nov-16,24.00,24.85,22.60,23.50,300979
8-Nov-16,21.45,21.60,21.00,21.20,69981
7-Nov-16,21.95,21.95,21.35,21.40,90833
4-Nov-16,21.10,21.80,21.10,21.35,73242
3-Nov-16,20.90,21.60,20.90,21.00,71630
2-Nov-16,21.75,22.05,20.80,20.90,101942
1-Nov-16,22.45,22.45,21.25,21.60,110180
31-Oct-16,22.75,22.80,22.15,22.50,180949
28-Oct-16,22.45,22.80,22.25,22.50,67688
27-Oct-16,22.95,23.00,22.35,22.55,96511
26-Oct-16,22.95,23.15,22.55,22.75,101869
25-Oct-16,23.40,23.60,22.95,23.05,73252
24-Oct-16,23.60,23.75,23.04,23.45,121785
21-Oct-16,23.25,23.50,23.10,23.30,56650
20-Oct-16,23.40,23.55,23.25,23.45,70138
19-Oct-16,23.35,23.70,23.15,23.35,88987
18-Oct-16,23.05,23.40,22.85,23.20,79496
17-Oct-16,22.75,22.95,22.60,22.80,79257
14-Oct-16,23.05,23.25,22.59,22.79,54240
13-Oct-16,22.87,23.19,22.80,22.95,65464
12-Oct-16,23.05,23.23,22.69,23.08,49340
11-Oct-16,23.79,24.00,22.91,23.03,124016
10-Oct-16,24.06,24.31,23.90,23.95,79167
7-Oct-16,24.06,24.13,23.74,23.94,173845
6-Oct-16,23.76,24.22,23.66,23.99,132905
5-Oct-16,23.50,23.97,23.50,23.88,84571
4-Oct-16,23.31,23.63,23.05,23.35,98936
3-Oct-16,23.38,23.57,23.02,23.34,106387
30-Sep-16,23.33,23.69,23.16,23.53,210234
29-Sep-16,23.61,23.69,23.12,23.21,107309
28-Sep-16,23.70,24.20,23.47,23.62,134223
27-Sep-16,23.45,24.15,23.45,23.70,201036
26-Sep-16,23.48,23.82,23.39,23.39,66358
23-Sep-16,24.03,24.15,23.52,23.70,89319
22-Sep-16,23.17,24.01,22.91,23.96,204507
21-Sep-16,22.60,23.06,22.28,23.03,201176
20-Sep-16,22.14,22.92,22.11,22.59,239725
19-Sep-16,21.66,22.26,21.49,22.03,125426
16-Sep-16,21.40,21.57,21.15,21.50,112679
15-Sep-16,21.38,21.56,21.17,21.39,92140
14-Sep-16,21.32,21.53,20.90,21.36,77699
13-Sep-16,21.78,21.80,21.02,21.26,105887
12-Sep-16,21.54,21.94,21.52,21.93,66580
9-Sep-16,22.17,22.27,21.69,21.69,124683
8-Sep-16,22.76,22.76,21.99,22.35,78959
7-Sep-16,22.06,23.10,22.06,22.73,344875
6-Sep-16,21.43,22.07,21.21,21.99,350501
2-Sep-16,21.02,21.48,21.02,21.38,102105
1-Sep-16,21.22,21.22,20.18,20.91,190645
31-Aug-16,20.96,21.28,20.70,21.23,163192
30-Aug-16,20.99,21.12,20.73,21.04,102911
29-Aug-16,20.65,21.01,20.65,20.93,110013
26-Aug-16,20.96,21.21,20.66,20.69,120395
25-Aug-16,21.33,21.67,20.82,20.97,184903
24-Aug-16,21.28,21.99,21.28,21.40,318947
23-Aug-16,20.93,21.28,20.79,21.26,193104
22-Aug-16,20.57,20.91,20.38,20.78,236822
19-Aug-16,20.09,20.81,19.95,20.57,145751
18-Aug-16,19.86,20.22,19.86,20.15,118490
17-Aug-16,20.42,20.42,19.89,19.89,105698
16-Aug-16,20.99,21.04,20.25,20.49,169333
15-Aug-16,20.89,21.19,20.76,21.00,88758
12-Aug-16,20.96,21.11,20.81,20.82,84511
11-Aug-16,21.10,21.18,20.82,20.97,102809
10-Aug-16,20.99,21.11,20.91,20.97,150932
9-Aug-16,20.94,21.15,20.91,21.02,199198
8-Aug-16,21.00,21.14,20.72,20.97,166378
5-Aug-16,20.77,21.33,20.53,21.00,276381
4-Aug-16,20.95,21.50,20.62,20.77,239355
3-Aug-16,20.39,20.66,19.86,20.48,232411
2-Aug-16,20.40,20.64,20.29,20.44,160680
1-Aug-16,20.48,20.48,19.76,20.42,206569
29-Jul-16,20.43,20.71,20.34,20.53,102306
28-Jul-16,20.62,20.88,20.50,20.52,122884
27-Jul-16,21.36,21.49,20.76,20.78,131500
26-Jul-16,21.10,21.37,21.10,21.36,209039
25-Jul-16,21.00,21.34,20.93,21.07,103049
22-Jul-16,20.74,21.01,20.65,20.99,161508
21-Jul-16,20.75,20.98,20.63,20.75,253473
20-Jul-16,20.63,20.74,20.48,20.72,98371
19-Jul-16,20.35,20.54,19.97,20.49,229031
18-Jul-16,20.15,20.31,19.96,20.30,91352
15-Jul-16,20.19,20.22,19.90,20.19,98140
14-Jul-16,20.45,20.45,20.05,20.07,48558
13-Jul-16,20.22,20.48,20.00,20.21,114384
12-Jul-16,19.97,20.35,19.84,20.08,229091
11-Jul-16,19.90,20.00,19.65,19.87,176901
8-Jul-16,19.45,19.98,19.31,19.92,273493
7-Jul-16,18.25,19.23,18.25,19.22,251981
6-Jul-16,17.80,18.49,17.75,18.31,140953
5-Jul-16,18.08,18.15,17.55,17.98,123708
1-Jul-16,18.49,18.68,17.91,18.00,107902
30-Jun-16,18.04,18.51,17.80,18.48,626112
29-Jun-16,17.14,17.95,16.93,17.95,179132
28-Jun-16,16.70,17.11,16.70,16.86,214409
27-Jun-16,16.76,16.79,16.40,16.42,163981
24-Jun-16,16.88,17.34,16.85,17.02,415426
23-Jun-16,17.80,18.09,17.74,18.05,127986
22-Jun-16,17.93,18.23,17.63,17.65,100293
21-Jun-16,18.39,18.41,17.68,17.84,87821
20-Jun-16,18.56,18.62,18.31,18.35,141163
17-Jun-16,18.00,18.44,17.59,18.28,610349
16-Jun-16,17.36,17.97,16.60,17.95,1805322
15-Jun-16,17.81,17.86,17.42,17.45,130326
14-Jun-16,17.52,17.99,17.47,17.63,138134
13-Jun-16,18.00,18.08,17.51,17.63,108951
10-Jun-16,18.08,18.47,17.84,17.97,172270
9-Jun-16,18.20,18.26,17.93,18.24,108900
8-Jun-16,18.43,18.55,18.18,18.32,109631
7-Jun-16,18.46,18.66,18.19,18.44,156621
6-Jun-16,18.17,18.65,18.06,18.40,134271
3-Jun-16,18.58,18.58,18.15,18.22,80252
2-Jun-16,18.14,18.73,18.03,18.59,176583
1-Jun-16,18.71,18.71,17.69,18.06,247826
31-May-16,18.60,18.88,18.26,18.74,213199
27-May-16,18.48,18.59,18.21,18.55,99640
26-May-16,17.77,18.67,17.65,18.49,332052
25-May-16,17.48,17.89,17.33,17.79,207968
24-May-16,17.08,17.55,16.76,17.47,123567
23-May-16,16.67,17.24,16.53,17.02,133675
20-May-16,16.24,16.89,16.20,16.70,79176
19-May-16,16.15,16.27,15.89,16.21,180004
18-May-16,16.22,16.54,16.03,16.20,132682
17-May-16,16.84,17.10,16.21,16.27,153268
16-May-16,16.81,17.20,16.60,16.92,150316
13-May-16,16.24,16.80,16.24,16.71,155682
12-May-16,16.83,16.88,16.22,16.51,138420
11-May-16,16.81,17.05,16.63,16.84,182332
10-May-16,16.16,17.28,16.13,16.80,243854
9-May-16,15.50,16.40,15.38,16.11,133837
6-May-16,15.27,15.50,14.96,15.46,308023
5-May-16,15.65,16.32,15.16,15.21,346175
4-May-16,15.24,15.64,15.11,15.50,178690
3-May-16,15.80,15.89,15.25,15.34,124444
2-May-16,16.04,16.12,15.71,15.98,148223
29-Apr-16,16.26,16.26,15.52,15.98,160391
28-Apr-16,15.87,16.47,15.86,16.26,472050
27-Apr-16,16.01,16.27,15.72,15.99,146549
26-Apr-16,15.86,16.20,15.36,16.06,129991
25-Apr-16,16.05,16.05,15.70,15.77,78821
22-Apr-16,16.21,16.33,15.79,16.13,187146
21-Apr-16,16.35,16.46,16.02,16.22,86735
20-Apr-16,15.98,16.31,15.74,16.30,75388
19-Apr-16,16.08,16.47,15.65,15.91,142393
18-Apr-16,15.89,16.33,15.72,16.00,154701
15-Apr-16,16.03,16.25,15.86,16.04,72738
14-Apr-16,15.87,16.16,15.77,16.02,58468
13-Apr-16,15.54,16.05,15.38,15.89,114917
12-Apr-16,15.29,15.60,15.11,15.41,71263
11-Apr-16,15.50,15.60,15.11,15.28,121024
8-Apr-16,15.37,15.59,15.12,15.44,146850
7-Apr-16,15.72,15.88,15.09,15.19,110946
6-Apr-16,15.73,15.96,15.55,15.90,128369
5-Apr-16,16.29,16.34,15.70,15.76,114956
4-Apr-16,16.44,16.62,16.30,16.39,162459
1-Apr-16,16.39,17.00,16.26,16.47,133515
31-Mar-16,16.91,16.93,16.48,16.54,211544
30-Mar-16,16.72,17.02,16.56,16.84,244534
29-Mar-16,15.57,16.67,15.57,16.67,277757
28-Mar-16,15.58,15.79,15.31,15.65,127109
24-Mar-16,15.12,15.74,14.87,15.48,155735
23-Mar-16,15.69,15.81,15.27,15.28,283413
22-Mar-16,15.50,15.82,15.30,15.76,109518
21-Mar-16,15.48,15.69,15.27,15.53,144672
18-Mar-16,15.55,15.80,15.27,15.47,312434
17-Mar-16,15.51,15.60,15.35,15.41,191493
16-Mar-16,15.29,15.63,15.18,15.53,129075
15-Mar-16,15.68,15.87,15.26,15.49,202898
14-Mar-16,16.09,16.14,15.57,15.75,166476
11-Mar-16,15.98,16.22,15.82,16.12,284549
10-Mar-16,17.00,17.19,15.82,15.84,228405
9-Mar-16,17.41,17.71,16.80,16.86,259618
8-Mar-16,18.02,18.14,17.28,17.37,246144
7-Mar-16,18.13,18.18,17.48,18.10,238108
4-Mar-16,17.69,18.70,17.26,18.22,327242
3-Mar-16,16.42,18.20,16.34,17.68,595515
2-Mar-16,15.53,15.81,15.18,15.72,249383
1-Mar-16,14.98,15.70,14.87,15.60,221853
29-Feb-16,14.86,15.42,14.76,14.78,232354
26-Feb-16,14.48,15.03,14.27,14.79,279523
25-Feb-16,14.56,14.60,14.20,14.32,178869
24-Feb-16,14.05,14.69,13.92,14.60,213992
23-Feb-16,14.52,14.54,14.01,14.18,199026
22-Feb-16,14.44,14.70,14.16,14.66,131945
19-Feb-16,14.50,14.71,14.28,14.34,157965
18-Feb-16,14.10,14.69,14.10,14.53,235096
17-Feb-16,13.74,13.88,13.52,13.62,124317
16-Feb-16,13.69,13.80,13.22,13.40,197677
12-Feb-16,13.88,13.97,13.16,13.49,149605
11-Feb-16,12.93,13.70,12.87,13.64,198546
10-Feb-16,13.75,14.06,13.08,13.12,289125
9-Feb-16,12.73,13.86,12.73,13.57,311856
8-Feb-16,12.50,13.05,12.31,12.95,275743
5-Feb-16,13.45,13.76,12.55,12.70,405315
4-Feb-16,13.62,13.90,13.49,13.65,278493
3-Feb-16,13.92,14.01,13.42,13.57,409109
2-Feb-16,14.29,14.50,13.49,13.86,387734
1-Feb-16,14.87,14.87,14.17,14.50,439459
29-Jan-16,14.35,15.01,14.34,14.89,361494
28-Jan-16,14.24,14.62,13.94,14.30,210683
27-Jan-16,14.56,14.56,14.05,14.17,151316
26-Jan-16,14.33,14.93,14.21,14.58,137220
25-Jan-16,15.06,15.20,14.29,14.34,174363
22-Jan-16,14.95,15.15,14.81,15.06,156490
21-Jan-16,15.06,15.39,14.59,14.69,228288
20-Jan-16,15.14,15.20,14.14,14.92,426451
19-Jan-16,15.46,15.51,13.84,14.13,403730
15-Jan-16,15.90,16.11,14.89,15.33,310288
14-Jan-16,15.86,16.73,15.67,16.37,270235
13-Jan-16,16.15,16.35,15.52,15.80,188181
12-Jan-16,16.61,16.75,15.89,16.03,137536
11-Jan-16,16.54,16.59,16.10,16.49,136968
8-Jan-16,16.51,17.02,16.28,16.50,225690
7-Jan-16,16.76,17.38,16.34,16.50,210213
6-Jan-16,16.24,16.89,16.06,16.75,174845
5-Jan-16,17.03,17.07,16.41,16.53,195015
4-Jan-16,16.55,17.09,16.15,17.02,292399
31-Dec-15,17.01,17.34,16.76,17.06,349613
30-Dec-15,17.43,17.48,17.00,17.12,118255
29-Dec-15,17.94,18.11,17.22,17.40,157992
28-Dec-15,18.45,18.76,17.75,17.89,127663
24-Dec-15,18.73,18.77,18.29,18.53,176569
23-Dec-15,18.95,18.95,18.37,18.91,155760
22-Dec-15,17.75,18.80,17.47,18.77,373344
21-Dec-15,17.55,17.70,17.34,17.62,121864
18-Dec-15,17.08,17.64,17.08,17.40,270160
17-Dec-15,17.50,17.75,17.05,17.13,179165
16-Dec-15,16.97,17.61,16.97,17.52,132953
15-Dec-15,16.24,17.03,16.24,16.84,170568
14-Dec-15,16.79,17.09,15.87,16.12,414365
11-Dec-15,17.99,18.26,16.79,17.00,412547
10-Dec-15,18.33,18.66,18.07,18.37,126410
9-Dec-15,19.72,19.94,18.20,18.35,180511
8-Dec-15,20.42,20.57,19.67,19.74,165656
7-Dec-15,21.00,21.17,20.40,20.64,230691
4-Dec-15,20.72,21.16,20.62,20.95,199861
3-Dec-15,20.87,21.07,20.49,20.72,154871
2-Dec-15,20.81,21.27,20.73,20.87,143584
1-Dec-15,21.29,21.42,20.64,20.89,122363
30-Nov-15,20.74,21.25,20.53,21.19,298117
27-Nov-15,21.16,21.21,20.66,20.72,39194
25-Nov-15,21.11,21.22,20.87,21.08,92267
24-Nov-15,20.88,21.33,20.88,21.06,189385
23-Nov-15,20.68,21.22,20.59,21.04,291450
20-Nov-15,20.28,21.00,20.18,20.76,209950
19-Nov-15,20.16,20.33,20.03,20.11,91217
18-Nov-15,20.17,20.53,19.94,20.24,183635
17-Nov-15,19.85,20.40,19.85,20.07,185486
16-Nov-15,20.68,20.74,19.69,19.81,167424
13-Nov-15,21.17,21.44,20.31,20.45,300575
12-Nov-15,19.89,21.43,19.70,21.37,704274
11-Nov-15,19.76,19.98,19.54,19.90,211255
10-Nov-15,19.27,19.86,19.20,19.64,195771
9-Nov-15,20.00,20.14,19.20,19.25,179128
6-Nov-15,18.94,20.25,18.78,20.00,295912
5-Nov-15,19.30,20.84,18.50,18.80,343053
4-Nov-15,19.34,19.53,18.69,19.21,269347
3-Nov-15,18.89,19.35,18.67,19.05,252924
2-Nov-15,18.79,19.11,18.72,18.99,133816
30-Oct-15,18.67,18.72,18.24,18.72,226910
29-Oct-15,19.47,19.79,18.59,18.71,121634
28-Oct-15,18.60,19.67,18.60,19.47,203507
27-Oct-15,19.08,19.15,18.41,18.50,207536
26-Oct-15,19.61,19.69,19.19,19.22,152511
23-Oct-15,19.67,20.02,19.13,19.63,149597
22-Oct-15,19.46,20.09,19.00,19.41,188077
21-Oct-15,19.72,19.74,18.78,19.20,199973
20-Oct-15,20.69,20.95,19.51,19.61,229464
19-Oct-15,20.58,21.08,20.27,20.64,205330
16-Oct-15,21.50,21.57,20.69,20.80,289965
15-Oct-15,21.98,21.98,20.63,21.35,461775
14-Oct-15,22.99,23.22,21.57,21.92,249803
13-Oct-15,23.89,23.94,22.52,22.82,434382
12-Oct-15,23.96,25.13,23.71,24.00,316649
9-Oct-15,23.62,24.08,23.22,23.55,243940
8-Oct-15,23.17,23.57,22.84,23.50,236603
7-Oct-15,22.88,23.50,22.58,23.20,110618
6-Oct-15,23.65,24.07,22.59,22.85,133782
5-Oct-15,22.84,24.06,22.84,23.61,192429
2-Oct-15,22.22,22.76,21.57,22.73,156850
1-Oct-15,23.17,23.52,21.92,22.40,155221
30-Sep-15,23.01,23.53,22.31,23.26,322912
29-Sep-15,22.95,23.37,22.40,22.66,119696
28-Sep-15,23.28,23.34,22.57,22.95,122373
25-Sep-15,24.56,24.56,23.36,23.38,123667
24-Sep-15,24.09,24.42,23.94,24.28,107217
23-Sep-15,24.65,24.85,23.92,24.37,172876
22-Sep-15,25.14,25.24,24.38,24.51,148885
21-Sep-15,26.25,26.47,25.20,25.54,116728
18-Sep-15,25.52,26.47,25.25,26.05,766620
17-Sep-15,24.84,26.64,24.72,25.76,332216
16-Sep-15,24.31,24.88,23.61,24.80,273164
15-Sep-15,22.97,24.38,22.97,23.65,327677
14-Sep-15,23.28,23.28,21.97,22.50,151425
11-Sep-15,22.93,23.25,22.53,23.23,176243
10-Sep-15,22.62,23.37,22.62,23.05,233817
9-Sep-15,22.88,23.26,22.50,22.76,182716
8-Sep-15,21.93,22.92,21.84,22.54,171297
4-Sep-15,21.85,22.51,21.40,21.51,146826
3-Sep-15,22.43,22.52,21.91,22.09,76297
2-Sep-15,21.56,22.24,21.04,22.18,113188
1-Sep-15,21.60,22.19,21.09,21.31,121401
31-Aug-15,22.05,22.08,21.57,21.99,169748
28-Aug-15,20.85,22.71,20.60,22.11,200690
27-Aug-15,22.40,22.40,20.69,21.02,632645
26-Aug-15,22.22,22.34,21.29,22.26,149262
25-Aug-15,22.28,22.29,21.59,21.78,200809
24-Aug-15,20.61,22.24,14.00,21.69,363638
21-Aug-15,22.59,22.90,21.57,21.77,387025
20-Aug-15,24.04,24.04,22.99,23.01,105251
19-Aug-15,24.62,24.69,24.08,24.26,80165
18-Aug-15,25.48,25.66,24.66,24.78,87637
17-Aug-15,24.48,25.64,24.48,25.62,220750
14-Aug-15,23.44,24.65,23.07,24.62,703073
13-Aug-15,23.62,24.04,23.43,23.45,271295
12-Aug-15,23.75,23.96,23.06,23.70,90070
11-Aug-15,24.81,25.03,23.56,23.90,104387
10-Aug-15,24.40,25.00,24.36,24.98,193882
7-Aug-15,23.90,24.70,23.90,24.22,210926
6-Aug-15,22.68,25.37,22.68,24.07,333465
5-Aug-15,22.53,22.96,22.38,22.45,129664
4-Aug-15,22.84,22.87,22.32,22.43,70709
3-Aug-15,23.34,23.41,22.19,22.80,128043
31-Jul-15,23.05,23.66,23.05,23.23,90642
30-Jul-15,23.49,23.50,22.84,22.94,69289
29-Jul-15,22.88,23.74,22.48,23.64,111397
28-Jul-15,23.22,23.22,22.33,22.81,84252
27-Jul-15,22.18,23.24,21.61,23.05,156649
24-Jul-15,22.54,22.82,22.21,22.32,76983
23-Jul-15,23.02,23.45,22.45,22.57,76367
22-Jul-15,22.75,23.21,22.60,23.09,71762
21-Jul-15,22.33,23.03,22.33,22.97,103330
20-Jul-15,22.15,22.79,22.15,22.28,138966
17-Jul-15,22.62,22.81,22.04,22.36,272702
16-Jul-15,22.60,23.44,22.38,22.68,320538
15-Jul-15,23.48,23.74,22.61,22.63,411505
14-Jul-15,25.28,25.28,23.00,23.65,407860
13-Jul-15,24.75,25.50,24.73,25.34,260931
10-Jul-15,24.50,24.63,24.15,24.60,73302
9-Jul-15,24.09,24.49,23.77,24.28,127998
8-Jul-15,24.09,24.18,23.50,23.70,132640
7-Jul-15,24.62,24.62,23.71,24.21,142301
6-Jul-15,24.03,24.88,23.94,24.65,177691
2-Jul-15,24.50,24.50,23.55,24.08,110294
1-Jul-15,24.10,24.66,23.99,24.39,129532
30-Jun-15,23.72,24.03,23.62,23.87,180056
29-Jun-15,24.13,24.65,23.53,23.61,136869
26-Jun-15,24.05,24.48,23.81,24.11,719521
25-Jun-15,24.43,24.53,23.58,24.07,211434
24-Jun-15,23.93,24.45,23.63,24.28,168629
23-Jun-15,23.95,24.48,23.61,23.97,238370
22-Jun-15,23.21,24.23,23.11,24.00,273624
19-Jun-15,22.90,23.12,22.63,22.85,459286
18-Jun-15,22.43,23.09,22.32,22.72,244777
17-Jun-15,22.31,22.38,22.02,22.21,86282
16-Jun-15,22.12,22.50,22.12,22.26,152470
15-Jun-15,21.94,22.27,21.75,22.22,259400
12-Jun-15,21.97,22.19,21.77,22.12,102211
11-Jun-15,22.08,22.25,21.65,22.01,62554
10-Jun-15,21.64,22.25,21.41,22.19,110833
9-Jun-15,21.65,21.82,21.25,21.46,106314
8-Jun-15,21.64,21.93,21.44,21.59,157968
5-Jun-15,21.75,21.91,21.12,21.59,60349
4-Jun-15,22.04,22.43,21.75,21.78,69594
3-Jun-15,22.04,22.50,21.89,22.20,116072
2-Jun-15,21.71,22.05,21.50,21.97,96454
1-Jun-15,22.22,22.22,21.44,21.78,64066
29-May-15,21.79,22.39,21.61,22.03,150245
28-May-15,21.75,22.00,21.51,21.84,72069
27-May-15,20.28,21.78,20.21,21.75,188745
26-May-15,20.01,20.26,19.60,20.14,98863
22-May-15,20.18,20.45,19.63,20.22,98468
21-May-15,20.33,20.46,19.92,20.10,80773
20-May-15,19.90,20.49,19.71,20.30,130432
19-May-15,20.00,20.15,19.77,19.90,78237
18-May-15,19.30,20.00,19.29,20.00,106388
15-May-15,19.18,19.51,18.98,19.41,69183
14-May-15,19.18,19.27,18.96,19.27,94420
13-May-15,19.30,19.30,18.89,19.09,69276
12-May-15,18.53,19.30,18.21,19.02,80030
11-May-15,19.11,19.82,18.51,18.70,98240
8-May-15,18.75,19.09,18.17,19.08,133887
7-May-15,17.83,18.79,17.62,18.28,131056
6-May-15,18.45,18.45,17.82,18.02,92827
5-May-15,18.54,18.67,18.10,18.29,81728
4-May-15,18.50,18.90,18.47,18.65,61402
1-May-15,18.23,18.45,18.08,18.40,65882
30-Apr-15,19.00,19.15,18.09,18.26,151093
29-Apr-15,19.10,19.24,19.01,19.11,115310
28-Apr-15,19.10,19.54,18.40,19.24,115673
27-Apr-15,18.70,19.10,18.52,19.05,174596
24-Apr-15,18.92,18.92,18.53,18.71,54916
23-Apr-15,18.76,18.93,18.38,18.93,52469
22-Apr-15,18.49,18.77,18.13,18.74,37870
21-Apr-15,18.24,18.47,18.17,18.44,81964
20-Apr-15,18.04,18.34,17.71,18.31,77910
17-Apr-15,18.04,18.17,17.64,18.02,122306
16-Apr-15,18.93,19.10,18.26,18.29,36945
15-Apr-15,18.31,19.06,18.00,19.02,109242
14-Apr-15,18.55,18.69,18.26,18.33,83787
13-Apr-15,18.96,19.00,18.37,18.47,51707
10-Apr-15,18.19,19.00,18.16,18.90,73956
9-Apr-15,17.86,18.20,17.81,18.19,43955
8-Apr-15,18.16,18.56,17.81,17.86,79799
7-Apr-15,18.43,18.92,18.17,18.25,50409
6-Apr-15,18.35,18.71,18.06,18.33,50752
2-Apr-15,18.81,18.81,18.32,18.55,133185
1-Apr-15,19.14,19.16,18.27,18.71,165311
31-Mar-15,18.53,18.98,18.50,18.88,65180
30-Mar-15,18.28,18.59,18.05,18.55,76615
27-Mar-15,18.33,18.65,18.05,18.27,99491
26-Mar-15,18.05,18.42,18.05,18.35,56404
25-Mar-15,18.38,18.42,18.00,18.10,98164
24-Mar-15,18.40,18.58,18.02,18.39,66876
23-Mar-15,18.75,18.97,18.40,18.48,112343
20-Mar-15,18.93,19.34,18.65,18.75,201803
19-Mar-15,18.72,19.07,18.47,18.80,108556
18-Mar-15,18.20,18.92,18.10,18.80,81144
17-Mar-15,17.82,18.22,17.72,18.19,88374
16-Mar-15,17.57,17.85,17.40,17.82,78942
13-Mar-15,17.37,17.54,17.02,17.43,74208
12-Mar-15,17.85,17.96,17.30,17.34,179827
11-Mar-15,17.07,17.77,16.53,17.71,190355
10-Mar-15,16.00,17.03,15.87,16.77,192620
9-Mar-15,16.20,16.29,15.99,16.16,95165
6-Mar-15,16.25,16.32,15.97,16.27,121646
5-Mar-15,15.84,16.49,15.84,16.45,79559
4-Mar-15,15.99,16.17,15.64,15.73,95616
3-Mar-15,15.82,16.00,15.76,15.91,76939
2-Mar-15,15.54,15.94,15.37,15.93,77940
27-Feb-15,15.42,15.75,15.20,15.51,180209
26-Feb-15,15.06,15.50,14.90,15.44,245634
25-Feb-15,14.80,15.19,14.62,15.10,170735
24-Feb-15,14.60,15.04,14.38,14.87,234107
23-Feb-15,14.10,14.66,14.04,14.60,223320
20-Feb-15,13.00,14.74,12.97,14.12,838826
19-Feb-15,12.33,12.47,12.30,12.34,58541
18-Feb-15,12.39,12.47,12.13,12.42,86707
17-Feb-15,12.59,12.59,12.34,12.43,141426
13-Feb-15,12.35,12.73,12.35,12.56,43766
12-Feb-15,12.28,12.53,12.08,12.38,136841
11-Feb-15,12.46,12.46,12.10,12.23,36431
10-Feb-15,12.56,12.60,12.26,12.48,81788
9-Feb-15,12.51,12.82,12.31,12.51,120654
6-Feb-15,12.59,12.64,12.40,12.51,25515
5-Feb-15,12.45,12.64,12.27,12.62,91550
4-Feb-15,12.40,12.71,12.27,12.36,61046
3-Feb-15,11.75,12.46,11.75,12.40,111162
2-Feb-15,11.56,11.75,11.36,11.71,51998
30-Jan-15,11.50,11.69,11.40,11.51,154073
29-Jan-15,11.75,11.75,11.32,11.63,136014
28-Jan-15,12.28,12.28,11.57,11.69,169162
27-Jan-15,12.40,12.44,12.21,12.25,36383
26-Jan-15,12.49,12.71,12.25,12.49,54437
23-Jan-15,12.56,12.74,12.27,12.58,356458
22-Jan-15,12.53,12.68,12.11,12.65,232719
21-Jan-15,12.70,12.70,12.30,12.42,118743
20-Jan-15,12.43,12.82,12.33,12.74,127347
16-Jan-15,12.35,12.50,12.16,12.46,81119
15-Jan-15,12.30,12.55,12.13,12.43,90925
14-Jan-15,12.47,12.59,12.15,12.37,115364
13-Jan-15,12.88,13.02,12.25,12.56,104912
12-Jan-15,13.20,13.22,12.57,12.82,104950
9-Jan-15,13.20,13.42,12.81,13.14,111896
8-Jan-15,13.09,13.09,12.67,12.90,122213
7-Jan-15,12.67,12.88,12.57,12.85,34563
6-Jan-15,12.88,13.12,12.57,12.64,53468
5-Jan-15,12.97,13.10,12.73,12.95,65702
2-Jan-15,13.23,13.23,12.56,13.08,65439
31-Dec-14,13.13,13.52,13.09,13.23,71353
30-Dec-14,13.10,13.40,13.07,13.13,26264
29-Dec-14,13.51,13.57,13.02,13.09,81292
26-Dec-14,12.99,13.72,12.97,13.63,52873
24-Dec-14,12.90,13.15,12.80,12.99,27890
23-Dec-14,13.13,13.23,12.89,12.98,47223
22-Dec-14,12.88,13.17,12.73,13.04,310334
19-Dec-14,13.13,13.13,12.70,12.80,353380
18-Dec-14,13.24,13.24,13.13,13.18,134741
17-Dec-14,12.98,13.24,12.88,13.15,154840
16-Dec-14,12.72,13.11,12.65,12.88,78242
15-Dec-14,12.70,12.80,12.57,12.75,92632
12-Dec-14,12.55,12.75,12.50,12.58,94260
11-Dec-14,12.70,12.90,12.69,12.71,77524
10-Dec-14,12.90,12.98,12.69,12.72,59459
9-Dec-14,12.80,12.99,12.71,12.91,182020
8-Dec-14,12.75,12.99,12.75,12.95,256931
5-Dec-14,13.10,13.34,12.71,12.75,1654092
4-Dec-14,13.60,13.80,13.17,13.61,41334
3-Dec-14,13.92,14.00,13.51,13.58,49054
2-Dec-14,13.30,13.88,13.30,13.83,76850
1-Dec-14,14.01,14.01,13.15,13.25,128885
28-Nov-14,14.15,14.15,14.00,14.13,65725
26-Nov-14,14.00,14.20,13.89,13.98,124395
25-Nov-14,13.75,14.00,13.57,13.96,85106
24-Nov-14,13.62,13.95,13.53,13.84,60265
21-Nov-14,13.78,13.95,13.55,13.66,68000
20-Nov-14,13.59,13.95,13.14,13.50,118462
19-Nov-14,12.92,13.69,12.70,13.53,214116
18-Nov-14,12.83,13.08,12.66,12.97,68591
17-Nov-14,13.10,13.10,12.67,12.74,36306
14-Nov-14,13.00,13.10,12.61,13.07,29027
13-Nov-14,13.09,13.10,12.87,13.03,57634
12-Nov-14,13.23,13.23,12.78,13.05,59994
11-Nov-14,12.77,13.60,12.60,12.95,268056
10-Nov-14,12.77,13.00,12.46,13.00,86575
7-Nov-14,12.90,13.24,12.75,12.89,33072
6-Nov-14,12.75,13.00,12.56,12.86,70222
5-Nov-14,13.55,13.80,12.61,12.82,88262
4-Nov-14,12.92,13.50,12.63,13.39,146315
3-Nov-14,13.04,13.04,12.75,12.91,35591
31-Oct-14,13.30,13.50,12.88,12.98,67449
30-Oct-14,12.79,13.24,12.69,13.00,55009
29-Oct-14,13.01,13.19,12.57,12.88,55130
28-Oct-14,12.38,13.00,12.30,12.95,48676
27-Oct-14,12.23,12.42,12.04,12.28,18125
24-Oct-14,12.43,12.45,12.22,12.33,12832
23-Oct-14,12.54,12.54,12.04,12.37,31715
22-Oct-14,12.68,12.74,12.19,12.34,18583
21-Oct-14,12.13,12.60,11.91,12.60,83378
20-Oct-14,11.97,12.03,11.61,12.03,50164
17-Oct-14,12.17,12.17,11.57,11.75,100141
16-Oct-14,11.67,12.10,11.65,12.07,39040
15-Oct-14,11.70,12.02,11.25,11.92,122270
14-Oct-14,11.84,12.10,11.84,11.96,38643
13-Oct-14,11.35,11.86,11.33,11.85,37933
10-Oct-14,11.29,11.50,11.25,11.33,59432
9-Oct-14,11.73,11.82,11.35,11.45,75875
8-Oct-14,12.09,12.19,11.82,11.89,86482
7-Oct-14,11.98,12.20,11.89,12.08,71851
6-Oct-14,11.99,12.17,11.90,12.10,38111
3-Oct-14,12.44,12.45,11.87,11.93,100117
2-Oct-14,11.91,12.28,11.75,12.24,98826
1-Oct-14,11.84,12.09,11.75,11.83,116066
30-Sep-14,12.25,12.25,11.80,11.91,843419
29-Sep-14,11.96,12.28,11.67,12.22,30538
26-Sep-14,12.12,12.30,12.07,12.17,36215
25-Sep-14,12.46,12.50,12.02,12.12,52859
24-Sep-14,12.52,12.63,12.36,12.56,37513
23-Sep-14,12.58,12.67,12.25,12.53,68821
22-Sep-14,12.67,12.70,12.43,12.60,58630
19-Sep-14,12.95,13.08,12.74,12.81,100250
18-Sep-14,12.80,13.12,12.76,12.93,112076
17-Sep-14,12.70,12.91,12.53,12.82,74575
16-Sep-14,12.26,12.75,12.20,12.66,66308
15-Sep-14,12.35,12.40,12.09,12.26,92568
12-Sep-14,12.50,12.50,12.19,12.39,102275
11-Sep-14,12.32,12.60,12.27,12.54,83747
10-Sep-14,12.23,12.39,12.12,12.32,55938
9-Sep-14,12.51,12.51,12.03,12.27,54667
8-Sep-14,12.66,12.70,12.26,12.49,71084
5-Sep-14,12.53,12.68,12.46,12.59,86449
4-Sep-14,12.50,12.75,12.38,12.62,106394
3-Sep-14,12.67,12.70,12.03,12.50,90699
2-Sep-14,12.21,12.98,11.94,12.56,129168
29-Aug-14,11.92,12.30,11.80,12.24,66035
28-Aug-14,12.04,12.10,11.78,11.95,58163
27-Aug-14,12.06,12.18,11.78,12.12,98821
26-Aug-14,12.25,12.31,11.98,11.99,156813
25-Aug-14,12.48,12.50,12.00,12.26,272883
22-Aug-14,12.10,12.35,11.81,12.27,93127
21-Aug-14,11.99,12.20,11.81,12.11,76916
20-Aug-14,11.67,12.18,11.67,12.06,123113
19-Aug-14,11.21,11.95,11.13,11.65,78305
18-Aug-14,11.12,11.33,10.97,11.19,24659
15-Aug-14,11.38,11.38,10.90,10.98,38576
14-Aug-14,11.23,11.40,11.07,11.22,25071
13-Aug-14,11.43,11.50,11.12,11.26,89170
12-Aug-14,11.24,11.39,10.94,11.33,32954
11-Aug-14,11.28,11.50,10.96,11.29,80276
8-Aug-14,10.83,11.17,10.48,11.17,120260
7-Aug-14,10.96,11.27,10.75,10.87,64807
6-Aug-14,10.50,11.15,10.37,11.09,81823
5-Aug-14,10.00,10.74,10.00,10.57,110267
4-Aug-14,9.98,10.42,9.83,10.16,50351
1-Aug-14,10.10,10.26,9.90,9.96,38987
31-Jul-14,10.44,10.74,9.93,10.16,65366
30-Jul-14,10.43,10.78,10.41,10.55,27077
29-Jul-14,10.63,10.94,10.15,10.38,56769
28-Jul-14,10.80,11.06,10.43,10.64,38543
25-Jul-14,11.23,11.27,10.77,10.82,50592
24-Jul-14,11.00,11.29,10.83,11.28,74624
23-Jul-14,11.20,11.20,10.78,10.92,26566
22-Jul-14,10.89,11.28,10.77,11.20,68077
21-Jul-14,10.90,10.92,10.51,10.77,27813
18-Jul-14,10.65,10.99,10.55,10.94,49525
17-Jul-14,10.71,10.97,10.57,10.72,60445
16-Jul-14,10.91,11.06,10.65,10.84,58705
15-Jul-14,10.93,11.36,10.67,10.90,95393
14-Jul-14,10.67,11.00,10.53,10.85,33540
11-Jul-14,10.14,10.74,10.14,10.59,65603
10-Jul-14,10.25,10.47,10.23,10.34,27518
9-Jul-14,10.31,10.70,10.28,10.54,35268
8-Jul-14,10.33,10.64,10.13,10.30,71863
7-Jul-14,10.20,10.48,10.15,10.34,62691
3-Jul-14,10.38,10.40,10.21,10.28,22756
2-Jul-14,10.25,10.53,10.14,10.31,102279
1-Jul-14,10.43,10.87,9.85,10.26,134232
30-Jun-14,9.91,10.37,9.79,10.21,177007
27-Jun-14,10.25,11.24,9.85,9.85,1186529
26-Jun-14,9.95,10.26,9.75,10.12,125599
25-Jun-14,9.80,10.12,9.78,9.78,133369
24-Jun-14,10.28,10.73,9.71,9.93,167689
23-Jun-14,10.38,10.79,10.37,10.37,51397
20-Jun-14,10.25,10.57,9.93,10.53,85504
19-Jun-14,10.17,10.65,9.77,10.25,80018
18-Jun-14,9.83,10.41,9.46,10.28,135151
17-Jun-14,10.66,10.87,9.57,9.81,219704
16-Jun-14,11.06,11.44,10.56,10.66,85937
13-Jun-14,11.25,11.29,10.24,11.22,111993
12-Jun-14,11.41,11.54,10.96,11.46,97069
11-Jun-14,11.50,11.50,10.85,11.49,46430
10-Jun-14,11.88,11.88,11.21,11.45,92009
9-Jun-14,12.19,12.19,11.81,11.91,122604
6-Jun-14,12.00,12.40,11.75,12.31,288977
5-Jun-14,11.46,12.00,10.63,11.97,236287
4-Jun-14,11.20,11.50,10.86,11.43,258137
3-Jun-14,11.20,11.41,10.60,10.99,164921
2-Jun-14,10.89,11.67,10.70,10.94,118302
30-May-14,10.70,11.20,10.45,10.70,259440
29-May-14,9.85,10.67,9.80,10.67,271711
28-May-14,9.90,10.00,9.41,9.60,144909
27-May-14,9.50,10.00,9.42,9.86,108104
23-May-14,9.00,9.44,8.53,9.35,194170
22-May-14,8.40,9.50,8.04,9.07,1340221
21-May-14,8.14,8.23,7.59,7.87,90172
20-May-14,8.10,8.33,7.94,8.20,150849
19-May-14,8.10,8.29,7.93,8.15,72534
16-May-14,7.95,8.27,7.94,8.14,36171
15-May-14,8.79,8.96,8.00,8.10,85283
14-May-14,9.25,9.69,8.80,9.27,59793
13-May-14,10.10,10.10,9.25,9.50,46850
12-May-14,9.09,10.05,9.05,10.05,42679
9-May-14,8.65,9.15,8.15,8.62,195050
8-May-14,10.80,10.80,8.11,8.65,133194
7-May-14,10.79,11.02,10.43,10.89,18291
6-May-14,11.20,11.39,10.80,10.80,21539
5-May-14,11.71,11.73,11.10,11.39,13628
2-May-14,11.71,11.99,11.68,11.86,10596
1-May-14,11.65,11.99,11.53,11.75,15790
30-Apr-14,11.12,12.10,11.12,12.10,16972
29-Apr-14,11.43,11.50,10.87,11.17,22087
28-Apr-14,11.48,11.87,10.78,11.46,38575
25-Apr-14,11.75,11.95,11.20,11.45,24951
24-Apr-14,12.01,12.09,11.50,11.72,18839
23-Apr-14,11.65,12.02,11.52,12.00,55684
22-Apr-14,12.13,12.13,11.54,11.80,33171
21-Apr-14,11.89,12.00,11.85,11.97,38937
17-Apr-14,11.10,11.95,11.02,11.79,68014
16-Apr-14,10.48,11.10,10.40,10.95,30652
15-Apr-14,11.10,11.10,10.55,10.60,15740
14-Apr-14,10.80,11.11,10.41,11.10,26557
11-Apr-14,10.50,11.10,10.29,10.56,21211
10-Apr-14,10.00,10.94,9.87,10.79,65489
9-Apr-14,9.58,9.98,9.58,9.76,20036
8-Apr-14,9.36,9.65,9.05,9.51,47194
7-Apr-14,9.60,9.77,9.36,9.45,17048
4-Apr-14,9.75,9.92,9.42,9.71,25682
3-Apr-14,9.58,9.75,9.43,9.75,30017
2-Apr-14,9.40,9.90,9.15,9.75,64707
1-Apr-14,10.40,10.78,9.75,10.23,71757
31-Mar-14,10.65,11.03,10.47,10.53,48739
28-Mar-14,11.01,11.25,10.35,10.65,77926
27-Mar-14,9.45,10.90,9.43,10.85,120166
26-Mar-14,9.70,9.83,9.30,9.70,37478
25-Mar-14,8.85,9.84,8.84,9.50,91642
24-Mar-14,9.78,10.23,8.87,9.06,230809
21-Mar-14,10.69,10.99,9.87,9.87,140861
20-Mar-14,10.90,11.27,10.29,10.68,99504
19-Mar-14,11.62,11.62,10.69,10.92,97238
18-Mar-14,11.41,12.23,11.06,11.59,119708
17-Mar-14,12.06,12.50,10.60,10.98,122519
14-Mar-14,11.95,12.52,11.85,12.06,54343
13-Mar-14,12.85,12.85,11.53,12.05,114864
12-Mar-14,12.54,12.92,12.54,12.78,18533
11-Mar-14,12.99,13.15,12.47,12.60,63024
10-Mar-14,12.74,13.39,12.74,12.99,61405
7-Mar-14,13.29,13.29,12.62,12.88,115684
6-Mar-14,12.71,13.35,12.71,13.29,110926
5-Mar-14,12.49,12.99,12.05,12.75,136884
4-Mar-14,11.62,12.22,11.62,12.22,58467
3-Mar-14,11.26,11.75,9.57,11.75,104793
28-Feb-14,11.49,11.92,11.27,11.64,22057
27-Feb-14,11.74,12.00,11.55,11.55,55314
26-Feb-14,12.03,12.03,11.24,11.76,20437
25-Feb-14,11.95,12.37,11.52,11.88,60578
24-Feb-14,10.83,12.00,10.50,11.95,169941
21-Feb-14,11.70,11.75,10.73,11.05,98721
20-Feb-14,12.40,12.40,10.27,12.00,367615
19-Feb-14,12.44,12.49,12.01,12.35,115311
18-Feb-14,12.50,12.50,12.01,12.45,91391
14-Feb-14,11.50,12.49,11.49,12.49,243773
13-Feb-14,10.75,11.50,10.45,11.50,173276
12-Feb-14,10.00,10.75,10.00,10.57,192316
11-Feb-14,9.86,10.00,9.81,9.90,71538
10-Feb-14,9.50,9.94,8.86,9.94,75868
7-Feb-14,9.33,9.80,9.33,9.66,225365
6-Feb-14,8.97,9.50,8.96,9.30,66435
5-Feb-14,8.99,8.99,8.72,8.99,74624
4-Feb-14,8.76,8.99,8.75,8.88,27835
3-Feb-14,8.72,8.95,8.60,8.86,74960
31-Jan-14,8.50,8.81,8.50,8.80,21974
30-Jan-14,8.50,8.74,8.50,8.60,44596
29-Jan-14,8.50,8.55,8.25,8.41,49544
28-Jan-14,8.27,8.50,8.27,8.50,56186
27-Jan-14,8.60,8.90,7.74,8.35,61114
24-Jan-14,8.96,8.96,8.61,8.62,15421
23-Jan-14,9.00,9.00,8.50,8.93,75932
22-Jan-14,8.98,9.05,8.86,8.95,62239
21-Jan-14,9.00,9.00,8.73,8.95,84287
17-Jan-14,8.10,9.14,8.10,8.86,128910
16-Jan-14,7.70,8.10,7.54,8.10,57841
15-Jan-14,7.45,7.70,7.29,7.70,36756
14-Jan-14,7.45,7.45,7.11,7.40,44197
13-Jan-14,7.15,7.45,6.52,7.15,40213
10-Jan-14,7.10,7.10,6.68,6.85,6109
9-Jan-14,6.83,6.83,6.60,6.78,12566
8-Jan-14,6.90,6.90,6.65,6.90,9711
7-Jan-14,7.00,7.01,6.50,6.72,30382
6-Jan-14,7.20,7.42,7.00,7.00,43077
3-Jan-14,7.21,7.42,7.04,7.20,16831
2-Jan-14,7.21,7.45,7.21,7.21,17607
31-Dec-13,7.27,7.51,7.20,7.30,18968
30-Dec-13,7.34,7.47,7.29,7.35,10667
27-Dec-13,7.61,7.61,7.35,7.40,13013
26-Dec-13,7.74,7.74,7.50,7.67,6122
24-Dec-13,7.55,7.74,7.46,7.74,38260
23-Dec-13,7.20,7.55,7.00,7.52,28096
20-Dec-13,7.35,7.50,7.15,7.22,31328
19-Dec-13,7.10,7.15,6.95,7.12,38199
18-Dec-13,7.00,7.34,7.00,7.15,40078
17-Dec-13,6.45,7.48,6.37,7.00,178133
16-Dec-13,6.35,6.68,6.33,6.56,50705
13-Dec-13,6.30,6.37,6.25,6.33,28931
12-Dec-13,6.30,6.37,6.00,6.33,30952
11-Dec-13,6.09,6.10,6.00,6.09,17830
10-Dec-13,6.09,6.10,6.00,6.09,26887
9-Dec-13,6.29,6.30,5.95,6.01,25094
6-Dec-13,5.74,6.42,5.70,6.24,87809
5-Dec-13,5.60,5.70,5.54,5.65,17832
4-Dec-13,5.50,5.60,5.38,5.57,30178
3-Dec-13,5.35,5.50,5.35,5.38,36408
2-Dec-13,5.21,5.45,5.05,5.30,33922
29-Nov-13,5.11,5.31,5.05,5.18,12753
27-Nov-13,5.07,5.15,5.04,5.05,14110
26-Nov-13,5.03,5.06,5.01,5.04,27433
25-Nov-13,5.10,5.10,5.02,5.06,48800
22-Nov-13,5.08,5.15,5.06,5.14,31502
21-Nov-13,5.04,5.05,4.96,5.05,17000
20-Nov-13,5.00,5.16,4.95,5.05,75638
19-Nov-13,5.11,5.17,5.02,5.05,20325
18-Nov-13,5.35,5.35,5.10,5.19,32157
15-Nov-13,5.35,5.45,5.33,5.40,25505
14-Nov-13,5.15,5.35,4.96,5.35,53510
13-Nov-13,4.95,4.98,4.95,4.95,5423
12-Nov-13,4.96,4.99,4.83,4.96,12562
11-Nov-13,4.97,5.00,4.97,4.97,10202
8-Nov-13,4.98,5.04,4.97,4.97,8650
7-Nov-13,4.99,5.05,4.98,5.00,9037
6-Nov-13,5.00,5.06,5.00,5.00,3400
5-Nov-13,4.99,5.03,4.99,5.01,4680
4-Nov-13,4.98,5.02,4.98,5.00,9168
1-Nov-13,5.00,5.02,4.97,4.99,9806
31-Oct-13,5.07,5.07,4.99,4.99,18694
30-Oct-13,5.08,5.09,5.04,5.05,4392
29-Oct-13,5.01,5.08,5.01,5.06,7803
28-Oct-13,5.06,5.09,5.02,5.02,3500
25-Oct-13,5.06,5.10,5.06,5.10,7025
24-Oct-13,5.10,5.10,5.05,5.10,13323
23-Oct-13,5.06,5.23,5.06,5.15,12124
22-Oct-13,5.05,5.21,5.01,5.08,19505
21-Oct-13,5.12,5.13,5.02,5.09,10057
18-Oct-13,5.09,5.20,5.09,5.15,5138
17-Oct-13,5.09,5.20,5.01,5.01,17184
16-Oct-13,5.00,5.24,5.00,5.04,20178
15-Oct-13,4.95,5.00,4.90,5.00,5813
14-Oct-13,5.03,5.03,4.90,4.94,11900
11-Oct-13,5.00,5.11,5.00,5.01,6828
10-Oct-13,5.10,5.13,5.01,5.01,15615
9-Oct-13,5.15,5.19,5.03,5.05,18004
8-Oct-13,5.30,5.38,5.17,5.20,38001
7-Oct-13,5.38,5.45,5.36,5.40,6750
4-Oct-13,5.45,5.45,5.37,5.42,18460
3-Oct-13,5.40,5.44,5.34,5.40,29341
2-Oct-13,5.45,5.45,5.32,5.36,35750
1-Oct-13,5.47,5.63,5.25,5.44,73701
30-Sep-13,5.50,5.65,5.25,5.35,84188
27-Sep-13,5.29,5.93,5.25,5.25,123053
26-Sep-13,4.85,5.25,4.85,5.20,103984
25-Sep-13,4.60,5.00,4.58,4.75,141304
24-Sep-13,4.36,4.59,4.36,4.57,5988
23-Sep-13,4.16,4.70,4.16,4.35,76056
20-Sep-13,4.55,4.70,4.12,4.12,97081
19-Sep-13,4.39,4.60,4.39,4.59,77201
18-Sep-13,4.46,4.47,4.31,4.31,1870
17-Sep-13,4.41,4.47,4.40,4.46,9000
16-Sep-13,4.47,4.50,4.35,4.37,27954
13-Sep-13,4.44,4.49,4.39,4.47,13889
12-Sep-13,4.30,4.50,4.27,4.48,25636
11-Sep-13,4.50,4.50,4.41,4.48,28011
10-Sep-13,4.15,4.50,4.15,4.47,78343
9-Sep-13,4.30,4.30,4.20,4.29,33103
6-Sep-13,4.25,4.33,4.24,4.30,9136
5-Sep-13,4.25,4.25,4.05,4.07,18760
4-Sep-13,4.23,4.33,4.20,4.25,31449
3-Sep-13,4.11,4.11,4.11,4.11,5800
30-Aug-13,-,-,-,4.11,0
29-Aug-13,4.11,4.12,4.11,4.11,4915
28-Aug-13,4.16,4.21,4.11,4.15,1000
27-Aug-13,4.19,4.20,4.16,4.19,5500
26-Aug-13,4.25,4.25,4.18,4.21,16660
23-Aug-13,4.16,4.19,4.16,4.17,2100
22-Aug-13,4.30,4.30,4.19,4.20,4500
21-Aug-13,4.15,4.31,4.12,4.27,10275
20-Aug-13,4.16,4.32,4.12,4.31,16236
19-Aug-13,4.15,4.20,4.01,4.20,3847
16-Aug-13,4.30,4.30,4.16,4.18,5476
15-Aug-13,4.35,4.35,4.25,4.25,10636
14-Aug-13,4.45,4.50,4.25,4.34,45742
13-Aug-13,4.27,4.75,4.27,4.33,101724
12-Aug-13,4.32,4.33,4.29,4.29,3400
9-Aug-13,4.25,4.29,4.25,4.25,4300
8-Aug-13,4.33,4.34,4.33,4.34,1600
7-Aug-13,4.15,4.33,4.12,4.32,14950
6-Aug-13,4.35,4.35,4.20,4.29,16029
5-Aug-13,4.35,4.35,4.32,4.35,5290
2-Aug-13,4.54,4.54,4.38,4.38,9078
1-Aug-13,4.29,4.55,4.26,4.54,64672
31-Jul-13,4.30,4.30,4.20,4.25,19650
30-Jul-13,-,-,-,4.17,0
29-Jul-13,-,-,-,4.17,0
26-Jul-13,4.30,4.30,4.10,4.17,9600
25-Jul-13,4.29,4.30,4.29,4.30,11300
24-Jul-13,4.29,4.29,4.24,4.24,1300
23-Jul-13,4.34,4.34,4.31,4.31,300
22-Jul-13,4.35,4.35,4.27,4.27,10320
19-Jul-13,4.20,4.35,4.20,4.30,23855
18-Jul-13,-,-,-,4.20,0
17-Jul-13,4.23,4.25,4.20,4.20,2336
16-Jul-13,4.35,4.35,4.19,4.33,10250
15-Jul-13,4.32,4.32,4.32,4.32,5200
12-Jul-13,4.34,4.39,4.30,4.30,10946
11-Jul-13,-,-,-,4.29,0
9-Jul-13,4.24,4.35,4.24,4.29,10400
8-Jul-13,4.25,4.25,4.25,4.25,2700
5-Jul-13,4.36,4.36,4.30,4.32,1000
3-Jul-13,-,-,-,4.35,0
2-Jul-13,4.45,4.45,4.32,4.35,1800
1-Jul-13,4.46,4.46,4.34,4.39,4100
28-Jun-13,4.40,4.40,4.35,4.40,2000
27-Jun-13,4.44,4.44,4.35,4.35,8185
26-Jun-13,4.37,4.37,4.37,4.37,200
25-Jun-13,4.37,4.37,4.35,4.37,500
24-Jun-13,4.38,4.40,4.35,4.40,10700
21-Jun-13,4.42,4.43,4.36,4.40,20355
20-Jun-13,4.45,4.45,4.36,4.40,11400
19-Jun-13,4.36,4.48,4.36,4.45,10810
18-Jun-13,4.25,4.36,4.25,4.36,50520
17-Jun-13,4.10,4.25,4.00,4.25,185090
14-Jun-13,3.80,3.95,3.75,3.95,61343
13-Jun-13,3.92,3.95,3.80,3.80,4000
12-Jun-13,3.90,3.95,3.65,3.74,5400
11-Jun-13,3.85,3.85,3.85,3.85,300
10-Jun-13,3.61,3.80,3.61,3.80,4600
7-Jun-13,3.95,3.95,3.50,3.53,6000
5-Jun-13,3.97,3.99,3.97,3.97,4800
4-Jun-13,3.97,3.97,3.97,3.97,300
31-May-13,3.99,3.99,3.97,3.97,15950
30-May-13,3.93,3.98,3.93,3.98,30048
29-May-13,3.75,3.80,3.75,3.78,34200
24-May-13,3.50,3.90,3.50,3.90,11075
23-May-13,3.80,3.80,3.75,3.75,500
22-May-13,4.00,4.00,3.93,3.93,2600
21-May-13,3.93,3.93,3.75,3.80,4800
20-May-13,3.96,3.96,3.96,3.96,200
17-May-13,3.95,4.03,3.95,4.00,13557
16-May-13,3.90,4.00,3.90,3.95,7100
15-May-13,3.85,4.00,3.75,3.75,10756
14-May-13,3.57,3.65,3.57,3.60,8536
13-May-13,3.60,3.75,3.60,3.75,9081
10-May-13,3.38,3.64,3.38,3.60,16130
9-May-13,3.28,3.38,3.28,3.38,4400
3-May-13,3.03,3.20,2.96,3.20,21576
2-May-13,3.15,3.15,3.15,3.15,1500
1-May-13,3.10,3.10,2.95,2.98,43200
30-Apr-13,3.02,3.02,2.30,3.00,2700
29-Apr-13,3.18,3.18,3.18,3.18,1285
26-Apr-13,3.20,3.20,2.30,3.17,19795
23-Apr-13,3.10,3.15,3.10,3.15,1100
22-Apr-13,3.06,3.14,3.06,3.14,1000
17-Apr-13,3.08,3.08,3.08,3.08,300
16-Apr-13,3.10,3.10,3.10,3.10,300
15-Apr-13,3.10,3.10,3.10,3.10,100
11-Apr-13,3.10,3.10,2.30,3.10,4639
10-Apr-13,3.25,3.25,3.25,3.25,100
9-Apr-13,3.10,3.10,3.05,3.07,1500
4-Apr-13,3.30,3.30,3.30,3.30,550
3-Apr-13,3.50,3.50,3.00,3.30,7025
1-Apr-13,3.51,3.51,3.51,3.51,421
28-Mar-13,3.63,3.65,3.63,3.65,825
26-Mar-13,3.50,3.50,3.50,3.50,1000
22-Mar-13,3.63,3.63,3.63,3.63,550
21-Mar-13,3.57,3.64,3.38,3.63,5419
20-Mar-13,3.55,3.57,3.55,3.57,5000
19-Mar-13,3.25,3.50,3.10,3.50,16800
18-Mar-13,3.45,3.45,3.45,3.45,100
14-Mar-13,3.45,3.45,3.45,3.45,200
13-Mar-13,3.50,3.50,3.45,3.45,37000
12-Mar-13,3.45,3.50,3.45,3.45,13255
11-Mar-13,3.35,3.35,3.15,3.35,3840
8-Mar-13,3.35,3.50,3.35,3.50,3745
6-Mar-13,3.33,3.45,3.32,3.45,1055
5-Mar-13,3.30,3.30,3.30,3.30,1000
4-Mar-13,3.45,3.45,3.45,3.45,215
28-Feb-13,3.51,3.51,3.51,3.51,100
27-Feb-13,3.51,3.51,3.51,3.51,500
26-Feb-13,3.57,3.57,3.57,3.57,100
25-Feb-13,3.48,3.58,3.48,3.58,3300
22-Feb-13,3.60,3.60,3.60,3.60,210
21-Feb-13,3.43,3.60,3.43,3.60,2000
20-Feb-13,3.42,3.50,3.30,3.50,2100
19-Feb-13,3.50,3.60,3.50,3.55,6655
14-Feb-13,3.65,3.65,3.65,3.65,100
12-Feb-13,3.65,3.65,3.50,3.65,750
11-Feb-13,3.50,3.65,3.31,3.65,13675
8-Feb-13,3.45,3.65,3.20,3.50,1300
7-Feb-13,3.45,3.60,3.45,3.60,16985
5-Feb-13,3.50,3.50,3.50,3.50,1215
4-Feb-13,3.30,3.49,3.25,3.49,8400
1-Feb-13,3.40,3.44,3.22,3.40,6725
31-Jan-13,2.95,3.50,2.95,3.50,10200
30-Jan-13,2.85,2.90,2.85,2.90,4600
29-Jan-13,2.85,2.85,2.85,2.85,258
28-Jan-13,2.78,2.85,2.78,2.85,9975
25-Jan-13,2.73,2.78,2.73,2.78,600
18-Jan-13,2.55,2.75,2.55,2.75,2100
17-Jan-13,2.75,2.75,2.75,2.75,1639
16-Jan-13,2.75,2.75,2.75,2.75,100
15-Jan-13,2.80,2.80,2.66,2.75,9100
14-Jan-13,2.65,2.80,2.65,2.80,1625
10-Jan-13,2.80,2.80,2.80,2.80,100
9-Jan-13,2.74,2.80,2.55,2.55,5500
3-Jan-13,2.85,2.85,2.85,2.85,250
2-Jan-13,2.75,2.85,2.75,2.85,5509
31-Dec-12,2.75,2.80,2.75,2.80,4791
28-Dec-12,2.77,2.77,2.75,2.75,7100
27-Dec-12,2.67,2.80,2.67,2.80,629
26-Dec-12,2.82,2.82,2.75,2.75,16825
24-Dec-12,2.80,2.80,2.72,2.75,22300
21-Dec-12,2.61,2.70,2.61,2.70,13100
20-Dec-12,2.40,2.60,2.00,2.60,10100
19-Dec-12,2.40,2.65,2.40,2.55,39100
18-Dec-12,2.40,2.50,2.40,2.50,5200
17-Dec-12,2.55,2.55,2.30,2.50,10325
14-Dec-12,2.50,2.50,2.50,2.50,1000
13-Dec-12,2.50,2.53,2.50,2.50,6400
12-Dec-12,2.53,2.53,2.50,2.50,2800
11-Dec-12,2.48,2.48,2.48,2.48,1000
10-Dec-12,2.50,2.50,2.50,2.50,1000
7-Dec-12,2.55,2.55,2.55,2.55,100
6-Dec-12,2.50,2.50,2.50,2.50,6800
4-Dec-12,2.50,2.50,2.45,2.50,12610
3-Dec-12,2.51,2.51,2.50,2.50,23200
30-Nov-12,2.48,2.63,2.48,2.50,63506
29-Nov-12,2.48,2.48,2.45,2.48,2300
28-Nov-12,2.50,2.50,2.40,2.48,19771
26-Nov-12,2.45,2.50,2.45,2.50,30900
21-Nov-12,2.50,2.50,2.47,2.47,600
20-Nov-12,2.50,2.50,2.50,2.50,1000
19-Nov-12,2.50,2.50,2.45,2.45,27429
16-Nov-12,2.59,2.59,2.45,2.49,39700
15-Nov-12,2.45,2.57,2.45,2.50,26648
14-Nov-12,2.45,2.57,2.45,2.57,1100
13-Nov-12,2.35,2.57,2.35,2.57,12200
12-Nov-12,2.35,2.57,2.35,2.57,300
9-Nov-12,2.49,2.65,2.48,2.65,800
8-Nov-12,2.75,2.75,2.51,2.75,1300
7-Nov-12,2.70,2.75,2.70,2.75,2000
5-Nov-12,2.60,2.70,2.55,2.70,10900
31-Oct-12,2.50,2.80,2.45,2.80,36000
26-Oct-12,2.69,2.69,2.69,2.69,1500
24-Oct-12,2.69,2.69,2.69,2.69,100
23-Oct-12,2.60,2.66,2.60,2.66,5000
19-Oct-12,2.50,2.76,1.02,2.70,26820
16-Oct-12,2.55,2.65,2.50,2.65,5300
15-Oct-12,2.58,2.58,2.56,2.56,17000
8-Oct-12,2.60,2.65,2.58,2.65,6100
4-Oct-12,2.60,2.70,2.60,2.70,6430
3-Oct-12,2.70,2.70,2.70,2.70,100
2-Oct-12,2.75,2.75,2.60,2.70,4100
1-Oct-12,2.60,2.75,2.60,2.75,31100
28-Sep-12,2.74,2.74,2.74,2.74,100
27-Sep-12,2.60,2.75,2.60,2.75,5000
24-Sep-12,2.60,2.60,2.60,2.60,100
21-Sep-12,2.55,2.55,2.50,2.50,1700
20-Sep-12,2.60,2.60,2.60,2.60,500
19-Sep-12,2.51,2.77,2.51,2.77,8950
18-Sep-12,2.55,2.55,2.55,2.55,500
17-Sep-12,2.55,2.65,2.50,2.65,4500
14-Sep-12,2.65,2.65,2.64,2.64,5412
13-Sep-12,2.65,2.65,2.65,2.65,500
12-Sep-12,2.75,2.75,2.48,2.65,3088
11-Sep-12,2.79,2.79,2.75,2.75,500
10-Sep-12,2.65,2.78,2.65,2.78,200
7-Sep-12,2.65,2.72,2.65,2.72,19912
31-Aug-12,2.48,2.65,2.48,2.65,1200
29-Aug-12,2.52,2.65,2.52,2.65,1200
28-Aug-12,2.47,2.65,2.45,2.65,600
27-Aug-12,2.65,2.65,2.65,2.65,560
24-Aug-12,2.65,2.65,2.65,2.65,500
23-Aug-12,2.65,2.65,2.65,2.65,1500
22-Aug-12,2.55,2.65,2.55,2.65,2700
20-Aug-12,2.50,2.68,2.50,2.68,7232
17-Aug-12,2.45,2.50,2.45,2.50,10700
16-Aug-12,2.45,2.45,2.40,2.45,6130
15-Aug-12,2.60,2.65,2.55,2.60,38000
14-Aug-12,2.25,2.60,2.25,2.60,7900
13-Aug-12,2.40,2.60,2.25,2.60,13600
10-Aug-12,2.40,2.40,2.40,2.40,200
9-Aug-12,2.20,2.50,2.20,2.50,3200
8-Aug-12,2.60,2.60,2.60,2.60,960
2-Aug-12,2.25,2.50,2.19,2.48,10118
31-Jul-12,2.35,2.44,2.35,2.44,10500
27-Jul-12,2.30,2.35,2.30,2.35,6325
26-Jul-12,2.20,2.30,2.20,2.30,2600
25-Jul-12,2.22,2.29,2.22,2.29,3500
24-Jul-12,2.26,2.26,2.26,2.26,6345
23-Jul-12,2.11,2.19,2.11,2.19,1200
20-Jul-12,2.35,2.38,2.35,2.38,5000
19-Jul-12,2.25,2.35,2.25,2.35,1100
18-Jul-12,2.25,2.30,2.25,2.25,5000
16-Jul-12,2.30,2.30,2.22,2.30,2200
13-Jul-12,2.30,2.30,2.23,2.23,1125
12-Jul-12,2.24,2.34,2.20,2.20,4800
11-Jul-12,2.25,2.38,2.25,2.38,3172
10-Jul-12,2.22,2.35,2.22,2.35,600
9-Jul-12,2.35,2.35,2.35,2.35,100
6-Jul-12,2.35,2.35,2.35,2.35,100
5-Jul-12,2.25,2.25,2.10,2.25,29275
3-Jul-12,2.20,2.35,2.10,2.35,9000
2-Jul-12,2.30,2.35,2.10,2.35,1600
29-Jun-12,2.25,2.35,2.25,2.35,42840
28-Jun-12,2.18,2.30,2.18,2.30,3200
27-Jun-12,2.16,2.25,2.16,2.18,9200
26-Jun-12,2.12,2.12,2.12,2.12,500
25-Jun-12,2.18,2.18,2.16,2.18,1300
22-Jun-12,2.18,2.23,2.18,2.23,4000
21-Jun-12,2.18,2.18,2.18,2.18,100
20-Jun-12,2.18,2.18,2.18,2.18,100
19-Jun-12,2.06,2.18,2.06,2.18,5000
14-Jun-12,2.20,2.20,2.20,2.20,100
13-Jun-12,2.11,2.15,2.11,2.15,3118
7-Jun-12,2.08,2.11,2.08,2.11,1500
6-Jun-12,2.08,2.11,2.06,2.11,42314
5-Jun-12,2.11,2.12,2.08,2.12,52100
4-Jun-12,2.13,2.25,2.11,2.11,80214
1-Jun-12,2.34,2.34,2.34,2.34,1000
31-May-12,2.15,2.35,2.15,2.35,19800
30-May-12,2.09,2.19,2.09,2.10,11200
29-May-12,2.20,2.20,2.20,2.20,500
25-May-12,2.13,2.20,2.13,2.20,7200
24-May-12,2.10,2.18,2.10,2.15,18800
23-May-12,2.09,2.15,2.07,2.10,8100
22-May-12,2.15,2.15,2.10,2.10,1500
21-May-12,2.09,2.25,2.06,2.25,550
18-May-12,2.25,2.25,2.25,2.25,100
15-May-12,2.25,2.35,2.23,2.35,5665
14-May-12,2.20,2.25,2.10,2.25,7730
11-May-12,2.16,2.33,2.16,2.33,230
10-May-12,2.25,2.25,2.25,2.25,100
9-May-12,2.07,2.35,2.06,2.35,7972
8-May-12,2.08,2.16,2.08,2.16,5100
4-May-12,2.20,2.20,2.15,2.15,3000
2-May-12,2.30,2.30,2.30,2.30,1100
1-May-12,2.38,2.38,2.38,2.38,175
30-Apr-12,2.25,2.30,2.25,2.25,19000
26-Apr-12,2.20,2.20,2.20,2.20,300
25-Apr-12,2.20,2.20,2.20,2.20,200
24-Apr-12,2.19,2.19,2.19,2.19,500
23-Apr-12,2.19,2.19,2.19,2.19,200
20-Apr-12,2.23,2.23,2.23,2.23,100
19-Apr-12,2.23,2.23,2.23,2.23,100
18-Apr-12,1.75,2.24,1.75,2.24,15139
17-Apr-12,2.19,2.19,2.19,2.19,100
13-Apr-12,2.05,2.19,2.05,2.19,13500
12-Apr-12,2.15,2.23,2.15,2.20,3200
11-Apr-12,2.13,2.20,2.13,2.20,6000
10-Apr-12,2.12,2.20,2.05,2.15,20200
9-Apr-12,2.11,2.20,2.11,2.20,1000
5-Apr-12,2.20,2.20,2.20,2.20,200
4-Apr-12,2.20,2.20,2.12,2.20,2300
3-Apr-12,1.90,2.25,1.90,2.20,32100
2-Apr-12,2.39,2.39,2.25,2.25,530
30-Mar-12,2.30,2.39,2.20,2.39,17800
29-Mar-12,2.00,2.25,2.00,2.25,9400
28-Mar-12,1.91,2.25,1.91,2.25,11900
27-Mar-12,2.00,2.20,1.91,2.00,16000
26-Mar-12,2.00,2.20,2.00,2.20,21900
23-Mar-12,2.15,2.20,2.15,2.20,4745
22-Mar-12,2.25,2.25,2.00,2.25,6645
21-Mar-12,2.20,2.20,2.20,2.20,200
20-Mar-12,2.20,2.20,2.20,2.20,200
19-Mar-12,1.90,2.25,1.90,2.25,200
16-Mar-12,2.20,2.20,2.20,2.20,300
15-Mar-12,2.20,2.20,2.20,2.20,600
14-Mar-12,2.20,2.20,2.20,2.20,1500
13-Mar-12,2.20,2.20,2.20,2.20,500
12-Mar-12,2.25,2.25,2.25,2.25,250
8-Mar-12,2.18,2.18,2.18,2.18,1250
7-Mar-12,2.00,2.15,1.80,2.15,15000
6-Mar-12,2.00,2.20,2.00,2.20,15000
2-Mar-12,2.01,2.15,2.01,2.15,4950
1-Mar-12,1.90,1.90,1.90,1.90,1000
29-Feb-12,2.00,2.20,2.00,2.20,9710
28-Feb-12,2.00,2.13,2.00,2.13,1300
27-Feb-12,2.20,2.20,1.85,2.15,10900
24-Feb-12,1.85,2.30,1.85,2.30,21900
23-Feb-12,2.05,2.05,1.50,1.75,5100
22-Feb-12,1.99,2.19,1.80,2.00,14820
21-Feb-12,1.80,1.95,1.75,1.95,16900
17-Feb-12,1.43,1.80,1.43,1.80,34800
16-Feb-12,1.37,1.43,1.37,1.43,46957
14-Feb-12,1.30,1.30,1.30,1.30,5000
10-Feb-12,1.21,1.28,1.21,1.28,3950
9-Feb-12,1.30,1.30,1.30,1.30,4000
2-Feb-12,1.25,1.37,1.25,1.37,40100
31-Jan-12,1.23,1.35,1.23,1.30,14070
30-Jan-12,1.38,1.38,1.16,1.16,29720
26-Jan-12,1.18,1.18,1.15,1.15,500
24-Jan-12,1.20,1.20,1.12,1.12,92600
23-Jan-12,1.21,1.24,1.20,1.21,38600
19-Jan-12,1.18,1.26,1.18,1.26,8595
18-Jan-12,1.19,1.19,1.13,1.13,1042
17-Jan-12,1.21,1.21,1.21,1.21,500
12-Jan-12,1.24,1.24,1.21,1.21,2000
11-Jan-12,1.30,1.30,1.30,1.30,780
10-Jan-12,1.35,1.35,1.30,1.30,600
9-Jan-12,1.30,1.35,1.30,1.35,2000
4-Jan-12,1.20,1.32,1.17,1.30,33700
30-Dec-11,1.22,1.22,1.18,1.18,1600
29-Dec-11,1.19,1.19,1.19,1.19,500
27-Dec-11,1.19,1.19,1.19,1.19,500
23-Dec-11,1.19,1.19,1.11,1.11,14000
22-Dec-11,1.15,1.15,1.15,1.15,3030
16-Dec-11,1.08,1.08,1.08,1.08,500
14-Dec-11,1.08,1.08,1.08,1.08,100
13-Dec-11,1.10,1.10,1.08,1.08,30500
12-Dec-11,1.10,1.10,1.10,1.10,950
9-Dec-11,1.16,1.16,1.16,1.16,100
8-Dec-11,1.16,1.16,1.16,1.16,1500
6-Dec-11,1.20,1.30,1.18,1.18,15559
5-Dec-11,1.25,1.25,1.20,1.20,1600
2-Dec-11,1.38,1.38,1.38,1.38,170
1-Dec-11,1.38,1.38,1.38,1.38,4500
30-Nov-11,1.32,1.32,1.21,1.21,14500
29-Nov-11,1.38,1.38,1.38,1.38,1500
25-Nov-11,1.30,1.30,1.30,1.30,500
22-Nov-11,1.38,1.38,1.32,1.32,9000
21-Nov-11,1.35,1.35,1.35,1.35,4400
18-Nov-11,1.35,1.36,1.35,1.36,35000
16-Nov-11,1.30,1.35,1.30,1.35,38200
11-Nov-11,1.21,1.32,1.16,1.26,26050
10-Nov-11,1.21,1.40,1.21,1.40,46400
9-Nov-11,1.15,1.32,1.15,1.32,90500
8-Nov-11,1.15,1.15,0.95,1.10,137712
7-Nov-11,1.16,1.16,1.16,1.16,200
3-Nov-11,1.19,1.19,1.19,1.19,500
28-Oct-11,1.15,1.15,1.15,1.15,500
25-Oct-11,1.15,1.15,1.15,1.15,2633
19-Oct-11,1.10,1.10,1.10,1.10,7620
12-Oct-11,1.10,1.10,1.10,1.10,4400
11-Oct-11,1.10,1.10,1.10,1.10,15750
28-Sep-11,1.16,1.16,1.15,1.15,15500
26-Sep-11,1.19,1.19,1.19,1.19,2500
22-Sep-11,1.15,1.15,1.15,1.15,300
21-Sep-11,1.17,1.17,1.12,1.12,34500
15-Sep-11,1.20,1.21,1.20,1.20,5500
14-Sep-11,1.20,1.20,1.20,1.20,2200
12-Sep-11,1.18,1.18,1.18,1.18,300
9-Sep-11,1.18,1.18,1.18,1.18,300
6-Sep-11,1.16,1.16,1.15,1.15,5000
29-Aug-11,1.19,1.20,1.19,1.19,17000
24-Aug-11,1.16,1.20,1.16,1.20,8000
22-Aug-11,1.20,1.20,1.18,1.20,17500
19-Aug-11,1.19,1.20,1.19,1.20,12000
16-Aug-11,1.20,1.20,1.19,1.20,50200
15-Aug-11,1.10,1.10,1.10,1.10,1000
11-Aug-11,1.25,1.25,1.25,1.25,600
2-Aug-11,1.10,1.10,1.10,1.10,8875
29-Jul-11,1.30,1.30,1.30,1.30,100
13-Jul-11,1.20,1.20,1.20,1.20,3000
12-Jul-11,1.20,1.20,1.20,1.20,1000
11-Jul-11,1.20,1.20,1.20,1.20,1000
8-Jul-11,1.11,1.11,1.11,1.11,4306
6-Jul-11,1.16,1.16,1.15,1.15,5000
5-Jul-11,1.20,1.20,1.20,1.20,5000
1-Jul-11,1.19,1.23,1.19,1.23,400
30-Jun-11,1.25,1.26,1.25,1.26,32964
28-Jun-11,1.25,1.25,1.25,1.25,8806
27-Jun-11,1.25,1.25,1.25,1.25,101036
22-Jun-11,1.20,1.24,1.20,1.24,4500
21-Jun-11,1.16,1.16,1.16,1.16,300
17-Jun-11,1.10,1.10,1.10,1.10,25200
16-Jun-11,1.09,1.09,1.09,1.09,200
15-Jun-11,1.10,1.10,1.09,1.10,45200
14-Jun-11,1.10,1.10,1.09,1.10,45975
13-Jun-11,1.10,1.10,1.10,1.10,28600
10-Jun-11,1.10,1.10,1.10,1.10,300
9-Jun-11,1.07,1.10,1.01,1.10,32664
8-Jun-11,1.24,1.25,1.06,1.09,157500
7-Jun-11,1.25,1.25,1.16,1.24,68500
6-Jun-11,1.25,1.25,1.17,1.17,400
3-Jun-11,1.25,1.25,1.25,1.25,751
1-Jun-11,1.26,1.26,1.25,1.25,7500
31-May-11,1.26,1.26,1.26,1.26,200
27-May-11,1.25,1.26,1.25,1.25,25250
25-May-11,1.25,1.25,1.25,1.25,300
24-May-11,1.20,1.20,1.20,1.20,600
23-May-11,1.15,1.15,1.15,1.15,100
18-May-11,1.12,1.12,1.12,1.12,250
17-May-11,1.15,1.15,1.06,1.15,11250
16-May-11,1.26,1.26,1.25,1.25,1000
13-May-11,1.25,1.26,1.25,1.26,5500
12-May-11,1.25,1.26,1.20,1.25,66050
11-May-11,1.25,1.25,1.25,1.25,500
9-May-11,1.25,1.25,1.25,1.25,3000
6-May-11,1.25,1.26,1.25,1.26,2000
5-May-11,1.20,1.20,1.20,1.20,500
3-May-11,1.22,1.25,1.20,1.20,4000
2-May-11,1.15,1.22,1.15,1.22,10050
29-Apr-11,1.15,1.15,1.15,1.15,1500
28-Apr-11,1.11,1.11,1.11,1.11,1000
26-Apr-11,1.06,1.06,1.06,1.06,350
25-Apr-11,1.15,1.15,1.15,1.15,1290
21-Apr-11,1.15,1.20,1.15,1.20,2600
19-Apr-11,1.05,1.05,1.05,1.05,999
15-Apr-11,1.01,1.02,1.01,1.01,26000
14-Apr-11,1.05,1.10,1.01,1.01,188100
13-Apr-11,1.10,1.10,1.05,1.05,73700
11-Apr-11,1.09,1.09,1.08,1.08,13500
8-Apr-11,1.14,1.14,1.12,1.12,22000
7-Apr-11,1.10,1.14,1.10,1.14,9250
6-Apr-11,1.15,1.15,1.15,1.15,500
5-Apr-11,1.10,1.10,1.10,1.10,500
4-Apr-11,1.22,1.22,1.20,1.20,2400
1-Apr-11,1.22,1.22,1.22,1.22,400
31-Mar-11,1.22,1.22,1.22,1.22,100
30-Mar-11,1.17,1.17,1.16,1.16,20400
29-Mar-11,1.20,1.20,1.15,1.18,12000
25-Mar-11,1.22,1.22,1.22,1.22,1200
24-Mar-11,1.25,1.25,1.24,1.24,1300
23-Mar-11,1.23,1.23,1.18,1.22,89000
21-Mar-11,1.21,1.21,1.21,1.21,400
18-Mar-11,1.26,1.26,1.26,1.26,1000
16-Mar-11,1.23,1.23,1.23,1.23,400
15-Mar-11,1.18,1.23,1.17,1.17,262400
14-Mar-11,1.23,1.23,1.23,1.23,300
11-Mar-11,1.15,1.22,1.13,1.14,34250
10-Mar-11,1.22,1.22,1.05,1.19,29000
9-Mar-11,1.23,1.23,1.23,1.23,400
4-Mar-11,1.24,1.24,1.23,1.24,140100
3-Mar-11,1.24,1.24,1.24,1.24,200
28-Feb-11,1.25,1.25,1.24,1.24,8300
25-Feb-11,1.21,1.25,1.21,1.25,6500
24-Feb-11,1.21,1.21,1.21,1.21,3000
22-Feb-11,1.26,1.26,1.26,1.26,400
18-Feb-11,1.26,1.26,1.26,1.26,300
15-Feb-11,1.26,1.26,1.26,1.26,100
11-Feb-11,1.20,1.20,1.20,1.20,3000
7-Feb-11,1.20,1.20,1.20,1.20,500
3-Feb-11,1.05,1.27,1.05,1.05,4000
2-Feb-11,1.27,1.30,1.27,1.27,2600
1-Feb-11,1.25,1.25,1.25,1.25,100
28-Jan-11,1.25,1.25,1.25,1.25,100
24-Jan-11,1.30,1.30,1.05,1.05,1100
19-Jan-11,1.25,1.25,1.25,1.25,1000
6-Jan-11,1.30,1.30,1.10,1.10,2300
31-Dec-10,1.30,1.30,1.30,1.30,1900
30-Dec-10,1.25,1.30,1.10,1.30,6000
22-Dec-10,1.15,1.20,1.15,1.20,5061
21-Dec-10,1.15,1.15,1.15,1.15,1000
20-Dec-10,1.15,1.15,1.15,1.15,2000
14-Dec-10,1.15,1.15,1.15,1.15,2000
9-Dec-10,1.15,1.15,1.15,1.15,2000
8-Dec-10,1.15,1.15,1.15,1.15,7172
7-Dec-10,1.20,1.20,1.10,1.15,43222
6-Dec-10,1.15,1.20,1.15,1.20,42572
3-Dec-10,1.20,1.20,1.15,1.15,10100
2-Dec-10,1.10,1.11,1.10,1.11,15100
29-Nov-10,1.10,1.10,1.10,1.10,3500
22-Nov-10,1.10,1.10,1.10,1.10,2500
17-Nov-10,1.20,1.20,1.20,1.20,500
16-Nov-10,1.05,1.05,1.05,1.05,600
9-Nov-10,1.20,1.20,1.20,1.20,500
5-Nov-10,1.05,1.05,1.05,1.05,200
4-Nov-10,1.05,1.05,1.05,1.05,13600
27-Oct-10,1.05,1.05,1.05,1.05,5000
25-Oct-10,1.00,1.00,1.00,1.00,2000
22-Oct-10,0.99,1.00,0.99,1.00,20850
21-Oct-10,1.00,1.00,0.95,0.95,950
20-Oct-10,1.00,1.00,0.95,0.95,5200
15-Oct-10,0.95,0.95,0.95,0.95,1975
8-Oct-10,1.05,1.05,0.95,0.95,1700
7-Oct-10,1.05,1.05,0.95,0.95,3100
6-Oct-10,0.95,0.95,0.95,0.95,2508
5-Oct-10,0.95,0.95,0.95,0.95,508
1-Oct-10,0.95,0.95,0.95,0.95,2600
30-Sep-10,0.90,0.90,0.90,0.90,2000
28-Sep-10,0.90,0.90,0.90,0.90,12000
27-Sep-10,0.90,0.90,0.90,0.90,1000
24-Sep-10,0.95,0.95,0.90,0.90,21000
23-Sep-10,1.01,1.01,1.01,1.01,1600
22-Sep-10,1.10,1.10,0.95,1.10,4900
21-Sep-10,1.10,1.10,1.10,1.10,1000
20-Sep-10,1.32,1.32,0.95,0.95,950
13-Sep-10,0.99,0.99,0.95,0.95,5931
7-Sep-10,1.00,1.04,1.00,1.00,3431
2-Sep-10,1.05,1.05,1.05,1.05,400
1-Sep-10,1.05,1.14,1.05,1.14,2300
24-Aug-10,0.95,1.10,0.94,1.10,20600
19-Aug-10,0.93,0.95,0.93,0.95,5300
13-Aug-10,0.83,0.90,0.83,0.90,10300
11-Aug-10,0.82,0.82,0.82,0.82,200
10-Aug-10,0.95,0.95,0.95,0.95,20000
4-Aug-10,0.92,0.92,0.92,0.92,2500
15-Jul-10,1.00,1.00,1.00,1.00,4063
13-Jul-10,1.00,1.01,1.00,1.00,5682
9-Jul-10,1.01,1.01,1.01,1.01,1000
25-Jun-10,0.96,0.96,0.96,0.96,11000
16-Jun-10,1.00,1.00,1.00,1.00,300
9-Jun-10,1.00,1.00,1.00,1.00,200
3-Jun-10,1.05,1.05,1.05,1.05,1000
2-Jun-10,1.00,1.00,1.00,1.00,2000
28-May-10,1.00,1.01,0.99,1.01,348100
27-May-10,1.00,1.10,0.99,1.00,107700
25-May-10,1.20,1.22,1.01,1.03,21000
24-May-10,1.24,1.24,1.20,1.20,1500
21-May-10,1.25,1.26,1.20,1.26,20600
20-May-10,1.25,1.25,1.16,1.19,8000
19-May-10,1.25,1.25,1.25,1.25,1978
18-May-10,1.25,1.26,1.20,1.22,79347
17-May-10,1.20,1.23,1.20,1.23,33500
28-Apr-10,1.20,1.25,1.20,1.20,17957
27-Apr-10,1.20,1.20,1.20,1.20,200
23-Apr-10,1.15,1.20,1.15,1.20,300
21-Apr-10,1.15,1.15,1.15,1.15,200
14-Apr-10,1.03,1.03,1.03,1.03,625
9-Apr-10,1.00,1.15,1.00,1.05,93400
8-Apr-10,1.10,1.10,0.98,1.10,16500
5-Apr-10,1.32,1.32,1.32,1.32,1000
31-Mar-10,1.30,1.30,1.30,1.30,2000
26-Mar-10,1.30,1.30,1.30,1.30,1000
24-Mar-10,1.30,1.30,0.90,1.01,100890
23-Mar-10,1.30,1.32,1.30,1.32,2100
19-Mar-10,1.30,1.32,1.30,1.32,311110
17-Mar-10,1.32,1.32,1.32,1.32,700
16-Mar-10,1.32,1.32,1.32,1.32,1000
15-Mar-10,1.32,1.32,1.32,1.32,2000
11-Mar-10,1.32,1.34,1.32,1.32,26599
10-Mar-10,1.32,1.32,1.30,1.32,12600
5-Mar-10,1.32,1.32,1.24,1.24,3500
3-Mar-10,1.28,1.28,1.22,1.22,2900
2-Mar-10,1.22,1.22,1.20,1.20,4000
24-Feb-10,1.20,1.22,1.20,1.21,3513
23-Feb-10,1.20,1.20,1.20,1.20,4200
22-Feb-10,1.20,1.20,1.20,1.20,1000
19-Feb-10,1.20,1.20,1.20,1.20,300
18-Feb-10,1.20,1.20,1.20,1.20,7000
17-Feb-10,1.10,1.10,1.10,1.10,7500
16-Feb-10,1.10,1.10,1.10,1.10,5000
11-Feb-10,1.02,1.02,1.02,1.02,500
10-Feb-10,1.15,1.15,1.02,1.02,2200
9-Feb-10,1.10,1.10,1.02,1.02,3000
3-Feb-10,1.28,1.28,1.28,1.28,500
26-Jan-10,1.32,1.32,1.32,1.32,650
25-Jan-10,1.30,1.32,1.30,1.32,1000
22-Jan-10,1.20,1.20,1.20,1.20,250
15-Jan-10,1.20,1.32,1.20,1.32,3250
14-Jan-10,1.00,1.20,1.00,1.20,5000
8-Jan-10,1.30,1.32,1.25,1.30,420900
6-Jan-10,1.25,1.30,1.20,1.20,6250
5-Jan-10,1.15,1.20,1.15,1.20,5500
4-Jan-10,1.20,1.20,1.20,1.20,400
31-Dec-09,1.02,1.20,1.02,1.20,2900
23-Dec-09,0.95,1.20,0.95,1.20,9500
21-Dec-09,1.10,1.10,1.10,1.10,2600
18-Dec-09,1.01,1.10,1.01,1.10,25700
14-Dec-09,0.95,0.95,0.95,0.95,1000
11-Dec-09,1.01,1.01,1.01,1.01,500
8-Dec-09,1.00,1.00,1.00,1.00,550
1-Dec-09,1.00,1.00,1.00,1.00,550
30-Nov-09,0.90,0.90,0.90,0.90,2500
25-Nov-09,0.87,0.87,0.87,0.87,125
18-Nov-09,0.89,0.95,0.87,0.87,38300
17-Nov-09,0.95,0.95,0.94,0.94,1200
16-Nov-09,1.01,1.01,0.92,0.94,6000
13-Nov-09,0.95,0.95,0.85,0.86,27450
12-Nov-09,1.25,1.25,0.90,0.90,1500
11-Nov-09,1.05,1.15,1.05,1.14,10200
10-Nov-09,1.05,1.10,1.05,1.05,3125
9-Nov-09,1.10,1.20,1.10,1.10,19532
5-Nov-09,1.10,1.10,1.10,1.10,1000
4-Nov-09,1.00,1.09,1.00,1.09,22792
3-Nov-09,1.10,1.10,1.10,1.10,1500
23-Oct-09,1.00,1.05,1.00,1.05,3436
20-Oct-09,0.87,1.00,0.87,1.00,1700
16-Oct-09,1.10,1.10,1.10,1.10,700
14-Oct-09,1.10,1.10,1.10,1.10,1000
13-Oct-09,0.95,0.95,0.95,0.95,1000
8-Oct-09,0.90,0.95,0.85,0.95,25500
1-Oct-09,1.15,1.15,0.92,0.92,3000
30-Sep-09,1.01,1.15,1.01,1.15,2000
29-Sep-09,1.01,1.01,1.01,1.01,1000
28-Sep-09,0.86,0.86,0.86,0.86,800
22-Sep-09,1.18,1.18,0.85,0.85,6300
21-Sep-09,1.18,1.18,1.18,1.18,2500
14-Sep-09,1.25,1.25,1.25,1.25,500
11-Sep-09,1.30,1.32,1.28,1.28,1006450
10-Sep-09,1.30,1.30,1.30,1.30,3500
4-Sep-09,1.32,1.32,1.32,1.32,2500
1-Sep-09,1.44,1.44,1.40,1.40,7000
31-Aug-09,1.38,1.39,1.38,1.39,3000
28-Aug-09,1.26,1.35,1.26,1.35,2500
24-Aug-09,1.26,1.26,1.26,1.26,1000
21-Aug-09,1.26,1.26,1.26,1.26,500
13-Aug-09,1.35,1.40,1.35,1.40,6950
4-Aug-09,1.35,1.35,1.35,1.35,1000
30-Jul-09,1.35,1.35,1.35,1.35,7000
29-Jul-09,1.34,1.35,1.34,1.34,5500
28-Jul-09,1.30,1.35,1.30,1.35,1500
27-Jul-09,1.30,1.35,1.27,1.30,16000
23-Jul-09,1.20,1.20,1.20,1.20,1300
21-Jul-09,1.20,1.20,1.20,1.20,1000
16-Jul-09,1.30,1.38,1.30,1.30,5200
15-Jul-09,1.39,1.39,1.39,1.39,15000
23-Jun-09,1.30,1.30,1.30,1.30,500
22-Jun-09,1.02,1.02,1.02,1.02,100
19-Jun-09,1.39,1.39,1.39,1.39,2200
18-Jun-09,1.28,1.30,1.28,1.30,2000
16-Jun-09,1.35,1.35,1.35,1.35,800
12-Jun-09,1.35,1.35,1.35,1.35,500
11-Jun-09,0.75,1.40,0.75,1.40,48550
10-Jun-09,0.66,0.75,0.66,0.75,15500
9-Jun-09,0.65,0.66,0.65,0.66,6000
5-Jun-09,0.75,0.75,0.65,0.65,3100
2-Jun-09,0.65,0.65,0.62,0.62,7000
29-May-09,0.60,0.70,0.60,0.67,39800
22-May-09,0.60,0.60,0.60,0.60,26000
18-May-09,0.55,0.70,0.55,0.64,81500
14-May-09,0.62,0.62,0.62,0.62,2000
12-May-09,0.60,0.70,0.60,0.70,2977
8-May-09,0.60,0.60,0.60,0.60,2000
6-May-09,0.70,0.70,0.70,0.70,2000
4-May-09,0.50,0.50,0.50,0.50,650
1-May-09,0.75,0.75,0.40,0.40,7400
27-Apr-09,0.75,0.75,0.75,0.75,2000
21-Apr-09,0.75,0.75,0.75,0.75,2000
16-Apr-09,0.55,0.65,0.55,0.60,30800
8-Apr-09,0.55,0.55,0.55,0.55,5000
7-Apr-09,0.50,0.50,0.50,0.50,15200
30-Mar-09,0.49,0.49,0.49,0.49,15000
27-Mar-09,0.49,0.50,0.49,0.49,31000
23-Feb-09,0.36,0.36,0.36,0.36,3742
20-Feb-09,0.36,0.36,0.36,0.36,6000
2-Feb-09,0.36,0.36,0.36,0.36,9000
20-Jan-09,0.39,0.39,0.39,0.39,1000
16-Jan-09,0.48,0.48,0.48,0.48,8000
6-Jan-09,0.39,0.39,0.39,0.39,3000
30-Dec-08,0.35,0.35,0.35,0.35,3000
26-Dec-08,0.42,0.42,0.42,0.42,2500
23-Dec-08,0.31,0.31,0.31,0.31,3000
18-Dec-08,0.31,0.31,0.31,0.31,4600
16-Dec-08,0.31,0.31,0.31,0.31,16200
8-Dec-08,0.38,0.38,0.38,0.38,2000
5-Dec-08,0.39,0.39,0.38,0.39,44500
4-Dec-08,0.39,0.39,0.39,0.39,14500
3-Dec-08,0.39,0.39,0.39,0.39,10200
2-Dec-08,0.39,0.39,0.39,0.39,23390
28-Nov-08,0.41,0.41,0.40,0.40,21500
26-Nov-08,0.38,0.40,0.38,0.40,28700
25-Nov-08,0.43,0.43,0.26,0.40,32210
24-Nov-08,0.40,0.40,0.35,0.35,43900
21-Nov-08,0.37,0.37,0.35,0.35,8800
20-Nov-08,0.40,0.40,0.37,0.37,7200
19-Nov-08,0.40,0.40,0.40,0.40,30000
18-Nov-08,0.40,0.40,0.40,0.40,657000
17-Nov-08,0.30,0.40,0.30,0.40,36800
14-Nov-08,0.28,0.28,0.28,0.28,12500
13-Nov-08,0.30,0.30,0.28,0.28,21000
11-Nov-08,0.30,0.30,0.26,0.30,27800
10-Nov-08,0.40,0.40,0.31,0.32,26000
7-Nov-08,0.40,0.40,0.35,0.35,33450
4-Nov-08,0.40,0.40,0.40,0.40,2492
3-Nov-08,0.44,0.49,0.44,0.49,5700
31-Oct-08,0.40,0.40,0.40,0.40,1000
28-Oct-08,0.42,0.42,0.36,0.36,2980
20-Oct-08,0.49,0.59,0.49,0.52,18000
6-Oct-08,0.40,0.48,0.40,0.48,1040
29-Sep-08,0.51,0.51,0.51,0.51,1500
19-Sep-08,0.54,0.54,0.54,0.54,2000
10-Sep-08,0.59,0.59,0.59,0.59,5000
8-Sep-08,0.54,0.60,0.54,0.60,3600
5-Sep-08,0.65,0.65,0.62,0.62,5500
27-Aug-08,0.59,0.59,0.57,0.57,5500
26-Aug-08,0.40,0.60,0.40,0.60,10000
22-Aug-08,0.40,0.45,0.40,0.45,465662
20-Aug-08,0.45,0.45,0.43,0.43,20000
19-Aug-08,0.35,0.46,0.35,0.40,51000
14-Aug-08,0.45,0.45,0.33,0.33,445000
13-Aug-08,0.45,0.45,0.45,0.45,10000
7-Aug-08,0.53,0.53,0.50,0.50,10000
1-Aug-08,0.47,0.47,0.47,0.47,1000
30-Jul-08,0.45,0.45,0.43,0.43,18000
29-Jul-08,0.43,0.43,0.43,0.43,2500
24-Jul-08,0.42,0.42,0.42,0.42,2000
16-Jul-08,0.51,0.51,0.42,0.42,56415
11-Jul-08,0.54,0.54,0.52,0.52,3250
1-Jul-08,0.52,0.52,0.52,0.52,1000
27-Jun-08,0.57,0.60,0.55,0.56,28300
26-Jun-08,0.60,0.60,0.60,0.60,2500
18-Jun-08,0.56,0.56,0.56,0.56,500
12-Jun-08,0.56,0.56,0.56,0.56,150
10-Jun-08,0.55,0.55,0.55,0.55,2500
9-Jun-08,0.57,0.58,0.55,0.55,28500
5-Jun-08,0.58,0.58,0.58,0.58,1700
4-Jun-08,0.58,0.58,0.58,0.58,2500
3-Jun-08,0.60,0.61,0.60,0.60,25000
30-May-08,0.60,0.60,0.60,0.60,2500
29-May-08,0.61,0.61,0.60,0.60,58500
28-May-08,0.61,0.65,0.61,0.65,7700
27-May-08,0.61,0.69,0.61,0.69,5000
23-May-08,0.59,0.60,0.59,0.60,7500
22-May-08,0.61,0.62,0.59,0.62,85500
15-May-08,0.65,0.65,0.60,0.60,67500
14-May-08,0.64,0.64,0.64,0.64,25000
13-May-08,0.63,0.63,0.60,0.60,82000
9-May-08,0.61,0.61,0.60,0.60,32500
8-May-08,0.60,0.60,0.60,0.60,7500
7-May-08,0.61,0.64,0.59,0.60,71200
5-May-08,0.60,0.60,0.60,0.60,1000
2-May-08,0.65,0.65,0.60,0.60,12500
30-Apr-08,0.58,0.60,0.58,0.60,10000
29-Apr-08,0.67,0.67,0.60,0.60,55000
28-Apr-08,0.60,0.62,0.60,0.62,5000
24-Apr-08,0.60,0.60,0.60,0.60,17500
23-Apr-08,0.67,0.67,0.60,0.60,33000
22-Apr-08,0.67,0.67,0.67,0.67,9000
18-Apr-08,0.69,0.69,0.69,0.69,2500
17-Apr-08,0.59,0.60,0.59,0.60,1850
16-Apr-08,0.66,0.67,0.66,0.67,16000
15-Apr-08,0.67,0.67,0.67,0.67,5500
14-Apr-08,0.67,0.70,0.67,0.70,4768
11-Apr-08,0.70,0.70,0.70,0.70,5000
10-Apr-08,0.75,0.75,0.66,0.70,15582
9-Apr-08,0.55,0.65,0.55,0.65,23200
8-Apr-08,0.50,0.51,0.50,0.51,2865
7-Apr-08,0.49,0.50,0.49,0.50,12000
4-Apr-08,0.49,0.49,0.49,0.49,5000
3-Apr-08,0.44,0.50,0.44,0.50,40600
1-Apr-08,0.40,0.43,0.40,0.43,16000
31-Mar-08,0.35,0.38,0.35,0.38,80000
28-Mar-08,0.41,0.41,0.38,0.38,56000
27-Mar-08,0.44,0.44,0.42,0.42,20000
26-Mar-08,0.37,0.47,0.33,0.45,80000
25-Mar-08,0.46,0.48,0.35,0.35,41200
24-Mar-08,0.44,0.60,0.44,0.45,506800
20-Mar-08,0.43,0.43,0.43,0.43,2500
19-Mar-08,0.43,0.43,0.40,0.40,21250
18-Mar-08,0.38,0.40,0.37,0.40,61600
17-Mar-08,0.38,0.38,0.35,0.35,6000
14-Mar-08,0.38,0.39,0.35,0.35,32665
13-Mar-08,0.40,0.43,0.40,0.43,15000
11-Mar-08,0.46,0.46,0.35,0.43,73500
10-Mar-08,0.47,0.47,0.46,0.46,7500
3-Mar-08,0.49,0.49,0.49,0.49,5000
29-Feb-08,0.51,0.51,0.50,0.50,52500
28-Feb-08,0.54,0.54,0.46,0.50,43000
27-Feb-08,0.54,0.54,0.54,0.54,11000
26-Feb-08,0.56,0.58,0.54,0.54,151200
22-Feb-08,0.55,0.55,0.55,0.55,15000
21-Feb-08,0.58,0.58,0.58,0.58,1000
20-Feb-08,0.58,0.58,0.58,0.58,25000
19-Feb-08,0.55,0.55,0.55,0.55,400
14-Feb-08,0.59,0.59,0.58,0.58,46000
13-Feb-08,0.59,0.59,0.59,0.59,4100
12-Feb-08,0.60,0.60,0.55,0.55,57500
11-Feb-08,0.60,0.60,0.60,0.60,15500
8-Feb-08,0.56,0.70,0.50,0.60,206100
6-Feb-08,0.68,0.68,0.62,0.62,11000
5-Feb-08,0.71,0.71,0.60,0.64,34800
4-Feb-08,0.74,0.74,0.71,0.71,15000
1-Feb-08,0.80,0.80,0.71,0.71,20000
31-Jan-08,0.80,0.80,0.75,0.75,17500
30-Jan-08,0.80,0.80,0.80,0.80,200
29-Jan-08,0.80,0.80,0.80,0.80,3000
28-Jan-08,0.87,0.87,0.80,0.80,20500
25-Jan-08,0.92,0.92,0.92,0.92,7500
24-Jan-08,1.01,1.01,0.92,0.92,4599
23-Jan-08,1.01,1.01,1.00,1.00,11200
22-Jan-08,1.07,1.07,1.07,1.07,500
10-Jan-08,1.08,1.10,1.08,1.10,2000
8-Jan-08,1.03,1.03,1.03,1.03,2000
4-Jan-08,1.05,1.05,1.05,1.05,25000
3-Jan-08,1.05,1.05,1.05,1.05,3000
31-Dec-07,1.10,1.10,1.05,1.05,5500
28-Dec-07,1.12,1.12,1.12,1.12,1000
27-Dec-07,1.18,1.18,1.12,1.12,53800
26-Dec-07,1.10,1.15,1.05,1.15,50500
24-Dec-07,1.15,1.25,1.05,1.18,24000
20-Dec-07,1.12,1.20,1.03,1.15,27400
19-Dec-07,1.20,1.20,1.12,1.12,4900
18-Dec-07,1.15,1.25,1.15,1.25,20000
17-Dec-07,1.15,1.15,1.15,1.15,10500
14-Dec-07,1.20,1.30,1.20,1.30,19000
13-Dec-07,1.20,1.20,1.20,1.20,13500
12-Dec-07,1.15,1.17,1.15,1.17,9100
11-Dec-07,1.15,1.15,1.15,1.15,1846
7-Dec-07,1.20,1.20,1.20,1.20,4500
6-Dec-07,1.20,1.20,1.20,1.20,1500
5-Dec-07,1.27,1.27,1.27,1.27,800
3-Dec-07,1.30,1.30,1.30,1.30,650
30-Nov-07,1.30,1.30,1.30,1.30,1500
29-Nov-07,1.25,1.45,1.25,1.34,11550
28-Nov-07,1.25,1.25,1.25,1.25,500
27-Nov-07,1.15,1.40,1.15,1.35,66128
26-Nov-07,1.05,1.20,1.05,1.10,42061
23-Nov-07,1.05,1.05,1.05,1.05,1000
21-Nov-07,1.13,1.13,1.05,1.05,5400
20-Nov-07,1.12,1.13,1.12,1.13,1900
19-Nov-07,1.12,1.25,1.12,1.16,23300
16-Nov-07,1.15,1.15,1.12,1.12,9700
15-Nov-07,1.08,1.15,1.02,1.15,24250
14-Nov-07,1.05,1.08,1.05,1.08,6800
13-Nov-07,1.15,1.15,1.05,1.05,8200
8-Nov-07,1.20,1.20,1.14,1.14,10038
7-Nov-07,1.14,1.20,1.14,1.20,8000
6-Nov-07,1.25,1.25,1.14,1.19,3000
5-Nov-07,1.32,1.32,1.32,1.32,228
26-Oct-07,1.31,1.31,1.31,1.31,100
24-Oct-07,1.30,1.30,1.30,1.30,1500
22-Oct-07,1.14,1.14,1.14,1.14,2100
19-Oct-07,1.40,1.40,1.14,1.14,5500
18-Oct-07,1.25,1.30,1.20,1.20,6010
17-Oct-07,1.40,1.40,1.05,1.15,14713
16-Oct-07,1.42,1.42,1.42,1.42,500
15-Oct-07,1.50,1.50,1.50,1.50,2200
12-Oct-07,1.50,1.50,1.50,1.50,5500
11-Oct-07,1.50,1.50,1.42,1.42,3300
8-Oct-07,1.56,1.56,1.56,1.56,1200
5-Oct-07,1.57,1.57,1.57,1.57,3500
4-Oct-07,1.37,1.85,1.35,1.70,27621
3-Oct-07,1.31,1.31,1.31,1.31,800
28-Sep-07,1.28,1.37,1.20,1.37,8000
26-Sep-07,1.24,1.24,1.10,1.20,15000
25-Sep-07,1.35,1.35,1.25,1.30,16300
24-Sep-07,1.35,1.35,1.35,1.35,1000
21-Sep-07,1.40,1.40,1.40,1.40,3000
20-Sep-07,1.40,1.40,1.40,1.40,5400
19-Sep-07,1.38,1.38,1.38,1.38,2200
18-Sep-07,1.41,1.41,1.41,1.41,52000
17-Sep-07,1.42,1.42,1.42,1.42,1700
13-Sep-07,1.45,1.50,1.45,1.46,2592781
11-Sep-07,1.45,1.45,1.45,1.45,4000
10-Sep-07,1.50,1.50,1.50,1.50,1800
7-Sep-07,1.50,1.60,1.50,1.60,2000
6-Sep-07,1.50,1.50,1.50,1.50,2000
5-Sep-07,1.55,1.55,1.50,1.50,3500
4-Sep-07,1.60,1.65,1.55,1.60,3700
31-Aug-07,1.70,1.70,1.65,1.69,11200
30-Aug-07,1.70,1.75,1.70,1.75,22000
29-Aug-07,1.32,1.70,1.32,1.70,24000
28-Aug-07,1.31,1.32,1.31,1.31,7000
24-Aug-07,1.50,1.50,1.40,1.40,7800
23-Aug-07,1.50,1.50,1.50,1.50,4000
22-Aug-07,1.70,1.70,1.50,1.50,8000
21-Aug-07,1.65,1.65,1.56,1.60,8000
20-Aug-07,1.70,1.70,1.70,1.70,880
17-Aug-07,1.60,1.62,1.59,1.62,8300
15-Aug-07,1.70,1.70,1.55,1.55,5000
14-Aug-07,1.70,1.70,1.70,1.70,4100
13-Aug-07,1.65,1.75,1.55,1.70,210800
10-Aug-07,1.55,1.55,1.41,1.41,9750
9-Aug-07,1.60,1.60,1.57,1.57,7750
7-Aug-07,1.64,1.65,1.55,1.55,29200
6-Aug-07,1.70,1.70,1.64,1.64,62080
3-Aug-07,1.85,1.85,1.70,1.70,9500
2-Aug-07,1.86,1.90,1.86,1.90,5500
1-Aug-07,1.95,1.95,1.90,1.90,5637
31-Jul-07,1.96,1.98,1.96,1.98,11000
30-Jul-07,2.01,2.01,2.01,2.01,9000
27-Jul-07,2.05,2.05,1.99,2.05,10500
26-Jul-07,2.10,2.10,2.05,2.05,4000
25-Jul-07,2.08,2.08,2.08,2.08,500
24-Jul-07,2.07,2.10,2.07,2.10,7250
23-Jul-07,2.15,2.15,2.10,2.10,7500
19-Jul-07,2.17,2.17,2.15,2.15,9500
18-Jul-07,2.17,2.17,2.15,2.15,10500
17-Jul-07,2.20,2.20,2.20,2.20,16500
16-Jul-07,2.25,2.25,2.20,2.20,5000
13-Jul-07,2.30,2.30,2.30,2.30,5500
12-Jul-07,2.30,2.30,2.25,2.30,10020
11-Jul-07,2.27,2.30,2.27,2.30,2480
10-Jul-07,2.25,2.30,2.17,2.25,6400
6-Jul-07,2.30,2.30,2.30,2.30,22650
5-Jul-07,2.30,2.30,2.30,2.30,10000
3-Jul-07,2.37,2.37,2.28,2.30,33500
2-Jul-07,2.30,2.35,2.30,2.35,21500
29-Jun-07,2.30,2.30,2.28,2.28,700
28-Jun-07,2.32,2.32,2.32,2.32,1500
25-Jun-07,2.32,2.33,2.32,2.32,4400
22-Jun-07,2.35,2.35,2.35,2.35,2100
21-Jun-07,2.38,2.40,2.35,2.35,6520
19-Jun-07,2.38,2.50,2.37,2.50,8500
18-Jun-07,2.50,2.50,2.50,2.50,500
15-Jun-07,2.45,2.47,2.45,2.47,950
14-Jun-07,2.47,2.47,2.41,2.41,5400
13-Jun-07,2.34,2.45,2.34,2.45,105050
12-Jun-07,2.34,2.34,2.30,2.30,33904
11-Jun-07,2.22,2.30,2.22,2.30,28600
8-Jun-07,2.30,2.30,2.21,2.21,2350
7-Jun-07,2.25,2.25,2.25,2.25,6800
6-Jun-07,2.29,2.29,2.27,2.27,7500
5-Jun-07,2.30,2.33,2.29,2.29,7500
4-Jun-07,2.33,2.33,2.30,2.30,8200
1-Jun-07,2.33,2.33,2.33,2.33,7500
30-May-07,2.35,2.35,2.33,2.33,1500
29-May-07,2.35,2.35,2.35,2.35,2800
24-May-07,2.33,2.33,2.30,2.30,4992
23-May-07,2.35,2.35,2.35,2.35,12000
22-May-07,2.29,2.30,2.29,2.30,30108
21-May-07,2.16,2.30,2.16,2.25,38950
18-May-07,2.00,2.15,2.00,2.15,74150
17-May-07,1.97,2.00,1.97,2.00,22691
16-May-07,1.95,1.97,1.95,1.97,3500
14-May-07,1.99,1.99,1.99,1.99,1000
11-May-07,1.91,1.99,1.90,1.99,13600
10-May-07,1.99,1.99,1.90,1.95,15721
9-May-07,1.90,1.90,1.90,1.90,1000
8-May-07,1.90,2.00,1.90,2.00,50700
7-May-07,2.00,2.00,2.00,2.00,6000
3-May-07,1.90,2.00,1.90,2.00,650
2-May-07,1.90,1.99,1.90,1.99,6100
1-May-07,1.95,1.95,1.95,1.95,6000
30-Apr-07,1.95,2.00,1.95,2.00,5000
27-Apr-07,1.91,1.95,1.91,1.95,7404
26-Apr-07,1.80,1.95,1.80,1.92,12000
25-Apr-07,1.82,1.82,1.80,1.80,11500
24-Apr-07,1.78,1.90,1.78,1.82,13750
23-Apr-07,1.95,1.95,1.60,1.78,42321
20-Apr-07,2.00,2.00,1.95,1.95,4490
19-Apr-07,2.01,2.01,1.95,1.95,2500
18-Apr-07,2.06,2.06,2.02,2.02,2300
17-Apr-07,2.07,2.07,2.05,2.05,6500
16-Apr-07,2.10,2.10,2.10,2.10,7358
13-Apr-07,2.11,2.12,2.08,2.10,23850
12-Apr-07,2.10,2.14,2.06,2.14,18452
11-Apr-07,2.05,2.05,2.05,2.05,13600
10-Apr-07,1.81,2.05,1.81,2.00,570500
9-Apr-07,1.78,1.90,1.78,1.90,54800
5-Apr-07,1.65,1.80,1.65,1.80,64000
4-Apr-07,1.87,1.87,1.60,1.69,32391
3-Apr-07,1.89,1.90,1.89,1.90,19600
30-Mar-07,1.90,1.90,1.90,1.90,1000
29-Mar-07,1.78,1.98,1.78,1.90,75100
28-Mar-07,1.65,1.78,1.65,1.78,78950
27-Mar-07,1.77,1.77,1.75,1.75,7000
26-Mar-07,1.81,1.85,1.75,1.75,14609
20-Mar-07,1.82,1.82,1.81,1.81,52990
19-Mar-07,1.80,1.80,1.80,1.80,6000
16-Mar-07,1.80,1.80,1.80,1.80,1100
14-Mar-07,1.85,1.90,1.60,1.85,47800
13-Mar-07,1.95,1.95,1.90,1.90,10950
12-Mar-07,1.95,1.95,1.95,1.95,13500
9-Mar-07,1.95,1.98,1.95,1.96,3990
8-Mar-07,2.00,2.00,1.90,2.00,20100
7-Mar-07,2.00,2.00,2.00,2.00,90500
6-Mar-07,2.05,2.05,1.90,2.00,47600
5-Mar-07,2.17,2.17,2.05,2.05,5878
1-Mar-07,2.31,2.31,2.19,2.24,8000
28-Feb-07,2.36,2.36,2.36,2.36,3250
27-Feb-07,2.30,2.36,2.30,2.35,5500
26-Feb-07,2.20,2.40,2.20,2.30,437790
23-Feb-07,2.80,2.80,2.16,2.17,270400
22-Feb-07,2.85,2.85,2.80,2.80,1500
21-Feb-07,2.85,2.85,2.85,2.85,1500
16-Feb-07,2.85,2.85,2.85,2.85,500
15-Feb-07,2.90,2.90,2.90,2.90,11700
14-Feb-07,2.90,2.90,2.85,2.85,2500
13-Feb-07,3.09,3.09,2.90,3.00,42200
12-Feb-07,3.25,3.25,3.10,3.10,52000
9-Feb-07,3.35,3.35,3.35,3.35,3500
5-Feb-07,3.25,3.25,3.25,3.25,3500
1-Feb-07,3.25,3.25,3.25,3.25,1000
31-Jan-07,3.35,3.45,3.35,3.35,5200
26-Jan-07,3.30,3.30,3.30,3.30,1000
24-Jan-07,3.43,3.43,3.43,3.43,1000
23-Jan-07,3.30,3.30,3.30,3.30,2000
22-Jan-07,3.35,3.45,3.35,3.45,2000
17-Jan-07,3.25,3.25,3.25,3.25,2800
16-Jan-07,3.35,3.35,3.30,3.30,2000
11-Jan-07,3.30,3.30,3.30,3.30,6000
10-Jan-07,3.30,3.30,3.30,3.30,35500
9-Jan-07,3.33,3.33,3.30,3.33,10000
8-Jan-07,3.35,3.35,3.35,3.35,300
5-Jan-07,3.40,3.40,3.40,3.40,1000
4-Jan-07,3.55,3.55,3.40,3.40,17500
3-Jan-07,3.46,3.55,3.43,3.48,31200
29-Dec-06,3.25,3.48,3.24,3.48,46300
28-Dec-06,3.24,3.24,3.24,3.24,1000
27-Dec-06,3.21,3.24,3.16,3.24,17000
26-Dec-06,3.24,3.24,3.24,3.24,1800
22-Dec-06,3.16,3.24,3.16,3.24,3900
21-Dec-06,3.13,3.24,3.13,3.15,24400
20-Dec-06,3.12,3.12,3.12,3.12,5000
18-Dec-06,3.09,3.10,3.09,3.10,19600
15-Dec-06,3.08,3.08,3.08,3.08,29400
14-Dec-06,3.08,3.10,3.08,3.10,5000
13-Dec-06,3.10,3.10,3.10,3.10,2000
12-Dec-06,3.08,3.10,3.08,3.10,14400
11-Dec-06,3.08,3.10,3.05,3.10,20815
8-Dec-06,3.15,3.15,2.95,3.00,33300
7-Dec-06,3.25,3.25,3.16,3.16,10400
6-Dec-06,3.19,3.25,3.19,3.25,10000
5-Dec-06,3.12,3.25,3.12,3.25,32000
4-Dec-06,3.25,3.25,3.07,3.12,38640
1-Dec-06,3.25,3.30,3.20,3.20,5120
30-Nov-06,3.35,3.35,3.30,3.30,2600
29-Nov-06,3.40,3.40,3.35,3.35,5800
