﻿Date,Open,High,Low,Close,Volume
20-Jun-17,37.10,37.10,36.65,36.70,117458
19-Jun-17,36.90,37.25,36.75,37.10,218731
16-Jun-17,36.70,36.95,36.45,36.75,576196
15-Jun-17,36.20,37.10,36.20,37.00,286031
14-Jun-17,36.40,36.65,36.10,36.60,405622
13-Jun-17,36.65,36.75,36.45,36.55,296540
12-Jun-17,36.60,37.00,36.45,36.50,337927
9-Jun-17,36.55,36.95,36.50,36.70,359090
8-Jun-17,36.00,36.70,35.85,36.55,242315
7-Jun-17,36.10,36.20,35.82,36.00,193091
6-Jun-17,35.95,36.10,35.56,36.00,304396
5-Jun-17,36.80,36.85,36.30,36.30,189525
2-Jun-17,36.15,37.45,36.15,36.85,397684
1-Jun-17,35.70,36.35,35.35,36.25,296990
31-May-17,35.90,35.90,35.25,35.70,302704
30-May-17,35.70,35.95,35.50,35.75,163920
26-May-17,35.90,35.95,35.70,35.80,184385
25-May-17,36.50,36.50,35.80,36.00,224879
24-May-17,36.40,36.60,36.25,36.35,148050
23-May-17,36.55,36.55,36.25,36.45,177983
22-May-17,36.65,36.65,36.25,36.40,150224
19-May-17,36.35,36.65,36.30,36.40,499692
18-May-17,36.35,36.35,35.90,36.10,260791
17-May-17,36.65,36.95,36.25,36.35,251675
16-May-17,37.65,37.65,36.85,37.40,258326
15-May-17,37.70,38.10,37.51,37.65,325956
12-May-17,37.80,37.80,37.25,37.60,182430
11-May-17,38.00,38.05,37.40,37.95,127822
10-May-17,38.20,38.30,37.85,38.10,183273
9-May-17,38.45,38.60,37.90,38.20,264470
8-May-17,38.30,38.75,37.96,38.40,288869
5-May-17,37.90,38.40,37.70,38.35,465989
4-May-17,37.70,37.82,36.45,37.80,327122
3-May-17,36.45,36.60,36.08,36.40,217256
2-May-17,36.80,36.90,36.45,36.65,178939
1-May-17,36.95,36.95,36.52,36.65,267923
28-Apr-17,37.55,37.65,36.80,36.90,178475
27-Apr-17,37.30,37.60,37.20,37.35,241046
26-Apr-17,37.50,37.70,37.28,37.30,290534
25-Apr-17,37.35,37.58,37.05,37.45,224880
24-Apr-17,36.85,37.10,36.65,36.85,213156
21-Apr-17,36.25,36.35,35.80,36.15,178100
20-Apr-17,35.70,36.42,35.70,36.25,190843
19-Apr-17,35.30,35.65,35.15,35.55,263587
18-Apr-17,35.00,35.30,34.70,35.15,296126
17-Apr-17,35.05,35.30,34.80,35.25,155958
13-Apr-17,35.25,35.40,34.75,34.90,286234
12-Apr-17,36.30,36.35,35.20,35.35,309477
11-Apr-17,35.50,36.30,35.40,36.30,274645
10-Apr-17,35.55,36.00,35.30,35.60,243017
7-Apr-17,35.40,35.75,35.30,35.65,318665
6-Apr-17,35.20,35.68,34.75,35.60,235915
5-Apr-17,35.70,36.00,35.15,35.25,295713
4-Apr-17,35.15,36.05,35.15,35.55,300324
3-Apr-17,35.80,36.00,34.85,35.15,501328
31-Mar-17,35.85,36.00,35.65,35.85,388368
30-Mar-17,35.85,36.02,35.60,35.95,391920
29-Mar-17,35.70,35.85,35.60,35.80,92847
28-Mar-17,35.25,35.85,35.15,35.85,174271
27-Mar-17,35.35,35.50,34.96,35.35,177380
24-Mar-17,35.85,36.15,35.60,35.70,214018
23-Mar-17,35.40,35.90,35.25,35.80,193133
22-Mar-17,35.80,35.85,35.10,35.35,245233
21-Mar-17,36.95,37.02,35.68,35.80,251644
20-Mar-17,36.90,37.10,36.50,36.85,135132
17-Mar-17,36.95,36.98,36.40,36.90,728037
16-Mar-17,37.00,37.15,36.80,36.90,199978
15-Mar-17,36.55,37.10,36.50,36.90,567292
14-Mar-17,36.45,36.70,36.45,36.60,186871
13-Mar-17,36.40,36.95,36.40,36.75,156176
10-Mar-17,36.60,36.65,35.75,36.40,274039
9-Mar-17,36.30,36.40,35.95,36.10,185097
8-Mar-17,36.80,37.05,36.20,36.20,229978
7-Mar-17,36.65,36.90,36.50,36.80,134640
6-Mar-17,36.75,36.98,36.55,36.75,100375
3-Mar-17,36.85,37.10,36.55,37.00,155536
2-Mar-17,37.40,37.45,36.65,36.80,122275
1-Mar-17,37.00,37.50,36.70,37.40,202159
28-Feb-17,37.30,37.30,36.30,36.35,261237
27-Feb-17,36.85,37.40,36.80,37.35,203960
24-Feb-17,36.95,37.50,36.35,37.05,226413
23-Feb-17,36.95,37.20,36.25,36.60,176453
22-Feb-17,36.85,37.10,36.65,37.00,104753
21-Feb-17,36.60,37.02,36.45,37.00,170476
17-Feb-17,37.25,37.30,36.35,36.45,315579
16-Feb-17,37.15,37.30,36.75,37.30,201921
15-Feb-17,36.90,37.35,36.75,37.20,155917
14-Feb-17,36.85,37.10,36.60,37.00,314529
13-Feb-17,37.00,37.35,37.00,37.10,252142
10-Feb-17,36.45,36.85,36.20,36.85,242385
9-Feb-17,35.80,36.40,35.80,36.20,215196
8-Feb-17,35.90,35.95,35.35,35.80,385417
7-Feb-17,35.55,36.15,35.55,36.00,434056
6-Feb-17,35.90,36.05,35.25,35.45,407020
3-Feb-17,35.60,36.20,35.60,36.15,252372
2-Feb-17,36.80,36.80,35.20,35.40,554610
1-Feb-17,36.80,37.10,36.55,37.05,265886
31-Jan-17,36.45,36.70,36.20,36.55,273514
30-Jan-17,37.15,37.15,36.45,36.50,216039
27-Jan-17,37.45,37.50,37.15,37.35,146147
26-Jan-17,37.95,38.12,37.10,37.35,185198
25-Jan-17,37.85,38.40,37.70,38.05,322461
24-Jan-17,37.15,37.65,36.90,37.50,210951
23-Jan-17,37.35,37.40,36.70,36.95,223322
20-Jan-17,37.40,37.62,37.15,37.30,213418
19-Jan-17,37.95,38.15,37.25,37.40,265529
18-Jan-17,37.85,38.05,37.75,38.00,122571
17-Jan-17,37.95,38.00,37.55,37.70,179810
13-Jan-17,38.25,38.45,38.00,38.25,193315
12-Jan-17,38.35,38.35,37.60,38.05,202310
11-Jan-17,38.30,38.38,37.90,38.35,251220
10-Jan-17,38.15,38.40,37.88,38.20,245827
9-Jan-17,38.35,38.55,37.85,38.00,491489
6-Jan-17,38.75,38.75,38.20,38.45,319938
5-Jan-17,38.60,39.00,38.40,38.55,351804
4-Jan-17,38.45,38.70,38.20,38.65,275518
3-Jan-17,38.50,38.60,37.85,38.20,387282
30-Dec-16,38.20,38.40,38.10,38.35,262580
29-Dec-16,38.30,38.50,38.00,38.15,103945
28-Dec-16,38.35,38.40,38.05,38.15,168596
27-Dec-16,38.25,38.50,38.15,38.30,129088
23-Dec-16,38.05,38.25,37.88,38.25,112109
22-Dec-16,38.20,38.45,38.00,38.00,175956
21-Dec-16,38.35,38.70,38.00,38.20,397423
20-Dec-16,38.15,38.35,37.95,38.25,328451
19-Dec-16,37.20,38.05,37.20,37.90,327517
16-Dec-16,37.70,38.15,36.70,37.15,1072249
15-Dec-16,37.15,37.90,37.00,37.60,252113
14-Dec-16,37.55,37.75,36.90,37.10,340185
13-Dec-16,37.30,37.80,37.10,37.75,308700
12-Dec-16,37.25,37.70,36.65,36.95,240236
9-Dec-16,37.50,37.60,37.15,37.40,381091
8-Dec-16,36.75,37.35,36.55,37.35,304162
7-Dec-16,35.35,36.90,35.25,36.70,371974
6-Dec-16,35.55,35.78,35.40,35.60,329693
5-Dec-16,35.45,35.65,35.30,35.55,235795
2-Dec-16,35.05,35.35,34.90,35.15,484583
1-Dec-16,35.15,35.55,34.90,34.90,302884
30-Nov-16,35.70,35.80,34.88,35.00,302751
29-Nov-16,36.15,36.15,35.30,35.40,300387
28-Nov-16,36.00,36.45,35.70,36.00,314390
25-Nov-16,36.30,36.35,36.09,36.25,107837
23-Nov-16,36.15,36.50,35.65,36.20,321164
22-Nov-16,35.10,36.25,35.10,36.05,503958
21-Nov-16,34.75,35.60,34.65,35.10,689954
18-Nov-16,34.15,34.90,33.55,34.90,279189
17-Nov-16,34.00,34.90,33.80,33.95,422659
16-Nov-16,33.05,33.60,32.60,33.60,378911
15-Nov-16,33.05,33.35,32.25,33.05,201674
14-Nov-16,34.45,34.45,32.85,33.30,356514
11-Nov-16,33.80,34.90,33.52,34.60,426245
10-Nov-16,32.15,33.55,32.15,33.55,415327
9-Nov-16,29.90,31.95,29.90,31.80,385303
8-Nov-16,29.60,30.50,29.60,30.30,209601
7-Nov-16,29.60,30.00,29.55,29.75,227375
4-Nov-16,29.20,29.55,29.05,29.10,174818
3-Nov-16,28.70,29.30,28.60,29.25,211865
2-Nov-16,29.60,29.95,29.40,29.40,195476
1-Nov-16,30.35,30.65,29.60,29.85,168821
31-Oct-16,30.55,30.55,30.10,30.35,154759
28-Oct-16,30.10,30.68,30.00,30.40,86959
27-Oct-16,30.65,30.65,30.10,30.25,78562
26-Oct-16,30.65,30.89,30.50,30.55,88911
25-Oct-16,30.75,30.75,30.35,30.70,84657
24-Oct-16,30.85,31.15,30.58,30.80,65688
21-Oct-16,30.22,30.76,30.16,30.58,124105
20-Oct-16,30.64,30.76,30.43,30.58,106975
19-Oct-16,30.77,30.94,30.66,30.78,143884
18-Oct-16,31.11,31.11,30.62,30.73,92696
17-Oct-16,30.73,30.94,30.62,30.83,80768
14-Oct-16,30.64,30.96,30.64,30.72,109157
13-Oct-16,30.78,30.78,30.48,30.55,170451
12-Oct-16,30.89,31.26,30.89,30.98,117881
11-Oct-16,31.48,31.55,30.77,30.94,118285
10-Oct-16,31.75,31.93,31.49,31.52,104943
7-Oct-16,31.85,31.85,31.43,31.52,134382
6-Oct-16,31.50,31.99,31.32,31.86,126828
5-Oct-16,31.39,31.71,30.96,31.55,131020
4-Oct-16,31.57,31.66,30.92,31.25,180643
3-Oct-16,31.65,31.99,31.38,31.59,171445
30-Sep-16,31.48,31.78,31.30,31.64,164162
29-Sep-16,31.83,31.95,31.20,31.27,106479
28-Sep-16,31.34,31.79,31.27,31.78,201679
27-Sep-16,31.07,31.37,31.02,31.17,198460
26-Sep-16,31.25,31.45,31.01,31.14,151976
23-Sep-16,31.55,31.63,31.17,31.41,112419
22-Sep-16,31.13,31.76,31.13,31.71,161266
21-Sep-16,30.67,30.98,30.52,30.96,149111
20-Sep-16,30.77,30.83,30.50,30.50,95682
19-Sep-16,30.42,30.88,30.30,30.67,93449
16-Sep-16,30.53,30.58,30.22,30.28,286405
15-Sep-16,30.37,30.60,30.31,30.60,106008
14-Sep-16,30.45,30.48,30.19,30.32,122301
13-Sep-16,31.27,31.27,30.63,30.69,123147
12-Sep-16,31.39,31.61,31.24,31.42,166552
9-Sep-16,32.22,32.22,31.49,31.50,203101
8-Sep-16,32.07,32.45,32.01,32.30,224270
7-Sep-16,31.94,32.08,31.87,32.02,267453
6-Sep-16,32.12,32.13,31.85,31.87,199766
2-Sep-16,32.13,32.18,31.95,32.06,371179
1-Sep-16,32.20,32.20,31.71,31.90,262034
31-Aug-16,32.49,32.58,32.12,32.15,240746
30-Aug-16,32.65,32.68,32.41,32.47,102203
29-Aug-16,32.56,32.75,32.51,32.54,118372
26-Aug-16,33.01,33.12,32.46,32.58,107405
25-Aug-16,32.90,33.17,32.82,32.95,123034
24-Aug-16,33.01,33.14,32.82,32.90,126545
23-Aug-16,32.99,33.15,32.93,32.99,132642
22-Aug-16,32.68,33.00,32.57,32.89,123754
19-Aug-16,32.66,32.84,32.58,32.83,191343
18-Aug-16,32.54,32.81,32.35,32.81,276297
17-Aug-16,32.31,32.57,32.09,32.44,201453
16-Aug-16,31.86,32.30,31.77,32.24,332999
15-Aug-16,31.68,31.99,31.53,31.95,354705
12-Aug-16,31.49,31.91,31.41,31.54,223686
11-Aug-16,31.61,31.91,31.46,31.57,337124
10-Aug-16,31.51,31.71,31.43,31.46,201377
9-Aug-16,31.54,31.62,31.43,31.51,235333
8-Aug-16,31.24,31.64,31.24,31.44,233127
5-Aug-16,31.84,31.84,31.20,31.24,343567
4-Aug-16,32.30,33.16,31.36,31.75,959931
3-Aug-16,31.91,32.31,31.02,31.25,414630
2-Aug-16,32.26,32.30,31.89,31.97,153242
1-Aug-16,32.36,32.43,32.08,32.24,124249
29-Jul-16,32.57,32.64,32.18,32.35,107497
28-Jul-16,32.60,32.70,32.30,32.56,146879
27-Jul-16,32.36,32.71,32.29,32.63,206789
26-Jul-16,32.09,32.40,32.05,32.35,93988
25-Jul-16,32.18,32.29,31.91,32.02,80972
22-Jul-16,31.93,32.24,31.75,32.20,63832
21-Jul-16,32.15,32.22,31.74,31.93,112996
20-Jul-16,31.96,32.36,31.83,32.12,97402
19-Jul-16,31.91,31.99,31.73,31.89,85886
18-Jul-16,32.15,32.17,31.83,31.93,97129
15-Jul-16,32.09,32.17,31.81,32.10,120635
14-Jul-16,32.28,32.28,31.85,31.86,144082
13-Jul-16,32.25,32.28,31.82,32.02,171484
12-Jul-16,31.53,32.30,31.43,32.08,273590
11-Jul-16,31.30,31.49,31.11,31.40,191377
8-Jul-16,30.59,31.25,30.51,31.22,175812
7-Jul-16,30.00,30.30,29.98,30.28,161255
6-Jul-16,29.55,30.07,29.34,29.98,236230
5-Jul-16,29.85,29.85,29.35,29.65,115851
1-Jul-16,30.01,30.32,29.85,30.00,92598
30-Jun-16,29.22,30.05,29.15,30.04,247994
29-Jun-16,28.82,29.08,28.62,29.07,209590
28-Jun-16,28.86,28.91,28.39,28.51,245812
27-Jun-16,28.35,28.68,27.89,28.55,298772
24-Jun-16,30.08,30.24,28.53,28.60,795729
23-Jun-16,31.03,31.27,30.88,31.27,194629
22-Jun-16,30.91,31.07,30.70,30.71,108183
21-Jun-16,31.09,31.13,30.71,30.85,137893
20-Jun-16,30.92,31.25,30.92,31.03,133593
17-Jun-16,30.44,30.85,30.44,30.55,346581
16-Jun-16,30.36,30.51,30.04,30.37,177114
15-Jun-16,30.64,30.92,30.54,30.56,144472
14-Jun-16,30.22,30.64,30.22,30.58,175640
13-Jun-16,30.58,30.88,30.45,30.50,138641
10-Jun-16,30.83,30.84,30.44,30.76,151657
9-Jun-16,31.03,31.25,30.93,31.13,160685
8-Jun-16,31.23,31.26,30.99,31.23,201660
7-Jun-16,31.16,31.26,31.13,31.16,122865
6-Jun-16,31.18,31.30,31.03,31.22,188248
3-Jun-16,31.30,31.30,30.94,31.12,101352
2-Jun-16,31.23,31.27,30.99,31.26,101845
1-Jun-16,31.04,31.28,30.79,31.25,119548
31-May-16,31.25,31.30,31.02,31.22,153237
27-May-16,31.01,31.21,30.96,31.21,141238
26-May-16,31.13,31.22,31.02,31.07,72344
25-May-16,31.27,31.28,31.05,31.14,142592
24-May-16,30.47,31.28,30.08,31.24,187180
23-May-16,30.49,30.50,30.17,30.25,134713
20-May-16,30.20,30.70,30.16,30.58,288703
19-May-16,30.08,30.30,29.76,30.05,235488
18-May-16,30.12,30.53,29.93,30.27,184220
17-May-16,30.82,30.87,29.88,30.13,220145
16-May-16,30.57,31.03,30.54,30.84,128844
13-May-16,30.85,30.90,30.37,30.48,115953
12-May-16,30.85,31.20,30.66,30.83,199182
11-May-16,30.85,31.21,30.71,30.72,143443
10-May-16,30.35,30.88,30.27,30.84,129506
9-May-16,30.22,30.49,30.02,30.23,169393
6-May-16,29.83,30.33,29.74,30.33,240057
5-May-16,30.07,30.28,29.84,29.88,141381
4-May-16,29.93,30.32,29.93,30.09,212137
3-May-16,30.02,30.24,29.91,29.99,418078
2-May-16,30.32,30.44,30.23,30.27,261056
29-Apr-16,30.41,30.90,30.28,30.31,182653
28-Apr-16,30.44,30.97,30.44,30.51,831235
27-Apr-16,30.50,30.71,30.33,30.66,131734
26-Apr-16,30.45,30.52,30.21,30.48,140313
25-Apr-16,30.46,30.58,30.17,30.29,131535
22-Apr-16,30.17,30.50,30.08,30.46,155477
21-Apr-16,30.38,30.38,30.07,30.20,151171
20-Apr-16,30.46,30.67,30.12,30.42,130183
19-Apr-16,30.68,30.84,30.40,30.58,151945
18-Apr-16,30.29,30.63,30.09,30.58,163658
15-Apr-16,29.68,30.59,29.68,30.37,175309
14-Apr-16,29.83,29.96,29.49,29.83,173341
13-Apr-16,29.23,29.86,29.06,29.85,140728
12-Apr-16,28.56,29.21,28.44,29.05,106566
11-Apr-16,28.90,29.24,28.55,28.56,111255
8-Apr-16,28.85,29.14,28.70,28.82,100184
7-Apr-16,28.67,28.80,28.53,28.65,115687
6-Apr-16,28.98,29.06,28.64,28.79,145056
5-Apr-16,29.05,29.28,28.78,28.92,129824
4-Apr-16,29.72,29.74,29.21,29.25,138310
1-Apr-16,29.71,29.76,29.35,29.73,148724
31-Mar-16,29.56,30.09,29.56,29.95,235003
30-Mar-16,29.34,29.66,29.29,29.60,156582
29-Mar-16,28.46,29.23,28.46,29.22,175706
28-Mar-16,28.48,28.59,28.28,28.55,96307
24-Mar-16,28.19,28.43,28.08,28.43,215205
23-Mar-16,28.82,28.99,28.38,28.38,160742
22-Mar-16,28.86,29.05,28.58,28.83,141557
21-Mar-16,29.13,29.16,28.87,28.96,166549
18-Mar-16,29.46,29.54,29.06,29.12,402451
17-Mar-16,28.78,29.45,28.64,29.29,235373
16-Mar-16,28.76,29.00,28.52,28.73,143685
15-Mar-16,29.20,29.20,28.40,28.78,302108
14-Mar-16,29.20,29.30,28.97,29.24,242200
11-Mar-16,29.23,29.35,29.00,29.27,216879
10-Mar-16,29.16,29.16,28.89,29.01,253865
9-Mar-16,28.88,29.05,28.74,29.03,128167
8-Mar-16,28.97,29.06,28.77,28.84,189590
7-Mar-16,28.85,29.22,28.82,29.20,143271
4-Mar-16,28.63,29.05,28.48,28.92,170720
3-Mar-16,28.25,28.65,28.25,28.64,151980
2-Mar-16,28.14,28.24,27.94,28.24,149511
1-Mar-16,28.31,28.31,27.94,28.23,230828
29-Feb-16,28.12,28.51,27.97,28.12,277461
26-Feb-16,27.90,28.14,27.69,28.12,262186
25-Feb-16,27.22,27.79,27.21,27.77,239806
24-Feb-16,26.50,27.19,26.26,27.19,154995
23-Feb-16,27.18,27.24,26.73,26.76,153579
22-Feb-16,27.27,27.54,26.92,27.25,228674
19-Feb-16,27.00,27.00,26.61,26.94,208254
18-Feb-16,27.01,27.07,26.73,26.95,185813
17-Feb-16,26.89,27.29,26.76,26.99,273198
16-Feb-16,26.52,26.80,26.39,26.75,231940
12-Feb-16,25.58,26.37,25.48,26.30,300798
11-Feb-16,25.33,25.51,24.72,25.36,456949
10-Feb-16,25.81,26.21,25.67,25.81,301959
9-Feb-16,25.26,25.89,25.26,25.71,395348
8-Feb-16,24.40,25.59,24.40,25.55,400263
5-Feb-16,24.62,24.85,24.49,24.68,474625
4-Feb-16,24.84,24.96,24.47,24.65,372361
3-Feb-16,24.73,25.49,24.12,24.90,609784
2-Feb-16,26.38,26.69,25.89,26.00,184904
1-Feb-16,26.87,27.04,26.40,26.60,245250
29-Jan-16,26.36,27.09,26.20,27.08,455260
28-Jan-16,26.40,26.41,25.89,26.29,218701
27-Jan-16,26.39,26.60,25.97,26.15,275775
26-Jan-16,25.92,26.79,25.79,26.43,437203
25-Jan-16,26.16,26.16,25.64,25.73,215497
22-Jan-16,26.14,26.63,26.05,26.31,238302
21-Jan-16,26.30,26.45,25.75,25.88,292573
20-Jan-16,26.30,26.52,25.47,26.27,345902
19-Jan-16,26.84,26.84,26.31,26.58,284891
15-Jan-16,26.91,27.16,26.10,26.62,373432
14-Jan-16,27.55,27.99,27.39,27.65,257497
13-Jan-16,27.97,28.16,27.32,27.48,425086
12-Jan-16,28.28,28.50,27.65,27.92,337180
11-Jan-16,28.42,28.56,27.72,28.02,337927
8-Jan-16,28.61,28.73,28.23,28.34,402955
7-Jan-16,28.49,28.63,28.38,28.50,287565
6-Jan-16,28.56,28.89,28.56,28.78,281014
5-Jan-16,29.12,29.12,28.68,28.84,345280
4-Jan-16,29.01,29.28,28.81,28.97,403816
31-Dec-15,29.98,30.23,29.60,29.63,271247
30-Dec-15,30.01,30.32,29.87,30.06,221988
29-Dec-15,29.98,30.22,29.67,30.01,171555
28-Dec-15,29.68,29.81,29.49,29.75,234802
24-Dec-15,29.80,29.94,29.49,29.76,162104
23-Dec-15,29.36,29.90,29.12,29.81,233034
22-Dec-15,28.45,29.24,28.32,29.20,265735
21-Dec-15,28.25,28.40,28.04,28.28,258554
18-Dec-15,28.31,28.65,27.93,28.06,1006496
17-Dec-15,29.06,29.06,28.38,28.51,293130
16-Dec-15,29.35,29.35,28.55,29.00,286659
15-Dec-15,29.61,29.65,28.91,29.09,468302
14-Dec-15,28.92,29.32,28.77,29.30,340029
11-Dec-15,29.07,29.22,28.85,28.93,210179
10-Dec-15,29.40,29.67,29.34,29.43,174510
9-Dec-15,29.45,29.96,29.28,29.40,263247
8-Dec-15,29.74,30.04,29.43,29.48,311906
7-Dec-15,30.44,30.63,29.96,30.04,312014
4-Dec-15,30.39,30.75,30.29,30.44,190331
3-Dec-15,30.96,31.02,30.26,30.40,172147
2-Dec-15,31.28,31.49,30.72,30.83,154169
1-Dec-15,30.41,31.41,30.26,31.27,414525
30-Nov-15,30.87,30.95,30.26,30.29,253092
27-Nov-15,30.58,30.94,30.47,30.86,72125
25-Nov-15,30.52,31.01,30.49,30.61,161637
24-Nov-15,29.70,30.70,29.70,30.47,442972
23-Nov-15,30.16,30.22,29.73,29.80,386784
20-Nov-15,29.79,30.44,29.58,30.20,395827
19-Nov-15,29.00,29.97,28.05,29.67,574511
18-Nov-15,30.14,30.71,29.90,30.63,264793
17-Nov-15,30.18,30.40,29.90,30.00,324997
16-Nov-15,29.95,30.40,29.75,30.15,266474
13-Nov-15,29.81,30.30,29.34,29.95,145310
12-Nov-15,30.10,30.50,29.94,29.97,211843
11-Nov-15,30.61,30.87,30.34,30.48,242972
10-Nov-15,30.37,30.63,30.24,30.56,228086
9-Nov-15,31.28,31.43,30.41,30.52,159613
6-Nov-15,30.78,31.38,30.61,31.36,184860
5-Nov-15,30.50,31.17,30.34,30.93,196473
4-Nov-15,30.69,30.87,30.33,30.50,174606
3-Nov-15,30.53,30.70,30.34,30.50,214493
2-Nov-15,29.65,30.84,29.52,30.65,367564
30-Oct-15,29.87,30.02,29.50,29.67,212828
29-Oct-15,29.57,30.09,29.57,29.87,199983
28-Oct-15,28.30,29.77,28.16,29.75,312538
27-Oct-15,28.42,28.50,27.95,28.12,183964
26-Oct-15,28.74,28.74,27.99,28.59,281691
23-Oct-15,29.08,29.33,28.55,28.80,227638
22-Oct-15,28.28,28.90,28.23,28.74,161641
21-Oct-15,28.31,28.44,28.05,28.17,133113
20-Oct-15,28.12,28.47,27.99,28.21,147674
19-Oct-15,27.91,28.18,27.88,28.12,159083
16-Oct-15,28.19,28.19,27.57,27.99,184983
15-Oct-15,27.90,28.30,27.51,28.12,233282
14-Oct-15,28.25,28.25,27.75,27.86,452443
13-Oct-15,28.48,28.87,28.18,28.20,161103
12-Oct-15,28.80,28.90,28.56,28.65,101412
9-Oct-15,28.51,28.98,28.39,28.76,282712
8-Oct-15,27.62,28.42,27.53,28.36,214348
7-Oct-15,27.18,27.88,27.17,27.71,328243
6-Oct-15,27.41,27.63,26.86,27.10,303694
5-Oct-15,26.53,27.49,26.32,27.43,266973
2-Oct-15,25.70,26.34,25.40,26.32,131732
1-Oct-15,25.99,26.00,25.61,25.82,386460
30-Sep-15,25.77,26.17,25.50,26.01,512801
29-Sep-15,25.31,25.68,25.15,25.58,422523
28-Sep-15,25.34,26.00,25.26,25.32,205842
25-Sep-15,25.60,25.64,25.25,25.44,356678
24-Sep-15,25.32,25.98,25.16,25.44,301032
23-Sep-15,26.01,26.01,25.46,25.48,232591
22-Sep-15,26.10,26.77,25.85,25.91,216743
21-Sep-15,26.39,26.67,26.25,26.26,223308
18-Sep-15,26.19,26.40,25.99,26.27,738527
17-Sep-15,26.50,26.68,26.16,26.41,301281
16-Sep-15,25.96,26.53,25.88,26.50,212493
15-Sep-15,25.38,25.91,25.28,25.85,181908
14-Sep-15,25.54,25.54,25.25,25.28,177855
11-Sep-15,25.52,25.72,24.92,25.72,261132
10-Sep-15,25.83,25.90,25.57,25.60,180850
9-Sep-15,26.11,26.18,25.80,25.82,405440
8-Sep-15,26.32,26.32,25.62,25.88,588797
4-Sep-15,25.85,26.19,25.85,26.02,124023
3-Sep-15,26.20,26.37,25.99,26.22,144216
2-Sep-15,26.58,26.58,26.05,26.20,198328
1-Sep-15,26.56,26.64,26.16,26.18,327091
31-Aug-15,26.71,27.05,26.54,26.96,243574
28-Aug-15,26.68,27.01,26.53,26.89,126506
27-Aug-15,26.56,26.78,26.16,26.74,281426
26-Aug-15,26.06,26.34,25.55,26.29,158902
25-Aug-15,26.92,26.92,25.63,25.67,187687
24-Aug-15,26.40,27.24,26.01,26.14,355132
21-Aug-15,27.78,28.31,26.65,27.81,330160
20-Aug-15,28.83,28.94,28.24,28.25,166417
19-Aug-15,29.23,29.25,28.76,28.98,143699
18-Aug-15,29.87,29.87,29.26,29.33,126648
17-Aug-15,29.48,29.97,29.19,29.87,197623
14-Aug-15,29.59,29.72,29.33,29.48,149975
13-Aug-15,29.79,30.01,29.51,29.55,138546
12-Aug-15,30.01,30.10,29.51,29.76,162335
11-Aug-15,30.10,30.30,30.00,30.18,186908
10-Aug-15,30.06,30.34,30.02,30.30,320806
7-Aug-15,29.25,30.05,29.19,29.87,272251
6-Aug-15,31.50,31.50,28.00,29.44,452272
5-Aug-15,27.96,28.47,27.95,28.25,303519
4-Aug-15,28.03,28.13,27.65,27.85,152436
3-Aug-15,28.36,28.49,27.83,28.00,269297
31-Jul-15,28.06,28.50,28.01,28.36,201387
30-Jul-15,27.92,28.18,27.66,27.98,297274
29-Jul-15,27.82,28.21,27.62,28.09,154141
28-Jul-15,27.69,27.91,27.30,27.89,257282
27-Jul-15,27.45,27.68,27.32,27.63,190719
24-Jul-15,27.65,27.76,27.30,27.70,204979
23-Jul-15,28.12,28.46,27.74,27.77,128514
22-Jul-15,28.36,28.53,28.07,28.15,99944
21-Jul-15,28.36,28.72,28.22,28.50,327929
20-Jul-15,28.68,28.88,28.34,28.41,194490
17-Jul-15,28.91,29.02,28.56,28.71,94414
16-Jul-15,28.90,29.33,28.90,29.00,161098
15-Jul-15,28.97,28.97,28.55,28.79,296065
14-Jul-15,29.05,29.13,28.89,28.91,192785
13-Jul-15,29.22,29.40,29.05,29.10,179557
10-Jul-15,29.10,29.34,28.95,29.09,192106
9-Jul-15,29.27,29.34,28.79,28.81,211905
8-Jul-15,29.27,29.34,28.68,28.94,217514
7-Jul-15,29.66,29.72,28.97,29.57,156665
6-Jul-15,29.94,30.04,29.50,29.58,287714
2-Jul-15,30.63,30.67,29.97,30.22,161136
1-Jul-15,30.89,30.91,30.34,30.53,330977
30-Jun-15,30.84,30.99,30.40,30.70,168205
29-Jun-15,31.35,31.47,30.46,30.50,230649
26-Jun-15,31.53,31.56,31.16,31.47,352072
25-Jun-15,31.88,31.88,31.20,31.50,142916
24-Jun-15,31.83,31.99,31.60,31.84,136108
23-Jun-15,31.75,32.00,31.63,31.93,163233
22-Jun-15,31.90,31.97,31.65,31.76,171522
19-Jun-15,31.91,31.91,31.53,31.68,345303
18-Jun-15,31.60,31.96,31.38,31.81,176444
17-Jun-15,31.57,31.79,31.40,31.46,137156
16-Jun-15,31.04,31.55,31.04,31.45,156395
15-Jun-15,30.99,31.21,30.53,31.15,192922
12-Jun-15,30.94,31.34,30.94,31.23,150064
11-Jun-15,31.57,31.58,31.32,31.49,140546
10-Jun-15,31.32,31.78,31.25,31.58,220295
9-Jun-15,31.24,31.42,31.02,31.13,164522
8-Jun-15,31.34,31.53,30.97,31.25,271859
5-Jun-15,31.23,31.46,30.71,31.44,147536
4-Jun-15,31.51,31.65,31.09,31.23,192032
3-Jun-15,31.25,31.76,31.11,31.64,187566
2-Jun-15,30.48,31.35,30.44,31.24,198708
1-Jun-15,30.88,30.88,30.30,30.62,348985
29-May-15,31.23,31.28,30.62,30.72,246276
28-May-15,31.32,31.40,30.99,31.33,161978
27-May-15,31.23,31.57,31.04,31.42,180502
26-May-15,31.80,31.81,31.20,31.22,246166
22-May-15,32.31,32.40,31.86,31.96,203226
21-May-15,32.06,32.67,31.86,32.33,280579
20-May-15,31.93,32.20,31.64,32.01,258517
19-May-15,31.98,32.15,31.58,31.90,308040
18-May-15,31.47,32.24,31.19,32.05,286574
15-May-15,32.14,32.16,31.17,31.59,412760
14-May-15,31.71,32.50,31.36,32.24,313496
13-May-15,32.01,32.01,31.20,31.69,495136
12-May-15,31.81,32.67,30.02,31.97,1213823
11-May-15,28.90,29.19,28.82,29.00,605546
8-May-15,29.28,29.36,28.65,28.92,420753
7-May-15,29.19,29.25,28.90,29.03,162355
6-May-15,29.04,29.36,28.80,29.11,275880
5-May-15,28.74,29.08,28.52,28.90,360822
4-May-15,29.04,29.39,28.75,28.79,357349
1-May-15,29.46,29.83,29.03,29.04,340615
30-Apr-15,30.00,30.10,29.26,29.39,236527
29-Apr-15,30.44,30.44,29.95,30.14,133021
28-Apr-15,30.25,30.58,30.12,30.52,201215
27-Apr-15,30.17,30.56,29.88,30.20,165978
24-Apr-15,30.78,30.78,29.94,30.13,394425
23-Apr-15,30.35,30.72,30.30,30.62,351765
22-Apr-15,30.39,30.55,30.20,30.45,231625
21-Apr-15,30.46,30.46,30.15,30.33,270622
20-Apr-15,30.31,30.59,30.11,30.32,311648
17-Apr-15,30.35,30.51,29.98,30.10,371023
16-Apr-15,30.69,30.75,30.50,30.61,185694
15-Apr-15,30.79,30.91,30.67,30.75,405901
14-Apr-15,30.86,31.09,30.56,30.63,306636
13-Apr-15,30.73,30.95,30.58,30.83,184873
10-Apr-15,30.68,30.76,30.54,30.68,163295
9-Apr-15,30.62,30.90,30.22,30.50,89828
8-Apr-15,30.46,30.71,30.37,30.57,192489
7-Apr-15,30.87,30.87,30.44,30.50,196845
6-Apr-15,30.67,31.01,30.67,30.88,216859
2-Apr-15,31.05,31.36,30.69,30.82,244792
1-Apr-15,30.75,31.12,30.55,31.06,174248
31-Mar-15,30.96,30.97,30.47,30.87,343873
30-Mar-15,30.11,31.12,30.11,30.96,225183
27-Mar-15,30.11,30.22,29.87,29.98,178889
26-Mar-15,30.36,30.39,30.04,30.10,135217
25-Mar-15,31.00,31.04,30.37,30.37,194432
24-Mar-15,30.62,31.01,30.55,30.92,195000
23-Mar-15,30.51,30.88,30.26,30.72,173896
20-Mar-15,30.13,30.63,29.79,30.53,342900
19-Mar-15,29.84,29.95,29.50,29.94,157314
18-Mar-15,29.77,29.88,29.19,29.85,229471
17-Mar-15,29.36,29.87,29.35,29.74,333781
16-Mar-15,30.00,30.16,29.42,29.53,310833
13-Mar-15,30.44,30.53,29.57,29.89,292652
12-Mar-15,30.07,30.70,30.01,30.62,296131
11-Mar-15,30.38,30.43,29.75,29.90,329826
10-Mar-15,30.50,30.61,30.27,30.35,113796
9-Mar-15,30.55,31.01,30.55,30.82,207054
6-Mar-15,30.95,31.20,30.45,30.52,133286
5-Mar-15,31.16,31.29,30.76,31.25,103034
4-Mar-15,31.71,31.72,31.09,31.17,161264
3-Mar-15,32.17,32.33,31.71,31.88,309305
2-Mar-15,31.78,32.45,31.70,32.33,208855
27-Feb-15,31.46,31.82,31.25,31.70,283019
26-Feb-15,31.33,31.77,31.24,31.48,135079
25-Feb-15,31.08,31.50,30.92,31.26,100907
24-Feb-15,31.10,31.28,30.89,31.06,196576
23-Feb-15,31.12,31.13,30.71,31.12,172528
20-Feb-15,31.10,31.24,30.52,31.14,162393
19-Feb-15,31.22,31.50,31.03,31.10,133939
18-Feb-15,30.88,31.33,30.88,31.30,178003
17-Feb-15,30.33,31.03,30.31,30.99,187380
13-Feb-15,30.25,30.45,30.16,30.28,197655
12-Feb-15,30.56,30.70,30.13,30.27,389603
11-Feb-15,30.28,30.48,30.00,30.38,314147
10-Feb-15,31.19,31.19,30.12,30.37,308942
9-Feb-15,31.48,31.76,30.84,30.93,222504
6-Feb-15,30.66,31.50,30.29,31.49,459420
5-Feb-15,34.07,34.37,29.62,30.63,1219697
4-Feb-15,32.64,32.80,32.30,32.50,208162
3-Feb-15,32.30,32.77,32.13,32.72,259620
2-Feb-15,31.50,32.22,31.19,32.11,184431
30-Jan-15,32.06,32.38,31.31,31.41,273306
29-Jan-15,32.00,32.42,31.78,32.31,311055
28-Jan-15,32.46,32.46,31.87,31.96,168964
27-Jan-15,32.00,32.39,31.79,32.27,138002
26-Jan-15,32.06,32.44,31.67,32.34,279854
23-Jan-15,31.81,32.15,31.80,32.04,292793
22-Jan-15,31.88,31.99,31.45,31.82,343589
21-Jan-15,31.44,31.87,31.36,31.61,221383
20-Jan-15,32.54,32.72,31.52,31.61,355686
16-Jan-15,31.62,32.42,31.37,32.37,458546
15-Jan-15,33.00,33.00,31.77,31.81,387912
14-Jan-15,32.69,33.10,32.55,32.94,179719
13-Jan-15,33.44,34.14,32.92,33.16,286298
12-Jan-15,33.22,33.25,32.65,33.07,170410
9-Jan-15,33.68,33.81,33.28,33.31,169175
8-Jan-15,33.54,34.09,33.38,33.70,159864
7-Jan-15,33.27,33.36,32.81,33.15,202474
6-Jan-15,33.59,33.92,32.53,32.99,362390
5-Jan-15,33.70,33.93,33.56,33.67,423608
2-Jan-15,34.56,34.95,33.65,34.01,399322
31-Dec-14,34.81,34.99,34.49,34.50,194973
30-Dec-14,34.69,34.91,34.63,34.64,102362
29-Dec-14,34.65,34.88,34.56,34.71,132401
26-Dec-14,34.25,34.72,34.25,34.63,129794
24-Dec-14,34.02,34.21,33.64,34.20,63922
23-Dec-14,33.88,34.20,33.77,34.01,123840
22-Dec-14,33.20,33.73,33.00,33.71,158849
19-Dec-14,33.23,33.28,32.67,33.14,828251
18-Dec-14,33.39,33.43,32.70,33.11,242908
17-Dec-14,31.66,32.95,31.53,32.93,330268
16-Dec-14,31.24,32.03,31.07,31.69,231817
15-Dec-14,31.82,31.89,30.96,31.28,190457
12-Dec-14,32.10,32.33,31.88,31.91,211698
11-Dec-14,32.61,33.19,32.46,32.59,167331
10-Dec-14,32.87,33.00,32.25,32.38,217506
9-Dec-14,31.65,33.09,31.55,33.06,197949
8-Dec-14,32.73,33.10,32.01,32.09,139051
5-Dec-14,32.70,33.17,32.70,32.93,205843
4-Dec-14,32.36,32.71,32.26,32.66,245714
3-Dec-14,32.28,33.08,32.23,32.43,305810
2-Dec-14,31.52,32.20,31.48,32.14,255329
1-Dec-14,32.14,32.14,31.44,31.48,272259
28-Nov-14,33.00,33.00,32.13,32.16,173148
26-Nov-14,33.10,33.44,32.91,32.94,255283
25-Nov-14,33.25,33.47,33.10,33.20,213542
24-Nov-14,33.51,33.78,33.08,33.25,455385
21-Nov-14,34.91,34.91,33.53,33.61,455368
20-Nov-14,32.00,34.62,31.51,34.36,427395
19-Nov-14,33.73,33.90,32.84,32.98,513403
18-Nov-14,34.00,34.34,33.79,33.83,255933
17-Nov-14,34.06,34.41,33.75,34.07,282322
14-Nov-14,34.07,34.57,34.00,34.17,98997
13-Nov-14,34.45,34.60,34.07,34.09,98126
12-Nov-14,34.52,34.78,34.27,34.50,169780
11-Nov-14,34.42,34.71,34.41,34.65,206388
10-Nov-14,33.98,34.56,33.98,34.42,197292
7-Nov-14,33.94,34.00,33.76,33.98,153614
6-Nov-14,33.18,33.91,33.18,33.86,195593
5-Nov-14,33.30,33.40,33.05,33.25,163688
4-Nov-14,33.10,33.32,32.92,33.07,244616
3-Nov-14,33.29,33.49,32.96,33.25,262535
31-Oct-14,33.47,33.59,32.96,33.29,345539
30-Oct-14,32.70,32.95,32.53,32.85,270105
29-Oct-14,33.99,34.00,32.67,32.87,364565
28-Oct-14,32.54,34.00,32.54,33.99,317359
27-Oct-14,32.28,32.51,31.87,32.44,108979
24-Oct-14,32.40,32.43,32.02,32.40,107862
23-Oct-14,31.96,32.49,31.82,32.31,163122
22-Oct-14,31.84,32.35,31.50,31.56,168428
21-Oct-14,31.49,32.06,31.35,31.76,159330
20-Oct-14,30.93,31.28,30.73,31.28,176547
17-Oct-14,31.42,31.50,30.85,31.09,257277
16-Oct-14,30.43,31.38,30.43,31.03,270602
15-Oct-14,29.68,31.06,29.41,30.92,318758
14-Oct-14,29.91,30.73,29.81,30.22,260993
13-Oct-14,29.28,30.14,29.18,29.62,302333
10-Oct-14,29.28,29.98,29.11,29.28,235771
9-Oct-14,30.37,30.41,29.43,29.46,313269
8-Oct-14,29.62,30.42,29.23,30.38,287511
7-Oct-14,30.18,30.24,29.66,29.66,199568
6-Oct-14,30.82,30.92,30.43,30.43,101447
3-Oct-14,31.10,31.17,30.76,30.79,106292
2-Oct-14,30.43,30.84,30.17,30.73,167256
1-Oct-14,30.91,31.06,30.37,30.44,205324
30-Sep-14,31.40,31.49,30.84,30.89,259119
29-Sep-14,31.49,31.53,31.09,31.34,183160
26-Sep-14,32.03,32.14,31.62,31.78,147643
25-Sep-14,32.60,32.60,31.85,32.05,391210
24-Sep-14,32.15,32.71,32.08,32.59,187875
23-Sep-14,32.07,32.34,31.92,32.00,244541
22-Sep-14,32.43,32.52,31.95,32.00,144193
19-Sep-14,33.15,33.38,32.46,32.60,390890
18-Sep-14,32.92,33.54,32.92,33.10,301976
17-Sep-14,32.39,33.12,32.20,32.89,241866
16-Sep-14,32.11,32.39,32.01,32.35,235766
15-Sep-14,32.31,32.34,31.95,32.22,193996
12-Sep-14,32.67,32.74,32.28,32.34,337281
11-Sep-14,32.22,32.95,32.13,32.93,248161
10-Sep-14,32.46,32.54,32.18,32.36,114727
9-Sep-14,32.60,32.74,32.28,32.41,148790
8-Sep-14,32.57,32.82,32.46,32.60,166506
5-Sep-14,32.72,32.91,32.10,32.69,202294
4-Sep-14,33.25,33.50,32.81,32.87,143897
3-Sep-14,33.36,33.64,33.06,33.21,284259
2-Sep-14,33.42,33.51,32.98,33.28,258804
29-Aug-14,33.46,33.73,33.22,33.44,121080
28-Aug-14,33.46,33.55,33.25,33.36,101105
27-Aug-14,33.81,33.81,33.43,33.56,75838
26-Aug-14,33.57,33.79,33.51,33.68,141758
25-Aug-14,33.36,33.59,33.01,33.52,183863
22-Aug-14,32.94,33.24,32.79,33.14,142171
21-Aug-14,32.61,32.99,32.14,32.98,112799
20-Aug-14,32.74,32.86,32.34,32.58,131983
19-Aug-14,32.83,32.95,32.62,32.92,122019
18-Aug-14,32.39,32.95,32.32,32.81,201821
15-Aug-14,32.23,32.29,31.64,31.99,251608
14-Aug-14,31.85,31.99,31.65,31.91,120736
13-Aug-14,31.32,32.00,31.32,31.82,154565
12-Aug-14,31.29,31.44,30.93,31.18,120728
11-Aug-14,31.24,32.08,31.20,31.32,288511
8-Aug-14,30.18,31.18,30.18,31.06,187271
7-Aug-14,29.49,30.61,28.92,30.15,197133
6-Aug-14,29.52,29.98,29.50,29.76,185410
5-Aug-14,29.65,30.05,29.59,29.74,157558
4-Aug-14,29.60,29.80,28.95,29.76,406599
1-Aug-14,30.05,30.08,29.36,29.43,341700
31-Jul-14,30.25,30.72,29.78,30.05,244550
30-Jul-14,30.61,30.72,30.31,30.67,122969
29-Jul-14,30.45,30.71,30.25,30.41,135498
28-Jul-14,30.92,30.98,30.32,30.46,168226
25-Jul-14,30.92,31.12,30.72,30.86,180781
24-Jul-14,31.68,31.68,31.10,31.22,216045
23-Jul-14,31.78,31.78,31.37,31.46,102038
22-Jul-14,31.50,31.94,31.50,31.81,221381
21-Jul-14,31.25,31.44,30.94,31.34,99783
18-Jul-14,30.73,31.41,30.73,31.39,124217
17-Jul-14,31.24,31.43,30.79,30.84,126685
16-Jul-14,31.45,31.66,31.14,31.44,136022
15-Jul-14,31.74,31.96,31.31,31.43,156108
14-Jul-14,31.92,31.96,31.62,31.82,128285
11-Jul-14,31.83,31.89,31.42,31.56,87821
10-Jul-14,31.67,32.09,31.43,31.85,125248
9-Jul-14,32.35,32.42,32.14,32.30,127241
8-Jul-14,32.39,32.45,31.91,32.26,224325
7-Jul-14,32.80,32.99,32.40,32.46,185399
3-Jul-14,32.76,32.97,32.66,32.96,105952
2-Jul-14,32.91,32.98,32.55,32.65,157915
1-Jul-14,32.63,33.28,32.63,33.02,298846
30-Jun-14,32.21,32.65,31.91,32.62,574954
27-Jun-14,31.96,32.85,31.93,32.38,930876
26-Jun-14,32.32,32.32,31.90,32.20,115991
25-Jun-14,31.97,32.42,31.86,32.32,206773
24-Jun-14,32.00,32.50,31.68,32.16,329900
23-Jun-14,32.22,32.32,31.95,32.05,287303
20-Jun-14,31.75,32.16,31.61,32.12,440515
19-Jun-14,31.63,31.71,31.46,31.69,142979
18-Jun-14,31.70,31.70,31.17,31.58,136214
17-Jun-14,31.35,31.80,31.22,31.69,246222
16-Jun-14,31.02,31.31,30.83,31.28,145547
13-Jun-14,31.27,31.39,31.03,31.12,155688
12-Jun-14,31.33,31.62,30.96,31.27,164417
11-Jun-14,31.47,31.68,31.47,31.66,168534
10-Jun-14,31.32,31.69,31.32,31.63,171040
9-Jun-14,31.15,31.50,31.01,31.44,193053
6-Jun-14,30.92,31.37,30.69,31.13,221372
5-Jun-14,30.12,30.80,29.95,30.80,169684
4-Jun-14,29.65,30.18,29.52,30.11,124553
3-Jun-14,29.78,29.87,29.28,29.82,233280
2-Jun-14,30.26,30.26,29.74,29.92,99170
30-May-14,30.37,30.40,30.10,30.29,174999
29-May-14,30.25,30.38,30.04,30.31,243293
28-May-14,30.06,30.40,30.00,30.21,218366
27-May-14,29.84,30.25,29.66,30.11,166020
23-May-14,29.51,29.71,29.30,29.71,138505
22-May-14,29.28,29.58,29.21,29.46,110115
21-May-14,29.25,29.43,28.91,29.30,130044
20-May-14,29.79,29.81,28.99,29.15,260508
19-May-14,29.34,29.92,29.19,29.92,163454
16-May-14,29.07,29.43,28.92,29.41,205986
15-May-14,29.38,29.47,28.94,29.24,244892
14-May-14,30.17,30.20,29.56,29.65,383177
13-May-14,30.85,31.14,30.23,30.38,733559
12-May-14,30.25,31.03,30.16,30.91,289335
9-May-14,29.62,30.07,29.62,30.03,148140
8-May-14,29.90,30.12,29.61,29.77,272490
7-May-14,29.87,29.93,29.19,29.86,366249
6-May-14,29.99,30.23,29.74,29.78,266154
5-May-14,30.23,30.47,29.93,30.08,262627
2-May-14,30.30,30.62,30.19,30.39,141588
1-May-14,30.30,30.36,29.90,30.19,214888
30-Apr-14,30.00,30.45,29.78,30.40,189463
29-Apr-14,30.22,30.46,30.11,30.14,128022
28-Apr-14,30.45,30.49,29.66,30.03,209203
25-Apr-14,30.87,30.87,30.19,30.38,167316
24-Apr-14,31.21,31.27,30.80,30.97,124354
23-Apr-14,31.39,31.39,30.89,31.01,142631
22-Apr-14,31.36,31.48,31.19,31.37,130128
21-Apr-14,31.34,31.44,31.08,31.24,130584
17-Apr-14,30.86,31.47,30.82,31.33,211037
16-Apr-14,30.68,30.93,30.54,30.91,238816
15-Apr-14,30.64,30.72,29.84,30.48,197099
14-Apr-14,31.04,31.23,30.35,30.58,161393
11-Apr-14,30.47,30.90,30.35,30.75,341125
10-Apr-14,31.48,31.50,30.71,30.82,217635
9-Apr-14,31.57,31.73,31.34,31.56,213404
8-Apr-14,31.51,31.77,31.17,31.54,246956
7-Apr-14,32.20,32.48,31.37,31.51,208534
4-Apr-14,32.94,32.94,32.26,32.26,325899
3-Apr-14,32.67,32.86,32.45,32.72,285603
2-Apr-14,32.49,32.69,32.25,32.66,264365
1-Apr-14,32.41,32.83,32.23,32.41,284945
31-Mar-14,31.99,32.51,31.85,32.33,220064
28-Mar-14,31.67,32.35,31.67,31.80,172111
27-Mar-14,31.67,31.88,31.52,31.66,226816
26-Mar-14,32.15,32.35,31.74,31.75,212073
25-Mar-14,32.32,32.47,31.93,32.03,166943
24-Mar-14,32.40,32.60,31.80,32.12,194813
21-Mar-14,32.40,32.83,32.20,32.43,408833
20-Mar-14,31.87,32.38,31.78,32.33,228975
19-Mar-14,32.27,32.39,31.71,31.86,293852
18-Mar-14,31.79,32.48,31.63,32.32,437292
17-Mar-14,31.63,31.94,31.47,31.89,222118
14-Mar-14,31.07,31.59,31.07,31.43,222682
13-Mar-14,31.33,31.49,31.08,31.16,257951
12-Mar-14,31.00,31.50,30.98,31.47,200428
11-Mar-14,31.70,31.74,31.19,31.24,209630
10-Mar-14,31.50,31.79,31.34,31.70,232234
7-Mar-14,31.44,31.62,31.30,31.55,218114
6-Mar-14,31.15,31.61,30.94,31.35,278922
5-Mar-14,30.94,31.15,30.75,31.12,226733
4-Mar-14,30.47,31.44,30.42,30.91,426019
3-Mar-14,29.65,30.26,29.60,30.08,304017
28-Feb-14,29.89,30.23,29.80,29.88,174278
27-Feb-14,29.81,29.93,29.42,29.81,280745
26-Feb-14,29.46,30.34,29.42,29.94,231981
25-Feb-14,29.51,29.70,29.33,29.42,124550
24-Feb-14,29.42,29.71,29.26,29.49,220761
21-Feb-14,29.41,29.48,29.27,29.43,183186
20-Feb-14,29.24,29.42,29.10,29.29,145613
19-Feb-14,29.37,29.63,29.26,29.29,232366
18-Feb-14,29.68,29.81,29.37,29.55,169856
14-Feb-14,29.63,29.91,29.32,29.70,297072
13-Feb-14,28.35,29.65,28.35,29.63,418296
12-Feb-14,28.00,28.63,28.00,28.52,424421
11-Feb-14,27.65,28.08,27.58,27.97,219350
10-Feb-14,27.93,27.94,27.35,27.55,339556
7-Feb-14,27.67,27.99,27.48,27.90,219747
6-Feb-14,28.21,28.38,27.58,27.63,286660
5-Feb-14,26.09,29.03,26.00,28.04,955755
4-Feb-14,26.26,26.43,26.02,26.13,244931
3-Feb-14,27.05,27.14,26.19,26.20,329391
31-Jan-14,26.74,27.23,26.54,27.07,217827
30-Jan-14,27.24,27.31,26.96,27.18,153990
29-Jan-14,27.06,27.34,26.94,27.01,165109
28-Jan-14,27.27,27.38,26.94,27.34,229194
27-Jan-14,27.67,27.78,27.11,27.27,180707
24-Jan-14,28.47,28.55,27.56,27.68,203847
23-Jan-14,28.69,28.73,28.44,28.70,242814
22-Jan-14,28.75,28.81,28.64,28.71,103626
21-Jan-14,29.04,29.04,28.73,28.78,159497
17-Jan-14,28.55,29.02,28.50,28.89,240080
16-Jan-14,28.55,28.74,28.47,28.67,275131
15-Jan-14,28.50,28.95,28.46,28.67,419790
14-Jan-14,28.50,28.54,28.24,28.50,191863
13-Jan-14,28.52,28.68,28.26,28.41,330921
10-Jan-14,28.73,28.78,28.43,28.67,249272
9-Jan-14,28.90,28.95,28.72,28.82,268277
8-Jan-14,28.86,28.92,28.49,28.85,241965
7-Jan-14,28.95,29.02,28.81,28.95,102754
6-Jan-14,29.03,29.03,28.69,28.80,214957
3-Jan-14,28.82,29.02,28.51,28.92,139000
2-Jan-14,29.26,29.26,28.42,28.85,260913
31-Dec-13,29.45,29.51,29.30,29.42,230111
30-Dec-13,29.30,29.40,29.17,29.36,139413
27-Dec-13,29.25,29.32,28.99,29.29,216513
26-Dec-13,29.00,29.20,28.84,29.14,259731
24-Dec-13,28.26,28.96,28.26,28.95,130734
23-Dec-13,28.71,28.79,27.99,28.15,460282
20-Dec-13,28.93,28.93,28.33,28.53,817834
19-Dec-13,28.59,28.87,28.43,28.83,634972
18-Dec-13,28.56,28.67,28.19,28.54,312071
17-Dec-13,28.49,28.54,28.32,28.47,161213
16-Dec-13,28.10,28.64,27.97,28.53,188883
13-Dec-13,27.87,28.19,27.80,27.92,241206
12-Dec-13,28.17,28.36,27.81,28.22,217778
11-Dec-13,28.67,28.67,28.05,28.14,165710
10-Dec-13,28.65,28.71,28.39,28.57,232572
9-Dec-13,28.50,28.77,28.50,28.76,153689
6-Dec-13,28.51,28.68,28.46,28.52,122183
5-Dec-13,28.34,28.62,28.27,28.33,242231
4-Dec-13,28.00,28.66,27.92,28.25,369721
3-Dec-13,28.23,28.31,28.00,28.04,711258
2-Dec-13,28.07,28.66,27.91,28.33,471122
29-Nov-13,29.37,29.37,27.88,28.10,433104
27-Nov-13,29.14,29.95,28.94,29.40,611966
26-Nov-13,28.08,29.13,26.81,29.00,669923
25-Nov-13,28.37,28.74,28.29,28.50,248873
22-Nov-13,27.97,28.27,27.75,28.24,157243
21-Nov-13,27.64,27.98,27.64,27.90,232511
20-Nov-13,28.16,28.25,27.47,27.62,242202
19-Nov-13,28.28,28.38,27.85,28.03,204502
18-Nov-13,28.84,28.91,28.26,28.34,209657
15-Nov-13,28.91,28.99,28.73,28.85,188633
14-Nov-13,28.83,29.00,28.70,28.92,124835
13-Nov-13,28.35,28.88,28.35,28.81,325790
12-Nov-13,28.10,28.49,28.08,28.46,267212
11-Nov-13,28.26,28.39,28.08,28.11,191844
8-Nov-13,27.87,28.32,27.87,28.26,257712
7-Nov-13,28.40,28.45,27.89,27.91,472883
6-Nov-13,28.58,28.58,28.20,28.35,142028
5-Nov-13,28.31,28.48,28.22,28.38,270293
4-Nov-13,28.30,28.38,28.17,28.35,461555
1-Nov-13,28.19,28.45,28.01,28.14,352525
31-Oct-13,28.47,28.51,28.17,28.22,336112
30-Oct-13,28.82,28.91,28.41,28.47,197104
29-Oct-13,28.96,29.06,28.61,28.80,216118
28-Oct-13,28.95,28.95,28.73,28.85,262777
25-Oct-13,28.83,28.98,28.76,28.88,217818
24-Oct-13,28.94,29.03,28.64,28.71,332484
23-Oct-13,29.30,29.38,28.90,28.94,278266
22-Oct-13,29.53,29.67,29.34,29.40,412670
21-Oct-13,29.34,29.54,29.25,29.47,410838
18-Oct-13,29.27,29.37,28.90,29.37,348771
17-Oct-13,28.84,29.16,28.76,29.06,442945
16-Oct-13,29.24,29.34,28.77,28.91,450199
15-Oct-13,29.15,29.43,28.99,29.11,543527
14-Oct-13,28.67,29.40,28.55,29.29,864724
11-Oct-13,27.86,28.88,27.80,28.72,505078
10-Oct-13,27.31,28.06,27.23,27.85,616955
9-Oct-13,27.58,27.58,27.01,27.04,419449
8-Oct-13,27.68,27.82,27.46,27.46,370828
7-Oct-13,27.88,28.02,27.64,27.73,573787
4-Oct-13,27.92,28.20,27.92,28.02,589178
3-Oct-13,27.89,27.98,27.76,27.90,331672
2-Oct-13,27.80,27.99,27.80,27.92,383196
1-Oct-13,27.30,27.85,27.30,27.85,440458
30-Sep-13,27.23,27.52,27.18,27.37,253095
27-Sep-13,27.27,27.58,27.20,27.39,186177
26-Sep-13,27.28,27.56,27.28,27.51,260045
25-Sep-13,27.36,27.67,27.22,27.28,255994
24-Sep-13,27.39,27.60,27.26,27.34,366817
23-Sep-13,27.48,27.60,27.19,27.44,274182
20-Sep-13,27.98,28.12,27.45,27.47,424755
19-Sep-13,27.59,27.94,27.52,27.86,204085
18-Sep-13,27.23,27.64,27.06,27.56,287202
17-Sep-13,27.12,27.32,27.04,27.25,236500
16-Sep-13,27.38,27.49,26.98,27.06,269214
13-Sep-13,26.88,27.22,26.78,27.15,265718
12-Sep-13,26.65,26.88,26.61,26.80,257900
11-Sep-13,26.52,26.98,26.41,26.90,378599
10-Sep-13,26.00,26.60,25.99,26.50,449891
9-Sep-13,25.47,25.97,25.43,25.84,241318
6-Sep-13,25.31,25.42,24.94,25.37,341731
5-Sep-13,25.16,25.32,25.11,25.21,465257
4-Sep-13,24.93,25.20,24.91,25.18,749516
3-Sep-13,25.10,25.45,24.89,24.97,467775
30-Aug-13,25.06,25.06,24.67,24.76,263655
29-Aug-13,24.61,25.11,24.61,25.04,255060
28-Aug-13,24.30,24.67,24.30,24.67,200132
27-Aug-13,24.68,24.77,24.32,24.32,197174
26-Aug-13,24.81,24.91,24.70,24.85,138059
23-Aug-13,24.62,24.73,24.48,24.70,133837
22-Aug-13,24.14,24.72,23.85,24.62,181276
21-Aug-13,24.17,24.40,23.79,24.00,383815
20-Aug-13,24.16,24.31,24.09,24.21,138588
19-Aug-13,24.40,24.48,24.07,24.08,130565
16-Aug-13,24.49,24.73,24.43,24.47,232497
15-Aug-13,24.75,24.85,24.26,24.62,304620
14-Aug-13,24.96,25.00,24.82,24.92,234669
13-Aug-13,24.90,24.99,24.70,24.92,76581
12-Aug-13,24.71,24.86,24.59,24.81,168583
9-Aug-13,24.65,24.99,24.65,24.90,259440
8-Aug-13,24.50,24.71,24.48,24.60,226760
7-Aug-13,24.42,24.50,24.19,24.42,144967
6-Aug-13,24.67,25.41,24.00,24.44,270826
5-Aug-13,24.73,24.75,24.54,24.60,239355
2-Aug-13,24.75,24.91,24.60,24.72,92033
1-Aug-13,24.89,25.12,24.80,24.86,180093
31-Jul-13,24.84,24.92,24.69,24.79,121109
30-Jul-13,24.81,24.82,24.69,24.81,228266
29-Jul-13,24.65,24.73,24.55,24.66,134305
26-Jul-13,24.85,24.93,24.58,24.70,169702
25-Jul-13,24.72,24.95,24.60,24.94,147666
24-Jul-13,24.98,24.98,24.65,24.72,110435
23-Jul-13,25.05,25.05,24.82,24.92,129674
22-Jul-13,25.11,25.22,24.93,24.98,98761
19-Jul-13,25.00,25.24,24.81,25.02,280280
18-Jul-13,24.78,25.00,24.57,25.00,181878
17-Jul-13,24.73,24.77,24.50,24.74,294901
16-Jul-13,24.75,24.75,24.47,24.58,233037
15-Jul-13,24.41,24.73,24.30,24.69,109193
12-Jul-13,24.49,24.65,24.30,24.43,129466
11-Jul-13,24.95,25.00,24.44,24.53,257093
10-Jul-13,24.51,24.75,24.41,24.73,182516
9-Jul-13,24.22,24.55,24.08,24.47,219636
8-Jul-13,23.83,24.11,23.79,24.09,135099
5-Jul-13,24.02,24.02,23.54,23.81,147677
3-Jul-13,23.63,23.85,23.60,23.80,101848
2-Jul-13,23.94,24.05,23.80,23.85,159592
1-Jul-13,23.76,24.05,23.68,23.97,239837
28-Jun-13,23.49,24.00,23.31,23.71,368702
27-Jun-13,23.27,23.57,23.15,23.50,146943
26-Jun-13,23.32,23.34,22.98,23.10,123612
25-Jun-13,23.13,23.23,22.89,23.19,143693
24-Jun-13,23.14,23.30,22.66,22.88,159416
21-Jun-13,23.53,23.60,23.16,23.40,492920
20-Jun-13,23.32,23.45,23.13,23.35,215882
19-Jun-13,23.57,23.99,23.52,23.63,300627
18-Jun-13,23.16,23.67,23.12,23.64,161094
17-Jun-13,23.82,23.82,22.83,23.17,280642
14-Jun-13,23.89,24.00,23.51,23.63,124820
13-Jun-13,23.57,24.01,23.45,23.87,164725
12-Jun-13,23.90,23.99,23.52,23.63,165787
11-Jun-13,23.88,23.97,23.63,23.87,110429
10-Jun-13,24.06,24.18,23.90,24.08,123333
7-Jun-13,23.87,24.03,23.68,23.99,165277
6-Jun-13,23.69,23.80,23.48,23.70,192370
5-Jun-13,23.98,23.99,23.58,23.63,200657
4-Jun-13,24.20,24.50,23.76,23.99,371130
3-Jun-13,24.00,24.31,23.76,24.12,305772
31-May-13,24.07,24.10,23.83,23.86,294156
30-May-13,24.39,24.50,24.18,24.25,175396
29-May-13,24.38,24.50,24.23,24.32,164503
28-May-13,24.72,24.74,24.37,24.55,206193
24-May-13,24.02,24.42,23.90,24.38,158780
23-May-13,24.28,24.51,23.92,24.16,344466
22-May-13,24.89,25.22,24.34,24.48,257726
21-May-13,25.03,25.04,24.81,24.90,200473
20-May-13,24.95,25.08,24.85,25.00,222344
17-May-13,25.18,25.28,24.84,25.03,311824
16-May-13,25.28,25.54,25.01,25.14,141455
15-May-13,25.09,25.46,25.03,25.41,122192
14-May-13,24.91,25.21,24.75,25.21,183012
13-May-13,24.93,24.93,24.65,24.91,278835
10-May-13,24.79,24.93,24.79,24.92,115427
9-May-13,24.56,24.81,24.56,24.77,188944
8-May-13,24.29,24.56,24.19,24.56,152532
7-May-13,23.89,24.29,23.89,24.28,160310
6-May-13,23.54,23.90,23.46,23.90,253337
3-May-13,24.89,24.89,23.02,23.71,597774
2-May-13,24.41,24.98,24.28,24.92,190517
1-May-13,25.03,25.14,24.34,24.35,337429
30-Apr-13,24.80,25.13,24.72,25.13,234761
29-Apr-13,24.59,24.84,24.56,24.82,172690
26-Apr-13,24.68,24.75,24.48,24.51,157041
25-Apr-13,24.51,24.83,24.45,24.70,140032
24-Apr-13,24.24,24.42,24.11,24.39,175495
23-Apr-13,23.84,24.21,23.84,24.21,178700
22-Apr-13,23.65,23.76,23.10,23.66,229907
19-Apr-13,23.32,23.75,23.29,23.69,149064
18-Apr-13,23.59,23.74,23.21,23.28,243175
17-Apr-13,23.94,23.98,23.20,23.49,281826
16-Apr-13,24.36,24.36,24.04,24.17,184709
15-Apr-13,24.67,24.78,23.94,24.15,415713
12-Apr-13,24.86,25.03,24.79,24.86,151652
11-Apr-13,25.23,25.35,24.96,25.00,211036
10-Apr-13,24.95,25.33,24.88,25.28,154695
9-Apr-13,24.95,25.07,24.82,24.85,196172
8-Apr-13,24.63,25.00,24.56,24.95,174594
5-Apr-13,24.45,24.66,24.42,24.60,223851
4-Apr-13,24.76,24.88,24.65,24.84,153871
3-Apr-13,25.22,25.22,24.66,24.75,239613
2-Apr-13,25.22,25.35,25.03,25.18,236296
1-Apr-13,25.25,25.33,24.78,25.07,231105
28-Mar-13,25.26,25.39,24.99,25.28,318627
27-Mar-13,24.94,25.20,24.82,25.20,90473
26-Mar-13,25.38,25.51,25.02,25.18,99004
25-Mar-13,25.30,25.52,25.18,25.23,198732
22-Mar-13,25.14,25.27,24.95,25.18,147960
21-Mar-13,24.90,25.14,24.82,25.07,179059
20-Mar-13,25.07,25.17,24.92,25.09,83851
19-Mar-13,25.08,25.14,24.72,24.96,176295
18-Mar-13,24.90,25.15,24.79,24.98,179576
15-Mar-13,25.03,25.27,24.58,25.15,368006
14-Mar-13,24.98,25.02,24.85,24.98,208702
13-Mar-13,24.65,24.97,24.54,24.86,156193
12-Mar-13,24.56,24.62,24.46,24.55,197652
11-Mar-13,24.37,24.63,24.28,24.58,105236
8-Mar-13,24.54,24.63,24.25,24.46,214619
7-Mar-13,24.36,24.40,24.22,24.39,126668
6-Mar-13,24.35,24.42,24.14,24.36,102922
5-Mar-13,24.23,24.48,24.18,24.29,175761
4-Mar-13,24.08,24.17,23.82,24.16,171985
1-Mar-13,24.45,24.57,24.08,24.18,220735
28-Feb-13,24.45,24.82,24.28,24.69,300329
27-Feb-13,24.14,24.59,24.14,24.45,130978
26-Feb-13,24.16,24.31,23.92,24.20,147561
25-Feb-13,24.62,24.71,23.97,23.99,207272
22-Feb-13,24.60,24.71,24.39,24.54,176180
21-Feb-13,24.41,24.54,24.20,24.44,202410
20-Feb-13,24.92,24.98,24.45,24.45,190717
19-Feb-13,24.66,24.96,24.66,24.96,305886
15-Feb-13,24.95,25.02,24.63,24.68,220750
14-Feb-13,24.77,24.99,24.76,24.95,162220
13-Feb-13,24.60,24.91,24.57,24.91,237401
12-Feb-13,24.34,24.69,24.34,24.55,370715
11-Feb-13,24.57,24.63,24.08,24.28,463156
8-Feb-13,24.68,24.80,24.58,24.64,215634
7-Feb-13,24.41,24.81,24.29,24.62,452013
6-Feb-13,24.47,24.58,24.34,24.49,504201
5-Feb-13,24.73,24.93,24.40,24.61,463279
4-Feb-13,24.76,24.86,24.57,24.73,293341
1-Feb-13,24.85,24.98,24.79,24.86,308818
31-Jan-13,24.54,24.94,24.53,24.75,312061
30-Jan-13,24.81,24.92,24.47,24.66,310847
29-Jan-13,24.55,24.88,24.54,24.88,345111
28-Jan-13,24.66,24.68,24.45,24.64,329014
25-Jan-13,24.53,24.70,24.40,24.59,313084
24-Jan-13,24.22,24.56,24.16,24.48,315306
23-Jan-13,24.10,24.16,23.97,24.14,253341
22-Jan-13,23.94,24.28,23.92,24.19,256383
18-Jan-13,23.81,24.01,23.65,24.01,179175
17-Jan-13,23.47,23.85,23.43,23.81,174419
16-Jan-13,23.60,23.60,23.30,23.39,305340
15-Jan-13,23.58,23.76,23.47,23.64,330827
14-Jan-13,23.61,23.77,23.57,23.68,324869
11-Jan-13,23.58,23.73,23.39,23.73,358920
10-Jan-13,23.50,23.60,23.33,23.52,315205
9-Jan-13,23.44,23.50,23.33,23.43,380648
8-Jan-13,23.06,23.39,22.94,23.33,357973
7-Jan-13,23.22,23.26,22.94,23.07,371471
4-Jan-13,23.43,23.44,23.25,23.36,282895
3-Jan-13,23.43,23.44,23.17,23.30,297047
2-Jan-13,23.10,23.40,23.00,23.39,554656
31-Dec-12,22.27,22.62,22.14,22.61,255209
28-Dec-12,22.20,22.52,22.11,22.31,211843
27-Dec-12,22.16,22.50,22.14,22.40,295399
26-Dec-12,22.39,22.60,22.10,22.16,397692
24-Dec-12,22.50,22.50,22.19,22.32,142215
21-Dec-12,22.45,22.64,22.41,22.60,966200
20-Dec-12,22.71,22.85,22.42,22.76,352992
19-Dec-12,22.70,22.94,22.62,22.70,501498
18-Dec-12,21.92,22.78,21.92,22.70,739136
17-Dec-12,21.60,22.00,21.59,21.99,462846
14-Dec-12,21.26,21.89,21.11,21.58,420854
13-Dec-12,21.17,21.59,20.97,21.26,285723
12-Dec-12,21.45,21.80,21.20,21.41,404958
11-Dec-12,21.55,21.68,21.30,21.43,389477
10-Dec-12,21.25,21.43,21.17,21.41,285871
7-Dec-12,21.34,21.49,21.09,21.25,335359
6-Dec-12,21.00,21.32,20.81,21.29,302078
5-Dec-12,20.87,21.18,20.76,20.96,530187
4-Dec-12,20.60,20.93,20.42,20.89,741316
3-Dec-12,21.22,21.25,20.38,20.54,642746
30-Nov-12,20.94,21.23,20.94,21.16,480941
29-Nov-12,20.78,21.00,20.54,20.97,348650
28-Nov-12,20.33,20.65,20.26,20.59,368897
27-Nov-12,21.21,21.21,19.57,20.33,587962
26-Nov-12,19.90,19.99,19.62,19.86,382788
23-Nov-12,19.82,20.01,19.63,20.01,87790
21-Nov-12,19.67,19.80,19.54,19.69,116844
20-Nov-12,19.58,19.64,19.36,19.59,173940
19-Nov-12,19.38,19.61,19.34,19.60,198031
16-Nov-12,19.19,19.37,18.90,19.18,242321
15-Nov-12,18.90,19.25,18.84,19.25,254465
14-Nov-12,19.49,19.60,18.94,18.95,251338
13-Nov-12,19.64,19.83,19.40,19.48,173730
12-Nov-12,19.67,19.84,19.59,19.74,147057
9-Nov-12,19.80,19.85,19.51,19.67,214542
8-Nov-12,19.93,19.98,19.66,19.73,226353
7-Nov-12,20.17,20.31,19.79,19.91,282227
6-Nov-12,20.53,20.58,20.29,20.45,195070
5-Nov-12,20.31,20.50,20.30,20.43,198592
2-Nov-12,20.99,20.99,20.35,20.35,276055
1-Nov-12,20.47,20.93,20.33,20.85,543305
31-Oct-12,20.35,20.62,20.22,20.47,348006
26-Oct-12,20.46,20.55,20.22,20.39,192131
25-Oct-12,20.70,20.70,20.38,20.45,243050
24-Oct-12,20.77,20.79,20.44,20.50,390419
23-Oct-12,20.65,20.76,20.47,20.73,388619
22-Oct-12,20.75,20.94,20.52,20.68,400896
19-Oct-12,20.86,20.96,20.54,20.78,606592
18-Oct-12,20.25,21.15,20.15,20.94,569759
17-Oct-12,19.47,20.30,19.28,20.24,493933
16-Oct-12,19.11,19.47,18.91,19.46,538155
15-Oct-12,18.65,18.75,18.54,18.64,186723
12-Oct-12,18.70,18.85,18.54,18.66,148881
11-Oct-12,18.71,18.95,18.67,18.69,173896
10-Oct-12,18.64,18.66,18.44,18.61,279725
9-Oct-12,18.85,18.91,18.56,18.58,143720
8-Oct-12,18.84,18.88,18.75,18.81,152354
5-Oct-12,18.95,19.13,18.85,18.90,179074
4-Oct-12,18.70,18.94,18.44,18.82,249597
3-Oct-12,18.60,18.76,18.42,18.57,217977
2-Oct-12,18.35,18.53,18.15,18.53,291776
1-Oct-12,18.31,18.38,18.02,18.22,349352
28-Sep-12,18.34,18.38,18.19,18.19,234704
27-Sep-12,18.32,18.46,18.26,18.38,241051
26-Sep-12,18.56,18.58,18.21,18.26,231444
25-Sep-12,18.95,19.03,18.53,18.56,336792
24-Sep-12,18.85,18.95,18.67,18.88,240714
21-Sep-12,18.88,18.99,18.75,18.85,360950
20-Sep-12,18.90,19.01,18.59,18.65,191887
19-Sep-12,19.22,19.28,18.92,18.98,130330
18-Sep-12,19.01,19.21,18.99,19.21,161730
17-Sep-12,19.23,19.23,18.93,19.10,202033
14-Sep-12,19.32,19.63,19.28,19.34,241433
13-Sep-12,19.01,19.48,18.76,19.28,201379
12-Sep-12,19.00,19.07,18.90,19.06,164378
11-Sep-12,18.93,19.13,18.86,19.00,151446
10-Sep-12,18.75,19.11,18.75,18.86,203019
7-Sep-12,18.52,18.95,18.43,18.93,232608
6-Sep-12,18.24,18.50,18.11,18.43,314201
5-Sep-12,18.11,18.26,18.03,18.11,201060
4-Sep-12,18.06,18.22,17.83,18.16,232445
31-Aug-12,18.24,18.27,18.00,18.12,203697
30-Aug-12,18.08,18.12,17.98,18.07,155333
29-Aug-12,18.20,18.28,18.08,18.13,137371
28-Aug-12,18.26,18.36,18.02,18.11,195517
27-Aug-12,18.44,18.50,18.19,18.25,147162
24-Aug-12,18.40,18.47,18.20,18.38,127489
23-Aug-12,18.44,18.55,18.36,18.47,123231
22-Aug-12,18.61,18.66,18.39,18.51,144624
21-Aug-12,18.96,18.98,18.53,18.57,197207
20-Aug-12,18.91,18.95,18.72,18.88,153163
17-Aug-12,18.78,19.01,18.56,19.01,186334
16-Aug-12,18.30,18.90,18.10,18.79,295905
15-Aug-12,18.04,18.28,17.99,18.26,210171
14-Aug-12,18.31,18.33,17.99,18.03,281047
13-Aug-12,18.41,18.44,18.01,18.19,135890
10-Aug-12,18.47,18.58,18.04,18.42,191906
9-Aug-12,18.28,18.63,18.17,18.57,199647
8-Aug-12,18.18,18.38,18.10,18.26,197450
7-Aug-12,18.17,18.44,18.16,18.25,259666
6-Aug-12,18.06,18.18,17.97,18.06,215687
3-Aug-12,17.66,18.20,17.55,18.06,310317
2-Aug-12,17.16,18.55,17.16,17.65,454781
1-Aug-12,17.34,17.46,16.95,16.95,336206
31-Jul-12,17.37,17.52,17.26,17.29,192004
30-Jul-12,17.73,17.79,17.33,17.37,138486
27-Jul-12,17.14,17.79,17.12,17.70,222982
26-Jul-12,17.21,17.21,16.88,17.08,276702
25-Jul-12,16.93,17.08,16.75,16.96,234295
24-Jul-12,17.15,17.20,16.76,16.82,181513
23-Jul-12,17.33,17.45,17.01,17.11,244959
20-Jul-12,17.64,17.74,17.52,17.52,291345
19-Jul-12,17.75,17.86,17.62,17.71,164041
18-Jul-12,17.50,17.79,17.46,17.71,184164
17-Jul-12,17.80,17.85,17.41,17.50,260116
16-Jul-12,17.83,17.90,17.61,17.73,156557
13-Jul-12,17.67,17.95,17.63,17.90,253716
12-Jul-12,17.74,17.80,17.53,17.62,214653
11-Jul-12,17.74,17.85,17.67,17.81,160880
10-Jul-12,17.90,17.99,17.64,17.69,276669
9-Jul-12,18.09,18.16,17.80,17.85,364255
6-Jul-12,18.26,18.35,18.04,18.13,135333
5-Jul-12,18.46,18.69,18.33,18.37,112316
3-Jul-12,18.15,18.48,18.15,18.45,165182
2-Jul-12,18.40,18.40,18.09,18.19,299544
29-Jun-12,18.45,18.54,18.32,18.38,352194
28-Jun-12,17.93,18.09,17.77,18.09,195489
27-Jun-12,17.93,18.18,17.90,18.10,226105
26-Jun-12,17.75,17.98,17.48,17.89,304319
25-Jun-12,17.95,18.11,17.68,17.70,236775
22-Jun-12,17.93,18.28,17.76,18.11,995449
21-Jun-12,18.12,18.19,17.80,17.82,420102
20-Jun-12,18.11,18.31,18.00,18.11,192087
19-Jun-12,17.81,18.26,17.76,18.16,366885
18-Jun-12,17.80,17.86,17.63,17.73,384580
15-Jun-12,17.52,18.00,17.48,17.86,587849
14-Jun-12,17.82,17.92,17.48,17.54,431555
13-Jun-12,18.38,18.38,17.68,17.78,386001
12-Jun-12,18.39,18.51,18.13,18.48,360529
11-Jun-12,19.24,19.26,18.27,18.30,455734
8-Jun-12,18.98,19.24,18.87,19.09,193200
7-Jun-12,19.25,19.37,18.88,19.03,344302
6-Jun-12,18.79,19.02,18.71,19.00,235628
5-Jun-12,18.49,18.78,18.40,18.64,283861
4-Jun-12,18.47,18.72,18.39,18.62,312505
1-Jun-12,18.42,18.64,18.38,18.39,311698
31-May-12,18.80,18.84,18.41,18.77,504828
30-May-12,18.92,18.93,18.69,18.75,328842
29-May-12,19.02,19.20,18.76,19.11,354982
25-May-12,18.88,18.96,18.47,18.84,509351
24-May-12,18.59,18.94,18.39,18.94,358725
23-May-12,18.37,18.61,18.23,18.54,329582
22-May-12,18.80,19.00,18.50,18.58,333721
21-May-12,18.84,19.12,18.71,18.76,459199
18-May-12,18.85,19.26,18.74,18.82,389627
17-May-12,19.26,19.35,18.90,18.90,269988
16-May-12,19.49,19.59,19.23,19.24,198626
15-May-12,19.43,19.75,19.38,19.39,222859
14-May-12,19.50,19.72,19.41,19.50,251294
11-May-12,19.77,19.92,19.51,19.69,300955
10-May-12,19.95,20.06,19.78,19.96,305837
9-May-12,20.15,20.23,19.83,19.89,242440
8-May-12,19.92,20.87,19.80,20.42,525527
7-May-12,20.13,20.32,19.93,20.12,272193
4-May-12,20.50,20.52,19.92,20.13,414038
3-May-12,20.70,20.70,20.31,20.57,281505
2-May-12,20.54,20.87,20.47,20.74,372522
1-May-12,20.93,21.23,20.73,20.73,329586
30-Apr-12,21.03,21.09,20.86,20.94,303219
27-Apr-12,21.16,21.22,20.99,21.09,204091
26-Apr-12,20.99,21.20,20.99,21.12,303889
25-Apr-12,21.15,21.28,20.96,21.03,313214
24-Apr-12,21.01,21.12,20.83,20.93,332672
23-Apr-12,21.08,21.14,20.81,20.99,412869
20-Apr-12,21.76,21.80,21.20,21.35,384193
19-Apr-12,21.68,21.82,21.37,21.51,164244
18-Apr-12,21.89,21.89,21.57,21.71,211012
17-Apr-12,21.89,22.25,21.83,22.00,205053
16-Apr-12,21.45,21.78,21.40,21.68,276921
13-Apr-12,21.67,21.67,21.38,21.39,388540
12-Apr-12,21.51,21.85,21.47,21.71,303226
11-Apr-12,21.37,21.51,21.19,21.50,392021
10-Apr-12,21.75,21.76,21.13,21.19,418706
9-Apr-12,21.91,22.00,21.68,21.77,308741
5-Apr-12,22.35,22.43,22.23,22.32,167302
4-Apr-12,22.67,22.71,22.33,22.50,293207
3-Apr-12,22.97,23.04,22.73,22.89,166015
2-Apr-12,22.86,23.09,22.60,23.04,406245
30-Mar-12,23.29,23.29,22.95,22.95,250054
29-Mar-12,22.88,23.17,22.80,23.13,210293
28-Mar-12,23.03,23.24,22.92,23.02,281189
27-Mar-12,23.13,23.13,22.88,22.97,211896
26-Mar-12,23.08,23.10,22.67,23.10,373225
23-Mar-12,22.96,22.99,22.74,22.93,173327
22-Mar-12,22.83,23.01,22.64,22.99,181652
21-Mar-12,23.09,23.20,22.91,23.02,128087
20-Mar-12,23.00,23.20,22.76,22.99,208593
19-Mar-12,22.97,23.32,22.87,23.02,229506
16-Mar-12,23.30,23.30,22.98,22.98,459997
15-Mar-12,23.10,23.34,22.84,23.27,171028
14-Mar-12,23.61,23.72,23.04,23.12,175003
13-Mar-12,23.54,23.84,23.41,23.84,219487
12-Mar-12,23.25,23.53,23.13,23.37,195556
9-Mar-12,23.17,23.53,23.11,23.19,252488
8-Mar-12,23.01,23.19,22.75,23.15,165136
7-Mar-12,22.87,22.93,22.70,22.83,149666
6-Mar-12,22.77,23.05,22.69,22.78,237308
5-Mar-12,22.65,23.11,22.40,23.03,296033
2-Mar-12,23.03,23.03,22.70,22.76,397427
1-Mar-12,23.15,23.28,22.99,23.03,269979
29-Feb-12,23.33,23.40,22.97,22.97,359217
28-Feb-12,23.49,23.53,23.14,23.31,266425
27-Feb-12,23.16,23.55,22.87,23.46,219946
24-Feb-12,23.24,23.51,23.14,23.32,118021
23-Feb-12,22.95,23.22,22.85,23.21,253063
22-Feb-12,23.19,23.29,22.94,22.96,224799
21-Feb-12,23.81,23.81,23.21,23.24,190484
17-Feb-12,23.91,23.94,23.58,23.69,151973
16-Feb-12,23.23,23.83,23.23,23.82,246240
15-Feb-12,23.62,23.67,23.11,23.16,209072
14-Feb-12,23.59,23.69,23.34,23.51,159437
13-Feb-12,23.75,23.85,23.57,23.62,215552
10-Feb-12,23.67,23.73,23.46,23.56,220865
9-Feb-12,23.90,23.92,23.68,23.70,168277
8-Feb-12,23.61,23.88,23.40,23.70,355350
7-Feb-12,23.20,23.62,23.05,23.55,207754
6-Feb-12,23.59,23.73,22.96,23.22,284371
3-Feb-12,23.83,24.18,23.73,23.82,264872
2-Feb-12,23.73,23.94,23.01,23.46,441778
1-Feb-12,23.55,24.01,23.38,23.90,395209
31-Jan-12,23.38,23.71,23.35,23.45,246111
30-Jan-12,23.32,23.51,22.90,23.21,291913
27-Jan-12,23.47,23.68,23.42,23.49,323920
26-Jan-12,23.59,23.73,23.45,23.60,321975
25-Jan-12,23.36,23.59,23.08,23.55,293194
24-Jan-12,23.21,23.47,23.00,23.40,388879
23-Jan-12,23.46,23.50,23.11,23.39,227591
20-Jan-12,22.65,23.50,22.59,23.46,412541
19-Jan-12,22.72,22.84,22.44,22.71,248368
18-Jan-12,22.47,22.71,22.37,22.71,184876
17-Jan-12,22.51,22.71,22.39,22.45,213593
13-Jan-12,22.30,22.48,22.20,22.36,131406
12-Jan-12,22.47,22.60,22.19,22.59,190506
11-Jan-12,22.40,22.54,22.27,22.39,241117
10-Jan-12,22.63,22.64,22.36,22.45,167360
9-Jan-12,22.49,22.50,22.04,22.31,163221
6-Jan-12,22.39,22.60,22.11,22.39,202446
5-Jan-12,22.29,22.62,21.95,22.43,176966
4-Jan-12,22.30,22.56,22.29,22.35,157715
3-Jan-12,22.90,22.90,22.54,22.59,224196
30-Dec-11,22.53,22.64,22.31,22.32,160414
29-Dec-11,22.23,22.61,22.00,22.54,130318
28-Dec-11,22.73,22.74,22.07,22.13,240993
27-Dec-11,22.28,22.82,22.07,22.78,153149
23-Dec-11,22.30,22.47,22.29,22.35,89365
22-Dec-11,22.44,22.60,22.19,22.30,276345
21-Dec-11,22.06,22.41,21.84,22.35,470242
20-Dec-11,21.47,22.24,21.38,22.18,356798
19-Dec-11,21.65,22.17,20.94,20.98,304710
16-Dec-11,21.36,21.62,20.97,21.19,746499
15-Dec-11,21.17,21.35,21.02,21.27,210784
14-Dec-11,20.97,21.12,20.82,20.84,205141
13-Dec-11,21.89,22.20,21.20,21.28,244338
12-Dec-11,21.74,21.83,21.43,21.77,191465
9-Dec-11,21.36,22.26,21.33,21.99,266228
8-Dec-11,22.12,22.26,21.24,21.30,227149
7-Dec-11,22.19,22.45,21.85,22.35,148125
6-Dec-11,22.28,22.46,22.06,22.24,240594
5-Dec-11,22.33,22.56,22.10,22.31,283343
2-Dec-11,22.49,22.60,21.91,21.97,336021
1-Dec-11,22.66,22.77,22.16,22.21,411258
30-Nov-11,22.66,22.78,21.70,22.73,616964
29-Nov-11,22.45,22.46,20.60,20.98,540965
28-Nov-11,20.21,21.21,19.96,21.14,488996
25-Nov-11,19.79,20.07,19.59,19.60,96038
23-Nov-11,20.22,20.36,19.79,19.87,231059
22-Nov-11,20.80,20.96,20.26,20.41,204232
21-Nov-11,20.88,21.00,20.50,20.79,278470
18-Nov-11,21.00,21.33,20.82,21.22,235441
17-Nov-11,21.45,21.45,20.89,21.00,241673
16-Nov-11,21.69,22.11,21.37,21.40,285963
15-Nov-11,21.47,22.10,21.44,21.91,376022
14-Nov-11,21.37,21.58,21.18,21.51,300122
11-Nov-11,21.11,21.53,21.04,21.50,188809
10-Nov-11,20.88,21.11,20.57,20.88,210233
9-Nov-11,21.48,21.52,20.55,20.57,293507
8-Nov-11,21.97,22.05,21.51,21.93,266009
7-Nov-11,21.63,21.99,21.33,21.86,330907
4-Nov-11,21.17,21.64,21.17,21.63,294067
3-Nov-11,20.88,21.55,20.72,21.40,391056
2-Nov-11,20.47,20.66,20.22,20.63,209794
1-Nov-11,20.50,21.04,20.10,20.18,272238
31-Oct-11,21.28,21.54,21.10,21.11,164374
28-Oct-11,21.60,21.99,21.51,21.71,317945
27-Oct-11,21.60,21.85,21.46,21.73,536535
26-Oct-11,20.92,21.16,20.30,21.01,258840
25-Oct-11,21.17,21.18,20.59,20.62,251482
24-Oct-11,20.96,21.50,20.96,21.26,406314
21-Oct-11,20.16,20.91,20.02,20.84,574316
20-Oct-11,19.62,19.99,19.43,19.89,163583
19-Oct-11,20.17,20.25,19.43,19.59,304091
18-Oct-11,19.70,20.39,19.51,20.16,302030
17-Oct-11,20.43,20.52,19.54,19.61,283797
14-Oct-11,19.96,20.52,19.94,20.47,402486
13-Oct-11,19.64,19.84,19.36,19.82,238928
12-Oct-11,19.35,19.86,19.35,19.73,278882
11-Oct-11,18.92,19.34,18.90,19.25,231656
10-Oct-11,18.55,19.00,18.26,18.98,317851
7-Oct-11,18.81,19.02,18.21,18.27,217508
6-Oct-11,18.12,18.81,18.10,18.80,309231
5-Oct-11,18.14,18.28,17.90,18.14,304026
4-Oct-11,17.28,18.21,17.10,18.16,493414
3-Oct-11,18.24,18.41,17.39,17.40,432610
30-Sep-11,18.43,18.81,18.37,18.40,456227
29-Sep-11,18.44,18.88,18.05,18.68,285347
28-Sep-11,18.67,18.76,18.06,18.11,357041
27-Sep-11,18.78,19.10,18.47,18.67,318779
26-Sep-11,18.32,18.50,17.82,18.47,196978
23-Sep-11,17.86,18.36,17.77,18.17,207654
22-Sep-11,17.98,18.24,17.67,17.86,337123
21-Sep-11,18.91,19.10,18.31,18.37,270981
20-Sep-11,19.19,19.38,18.84,18.85,252720
19-Sep-11,19.22,19.31,18.88,19.14,184917
16-Sep-11,19.71,19.77,19.27,19.42,332330
15-Sep-11,19.39,19.63,19.11,19.60,334866
14-Sep-11,19.32,19.56,19.00,19.26,355643
13-Sep-11,18.89,19.42,18.82,19.32,316004
12-Sep-11,18.37,18.88,18.34,18.86,238190
9-Sep-11,19.00,19.16,18.40,18.61,317133
8-Sep-11,19.67,19.90,19.11,19.15,249787
7-Sep-11,19.38,19.92,19.27,19.85,214375
6-Sep-11,18.68,19.23,18.56,19.11,267687
2-Sep-11,19.54,19.61,18.95,19.09,344922
1-Sep-11,20.37,20.61,19.78,19.89,310878
31-Aug-11,20.75,20.75,20.13,20.40,491466
30-Aug-11,20.38,20.88,20.28,20.74,280181
29-Aug-11,20.02,20.54,19.92,20.53,269068
26-Aug-11,19.15,19.88,18.82,19.82,234215
25-Aug-11,20.26,20.37,19.21,19.27,253246
24-Aug-11,19.76,20.22,19.64,20.16,235266
23-Aug-11,19.07,19.78,18.90,19.75,273302
22-Aug-11,19.36,19.52,18.86,18.97,204428
19-Aug-11,19.08,19.68,19.00,19.03,349252
18-Aug-11,19.65,19.65,19.10,19.34,517100
17-Aug-11,20.22,20.31,19.87,20.07,243202
16-Aug-11,20.07,20.36,19.66,20.14,378160
15-Aug-11,19.37,20.23,19.37,20.19,542747
12-Aug-11,19.13,19.54,18.75,19.16,603762
11-Aug-11,18.84,19.45,18.52,18.98,937166
10-Aug-11,18.22,19.52,17.97,18.73,1178253
9-Aug-11,19.25,19.64,17.78,18.45,1926307
8-Aug-11,16.53,20.14,16.33,18.75,1038810
5-Aug-11,20.47,20.73,19.83,20.15,463468
4-Aug-11,21.10,21.24,20.32,20.35,272682
3-Aug-11,21.07,21.36,20.44,21.29,179983
2-Aug-11,21.56,21.85,21.00,21.01,280151
1-Aug-11,22.03,22.03,21.35,21.66,235055
29-Jul-11,21.72,22.04,21.50,21.89,184478
28-Jul-11,21.98,22.14,21.75,21.88,194977
27-Jul-11,22.31,22.32,21.95,21.97,288290
26-Jul-11,22.63,22.63,22.32,22.33,126381
25-Jul-11,22.78,22.91,22.54,22.59,155088
22-Jul-11,23.09,23.13,22.85,23.00,149747
21-Jul-11,22.85,23.21,22.71,23.09,148496
20-Jul-11,23.00,23.00,22.73,22.80,146756
19-Jul-11,22.62,23.02,22.53,23.01,184629
18-Jul-11,22.99,23.04,22.44,22.48,258523
15-Jul-11,22.86,23.16,22.82,23.06,197807
14-Jul-11,23.33,23.49,22.89,22.91,192596
13-Jul-11,23.61,23.81,23.20,23.26,340939
12-Jul-11,23.41,23.75,23.27,23.49,240860
11-Jul-11,23.59,23.60,23.30,23.46,217042
8-Jul-11,23.79,23.94,23.60,23.79,323860
7-Jul-11,23.98,24.20,23.85,24.00,394505
6-Jul-11,24.07,24.15,23.79,23.81,330539
5-Jul-11,24.08,24.14,23.76,24.04,196802
1-Jul-11,23.69,24.16,23.58,24.08,347881
30-Jun-11,23.52,23.80,23.42,23.65,405281
29-Jun-11,23.19,23.53,23.14,23.40,676437
28-Jun-11,22.67,23.20,22.64,23.19,285701
27-Jun-11,22.69,22.70,22.02,22.66,710854
24-Jun-11,23.20,23.20,22.55,22.70,4373111
23-Jun-11,23.12,23.25,22.86,23.15,288909
22-Jun-11,23.09,23.40,22.92,23.26,248130
21-Jun-11,23.03,23.18,22.93,23.13,333293
20-Jun-11,22.48,23.00,22.48,23.00,208011
17-Jun-11,22.68,22.76,22.49,22.54,280133
16-Jun-11,22.38,22.52,22.22,22.50,231770
15-Jun-11,22.32,22.48,22.25,22.40,221791
14-Jun-11,22.50,22.71,22.22,22.41,321208
13-Jun-11,22.52,22.71,22.43,22.56,157391
10-Jun-11,22.70,22.70,22.38,22.45,344539
9-Jun-11,22.80,22.96,22.59,22.81,213534
8-Jun-11,22.07,23.08,21.99,22.84,803144
7-Jun-11,22.09,22.21,21.88,22.16,216941
6-Jun-11,22.00,22.08,21.91,22.05,172263
3-Jun-11,22.39,22.61,22.06,22.08,248179
2-Jun-11,22.70,22.71,22.36,22.60,271585
1-Jun-11,22.67,22.80,22.49,22.59,217138
31-May-11,22.63,22.80,22.47,22.75,331810
27-May-11,22.42,22.55,22.33,22.55,112295
26-May-11,22.29,22.40,22.13,22.40,120689
25-May-11,22.27,22.46,22.21,22.36,128496
24-May-11,22.28,22.42,22.21,22.35,101360
23-May-11,22.37,22.38,22.22,22.28,134866
20-May-11,22.77,22.85,22.60,22.63,119323
19-May-11,22.76,22.89,22.49,22.83,136814
18-May-11,22.43,22.72,22.41,22.72,117493
17-May-11,22.31,22.63,22.19,22.46,181499
16-May-11,22.44,22.50,22.28,22.40,188066
13-May-11,22.69,22.82,22.35,22.54,133263
12-May-11,22.58,22.80,22.48,22.67,176038
11-May-11,22.47,22.65,22.36,22.61,193986
10-May-11,22.52,22.70,22.41,22.51,645033
9-May-11,22.23,22.50,22.11,22.50,154074
6-May-11,22.49,22.52,22.25,22.29,200968
5-May-11,23.07,23.29,22.44,22.45,402797
4-May-11,22.70,22.70,22.25,22.44,252216
3-May-11,22.71,22.75,22.55,22.66,204045
2-May-11,22.82,23.00,22.69,22.78,215465
29-Apr-11,22.88,22.97,22.79,22.92,180040
28-Apr-11,23.05,23.07,22.67,22.90,154565
27-Apr-11,22.73,23.11,22.62,23.11,233194
26-Apr-11,22.44,22.84,22.42,22.74,83682
25-Apr-11,22.46,22.55,22.36,22.42,102293
21-Apr-11,22.62,22.69,22.29,22.52,110142
20-Apr-11,22.48,22.64,22.38,22.57,131800
19-Apr-11,22.37,22.42,22.27,22.34,115396
18-Apr-11,22.66,22.67,22.25,22.28,179951
15-Apr-11,22.49,22.90,22.45,22.82,185404
14-Apr-11,22.25,22.63,22.25,22.45,193188
13-Apr-11,22.78,22.79,22.32,22.37,215845
12-Apr-11,22.71,22.90,22.52,22.75,308036
11-Apr-11,21.89,22.85,21.88,22.75,593328
8-Apr-11,21.77,21.95,21.68,21.92,1440193
7-Apr-11,21.80,21.96,21.71,21.75,424752
6-Apr-11,21.82,21.89,21.66,21.74,403706
5-Apr-11,21.72,21.85,21.62,21.71,321124
4-Apr-11,21.77,21.89,21.70,21.75,189190
1-Apr-11,21.71,21.83,21.47,21.79,220028
31-Mar-11,21.55,21.59,21.43,21.50,169564
30-Mar-11,21.57,21.60,21.48,21.51,129336
29-Mar-11,21.47,21.56,21.40,21.42,63954
28-Mar-11,21.49,21.58,21.35,21.50,99910
25-Mar-11,21.46,21.58,21.42,21.42,150129
24-Mar-11,21.58,21.75,21.47,21.49,119367
23-Mar-11,21.71,21.71,21.44,21.48,191535
22-Mar-11,21.70,21.75,21.58,21.72,107060
21-Mar-11,21.70,21.77,21.53,21.66,150904
18-Mar-11,21.43,21.70,21.19,21.63,255235
17-Mar-11,21.36,21.38,21.10,21.18,142016
16-Mar-11,21.05,21.30,20.90,21.10,184969
15-Mar-11,20.82,21.20,20.82,21.04,154334
14-Mar-11,21.59,21.75,21.20,21.23,225086
11-Mar-11,21.56,21.77,21.42,21.66,122456
10-Mar-11,21.62,21.75,21.53,21.65,145385
9-Mar-11,21.68,21.79,21.54,21.78,157233
8-Mar-11,21.76,21.79,21.57,21.69,153291
7-Mar-11,22.02,22.02,21.60,21.73,122724
4-Mar-11,22.00,22.04,21.75,21.91,129339
3-Mar-11,21.69,22.06,21.60,22.02,289997
2-Mar-11,21.52,21.57,21.40,21.48,375340
1-Mar-11,21.85,22.03,21.41,21.47,259863
28-Feb-11,21.85,21.96,21.69,21.75,179588
25-Feb-11,21.83,21.84,21.62,21.75,220936
24-Feb-11,21.30,21.78,21.29,21.76,176126
23-Feb-11,21.62,21.88,21.30,21.31,281569
22-Feb-11,22.00,22.23,21.62,21.68,171803
18-Feb-11,22.01,22.28,21.91,22.25,131330
17-Feb-11,22.00,22.08,21.90,21.97,229248
16-Feb-11,21.83,22.03,21.73,21.99,265799
15-Feb-11,21.99,22.00,21.73,21.73,270216
14-Feb-11,21.97,22.07,21.95,21.96,209845
11-Feb-11,21.75,22.00,21.61,21.99,372522
10-Feb-11,21.62,21.78,21.62,21.75,122234
9-Feb-11,21.75,21.90,21.57,21.65,204184
8-Feb-11,21.80,21.87,21.67,21.75,149202
7-Feb-11,21.80,21.89,21.70,21.80,233038
4-Feb-11,21.77,21.79,21.55,21.64,154919
3-Feb-11,21.85,21.99,21.66,21.67,199529
2-Feb-11,21.94,22.12,21.83,21.96,223749
1-Feb-11,21.84,22.14,21.80,21.82,394147
31-Jan-11,22.19,22.19,21.60,21.61,297003
28-Jan-11,22.45,22.45,22.05,22.05,151871
27-Jan-11,22.39,22.44,22.05,22.44,177399
26-Jan-11,22.23,22.41,22.14,22.33,227351
25-Jan-11,22.25,22.32,22.10,22.23,160680
24-Jan-11,22.18,22.34,22.06,22.27,148679
21-Jan-11,22.18,22.18,21.91,22.06,143672
20-Jan-11,21.61,22.06,21.61,22.05,162183
19-Jan-11,22.08,22.08,21.58,21.61,363136
18-Jan-11,22.47,22.50,22.11,22.18,214808
14-Jan-11,21.87,22.39,21.85,22.37,196885
13-Jan-11,21.94,22.09,21.72,21.88,249338
12-Jan-11,21.85,21.95,21.72,21.90,185795
11-Jan-11,21.89,21.94,21.60,21.67,216146
10-Jan-11,21.98,22.00,21.60,21.71,300455
7-Jan-11,22.18,22.20,21.65,21.69,343656
6-Jan-11,21.02,22.16,20.76,22.01,990277
5-Jan-11,20.62,21.05,20.61,21.04,363012
4-Jan-11,20.75,20.75,20.50,20.66,158653
3-Jan-11,20.96,20.99,20.68,20.73,184001
31-Dec-10,21.13,21.13,20.78,20.81,126776
30-Dec-10,21.04,21.16,20.94,21.05,131719
29-Dec-10,20.77,21.00,20.75,20.92,145487
28-Dec-10,20.64,20.81,20.58,20.72,124289
27-Dec-10,20.65,20.82,20.50,20.62,175324
23-Dec-10,20.72,20.90,20.67,20.67,176486
22-Dec-10,20.52,20.77,20.45,20.74,236118
21-Dec-10,20.33,20.71,20.28,20.51,344398
20-Dec-10,20.50,20.64,20.24,20.25,256969
17-Dec-10,20.45,20.60,20.37,20.51,459906
16-Dec-10,20.31,20.61,20.03,20.52,430493
15-Dec-10,19.78,20.09,19.73,19.95,683925
14-Dec-10,19.52,19.90,19.50,19.80,297504
13-Dec-10,19.46,19.55,19.35,19.52,271008
10-Dec-10,19.47,19.64,19.40,19.58,542167
9-Dec-10,19.56,19.58,19.30,19.38,213216
8-Dec-10,19.41,19.57,19.36,19.44,254855
7-Dec-10,19.59,19.66,19.38,19.42,232845
6-Dec-10,19.60,19.65,19.34,19.44,253165
3-Dec-10,19.53,19.70,19.38,19.65,329171
2-Dec-10,19.37,19.69,19.31,19.61,1117403
1-Dec-10,19.52,19.63,19.17,19.31,477200
30-Nov-10,19.34,19.43,19.19,19.31,454726
29-Nov-10,19.13,19.53,19.13,19.50,315204
26-Nov-10,19.09,19.40,19.05,19.26,111084
24-Nov-10,19.72,19.76,19.19,19.21,576759
23-Nov-10,20.04,20.16,19.41,19.73,367170
22-Nov-10,20.24,20.31,20.01,20.15,105868
19-Nov-10,20.32,20.36,20.09,20.31,117351
18-Nov-10,20.25,20.38,20.09,20.36,99872
17-Nov-10,20.05,20.15,19.86,20.06,145911
16-Nov-10,19.94,20.08,19.70,20.02,216080
15-Nov-10,20.12,20.28,20.00,20.00,124755
12-Nov-10,20.01,20.17,19.90,20.00,168098
11-Nov-10,19.91,20.13,19.91,20.11,262228
10-Nov-10,20.27,20.32,19.82,20.05,374377
9-Nov-10,21.35,21.40,20.20,20.24,609525
8-Nov-10,21.35,21.37,21.17,21.37,339926
5-Nov-10,21.21,21.61,21.21,21.42,258578
4-Nov-10,21.74,21.76,21.19,21.30,343221
3-Nov-10,21.72,21.86,21.34,21.59,108112
2-Nov-10,21.62,21.68,21.46,21.66,106699
1-Nov-10,21.51,21.76,21.25,21.47,155651
29-Oct-10,21.55,21.58,21.35,21.49,116816
28-Oct-10,21.75,21.75,21.46,21.65,123100
27-Oct-10,21.69,21.75,21.30,21.53,150259
26-Oct-10,21.96,21.96,21.67,21.80,105306
25-Oct-10,22.06,22.14,21.92,22.00,196184
22-Oct-10,22.08,22.08,21.91,21.99,131549
21-Oct-10,22.23,22.32,21.88,22.06,187917
20-Oct-10,21.99,22.23,21.96,22.08,81465
19-Oct-10,22.02,22.05,21.77,21.91,289503
18-Oct-10,22.36,22.36,21.87,22.13,174046
15-Oct-10,22.42,22.52,22.22,22.32,148710
14-Oct-10,22.29,22.36,22.10,22.32,217875
13-Oct-10,22.13,22.35,21.97,22.30,141918
12-Oct-10,21.79,22.11,21.55,22.01,161013
11-Oct-10,21.56,21.85,21.51,21.77,173960
8-Oct-10,21.56,21.69,21.43,21.62,126884
7-Oct-10,21.85,21.99,21.47,21.58,240683
6-Oct-10,21.65,21.76,21.31,21.76,178260
5-Oct-10,21.41,21.75,21.31,21.68,278273
4-Oct-10,21.64,21.76,21.22,21.26,192504
1-Oct-10,21.60,21.71,21.50,21.71,319106
30-Sep-10,21.44,21.60,21.22,21.51,298878
29-Sep-10,21.50,21.60,21.24,21.49,95358
28-Sep-10,21.24,21.59,21.18,21.55,206812
27-Sep-10,21.23,21.23,20.99,21.22,164238
24-Sep-10,20.99,21.23,20.97,21.23,98987
23-Sep-10,20.78,21.24,20.73,20.83,155190
22-Sep-10,21.22,21.24,20.81,20.84,118511
21-Sep-10,21.39,21.40,21.09,21.24,135179
20-Sep-10,21.53,21.57,21.32,21.42,189043
17-Sep-10,21.20,21.56,21.06,21.51,304069
16-Sep-10,21.20,21.33,20.97,21.02,139208
15-Sep-10,21.02,21.20,20.82,21.20,141583
14-Sep-10,21.11,21.36,20.87,21.05,138995
13-Sep-10,21.06,21.36,20.94,21.30,119549
10-Sep-10,20.97,21.12,20.82,20.88,188216
9-Sep-10,20.69,21.01,20.64,20.87,105940
8-Sep-10,20.25,20.71,20.12,20.64,203572
7-Sep-10,20.51,20.52,20.19,20.25,204916
3-Sep-10,20.30,20.64,20.30,20.57,231120
2-Sep-10,19.71,20.27,19.59,20.24,194445
1-Sep-10,19.10,19.78,19.10,19.77,171187
31-Aug-10,19.44,19.46,19.04,19.04,619863
30-Aug-10,19.89,19.92,19.48,19.51,212340
27-Aug-10,19.92,20.04,19.71,19.99,137335
26-Aug-10,20.07,20.10,19.82,19.85,255378
25-Aug-10,20.12,20.19,19.97,20.07,743709
24-Aug-10,20.09,20.25,20.03,20.22,211087
23-Aug-10,20.11,20.35,20.10,20.27,198775
20-Aug-10,20.21,20.21,20.03,20.09,230391
19-Aug-10,20.29,20.30,20.09,20.14,220753
18-Aug-10,20.28,20.37,20.21,20.33,244987
17-Aug-10,20.45,20.49,20.29,20.37,215510
16-Aug-10,20.18,20.35,20.18,20.32,181986
13-Aug-10,20.31,20.44,20.18,20.31,169451
12-Aug-10,20.01,20.40,20.01,20.32,196587
11-Aug-10,20.33,20.42,20.20,20.25,230750
10-Aug-10,20.74,20.74,20.54,20.60,254607
9-Aug-10,21.19,21.35,20.67,20.76,320269
6-Aug-10,21.02,21.05,20.61,20.98,255012
5-Aug-10,21.28,21.41,20.95,20.99,324385
4-Aug-10,22.22,22.29,21.20,21.32,590894
3-Aug-10,22.60,22.60,22.04,22.13,211367
2-Aug-10,22.25,22.59,22.11,22.57,309385
30-Jul-10,21.77,22.12,21.57,22.09,204675
29-Jul-10,21.84,21.87,21.43,21.79,249728
28-Jul-10,22.00,22.01,21.68,21.71,121454
27-Jul-10,21.86,22.23,21.82,21.99,270421
26-Jul-10,21.30,21.85,21.22,21.85,374307
23-Jul-10,21.08,21.30,21.08,21.30,167463
22-Jul-10,20.99,21.18,20.87,21.16,202415
21-Jul-10,21.27,21.27,20.69,20.80,175256
20-Jul-10,20.85,21.29,20.80,21.29,190042
19-Jul-10,21.00,21.00,20.85,20.96,141483
16-Jul-10,21.04,21.04,20.77,20.88,161766
15-Jul-10,21.13,21.13,20.80,20.96,82217
14-Jul-10,21.11,21.17,20.95,21.06,117415
13-Jul-10,21.23,21.23,20.90,21.09,199222
12-Jul-10,21.04,21.15,20.81,21.00,152379
9-Jul-10,21.30,21.31,20.81,21.05,138540
8-Jul-10,21.07,21.36,21.04,21.36,206302
7-Jul-10,20.89,21.06,20.80,21.04,261585
6-Jul-10,21.23,21.41,20.74,20.95,189775
2-Jul-10,21.38,21.41,21.11,21.16,76529
1-Jul-10,21.50,21.51,20.89,21.38,236848
30-Jun-10,21.51,21.70,21.35,21.39,266272
29-Jun-10,21.44,21.72,21.29,21.50,209128
28-Jun-10,21.25,21.63,21.22,21.54,133181
25-Jun-10,20.85,21.46,20.83,21.37,889953
24-Jun-10,21.00,21.09,20.76,20.85,217245
23-Jun-10,21.66,21.66,21.02,21.04,207100
22-Jun-10,22.19,22.24,21.53,21.54,180670
21-Jun-10,22.32,22.59,22.13,22.22,167971
18-Jun-10,22.26,22.35,21.95,22.20,312952
17-Jun-10,22.36,22.40,22.12,22.32,152602
16-Jun-10,22.16,22.49,22.16,22.36,187463
15-Jun-10,22.14,22.38,22.09,22.34,143734
14-Jun-10,22.12,22.24,21.95,22.03,465277
11-Jun-10,21.97,22.39,21.97,22.31,148097
10-Jun-10,22.35,22.35,21.92,22.18,169350
9-Jun-10,21.97,22.24,21.91,22.01,233074
8-Jun-10,22.21,22.53,21.86,22.00,217883
7-Jun-10,22.90,22.90,22.23,22.25,284931
4-Jun-10,23.69,23.69,22.62,22.72,234091
3-Jun-10,23.51,23.92,23.34,23.84,212128
2-Jun-10,23.26,23.46,22.89,23.41,405941
1-Jun-10,24.08,24.16,23.58,23.60,177167
28-May-10,23.98,24.68,23.98,24.29,220899
27-May-10,23.71,24.14,23.68,24.08,159498
26-May-10,23.38,23.78,23.38,23.45,355048
25-May-10,23.29,23.53,23.04,23.34,383984
24-May-10,23.54,23.94,23.43,23.60,293551
21-May-10,23.48,23.84,23.21,23.68,158377
20-May-10,24.05,24.49,23.11,23.57,257545
19-May-10,24.91,25.17,24.47,24.57,275153
18-May-10,25.81,26.21,24.89,25.17,476715
17-May-10,25.24,25.82,25.04,25.77,225752
14-May-10,25.25,25.39,25.00,25.30,193273
13-May-10,25.59,25.83,25.26,25.44,270424
12-May-10,25.03,25.48,24.88,25.44,241603
11-May-10,24.89,25.17,24.88,24.88,242448
10-May-10,24.36,25.20,24.13,25.14,367088
7-May-10,24.46,24.81,23.65,24.03,351906
6-May-10,23.44,25.35,23.44,24.51,419904
5-May-10,24.01,24.16,23.47,23.66,216379
4-May-10,24.41,24.50,24.04,24.21,161603
3-May-10,24.50,24.55,24.00,24.49,188828
30-Apr-10,24.40,24.85,24.22,24.58,276504
29-Apr-10,24.02,24.34,23.84,24.20,179368
28-Apr-10,24.09,24.16,23.48,24.07,257700
27-Apr-10,24.54,24.74,24.04,24.10,346133
26-Apr-10,24.58,24.80,24.52,24.71,162917
23-Apr-10,24.55,24.56,24.27,24.53,154988
22-Apr-10,24.51,24.78,24.33,24.55,150742
21-Apr-10,24.49,24.95,24.49,24.69,176329
20-Apr-10,24.30,24.71,24.18,24.61,219444
19-Apr-10,24.04,24.47,23.89,24.45,337977
16-Apr-10,23.82,24.26,23.80,24.04,170011
15-Apr-10,24.22,24.68,23.96,23.98,239469
14-Apr-10,24.21,24.27,23.90,24.15,187673
13-Apr-10,23.86,24.27,23.76,24.02,274780
12-Apr-10,23.78,23.81,23.58,23.81,114150
9-Apr-10,23.58,23.76,23.40,23.69,173432
8-Apr-10,23.97,23.99,23.53,23.73,266724
7-Apr-10,22.68,24.11,22.68,24.07,499139
6-Apr-10,22.37,22.75,22.30,22.64,271637
5-Apr-10,22.56,22.65,22.39,22.47,178118
1-Apr-10,22.07,22.70,22.07,22.48,236391
31-Mar-10,22.16,22.25,21.99,21.99,138173
30-Mar-10,22.00,22.17,22.00,22.11,104040
29-Mar-10,22.00,22.14,21.75,22.06,140779
26-Mar-10,22.04,22.10,21.98,22.02,250676
25-Mar-10,22.29,22.29,22.00,22.10,186230
24-Mar-10,22.27,22.48,22.19,22.27,161926
23-Mar-10,22.13,22.30,22.00,22.27,193906
22-Mar-10,21.91,22.25,21.91,22.09,127620
19-Mar-10,22.01,22.16,21.98,22.09,196093
18-Mar-10,22.12,22.14,21.85,22.03,188499
17-Mar-10,22.13,22.18,21.93,22.05,169195
16-Mar-10,21.71,22.15,21.65,22.08,209747
15-Mar-10,21.48,21.78,21.41,21.72,199578
12-Mar-10,21.49,21.73,21.33,21.72,157139
11-Mar-10,21.18,21.42,21.18,21.42,78165
10-Mar-10,21.13,21.32,21.11,21.28,168493
9-Mar-10,21.18,21.32,21.13,21.23,178959
8-Mar-10,21.31,21.31,21.03,21.25,134244
5-Mar-10,21.11,21.22,21.06,21.19,89476
4-Mar-10,21.10,21.14,21.01,21.06,170316
3-Mar-10,20.90,21.25,20.80,21.07,252352
2-Mar-10,20.53,20.98,20.42,20.91,377728
1-Mar-10,20.03,20.55,20.03,20.47,291283
26-Feb-10,20.09,20.24,19.99,20.05,250904
25-Feb-10,20.00,20.19,19.43,20.19,158128
24-Feb-10,20.01,20.35,19.85,20.05,350291
23-Feb-10,20.09,20.09,19.92,20.00,126480
22-Feb-10,19.91,20.16,19.79,20.05,165229
19-Feb-10,19.50,19.88,19.36,19.77,231891
18-Feb-10,19.32,19.50,19.29,19.43,189687
17-Feb-10,19.16,19.43,19.05,19.39,234943
16-Feb-10,19.46,19.60,19.15,19.25,222759
12-Feb-10,19.00,19.50,18.77,19.50,378585
11-Feb-10,18.92,19.09,18.76,19.09,166556
10-Feb-10,18.80,18.94,18.73,18.94,204030
9-Feb-10,18.73,18.93,18.59,18.77,224856
8-Feb-10,18.42,18.79,18.42,18.60,169919
5-Feb-10,18.63,18.77,18.26,18.50,299886
4-Feb-10,18.63,18.97,18.32,18.54,304245
3-Feb-10,18.29,18.66,18.17,18.56,343908
2-Feb-10,18.25,18.46,18.10,18.42,202316
1-Feb-10,18.50,18.50,18.13,18.30,218557
29-Jan-10,18.58,18.63,18.34,18.35,296697
28-Jan-10,18.24,18.47,18.13,18.35,394552
27-Jan-10,17.85,18.18,17.80,18.12,313063
26-Jan-10,17.89,17.95,17.81,17.85,196162
25-Jan-10,17.95,18.16,17.86,17.89,392000
22-Jan-10,18.00,18.05,17.90,17.91,295640
21-Jan-10,18.15,18.16,17.85,17.91,374309
20-Jan-10,18.35,18.39,17.95,18.05,474389
19-Jan-10,18.31,18.37,18.21,18.32,378666
15-Jan-10,18.50,18.50,18.18,18.25,606772
14-Jan-10,18.65,18.68,18.42,18.47,511505
13-Jan-10,18.58,18.85,18.58,18.67,294837
12-Jan-10,18.75,18.77,18.55,18.61,314588
11-Jan-10,19.66,19.70,18.68,18.72,1454027
8-Jan-10,19.05,19.50,19.05,19.48,163089
7-Jan-10,19.13,19.21,19.04,19.17,194599
6-Jan-10,19.03,19.15,19.00,19.14,190944
5-Jan-10,18.96,19.13,18.91,19.06,253657
4-Jan-10,18.95,19.13,18.90,19.00,185258
31-Dec-09,18.78,19.03,18.78,18.84,206658
30-Dec-09,18.80,18.93,18.60,18.90,154890
29-Dec-09,19.01,19.04,18.65,18.70,233076
28-Dec-09,18.77,19.00,18.75,18.84,275356
24-Dec-09,18.85,18.99,18.58,18.64,145919
23-Dec-09,18.75,18.82,18.60,18.79,178755
22-Dec-09,18.71,18.82,18.50,18.70,214415
21-Dec-09,18.84,19.00,18.62,18.65,294379
18-Dec-09,18.98,19.03,18.37,18.65,739249
17-Dec-09,18.95,19.05,18.57,18.80,625781
16-Dec-09,19.61,19.65,18.71,18.91,381267
15-Dec-09,19.34,19.54,19.20,19.49,458777
14-Dec-09,19.86,19.95,19.46,19.49,266203
11-Dec-09,19.77,19.89,19.61,19.68,186879
10-Dec-09,19.45,19.61,19.30,19.59,215960
9-Dec-09,19.06,19.32,18.85,19.32,182914
8-Dec-09,19.22,19.22,18.85,19.03,160019
7-Dec-09,19.31,19.31,19.07,19.13,86872
4-Dec-09,19.11,19.25,18.90,19.08,135944
3-Dec-09,19.10,19.49,18.68,18.71,213445
2-Dec-09,18.62,19.03,18.50,18.93,341330
1-Dec-09,18.50,18.74,18.32,18.48,538857
30-Nov-09,18.33,18.40,17.89,18.30,278234
27-Nov-09,18.55,18.64,18.25,18.25,93745
25-Nov-09,18.51,19.07,18.41,18.83,156150
24-Nov-09,19.79,20.24,18.34,18.57,833540
23-Nov-09,20.25,20.27,19.68,19.95,268515
20-Nov-09,19.90,20.19,19.82,20.13,117948
19-Nov-09,20.22,20.22,19.72,19.84,92869
18-Nov-09,20.25,20.28,20.00,20.17,55666
17-Nov-09,20.17,20.41,20.04,20.41,151295
16-Nov-09,19.90,20.20,19.80,20.06,93660
13-Nov-09,19.81,20.02,19.74,19.90,58793
12-Nov-09,20.29,20.49,19.84,19.89,67678
11-Nov-09,20.39,20.56,20.03,20.43,198568
10-Nov-09,19.98,20.36,19.98,20.36,248866
9-Nov-09,20.20,20.32,19.93,20.09,104157
6-Nov-09,19.75,20.19,19.70,20.19,149001
5-Nov-09,19.82,19.86,19.51,19.85,77026
4-Nov-09,19.69,19.91,19.46,19.63,171536
3-Nov-09,20.09,20.09,19.33,19.45,157939
2-Nov-09,19.88,20.34,19.44,20.03,306145
30-Oct-09,19.89,20.06,19.65,19.98,238928
29-Oct-09,20.04,20.17,19.90,20.04,103629
28-Oct-09,20.33,20.33,19.91,19.94,84462
27-Oct-09,20.22,20.56,20.08,20.46,97093
26-Oct-09,20.53,20.78,20.10,20.13,167381
23-Oct-09,20.97,21.12,20.61,20.67,183474
22-Oct-09,20.52,21.02,20.38,21.02,163955
21-Oct-09,20.85,21.03,20.56,20.62,69061
20-Oct-09,20.64,20.89,20.59,20.77,102838
19-Oct-09,20.90,21.01,20.60,20.72,95086
16-Oct-09,20.71,21.08,20.71,21.01,113961
15-Oct-09,20.71,21.01,20.71,20.92,135528
14-Oct-09,20.96,21.08,20.82,20.85,137020
13-Oct-09,20.92,21.08,20.71,20.91,130253
12-Oct-09,20.89,21.08,20.80,21.04,126636
9-Oct-09,20.49,20.83,20.49,20.70,158707
8-Oct-09,20.50,20.82,20.46,20.55,112905
7-Oct-09,20.32,20.65,20.13,20.54,80591
6-Oct-09,20.22,20.52,20.22,20.44,89079
5-Oct-09,20.33,20.33,20.07,20.22,190414
2-Oct-09,20.34,20.67,20.11,20.17,174151
1-Oct-09,20.45,20.66,20.21,20.50,197329
30-Sep-09,20.79,20.79,20.13,20.37,499074
29-Sep-09,20.77,20.92,20.55,20.57,155268
28-Sep-09,20.63,20.95,20.56,20.85,236528
25-Sep-09,20.50,20.75,20.50,20.63,395904
24-Sep-09,20.90,20.90,20.42,20.64,105341
23-Sep-09,20.90,21.00,20.71,20.81,176311
22-Sep-09,20.69,20.94,20.55,20.86,137661
21-Sep-09,20.19,20.64,19.68,20.59,171356
18-Sep-09,20.87,21.00,20.33,20.40,216199
17-Sep-09,20.85,20.96,20.60,20.75,106062
16-Sep-09,20.54,20.87,20.37,20.76,72368
15-Sep-09,20.89,20.96,20.41,20.50,158021
14-Sep-09,20.47,20.84,20.47,20.79,107505
11-Sep-09,20.95,20.99,20.81,20.94,134064
10-Sep-09,20.90,21.03,20.68,20.97,145631
9-Sep-09,20.48,20.88,20.47,20.87,131987
8-Sep-09,20.77,20.99,20.58,20.72,84876
4-Sep-09,20.48,20.66,20.25,20.66,137429
3-Sep-09,20.29,20.48,20.07,20.41,122908
2-Sep-09,20.28,20.68,20.05,20.39,291170
1-Sep-09,20.12,21.00,20.06,20.31,234204
31-Aug-09,20.26,20.26,19.76,20.02,159683
28-Aug-09,20.47,20.50,20.00,20.12,131262
27-Aug-09,20.11,20.39,19.72,20.25,117470
26-Aug-09,20.27,20.34,19.70,19.91,131372
25-Aug-09,20.05,20.43,20.05,20.18,90890
24-Aug-09,20.19,20.28,19.83,20.09,126380
21-Aug-09,19.81,20.23,19.65,20.08,106548
20-Aug-09,19.36,19.71,19.36,19.59,59935
19-Aug-09,19.01,19.57,19.01,19.57,116873
18-Aug-09,19.25,19.40,19.19,19.27,112337
17-Aug-09,19.52,19.66,19.22,19.36,199083
14-Aug-09,19.68,20.20,19.57,19.73,284293
13-Aug-09,19.27,19.65,19.04,19.57,191377
12-Aug-09,19.78,19.78,18.55,19.25,256535
11-Aug-09,18.62,18.78,18.46,18.69,120781
10-Aug-09,19.30,19.30,18.65,18.73,233394
7-Aug-09,19.00,19.39,19.00,19.24,384645
6-Aug-09,18.30,18.94,18.30,18.89,304248
5-Aug-09,18.39,18.49,18.12,18.35,508137
4-Aug-09,18.10,18.43,17.99,18.25,160241
3-Aug-09,18.22,18.22,17.70,18.02,101546
31-Jul-09,18.00,18.15,17.89,18.12,176165
30-Jul-09,17.78,18.04,17.50,17.99,165733
29-Jul-09,17.56,17.77,17.50,17.54,194725
28-Jul-09,17.61,17.79,17.50,17.50,91288
27-Jul-09,17.60,17.70,17.22,17.59,124088
24-Jul-09,17.42,17.66,17.25,17.53,222328
23-Jul-09,17.26,17.57,17.20,17.40,179262
22-Jul-09,17.65,17.70,17.13,17.17,234565
21-Jul-09,17.86,17.86,17.57,17.82,174426
20-Jul-09,17.82,17.82,17.53,17.70,120880
17-Jul-09,17.51,17.67,17.29,17.66,183069
16-Jul-09,17.50,17.64,17.34,17.42,249446
15-Jul-09,17.47,17.69,17.20,17.68,124019
14-Jul-09,17.12,17.41,16.88,17.40,94125
13-Jul-09,16.78,17.00,16.50,16.98,189297
10-Jul-09,16.74,16.78,16.52,16.71,103428
9-Jul-09,17.03,17.03,16.60,16.70,84487
8-Jul-09,17.01,17.05,16.71,16.88,143380
7-Jul-09,17.02,17.63,17.00,17.01,254209
6-Jul-09,16.74,17.17,16.57,17.16,407224
2-Jul-09,16.93,17.04,16.54,16.92,201408
1-Jul-09,16.85,17.40,16.70,17.17,429779
30-Jun-09,16.76,16.86,15.88,16.64,503308
29-Jun-09,16.16,16.85,16.11,16.76,558626
26-Jun-09,16.30,16.35,15.99,16.25,1150025
25-Jun-09,16.20,16.46,16.12,16.28,358488
24-Jun-09,16.76,16.77,16.28,16.32,502152
23-Jun-09,17.08,17.30,16.69,16.69,449008
22-Jun-09,17.06,17.19,16.94,16.94,192294
19-Jun-09,17.30,17.42,17.12,17.30,242486
18-Jun-09,17.25,17.42,16.91,17.10,310060
17-Jun-09,16.42,17.30,16.42,17.21,184646
16-Jun-09,16.80,16.90,16.46,16.49,208838
15-Jun-09,17.12,17.12,16.43,16.64,132703
12-Jun-09,17.01,17.11,16.77,17.06,130994
11-Jun-09,17.29,17.56,17.14,17.28,172020
10-Jun-09,17.19,17.29,16.90,17.27,154884
9-Jun-09,17.25,17.32,16.85,16.92,173102
8-Jun-09,17.35,17.59,17.03,17.29,223535
5-Jun-09,17.44,17.48,16.95,17.42,166031
4-Jun-09,17.34,17.43,16.68,17.18,235154
3-Jun-09,18.02,18.17,16.94,17.13,300949
2-Jun-09,17.78,18.10,17.65,18.10,289149
1-Jun-09,17.43,18.12,17.33,18.07,151885
29-May-09,17.01,17.16,16.69,17.16,270049
28-May-09,17.45,17.55,16.74,16.78,136530
27-May-09,17.64,17.64,17.17,17.25,223748
26-May-09,16.95,17.64,16.85,17.55,244909
22-May-09,16.96,17.35,16.79,16.87,176444
21-May-09,17.60,17.60,16.66,16.76,321495
20-May-09,17.73,17.93,17.44,17.46,244587
19-May-09,16.75,17.77,16.70,17.72,241788
18-May-09,16.90,16.90,16.34,16.86,275471
15-May-09,16.26,16.49,16.00,16.41,401647
14-May-09,16.62,17.06,16.37,16.44,302319
13-May-09,16.51,16.90,16.50,16.70,208743
12-May-09,17.03,17.14,16.76,16.89,257004
11-May-09,17.75,18.46,16.87,17.15,306278
8-May-09,17.89,18.13,17.60,17.76,165489
7-May-09,17.53,18.09,17.25,18.03,215029
6-May-09,17.51,17.61,16.97,17.41,194887
5-May-09,17.50,17.72,17.23,17.60,281864
4-May-09,17.51,17.81,17.09,17.60,310119
1-May-09,17.82,17.84,17.27,17.67,138664
30-Apr-09,17.96,18.41,17.96,18.18,334016
29-Apr-09,17.13,17.93,16.96,17.85,307898
28-Apr-09,17.10,17.47,17.00,17.13,370944
27-Apr-09,16.85,17.41,16.73,17.08,240274
24-Apr-09,16.87,16.96,16.00,16.89,251978
23-Apr-09,17.42,17.50,16.31,16.65,248810
22-Apr-09,17.11,17.55,16.74,17.55,425920
21-Apr-09,16.80,17.60,16.80,17.60,298425
20-Apr-09,16.66,17.13,16.61,16.81,418552
17-Apr-09,16.43,17.06,16.23,17.00,379565
16-Apr-09,16.23,16.48,15.93,16.48,256740
15-Apr-09,15.76,16.07,15.75,16.04,178620
14-Apr-09,16.02,16.20,15.67,15.77,290870
13-Apr-09,16.51,16.69,15.85,16.02,292081
9-Apr-09,16.44,17.00,15.74,17.00,635172
8-Apr-09,15.22,16.09,15.18,16.02,348437
7-Apr-09,16.16,16.26,15.16,15.24,474304
6-Apr-09,16.50,17.00,16.12,16.26,197507
3-Apr-09,16.75,17.00,16.74,17.00,212685
2-Apr-09,16.21,17.00,16.15,16.89,267855
1-Apr-09,15.99,16.12,15.52,16.04,188504
31-Mar-09,15.41,16.20,15.41,16.01,181726
30-Mar-09,16.00,16.00,15.26,15.41,331173
27-Mar-09,15.10,16.11,15.10,15.85,265376
26-Mar-09,14.89,16.04,14.68,16.04,369813
25-Mar-09,15.31,15.65,14.64,14.68,685400
24-Mar-09,16.22,16.32,15.42,15.45,295311
23-Mar-09,15.90,16.40,15.55,16.13,314804
20-Mar-09,15.83,16.19,15.76,15.85,221646
19-Mar-09,16.33,16.41,15.61,15.71,355252
18-Mar-09,16.85,16.95,15.95,16.03,405512
17-Mar-09,16.62,16.85,16.53,16.75,226913
16-Mar-09,17.00,17.00,16.48,16.67,216632
13-Mar-09,16.69,17.00,16.26,16.75,467968
12-Mar-09,15.55,16.95,15.55,16.85,422910
11-Mar-09,16.20,16.20,15.65,15.70,265226
10-Mar-09,15.70,16.11,15.42,15.85,400879
9-Mar-09,15.62,16.16,15.33,15.49,533258
6-Mar-09,15.58,16.12,15.10,16.05,399726
5-Mar-09,15.94,16.03,15.50,15.64,344450
4-Mar-09,17.02,17.05,16.13,16.20,285775
3-Mar-09,15.99,17.26,15.95,16.86,433830
2-Mar-09,16.44,16.48,15.75,15.84,187276
27-Feb-09,17.00,17.07,16.62,16.77,147280
26-Feb-09,17.56,17.63,17.05,17.26,241596
25-Feb-09,17.66,17.94,17.28,17.63,112764
24-Feb-09,17.46,17.62,17.13,17.56,155429
23-Feb-09,18.32,18.66,17.50,17.52,123458
20-Feb-09,17.57,18.18,17.55,17.95,135008
19-Feb-09,18.20,18.48,17.79,18.06,212332
18-Feb-09,18.30,18.35,17.47,18.06,208168
17-Feb-09,17.94,18.67,17.86,17.96,244844
13-Feb-09,18.85,19.13,18.77,19.06,185663
12-Feb-09,18.90,19.08,18.34,19.08,161841
11-Feb-09,19.30,19.30,18.24,18.93,259048
10-Feb-09,19.30,19.96,19.01,19.22,354203
9-Feb-09,19.00,19.58,18.76,19.37,214215
6-Feb-09,18.71,19.23,18.64,19.16,173141
5-Feb-09,18.79,18.92,18.35,18.46,133650
4-Feb-09,19.25,19.25,18.54,18.66,158545
3-Feb-09,19.37,19.37,18.66,19.00,181056
2-Feb-09,18.40,19.01,18.23,18.92,175859
30-Jan-09,18.56,18.66,18.18,18.49,170898
29-Jan-09,19.20,19.57,18.71,18.79,168640
28-Jan-09,19.31,19.56,19.03,19.39,236103
27-Jan-09,19.10,19.17,18.54,19.13,114146
26-Jan-09,18.21,18.86,18.08,18.79,100585
23-Jan-09,18.35,18.43,17.81,17.92,363241
22-Jan-09,18.98,18.98,17.74,18.17,296046
21-Jan-09,18.01,19.16,17.84,18.89,297709
20-Jan-09,18.80,18.81,17.67,17.69,211084
16-Jan-09,17.63,19.34,17.63,19.05,271050
15-Jan-09,18.00,18.10,17.43,17.68,179055
14-Jan-09,18.45,18.45,17.60,18.21,395185
13-Jan-09,16.60,18.47,16.21,18.43,402360
12-Jan-09,16.99,17.14,16.79,16.87,340490
9-Jan-09,17.53,17.75,17.02,17.20,184460
8-Jan-09,17.41,17.69,17.17,17.65,195682
7-Jan-09,17.52,17.85,17.28,17.46,143082
6-Jan-09,17.51,17.91,17.41,17.89,201863
5-Jan-09,18.01,18.01,17.05,17.18,242716
2-Jan-09,16.51,18.08,16.33,17.95,367248
31-Dec-08,16.59,16.87,16.21,16.68,210308
30-Dec-08,16.40,16.52,16.07,16.40,159266
29-Dec-08,16.30,16.34,15.83,16.18,277629
26-Dec-08,16.13,16.42,16.13,16.40,151292
24-Dec-08,16.04,16.19,15.51,16.13,172464
23-Dec-08,16.24,17.04,16.01,16.25,237109
22-Dec-08,15.43,16.18,15.28,16.08,465238
19-Dec-08,14.88,15.73,14.66,15.39,1047961
18-Dec-08,15.15,15.20,14.58,14.98,411192
17-Dec-08,15.25,15.44,14.60,15.15,288613
16-Dec-08,14.93,15.35,14.44,15.29,327742
15-Dec-08,15.83,15.89,14.88,14.95,294001
12-Dec-08,16.30,16.32,15.75,15.89,249022
11-Dec-08,16.96,16.97,16.16,16.36,159410
10-Dec-08,16.24,16.91,16.15,16.71,190704
9-Dec-08,15.95,16.88,15.95,16.30,263581
8-Dec-08,15.62,16.50,15.62,16.36,293357
5-Dec-08,15.63,15.76,15.02,15.42,202576
4-Dec-08,15.43,15.78,15.35,15.56,154224
3-Dec-08,14.80,15.73,14.60,15.60,181871
2-Dec-08,15.62,15.62,14.71,14.86,300979
1-Dec-08,15.67,16.16,15.32,15.36,187511
28-Nov-08,16.63,16.85,15.92,15.92,80998
26-Nov-08,15.90,16.54,15.65,16.47,285361
25-Nov-08,15.50,16.95,15.28,16.36,320234
24-Nov-08,14.07,15.09,14.00,14.84,285737
21-Nov-08,14.81,14.99,13.28,13.96,305003
20-Nov-08,15.50,15.73,14.40,14.42,386431
19-Nov-08,17.58,17.69,15.80,15.86,232378
18-Nov-08,18.27,18.34,17.08,17.58,201558
17-Nov-08,18.53,18.76,18.21,18.25,199076
14-Nov-08,19.59,19.59,18.69,18.74,73241
13-Nov-08,18.90,19.05,18.00,19.05,178495
12-Nov-08,18.24,18.95,18.24,18.61,132907
11-Nov-08,18.65,19.38,18.52,18.52,115745
10-Nov-08,19.10,19.24,18.51,18.93,130559
7-Nov-08,18.79,19.44,18.79,19.13,99905
6-Nov-08,18.67,19.06,18.67,18.87,193777
5-Nov-08,18.88,19.20,18.87,18.87,108716
4-Nov-08,19.03,19.52,18.87,18.88,107433
3-Nov-08,18.90,19.08,18.72,18.87,250080
31-Oct-08,18.77,19.26,18.63,19.00,308346
30-Oct-08,18.98,19.24,18.27,18.72,132250
29-Oct-08,19.43,20.11,18.52,18.66,200414
28-Oct-08,17.82,19.30,17.54,19.24,129563
27-Oct-08,17.70,17.96,17.27,17.41,325087
24-Oct-08,18.31,18.31,17.26,17.66,198075
23-Oct-08,17.97,18.71,17.30,18.19,312672
22-Oct-08,18.12,18.21,17.59,17.97,260702
21-Oct-08,18.17,18.48,17.96,18.27,374164
20-Oct-08,18.09,18.11,17.91,18.11,371492
17-Oct-08,17.57,18.29,16.98,18.10,239112
16-Oct-08,16.85,17.75,16.50,17.58,404175
15-Oct-08,18.00,18.12,16.75,16.75,153901
14-Oct-08,19.46,19.47,18.04,18.26,126257
13-Oct-08,17.45,18.89,17.33,18.50,289793
10-Oct-08,17.00,18.54,17.00,17.25,436263
9-Oct-08,18.60,18.95,18.10,18.18,336910
8-Oct-08,18.11,18.74,18.00,18.21,418503
7-Oct-08,19.80,20.21,18.41,18.68,259030
6-Oct-08,15.62,20.10,18.53,19.80,368046
3-Oct-08,20.84,21.11,20.36,20.36,216008
2-Oct-08,20.64,21.11,20.50,20.84,197103
1-Oct-08,20.22,20.98,20.00,20.88,311172
30-Sep-08,20.00,20.43,19.08,20.16,347310
29-Sep-08,18.50,20.19,18.03,19.78,267675
26-Sep-08,20.10,20.44,19.70,20.21,349882
25-Sep-08,20.24,20.45,19.95,20.21,698333
24-Sep-08,21.05,21.10,20.25,20.30,241460
23-Sep-08,21.37,21.86,20.81,20.81,255462
22-Sep-08,21.69,21.92,21.26,21.53,197343
19-Sep-08,0.01,22.85,18.81,21.96,427568
18-Sep-08,22.45,22.72,21.99,22.20,294993
17-Sep-08,22.00,22.75,22.00,22.50,283957
16-Sep-08,22.00,22.37,21.78,22.24,243749
15-Sep-08,22.51,22.62,21.89,22.35,332789
12-Sep-08,22.58,22.89,22.19,22.89,326059
11-Sep-08,22.70,23.00,22.59,22.90,266984
10-Sep-08,22.76,23.09,22.66,22.86,299279
9-Sep-08,24.16,24.17,22.82,22.82,76607
8-Sep-08,23.69,24.13,23.50,24.00,65265
5-Sep-08,23.57,23.69,23.24,23.50,132132
4-Sep-08,23.80,23.81,23.44,23.44,68691
3-Sep-08,23.45,24.00,23.45,23.73,88887
2-Sep-08,23.99,24.00,23.66,23.69,40269
29-Aug-08,23.19,23.84,23.12,23.78,92903
28-Aug-08,23.09,23.73,23.09,23.39,45183
27-Aug-08,22.95,23.32,22.90,23.09,100880
26-Aug-08,22.86,23.14,22.86,23.12,108300
25-Aug-08,23.09,23.16,22.86,22.98,153288
22-Aug-08,22.43,23.02,22.06,23.02,86570
21-Aug-08,23.27,23.27,21.72,22.56,147056
20-Aug-08,23.81,23.86,23.11,23.34,54434
19-Aug-08,23.83,23.87,23.20,23.64,48601
18-Aug-08,24.27,24.27,23.51,23.68,101596
15-Aug-08,24.03,24.23,23.75,24.17,148604
14-Aug-08,24.03,24.10,23.87,24.05,77049
13-Aug-08,24.10,24.10,23.41,23.98,84249
12-Aug-08,21.15,24.17,23.15,24.02,128211
11-Aug-08,24.20,24.80,23.84,23.86,180532
8-Aug-08,24.00,24.19,23.61,24.19,103538
7-Aug-08,23.72,23.95,23.20,23.95,94279
6-Aug-08,23.28,23.61,23.26,23.59,101096
5-Aug-08,23.08,23.58,23.08,23.55,97749
4-Aug-08,23.20,23.41,23.08,23.16,39885
1-Aug-08,23.73,23.73,23.00,23.43,72617
31-Jul-08,23.44,23.60,22.91,23.15,102176
30-Jul-08,23.51,23.59,23.03,23.51,80991
29-Jul-08,23.00,23.37,22.89,23.06,152648
28-Jul-08,23.16,23.60,22.83,22.94,58201
25-Jul-08,22.44,23.39,22.44,23.16,114673
24-Jul-08,23.00,23.09,22.51,22.64,169116
23-Jul-08,23.08,23.34,22.60,22.95,121218
22-Jul-08,23.30,23.30,22.80,23.08,148010
21-Jul-08,23.52,23.62,23.18,23.30,39483
18-Jul-08,23.26,23.32,23.01,23.18,54792
17-Jul-08,22.84,23.14,22.84,23.04,178096
16-Jul-08,22.82,23.23,22.75,23.00,47842
15-Jul-08,22.72,23.07,22.31,22.82,135558
14-Jul-08,23.52,23.60,22.70,23.10,121867
11-Jul-08,23.14,23.53,22.52,23.26,212168
10-Jul-08,22.70,23.49,22.41,23.14,179287
9-Jul-08,22.40,23.00,22.38,22.70,89201
8-Jul-08,21.79,22.72,21.45,22.68,94145
7-Jul-08,22.21,22.36,21.79,21.79,126476
3-Jul-08,21.89,22.43,21.71,22.21,63045
2-Jul-08,22.90,22.90,21.83,21.89,113098
1-Jul-08,21.65,22.65,21.49,22.58,239679
30-Jun-08,23.43,24.14,21.40,21.40,196077
27-Jun-08,22.55,23.72,22.09,23.43,550050
26-Jun-08,22.09,22.62,22.03,22.29,165048
25-Jun-08,22.80,23.20,22.46,22.46,240832
24-Jun-08,23.68,24.00,22.80,22.80,130766
23-Jun-08,23.86,23.86,23.30,23.76,105630
20-Jun-08,23.92,23.97,23.23,23.86,517870
19-Jun-08,23.41,23.41,22.74,23.01,78066
18-Jun-08,23.10,23.31,22.31,23.07,130111
17-Jun-08,22.16,23.05,21.75,22.87,253216
16-Jun-08,21.94,22.37,21.92,22.01,121430
13-Jun-08,22.60,22.85,21.67,21.98,141607
12-Jun-08,22.96,23.25,22.15,22.60,154809
11-Jun-08,23.46,23.72,22.51,23.11,213602
10-Jun-08,23.02,23.75,22.51,23.56,357418
9-Jun-08,23.00,23.30,22.74,23.02,194782
6-Jun-08,23.00,23.00,22.65,22.99,123063
5-Jun-08,22.81,23.20,22.71,23.08,135028
4-Jun-08,22.41,23.01,22.10,22.97,142965
3-Jun-08,22.73,23.24,22.20,22.41,75018
2-Jun-08,21.79,23.11,21.79,22.95,138683
30-May-08,21.46,22.15,21.46,22.15,501213
29-May-08,21.61,21.75,21.48,21.67,192555
28-May-08,22.35,22.55,21.32,21.62,141749
27-May-08,22.93,23.05,22.07,22.14,117402
23-May-08,23.64,23.64,22.91,22.93,79186
22-May-08,23.51,23.62,23.07,23.28,142444
21-May-08,23.99,23.99,23.42,23.62,201182
20-May-08,24.00,24.24,23.50,23.76,127455
19-May-08,23.89,24.34,23.84,24.29,213339
16-May-08,23.75,23.97,23.50,23.56,245650
15-May-08,22.50,23.95,22.48,23.51,440666
14-May-08,21.25,23.36,21.25,22.55,429871
13-May-08,20.51,21.58,20.28,21.43,306021
12-May-08,19.82,20.88,19.82,20.81,159591
9-May-08,19.41,19.91,19.41,19.82,34279
8-May-08,19.28,19.81,19.28,19.55,110425
7-May-08,18.98,19.44,18.92,19.32,130772
6-May-08,18.90,19.16,18.80,18.98,126948
5-May-08,19.31,19.47,18.95,19.08,87370
2-May-08,19.35,19.45,18.83,19.28,116639
1-May-08,19.19,19.33,18.66,19.30,174510
30-Apr-08,18.24,19.13,18.10,19.04,135516
29-Apr-08,19.18,19.18,18.10,18.29,296330
28-Apr-08,19.58,19.61,18.50,19.06,124900
25-Apr-08,18.55,19.98,18.40,19.67,191787
24-Apr-08,17.91,18.35,17.80,18.22,233662
23-Apr-08,18.21,18.21,17.75,18.02,148102
22-Apr-08,18.05,18.32,17.94,18.23,378478
21-Apr-08,18.15,18.34,17.90,18.12,460944
18-Apr-08,18.25,18.41,17.90,18.21,399307
17-Apr-08,18.73,18.78,17.98,18.01,739871
16-Apr-08,19.30,19.30,18.83,18.92,397051
15-Apr-08,19.62,19.62,18.95,19.38,921243
14-Apr-08,19.50,19.86,19.40,19.71,671124
11-Apr-08,19.43,19.55,18.65,19.50,873490
10-Apr-08,20.00,20.33,19.29,19.43,1159100
9-Apr-08,19.41,20.26,19.41,20.05,628900
8-Apr-08,18.33,20.12,18.33,19.97,839022
7-Apr-08,19.70,19.99,19.00,19.71,1912159
4-Apr-08,20.50,20.62,20.03,20.37,1006924
3-Apr-08,21.80,21.80,19.60,20.30,2366500
2-Apr-08,21.60,23.97,20.90,20.90,1326130
1-Apr-08,21.90,22.10,20.00,21.50,2030435
31-Mar-08,23.01,23.57,21.04,22.10,3767100
28-Mar-08,23.35,23.55,23.15,23.15,87900
27-Mar-08,23.00,23.52,22.80,23.33,28500
26-Mar-08,23.00,23.60,23.00,23.00,3800
25-Mar-08,20.25,23.00,20.25,23.00,10600
24-Mar-08,18.50,20.25,18.50,19.75,10000
20-Mar-08,18.00,18.00,18.00,18.00,1200
