﻿Date,Open,High,Low,Close,Volume
20-Jun-17,13.50,13.60,13.25,13.35,672009
19-Jun-17,13.25,13.60,13.15,13.45,747313
16-Jun-17,13.00,13.30,13.00,13.20,730626
15-Jun-17,13.25,13.35,13.10,13.25,586201
14-Jun-17,13.55,13.55,13.30,13.40,904701
13-Jun-17,13.70,13.80,13.50,13.55,1141863
12-Jun-17,13.55,13.95,13.42,13.70,1801792
9-Jun-17,13.35,13.60,13.20,13.55,1043449
8-Jun-17,13.25,13.50,13.00,13.30,917090
7-Jun-17,13.55,13.55,13.10,13.30,1369332
6-Jun-17,12.95,13.65,12.80,13.50,1940014
5-Jun-17,13.10,13.10,12.70,12.95,707284
2-Jun-17,12.80,13.10,12.55,13.05,1093928
1-Jun-17,12.40,12.70,12.25,12.70,1530707
31-May-17,12.25,12.40,12.05,12.35,730226
30-May-17,12.25,12.50,12.10,12.25,799693
26-May-17,12.25,12.40,12.15,12.30,561968
25-May-17,12.40,12.45,12.20,12.25,480210
24-May-17,12.50,12.55,12.25,12.40,434201
23-May-17,12.55,12.75,12.15,12.45,682850
22-May-17,12.40,12.60,12.30,12.55,481678
19-May-17,12.25,12.40,12.15,12.40,2159414
18-May-17,12.20,12.30,12.10,12.25,1126994
17-May-17,12.45,12.45,12.10,12.25,824977
16-May-17,12.80,12.85,12.40,12.55,553488
15-May-17,12.70,13.00,12.65,12.80,690677
12-May-17,12.70,12.90,12.45,12.50,413385
11-May-17,12.95,13.05,12.65,12.70,664849
10-May-17,12.85,12.95,12.62,12.90,762745
9-May-17,13.05,13.15,12.78,12.95,488047
8-May-17,13.00,13.15,12.85,13.10,771729
5-May-17,13.25,13.25,12.88,13.00,976313
4-May-17,11.60,13.35,11.60,13.15,1704642
3-May-17,11.80,11.90,11.70,11.75,1026451
2-May-17,11.65,11.90,11.60,11.90,881407
1-May-17,11.50,11.65,11.40,11.60,570209
28-Apr-17,11.80,11.80,11.35,11.50,700957
27-Apr-17,11.55,11.80,11.30,11.75,1539039
26-Apr-17,11.50,11.72,11.45,11.50,1559629
25-Apr-17,11.70,11.70,11.40,11.50,670481
24-Apr-17,11.90,11.90,11.60,11.60,731939
21-Apr-17,11.55,11.78,11.40,11.70,816268
20-Apr-17,11.35,11.95,11.30,11.60,2300366
19-Apr-17,10.85,11.30,10.60,11.25,1460727
18-Apr-17,10.45,10.85,10.45,10.75,860384
17-Apr-17,10.60,10.68,10.42,10.55,631008
13-Apr-17,10.55,10.70,10.45,10.60,809676
12-Apr-17,10.80,10.80,10.20,10.60,1367184
11-Apr-17,10.70,10.90,10.60,10.80,745496
10-Apr-17,10.55,10.90,10.45,10.75,825774
7-Apr-17,10.30,10.55,10.20,10.55,992065
6-Apr-17,9.95,10.40,9.90,10.35,821128
5-Apr-17,10.15,10.25,9.90,9.95,906869
4-Apr-17,10.20,10.20,9.95,10.05,625430
3-Apr-17,10.10,10.40,10.02,10.25,930906
31-Mar-17,9.80,10.25,9.78,10.15,992148
30-Mar-17,9.40,9.80,9.35,9.75,685233
29-Mar-17,9.30,9.70,9.30,9.40,881986
28-Mar-17,9.45,9.60,9.25,9.35,1153602
27-Mar-17,9.30,9.60,9.25,9.45,788782
24-Mar-17,9.55,9.75,9.45,9.45,441819
23-Mar-17,9.70,9.80,9.45,9.55,763508
22-Mar-17,9.65,9.80,9.42,9.70,1061449
21-Mar-17,10.10,10.20,9.62,9.65,835798
20-Mar-17,9.75,10.20,9.75,10.00,518688
17-Mar-17,9.70,10.20,9.70,10.00,2183119
16-Mar-17,9.55,9.75,9.55,9.70,868385
15-Mar-17,9.50,9.65,9.40,9.55,573449
14-Mar-17,9.50,9.75,9.40,9.40,479043
13-Mar-17,9.60,9.75,9.50,9.60,497813
10-Mar-17,9.80,10.10,9.45,9.55,754257
9-Mar-17,9.95,10.10,9.65,9.80,874114
8-Mar-17,10.05,10.20,9.95,9.95,709929
7-Mar-17,10.10,10.25,9.98,10.00,936464
6-Mar-17,10.45,10.45,10.10,10.15,843889
3-Mar-17,10.75,10.75,10.45,10.55,814242
2-Mar-17,10.95,11.05,10.65,10.70,542285
1-Mar-17,11.15,11.30,10.90,11.00,1326291
28-Feb-17,10.70,11.15,10.50,11.05,1501424
27-Feb-17,10.40,10.80,10.30,10.75,1290445
24-Feb-17,10.55,10.75,10.30,10.35,798961
23-Feb-17,11.00,11.29,10.30,10.65,1858905
22-Feb-17,11.20,11.30,11.05,11.15,615355
21-Feb-17,11.30,11.40,11.15,11.20,733159
17-Feb-17,10.85,11.35,10.75,11.30,1193904
16-Feb-17,10.80,10.95,10.60,10.75,1401290
15-Feb-17,10.05,10.85,10.05,10.75,2857766
14-Feb-17,10.05,10.15,9.95,10.10,1383044
13-Feb-17,10.35,10.35,10.05,10.10,607312
10-Feb-17,10.20,10.50,10.15,10.25,609625
9-Feb-17,10.35,10.55,10.10,10.20,814204
8-Feb-17,10.60,10.90,10.25,10.35,461180
7-Feb-17,10.95,11.20,10.55,10.70,765426
6-Feb-17,11.05,11.10,10.90,10.90,522984
3-Feb-17,11.15,11.20,10.98,11.05,377174
2-Feb-17,10.85,11.05,10.80,11.05,613740
1-Feb-17,11.35,11.80,10.75,10.85,1113447
31-Jan-17,10.75,11.45,10.75,11.30,1497558
30-Jan-17,10.80,10.80,10.55,10.65,278176
27-Jan-17,10.90,11.00,10.75,10.80,263024
26-Jan-17,10.85,10.96,10.80,10.90,231340
25-Jan-17,10.70,10.90,10.65,10.90,319190
24-Jan-17,10.55,10.75,10.45,10.60,363895
23-Jan-17,10.75,10.85,10.45,10.55,374384
20-Jan-17,10.60,11.10,10.60,10.75,533932
19-Jan-17,10.85,11.00,10.60,10.60,317805
18-Jan-17,11.00,11.15,10.45,10.80,504075
17-Jan-17,11.05,11.25,11.00,11.05,323122
13-Jan-17,11.15,11.40,11.05,11.10,603735
12-Jan-17,11.25,11.40,11.05,11.10,286550
11-Jan-17,11.00,11.60,11.00,11.30,636961
10-Jan-17,11.00,11.05,10.90,11.00,445480
9-Jan-17,11.15,11.15,10.95,11.05,663451
6-Jan-17,11.05,11.25,10.90,11.10,856751
5-Jan-17,10.95,11.16,10.95,11.00,1045560
4-Jan-17,11.05,11.20,10.95,10.95,1056812
3-Jan-17,11.00,11.08,10.85,11.00,1083669
30-Dec-16,10.90,10.95,10.65,10.85,720361
29-Dec-16,10.95,10.95,10.70,10.80,388475
28-Dec-16,11.05,11.20,10.85,10.85,487934
27-Dec-16,11.20,11.30,10.85,11.10,528492
23-Dec-16,11.00,11.30,10.90,11.25,522916
22-Dec-16,10.90,11.10,10.85,10.95,1477896
21-Dec-16,11.15,11.20,10.90,10.90,367073
20-Dec-16,11.10,11.25,10.90,11.10,501674
19-Dec-16,11.05,11.20,10.95,11.00,634084
16-Dec-16,10.85,11.25,10.65,11.00,1382576
15-Dec-16,10.70,10.90,10.65,10.80,578631
14-Dec-16,10.75,11.00,10.55,10.70,526377
13-Dec-16,10.95,11.15,10.75,10.80,1000586
12-Dec-16,11.05,11.30,10.70,10.95,1756392
9-Dec-16,11.05,11.25,10.95,11.15,2263232
8-Dec-16,11.10,11.10,10.80,11.00,1972829
7-Dec-16,10.95,11.10,10.85,11.05,1560470
6-Dec-16,11.05,11.40,10.95,11.00,950032
5-Dec-16,11.10,11.20,11.05,11.10,573740
2-Dec-16,11.00,11.15,10.90,11.05,347209
1-Dec-16,11.10,11.25,11.00,11.00,837420
30-Nov-16,11.20,11.50,11.05,11.05,584751
29-Nov-16,11.15,11.25,11.00,11.10,820613
28-Nov-16,11.20,11.25,11.00,11.10,2271656
25-Nov-16,11.20,11.29,11.08,11.20,322769
23-Nov-16,10.85,11.20,10.85,11.15,979121
22-Nov-16,11.35,11.75,11.20,11.20,528696
21-Nov-16,11.30,11.30,11.15,11.25,472685
18-Nov-16,11.20,11.45,11.10,11.25,1027409
17-Nov-16,11.10,11.40,11.00,11.20,891019
16-Nov-16,11.25,11.45,10.88,11.00,1280078
15-Nov-16,11.65,11.65,11.20,11.35,705224
14-Nov-16,11.40,11.65,11.25,11.60,716630
11-Nov-16,11.10,11.55,11.00,11.30,1149715
10-Nov-16,10.75,11.15,10.70,11.05,1139181
9-Nov-16,10.15,10.70,10.00,10.60,1256367
8-Nov-16,9.70,10.25,9.65,10.25,1899496
7-Nov-16,9.70,9.80,9.50,9.75,2232345
4-Nov-16,9.20,9.65,9.20,9.50,1830552
3-Nov-16,11.15,11.55,9.15,9.35,6970963
2-Nov-16,12.60,12.85,12.35,12.40,451594
1-Nov-16,12.65,12.82,12.60,12.65,403659
31-Oct-16,13.00,13.30,12.65,12.65,832640
28-Oct-16,12.95,13.05,12.90,13.00,351085
27-Oct-16,12.90,13.10,12.85,12.90,395995
26-Oct-16,13.15,13.20,12.80,12.90,2714737
25-Oct-16,13.35,13.35,13.12,13.15,323288
24-Oct-16,13.25,13.50,13.25,13.30,248834
21-Oct-16,13.05,13.35,13.00,13.25,285337
20-Oct-16,13.20,13.30,13.10,13.20,177462
19-Oct-16,13.05,13.35,13.05,13.15,553866
18-Oct-16,13.30,13.30,13.05,13.10,402402
17-Oct-16,13.20,13.25,13.15,13.20,428873
14-Oct-16,13.23,13.32,13.11,13.22,498752
13-Oct-16,13.23,13.37,13.07,13.21,676873
12-Oct-16,13.25,13.74,13.20,13.33,356478
11-Oct-16,13.39,13.40,13.10,13.21,349435
10-Oct-16,13.23,13.45,13.23,13.40,376462
7-Oct-16,13.36,13.36,13.06,13.10,283855
6-Oct-16,13.25,13.41,13.17,13.40,257037
5-Oct-16,13.10,13.72,13.01,13.27,438017
4-Oct-16,13.34,13.46,13.01,13.04,320215
3-Oct-16,13.39,13.60,13.24,13.29,501275
30-Sep-16,13.22,13.50,13.14,13.41,1175244
29-Sep-16,12.95,13.36,12.90,13.14,904879
28-Sep-16,12.99,12.99,12.80,12.91,680945
27-Sep-16,12.81,13.11,12.80,12.94,575602
26-Sep-16,13.22,13.24,12.80,12.91,1992849
23-Sep-16,14.26,14.37,12.98,13.26,4351242
22-Sep-16,14.31,14.91,14.31,14.89,673826
21-Sep-16,14.69,14.82,14.28,14.29,663596
20-Sep-16,14.62,14.85,14.58,14.67,390917
19-Sep-16,14.76,14.79,14.43,14.59,453569
16-Sep-16,14.93,15.32,14.56,14.67,1057351
15-Sep-16,14.87,14.99,14.76,14.92,461367
14-Sep-16,15.09,15.24,14.86,14.86,284711
13-Sep-16,15.20,15.27,14.92,15.12,404803
12-Sep-16,15.08,15.47,15.08,15.39,543517
9-Sep-16,15.59,15.71,15.18,15.18,494647
8-Sep-16,15.86,15.86,15.69,15.72,269478
7-Sep-16,15.86,15.94,15.82,15.89,257592
6-Sep-16,16.02,16.18,15.78,15.86,390951
2-Sep-16,16.02,16.11,15.93,16.02,445150
1-Sep-16,15.92,16.02,15.81,15.94,444951
31-Aug-16,15.95,16.01,15.77,15.95,387251
30-Aug-16,15.79,15.98,15.77,15.94,768246
29-Aug-16,15.73,15.86,15.68,15.85,446419
26-Aug-16,15.61,15.91,15.61,15.74,723308
25-Aug-16,15.34,15.63,15.28,15.62,431895
24-Aug-16,15.44,15.51,15.24,15.36,419457
23-Aug-16,15.24,15.44,15.21,15.40,373763
22-Aug-16,15.52,15.72,15.20,15.22,579149
19-Aug-16,15.42,15.70,15.39,15.50,1237436
18-Aug-16,15.26,15.43,14.81,15.41,714989
17-Aug-16,15.06,15.22,14.82,15.21,601487
16-Aug-16,15.18,15.38,14.98,15.10,463061
15-Aug-16,14.79,15.28,14.74,15.18,529213
12-Aug-16,14.69,14.76,14.45,14.72,843900
11-Aug-16,14.90,15.02,14.43,14.73,885198
10-Aug-16,14.96,15.09,14.85,14.89,620620
9-Aug-16,15.00,15.18,14.90,14.98,707564
8-Aug-16,15.23,15.35,14.98,15.02,1143063
5-Aug-16,14.87,15.59,14.77,15.32,1468208
4-Aug-16,16.34,16.54,14.40,15.08,4208229
3-Aug-16,17.20,17.36,17.06,17.35,872826
2-Aug-16,17.37,17.40,17.13,17.18,807287
1-Aug-16,17.59,17.69,17.24,17.38,853340
29-Jul-16,17.09,17.26,16.84,16.95,677553
28-Jul-16,17.10,17.16,16.94,17.14,439238
27-Jul-16,17.27,17.27,16.99,17.16,358914
26-Jul-16,17.13,17.24,16.86,17.20,246814
25-Jul-16,17.25,17.25,16.97,17.10,285400
22-Jul-16,17.02,17.24,16.86,17.22,430637
21-Jul-16,17.01,17.27,16.85,17.01,411421
20-Jul-16,16.84,17.19,16.75,17.05,289582
19-Jul-16,16.74,16.85,16.57,16.75,813795
18-Jul-16,16.82,16.85,16.64,16.79,619452
15-Jul-16,17.14,17.14,16.73,16.87,361987
14-Jul-16,17.08,17.22,16.75,16.82,387164
13-Jul-16,16.85,17.12,16.78,16.96,713831
12-Jul-16,16.54,16.82,16.40,16.76,606462
11-Jul-16,16.00,16.45,15.96,16.39,640164
8-Jul-16,15.76,16.02,15.64,15.92,684812
7-Jul-16,15.84,16.06,15.42,15.58,752189
6-Jul-16,15.65,15.87,15.48,15.83,433213
5-Jul-16,15.78,15.98,15.52,15.70,596926
1-Jul-16,15.64,15.97,15.44,15.89,466599
30-Jun-16,15.35,15.65,15.21,15.63,1191013
29-Jun-16,15.14,15.33,15.09,15.28,494290
28-Jun-16,15.02,15.27,14.92,15.03,1034377
27-Jun-16,15.45,15.50,14.72,14.79,1673701
24-Jun-16,15.43,15.66,15.34,15.61,3740112
23-Jun-16,15.93,16.22,15.72,16.06,2489982
22-Jun-16,16.22,16.38,15.54,15.83,1569596
21-Jun-16,16.04,16.17,15.48,16.06,3824380
20-Jun-16,16.40,16.56,15.96,16.00,1574023
17-Jun-16,16.77,16.93,16.37,16.40,1999918
16-Jun-16,16.86,16.86,16.56,16.71,764872
15-Jun-16,16.96,17.08,16.87,16.96,544559
14-Jun-16,17.03,17.20,16.90,16.96,660416
13-Jun-16,17.31,17.49,17.08,17.11,571002
10-Jun-16,17.44,17.56,17.09,17.35,790061
9-Jun-16,17.50,17.62,17.22,17.62,690149
8-Jun-16,17.52,17.73,17.42,17.51,969669
7-Jun-16,17.49,17.65,17.43,17.50,707208
6-Jun-16,17.65,17.72,17.35,17.55,1434732
3-Jun-16,17.21,17.34,16.97,17.22,643111
2-Jun-16,17.19,17.34,17.12,17.29,463614
1-Jun-16,17.15,17.29,17.02,17.23,860190
31-May-16,17.25,17.28,17.15,17.20,1038392
27-May-16,17.20,17.38,17.12,17.23,530172
26-May-16,17.23,17.23,17.02,17.15,528447
25-May-16,17.19,17.22,17.00,17.18,650436
24-May-16,17.27,17.27,16.81,17.19,877854
23-May-16,16.89,17.20,16.86,17.12,559192
20-May-16,16.87,17.06,16.60,16.87,845262
19-May-16,16.63,16.80,16.36,16.75,719130
18-May-16,16.67,17.05,16.55,16.70,685590
17-May-16,17.24,17.36,16.48,16.70,2194460
16-May-16,17.55,17.66,17.18,17.23,1771197
13-May-16,17.75,17.81,17.48,17.53,701501
12-May-16,18.12,18.14,17.46,17.75,1335653
11-May-16,18.41,18.44,17.86,18.01,4309361
10-May-16,18.72,19.21,18.50,19.08,542065
9-May-16,18.65,18.83,18.54,18.57,721474
6-May-16,18.99,19.22,18.67,18.77,620200
5-May-16,18.90,19.18,18.90,19.00,761438
4-May-16,19.42,19.42,18.41,18.81,1253012
3-May-16,20.42,20.70,19.99,20.02,703842
2-May-16,20.52,20.77,19.93,20.66,501958
29-Apr-16,20.60,20.77,20.30,20.51,576564
28-Apr-16,20.73,21.08,20.66,20.67,237717
27-Apr-16,20.69,20.88,20.53,20.78,601176
26-Apr-16,20.71,20.93,20.55,20.71,428942
25-Apr-16,20.66,20.70,20.30,20.55,307052
22-Apr-16,20.76,20.95,20.55,20.65,424926
21-Apr-16,20.88,20.96,20.71,20.85,522856
20-Apr-16,20.46,21.01,20.36,20.83,472815
19-Apr-16,20.40,20.45,20.19,20.39,538711
18-Apr-16,20.21,20.35,19.66,20.27,277473
15-Apr-16,20.13,20.35,19.55,20.29,303928
14-Apr-16,20.31,20.35,20.21,20.25,269194
13-Apr-16,20.00,20.34,20.00,20.25,592079
12-Apr-16,19.76,20.02,19.42,19.94,709551
11-Apr-16,19.31,19.87,19.31,19.67,453486
8-Apr-16,19.26,19.35,18.98,19.24,386387
7-Apr-16,19.34,19.49,19.03,19.07,269458
6-Apr-16,19.54,19.64,19.38,19.46,267705
5-Apr-16,19.50,19.73,19.43,19.48,490838
4-Apr-16,20.19,20.19,19.15,19.69,681053
1-Apr-16,19.76,20.29,19.53,20.22,742044
31-Mar-16,19.47,20.01,19.34,19.94,2183804
30-Mar-16,19.65,19.74,19.42,19.44,391418
29-Mar-16,19.26,19.55,18.83,19.53,728739
28-Mar-16,19.75,19.87,19.00,19.29,683550
24-Mar-16,19.33,19.76,19.20,19.68,1131270
23-Mar-16,19.81,19.93,19.44,19.44,710198
22-Mar-16,19.90,20.00,19.80,19.90,591139
21-Mar-16,20.01,20.22,19.72,20.03,576597
18-Mar-16,19.63,20.25,19.62,20.05,1585800
17-Mar-16,19.39,19.62,19.08,19.50,645481
16-Mar-16,19.34,19.51,19.26,19.36,440509
15-Mar-16,19.70,19.79,19.42,19.42,581621
14-Mar-16,19.66,20.12,19.66,19.77,796532
11-Mar-16,19.63,19.80,19.33,19.73,647860
10-Mar-16,19.41,20.10,19.33,19.51,934789
9-Mar-16,19.46,19.58,19.31,19.37,654400
8-Mar-16,20.20,20.31,19.42,19.44,752510
7-Mar-16,19.85,20.34,19.77,20.26,941023
4-Mar-16,19.77,20.34,19.67,19.96,1091768
3-Mar-16,19.40,19.93,19.37,19.77,951317
2-Mar-16,19.49,19.80,19.15,19.49,1186087
1-Mar-16,18.87,19.64,18.85,19.57,1144995
29-Feb-16,18.75,19.00,18.50,18.81,1165950
26-Feb-16,18.71,19.00,18.62,18.78,466558
25-Feb-16,17.41,18.53,17.30,18.50,1547741
24-Feb-16,17.48,17.67,17.16,17.60,741113
23-Feb-16,17.54,17.76,17.30,17.74,786436
22-Feb-16,17.54,17.61,17.39,17.57,466090
19-Feb-16,17.17,17.41,16.86,17.38,418801
18-Feb-16,17.40,17.64,17.05,17.23,403002
17-Feb-16,17.24,17.64,17.05,17.36,711424
16-Feb-16,17.05,17.31,16.86,17.12,470742
12-Feb-16,16.71,16.99,16.50,16.86,506863
11-Feb-16,16.16,16.65,16.00,16.52,706051
10-Feb-16,16.40,16.85,16.26,16.44,655820
9-Feb-16,16.20,16.56,16.20,16.32,755834
8-Feb-16,16.87,16.95,16.34,16.43,660811
5-Feb-16,17.34,17.34,16.96,17.03,797158
4-Feb-16,17.44,17.56,17.24,17.40,711280
3-Feb-16,17.33,17.74,17.01,17.42,1124093
2-Feb-16,17.20,17.48,16.76,16.96,575327
1-Feb-16,17.76,18.26,17.36,17.45,871649
29-Jan-16,17.53,17.85,17.48,17.84,1022536
28-Jan-16,17.67,17.79,17.26,17.52,686883
27-Jan-16,17.58,17.97,17.30,17.52,845927
26-Jan-16,17.25,17.79,17.04,17.61,1483246
25-Jan-16,17.95,18.06,17.16,17.21,1126476
22-Jan-16,17.52,17.84,17.31,17.79,869011
21-Jan-16,17.14,17.50,16.98,17.30,1044545
20-Jan-16,16.82,17.18,16.42,17.01,1040789
19-Jan-16,17.34,17.41,16.90,17.00,661448
15-Jan-16,17.33,17.50,16.92,17.20,897544
14-Jan-16,17.77,18.02,17.43,17.86,788049
13-Jan-16,18.31,18.41,17.43,17.63,602967
12-Jan-16,18.51,18.63,17.92,18.27,811897
11-Jan-16,18.46,18.62,18.26,18.36,871488
8-Jan-16,18.75,19.01,18.36,18.36,1134573
7-Jan-16,19.44,19.57,18.70,18.73,1126802
6-Jan-16,19.85,20.07,19.68,19.76,798558
5-Jan-16,20.39,20.59,20.06,20.11,687376
4-Jan-16,21.39,21.42,20.19,20.47,1370176
31-Dec-15,21.57,22.01,21.54,21.78,1189665
30-Dec-15,21.55,21.81,21.50,21.61,976111
29-Dec-15,21.42,21.73,21.28,21.61,883854
28-Dec-15,21.00,21.35,20.96,21.33,881400
24-Dec-15,20.75,21.26,20.69,21.13,892407
23-Dec-15,20.26,20.91,20.18,20.69,727153
22-Dec-15,20.08,20.25,19.76,20.17,748745
21-Dec-15,19.89,20.14,19.66,20.01,1102824
18-Dec-15,20.48,20.82,19.83,19.85,2086416
17-Dec-15,20.83,20.96,20.44,20.57,2861058
16-Dec-15,20.08,20.80,20.06,20.76,1162809
15-Dec-15,19.90,20.19,19.76,20.00,992478
14-Dec-15,20.19,20.33,19.71,19.77,2957698
11-Dec-15,20.40,20.71,20.14,20.17,781551
10-Dec-15,18.49,20.78,18.31,20.71,990115
9-Dec-15,19.97,20.64,19.91,20.35,1681883
8-Dec-15,19.52,20.28,19.52,19.99,2433163
7-Dec-15,19.74,19.94,19.64,19.73,1525701
4-Dec-15,19.61,20.02,19.61,19.80,1438429
3-Dec-15,19.17,19.94,19.17,19.60,1460175
2-Dec-15,19.38,19.98,19.07,19.13,1065566
1-Dec-15,19.90,19.90,19.39,19.45,917372
30-Nov-15,20.42,20.42,19.73,19.76,817261
27-Nov-15,19.97,20.40,19.91,20.36,448984
25-Nov-15,20.09,20.12,19.12,19.92,801654
24-Nov-15,20.12,20.21,19.79,19.90,1055581
23-Nov-15,19.92,20.35,19.78,20.24,1036372
20-Nov-15,19.61,20.21,19.36,19.99,1026403
19-Nov-15,19.12,19.64,19.04,19.49,867709
18-Nov-15,18.87,19.36,18.78,19.18,1127268
17-Nov-15,19.02,19.50,18.83,18.86,1140393
16-Nov-15,18.51,19.33,18.44,19.12,1088733
13-Nov-15,18.48,19.00,18.40,18.56,1029790
12-Nov-15,19.22,19.44,18.53,18.60,1392903
11-Nov-15,19.39,19.87,19.19,19.36,1139968
10-Nov-15,18.42,19.41,18.36,19.28,1777383
9-Nov-15,18.15,19.00,17.88,18.50,1086010
6-Nov-15,18.94,19.32,17.10,18.15,3242155
5-Nov-15,19.43,19.43,17.75,17.91,4055316
4-Nov-15,20.18,20.23,19.47,19.82,1281329
3-Nov-15,19.76,20.37,19.69,20.13,848689
2-Nov-15,19.59,20.06,19.52,19.86,1264952
30-Oct-15,19.58,19.81,19.40,19.59,1038609
29-Oct-15,20.02,20.31,19.28,19.50,5514672
28-Oct-15,19.34,20.02,19.16,20.00,1318368
27-Oct-15,19.75,19.86,19.00,19.24,1198382
26-Oct-15,20.20,20.35,19.81,19.86,577417
23-Oct-15,20.12,21.43,20.06,20.21,885131
22-Oct-15,20.29,20.29,19.94,20.02,611653
21-Oct-15,20.93,20.94,20.23,20.27,629423
20-Oct-15,20.95,21.31,20.93,20.95,501604
19-Oct-15,20.86,21.01,20.76,20.91,421611
16-Oct-15,21.08,21.33,20.69,20.90,492450
15-Oct-15,20.95,21.13,20.79,21.00,574131
14-Oct-15,21.17,21.38,20.85,20.89,454395
13-Oct-15,21.03,21.50,21.01,21.19,499012
12-Oct-15,21.45,21.48,21.10,21.14,302181
9-Oct-15,21.28,21.44,21.11,21.43,462459
8-Oct-15,21.00,21.27,20.91,21.22,450568
7-Oct-15,20.78,21.03,20.72,21.00,538226
6-Oct-15,21.07,21.16,20.70,20.74,535828
5-Oct-15,21.00,21.27,20.54,20.99,1252116
2-Oct-15,20.15,20.55,19.99,20.54,855689
1-Oct-15,20.25,20.48,19.98,20.36,728798
30-Sep-15,20.38,20.55,20.11,20.31,831857
29-Sep-15,20.34,20.50,19.99,20.24,1000155
28-Sep-15,21.12,21.28,20.28,20.43,891784
25-Sep-15,21.97,21.98,21.17,21.21,722624
24-Sep-15,22.06,22.07,21.52,21.75,803271
23-Sep-15,22.35,22.57,21.98,22.12,575492
22-Sep-15,22.22,22.62,22.00,22.30,849799
21-Sep-15,22.07,22.51,22.04,22.37,1869341
18-Sep-15,21.96,22.28,21.50,21.97,4390662
17-Sep-15,22.70,22.73,22.16,22.19,1326262
16-Sep-15,22.09,22.75,22.02,22.70,823211
15-Sep-15,21.93,22.00,21.44,21.95,2548728
14-Sep-15,22.43,22.45,21.85,21.90,873988
11-Sep-15,22.31,22.54,22.28,22.34,682109
10-Sep-15,22.61,22.61,22.34,22.38,1278901
9-Sep-15,22.74,22.81,22.08,22.15,2628686
8-Sep-15,22.75,23.12,22.71,23.09,529549
4-Sep-15,22.45,22.69,22.31,22.56,559755
3-Sep-15,22.12,22.74,21.90,22.69,991402
2-Sep-15,22.52,22.59,21.46,22.30,1175617
1-Sep-15,22.28,22.71,22.11,22.34,1916103
31-Aug-15,22.60,22.75,22.44,22.58,891047
28-Aug-15,22.61,22.78,22.37,22.70,878456
27-Aug-15,22.64,23.05,22.48,22.75,1523397
26-Aug-15,22.67,22.68,21.66,22.53,1381329
25-Aug-15,22.58,22.91,22.04,22.25,1367944
24-Aug-15,21.51,22.50,21.34,21.96,1383972
21-Aug-15,21.74,22.62,21.63,22.40,1827660
20-Aug-15,22.47,22.51,22.21,22.32,800985
19-Aug-15,22.68,22.91,22.35,22.57,882388
18-Aug-15,23.65,23.68,22.80,22.86,721340
17-Aug-15,23.60,23.73,23.40,23.66,651947
14-Aug-15,23.78,23.87,23.58,23.73,648741
13-Aug-15,23.73,24.33,23.63,23.63,826483
12-Aug-15,22.51,23.99,22.45,23.93,1338009
11-Aug-15,23.29,23.49,22.78,22.80,1432366
10-Aug-15,24.23,24.44,23.54,23.63,794760
7-Aug-15,24.01,24.58,23.97,24.21,1476542
6-Aug-15,25.00,25.29,24.01,24.19,2704391
5-Aug-15,26.44,26.50,26.00,26.09,870197
4-Aug-15,26.03,26.86,26.01,26.32,442076
3-Aug-15,26.17,26.23,25.89,26.01,785353
31-Jul-15,26.00,26.50,25.88,26.13,1017723
30-Jul-15,25.81,26.20,25.73,25.89,682064
29-Jul-15,25.60,26.17,25.53,25.90,486137
28-Jul-15,26.00,26.00,25.45,25.67,1391755
27-Jul-15,26.28,26.59,25.89,25.96,634075
24-Jul-15,26.47,26.66,26.24,26.27,565262
23-Jul-15,26.87,27.04,26.51,26.59,468560
22-Jul-15,26.37,26.93,26.31,26.75,348485
21-Jul-15,26.68,26.96,26.47,26.48,363374
20-Jul-15,26.60,26.84,26.53,26.73,363392
17-Jul-15,26.72,26.86,26.34,26.52,521109
16-Jul-15,26.20,26.72,26.11,26.62,565207
15-Jul-15,26.00,26.16,25.86,26.04,659701
14-Jul-15,25.88,26.20,25.86,26.00,463220
13-Jul-15,25.97,26.19,25.78,25.91,362080
10-Jul-15,25.57,25.85,25.49,25.78,334057
9-Jul-15,25.40,25.70,25.11,25.24,718057
8-Jul-15,25.42,25.67,25.17,25.20,636962
7-Jul-15,25.63,25.78,25.48,25.59,892134
6-Jul-15,25.52,25.75,25.42,25.56,1076083
2-Jul-15,25.77,25.92,25.40,25.60,551119
1-Jul-15,25.38,25.85,25.27,25.68,1160356
30-Jun-15,25.61,25.68,25.11,25.20,1404261
29-Jun-15,25.58,25.98,25.41,25.43,1592672
26-Jun-15,26.20,26.42,25.77,25.77,3799563
25-Jun-15,26.22,26.63,26.17,26.19,701182
24-Jun-15,26.61,26.77,26.14,26.17,753572
23-Jun-15,26.76,26.92,26.43,26.62,1095241
22-Jun-15,26.87,27.07,26.57,26.72,1124288
19-Jun-15,26.68,26.75,26.59,26.71,1176534
18-Jun-15,26.50,26.63,26.38,26.60,738154
17-Jun-15,27.00,27.11,26.35,26.40,896694
16-Jun-15,26.58,27.00,26.50,26.95,863709
15-Jun-15,26.29,26.74,26.17,26.55,889238
12-Jun-15,26.40,26.92,26.38,26.47,771866
11-Jun-15,26.27,26.63,26.10,26.51,456818
10-Jun-15,26.19,26.41,26.07,26.27,652606
9-Jun-15,26.02,26.21,25.97,26.15,719823
8-Jun-15,25.98,26.12,25.80,26.07,590506
5-Jun-15,25.88,26.12,25.73,25.98,1632043
4-Jun-15,26.18,26.39,25.95,25.98,880979
3-Jun-15,27.08,27.14,26.26,26.34,1697703
2-Jun-15,26.75,26.91,26.44,26.52,1534890
1-Jun-15,26.62,26.72,26.25,26.60,1960426
29-May-15,26.24,26.65,26.05,26.38,1435247
28-May-15,26.00,26.31,25.85,26.22,1910917
27-May-15,25.80,25.96,25.43,25.94,1570323
26-May-15,25.64,25.75,25.20,25.71,1597686
22-May-15,25.18,25.90,25.15,25.72,1467863
21-May-15,24.20,25.17,24.20,25.14,1484213
20-May-15,23.90,24.20,23.67,24.18,1511767
19-May-15,23.77,23.94,23.54,23.82,1040843
18-May-15,23.21,23.91,23.10,23.72,2327510
15-May-15,23.41,23.55,23.10,23.29,11112543
14-May-15,23.49,23.64,23.07,23.16,1330088
13-May-15,23.71,23.98,22.99,23.45,1110125
12-May-15,22.92,24.10,22.92,24.05,1021102
11-May-15,23.64,24.06,23.42,23.80,608067
8-May-15,23.91,24.17,23.59,23.64,651781
7-May-15,23.56,24.44,23.24,23.68,698642
6-May-15,22.88,23.57,22.69,23.27,699989
5-May-15,23.25,23.47,22.72,22.86,641818
4-May-15,23.27,23.59,23.24,23.37,469879
1-May-15,22.88,23.41,22.81,23.22,451742
30-Apr-15,23.19,23.35,22.28,22.86,980521
29-Apr-15,23.80,23.89,23.09,23.24,662008
28-Apr-15,23.27,24.04,23.18,23.83,730097
27-Apr-15,23.98,24.45,23.10,23.25,1658483
24-Apr-15,26.40,26.62,24.19,24.21,2073445
23-Apr-15,24.16,24.49,23.99,24.34,289266
22-Apr-15,24.11,24.21,23.92,24.17,429675
21-Apr-15,24.36,24.61,24.05,24.09,650653
20-Apr-15,23.96,24.74,23.87,24.73,440881
17-Apr-15,24.02,24.15,23.65,23.87,603359
16-Apr-15,24.29,24.59,24.18,24.18,856968
15-Apr-15,24.51,24.80,24.26,24.38,589690
14-Apr-15,24.20,24.56,24.20,24.51,946101
13-Apr-15,23.90,24.30,23.90,24.17,1859843
10-Apr-15,23.61,24.03,23.52,23.75,502288
9-Apr-15,23.38,23.58,23.27,23.46,227720
8-Apr-15,23.23,23.46,23.10,23.45,257062
7-Apr-15,23.16,23.47,23.14,23.20,236850
6-Apr-15,23.17,23.55,23.13,23.21,296080
2-Apr-15,23.33,23.64,23.02,23.34,334836
1-Apr-15,23.39,23.70,22.90,23.29,491341
31-Mar-15,23.05,23.56,23.05,23.48,421571
30-Mar-15,23.08,23.44,23.01,23.10,451505
27-Mar-15,22.70,23.11,22.70,23.04,433705
26-Mar-15,22.88,23.17,22.66,22.68,468013
25-Mar-15,23.84,23.97,22.97,22.99,435094
24-Mar-15,23.29,23.80,23.08,23.75,412383
23-Mar-15,23.28,23.52,23.19,23.33,839120
20-Mar-15,23.19,23.44,23.17,23.27,1385185
19-Mar-15,23.28,23.44,23.14,23.16,386408
18-Mar-15,22.99,23.80,22.85,23.40,1736570
17-Mar-15,21.94,23.12,21.55,22.97,1358808
16-Mar-15,22.18,22.25,21.88,22.05,640145
13-Mar-15,22.05,22.09,21.86,22.03,445711
12-Mar-15,21.08,22.04,20.95,22.01,1099392
11-Mar-15,20.59,20.99,20.39,20.94,606229
10-Mar-15,20.47,20.78,20.38,20.60,728792
9-Mar-15,20.47,20.82,20.45,20.67,450488
6-Mar-15,20.25,20.79,20.18,20.48,1005958
5-Mar-15,20.02,20.18,19.71,19.85,560658
4-Mar-15,20.04,20.20,19.82,19.98,478430
3-Mar-15,20.04,20.22,19.89,20.10,841007
2-Mar-15,19.83,20.28,19.70,20.10,1054238
27-Feb-15,20.08,20.25,19.62,19.78,948422
26-Feb-15,20.01,21.06,19.96,20.06,1362248
25-Feb-15,20.15,20.58,20.02,20.19,1579696
24-Feb-15,19.96,20.20,19.95,20.10,833097
23-Feb-15,20.08,20.10,19.93,19.98,315169
20-Feb-15,20.12,20.19,19.85,20.07,405587
19-Feb-15,19.82,20.11,19.79,20.06,563998
18-Feb-15,19.59,19.89,19.58,19.80,757633
17-Feb-15,20.03,20.25,19.51,19.66,454811
13-Feb-15,20.14,20.35,19.90,19.98,637854
12-Feb-15,19.97,20.19,19.84,20.07,253852
11-Feb-15,19.98,20.24,19.78,19.89,218282
10-Feb-15,20.19,20.46,19.78,20.00,186532
9-Feb-15,20.17,20.30,19.89,20.00,601037
6-Feb-15,20.45,20.52,20.11,20.19,301355
5-Feb-15,20.20,20.45,20.19,20.37,327397
4-Feb-15,20.22,20.47,20.00,20.11,420887
3-Feb-15,19.89,20.27,19.88,20.23,1294346
2-Feb-15,19.72,19.94,19.34,19.75,381789
30-Jan-15,19.87,20.24,19.64,19.68,445554
29-Jan-15,19.65,20.00,19.54,20.00,389894
28-Jan-15,19.93,20.33,19.60,19.60,372722
27-Jan-15,19.77,20.01,19.77,19.81,421850
26-Jan-15,20.07,20.29,19.94,20.00,675635
23-Jan-15,19.95,20.11,19.91,20.06,723092
22-Jan-15,19.43,19.92,19.29,19.90,895377
21-Jan-15,19.75,19.88,19.17,19.35,930758
20-Jan-15,19.91,20.24,19.71,19.86,1631643
16-Jan-15,18.86,19.26,18.86,19.26,273913
15-Jan-15,19.18,19.49,18.89,18.93,453461
14-Jan-15,18.55,19.16,18.49,19.14,372580
13-Jan-15,18.86,19.12,18.48,18.69,378583
12-Jan-15,18.88,18.96,18.52,18.68,683946
9-Jan-15,19.32,19.44,18.84,18.87,490142
8-Jan-15,19.42,19.52,19.19,19.35,375056
7-Jan-15,19.85,21.26,19.03,19.37,600173
6-Jan-15,20.25,21.00,19.65,19.68,463412
5-Jan-15,20.45,20.69,20.04,20.18,429424
2-Jan-15,20.85,20.91,20.39,20.59,428943
31-Dec-14,20.93,21.16,20.69,20.71,356953
30-Dec-14,20.80,21.10,20.80,20.91,256565
29-Dec-14,20.83,20.92,20.62,20.87,276974
26-Dec-14,20.77,20.89,20.69,20.81,203690
24-Dec-14,20.87,20.88,20.68,20.75,282480
23-Dec-14,20.47,20.85,20.43,20.78,404168
22-Dec-14,20.30,20.48,20.25,20.40,912280
19-Dec-14,20.28,20.44,20.11,20.28,749387
18-Dec-14,20.43,20.43,20.09,20.25,280989
17-Dec-14,20.06,20.10,19.74,20.10,472337
16-Dec-14,19.93,20.23,19.86,19.98,738531
15-Dec-14,19.96,20.30,19.89,19.95,760048
12-Dec-14,20.06,20.56,19.50,19.87,527715
11-Dec-14,20.13,20.39,19.94,20.30,431275
10-Dec-14,20.22,20.40,19.94,20.00,1056060
9-Dec-14,19.92,20.43,19.76,20.30,1364714
8-Dec-14,20.19,20.40,20.07,20.13,475686
5-Dec-14,19.99,20.29,19.98,20.20,836311
4-Dec-14,19.96,20.08,19.92,19.99,504414
3-Dec-14,19.78,20.01,19.68,19.96,805727
2-Dec-14,19.50,19.80,19.41,19.74,616374
1-Dec-14,19.13,19.66,19.13,19.42,898567
28-Nov-14,19.50,20.00,19.20,19.22,285949
26-Nov-14,19.47,19.70,19.37,19.50,565107
25-Nov-14,19.66,19.72,19.26,19.44,1700198
24-Nov-14,19.79,19.92,19.46,19.60,623927
21-Nov-14,20.28,20.33,19.45,19.76,1009387
20-Nov-14,19.86,20.16,19.86,20.01,429018
19-Nov-14,19.99,20.13,19.89,19.94,581857
18-Nov-14,20.34,20.44,19.99,20.00,886202
17-Nov-14,20.47,20.56,20.08,20.24,849929
14-Nov-14,20.71,20.78,20.44,20.46,481684
13-Nov-14,20.58,20.86,20.52,20.64,1015187
12-Nov-14,20.41,20.68,20.41,20.50,1169746
11-Nov-14,20.53,20.78,20.45,20.49,1120022
10-Nov-14,20.52,20.70,20.31,20.53,821291
7-Nov-14,20.41,20.73,20.41,20.49,1329062
6-Nov-14,20.37,20.68,19.57,20.44,1253146
5-Nov-14,20.42,20.50,20.15,20.22,489556
4-Nov-14,20.16,20.45,20.13,20.30,476630
3-Nov-14,20.09,20.33,19.92,20.24,1307374
31-Oct-14,20.47,20.84,19.85,20.01,765323
30-Oct-14,19.97,20.14,19.84,20.04,308030
29-Oct-14,19.98,20.15,19.91,20.04,242428
28-Oct-14,19.81,20.06,19.72,19.99,504727
27-Oct-14,19.90,19.90,19.66,19.76,314502
24-Oct-14,19.96,20.00,19.88,19.99,150229
23-Oct-14,19.88,20.13,19.79,19.89,459220
22-Oct-14,19.95,20.16,19.65,19.76,265239
21-Oct-14,19.54,20.03,19.36,19.86,676013
20-Oct-14,19.16,19.53,19.16,19.46,277489
17-Oct-14,19.16,19.29,18.83,19.18,527033
16-Oct-14,18.64,18.97,18.51,18.88,749536
15-Oct-14,18.89,19.37,18.75,18.91,477163
14-Oct-14,19.21,19.39,18.96,19.10,595066
13-Oct-14,19.15,19.58,18.98,19.04,301552
10-Oct-14,19.19,19.58,19.11,19.14,798310
9-Oct-14,19.90,19.90,19.31,19.33,689532
8-Oct-14,19.34,20.06,19.18,19.93,781350
7-Oct-14,19.40,19.57,19.23,19.32,565112
6-Oct-14,19.69,19.87,19.39,19.49,174073
3-Oct-14,19.57,19.72,19.48,19.65,271572
2-Oct-14,19.07,19.45,18.98,19.35,170621
1-Oct-14,19.42,19.59,18.96,19.12,374265
30-Sep-14,19.56,19.78,19.30,19.44,626234
29-Sep-14,19.54,19.64,19.27,19.50,280928
26-Sep-14,19.71,19.95,19.68,19.70,437315
25-Sep-14,20.13,20.20,19.71,19.71,258805
24-Sep-14,20.01,20.23,19.83,20.17,591160
23-Sep-14,20.08,20.19,19.81,19.96,963803
22-Sep-14,20.45,20.46,19.90,20.11,436605
19-Sep-14,20.14,20.65,20.10,20.62,3645516
18-Sep-14,20.14,20.30,19.98,20.09,445964
17-Sep-14,19.73,20.14,19.73,20.08,891651
16-Sep-14,20.00,20.16,19.69,19.75,498903
15-Sep-14,19.83,20.10,19.67,20.00,1500553
12-Sep-14,19.54,19.92,19.22,19.84,850762
11-Sep-14,19.35,19.65,19.25,19.50,587028
10-Sep-14,19.30,19.51,19.11,19.46,529338
9-Sep-14,19.36,19.50,18.90,19.30,464484
8-Sep-14,18.86,19.61,18.86,19.42,494558
5-Sep-14,18.75,19.02,18.64,18.84,278280
4-Sep-14,18.86,19.43,18.79,18.85,305537
3-Sep-14,19.47,19.47,18.72,18.86,268390
2-Sep-14,19.23,19.67,19.23,19.43,381074
29-Aug-14,19.00,19.27,18.90,19.20,232158
28-Aug-14,18.99,19.16,18.87,18.98,182737
27-Aug-14,18.96,19.11,18.77,19.02,1447314
26-Aug-14,18.81,19.25,18.64,19.12,1834141
25-Aug-14,19.00,19.04,18.67,18.80,213406
22-Aug-14,18.61,18.97,18.55,18.93,396483
21-Aug-14,18.50,18.70,18.47,18.66,324126
20-Aug-14,18.44,18.66,18.29,18.51,1705137
19-Aug-14,18.08,18.71,18.08,18.57,781265
18-Aug-14,18.72,18.76,18.28,18.60,935420
15-Aug-14,19.12,19.13,18.39,18.57,506081
14-Aug-14,17.89,19.23,17.89,18.84,2378602
13-Aug-14,17.73,18.00,17.51,17.95,684409
12-Aug-14,17.66,17.75,17.53,17.65,255026
11-Aug-14,17.70,17.88,17.52,17.68,502257
8-Aug-14,17.35,17.70,17.35,17.60,223737
7-Aug-14,17.56,17.74,17.35,17.38,171004
6-Aug-14,17.42,17.82,17.33,17.49,266171
5-Aug-14,17.45,17.66,17.38,17.50,331007
4-Aug-14,17.54,17.74,17.52,17.54,396158
1-Aug-14,17.55,17.63,17.24,17.46,207040
31-Jul-14,17.60,17.88,17.34,17.51,282733
30-Jul-14,17.83,18.11,17.73,17.74,410604
29-Jul-14,17.47,17.93,17.47,17.76,554348
28-Jul-14,17.25,17.52,17.13,17.42,410615
25-Jul-14,17.26,17.61,17.21,17.26,345619
24-Jul-14,17.68,17.82,17.28,17.38,254217
23-Jul-14,17.76,17.80,17.57,17.70,344203
22-Jul-14,17.53,17.80,17.36,17.75,257320
21-Jul-14,17.67,17.99,17.35,17.49,211296
18-Jul-14,17.59,17.80,17.51,17.75,295448
17-Jul-14,17.88,17.97,17.61,17.66,435645
16-Jul-14,18.32,18.32,17.93,17.98,308830
15-Jul-14,18.28,18.33,17.97,18.23,371220
14-Jul-14,18.32,18.39,18.11,18.30,245159
11-Jul-14,18.36,18.36,18.08,18.18,308324
10-Jul-14,18.30,18.83,18.25,18.44,519811
9-Jul-14,18.56,18.71,18.33,18.59,427340
8-Jul-14,18.91,18.99,18.34,18.52,493826
7-Jul-14,19.25,19.25,18.70,18.94,400332
3-Jul-14,19.32,19.44,19.09,19.33,295775
2-Jul-14,19.32,19.41,19.10,19.31,501869
1-Jul-14,19.22,19.44,19.12,19.35,909026
30-Jun-14,19.16,19.25,18.99,19.16,751096
27-Jun-14,19.26,19.50,18.86,19.12,14560814
26-Jun-14,19.26,19.44,19.16,19.31,754128
25-Jun-14,19.07,19.45,19.00,19.27,1438871
24-Jun-14,19.28,19.40,19.18,19.28,1277557
23-Jun-14,19.40,19.44,19.19,19.32,947797
20-Jun-14,19.47,19.85,19.32,19.35,4337947
19-Jun-14,19.46,19.75,19.32,19.40,1032536
18-Jun-14,19.38,19.63,19.32,19.36,929400
17-Jun-14,19.47,19.69,19.22,19.33,1154957
16-Jun-14,19.57,19.84,19.26,19.52,1895948
13-Jun-14,19.40,19.76,19.19,19.54,688953
12-Jun-14,19.45,19.75,19.26,19.36,853193
11-Jun-14,19.69,19.83,18.51,19.45,766185
10-Jun-14,19.43,19.94,18.75,19.80,1158664
9-Jun-14,18.48,19.66,18.30,19.50,1298803
6-Jun-14,18.44,18.60,18.31,18.48,545751
5-Jun-14,18.36,18.39,18.14,18.34,1184981
4-Jun-14,18.12,18.36,17.78,18.28,882438
3-Jun-14,18.17,18.26,17.94,18.18,450456
2-Jun-14,18.18,18.38,17.96,18.19,288236
30-May-14,18.31,18.40,17.94,18.22,509760
29-May-14,17.88,18.34,17.64,18.26,544214
28-May-14,18.64,18.64,17.83,18.00,487469
27-May-14,17.82,18.77,17.42,18.72,3891785
23-May-14,18.03,18.29,17.99,18.04,322344
22-May-14,17.93,18.22,17.87,18.02,377312
21-May-14,17.98,18.24,17.84,17.93,183749
20-May-14,17.88,18.18,17.77,17.97,279394
19-May-14,17.64,18.00,17.53,17.91,132522
16-May-14,17.95,17.95,17.33,17.66,184266
15-May-14,18.28,18.60,17.85,17.99,286772
14-May-14,18.48,18.87,18.13,18.35,403526
13-May-14,18.56,18.78,18.36,18.46,379203
12-May-14,18.36,18.73,18.30,18.51,232000
9-May-14,18.15,18.40,18.10,18.30,136305
8-May-14,18.11,18.84,16.80,18.32,776227
7-May-14,19.06,19.20,18.82,19.01,147654
6-May-14,19.17,19.33,18.81,19.12,207328
5-May-14,19.69,19.69,19.06,19.17,112458
2-May-14,19.94,20.25,19.63,19.76,127998
1-May-14,20.37,20.49,19.76,19.99,104499
30-Apr-14,20.55,20.60,20.35,20.43,82050
29-Apr-14,20.40,20.85,20.30,20.66,79362
28-Apr-14,20.56,20.62,20.25,20.35,104982
25-Apr-14,20.64,20.84,20.08,20.45,80167
24-Apr-14,20.75,21.00,20.64,20.71,106989
23-Apr-14,20.65,20.90,20.53,20.65,119327
22-Apr-14,20.43,20.80,20.27,20.63,83389
21-Apr-14,20.35,20.42,20.21,20.38,25811
17-Apr-14,20.36,20.52,20.25,20.35,61575
16-Apr-14,20.57,20.81,20.38,20.43,102295
15-Apr-14,20.46,20.67,20.16,20.48,56934
14-Apr-14,20.40,20.88,20.33,20.48,80797
11-Apr-14,20.34,20.50,20.16,20.28,136311
10-Apr-14,20.75,20.87,20.33,20.50,124698
9-Apr-14,20.81,20.96,20.64,20.82,253856
8-Apr-14,20.36,20.87,20.24,20.81,95433
7-Apr-14,20.51,20.67,20.29,20.38,103751
4-Apr-14,20.61,20.70,20.35,20.57,121039
3-Apr-14,20.55,20.75,20.30,20.48,136608
2-Apr-14,20.59,20.79,20.37,20.46,167752
1-Apr-14,20.41,20.82,19.92,20.50,133638
31-Mar-14,20.35,20.68,20.04,20.33,164260
28-Mar-14,20.01,20.65,20.01,20.43,192270
27-Mar-14,19.58,20.42,19.48,20.05,136099
26-Mar-14,20.10,20.40,19.57,19.63,106910
25-Mar-14,19.83,20.58,19.83,19.99,174843
24-Mar-14,19.89,20.01,19.06,19.75,160982
21-Mar-14,20.13,20.80,19.77,19.87,1234460
20-Mar-14,19.91,20.22,19.62,20.11,221072
19-Mar-14,19.99,20.22,19.78,20.00,184526
18-Mar-14,20.01,20.25,19.89,19.99,261607
17-Mar-14,19.75,20.25,19.74,19.95,244427
14-Mar-14,19.61,19.89,19.50,19.70,176848
13-Mar-14,19.63,19.92,19.34,19.69,165626
12-Mar-14,19.31,19.62,18.78,19.55,213809
11-Mar-14,19.30,19.80,19.15,19.36,400944
10-Mar-14,19.54,19.87,19.19,19.33,204279
7-Mar-14,19.37,19.38,18.50,19.25,543882
6-Mar-14,19.47,20.75,19.47,19.89,306151
5-Mar-14,19.68,19.78,19.19,19.40,180788
4-Mar-14,19.80,20.29,19.39,19.73,329620
3-Mar-14,20.29,20.29,19.28,19.63,326538
28-Feb-14,20.61,21.00,20.05,20.32,102248
27-Feb-14,19.98,20.67,19.98,20.55,229013
26-Feb-14,20.17,20.22,19.98,20.04,212827
25-Feb-14,19.91,20.36,19.91,20.25,121055
24-Feb-14,20.14,20.22,19.83,19.90,145595
21-Feb-14,20.36,20.36,20.06,20.12,129718
20-Feb-14,20.09,20.73,20.05,20.25,138201
19-Feb-14,19.39,20.62,19.02,20.06,175217
18-Feb-14,19.53,19.53,18.95,19.47,330959
14-Feb-14,19.43,19.43,18.84,19.25,194448
13-Feb-14,18.91,19.47,18.88,19.39,91639
12-Feb-14,19.07,19.22,18.88,18.97,107518
11-Feb-14,19.06,19.15,18.63,19.11,77591
10-Feb-14,18.70,19.15,18.28,19.08,228298
7-Feb-14,18.93,19.54,18.25,18.66,212116
6-Feb-14,19.25,19.25,18.66,18.86,242222
5-Feb-14,19.36,19.45,18.83,19.26,63446
4-Feb-14,19.00,19.71,18.85,19.51,167654
3-Feb-14,19.25,19.50,18.57,18.95,93874
31-Jan-14,18.98,19.27,18.61,19.24,111052
30-Jan-14,19.24,19.40,19.10,19.26,76030
29-Jan-14,19.11,19.32,18.68,19.12,129332
28-Jan-14,19.03,19.50,18.96,19.24,246724
27-Jan-14,18.97,19.39,18.89,19.01,161858
24-Jan-14,18.70,19.06,18.65,19.00,129073
23-Jan-14,18.85,19.44,18.46,18.79,305520
22-Jan-14,18.65,18.84,18.37,18.81,193620
21-Jan-14,18.63,19.50,18.20,18.58,888568
17-Jan-14,18.16,18.57,18.02,18.45,79397
16-Jan-14,18.07,18.34,17.95,18.24,354530
15-Jan-14,17.89,18.50,17.80,18.08,430254
14-Jan-14,17.87,18.25,17.80,17.88,88242
13-Jan-14,17.92,17.95,17.56,17.84,129616
10-Jan-14,18.21,18.21,17.71,17.93,122188
9-Jan-14,17.85,18.10,17.55,17.85,398657
8-Jan-14,17.59,17.90,17.12,17.83,63342
7-Jan-14,17.75,17.98,17.49,17.66,64247
6-Jan-14,17.48,17.79,16.94,17.63,78341
3-Jan-14,17.32,17.35,16.92,17.07,59615
2-Jan-14,16.97,17.47,16.92,17.34,68878
31-Dec-13,17.17,17.51,16.72,16.96,66479
30-Dec-13,17.30,17.43,16.69,17.07,112133
27-Dec-13,16.96,17.68,16.91,17.36,143647
26-Dec-13,17.21,17.50,16.74,16.86,99814
24-Dec-13,17.85,18.06,16.30,17.09,171047
23-Dec-13,17.92,17.98,17.58,17.77,225501
20-Dec-13,17.56,17.90,16.83,17.90,3689219
19-Dec-13,17.31,17.63,17.31,17.50,127626
18-Dec-13,17.38,17.64,17.10,17.55,207349
17-Dec-13,16.49,17.68,15.97,17.40,202607
16-Dec-13,15.75,16.56,15.75,16.44,151927
13-Dec-13,16.34,16.61,15.77,15.89,46274
12-Dec-13,16.01,16.96,15.75,16.39,141944
11-Dec-13,16.84,17.00,15.75,15.97,142518
10-Dec-13,16.87,17.42,16.36,16.47,102558
9-Dec-13,16.71,17.17,16.33,16.61,119674
6-Dec-13,17.18,17.64,16.41,17.11,53709
5-Dec-13,17.69,17.79,16.62,16.92,63137
4-Dec-13,17.56,17.74,17.24,17.40,90702
3-Dec-13,16.82,17.54,16.80,17.52,90973
2-Dec-13,17.40,17.91,16.75,17.52,174285
29-Nov-13,16.75,17.60,16.37,17.38,19007
27-Nov-13,16.60,17.50,16.60,17.35,53033
26-Nov-13,16.27,16.65,15.82,16.49,51010
25-Nov-13,16.25,17.04,16.00,16.40,86020
22-Nov-13,17.49,17.76,16.22,16.31,157495
21-Nov-13,17.99,18.65,16.80,17.45,417583
20-Nov-13,16.20,18.73,16.01,17.66,459960
19-Nov-13,15.52,16.35,15.45,16.24,231381
18-Nov-13,16.05,16.38,15.38,15.78,190196
15-Nov-13,15.80,17.50,14.80,16.11,878772
14-Nov-13,14.00,15.96,13.74,15.86,8285328
