﻿Date,Open,High,Low,Close,Volume
20-Jun-17,126.00,130.00,124.42,125.00,407516
19-Jun-17,119.02,128.68,118.66,125.82,628608
16-Jun-17,119.07,119.98,117.00,118.40,474200
15-Jun-17,120.86,122.27,117.11,118.12,282074
14-Jun-17,119.75,122.78,118.57,121.76,330445
13-Jun-17,118.78,121.54,116.61,119.41,356565
12-Jun-17,116.98,119.72,115.01,117.98,285852
9-Jun-17,118.95,120.25,115.36,116.67,295054
8-Jun-17,120.72,121.62,118.57,118.82,220208
7-Jun-17,120.48,121.00,116.10,119.82,426291
6-Jun-17,120.59,123.84,119.60,119.71,318070
5-Jun-17,120.24,122.55,117.60,120.99,481817
2-Jun-17,114.00,121.00,113.85,119.22,764536
1-Jun-17,112.07,114.56,110.65,113.20,428339
31-May-17,109.50,112.66,104.33,111.90,578351
30-May-17,112.14,112.50,108.33,108.52,332617
26-May-17,115.27,115.94,112.00,112.15,254591
25-May-17,117.98,118.49,114.07,115.26,228905
24-May-17,113.41,118.75,112.50,117.53,477522
23-May-17,114.11,114.68,112.35,112.99,281164
22-May-17,113.00,114.40,112.20,113.72,356242
19-May-17,116.31,117.84,112.08,112.27,404407
18-May-17,114.38,116.66,113.43,115.95,260337
17-May-17,117.63,118.24,114.01,114.29,328574
16-May-17,118.33,120.71,117.58,119.59,262353
15-May-17,118.02,119.93,117.38,118.53,296126
12-May-17,115.44,118.76,114.40,117.15,349909
11-May-17,115.52,116.19,113.34,115.84,358698
10-May-17,116.35,117.41,113.89,115.95,241620
9-May-17,114.68,116.74,113.76,116.48,371663
8-May-17,118.59,120.10,114.05,114.90,415848
5-May-17,118.29,119.49,116.27,118.74,389253
4-May-17,113.86,124.44,113.86,117.29,900627
3-May-17,114.79,115.19,111.01,112.72,302896
2-May-17,114.00,115.68,113.07,115.14,260370
1-May-17,112.18,114.60,110.65,113.74,217032
28-Apr-17,113.00,113.89,110.65,112.35,214987
27-Apr-17,113.75,114.91,113.08,113.23,222881
26-Apr-17,115.09,116.19,113.04,113.45,293596
25-Apr-17,111.81,115.70,111.68,114.77,393624
24-Apr-17,108.67,111.31,106.05,111.11,360795
21-Apr-17,107.58,108.43,106.50,107.89,399983
20-Apr-17,106.37,107.75,105.63,107.19,438279
19-Apr-17,106.85,107.80,105.06,105.62,304536
18-Apr-17,107.09,107.58,104.86,106.68,225557
17-Apr-17,107.40,108.57,106.00,107.51,243401
13-Apr-17,105.71,107.77,105.08,107.33,496406
12-Apr-17,108.68,109.55,105.50,105.77,365394
11-Apr-17,108.89,110.45,107.00,108.58,170449
10-Apr-17,108.51,111.53,108.36,109.02,254927
7-Apr-17,108.30,109.35,106.01,108.71,345474
6-Apr-17,109.80,109.80,107.08,108.70,289596
5-Apr-17,112.51,114.00,107.75,109.34,341646
4-Apr-17,112.06,113.75,111.49,112.37,184344
3-Apr-17,113.32,115.85,111.70,112.01,340080
31-Mar-17,112.53,113.74,111.70,113.10,238742
30-Mar-17,116.24,116.43,111.50,112.88,381226
29-Mar-17,115.75,124.25,115.00,115.61,415789
28-Mar-17,117.47,118.40,115.01,115.79,299758
27-Mar-17,115.17,118.70,114.53,117.17,372755
24-Mar-17,116.18,117.93,115.35,116.73,305092
23-Mar-17,116.14,117.24,115.02,115.80,259853
22-Mar-17,115.95,119.63,115.15,116.25,446206
21-Mar-17,123.59,124.20,114.58,116.01,759073
20-Mar-17,124.65,125.70,122.65,123.56,265211
17-Mar-17,124.17,126.79,123.32,125.23,225095
16-Mar-17,126.12,126.50,123.05,125.20,218932
15-Mar-17,122.20,127.28,121.72,125.87,359861
14-Mar-17,127.80,129.70,121.64,121.84,334019
13-Mar-17,127.32,129.84,126.50,127.80,240862
10-Mar-17,125.61,127.69,124.47,127.50,251357
9-Mar-17,125.92,127.87,123.37,125.35,324794
8-Mar-17,122.14,128.10,121.60,125.37,546627
7-Mar-17,125.35,125.35,121.47,121.68,364396
6-Mar-17,126.02,127.35,123.57,126.03,286579
3-Mar-17,126.52,127.95,125.15,127.03,278497
2-Mar-17,131.10,132.85,126.09,126.62,657548
1-Mar-17,128.66,132.00,128.12,128.99,445584
28-Feb-17,124.10,129.65,122.36,127.59,735530
27-Feb-17,119.48,125.47,119.48,124.87,465390
24-Feb-17,115.68,119.74,114.70,119.19,561187
23-Feb-17,123.00,123.00,111.60,115.93,1433336
22-Feb-17,124.44,126.89,122.18,122.79,480515
21-Feb-17,128.10,128.99,124.96,125.45,555526
17-Feb-17,129.44,130.01,125.30,128.45,508941
16-Feb-17,133.00,135.25,128.50,129.85,541128
15-Feb-17,126.97,133.44,126.80,132.85,768335
14-Feb-17,122.93,127.83,120.98,126.96,544628
13-Feb-17,118.51,124.25,117.49,122.62,802330
10-Feb-17,122.50,122.66,116.10,118.51,2509985
9-Feb-17,112.80,115.00,112.46,112.69,337507
8-Feb-17,113.77,114.50,110.70,112.69,406706
7-Feb-17,113.00,114.10,111.44,113.57,378684
6-Feb-17,110.11,112.84,109.10,112.62,322516
3-Feb-17,108.36,110.65,106.50,110.23,346739
2-Feb-17,107.16,108.25,105.64,107.64,353031
1-Feb-17,110.43,110.43,105.82,107.18,376165
31-Jan-17,105.75,110.33,104.10,109.75,408238
30-Jan-17,109.31,109.63,105.03,105.79,373576
27-Jan-17,106.17,111.49,105.22,110.03,356990
26-Jan-17,109.03,109.03,104.88,106.17,278266
25-Jan-17,105.93,109.72,104.30,107.71,307041
24-Jan-17,105.86,106.66,102.50,105.40,365448
23-Jan-17,110.50,110.50,104.66,105.22,461140
20-Jan-17,112.22,113.84,108.62,110.14,509539
19-Jan-17,115.50,115.52,112.51,114.67,368410
18-Jan-17,115.00,116.08,112.83,115.80,372255
17-Jan-17,113.53,115.50,110.33,113.63,598711
13-Jan-17,111.99,117.09,110.62,114.37,693098
12-Jan-17,105.10,111.28,104.00,110.00,720619
11-Jan-17,106.21,112.15,105.00,105.57,959091
10-Jan-17,106.33,108.00,104.00,105.66,396158
9-Jan-17,106.01,107.00,104.20,105.65,408244
6-Jan-17,105.79,107.84,104.27,105.87,438200
5-Jan-17,108.83,109.42,105.38,105.69,457625
4-Jan-17,103.63,108.99,102.95,108.74,627878
3-Jan-17,108.46,109.99,101.99,102.95,755272
30-Dec-16,108.70,110.30,105.25,108.65,578175
29-Dec-16,114.32,116.28,108.80,109.27,557146
28-Dec-16,104.30,117.72,103.35,113.59,1341842
27-Dec-16,104.99,105.71,103.02,103.89,262160
23-Dec-16,102.36,105.83,102.00,104.25,418484
22-Dec-16,103.71,104.52,101.96,103.03,281697
21-Dec-16,108.37,108.93,103.87,104.40,378488
20-Dec-16,109.48,111.46,108.02,109.14,240755
19-Dec-16,108.95,112.39,108.01,109.89,433476
16-Dec-16,106.62,109.69,105.48,109.58,616526
15-Dec-16,105.05,106.75,103.00,106.09,340023
14-Dec-16,109.00,109.47,103.88,104.32,466545
13-Dec-16,108.32,108.99,106.45,108.53,281529
12-Dec-16,106.34,109.27,103.57,107.19,394759
9-Dec-16,103.43,106.92,103.43,106.04,441191
8-Dec-16,103.23,103.58,100.00,102.74,414959
7-Dec-16,104.74,105.28,99.85,103.54,708288
6-Dec-16,103.99,106.09,102.50,105.84,469994
5-Dec-16,100.70,106.58,100.50,103.24,631299
2-Dec-16,99.75,101.57,99.02,99.70,273839
1-Dec-16,104.00,104.00,98.01,100.28,598573
30-Nov-16,104.43,106.49,100.31,101.12,497232
29-Nov-16,109.75,110.00,104.02,104.45,513942
28-Nov-16,115.02,115.02,108.03,108.71,388949
25-Nov-16,115.00,116.47,113.40,115.84,207545
23-Nov-16,110.01,114.63,107.55,114.28,336025
22-Nov-16,116.31,116.32,110.27,111.71,299363
21-Nov-16,114.72,115.67,111.51,115.32,320246
18-Nov-16,115.82,116.41,112.00,113.71,321245
17-Nov-16,111.07,115.98,109.04,115.25,389180
16-Nov-16,112.52,114.45,110.02,110.19,405208
15-Nov-16,115.28,117.00,111.30,113.51,406995
14-Nov-16,112.86,114.99,108.85,113.91,364118
11-Nov-16,108.00,112.76,105.47,111.86,546103
10-Nov-16,115.00,118.74,107.50,109.00,1006288
9-Nov-16,103.05,115.68,102.50,113.00,1305556
8-Nov-16,99.67,100.45,97.35,98.43,452393
7-Nov-16,99.55,101.93,97.46,100.66,613447
4-Nov-16,100.01,105.99,96.63,97.84,975397
3-Nov-16,120.00,120.10,98.20,98.20,1762488
2-Nov-16,122.00,122.07,117.10,117.55,520032
1-Nov-16,123.52,125.50,119.63,122.39,360989
31-Oct-16,124.92,126.30,122.86,123.74,270556
28-Oct-16,126.84,127.40,123.86,124.20,375948
27-Oct-16,131.00,131.42,127.29,127.50,281338
26-Oct-16,131.25,134.34,129.70,130.18,377000
25-Oct-16,132.75,135.00,130.61,131.17,262529
24-Oct-16,137.76,139.44,131.50,131.87,480738
21-Oct-16,136.31,138.50,135.21,137.41,303867
20-Oct-16,139.10,141.00,136.14,137.85,424260
19-Oct-16,140.40,141.49,138.77,139.12,283278
18-Oct-16,140.51,142.10,138.70,140.81,361640
17-Oct-16,141.83,142.00,135.80,138.48,395212
14-Oct-16,146.97,147.52,141.43,142.47,294771
13-Oct-16,143.87,145.94,141.09,144.10,255900
12-Oct-16,151.77,152.97,144.51,144.75,477345
11-Oct-16,153.15,154.32,150.11,151.84,301403
10-Oct-16,153.34,156.65,153.00,154.00,216374
7-Oct-16,153.83,155.62,151.04,152.74,321426
6-Oct-16,152.70,154.40,148.47,153.51,421235
5-Oct-16,153.46,154.81,149.70,153.79,546939
4-Oct-16,162.68,163.63,152.52,153.01,637777
3-Oct-16,163.06,166.12,160.21,162.38,412692
30-Sep-16,161.23,166.30,158.80,164.59,344132
29-Sep-16,167.96,168.69,159.82,160.23,519299
28-Sep-16,172.01,172.75,166.50,167.68,454802
27-Sep-16,165.47,172.62,164.01,172.13,367213
26-Sep-16,165.00,166.89,164.24,166.02,216255
23-Sep-16,169.47,170.31,165.81,166.23,391321
22-Sep-16,169.68,171.20,164.89,170.47,390635
21-Sep-16,171.15,172.95,161.62,168.78,716405
20-Sep-16,165.00,170.63,163.63,170.01,1379010
19-Sep-16,157.30,161.20,156.21,156.74,334112
16-Sep-16,151.51,157.98,151.29,157.20,446348
15-Sep-16,152.26,154.51,150.14,152.92,316853
14-Sep-16,147.60,152.86,146.71,151.60,296053
13-Sep-16,150.63,151.29,146.36,146.89,336106
12-Sep-16,144.34,152.00,143.24,151.62,452858
9-Sep-16,150.81,151.00,145.32,145.34,441248
8-Sep-16,152.94,153.47,150.96,152.55,203188
7-Sep-16,151.88,155.91,150.28,153.12,265024
6-Sep-16,151.64,153.50,150.88,152.15,358686
2-Sep-16,146.59,152.50,146.20,150.74,387879
1-Sep-16,149.00,149.99,146.00,146.82,267496
31-Aug-16,150.76,152.24,147.02,148.31,289001
30-Aug-16,152.52,154.96,150.00,150.67,278191
29-Aug-16,154.99,156.49,151.22,151.59,409786
26-Aug-16,154.00,156.74,151.50,154.96,383806
25-Aug-16,159.00,163.46,151.30,153.64,437115
24-Aug-16,167.21,168.90,157.40,158.43,347994
23-Aug-16,166.86,168.60,165.00,167.07,203145
22-Aug-16,166.61,167.84,163.23,166.54,336929
19-Aug-16,168.83,168.83,164.54,165.80,268924
18-Aug-16,164.84,169.17,163.65,168.87,313358
17-Aug-16,164.00,166.70,162.52,163.65,269877
16-Aug-16,164.99,166.25,162.77,164.15,314544
15-Aug-16,162.85,168.40,162.46,165.05,452288
12-Aug-16,158.30,163.36,156.07,162.99,392355
11-Aug-16,156.83,158.30,153.94,157.69,272125
10-Aug-16,157.12,158.53,155.17,156.82,321460
9-Aug-16,161.99,163.40,156.34,157.19,224674
8-Aug-16,162.57,164.94,160.00,161.34,321107
5-Aug-16,163.45,164.49,159.44,162.27,482459
4-Aug-16,170.77,173.58,160.40,163.21,629568
3-Aug-16,170.44,174.24,169.79,172.59,755484
2-Aug-16,170.71,172.36,165.20,170.47,492342
1-Aug-16,172.78,177.93,168.79,169.72,708051
29-Jul-16,166.62,173.45,165.30,173.03,334204
28-Jul-16,166.31,168.40,163.72,166.90,278095
27-Jul-16,159.87,167.82,159.57,167.51,477123
26-Jul-16,157.83,159.73,156.60,159.59,282971
25-Jul-16,157.78,159.40,155.29,158.50,283626
22-Jul-16,152.33,159.05,151.20,158.20,320210
21-Jul-16,149.60,154.26,148.48,153.16,473320
20-Jul-16,146.09,149.00,144.39,148.34,238136
19-Jul-16,149.23,149.32,144.22,145.22,181359
18-Jul-16,148.53,150.44,146.82,149.33,294296
15-Jul-16,145.50,149.99,145.50,148.73,255185
14-Jul-16,146.14,149.45,144.33,145.25,253412
13-Jul-16,154.49,156.30,145.02,145.24,425744
12-Jul-16,152.39,156.31,152.35,154.31,426474
11-Jul-16,152.25,155.01,148.07,151.73,504475
8-Jul-16,143.23,152.86,141.96,151.73,528183
7-Jul-16,142.54,144.10,140.38,143.75,424111
6-Jul-16,142.25,144.94,140.45,142.85,709638
5-Jul-16,145.56,147.29,142.45,143.47,436744
1-Jul-16,143.45,148.89,141.26,146.36,1000018
30-Jun-16,140.00,143.16,135.11,142.68,2174216
29-Jun-16,150.94,151.95,146.20,149.87,577761
28-Jun-16,134.49,154.31,134.00,149.37,1283485
27-Jun-16,143.27,143.27,130.04,130.67,707169
24-Jun-16,144.56,150.50,142.47,142.92,744208
23-Jun-16,149.24,154.58,149.02,154.26,428715
22-Jun-16,142.99,148.85,140.27,148.10,474471
21-Jun-16,144.23,145.32,139.21,142.09,391093
20-Jun-16,140.66,145.24,139.88,144.96,482231
17-Jun-16,141.81,143.40,138.18,138.64,474041
16-Jun-16,141.86,142.18,139.08,141.58,264442
15-Jun-16,142.57,144.65,141.39,142.79,286375
14-Jun-16,144.68,146.45,138.50,142.20,404256
13-Jun-16,150.00,151.99,144.55,144.87,382836
10-Jun-16,152.83,153.46,148.30,150.66,498517
9-Jun-16,160.00,160.99,152.32,154.22,813774
8-Jun-16,162.39,162.55,158.11,161.10,491180
7-Jun-16,165.34,165.50,157.43,162.61,544244
6-Jun-16,168.36,170.00,162.12,166.46,603392
3-Jun-16,169.74,173.31,161.07,167.37,1248579
2-Jun-16,154.88,169.65,154.12,167.66,1088979
1-Jun-16,148.49,156.98,147.24,155.13,879708
31-May-16,137.80,150.95,137.11,148.36,1840249
27-May-16,139.95,141.95,137.86,141.77,427087
26-May-16,142.20,142.51,136.40,137.73,388329
25-May-16,140.02,142.74,137.01,141.21,387242
24-May-16,139.00,140.88,137.50,139.80,296839
23-May-16,134.85,139.80,134.51,138.60,325670
20-May-16,131.69,134.96,130.30,134.28,310418
19-May-16,133.46,137.40,130.22,131.34,324197
18-May-16,132.23,137.00,131.80,134.01,219744
17-May-16,134.55,136.63,132.51,132.92,245290
16-May-16,131.19,137.86,131.19,134.08,394393
13-May-16,129.83,133.32,128.87,131.15,358998
12-May-16,137.28,140.29,128.25,129.62,544759
11-May-16,141.08,143.46,136.83,137.28,309859
10-May-16,138.40,142.43,136.04,141.08,517108
9-May-16,133.00,139.64,133.00,137.44,385243
6-May-16,135.19,139.13,132.51,133.34,408896
5-May-16,139.67,141.81,135.68,136.99,384957
4-May-16,146.19,146.38,138.80,139.13,389727
3-May-16,149.66,151.33,146.48,147.34,279385
2-May-16,150.63,151.06,146.09,150.40,301074
29-Apr-16,152.54,155.50,149.26,150.74,293287
28-Apr-16,150.77,159.75,149.12,153.68,372928
27-Apr-16,148.18,153.38,146.04,150.48,286139
26-Apr-16,151.76,153.46,145.84,148.28,395570
25-Apr-16,156.82,157.63,151.08,151.73,418802
22-Apr-16,150.35,158.61,149.24,157.74,477259
21-Apr-16,149.18,156.85,148.05,150.87,444912
20-Apr-16,150.75,152.48,147.23,148.93,410156
19-Apr-16,150.00,151.75,145.49,149.53,422154
18-Apr-16,149.18,153.94,148.57,150.00,506825
15-Apr-16,152.56,153.14,148.50,149.66,562841
14-Apr-16,147.66,155.59,144.80,152.62,741490
13-Apr-16,147.73,148.49,143.50,146.66,482831
12-Apr-16,146.76,147.00,140.93,146.52,531298
11-Apr-16,156.22,157.50,142.74,144.64,1197478
8-Apr-16,162.50,163.24,147.53,156.36,3114638
6-Apr-16,151.75,163.83,151.00,163.83,1061211
5-Apr-16,143.47,159.20,142.90,151.31,2148719
4-Apr-16,131.76,140.41,131.03,133.55,1289030
1-Apr-16,128.01,131.40,127.45,130.76,767118
31-Mar-16,127.25,131.46,125.04,128.47,666174
30-Mar-16,126.21,130.85,123.04,125.02,1285331
29-Mar-16,124.33,125.12,119.32,124.26,650804
28-Mar-16,126.00,127.66,121.34,124.58,468928
24-Mar-16,120.95,127.80,120.35,126.00,438062
23-Mar-16,128.29,130.61,121.77,122.66,477901
22-Mar-16,121.50,129.50,121.00,128.48,735157
21-Mar-16,120.39,122.89,118.31,121.82,583704
18-Mar-16,119.00,123.88,115.88,120.14,872962
17-Mar-16,115.50,120.00,111.50,118.79,541388
16-Mar-16,115.00,117.50,112.15,115.23,436734
15-Mar-16,119.40,120.69,114.26,115.39,489890
14-Mar-16,117.45,121.45,115.45,120.90,411752
11-Mar-16,117.69,119.99,114.83,117.25,446720
10-Mar-16,124.40,124.48,114.56,116.36,467646
9-Mar-16,123.18,126.56,119.90,122.08,335401
8-Mar-16,128.19,129.36,120.20,121.84,421644
7-Mar-16,125.32,132.72,121.85,128.45,471263
4-Mar-16,125.46,126.63,122.55,125.42,550860
3-Mar-16,119.12,125.11,117.92,124.77,492041
2-Mar-16,121.72,125.95,117.16,119.37,571015
1-Mar-16,111.94,122.12,110.92,122.07,710054
29-Feb-16,113.21,117.09,111.21,111.38,492945
26-Feb-16,113.18,116.04,112.34,113.90,499098
25-Feb-16,113.05,116.78,111.05,112.27,423375
24-Feb-16,115.71,116.07,110.95,112.45,783782
23-Feb-16,118.05,124.00,117.24,119.29,609313
22-Feb-16,129.50,131.10,121.12,121.76,910285
19-Feb-16,123.78,128.99,122.51,128.66,894926
18-Feb-16,128.60,129.90,124.12,124.78,1550812
17-Feb-16,118.30,125.46,116.58,124.66,885456
16-Feb-16,120.00,120.42,111.00,118.25,1242198
12-Feb-16,95.36,128.75,91.50,120.22,4065759
11-Feb-16,93.26,96.77,89.76,94.29,807961
10-Feb-16,95.18,102.97,95.00,95.74,879827
9-Feb-16,92.05,99.44,91.00,93.89,889993
8-Feb-16,96.68,97.70,92.33,93.71,1194721
5-Feb-16,101.76,102.33,95.59,98.51,919555
4-Feb-16,96.42,105.00,95.06,102.34,967231
3-Feb-16,96.19,98.00,90.00,97.84,799659
2-Feb-16,104.63,106.97,94.61,94.96,1280620
1-Feb-16,104.86,107.41,100.06,105.27,996684
29-Jan-16,102.00,106.48,98.23,106.23,905704
28-Jan-16,111.91,113.43,99.03,99.32,891055
27-Jan-16,109.82,115.98,108.00,110.19,684341
26-Jan-16,112.81,115.06,105.20,109.92,717585
25-Jan-16,114.63,116.80,111.29,112.29,566914
22-Jan-16,115.15,119.10,113.69,115.81,544566
21-Jan-16,119.85,123.00,110.22,112.21,745904
20-Jan-16,112.11,123.20,107.06,120.11,643122
19-Jan-16,122.50,123.92,111.70,114.29,676271
15-Jan-16,120.25,122.74,116.42,121.70,1193145
14-Jan-16,122.04,126.87,116.34,124.24,554724
13-Jan-16,129.97,131.99,120.60,121.04,508814
12-Jan-16,126.08,134.00,122.32,129.06,696458
11-Jan-16,135.48,138.46,121.00,123.60,551744
8-Jan-16,138.00,141.17,133.50,134.43,333472
7-Jan-16,137.05,141.67,133.57,135.74,444221
6-Jan-16,149.72,151.01,137.67,139.67,407424
5-Jan-16,147.56,152.60,147.56,151.44,325036
4-Jan-16,146.09,149.99,143.55,147.82,345482
31-Dec-15,149.06,151.83,148.41,149.35,239293
30-Dec-15,153.54,155.96,149.70,150.06,263639
29-Dec-15,154.29,155.72,152.10,154.50,237653
28-Dec-15,154.00,155.30,150.50,153.57,242961
24-Dec-15,155.67,157.75,153.00,154.17,116559
23-Dec-15,155.77,159.69,152.32,155.30,299719
22-Dec-15,162.78,162.78,152.66,153.94,419589
21-Dec-15,157.23,163.90,149.59,162.23,665718
18-Dec-15,153.65,159.45,152.51,156.08,1177160
17-Dec-15,175.00,175.00,164.24,165.95,695187
16-Dec-15,164.01,174.55,162.01,174.25,650508
15-Dec-15,157.45,169.00,157.00,163.22,1325749
14-Dec-15,145.44,146.78,137.28,139.68,452785
11-Dec-15,150.75,151.68,145.19,146.21,328471
10-Dec-15,154.71,154.71,149.77,151.78,401297
9-Dec-15,156.11,158.99,153.00,154.36,210928
8-Dec-15,151.33,159.88,148.01,158.12,271118
7-Dec-15,154.49,155.09,149.02,152.99,377070
4-Dec-15,157.00,160.50,151.20,155.24,386153
3-Dec-15,163.00,163.78,155.41,156.10,555291
2-Dec-15,170.46,170.46,162.10,162.27,677645
1-Dec-15,176.50,179.60,170.11,171.45,402817
30-Nov-15,185.05,186.87,173.57,176.51,295416
27-Nov-15,184.72,185.86,182.08,184.74,143486
25-Nov-15,182.63,184.96,180.10,183.75,303282
24-Nov-15,181.70,186.00,177.04,183.62,412862
23-Nov-15,170.44,185.50,170.25,182.17,433504
20-Nov-15,167.00,172.00,165.03,170.69,377050
19-Nov-15,168.90,169.55,163.10,167.64,355970
18-Nov-15,170.46,171.72,163.50,168.46,576506
17-Nov-15,174.19,177.38,168.01,168.45,590812
16-Nov-15,179.49,182.81,170.00,174.33,732127
13-Nov-15,181.08,189.39,177.58,181.01,422708
12-Nov-15,181.19,192.50,177.77,181.91,574084
11-Nov-15,206.59,208.29,180.23,181.95,1017004
10-Nov-15,192.61,217.99,190.47,205.97,1332219
9-Nov-15,178.29,194.65,174.01,192.29,599071
6-Nov-15,180.32,182.11,174.00,176.70,427390
5-Nov-15,184.32,184.32,175.00,180.55,467152
4-Nov-15,182.30,186.70,177.38,184.73,411100
3-Nov-15,169.10,184.76,167.83,181.65,547781
2-Nov-15,156.62,169.43,156.62,169.20,699505
30-Oct-15,164.94,165.74,154.29,157.20,570372
29-Oct-15,160.65,167.17,152.51,164.95,1123446
28-Oct-15,139.52,164.99,139.00,164.13,2523586
27-Oct-15,167.21,168.49,160.46,167.64,606155
26-Oct-15,167.00,173.00,165.78,167.98,340667
23-Oct-15,175.82,176.99,165.71,168.00,505993
22-Oct-15,175.15,185.07,169.00,172.96,425706
21-Oct-15,179.13,180.10,168.15,173.93,267997
20-Oct-15,182.22,185.19,174.38,176.83,304780
19-Oct-15,183.03,190.86,179.00,184.35,214094
16-Oct-15,180.08,185.91,176.89,181.23,498307
15-Oct-15,169.06,181.50,167.51,179.29,311703
14-Oct-15,170.50,173.84,166.06,169.93,254565
13-Oct-15,173.77,178.45,169.03,169.51,300480
12-Oct-15,183.72,183.72,174.32,174.56,316752
9-Oct-15,191.81,193.56,180.40,181.90,373842
8-Oct-15,179.90,194.98,178.76,190.71,548798
7-Oct-15,167.03,182.72,163.84,179.51,408497
6-Oct-15,171.29,174.74,165.37,166.22,411531
5-Oct-15,174.47,179.82,170.95,172.56,380057
2-Oct-15,157.59,172.26,157.00,171.94,355456
1-Oct-15,163.39,166.99,158.28,161.16,421294
30-Sep-15,162.57,167.90,158.60,165.86,420057
29-Sep-15,161.40,174.17,155.48,158.32,825577
28-Sep-15,169.74,169.98,156.01,160.28,618889
25-Sep-15,179.70,180.73,160.00,169.84,492157
24-Sep-15,181.25,183.48,173.28,177.82,342871
23-Sep-15,181.32,187.00,178.36,182.25,239740
22-Sep-15,179.87,185.73,176.45,181.32,391569
21-Sep-15,194.82,196.87,181.59,182.16,419481
18-Sep-15,188.97,195.71,187.89,194.07,497367
17-Sep-15,186.00,193.49,181.47,192.46,376998
16-Sep-15,190.51,193.65,183.86,184.97,361509
15-Sep-15,192.85,193.07,187.02,189.36,565729
14-Sep-15,198.50,199.05,190.53,193.85,354682
11-Sep-15,192.28,198.80,191.90,197.48,320215
10-Sep-15,192.14,201.20,188.77,192.82,440142
9-Sep-15,197.63,199.91,191.00,191.77,394658
8-Sep-15,188.52,195.69,185.68,195.28,382417
4-Sep-15,183.74,187.86,181.80,184.35,184544
3-Sep-15,191.08,194.00,185.31,186.20,251357
2-Sep-15,188.00,190.79,183.02,190.27,258503
1-Sep-15,183.26,188.50,181.00,182.50,382022
31-Aug-15,195.78,197.87,187.00,189.76,389958
28-Aug-15,187.78,193.75,185.22,188.95,184828
27-Aug-15,188.87,191.48,185.79,189.34,278407
26-Aug-15,182.56,187.50,170.83,184.97,531093
25-Aug-15,189.68,194.66,175.90,176.44,485188
24-Aug-15,165.00,193.43,150.00,179.70,694261
21-Aug-15,189.89,197.41,186.01,190.70,497389
20-Aug-15,206.58,207.30,193.45,193.59,540946
19-Aug-15,209.95,214.30,207.02,208.38,228230
18-Aug-15,212.93,214.85,210.11,211.22,256617
17-Aug-15,209.37,214.38,207.57,214.20,230559
14-Aug-15,209.71,213.97,203.29,212.64,376491
13-Aug-15,223.09,225.12,208.88,213.99,799967
12-Aug-15,232.52,236.97,225.60,232.32,247655
11-Aug-15,240.72,247.99,232.33,237.14,1153674
10-Aug-15,237.00,244.68,237.00,242.54,232770
7-Aug-15,239.32,243.23,228.10,236.46,280282
6-Aug-15,258.00,259.89,238.00,239.98,438337
5-Aug-15,262.21,266.30,259.20,260.13,238571
4-Aug-15,258.66,262.58,258.00,260.09,126323
3-Aug-15,261.17,265.91,256.02,259.61,203896
31-Jul-15,261.51,267.92,260.00,263.81,208566
30-Jul-15,268.69,269.02,260.57,261.80,254246
29-Jul-15,274.68,276.19,266.00,269.47,250166
28-Jul-15,266.20,275.27,265.10,274.94,210095
27-Jul-15,271.85,272.16,262.48,266.07,197328
24-Jul-15,277.32,285.00,272.78,273.05,247910
23-Jul-15,269.23,282.36,269.23,280.00,364373
22-Jul-15,268.38,272.34,265.91,269.31,206717
21-Jul-15,278.50,278.50,265.77,271.32,413300
20-Jul-15,279.01,280.00,273.00,277.15,244157
17-Jul-15,275.89,279.00,269.81,277.61,485815
16-Jul-15,258.46,273.28,258.46,273.00,498888
15-Jul-15,259.10,264.21,256.18,258.38,274637
14-Jul-15,247.00,259.40,247.00,256.65,461941
13-Jul-15,250.15,252.52,245.15,245.79,247459
10-Jul-15,247.75,252.98,246.21,247.71,300486
9-Jul-15,238.32,245.96,236.75,243.26,200819
8-Jul-15,238.92,240.00,234.51,234.94,205207
7-Jul-15,240.68,242.99,235.02,241.17,170205
6-Jul-15,238.55,243.99,237.18,239.52,350329
2-Jul-15,236.13,242.56,236.00,241.17,212543
1-Jul-15,242.10,243.19,235.06,237.23,365788
30-Jun-15,245.32,250.00,232.19,241.38,391370
29-Jun-15,252.00,254.47,239.33,240.39,388814
26-Jun-15,262.81,265.40,252.84,255.70,424659
25-Jun-15,261.84,266.70,260.26,261.81,276322
24-Jun-15,263.98,265.17,259.49,261.45,244681
23-Jun-15,265.68,267.98,259.51,264.86,236802
22-Jun-15,265.14,269.45,263.34,264.63,215623
19-Jun-15,262.47,264.60,257.57,263.81,393295
18-Jun-15,254.81,262.49,252.32,260.93,529075
17-Jun-15,250.75,260.87,250.21,253.88,411349
16-Jun-15,243.68,256.55,243.30,249.34,388114
15-Jun-15,242.00,248.58,239.21,244.36,263472
12-Jun-15,246.45,249.15,241.45,244.30,384907
11-Jun-15,241.60,249.31,237.10,247.83,400564
10-Jun-15,238.21,241.76,232.28,241.52,424190
9-Jun-15,242.07,244.97,235.88,238.71,327354
8-Jun-15,250.43,250.83,241.95,246.22,484049
5-Jun-15,243.50,251.45,239.00,247.81,565106
4-Jun-15,247.00,250.00,239.67,243.20,521428
3-Jun-15,252.70,253.00,247.00,248.02,482042
2-Jun-15,256.40,257.00,251.01,251.67,293856
1-Jun-15,254.98,258.69,251.34,257.79,327515
29-May-15,257.00,259.00,253.35,255.20,246871
28-May-15,260.13,263.05,252.13,256.03,509611
27-May-15,262.76,268.53,260.52,261.59,400991
26-May-15,260.00,263.98,255.55,262.64,535485
22-May-15,265.67,267.99,256.33,261.46,492299
21-May-15,272.93,276.00,262.53,265.69,500168
20-May-15,260.20,271.81,253.00,269.74,842340
19-May-15,298.00,299.00,260.57,263.50,2559985
18-May-15,307.47,314.88,304.52,313.98,387860
15-May-15,307.33,314.43,304.45,306.23,546317
14-May-15,298.39,312.97,295.27,307.07,828794
13-May-15,294.70,299.98,284.03,298.60,743753
12-May-15,280.00,295.24,280.00,293.51,819040
11-May-15,272.79,287.86,269.01,280.27,635799
8-May-15,271.01,279.35,270.01,276.52,549266
7-May-15,264.90,271.59,260.25,268.61,345047
6-May-15,260.00,268.67,258.00,264.64,345167
5-May-15,266.46,268.94,254.00,257.95,423471
4-May-15,254.10,272.75,253.15,266.70,550139
1-May-15,255.10,261.90,250.17,254.99,474845
30-Apr-15,263.35,268.10,247.60,252.81,596770
29-Apr-15,268.16,272.87,264.78,266.74,330572
28-Apr-15,268.00,274.38,253.96,267.19,522086
27-Apr-15,283.48,285.96,264.00,266.69,643285
24-Apr-15,287.25,287.74,281.30,283.20,266913
23-Apr-15,280.84,286.69,272.50,285.42,335110
22-Apr-15,294.95,296.00,280.00,280.45,430169
21-Apr-15,285.00,295.19,281.18,288.71,491265
20-Apr-15,278.50,288.80,271.55,282.29,592834
17-Apr-15,281.00,283.30,270.00,274.94,1188352
16-Apr-15,271.00,280.00,270.64,274.44,373820
15-Apr-15,274.97,277.14,267.25,271.91,438133
14-Apr-15,279.70,282.30,271.15,274.40,304298
13-Apr-15,281.73,287.77,278.33,279.69,349457
10-Apr-15,272.10,281.47,271.09,279.25,374594
9-Apr-15,270.82,279.46,270.00,271.77,317655
8-Apr-15,272.00,277.68,268.25,272.84,390213
7-Apr-15,275.49,281.78,267.00,267.66,490006
6-Apr-15,266.18,275.58,265.03,274.12,472104
2-Apr-15,278.30,281.38,270.00,271.61,361292
1-Apr-15,280.68,282.00,263.50,276.45,700101
31-Mar-15,283.03,289.00,278.02,282.02,1373028
30-Mar-15,300.99,303.94,288.88,295.91,603056
27-Mar-15,293.88,295.00,281.42,293.91,875024
26-Mar-15,257.01,295.01,252.94,282.69,1906600
25-Mar-15,267.87,271.00,254.19,260.64,531147
24-Mar-15,270.27,278.25,266.67,267.78,696707
23-Mar-15,288.45,288.65,269.10,269.82,923467
20-Mar-15,305.36,308.28,288.87,290.98,1332938
19-Mar-15,288.00,290.74,280.00,288.51,460271
18-Mar-15,284.99,291.80,280.01,285.99,467725
17-Mar-15,289.13,296.23,278.06,280.11,713939
16-Mar-15,283.50,301.00,283.50,294.48,722853
13-Mar-15,285.84,288.82,270.30,281.38,798541
12-Mar-15,287.95,292.00,280.20,285.56,1015868
11-Mar-15,272.71,289.00,271.16,286.31,936379
10-Mar-15,263.25,281.28,260.52,269.74,713227
9-Mar-15,269.03,269.99,261.65,265.55,340754
6-Mar-15,262.11,269.65,258.90,266.14,574415
5-Mar-15,271.99,278.88,256.50,261.18,1016061
4-Mar-15,246.95,267.14,244.15,266.49,1018050
3-Mar-15,226.20,249.98,225.10,247.36,835753
2-Mar-15,216.94,231.35,213.00,225.54,504920
27-Feb-15,220.25,221.80,216.54,221.37,401649
26-Feb-15,221.11,221.99,216.00,219.07,237884
25-Feb-15,213.78,223.00,210.51,220.42,357163
24-Feb-15,220.65,223.97,211.72,215.38,483205
23-Feb-15,218.95,221.77,215.08,219.00,303811
20-Feb-15,216.00,219.00,212.13,218.89,278724
19-Feb-15,216.00,219.22,211.79,215.53,202995
18-Feb-15,214.01,219.56,214.01,215.86,297302
17-Feb-15,204.62,216.40,203.98,213.70,340640
13-Feb-15,202.15,209.90,201.21,209.12,339148
12-Feb-15,200.15,203.83,196.00,202.00,212985
11-Feb-15,196.38,202.76,195.33,198.15,280147
10-Feb-15,195.52,200.97,192.57,197.66,312959
9-Feb-15,193.11,201.72,191.00,193.14,374136
6-Feb-15,201.26,202.45,192.00,193.54,496656
5-Feb-15,182.17,201.92,182.00,201.26,1516728
4-Feb-15,181.26,188.50,175.32,183.76,491355
3-Feb-15,187.35,195.74,182.50,189.07,585818
2-Feb-15,201.10,202.79,183.25,188.66,1095444
30-Jan-15,208.08,210.00,196.67,201.03,2367714
29-Jan-15,171.33,171.90,163.50,170.69,548686
28-Jan-15,184.70,184.70,168.21,169.56,468601
27-Jan-15,170.81,185.00,170.05,184.04,684084
26-Jan-15,166.85,177.50,165.89,174.63,610937
23-Jan-15,155.89,166.13,154.31,165.76,353856
22-Jan-15,160.00,163.65,154.00,156.96,387095
21-Jan-15,156.00,175.00,155.70,161.02,743597
20-Jan-15,151.32,157.89,146.24,156.70,390068
16-Jan-15,146.47,151.45,146.05,150.64,803825
15-Jan-15,154.52,157.57,144.79,147.42,454910
14-Jan-15,149.39,160.92,149.00,154.18,457579
13-Jan-15,149.21,160.64,148.54,152.70,742170
12-Jan-15,150.01,152.70,145.15,146.18,324795
9-Jan-15,152.20,153.76,145.10,150.00,419318
8-Jan-15,159.38,160.94,145.00,151.04,765547
7-Jan-15,162.99,164.98,156.50,157.30,533338
6-Jan-15,175.00,175.00,155.17,160.01,1232235
5-Jan-15,157.51,178.18,157.47,177.00,1075745
2-Jan-15,154.45,160.99,154.45,159.49,323550
31-Dec-14,155.14,157.50,154.09,156.00,225015
30-Dec-14,152.65,157.45,152.65,156.11,282811
29-Dec-14,154.08,157.62,151.97,154.09,291047
26-Dec-14,150.00,156.21,150.00,155.72,182722
24-Dec-14,144.19,151.75,141.03,151.49,211670
23-Dec-14,155.68,156.51,141.00,145.64,667411
22-Dec-14,157.55,158.20,152.79,156.00,449832
19-Dec-14,149.41,158.18,148.41,156.63,1240328
18-Dec-14,144.83,150.50,143.75,150.14,664840
17-Dec-14,129.64,141.94,129.30,140.71,592489
16-Dec-14,133.12,135.99,128.60,129.30,553535
15-Dec-14,139.86,141.79,133.35,133.91,429423
12-Dec-14,138.75,141.27,137.01,137.69,336238
11-Dec-14,143.11,145.69,137.12,140.17,385734
10-Dec-14,144.16,147.22,140.00,141.05,361764
9-Dec-14,139.57,148.80,138.05,146.03,464666
8-Dec-14,141.91,148.17,140.51,141.77,574482
5-Dec-14,141.00,144.79,137.54,143.64,555397
4-Dec-14,139.99,146.22,135.33,138.02,688187
3-Dec-14,131.50,137.08,128.50,137.00,738924
2-Dec-14,134.76,139.34,134.51,136.19,670256
1-Dec-14,142.00,143.99,131.90,133.04,868060
28-Nov-14,150.45,150.60,143.36,143.73,399066
26-Nov-14,148.74,152.01,147.51,150.45,285703
25-Nov-14,153.70,154.26,145.22,149.20,632742
24-Nov-14,154.34,155.81,152.04,155.00,415123
21-Nov-14,158.33,158.70,154.10,154.87,357868
20-Nov-14,155.00,157.49,150.50,156.00,409019
19-Nov-14,160.69,161.91,155.15,155.93,420440
18-Nov-14,157.07,165.23,157.07,162.50,454393
17-Nov-14,160.00,162.99,154.34,158.10,539466
14-Nov-14,158.02,164.35,154.51,162.58,700270
13-Nov-14,162.96,164.50,154.00,158.86,770854
12-Nov-14,171.25,171.38,152.51,162.96,1421757
11-Nov-14,182.66,184.98,170.80,173.13,990476
10-Nov-14,175.95,182.00,172.60,176.34,1018111
7-Nov-14,199.03,208.90,162.06,172.59,4035514
6-Nov-14,251.00,252.50,245.00,246.98,405600
5-Nov-14,262.07,262.07,245.01,245.94,488283
4-Nov-14,256.22,262.50,251.00,260.85,294469
3-Nov-14,259.99,263.40,245.87,256.56,702917
31-Oct-14,261.11,264.92,255.26,258.39,329253
30-Oct-14,249.19,259.89,247.79,256.73,243827
29-Oct-14,246.60,251.87,243.00,250.33,199680
28-Oct-14,245.00,254.00,240.81,246.59,296401
27-Oct-14,237.32,244.39,235.77,243.09,231977
24-Oct-14,230.36,244.00,227.99,237.65,354537
23-Oct-14,228.93,234.75,225.00,229.49,262738
22-Oct-14,228.03,228.03,219.02,224.51,311154
21-Oct-14,230.85,236.95,221.01,225.71,326956
20-Oct-14,223.93,239.50,223.51,231.33,511032
17-Oct-14,222.71,237.49,216.75,224.45,1092863
16-Oct-14,195.46,219.79,192.88,216.64,910667
15-Oct-14,180.25,198.69,176.13,198.08,664420
14-Oct-14,193.65,196.61,180.81,186.22,454460
13-Oct-14,205.00,206.05,188.10,191.50,605256
10-Oct-14,223.65,226.31,203.57,204.10,762379
9-Oct-14,219.50,230.55,219.15,227.73,564236
8-Oct-14,213.35,225.40,211.50,221.12,779457
7-Oct-14,234.48,234.89,222.25,222.72,360598
6-Oct-14,246.70,249.16,227.30,231.74,364361
3-Oct-14,239.08,245.08,236.22,244.43,250449
2-Oct-14,230.48,238.33,223.49,235.61,303173
1-Oct-14,233.00,235.61,225.53,229.79,374563
30-Sep-14,241.08,243.89,236.00,236.69,234231
29-Sep-14,242.61,246.50,239.21,240.34,232059
26-Sep-14,246.08,250.80,244.00,245.84,149766
25-Sep-14,256.84,256.95,243.25,246.51,293790
24-Sep-14,250.00,257.55,246.01,255.96,257366
23-Sep-14,244.54,251.58,242.00,247.75,275630
22-Sep-14,258.00,258.45,242.00,247.24,364369
19-Sep-14,266.75,269.00,253.96,258.05,562189
18-Sep-14,271.57,274.09,265.00,266.88,160077
17-Sep-14,270.00,274.67,269.01,270.97,182231
16-Sep-14,265.95,271.98,261.21,269.79,213361
15-Sep-14,286.75,287.80,265.22,268.41,513850
12-Sep-14,292.92,292.92,285.46,288.21,177569
11-Sep-14,285.20,293.25,285.02,292.85,218752
10-Sep-14,280.50,289.00,278.55,287.91,207773
9-Sep-14,284.51,287.70,282.00,283.09,150978
8-Sep-14,284.30,287.01,279.42,286.52,214291
5-Sep-14,293.39,293.39,285.10,286.16,239394
4-Sep-14,288.94,290.00,283.03,286.70,292864
3-Sep-14,287.20,289.78,282.52,288.29,272806
2-Sep-14,289.59,290.43,284.50,287.09,298948
29-Aug-14,290.05,292.49,286.10,289.72,322789
28-Aug-14,292.15,298.75,288.51,289.10,244399
27-Aug-14,299.00,299.81,292.45,295.27,229932
26-Aug-14,302.00,304.42,297.25,299.90,434541
25-Aug-14,294.25,299.68,291.52,294.56,524770
22-Aug-14,280.20,288.50,276.00,287.11,241955
21-Aug-14,287.46,287.99,278.29,280.52,231197
20-Aug-14,283.37,293.00,282.25,284.09,274556
19-Aug-14,281.98,291.97,280.42,285.56,283344
18-Aug-14,280.00,288.54,273.00,284.80,505064
15-Aug-14,288.00,293.99,283.59,284.70,586794
14-Aug-14,308.00,308.40,291.78,296.36,992759
13-Aug-14,276.53,310.77,272.46,307.61,1877427
12-Aug-14,345.62,349.08,274.00,276.52,6088050
11-Aug-14,239.49,240.00,233.50,237.18,828280
8-Aug-14,220.07,237.45,220.07,234.60,358406
7-Aug-14,224.08,226.70,220.27,222.79,205940
6-Aug-14,224.15,227.54,221.31,223.48,233909
5-Aug-14,227.85,232.66,225.02,227.04,201873
4-Aug-14,230.97,233.05,225.63,227.54,160665
1-Aug-14,230.36,233.38,222.51,229.03,209068
31-Jul-14,237.29,238.21,230.12,232.36,215859
30-Jul-14,243.41,248.27,237.16,240.55,436467
29-Jul-14,225.50,238.56,225.50,234.14,317698
28-Jul-14,220.02,225.00,217.20,223.99,193627
25-Jul-14,224.20,226.90,220.00,221.00,201725
24-Jul-14,232.61,232.90,226.00,227.48,173613
23-Jul-14,231.21,234.99,225.45,231.85,423532
22-Jul-14,219.49,226.00,219.00,223.00,247449
21-Jul-14,215.97,218.43,213.05,218.14,191276
18-Jul-14,211.97,219.25,208.00,218.72,344231
17-Jul-14,216.00,220.66,209.22,210.36,478284
16-Jul-14,222.03,222.97,217.05,218.08,327367
15-Jul-14,226.00,227.67,218.50,220.17,442711
14-Jul-14,236.61,236.69,225.07,226.06,412426
11-Jul-14,223.50,225.47,219.17,222.20,214300
10-Jul-14,217.00,227.20,215.23,223.40,409165
9-Jul-14,224.17,227.43,215.63,226.95,442154
8-Jul-14,236.50,237.51,220.57,223.01,683752
7-Jul-14,242.11,244.85,235.52,237.52,325874
3-Jul-14,249.38,251.00,241.66,244.98,171897
2-Jul-14,245.96,255.78,245.35,246.21,476275
1-Jul-14,244.31,256.45,241.53,248.14,653710
30-Jun-14,240.03,244.86,234.51,236.63,496515
27-Jun-14,239.25,245.99,235.39,242.49,1353628
26-Jun-14,255.88,258.00,237.50,239.42,682435
25-Jun-14,271.47,280.49,252.44,253.65,954678
24-Jun-14,278.53,284.30,273.00,273.61,490115
23-Jun-14,272.28,282.95,267.00,273.98,317469
20-Jun-14,278.55,279.96,265.71,273.18,457680
19-Jun-14,284.77,286.34,272.84,276.72,294477
18-Jun-14,277.63,285.99,276.08,284.99,229271
17-Jun-14,275.35,286.93,274.12,280.50,235313
16-Jun-14,274.63,282.00,269.10,279.83,288951
13-Jun-14,279.03,283.88,265.70,274.20,327200
12-Jun-14,289.23,294.95,271.67,278.64,466252
11-Jun-14,286.34,293.00,283.21,286.45,409436
10-Jun-14,288.19,299.90,281.11,292.94,597315
9-Jun-14,271.80,297.67,268.32,286.44,890458
6-Jun-14,257.50,269.00,253.25,267.97,324433
5-Jun-14,265.50,277.45,255.00,255.75,608152
4-Jun-14,232.45,263.65,232.45,260.01,789361
3-Jun-14,232.94,235.98,229.77,233.66,243966
2-Jun-14,233.75,239.96,228.02,234.05,448510
30-May-14,241.01,242.75,232.80,236.61,441171
29-May-14,248.00,249.00,239.12,243.06,509417
28-May-14,244.22,248.00,232.97,234.03,533259
27-May-14,233.00,246.74,231.87,239.92,509757
23-May-14,231.44,235.58,225.50,229.82,325610
22-May-14,222.00,235.87,215.00,231.43,872782
21-May-14,230.46,233.00,215.02,217.94,1204881
20-May-14,240.00,251.89,222.92,223.34,1603965
19-May-14,276.83,278.99,258.02,260.00,526723
16-May-14,283.94,285.60,272.90,280.26,244213
15-May-14,277.32,284.00,267.66,282.11,558885
14-May-14,257.66,276.43,256.65,270.94,406917
13-May-14,248.66,262.00,247.42,259.46,373645
12-May-14,232.56,250.07,231.89,250.06,382994
9-May-14,232.00,237.94,224.44,235.37,451389
8-May-14,245.00,250.00,228.05,231.24,524302
7-May-14,260.76,266.85,248.01,254.48,437833
6-May-14,260.89,277.00,260.10,260.70,275223
5-May-14,259.99,267.50,257.00,263.14,161325
2-May-14,260.20,262.93,255.51,262.03,297243
1-May-14,264.28,272.51,257.00,260.49,344649
30-Apr-14,270.14,270.14,255.02,264.12,490433
29-Apr-14,262.35,274.94,260.00,269.81,274178
28-Apr-14,263.00,271.03,251.02,262.07,416305
25-Apr-14,267.04,267.87,254.04,260.15,377655
24-Apr-14,265.00,277.50,258.92,271.56,429190
23-Apr-14,283.78,286.99,258.52,263.30,531081
22-Apr-14,247.48,287.00,247.04,282.77,917777
21-Apr-14,240.01,246.00,235.01,242.11,379190
17-Apr-14,235.70,251.00,227.50,240.10,523009
16-Apr-14,251.10,255.00,233.33,237.51,773869
15-Apr-14,255.01,259.27,209.00,248.97,1669122
14-Apr-14,279.00,279.00,247.65,256.00,898590
11-Apr-14,260.33,272.00,250.00,266.01,646677
10-Apr-14,302.04,305.95,256.00,264.68,763224
9-Apr-14,291.12,301.80,286.01,299.56,387286
8-Apr-14,295.92,298.38,284.13,291.26,503854
7-Apr-14,286.30,302.06,275.72,295.50,631701
4-Apr-14,330.17,332.48,288.50,290.89,1487527
3-Apr-14,332.78,336.82,317.75,321.81,437383
2-Apr-14,322.79,333.82,320.11,330.65,423791
1-Apr-14,330.06,339.67,326.00,334.19,454858
31-Mar-14,323.00,332.76,317.05,329.79,408235
28-Mar-14,326.48,335.98,313.14,317.58,501433
27-Mar-14,320.82,337.98,306.23,329.00,494478
26-Mar-14,352.36,360.10,320.00,322.32,704811
25-Mar-14,373.03,373.69,340.08,350.78,810287
24-Mar-14,398.75,404.45,346.37,366.61,635680
21-Mar-14,421.35,428.66,388.01,390.91,1555585
20-Mar-14,432.53,449.00,415.71,418.91,440001
19-Mar-14,443.17,450.00,434.25,438.96,436320
18-Mar-14,412.99,438.66,403.03,434.96,668537
17-Mar-14,463.91,478.47,386.00,407.16,2199088
14-Mar-14,475.10,484.99,455.01,462.26,664546
13-Mar-14,452.66,458.90,432.00,447.97,396795
12-Mar-14,438.76,459.80,436.00,449.49,391964
11-Mar-14,441.00,470.87,436.14,438.16,700112
10-Mar-14,415.50,444.99,405.78,444.01,489456
7-Mar-14,424.99,426.00,392.98,411.29,470571
6-Mar-14,427.01,433.88,413.25,416.69,373440
5-Mar-14,436.80,443.88,425.50,428.66,259882
4-Mar-14,429.21,450.00,425.53,435.43,447980
3-Mar-14,410.50,417.69,400.00,414.09,325188
28-Feb-14,434.00,437.00,394.00,410.50,728258
27-Feb-14,409.97,430.99,401.08,425.93,613556
26-Feb-14,380.86,414.99,378.01,406.11,609620
25-Feb-14,373.03,387.88,373.00,379.07,310700
24-Feb-14,373.96,379.00,367.70,373.12,321508
21-Feb-14,378.17,381.00,369.57,370.17,264835
20-Feb-14,358.14,377.45,357.31,375.14,314950
19-Feb-14,362.95,364.87,356.40,357.11,155585
18-Feb-14,353.89,366.55,348.00,364.77,434929
14-Feb-14,367.51,373.85,342.70,346.51,548426
13-Feb-14,363.54,377.98,363.13,366.57,391053
12-Feb-14,368.16,388.00,365.08,368.89,459237
11-Feb-14,374.01,381.80,356.01,373.91,693325
10-Feb-14,354.52,387.76,354.09,365.29,1030354
7-Feb-14,301.78,352.80,301.03,351.56,1222581
6-Feb-14,297.34,305.27,297.11,300.38,253322
5-Feb-14,299.78,307.63,287.04,297.46,318798
4-Feb-14,290.60,306.00,286.51,302.54,383799
3-Feb-14,301.03,301.86,280.11,286.51,470843
31-Jan-14,295.95,305.00,292.55,300.88,497534
30-Jan-14,304.60,316.50,297.01,298.50,433674
29-Jan-14,292.89,313.81,290.00,299.87,313467
28-Jan-14,289.90,312.74,287.00,305.42,590832
27-Jan-14,294.80,295.00,272.07,281.00,639806
24-Jan-14,323.18,327.00,294.02,295.25,680046
23-Jan-14,326.77,338.88,320.00,326.03,537450
22-Jan-14,353.70,354.00,327.10,331.81,1609475
21-Jan-14,300.05,332.99,300.05,326.11,1197710
17-Jan-14,267.35,320.00,267.02,292.89,1727757
16-Jan-14,267.94,284.98,256.00,277.62,871874
15-Jan-14,280.00,289.00,247.52,281.26,2586362
14-Jan-14,361.00,361.00,235.00,255.12,5011299
13-Jan-14,339.87,380.00,319.48,364.36,3498863
10-Jan-14,373.00,497.00,373.00,445.83,5982532
9-Jan-14,231.89,305.00,231.31,275.87,6840347
8-Jan-14,71.45,76.21,71.00,72.39,650589
7-Jan-14,67.41,71.97,65.22,71.25,413887
6-Jan-14,69.39,69.56,67.15,67.77,204593
3-Jan-14,68.82,70.00,68.69,69.17,247631
2-Jan-14,67.79,69.00,67.79,68.77,144177
31-Dec-13,67.23,68.74,66.48,68.28,165553
30-Dec-13,66.89,67.42,66.33,67.18,162954
27-Dec-13,66.51,67.99,65.92,66.24,132237
26-Dec-13,66.00,66.62,65.10,66.27,174968
24-Dec-13,64.00,66.82,62.78,65.79,60414
23-Dec-13,62.47,65.75,61.95,63.76,293869
20-Dec-13,57.81,63.58,57.60,62.87,891672
19-Dec-13,56.95,58.23,54.02,57.88,312140
18-Dec-13,59.07,59.07,54.72,57.19,191694
17-Dec-13,58.82,59.73,56.94,58.75,166361
16-Dec-13,62.94,62.94,58.46,59.27,262736
13-Dec-13,60.28,63.20,59.40,62.92,232666
12-Dec-13,58.50,60.45,57.77,60.28,178027
11-Dec-13,59.46,59.46,57.84,58.63,262734
10-Dec-13,57.14,59.50,56.11,59.26,359633
9-Dec-13,57.78,60.43,57.78,59.36,312189
6-Dec-13,57.60,58.07,56.33,57.69,217719
5-Dec-13,56.80,56.80,55.75,56.52,84165
4-Dec-13,55.61,58.64,55.61,56.62,150444
3-Dec-13,54.70,55.99,53.51,55.62,121613
2-Dec-13,52.68,55.94,52.42,54.46,203161
29-Nov-13,52.65,53.25,52.01,52.37,45949
27-Nov-13,52.31,53.53,51.53,52.47,108329
26-Nov-13,50.90,52.15,50.90,51.96,90998
25-Nov-13,52.02,52.38,50.03,50.66,112386
22-Nov-13,52.20,52.20,50.57,51.54,109277
21-Nov-13,51.14,52.53,51.04,51.77,61446
20-Nov-13,50.94,51.63,49.75,50.68,149886
19-Nov-13,49.24,52.00,49.01,50.97,87522
18-Nov-13,52.14,52.70,49.00,49.43,226701
15-Nov-13,48.99,51.45,48.00,50.53,503287
14-Nov-13,51.99,52.23,48.09,49.09,88947
13-Nov-13,52.78,52.78,51.32,52.09,168467
12-Nov-13,52.33,53.34,51.34,52.22,90502
11-Nov-13,49.03,53.45,48.02,52.35,131919
8-Nov-13,48.67,50.63,46.81,48.97,271169
7-Nov-13,50.15,51.95,47.80,48.57,150184
6-Nov-13,52.50,53.39,49.09,49.94,72313
5-Nov-13,51.91,52.46,51.25,51.93,67978
4-Nov-13,53.73,53.73,51.72,52.00,70262
1-Nov-13,54.26,55.47,52.51,53.39,64585
31-Oct-13,54.35,55.13,52.52,54.24,48522
30-Oct-13,56.63,57.51,53.62,54.17,107459
29-Oct-13,55.31,58.51,55.28,56.91,61459
28-Oct-13,58.72,59.10,57.13,57.56,58163
25-Oct-13,60.53,60.53,58.14,58.92,110438
24-Oct-13,55.68,61.01,55.18,59.63,222879
23-Oct-13,52.09,55.59,50.11,54.96,307055
22-Oct-13,53.94,54.51,52.08,52.77,214575
21-Oct-13,55.35,55.70,53.01,53.56,336619
18-Oct-13,60.68,60.68,55.06,55.66,201528
17-Oct-13,59.74,60.99,59.02,59.89,117242
16-Oct-13,60.77,62.15,59.06,60.14,309565
15-Oct-13,60.00,60.99,58.49,60.55,191054
14-Oct-13,59.31,60.29,57.31,60.04,154979
11-Oct-13,60.36,62.32,58.15,60.02,287283
10-Oct-13,60.25,62.49,59.35,61.17,307822
9-Oct-13,62.40,63.08,58.00,59.86,982242
8-Oct-13,68.98,69.13,61.16,64.65,210360
7-Oct-13,67.81,69.70,67.81,69.28,69570
4-Oct-13,68.79,69.91,68.37,68.89,78948
3-Oct-13,71.45,71.45,68.29,68.94,135537
2-Oct-13,75.96,75.96,69.47,72.02,233213
1-Oct-13,70.36,77.53,69.26,76.82,272794
30-Sep-13,67.99,72.64,67.06,69.03,161872
27-Sep-13,68.36,69.44,67.30,68.30,71358
26-Sep-13,64.48,68.91,63.85,68.44,351836
25-Sep-13,63.98,64.99,63.39,63.44,42811
24-Sep-13,64.86,65.60,63.51,63.90,155733
23-Sep-13,63.70,66.34,63.70,64.40,139885
20-Sep-13,59.12,64.18,58.29,63.94,436042
19-Sep-13,54.17,56.47,54.17,56.43,112849
18-Sep-13,54.60,58.32,52.85,54.53,164449
17-Sep-13,50.57,54.60,50.18,54.35,104222
16-Sep-13,49.78,50.67,48.92,50.22,146718
13-Sep-13,49.84,50.00,47.92,49.34,71024
12-Sep-13,49.97,50.15,49.33,49.46,8896
11-Sep-13,50.10,50.60,49.27,50.08,77245
10-Sep-13,49.65,50.98,49.30,50.56,127613
9-Sep-13,48.07,50.00,48.07,49.91,38554
6-Sep-13,47.09,48.59,45.55,48.14,222129
5-Sep-13,47.55,47.65,45.96,46.83,47360
4-Sep-13,47.00,47.88,46.20,47.38,132833
3-Sep-13,46.13,47.32,45.80,46.78,120832
30-Aug-13,45.93,46.38,45.44,45.74,97765
29-Aug-13,45.40,46.22,45.40,46.11,51593
28-Aug-13,44.15,45.74,44.15,45.40,96198
27-Aug-13,44.62,45.71,43.15,44.15,60549
26-Aug-13,43.94,45.00,43.60,44.68,162201
23-Aug-13,44.55,45.00,42.41,43.71,57528
22-Aug-13,44.48,44.78,43.95,44.53,24050
21-Aug-13,44.52,44.76,43.88,44.27,25450
20-Aug-13,44.18,44.79,43.60,44.46,30042
19-Aug-13,44.41,44.80,43.60,44.41,35842
16-Aug-13,44.47,45.03,43.66,44.25,35092
15-Aug-13,45.52,45.66,44.12,44.79,62620
14-Aug-13,46.34,46.64,46.00,46.19,41677
13-Aug-13,45.93,46.20,43.02,46.08,51317
12-Aug-13,45.46,46.93,45.31,46.30,77801
9-Aug-13,45.64,46.32,44.66,45.36,64167
8-Aug-13,46.51,46.96,45.88,46.08,16770
7-Aug-13,45.10,46.54,45.10,46.30,33947
6-Aug-13,46.06,47.19,44.98,45.36,60466
5-Aug-13,45.83,46.75,45.69,46.26,64587
2-Aug-13,45.83,46.42,45.64,45.72,15155
1-Aug-13,46.82,47.28,45.01,46.05,49296
31-Jul-13,44.95,47.33,44.95,46.81,74548
30-Jul-13,44.35,45.51,43.79,44.95,69477
29-Jul-13,45.62,45.62,43.19,44.07,23243
26-Jul-13,45.42,46.35,44.47,45.80,72276
25-Jul-13,47.41,47.53,45.22,46.00,72664
24-Jul-13,46.30,48.00,46.00,47.21,76726
23-Jul-13,48.54,48.54,46.53,47.46,59400
22-Jul-13,50.39,50.39,48.03,48.64,67903
19-Jul-13,50.43,50.97,50.26,50.49,35660
18-Jul-13,50.78,51.25,50.03,50.58,26298
17-Jul-13,49.23,51.00,49.17,50.88,27800
16-Jul-13,49.51,50.54,49.22,49.37,90242
15-Jul-13,50.89,51.22,49.22,49.80,72832
12-Jul-13,51.76,52.36,50.10,51.01,59413
11-Jul-13,50.00,52.47,49.42,52.42,138584
10-Jul-13,48.25,50.00,48.11,49.90,83985
9-Jul-13,46.69,48.95,46.11,48.75,120727
8-Jul-13,44.99,47.25,44.36,47.03,165697
5-Jul-13,44.00,44.89,43.65,44.70,139278
3-Jul-13,44.00,44.00,43.67,43.94,51331
2-Jul-13,43.52,44.30,43.05,44.30,82836
1-Jul-13,44.85,44.99,43.48,43.89,85748
28-Jun-13,43.93,45.00,43.16,44.84,280673
27-Jun-13,40.61,44.88,38.90,44.50,249521
26-Jun-13,39.67,40.73,39.04,40.51,135335
25-Jun-13,39.23,40.00,39.12,39.50,420758
24-Jun-13,38.89,39.82,38.38,39.02,93381
21-Jun-13,40.89,40.89,38.21,39.05,148212
20-Jun-13,37.79,39.49,36.90,38.72,238487
19-Jun-13,35.05,38.47,35.00,38.41,989434
18-Jun-13,32.51,33.20,32.36,33.01,34393
17-Jun-13,32.67,33.05,32.33,32.81,22837
14-Jun-13,32.13,32.84,31.70,32.51,18889
13-Jun-13,31.19,32.20,31.10,32.15,16291
12-Jun-13,31.72,32.25,30.73,31.10,24346
11-Jun-13,31.60,32.19,31.01,31.73,10414
10-Jun-13,33.55,33.55,30.74,32.29,29966
7-Jun-13,32.08,34.15,31.88,33.65,34175
6-Jun-13,31.73,32.06,31.38,31.86,14573
5-Jun-13,31.09,32.23,31.09,31.41,13837
4-Jun-13,31.18,32.86,31.04,31.86,31483
3-Jun-13,33.32,33.81,31.17,31.41,45205
31-May-13,33.80,34.11,33.35,33.44,44530
30-May-13,34.07,34.20,33.79,33.92,20958
29-May-13,34.20,34.49,33.80,34.31,27899
28-May-13,34.48,34.50,33.97,34.35,40182
24-May-13,34.33,34.51,34.24,34.36,20763
23-May-13,32.75,34.54,32.75,34.17,30441
22-May-13,34.43,34.51,32.67,32.90,27107
21-May-13,33.68,34.50,33.68,34.47,27843
20-May-13,33.24,34.50,33.24,33.92,94033
17-May-13,32.19,33.50,31.89,33.22,48296
16-May-13,31.04,32.10,30.90,31.95,45835
15-May-13,31.41,31.82,30.55,31.35,28534
14-May-13,31.45,31.89,30.95,31.57,42437
13-May-13,31.44,32.00,30.85,31.68,54610
10-May-13,31.20,31.47,31.20,31.40,27602
9-May-13,31.51,31.75,30.91,31.08,15805
8-May-13,31.75,31.78,31.36,31.67,9420
7-May-13,33.03,33.03,31.89,31.90,14638
6-May-13,33.52,33.52,32.77,33.07,13082
3-May-13,33.71,33.80,33.13,33.65,8072
2-May-13,33.39,33.39,32.86,33.27,27783
1-May-13,33.65,33.97,32.75,33.07,114077
30-Apr-13,34.51,34.51,33.61,34.05,4838
29-Apr-13,34.51,34.96,33.90,34.29,24831
26-Apr-13,34.03,34.79,34.03,34.60,9800
25-Apr-13,34.86,34.86,32.51,33.97,21805
24-Apr-13,35.00,35.02,33.94,34.70,37248
23-Apr-13,32.95,35.03,32.95,34.89,64924
22-Apr-13,31.57,33.25,31.36,33.21,77996
19-Apr-13,31.74,31.75,30.38,31.34,102518
18-Apr-13,31.98,32.15,31.51,31.71,44053
17-Apr-13,32.43,32.43,31.62,31.72,42899
16-Apr-13,33.81,33.81,31.78,32.44,51134
15-Apr-13,34.06,34.89,33.20,33.33,50668
12-Apr-13,34.46,34.46,33.73,33.98,57950
11-Apr-13,35.01,35.01,34.50,34.71,43679
10-Apr-13,34.82,35.00,34.22,34.99,63422
9-Apr-13,35.50,35.99,34.10,34.57,164035
8-Apr-13,35.76,35.81,33.80,35.23,53474
5-Apr-13,33.72,36.00,33.72,35.54,21732
4-Apr-13,34.93,35.11,32.85,34.32,52648
3-Apr-13,36.49,37.46,34.06,34.57,32952
2-Apr-13,37.01,37.25,36.09,36.48,13742
1-Apr-13,37.25,37.93,36.30,36.82,15259
28-Mar-13,37.45,37.78,37.20,37.40,12443
27-Mar-13,37.50,37.99,36.83,37.34,16536
26-Mar-13,37.87,38.19,37.47,38.00,15523
25-Mar-13,37.14,38.00,37.00,37.82,19478
22-Mar-13,36.36,37.39,36.36,37.15,8385
21-Mar-13,37.25,37.74,37.00,37.18,19137
20-Mar-13,37.45,37.92,37.20,37.60,7870
19-Mar-13,36.60,37.75,36.60,37.03,15364
18-Mar-13,37.25,37.38,36.46,36.48,5319
15-Mar-13,37.70,37.70,37.55,37.55,15396
14-Mar-13,37.84,38.04,36.71,37.65,31703
13-Mar-13,38.02,38.25,37.35,37.99,45068
12-Mar-13,38.00,38.00,36.99,37.53,22042
11-Mar-13,37.74,38.14,36.66,37.16,2722
8-Mar-13,38.81,38.93,37.76,37.95,13644
7-Mar-13,37.68,38.85,37.63,38.10,5118
6-Mar-13,38.15,39.48,37.56,37.79,15666
5-Mar-13,38.00,38.99,37.01,38.31,17846
4-Mar-13,36.65,38.18,36.50,37.69,12699
1-Mar-13,37.72,38.95,36.72,36.99,8287
28-Feb-13,38.80,39.49,34.99,39.02,58880
27-Feb-13,38.05,39.50,38.05,38.96,82437
26-Feb-13,36.93,38.96,36.93,38.20,16771
25-Feb-13,38.65,39.99,36.04,36.75,27967
22-Feb-13,36.44,39.00,35.00,38.80,22255
21-Feb-13,37.24,37.80,35.31,35.45,9754
20-Feb-13,39.50,39.50,36.52,36.81,12672
19-Feb-13,37.89,40.40,36.96,39.53,14243
15-Feb-13,36.70,37.24,35.29,36.84,19680
14-Feb-13,34.97,36.40,34.97,36.24,10257
13-Feb-13,35.63,36.54,34.86,35.14,51774
12-Feb-13,35.49,36.75,35.00,36.35,7200
11-Feb-13,36.76,37.30,35.18,35.40,21427
8-Feb-13,37.47,38.98,36.78,37.34,28787
7-Feb-13,37.84,38.50,36.66,37.30,18638
6-Feb-13,38.00,38.48,36.01,37.97,11361
5-Feb-13,37.82,38.00,36.50,37.63,29303
4-Feb-13,38.91,39.99,37.47,37.82,21114
1-Feb-13,39.66,40.60,38.94,39.94,14372
31-Jan-13,39.95,40.50,38.00,40.39,59963
30-Jan-13,41.70,41.70,36.93,39.66,123563
29-Jan-13,41.58,42.67,40.02,41.70,42681
28-Jan-13,39.00,42.11,38.31,41.01,67931
25-Jan-13,37.30,38.50,37.30,38.49,42060
24-Jan-13,36.01,37.30,35.86,37.29,46303
23-Jan-13,34.20,36.19,34.20,35.85,57873
22-Jan-13,33.99,34.19,33.83,34.19,9357
18-Jan-13,33.61,34.15,33.55,33.93,16163
17-Jan-13,34.04,34.10,33.56,33.73,15806
16-Jan-13,34.19,34.19,33.56,33.71,10976
15-Jan-13,33.57,34.36,33.57,34.18,62167
14-Jan-13,34.19,34.19,33.53,33.58,15534
11-Jan-13,34.10,34.10,33.78,33.89,11842
10-Jan-13,34.20,34.44,33.51,34.02,28931
9-Jan-13,33.78,34.09,33.50,33.74,4923
8-Jan-13,33.73,34.00,33.45,33.72,17865
7-Jan-13,34.05,34.31,33.50,33.86,8057
4-Jan-13,34.49,34.49,33.91,34.13,29319
3-Jan-13,34.26,34.49,33.99,34.04,17741
2-Jan-13,34.39,34.39,33.85,34.26,39734
31-Dec-12,34.09,34.28,33.86,34.24,39536
28-Dec-12,33.79,34.05,33.76,34.00,16338
27-Dec-12,33.99,34.09,33.56,33.83,35672
26-Dec-12,33.94,34.08,33.76,33.94,17410
24-Dec-12,34.24,34.26,33.51,33.93,16550
21-Dec-12,33.88,34.34,33.34,34.34,659725
20-Dec-12,34.00,34.15,33.81,34.09,65956
19-Dec-12,33.78,34.69,32.87,33.71,46189
18-Dec-12,35.02,35.99,32.98,34.01,52924
17-Dec-12,34.64,34.95,34.10,34.75,5793
14-Dec-12,34.89,35.13,34.57,34.58,17286
13-Dec-12,32.97,35.32,32.97,34.90,79901
12-Dec-12,30.35,33.13,30.35,33.00,22328
11-Dec-12,27.56,30.23,26.80,30.23,10036
10-Dec-12,27.07,28.44,27.07,28.20,4351
7-Dec-12,28.50,28.54,27.10,28.45,17075
6-Dec-12,24.93,28.92,24.51,28.20,9768
5-Dec-12,23.28,25.00,23.05,25.00,9681
4-Dec-12,22.89,23.49,22.42,23.49,6059
3-Dec-12,22.46,22.96,22.25,22.55,3949
30-Nov-12,22.30,23.37,22.07,23.37,974
29-Nov-12,21.71,22.43,21.50,22.00,14804
28-Nov-12,21.01,21.50,20.58,21.50,26130
27-Nov-12,21.32,21.97,21.04,21.05,3576
26-Nov-12,21.07,22.00,20.75,21.06,27991
23-Nov-12,21.00,21.98,20.38,21.21,7082
21-Nov-12,21.01,21.50,21.01,21.01,2300
20-Nov-12,21.51,21.59,21.02,21.50,2950
19-Nov-12,21.46,21.78,20.51,21.48,4000
16-Nov-12,22.18,22.18,21.10,21.50,14139
15-Nov-12,22.00,22.80,20.06,22.12,17567
14-Nov-12,21.50,22.00,21.24,21.99,23153
13-Nov-12,21.12,22.59,20.79,21.46,59353
12-Nov-12,20.81,21.00,20.50,21.00,36492
9-Nov-12,19.52,21.35,19.24,20.00,40527
8-Nov-12,22.00,22.00,19.03,20.10,131185
7-Nov-12,20.54,21.35,19.00,20.20,48642
6-Nov-12,19.57,21.00,19.57,21.00,30560
5-Nov-12,19.00,20.93,18.79,19.27,7851
2-Nov-12,18.51,19.00,18.17,18.75,24178
1-Nov-12,18.21,19.02,17.96,19.00,8973
31-Oct-12,18.16,19.00,18.06,18.06,8203
26-Oct-12,19.95,19.95,18.80,19.02,12800
25-Oct-12,18.90,19.20,18.70,19.20,13891
24-Oct-12,19.10,19.24,19.00,19.20,10098
23-Oct-12,19.15,19.50,19.05,19.44,21088
22-Oct-12,19.22,19.99,19.05,19.50,4043
19-Oct-12,19.92,20.30,19.65,19.97,114884
18-Oct-12,19.58,20.01,19.58,20.00,29164
17-Oct-12,20.00,20.00,19.26,19.78,13592
16-Oct-12,19.29,19.91,19.20,19.67,80986
15-Oct-12,19.00,19.55,18.59,19.26,54228
12-Oct-12,19.01,19.75,18.56,19.05,49809
11-Oct-12,19.40,20.40,18.74,19.40,813752
