﻿Date,Open,High,Low,Close,Volume
20-Jun-17,11.49,11.63,11.24,11.26,1719913
19-Jun-17,11.75,11.81,11.37,11.57,1701165
16-Jun-17,11.45,11.90,11.34,11.52,3274039
15-Jun-17,11.21,11.49,11.06,11.46,2200372
14-Jun-17,11.71,11.75,11.04,11.39,4672140
13-Jun-17,10.91,11.06,10.80,10.96,997931
12-Jun-17,10.50,10.88,10.25,10.83,1841383
9-Jun-17,11.20,11.46,10.33,10.52,2743883
8-Jun-17,10.74,11.23,10.61,11.17,2630814
7-Jun-17,10.60,10.74,10.35,10.73,2168555
6-Jun-17,10.40,10.72,10.36,10.60,1725549
5-Jun-17,10.26,10.51,10.18,10.48,2260889
2-Jun-17,10.22,10.39,10.07,10.29,1489338
1-Jun-17,10.05,10.29,9.90,10.26,2114182
31-May-17,10.05,10.05,9.57,9.72,1131734
30-May-17,10.37,10.51,10.03,10.03,1416172
26-May-17,10.00,10.38,9.88,10.35,3567499
25-May-17,9.80,9.85,9.31,9.51,2241474
24-May-17,9.82,9.82,9.66,9.78,925904
23-May-17,9.83,9.95,9.70,9.83,1449981
22-May-17,9.23,9.85,9.23,9.82,2021838
19-May-17,9.18,9.29,9.09,9.19,1122868
18-May-17,9.23,9.31,9.12,9.14,1308552
17-May-17,9.52,9.55,9.21,9.22,1580524
16-May-17,9.62,9.70,9.54,9.67,1505463
15-May-17,9.54,9.74,9.54,9.62,1154957
12-May-17,9.43,9.59,9.23,9.51,1223459
11-May-17,9.44,9.53,9.32,9.46,849371
10-May-17,9.55,9.64,9.43,9.49,1253099
9-May-17,9.29,9.59,9.25,9.58,1746228
8-May-17,9.49,9.54,9.17,9.29,3770932
5-May-17,9.72,9.93,9.13,9.55,5230179
4-May-17,10.08,10.34,9.77,9.95,3826350
3-May-17,9.88,10.01,9.72,9.99,1216066
2-May-17,9.90,9.96,9.78,9.92,1463442
1-May-17,9.96,10.01,9.83,9.86,1201121
28-Apr-17,10.28,10.31,9.89,9.92,1368609
27-Apr-17,10.00,10.24,9.93,10.24,2287755
26-Apr-17,10.14,10.17,9.96,9.98,1034817
25-Apr-17,10.27,10.37,10.13,10.14,1082263
24-Apr-17,9.79,10.25,9.71,10.18,2373426
21-Apr-17,9.63,9.86,9.57,9.63,1636390
20-Apr-17,9.60,9.77,9.54,9.72,936509
19-Apr-17,9.67,9.74,9.52,9.54,1370553
18-Apr-17,9.65,9.73,9.52,9.59,1239781
17-Apr-17,9.48,9.77,9.45,9.75,1518695
13-Apr-17,9.42,9.67,9.36,9.45,1458466
12-Apr-17,9.48,9.54,9.32,9.35,961439
11-Apr-17,9.62,9.71,9.49,9.51,1433366
10-Apr-17,9.85,9.87,9.51,9.64,1551858
7-Apr-17,9.90,9.93,9.78,9.87,2418960
6-Apr-17,9.63,9.94,9.58,9.93,2970808
5-Apr-17,10.34,10.45,9.62,9.63,2746431
4-Apr-17,10.12,10.31,10.00,10.30,2508498
3-Apr-17,10.25,10.28,10.05,10.15,1593877
31-Mar-17,10.38,10.43,10.22,10.23,1497672
30-Mar-17,10.39,10.50,10.33,10.40,1474506
29-Mar-17,10.55,10.58,10.36,10.42,2608905
28-Mar-17,10.80,10.81,10.58,10.59,2087467
27-Mar-17,10.59,10.92,10.58,10.88,941918
24-Mar-17,10.90,11.05,10.71,10.85,1951996
23-Mar-17,10.69,10.97,10.61,10.86,1448465
22-Mar-17,10.49,10.70,10.45,10.69,1466899
21-Mar-17,11.04,11.15,10.50,10.50,2864622
20-Mar-17,11.12,11.14,10.90,10.91,1134158
17-Mar-17,11.19,11.41,11.12,11.13,2067691
16-Mar-17,11.10,11.51,10.96,11.20,3700860
15-Mar-17,10.23,10.36,10.20,10.35,1111215
14-Mar-17,10.30,10.35,10.14,10.18,1172394
13-Mar-17,10.46,10.58,10.33,10.35,1103446
10-Mar-17,10.54,10.58,10.39,10.48,1280879
9-Mar-17,10.64,10.65,10.32,10.49,1508012
8-Mar-17,10.71,10.90,10.60,10.64,1417367
7-Mar-17,10.78,10.85,10.61,10.69,1626494
6-Mar-17,10.74,10.84,10.69,10.82,1180647
3-Mar-17,10.77,10.90,10.68,10.89,1653635
2-Mar-17,10.90,10.92,10.75,10.77,1196265
1-Mar-17,11.01,11.12,10.87,10.92,1615501
28-Feb-17,11.02,11.02,10.78,10.85,2097413
27-Feb-17,10.87,11.05,10.82,11.05,2172245
24-Feb-17,10.82,11.08,10.82,10.87,1385220
23-Feb-17,11.24,11.24,10.81,11.03,2641351
22-Feb-17,11.29,11.32,11.06,11.20,2106804
21-Feb-17,11.35,11.52,11.28,11.30,2088610
17-Feb-17,11.39,11.40,11.24,11.36,2063781
16-Feb-17,11.45,11.91,11.31,11.45,4309645
15-Feb-17,12.30,12.30,11.73,11.75,3924000
14-Feb-17,11.98,12.38,11.87,12.33,5204814
13-Feb-17,11.94,12.50,11.55,12.10,6173442
10-Feb-17,10.99,12.30,10.93,11.96,16639335
9-Feb-17,9.14,9.46,9.14,9.40,5214231
8-Feb-17,9.24,9.25,9.04,9.18,2527829
7-Feb-17,9.36,9.50,9.25,9.30,3176012
6-Feb-17,9.29,9.40,9.11,9.34,2677191
3-Feb-17,9.12,9.40,9.03,9.37,3043922
2-Feb-17,9.00,9.03,8.84,9.01,2158613
1-Feb-17,9.05,9.13,8.82,9.01,1996327
31-Jan-17,8.81,9.01,8.70,9.01,1939868
30-Jan-17,8.82,8.89,8.72,8.86,1584045
27-Jan-17,8.71,8.91,8.61,8.89,1694365
26-Jan-17,8.91,8.93,8.64,8.68,1064198
25-Jan-17,8.90,9.02,8.88,8.89,1567884
24-Jan-17,8.54,8.85,8.54,8.82,1541076
23-Jan-17,8.57,8.59,8.43,8.52,777153
20-Jan-17,8.57,8.69,8.56,8.60,969656
19-Jan-17,8.42,8.65,8.38,8.54,1155813
18-Jan-17,8.50,8.50,8.35,8.43,1066484
17-Jan-17,8.65,8.65,8.40,8.43,1152067
13-Jan-17,8.73,8.84,8.68,8.73,532153
12-Jan-17,8.74,8.78,8.59,8.70,1099062
11-Jan-17,8.54,8.84,8.51,8.78,1477815
10-Jan-17,8.68,8.73,8.48,8.53,1068005
9-Jan-17,8.85,8.88,8.68,8.68,1138203
6-Jan-17,8.80,8.89,8.74,8.84,1725443
5-Jan-17,8.88,8.91,8.66,8.79,1383094
4-Jan-17,8.78,8.91,8.75,8.91,1880623
3-Jan-17,8.61,8.72,8.47,8.72,1670441
30-Dec-16,8.57,8.59,8.42,8.49,1361686
29-Dec-16,8.49,8.60,8.42,8.55,1118541
28-Dec-16,8.58,8.62,8.44,8.46,1093754
27-Dec-16,8.44,8.60,8.42,8.52,1466358
23-Dec-16,8.44,8.50,8.28,8.45,1470554
22-Dec-16,8.73,8.75,8.39,8.42,1878938
21-Dec-16,8.89,8.96,8.71,8.71,933658
20-Dec-16,9.00,9.10,8.83,8.87,871600
19-Dec-16,8.88,9.05,8.86,8.97,892201
16-Dec-16,9.07,9.07,8.76,8.86,2446072
15-Dec-16,8.95,9.12,8.85,9.07,1894717
14-Dec-16,8.65,9.01,8.63,8.91,2359860
13-Dec-16,8.73,8.80,8.58,8.68,1151028
12-Dec-16,8.77,8.85,8.52,8.68,2257015
9-Dec-16,9.13,9.16,8.75,8.85,1566286
8-Dec-16,8.58,9.09,8.58,9.09,2931746
7-Dec-16,8.47,8.52,8.32,8.48,2326652
6-Dec-16,8.35,8.49,8.24,8.47,1050066
5-Dec-16,8.27,8.49,8.25,8.34,1097416
2-Dec-16,8.32,8.35,8.10,8.18,1477103
1-Dec-16,8.52,8.61,8.30,8.36,1763972
30-Nov-16,8.59,8.59,8.43,8.50,1783784
29-Nov-16,8.52,8.65,8.49,8.50,1126731
28-Nov-16,8.50,8.63,8.42,8.51,1550812
25-Nov-16,8.62,8.65,8.49,8.57,504143
23-Nov-16,8.56,8.65,8.42,8.62,1335942
22-Nov-16,8.39,8.59,8.30,8.54,1814741
21-Nov-16,8.25,8.37,8.17,8.37,1618799
18-Nov-16,8.28,8.31,8.15,8.21,2243849
17-Nov-16,8.62,8.62,8.22,8.23,2056165
16-Nov-16,8.61,8.71,8.51,8.66,1146561
15-Nov-16,8.59,8.77,8.49,8.69,1162263
14-Nov-16,8.59,8.68,8.48,8.59,1455151
11-Nov-16,8.31,8.58,8.21,8.51,2395035
10-Nov-16,8.33,8.51,8.12,8.33,1808668
9-Nov-16,7.75,8.22,7.60,8.15,2636730
8-Nov-16,7.70,8.19,7.61,7.90,2212428
7-Nov-16,7.49,7.79,7.37,7.71,1476575
4-Nov-16,7.33,7.40,7.23,7.32,2511525
3-Nov-16,7.45,7.47,7.34,7.34,1904445
2-Nov-16,7.54,7.78,7.38,7.41,3111526
1-Nov-16,7.87,7.89,7.51,7.59,2995153
31-Oct-16,7.95,8.04,7.70,7.80,2657355
28-Oct-16,7.91,8.17,7.84,7.93,3210193
27-Oct-16,7.99,8.60,7.82,7.94,10066984
26-Oct-16,8.78,9.25,8.76,9.23,4276271
25-Oct-16,8.96,8.96,8.69,8.78,1428431
24-Oct-16,8.89,9.03,8.80,8.88,1907353
21-Oct-16,8.76,8.86,8.67,8.80,1305545
20-Oct-16,8.91,9.02,8.82,8.89,1257357
19-Oct-16,8.80,8.97,8.72,8.91,1200148
18-Oct-16,8.75,8.86,8.66,8.78,1404450
17-Oct-16,8.82,8.89,8.62,8.62,1581972
14-Oct-16,8.89,8.99,8.78,8.84,1286769
13-Oct-16,8.80,8.88,8.64,8.81,1642273
12-Oct-16,9.01,9.08,8.71,8.89,1608562
11-Oct-16,9.34,9.47,9.04,9.05,1578113
10-Oct-16,9.48,9.58,9.44,9.44,864871
7-Oct-16,9.57,9.62,9.31,9.42,1693998
6-Oct-16,9.54,9.62,9.37,9.57,1691318
5-Oct-16,9.15,9.58,9.04,9.49,2486341
4-Oct-16,8.95,9.17,8.95,9.08,2535243
3-Oct-16,8.95,9.09,8.92,8.96,1429968
30-Sep-16,8.82,9.08,8.76,9.03,1631932
29-Sep-16,9.13,9.20,8.86,8.87,1716676
28-Sep-16,8.99,9.21,8.96,9.10,1809973
27-Sep-16,8.66,8.96,8.66,8.96,935669
26-Sep-16,8.79,8.89,8.69,8.71,1121384
23-Sep-16,8.83,8.96,8.82,8.85,1151827
22-Sep-16,8.81,8.93,8.73,8.92,1921890
21-Sep-16,8.53,8.70,8.49,8.70,1625416
20-Sep-16,8.60,8.62,8.44,8.48,1370340
19-Sep-16,8.52,8.62,8.48,8.53,1464685
16-Sep-16,8.45,8.51,8.34,8.49,2358904
15-Sep-16,8.44,8.58,8.40,8.47,2108630
14-Sep-16,8.53,8.60,8.34,8.40,2932161
13-Sep-16,8.48,8.69,8.41,8.49,2828045
12-Sep-16,8.55,8.63,8.37,8.60,1870816
9-Sep-16,8.68,8.87,8.50,8.60,2854456
8-Sep-16,8.79,8.84,8.67,8.73,2738177
7-Sep-16,8.92,8.97,8.75,8.79,2095046
6-Sep-16,8.78,9.07,8.77,8.92,2245437
2-Sep-16,8.88,8.94,8.76,8.85,1406556
1-Sep-16,8.56,8.81,8.54,8.80,1835064
31-Aug-16,8.61,8.77,8.52,8.58,1776499
30-Aug-16,8.60,8.79,8.58,8.65,1648257
29-Aug-16,8.68,8.68,8.54,8.57,2604133
26-Aug-16,8.59,8.70,8.53,8.63,2318084
25-Aug-16,8.49,8.66,8.26,8.61,3835578
24-Aug-16,9.05,9.18,8.86,8.87,2712161
23-Aug-16,9.12,9.22,8.96,9.02,4842969
22-Aug-16,8.90,9.12,8.90,9.09,2759567
19-Aug-16,8.95,9.10,8.90,9.04,3371768
18-Aug-16,9.10,9.12,8.86,8.95,4676728
17-Aug-16,9.26,9.29,9.01,9.09,3294590
16-Aug-16,9.23,9.57,9.18,9.30,2723364
15-Aug-16,9.16,9.46,9.04,9.35,2409112
12-Aug-16,9.04,9.16,8.93,9.06,2272261
11-Aug-16,9.25,9.27,9.02,9.06,1790024
10-Aug-16,9.47,9.47,9.12,9.18,2356916
9-Aug-16,9.26,9.43,9.24,9.41,1800415
8-Aug-16,9.40,9.50,9.25,9.29,2068684
5-Aug-16,9.20,9.41,9.04,9.36,2603578
4-Aug-16,8.94,9.02,8.92,9.02,3979679
3-Aug-16,8.59,8.98,8.59,8.90,6695942
2-Aug-16,8.54,8.85,8.48,8.62,4917652
1-Aug-16,8.80,8.80,8.45,8.62,5905264
29-Jul-16,8.36,8.81,8.28,8.76,10599269
28-Jul-16,8.40,8.64,8.20,8.31,21151716
27-Jul-16,12.80,13.24,12.30,12.51,5621608
26-Jul-16,12.52,12.74,12.46,12.72,2904232
25-Jul-16,12.39,12.68,12.23,12.52,3104295
22-Jul-16,12.08,12.21,11.98,12.11,1494607
21-Jul-16,12.13,12.31,12.04,12.10,2940714
20-Jul-16,12.00,12.24,11.82,12.13,3048941
19-Jul-16,12.20,12.37,11.86,11.87,2710827
18-Jul-16,12.16,12.42,12.08,12.39,2530776
15-Jul-16,12.12,12.26,11.92,12.10,2791200
14-Jul-16,11.98,12.03,11.81,11.84,1649325
13-Jul-16,11.87,11.97,11.64,11.74,1600977
12-Jul-16,11.62,11.92,11.58,11.77,2029239
11-Jul-16,11.43,11.54,11.41,11.45,1352156
8-Jul-16,10.87,11.35,10.81,11.32,1781983
7-Jul-16,10.89,10.99,10.62,10.76,1597220
6-Jul-16,10.70,10.90,10.55,10.85,1347495
5-Jul-16,11.01,11.07,10.80,10.82,914148
1-Jul-16,11.29,11.51,11.06,11.12,2026304
30-Jun-16,10.89,11.29,10.77,11.28,2657238
29-Jun-16,10.51,10.96,10.46,10.91,3957983
28-Jun-16,10.43,10.55,10.18,10.37,2903898
27-Jun-16,10.86,10.90,10.11,10.18,3694367
24-Jun-16,11.47,11.63,10.95,10.96,5078926
23-Jun-16,11.71,12.13,11.67,12.13,3328641
22-Jun-16,11.50,11.70,11.43,11.55,2356183
21-Jun-16,11.64,11.64,11.15,11.45,4150031
20-Jun-16,12.18,12.21,11.65,11.67,4027823
17-Jun-16,12.42,12.50,12.10,12.15,2607363
16-Jun-16,12.33,12.48,12.15,12.40,1609497
15-Jun-16,12.49,12.62,12.42,12.46,1784805
14-Jun-16,12.46,12.53,12.28,12.48,1539359
13-Jun-16,12.64,12.75,12.47,12.49,1683135
10-Jun-16,12.87,12.88,12.62,12.69,1972190
9-Jun-16,13.09,13.17,12.93,13.00,2327130
8-Jun-16,13.29,13.33,13.13,13.15,3275934
7-Jun-16,13.34,13.34,13.12,13.26,3043542
6-Jun-16,13.46,13.46,13.27,13.29,1885630
3-Jun-16,13.46,13.53,13.27,13.47,2651339
2-Jun-16,13.63,13.81,13.19,13.36,2832335
1-Jun-16,13.00,13.22,13.00,13.21,1817611
31-May-16,13.19,13.22,13.04,13.11,1514186
27-May-16,13.00,13.24,12.87,13.20,1640204
26-May-16,13.15,13.18,13.00,13.06,1680503
25-May-16,12.98,13.26,12.95,13.10,1803898
24-May-16,12.96,13.06,12.76,12.97,2160363
23-May-16,12.39,12.99,12.36,12.89,3310193
20-May-16,12.20,12.38,12.20,12.35,2128216
19-May-16,12.07,12.20,11.99,12.16,2248058
18-May-16,11.91,12.16,11.88,12.12,1794990
17-May-16,12.05,12.16,11.90,11.93,1465499
16-May-16,11.91,12.19,11.87,12.07,1684584
13-May-16,11.71,11.97,11.71,11.88,1913347
12-May-16,12.13,12.22,11.82,11.85,1495425
11-May-16,12.09,12.25,12.04,12.09,1112644
10-May-16,12.35,12.35,12.02,12.17,1715094
9-May-16,11.96,12.37,11.93,12.25,2806237
6-May-16,12.16,12.16,11.57,12.00,3381541
5-May-16,12.15,12.28,11.84,11.88,3015856
4-May-16,12.02,12.32,11.99,12.14,5288516
3-May-16,11.76,12.00,11.50,11.52,2731684
2-May-16,11.88,12.10,11.79,11.86,3171659
29-Apr-16,12.07,12.23,11.80,11.89,7568792
28-Apr-16,12.92,13.00,11.76,12.00,20423886
27-Apr-16,15.05,15.71,15.05,15.57,2915265
26-Apr-16,14.87,15.28,14.79,15.12,1917858
25-Apr-16,14.67,14.82,14.30,14.77,3546529
22-Apr-16,14.75,14.94,14.56,14.66,3117383
21-Apr-16,14.71,14.80,14.54,14.73,1534057
20-Apr-16,14.51,14.84,14.39,14.69,2196121
19-Apr-16,15.07,15.07,14.43,14.58,3883793
18-Apr-16,15.22,15.22,14.85,14.98,3155876
15-Apr-16,15.47,15.52,15.18,15.26,2500279
14-Apr-16,15.49,15.59,15.26,15.32,1411748
13-Apr-16,15.10,15.50,15.07,15.45,1608969
12-Apr-16,14.82,15.03,14.66,14.97,1522510
11-Apr-16,15.19,15.39,14.94,15.00,1559587
8-Apr-16,14.96,15.44,14.90,15.09,1733892
7-Apr-16,15.11,15.18,14.59,14.67,1817579
6-Apr-16,15.09,15.28,14.80,15.23,2360927
5-Apr-16,15.28,15.46,15.08,15.12,1491553
4-Apr-16,15.79,15.86,15.28,15.39,2400645
1-Apr-16,15.89,15.94,15.70,15.82,1130891
31-Mar-16,15.78,16.25,15.66,16.06,1479933
30-Mar-16,15.95,16.04,15.51,15.76,1864882
29-Mar-16,15.21,15.85,15.04,15.80,1477657
28-Mar-16,15.29,15.46,15.05,15.24,1354194
24-Mar-16,14.95,15.58,14.77,15.30,2047498
23-Mar-16,15.56,15.69,14.93,15.00,2469954
22-Mar-16,16.50,16.50,15.13,15.56,7216706
21-Mar-16,16.30,17.04,16.30,16.82,1462027
18-Mar-16,16.44,16.60,16.27,16.38,1489163
17-Mar-16,15.93,16.42,15.73,16.35,1215617
16-Mar-16,15.70,16.01,15.64,15.98,958210
15-Mar-16,15.78,15.96,15.64,15.84,2032833
14-Mar-16,15.55,16.17,15.38,15.93,1761373
11-Mar-16,15.54,15.65,15.19,15.63,2555675
10-Mar-16,15.23,15.59,14.98,15.27,2252694
9-Mar-16,15.09,15.74,15.09,15.16,1912660
8-Mar-16,15.26,15.42,14.80,15.04,2057229
7-Mar-16,15.26,15.68,15.17,15.42,2127291
4-Mar-16,14.76,15.49,14.73,15.39,2899225
3-Mar-16,15.01,15.05,14.16,14.71,4315333
2-Mar-16,16.01,16.03,15.10,15.42,2506909
1-Mar-16,15.80,16.04,15.58,16.00,1046493
29-Feb-16,15.66,15.99,15.50,15.69,1678835
26-Feb-16,15.91,15.93,15.54,15.60,1418412
25-Feb-16,15.50,15.81,15.34,15.80,1341584
24-Feb-16,15.00,15.46,14.88,15.43,944891
23-Feb-16,15.60,15.61,15.19,15.20,1166305
22-Feb-16,15.38,15.78,15.30,15.64,1922275
19-Feb-16,14.66,15.23,14.53,15.13,1474467
18-Feb-16,14.93,15.05,14.55,14.74,1564523
17-Feb-16,14.73,15.06,14.62,14.93,2523755
16-Feb-16,14.99,15.14,13.90,14.71,3874521
12-Feb-16,14.10,15.37,13.22,14.82,8122663
11-Feb-16,13.70,14.24,13.53,13.96,3758432
10-Feb-16,13.51,14.27,13.50,13.81,3527390
9-Feb-16,13.08,13.75,13.05,13.36,2319467
8-Feb-16,13.72,14.18,13.02,13.28,3999371
5-Feb-16,15.60,15.86,14.35,14.40,2861790
4-Feb-16,15.38,15.84,15.10,15.69,2034708
3-Feb-16,14.75,15.42,14.69,15.39,2408659
2-Feb-16,14.97,15.11,14.41,14.57,1375492
1-Feb-16,15.08,15.19,14.90,15.01,1428643
29-Jan-16,14.34,15.32,14.34,15.32,2365898
28-Jan-16,14.53,14.72,14.24,14.34,1327348
27-Jan-16,14.51,14.94,14.24,14.35,1118136
26-Jan-16,14.50,14.75,14.15,14.50,1199982
25-Jan-16,14.94,14.94,14.36,14.39,1056796
22-Jan-16,14.49,15.10,14.41,14.99,2760316
21-Jan-16,14.43,14.80,14.12,14.22,1519147
20-Jan-16,14.32,14.50,13.62,14.36,3868145
19-Jan-16,15.00,15.07,14.29,14.54,1973597
15-Jan-16,15.10,15.34,14.57,14.80,2989773
14-Jan-16,15.58,15.88,15.22,15.67,3390409
13-Jan-16,16.34,16.42,15.31,15.42,2284280
12-Jan-16,16.46,16.57,15.95,16.19,1456520
11-Jan-16,16.00,16.39,15.81,16.30,2060765
8-Jan-16,16.78,16.94,16.00,16.02,2933085
7-Jan-16,16.78,17.16,16.50,16.71,3012568
6-Jan-16,17.03,17.30,16.92,17.12,1780430
5-Jan-16,17.55,17.78,16.97,17.26,2307211
4-Jan-16,17.78,17.87,17.34,17.60,2515716
31-Dec-15,18.26,18.54,18.12,18.12,1277374
30-Dec-15,18.69,18.87,18.34,18.39,1066939
29-Dec-15,18.60,19.16,18.51,18.74,1158699
28-Dec-15,18.48,18.50,18.14,18.50,926737
24-Dec-15,18.21,18.67,18.15,18.51,1009332
23-Dec-15,18.11,18.40,17.87,18.29,1518606
22-Dec-15,18.26,18.26,17.56,18.00,1912550
21-Dec-15,17.77,18.20,17.48,18.08,3081122
18-Dec-15,17.94,18.56,17.72,17.74,4405374
17-Dec-15,18.63,18.70,17.68,18.01,4152912
16-Dec-15,18.99,19.13,18.18,18.56,2547840
15-Dec-15,19.10,19.75,18.97,19.12,2222121
14-Dec-15,19.82,19.92,18.80,18.96,2624273
11-Dec-15,20.21,20.54,19.65,19.74,1694874
10-Dec-15,20.50,20.88,20.25,20.47,2888037
9-Dec-15,21.90,22.05,21.36,21.49,996117
8-Dec-15,21.76,22.03,21.42,21.93,878067
7-Dec-15,22.55,22.60,22.00,22.06,1015611
4-Dec-15,21.95,22.58,21.86,22.52,1492547
3-Dec-15,22.65,22.77,21.74,21.77,1370359
2-Dec-15,22.48,22.85,22.41,22.51,1116035
1-Dec-15,22.62,22.71,22.13,22.48,1378483
30-Nov-15,22.44,22.78,22.43,22.52,1113186
27-Nov-15,22.23,22.66,22.07,22.43,631621
25-Nov-15,22.06,22.50,21.96,22.17,792146
24-Nov-15,22.07,22.22,21.93,22.08,1216948
23-Nov-15,21.65,22.18,21.60,22.03,1391832
20-Nov-15,21.14,21.86,21.12,21.65,1796066
19-Nov-15,21.22,21.30,20.92,20.99,921254
18-Nov-15,20.67,21.29,20.45,21.16,1576033
17-Nov-15,21.00,21.35,20.83,20.87,1139465
16-Nov-15,20.57,20.94,20.49,20.93,1078091
13-Nov-15,20.70,20.75,20.32,20.55,1318653
12-Nov-15,20.84,21.09,20.62,20.80,1737200
11-Nov-15,20.50,21.25,20.33,20.99,1978516
10-Nov-15,20.29,20.50,20.05,20.47,1479411
9-Nov-15,20.86,20.96,20.28,20.41,1713098
6-Nov-15,20.35,21.07,20.35,20.88,1578386
5-Nov-15,20.38,20.76,20.20,20.73,2087347
4-Nov-15,20.36,20.48,20.13,20.45,1458242
3-Nov-15,20.10,20.70,20.00,20.35,2151831
2-Nov-15,19.50,20.10,19.45,20.04,2353190
30-Oct-15,19.55,19.99,19.43,19.76,2038298
29-Oct-15,21.01,21.01,19.48,19.67,3505811
28-Oct-15,20.09,21.14,19.60,21.12,7491370
27-Oct-15,18.28,18.45,17.92,18.30,3089822
26-Oct-15,18.44,18.68,18.19,18.29,2067426
23-Oct-15,18.84,18.93,18.03,18.45,2031020
22-Oct-15,17.84,19.06,17.76,18.63,3052166
21-Oct-15,18.10,18.15,17.66,17.69,1268109
20-Oct-15,18.03,18.15,17.81,18.03,1640949
19-Oct-15,18.20,18.28,17.81,18.07,1276959
16-Oct-15,17.96,18.39,17.67,18.31,2631588
15-Oct-15,17.11,18.01,17.10,17.99,2936945
14-Oct-15,17.35,17.51,16.98,17.05,3248104
13-Oct-15,18.26,18.39,17.25,17.27,4437295
12-Oct-15,19.27,19.47,18.33,18.35,2920728
9-Oct-15,19.58,19.77,19.14,19.22,1977479
8-Oct-15,20.50,20.50,19.74,19.85,1780114
7-Oct-15,20.55,20.80,17.76,19.72,8110737
6-Oct-15,20.82,20.96,20.23,20.51,1447259
5-Oct-15,20.80,21.42,20.54,20.86,1956044
2-Oct-15,19.86,20.76,19.66,20.74,1485111
1-Oct-15,19.59,20.15,19.09,20.10,2038957
30-Sep-15,19.37,19.60,19.10,19.56,1236551
29-Sep-15,19.42,19.58,19.03,19.21,1372379
28-Sep-15,20.08,20.30,19.37,19.42,1628804
25-Sep-15,20.74,20.86,19.98,20.11,1353316
24-Sep-15,20.53,20.64,19.97,20.54,1592224
23-Sep-15,20.71,21.00,20.49,20.76,1124972
22-Sep-15,20.75,20.95,20.19,20.55,1416525
21-Sep-15,21.06,21.34,20.80,21.07,1393138
18-Sep-15,20.98,21.27,20.74,21.03,2847079
17-Sep-15,20.85,21.47,20.75,21.24,1025754
16-Sep-15,20.92,21.03,20.48,20.97,754491
15-Sep-15,20.40,20.90,20.32,20.84,1223348
14-Sep-15,20.25,20.58,20.25,20.41,1153994
11-Sep-15,20.71,20.79,19.75,20.21,2430409
10-Sep-15,20.75,21.10,20.57,20.89,1462411
9-Sep-15,21.19,21.19,20.45,20.85,2831837
8-Sep-15,20.88,20.93,20.28,20.57,4649402
4-Sep-15,21.61,21.97,21.36,21.41,1138143
3-Sep-15,22.05,22.46,21.79,21.92,1563340
2-Sep-15,21.86,22.05,21.50,22.05,924433
1-Sep-15,21.28,21.79,21.08,21.51,1451213
31-Aug-15,22.16,22.47,21.71,21.82,2044039
28-Aug-15,22.29,22.71,21.84,22.29,1571666
27-Aug-15,21.35,22.52,21.35,22.51,2700788
26-Aug-15,21.00,21.16,20.26,21.02,2437248
25-Aug-15,21.00,21.15,20.40,20.41,2073233
24-Aug-15,19.05,20.76,18.35,19.72,3602386
21-Aug-15,20.88,21.50,20.47,21.07,3761945
20-Aug-15,24.32,24.45,21.52,21.53,3677276
19-Aug-15,24.35,24.89,24.11,24.55,1143261
18-Aug-15,24.87,25.24,24.40,24.48,1443592
17-Aug-15,24.29,24.74,24.06,24.72,1578188
14-Aug-15,23.81,24.15,23.45,24.12,844777
13-Aug-15,24.21,24.47,23.71,23.86,1140006
12-Aug-15,23.51,24.13,23.02,24.05,1248681
11-Aug-15,23.82,24.73,23.64,23.77,1520941
10-Aug-15,23.81,24.24,23.75,24.06,1262319
7-Aug-15,23.19,23.75,22.90,23.73,958019
6-Aug-15,23.76,24.26,23.08,23.32,1011227
5-Aug-15,24.10,24.38,23.87,23.96,1294713
4-Aug-15,24.11,24.19,23.55,23.90,1001462
3-Aug-15,23.95,24.43,23.77,24.06,1921640
31-Jul-15,23.53,24.03,23.18,23.94,2384547
30-Jul-15,23.12,23.60,22.61,23.52,1695264
29-Jul-15,22.98,23.04,22.47,22.99,1199116
28-Jul-15,23.24,23.31,22.65,22.96,1356202
27-Jul-15,22.92,23.37,22.73,23.10,1468517
24-Jul-15,23.22,23.60,23.02,23.06,3108050
23-Jul-15,22.05,24.24,22.05,23.15,7967680
22-Jul-15,21.48,21.58,21.01,21.29,2334620
21-Jul-15,21.15,21.77,21.07,21.69,1269876
20-Jul-15,21.45,21.65,21.19,21.23,925178
17-Jul-15,21.58,21.73,21.25,21.61,1281513
16-Jul-15,21.30,21.75,21.16,21.65,1198209
15-Jul-15,20.86,21.21,20.70,21.15,1199241
14-Jul-15,20.18,20.91,20.18,20.89,1761705
13-Jul-15,20.32,20.44,20.04,20.25,1172736
10-Jul-15,20.00,20.33,19.73,20.21,1098327
9-Jul-15,20.34,20.90,19.54,19.70,2593899
8-Jul-15,20.48,20.75,19.99,20.07,1238351
7-Jul-15,21.10,21.11,19.78,20.74,1619088
6-Jul-15,21.05,21.38,20.85,21.04,1140081
2-Jul-15,21.51,21.60,21.08,21.21,1013199
1-Jul-15,21.17,21.59,21.11,21.50,1121049
30-Jun-15,21.41,21.44,20.65,20.98,1369363
29-Jun-15,20.82,21.72,20.70,21.01,1418493
26-Jun-15,21.82,21.82,20.91,21.24,2300862
25-Jun-15,21.94,21.98,21.55,21.69,629136
24-Jun-15,22.10,22.23,21.44,21.78,1460732
23-Jun-15,22.80,22.80,21.65,22.10,2142065
22-Jun-15,22.87,22.95,22.40,22.73,841921
19-Jun-15,22.80,22.91,22.17,22.69,1626521
18-Jun-15,22.45,22.86,22.24,22.74,1249204
17-Jun-15,22.45,22.57,22.17,22.37,1186321
16-Jun-15,22.29,22.43,22.07,22.42,1167820
15-Jun-15,21.65,22.37,21.28,22.28,1700370
12-Jun-15,21.36,21.67,21.06,21.52,945341
11-Jun-15,21.61,21.86,21.34,21.41,740327
10-Jun-15,21.28,21.53,21.18,21.48,956592
9-Jun-15,21.24,21.42,20.85,21.29,853199
8-Jun-15,21.43,21.61,20.90,21.21,1137433
5-Jun-15,20.94,21.52,20.68,21.40,989720
4-Jun-15,21.18,21.49,20.86,20.94,1526164
3-Jun-15,20.91,21.28,20.76,21.28,1044734
2-Jun-15,20.95,21.11,20.65,20.85,1453270
1-Jun-15,20.80,21.49,20.76,21.07,1884094
29-May-15,20.49,20.80,20.36,20.64,1602336
28-May-15,19.66,20.79,19.65,20.49,2473505
27-May-15,19.97,19.99,19.30,19.69,2526694
26-May-15,19.66,19.75,19.33,19.40,1181358
22-May-15,19.69,19.88,19.55,19.68,758983
21-May-15,19.87,20.00,19.35,19.69,1457885
20-May-15,20.31,20.45,20.01,20.05,1142166
19-May-15,20.50,20.56,20.13,20.20,1101469
18-May-15,19.75,20.49,19.66,20.27,1833880
15-May-15,19.94,20.00,19.61,19.71,831230
14-May-15,19.35,19.98,19.22,19.94,1919072
13-May-15,19.60,19.66,19.15,19.19,947037
12-May-15,19.35,19.57,19.02,19.52,1253733
11-May-15,19.48,19.80,19.33,19.34,1271988
8-May-15,18.85,19.60,18.85,19.46,2018085
7-May-15,18.03,19.16,18.00,19.01,2318508
6-May-15,18.06,18.18,17.58,18.00,3411707
5-May-15,19.09,19.13,18.01,18.01,3282899
4-May-15,18.71,19.26,18.58,19.11,1794780
1-May-15,18.82,19.10,18.54,18.68,2118294
30-Apr-15,19.73,19.80,18.70,18.80,3492752
29-Apr-15,20.02,20.17,19.71,19.79,1472856
28-Apr-15,19.95,20.23,19.71,20.10,2490064
27-Apr-15,20.20,20.64,19.91,20.00,3581043
24-Apr-15,19.40,20.16,19.24,20.15,3263163
23-Apr-15,19.70,19.84,19.28,19.34,2046507
22-Apr-15,20.87,20.93,19.52,19.79,4959616
21-Apr-15,20.03,20.38,19.75,20.22,3410485
20-Apr-15,19.78,19.99,19.61,19.95,1880303
17-Apr-15,20.23,20.26,19.37,19.50,2601616
16-Apr-15,20.11,20.48,20.05,20.38,1666721
15-Apr-15,20.39,20.41,19.86,20.03,1725839
14-Apr-15,20.12,20.57,20.02,20.37,2700577
13-Apr-15,19.96,20.23,19.77,19.80,1300192
10-Apr-15,20.40,20.47,19.55,19.93,1395966
9-Apr-15,19.91,20.59,19.15,20.06,2906100
8-Apr-15,19.16,19.51,19.01,19.43,931427
7-Apr-15,18.98,19.58,18.91,19.20,882813
6-Apr-15,18.75,19.19,18.65,18.98,892042
2-Apr-15,18.78,19.06,18.38,18.90,1871795
1-Apr-15,19.57,19.85,19.12,19.33,1169041
31-Mar-15,19.93,20.23,19.48,19.67,2112035
30-Mar-15,19.59,19.72,19.16,19.41,1474514
27-Mar-15,19.37,19.70,19.11,19.59,2516627
26-Mar-15,17.65,18.93,17.56,18.72,2289855
25-Mar-15,18.48,18.49,17.77,17.80,1100730
24-Mar-15,18.91,18.95,18.40,18.49,1279334
23-Mar-15,19.07,19.08,18.87,18.95,914980
20-Mar-15,19.18,19.18,18.62,19.12,1872789
19-Mar-15,19.16,19.48,18.94,19.09,1770735
18-Mar-15,19.09,19.45,18.96,19.21,1102755
17-Mar-15,18.86,19.30,18.80,19.17,1254463
16-Mar-15,18.57,19.01,18.52,18.97,1278325
13-Mar-15,18.04,18.75,18.04,18.49,1212299
12-Mar-15,18.36,18.70,18.32,18.68,1055789
11-Mar-15,17.93,18.49,17.85,18.33,1457395
10-Mar-15,18.13,18.13,17.83,17.94,1537680
9-Mar-15,17.36,18.20,17.32,18.16,2131930
6-Mar-15,17.20,17.48,17.12,17.31,1269024
5-Mar-15,17.00,17.49,16.97,17.32,899661
4-Mar-15,17.14,17.22,16.94,17.07,870430
3-Mar-15,17.41,17.44,17.01,17.10,1233462
2-Mar-15,17.01,17.50,16.95,17.43,1536094
27-Feb-15,17.38,17.40,17.00,17.05,1353351
26-Feb-15,17.26,17.47,17.06,17.36,1298895
25-Feb-15,17.60,17.60,17.25,17.33,1207862
24-Feb-15,17.47,17.71,17.30,17.38,1120006
23-Feb-15,17.66,17.67,17.40,17.50,1061211
20-Feb-15,17.38,17.73,17.30,17.65,1058402
19-Feb-15,17.15,17.46,17.11,17.38,1173997
18-Feb-15,17.11,17.16,16.80,17.16,1420123
17-Feb-15,17.49,17.50,17.15,17.24,966396
13-Feb-15,17.71,18.04,17.52,17.56,1625262
12-Feb-15,17.84,17.92,17.35,17.66,1660670
11-Feb-15,17.28,17.96,17.16,17.72,2054991
10-Feb-15,17.08,17.48,16.95,17.31,1783895
9-Feb-15,16.57,17.02,16.50,16.89,1204242
6-Feb-15,17.05,17.05,16.54,16.65,1282401
5-Feb-15,16.50,17.22,16.47,17.05,2177358
4-Feb-15,16.27,16.53,16.21,16.37,1189807
3-Feb-15,16.46,16.75,16.32,16.43,1094339
2-Feb-15,16.17,16.42,15.80,16.42,1307864
30-Jan-15,16.50,16.72,16.10,16.12,1707430
29-Jan-15,16.40,16.70,16.18,16.68,1947231
28-Jan-15,16.70,16.96,16.37,16.37,1681552
27-Jan-15,16.50,16.74,16.17,16.58,1879947
26-Jan-15,16.95,17.05,16.60,16.69,3198539
23-Jan-15,16.50,17.49,16.36,16.99,12351733
22-Jan-15,14.15,14.50,13.81,14.40,2728274
21-Jan-15,13.64,14.40,13.56,14.08,1865294
20-Jan-15,13.63,13.83,13.46,13.65,3105891
16-Jan-15,13.09,13.54,13.08,13.50,1551528
15-Jan-15,13.75,13.84,13.10,13.14,1531989
14-Jan-15,13.77,14.04,13.52,13.76,902670
13-Jan-15,14.01,14.13,13.60,13.78,1151206
12-Jan-15,14.00,14.10,13.75,13.79,1105664
9-Jan-15,14.04,14.22,13.98,14.00,1223538
8-Jan-15,13.62,14.14,13.57,14.04,1538873
7-Jan-15,13.19,13.56,13.15,13.52,1912455
6-Jan-15,13.94,13.95,13.00,13.12,3628979
5-Jan-15,14.27,14.54,14.15,14.32,1079045
2-Jan-15,14.77,14.92,14.21,14.44,1508969
31-Dec-14,14.69,15.15,14.56,14.72,1429132
30-Dec-14,14.76,14.88,14.53,14.65,609659
29-Dec-14,14.98,15.00,14.61,14.76,806407
26-Dec-14,15.22,15.22,14.69,14.91,1025857
24-Dec-14,15.21,15.33,15.10,15.22,329359
23-Dec-14,15.43,15.46,15.06,15.17,1058079
22-Dec-14,15.48,15.74,15.25,15.34,1196036
19-Dec-14,15.25,15.60,15.16,15.48,2677010
18-Dec-14,15.10,15.45,14.91,15.24,2444879
17-Dec-14,14.12,14.95,13.90,14.92,2943205
16-Dec-14,14.03,14.28,13.79,14.11,1556609
15-Dec-14,14.10,14.35,13.87,13.88,1180349
12-Dec-14,13.82,14.35,13.75,14.05,1018622
11-Dec-14,14.03,14.32,13.93,14.00,1143387
10-Dec-14,14.35,14.48,13.85,13.89,1194616
9-Dec-14,13.95,14.48,13.45,14.41,1643978
8-Dec-14,14.68,14.71,14.07,14.07,1035946
5-Dec-14,14.29,14.75,14.20,14.65,1523766
4-Dec-14,14.60,14.78,14.16,14.25,1895553
3-Dec-14,14.02,14.75,14.02,14.62,3189206
2-Dec-14,13.62,14.14,13.58,14.05,1998018
1-Dec-14,13.61,13.85,13.54,13.64,1626700
28-Nov-14,13.73,13.92,13.61,13.63,507009
26-Nov-14,13.57,13.80,13.51,13.68,973955
25-Nov-14,13.57,13.77,13.50,13.53,649123
24-Nov-14,13.61,13.68,13.42,13.57,914704
21-Nov-14,13.94,14.00,13.52,13.61,1535849
20-Nov-14,13.35,13.81,13.28,13.72,1649740
19-Nov-14,13.82,13.82,13.36,13.41,1816795
18-Nov-14,13.77,14.04,13.72,13.82,1486655
17-Nov-14,13.99,14.15,13.71,13.71,1541703
14-Nov-14,13.81,14.00,13.60,13.99,2357258
13-Nov-14,14.38,14.48,13.79,13.84,2613647
12-Nov-14,14.26,14.48,14.26,14.42,1402619
11-Nov-14,14.46,14.49,14.17,14.41,3121077
10-Nov-14,13.98,14.48,13.85,14.37,2868582
7-Nov-14,13.69,13.99,13.60,13.99,1825551
6-Nov-14,13.45,13.84,13.45,13.78,2749890
5-Nov-14,14.96,14.98,13.53,13.85,5500316
4-Nov-14,14.68,14.70,14.30,14.57,2609059
3-Nov-14,14.53,14.79,14.37,14.41,2660635
31-Oct-14,14.72,14.73,14.33,14.53,2637008
30-Oct-14,14.44,14.70,14.29,14.44,2683868
29-Oct-14,14.40,14.48,14.10,14.46,2687051
28-Oct-14,13.97,14.50,13.81,14.39,4329540
27-Oct-14,13.43,13.87,13.34,13.87,3842268
24-Oct-14,13.51,13.89,13.05,13.78,6841037
23-Oct-14,12.25,13.96,12.17,13.89,23814752
22-Oct-14,10.85,10.91,10.60,10.61,2855748
21-Oct-14,10.55,10.85,10.55,10.83,1634507
20-Oct-14,10.31,10.58,10.19,10.57,2054873
17-Oct-14,10.56,10.71,10.21,10.35,2175653
16-Oct-14,10.01,10.53,9.96,10.41,1901775
15-Oct-14,9.75,10.27,9.65,10.19,1906559
14-Oct-14,9.81,9.99,9.73,9.86,2102730
13-Oct-14,9.27,9.90,9.15,9.74,2117805
10-Oct-14,9.63,9.78,9.27,9.27,1360912
9-Oct-14,10.16,10.20,9.67,9.68,1720812
8-Oct-14,10.07,10.26,9.83,10.17,1459731
7-Oct-14,10.09,10.34,9.83,10.08,1597287
6-Oct-14,10.53,10.58,10.12,10.14,1325963
3-Oct-14,10.67,10.93,10.53,10.53,1181478
2-Oct-14,10.40,10.59,10.17,10.59,1567209
1-Oct-14,10.69,10.73,10.34,10.41,1466532
30-Sep-14,10.78,10.84,10.64,10.67,1381103
29-Sep-14,10.53,10.89,10.51,10.82,1626392
26-Sep-14,10.78,10.84,10.60,10.61,1206573
25-Sep-14,10.71,10.94,10.69,10.74,1619420
24-Sep-14,10.92,11.00,10.72,10.79,2245856
23-Sep-14,11.17,11.25,10.74,10.90,2886897
22-Sep-14,11.22,11.31,11.09,11.22,1656103
19-Sep-14,11.66,11.84,11.19,11.34,3113722
18-Sep-14,11.13,11.64,11.10,11.56,2467728
17-Sep-14,11.14,11.26,11.06,11.07,1693087
16-Sep-14,11.04,11.20,10.97,11.14,1194587
15-Sep-14,11.25,11.25,10.98,11.09,1376990
12-Sep-14,11.25,11.33,11.06,11.11,1418602
11-Sep-14,11.23,11.38,11.10,11.26,2082540
10-Sep-14,10.91,11.27,10.85,11.25,1956516
9-Sep-14,11.20,11.24,10.84,10.87,1800123
8-Sep-14,10.75,11.25,10.74,11.19,4097616
5-Sep-14,10.29,10.35,10.16,10.33,901904
4-Sep-14,10.29,10.50,10.25,10.35,1507260
3-Sep-14,10.63,10.75,10.35,10.42,1926711
2-Sep-14,10.63,10.70,10.47,10.59,1807210
29-Aug-14,10.44,10.62,10.36,10.58,2045829
28-Aug-14,10.33,10.49,10.14,10.43,1863657
27-Aug-14,10.53,10.57,10.33,10.37,1780560
26-Aug-14,9.82,10.60,9.79,10.55,5794214
25-Aug-14,9.62,9.93,9.60,9.83,2079117
22-Aug-14,9.38,9.62,9.30,9.57,1666259
21-Aug-14,9.23,9.38,9.15,9.37,781454
20-Aug-14,9.29,9.40,9.20,9.27,925196
19-Aug-14,9.17,9.37,9.15,9.35,1539601
18-Aug-14,9.14,9.32,9.14,9.19,1322304
15-Aug-14,9.22,9.25,9.01,9.10,1232892
14-Aug-14,9.02,9.13,8.92,9.12,863186
13-Aug-14,9.09,9.13,9.04,9.05,602270
12-Aug-14,9.18,9.19,8.98,9.05,1374442
11-Aug-14,9.27,9.33,9.17,9.22,1407878
8-Aug-14,9.10,9.27,9.09,9.22,846786
7-Aug-14,9.23,9.36,9.04,9.09,1277228
6-Aug-14,8.83,9.23,8.77,9.21,1526790
5-Aug-14,8.80,9.14,8.77,8.90,1572836
4-Aug-14,8.97,9.04,8.70,8.88,1076176
1-Aug-14,9.20,9.20,8.88,8.88,1737773
31-Jul-14,9.12,9.33,9.12,9.20,2202202
30-Jul-14,9.03,9.24,9.03,9.24,1843667
29-Jul-14,9.06,9.12,8.97,9.00,1207496
28-Jul-14,9.15,9.20,8.93,9.05,1822852
25-Jul-14,8.95,9.15,8.82,9.13,2178497
24-Jul-14,9.63,9.65,8.80,9.07,4552287
23-Jul-14,9.20,9.31,9.06,9.14,3878355
22-Jul-14,9.19,9.40,9.16,9.29,3137632
21-Jul-14,9.06,9.19,8.96,9.14,1496946
18-Jul-14,8.84,9.20,8.84,9.12,1673627
17-Jul-14,8.80,8.97,8.76,8.86,890338
16-Jul-14,8.87,8.93,8.64,8.87,1293351
15-Jul-14,8.95,9.07,8.75,8.83,1659248
14-Jul-14,8.57,9.00,8.57,8.96,1554020
11-Jul-14,8.67,8.78,8.61,8.73,779249
10-Jul-14,8.48,8.71,8.32,8.69,1822804
9-Jul-14,8.84,8.91,8.50,8.59,3503443
8-Jul-14,9.23,9.25,8.78,8.79,2829000
7-Jul-14,9.50,9.50,9.26,9.26,1032664
3-Jul-14,9.54,9.68,9.38,9.50,819285
2-Jul-14,9.21,9.64,9.20,9.53,3108982
1-Jul-14,9.15,9.31,9.15,9.24,1933507
30-Jun-14,9.54,9.54,9.10,9.20,3082473
27-Jun-14,9.12,9.58,9.12,9.55,2169234
26-Jun-14,9.13,9.27,9.03,9.25,758789
25-Jun-14,9.18,9.20,9.02,9.16,1641286
24-Jun-14,9.30,9.53,9.22,9.24,979603
23-Jun-14,9.29,9.38,9.19,9.33,845835
20-Jun-14,9.36,9.36,9.15,9.30,1138418
19-Jun-14,9.54,9.54,9.22,9.30,892810
18-Jun-14,9.43,9.65,9.36,9.53,1262577
17-Jun-14,9.25,9.54,9.12,9.42,1912763
16-Jun-14,9.09,9.40,9.01,9.28,1288992
13-Jun-14,8.95,9.17,8.77,9.13,1255813
12-Jun-14,9.03,9.10,8.92,8.98,1149602
11-Jun-14,9.09,9.16,9.04,9.08,1107546
10-Jun-14,9.22,9.35,9.02,9.14,1317817
9-Jun-14,9.10,9.36,9.07,9.27,1259785
6-Jun-14,9.17,9.45,9.12,9.14,1260953
5-Jun-14,8.95,9.30,8.73,9.20,3821096
4-Jun-14,8.64,8.75,8.51,8.61,1166766
3-Jun-14,8.79,8.87,8.64,8.68,876922
2-Jun-14,9.13,9.19,8.78,8.83,727650
30-May-14,9.35,9.39,9.05,9.10,1009291
29-May-14,9.42,9.48,9.33,9.38,705000
28-May-14,9.35,9.50,9.26,9.40,1196314
27-May-14,9.31,9.40,9.24,9.34,1250716
23-May-14,9.16,9.28,9.00,9.23,740696
22-May-14,8.96,9.32,8.88,9.16,1438684
21-May-14,9.34,9.34,8.91,8.96,1019632
20-May-14,9.30,9.30,9.06,9.26,2009335
19-May-14,8.36,9.42,8.36,9.38,4357872
16-May-14,8.25,8.34,8.05,8.34,1168198
15-May-14,8.27,8.34,8.06,8.26,1168287
14-May-14,8.54,8.70,8.28,8.29,866962
13-May-14,8.72,8.84,8.57,8.59,1596286
12-May-14,8.30,8.72,8.16,8.69,1404619
9-May-14,8.13,8.26,8.05,8.26,902162
8-May-14,8.20,8.50,8.10,8.16,1313044
7-May-14,8.44,8.45,8.05,8.19,1880216
6-May-14,8.68,8.68,8.38,8.40,1832432
5-May-14,8.84,8.94,8.63,8.75,1261418
2-May-14,9.00,9.10,8.90,8.95,1764809
1-May-14,8.90,8.98,8.68,8.98,1762665
30-Apr-14,8.88,9.04,8.76,8.96,1173020
29-Apr-14,9.00,9.05,8.72,8.93,3526047
28-Apr-14,8.93,9.00,8.41,8.60,2162654
25-Apr-14,9.25,9.32,8.86,8.87,2244780
24-Apr-14,9.50,9.58,8.77,9.35,4575787
23-Apr-14,8.99,9.01,8.65,8.82,2984253
22-Apr-14,8.85,9.07,8.85,9.01,2396002
21-Apr-14,8.67,8.92,8.67,8.81,1905652
17-Apr-14,8.11,8.65,8.06,8.62,1810948
16-Apr-14,8.24,8.26,8.04,8.13,1116193
15-Apr-14,8.30,8.35,7.89,8.14,1543337
14-Apr-14,8.20,8.26,8.10,8.23,1037909
11-Apr-14,8.11,8.25,7.94,8.09,1282639
10-Apr-14,8.54,8.61,8.12,8.19,1425619
9-Apr-14,8.52,8.69,8.34,8.58,929965
8-Apr-14,8.37,8.65,8.35,8.46,960175
7-Apr-14,8.44,8.56,8.22,8.40,1288588
4-Apr-14,8.92,9.00,8.42,8.50,1553443
3-Apr-14,9.16,9.28,8.71,8.82,1966242
2-Apr-14,9.20,9.24,9.01,9.13,1191835
1-Apr-14,9.08,9.25,9.06,9.16,1026191
31-Mar-14,8.86,9.13,8.80,9.08,1503570
28-Mar-14,8.95,9.10,8.65,8.76,896877
27-Mar-14,9.05,9.16,8.73,8.95,1503453
26-Mar-14,9.52,9.59,9.00,9.04,1376635
25-Mar-14,9.54,9.64,9.20,9.35,845901
24-Mar-14,9.71,9.82,9.26,9.46,1253297
21-Mar-14,9.72,9.87,9.56,9.70,1833674
20-Mar-14,9.89,9.91,9.65,9.67,2260967
19-Mar-14,9.46,9.46,9.25,9.37,794587
18-Mar-14,9.28,9.52,9.28,9.50,947789
17-Mar-14,9.45,9.57,9.20,9.26,1267105
14-Mar-14,9.24,9.47,9.16,9.37,996430
13-Mar-14,9.78,9.81,9.20,9.27,2544394
12-Mar-14,8.85,9.75,8.83,9.71,5592203
11-Mar-14,8.61,8.68,8.41,8.45,1028530
10-Mar-14,8.93,8.93,8.55,8.63,1006590
7-Mar-14,9.05,9.12,8.72,8.94,1368594
6-Mar-14,8.78,9.15,8.73,9.00,2596361
5-Mar-14,8.60,8.78,8.60,8.72,1006186
4-Mar-14,8.32,8.74,8.32,8.60,2187634
3-Mar-14,8.20,8.25,8.08,8.17,1077780
28-Feb-14,8.43,8.52,8.26,8.32,1264864
27-Feb-14,8.47,8.50,8.33,8.41,918293
26-Feb-14,8.38,8.55,8.32,8.52,856863
25-Feb-14,8.52,8.65,8.30,8.34,865559
24-Feb-14,8.37,8.51,8.31,8.48,1005719
21-Feb-14,8.51,8.51,8.32,8.33,885976
20-Feb-14,8.48,8.55,8.27,8.45,1438224
19-Feb-14,8.66,8.69,8.40,8.44,1728300
18-Feb-14,8.63,8.81,8.62,8.78,1089527
14-Feb-14,8.74,8.80,8.59,8.61,1094406
13-Feb-14,8.62,8.78,8.54,8.73,1084865
12-Feb-14,8.69,8.83,8.64,8.72,1389815
11-Feb-14,8.60,8.70,8.56,8.63,1130878
10-Feb-14,8.47,8.76,8.45,8.63,2019080
7-Feb-14,8.39,8.54,8.35,8.51,1305699
6-Feb-14,8.27,8.39,8.08,8.38,2431957
5-Feb-14,8.38,8.42,8.16,8.23,2214321
4-Feb-14,8.29,8.48,8.25,8.45,1880479
3-Feb-14,8.66,8.73,8.21,8.23,3048322
31-Jan-14,8.85,9.31,8.70,8.73,4128575
30-Jan-14,8.42,9.16,8.10,9.11,10081321
29-Jan-14,7.14,7.21,6.96,7.06,4635397
28-Jan-14,7.25,7.34,7.08,7.19,3594299
27-Jan-14,7.38,7.40,7.12,7.20,2138444
24-Jan-14,7.36,7.41,7.24,7.33,2193559
23-Jan-14,7.60,7.74,7.36,7.40,2034588
22-Jan-14,7.54,7.80,7.50,7.62,1947331
21-Jan-14,7.98,7.99,7.21,7.56,7549064
17-Jan-14,8.84,8.90,8.49,8.53,2669751
16-Jan-14,9.15,9.20,8.72,8.83,3110993
15-Jan-14,9.05,9.29,9.01,9.13,1436360
14-Jan-14,9.07,9.26,8.93,9.04,2904181
13-Jan-14,9.22,9.38,8.96,9.02,2587482
10-Jan-14,9.54,9.56,9.06,9.28,2089041
9-Jan-14,10.06,10.14,9.48,9.51,2499102
8-Jan-14,9.88,10.14,9.85,9.99,1585271
7-Jan-14,9.83,9.94,9.77,9.89,1089894
6-Jan-14,9.90,9.94,9.77,9.79,1114349
3-Jan-14,9.82,9.95,9.74,9.88,706000
2-Jan-14,9.77,9.97,9.63,9.81,1221926
31-Dec-13,9.79,9.82,9.65,9.78,1017483
30-Dec-13,9.81,9.94,9.72,9.73,1751741
27-Dec-13,9.77,9.88,9.70,9.79,591775
26-Dec-13,9.79,9.97,9.66,9.71,1281963
24-Dec-13,9.60,9.82,9.60,9.75,886988
23-Dec-13,9.30,9.73,9.25,9.58,2259661
20-Dec-13,9.23,9.45,9.10,9.22,4919310
19-Dec-13,9.29,9.29,9.01,9.05,699585
18-Dec-13,9.34,9.49,9.00,9.30,863661
17-Dec-13,9.22,9.39,9.12,9.30,549559
16-Dec-13,9.12,9.32,9.00,9.20,1408537
13-Dec-13,8.92,9.15,8.92,9.06,1032377
12-Dec-13,8.95,9.00,8.83,8.89,640930
11-Dec-13,9.11,9.13,8.90,8.97,852808
10-Dec-13,9.29,9.32,9.03,9.11,1007959
9-Dec-13,9.43,9.53,9.24,9.32,932736
6-Dec-13,9.45,9.58,9.35,9.43,1023979
5-Dec-13,9.30,9.39,9.25,9.33,697161
4-Dec-13,9.07,9.37,9.07,9.32,687269
3-Dec-13,9.00,9.12,8.95,9.10,920118
2-Dec-13,9.29,9.29,9.00,9.06,1250623
29-Nov-13,9.19,9.32,9.11,9.30,564798
27-Nov-13,9.03,9.18,9.02,9.16,730056
26-Nov-13,9.00,9.06,8.89,9.01,835459
25-Nov-13,9.00,9.09,8.86,9.00,1390950
22-Nov-13,8.96,8.96,8.82,8.90,847621
21-Nov-13,8.61,8.99,8.60,8.93,1191888
20-Nov-13,8.73,8.79,8.59,8.60,948331
19-Nov-13,8.75,8.88,8.61,8.73,1457105
18-Nov-13,8.91,8.98,8.75,8.77,1191733
15-Nov-13,9.00,9.06,8.86,8.89,1695521
14-Nov-13,9.23,9.23,8.94,9.01,1891137
13-Nov-13,9.34,9.44,9.24,9.26,1270332
12-Nov-13,9.42,9.54,9.29,9.39,1706971
11-Nov-13,9.31,9.50,9.30,9.40,1197352
8-Nov-13,9.41,9.59,9.28,9.32,2560487
7-Nov-13,9.71,9.75,9.38,9.39,1827873
6-Nov-13,9.75,9.80,9.52,9.63,1611474
5-Nov-13,9.75,9.84,9.66,9.69,1290354
4-Nov-13,9.90,9.94,9.78,9.82,1292716
1-Nov-13,10.19,10.31,9.83,9.89,1620419
31-Oct-13,10.31,10.43,10.20,10.20,1694417
30-Oct-13,10.45,10.54,10.24,10.34,2438107
29-Oct-13,10.33,10.55,10.27,10.49,1849631
28-Oct-13,10.26,10.32,9.76,10.27,2854286
25-Oct-13,10.51,10.60,10.22,10.26,1582032
24-Oct-13,10.45,10.89,9.91,10.40,6900940
23-Oct-13,11.51,11.67,11.28,11.44,1548392
22-Oct-13,11.84,11.85,11.56,11.60,742026
21-Oct-13,11.79,11.91,11.68,11.78,933909
18-Oct-13,11.54,11.78,11.37,11.74,1227490
17-Oct-13,11.19,11.50,11.14,11.40,822840
16-Oct-13,11.39,11.41,11.23,11.24,897698
15-Oct-13,11.39,11.52,11.25,11.34,760818
14-Oct-13,11.41,11.49,11.32,11.40,1152872
11-Oct-13,11.45,11.56,11.31,11.52,1199223
10-Oct-13,11.11,11.46,11.11,11.46,2260992
9-Oct-13,11.01,11.17,10.65,10.90,1403588
8-Oct-13,11.47,11.53,10.96,10.99,1331002
7-Oct-13,11.59,11.70,11.46,11.48,749779
4-Oct-13,11.25,11.78,11.19,11.73,1382862
3-Oct-13,11.15,11.32,11.12,11.21,1604527
2-Oct-13,11.33,11.42,11.27,11.32,884122
1-Oct-13,11.32,11.51,11.25,11.47,993209
30-Sep-13,11.23,11.46,11.19,11.32,1090366
27-Sep-13,11.49,11.59,11.26,11.40,1334056
26-Sep-13,11.28,11.65,11.28,11.56,1338657
25-Sep-13,11.31,11.46,11.17,11.22,675550
24-Sep-13,11.06,11.45,11.00,11.33,1260362
23-Sep-13,11.20,11.20,10.92,11.06,1922590
20-Sep-13,11.36,11.39,11.12,11.16,1385818
19-Sep-13,11.31,11.43,11.16,11.35,767046
18-Sep-13,11.28,11.49,11.08,11.30,1005317
17-Sep-13,11.08,11.34,11.06,11.28,837570
16-Sep-13,11.36,11.36,10.96,11.11,1518163
13-Sep-13,11.44,11.44,11.05,11.11,1999693
12-Sep-13,11.15,11.45,11.13,11.31,2109747
11-Sep-13,11.03,11.22,10.88,11.13,2143539
10-Sep-13,11.05,11.13,10.95,11.09,1706512
9-Sep-13,10.73,11.06,10.72,11.00,1643146
6-Sep-13,10.60,10.72,10.32,10.70,1562940
5-Sep-13,10.67,10.72,10.46,10.50,1574636
4-Sep-13,10.34,10.51,10.05,10.45,1515540
3-Sep-13,9.39,10.25,9.37,10.14,3546477
30-Aug-13,9.47,9.49,9.24,9.27,762890
29-Aug-13,9.48,9.62,9.46,9.49,754640
28-Aug-13,9.50,9.64,9.45,9.46,899431
27-Aug-13,9.82,9.88,9.43,9.48,2041673
26-Aug-13,10.08,10.19,9.91,9.93,1060766
23-Aug-13,9.96,10.12,9.90,10.08,1370390
22-Aug-13,10.23,10.23,9.84,9.95,1764018
21-Aug-13,10.43,10.49,10.21,10.21,940884
20-Aug-13,10.44,10.52,10.32,10.46,849360
19-Aug-13,10.40,10.77,10.38,10.39,1627816
16-Aug-13,10.33,10.63,10.26,10.38,1583990
15-Aug-13,10.65,10.70,10.36,10.43,1342306
14-Aug-13,11.06,11.06,10.73,10.81,1182368
13-Aug-13,11.00,11.08,10.89,11.03,888487
12-Aug-13,10.97,11.08,10.97,11.02,825493
9-Aug-13,10.97,11.07,10.81,10.97,960028
8-Aug-13,11.00,11.11,10.92,10.99,872143
7-Aug-13,10.98,11.11,10.87,10.94,1357939
6-Aug-13,11.15,11.19,10.92,10.99,1158320
5-Aug-13,10.97,11.35,10.91,11.19,1540867
2-Aug-13,10.90,11.00,10.85,10.96,831070
1-Aug-13,11.00,11.14,10.91,10.97,1294769
31-Jul-13,10.90,11.00,10.89,10.91,1599892
30-Jul-13,10.70,11.00,10.62,10.89,1318601
29-Jul-13,10.84,11.01,10.59,10.67,1866461
26-Jul-13,11.08,11.25,10.79,10.85,1936913
25-Jul-13,11.35,11.46,10.16,11.15,5543448
24-Jul-13,11.72,11.80,11.58,11.78,2102961
23-Jul-13,11.93,11.97,11.61,11.61,1541964
22-Jul-13,12.01,12.02,11.69,11.89,1062173
19-Jul-13,11.89,12.00,11.84,11.97,550156
18-Jul-13,12.00,12.16,11.86,11.96,1071603
17-Jul-13,11.80,12.00,11.66,12.00,1638422
16-Jul-13,11.62,11.74,11.41,11.53,779468
15-Jul-13,11.57,11.75,11.55,11.64,818037
12-Jul-13,11.44,11.75,11.35,11.58,780870
11-Jul-13,11.50,11.65,11.42,11.49,1585949
10-Jul-13,11.47,11.57,11.30,11.40,1199927
9-Jul-13,11.25,11.51,11.05,11.44,2097396
8-Jul-13,11.30,11.40,11.10,11.18,915773
5-Jul-13,11.20,11.28,10.96,11.25,825585
3-Jul-13,10.99,11.19,10.88,10.90,571738
2-Jul-13,10.81,11.09,10.72,11.05,923489
1-Jul-13,10.70,10.97,10.65,10.86,877905
28-Jun-13,10.72,10.75,10.56,10.67,1129768
27-Jun-13,10.54,10.78,10.45,10.75,924803
26-Jun-13,10.75,10.79,10.46,10.48,1075167
25-Jun-13,10.52,10.71,10.45,10.67,1136919
24-Jun-13,10.53,10.70,10.23,10.41,1585704
21-Jun-13,10.72,10.90,10.22,10.70,2609687
20-Jun-13,10.84,11.05,10.60,10.66,1487497
19-Jun-13,11.16,11.34,10.91,11.01,890523
18-Jun-13,10.97,11.23,10.90,11.18,1252474
17-Jun-13,11.13,11.14,10.79,10.98,2602392
14-Jun-13,11.54,11.57,11.22,11.24,1030634
13-Jun-13,11.41,11.58,11.21,11.53,1153405
12-Jun-13,11.55,11.60,11.32,11.39,1270110
11-Jun-13,11.22,11.65,11.05,11.45,1565080
10-Jun-13,11.42,11.44,11.10,11.34,1111865
7-Jun-13,11.10,11.44,11.01,11.16,2037410
6-Jun-13,11.05,11.25,10.72,11.21,3642113
5-Jun-13,10.48,10.62,10.26,10.54,1584044
4-Jun-13,10.39,10.70,10.30,10.43,1984730
3-Jun-13,10.74,10.81,10.28,10.55,2725866
31-May-13,10.10,10.96,10.10,10.53,5455452
30-May-13,9.73,10.23,9.69,10.13,3061097
29-May-13,9.38,9.84,9.29,9.71,3640354
28-May-13,9.20,9.53,9.16,9.43,2676927
24-May-13,8.95,9.05,8.81,9.04,8526928
23-May-13,9.55,9.78,9.12,9.15,5881118
22-May-13,9.74,10.08,9.74,9.91,2232282
21-May-13,9.80,9.81,9.39,9.75,2121036
20-May-13,9.96,10.17,9.78,9.80,2745335
17-May-13,9.67,10.19,9.67,10.08,2839171
16-May-13,9.14,9.70,9.10,9.62,2413104
15-May-13,8.79,9.20,8.76,9.13,2061535
14-May-13,8.79,8.96,8.74,8.86,1191698
13-May-13,8.58,8.83,8.58,8.76,1226048
10-May-13,8.65,8.72,8.53,8.62,1107756
9-May-13,8.60,8.81,8.57,8.66,557712
8-May-13,8.80,8.83,8.55,8.68,883773
7-May-13,8.65,8.85,8.56,8.84,1126919
6-May-13,8.49,8.77,8.48,8.70,1451787
3-May-13,8.43,8.60,8.37,8.46,1769249
2-May-13,8.31,8.34,8.19,8.32,1264271
1-May-13,8.35,8.43,8.21,8.24,1446374
30-Apr-13,8.29,8.43,8.20,8.42,1346631
29-Apr-13,8.25,8.43,8.17,8.28,2058431
26-Apr-13,8.09,8.31,8.05,8.21,2502813
25-Apr-13,7.80,8.55,7.75,8.22,9067832
24-Apr-13,6.58,6.69,6.46,6.66,838201
23-Apr-13,6.56,6.62,6.36,6.62,583401
22-Apr-13,6.29,6.48,6.06,6.48,884570
19-Apr-13,6.20,6.34,6.15,6.26,797749
18-Apr-13,6.29,6.49,6.12,6.17,791446
17-Apr-13,6.47,6.48,6.24,6.25,950451
16-Apr-13,6.53,6.72,6.40,6.57,672529
15-Apr-13,6.93,6.98,6.35,6.41,1076012
12-Apr-13,6.90,7.08,6.88,7.00,809179
11-Apr-13,6.80,6.97,6.79,6.96,690025
10-Apr-13,6.51,6.88,6.51,6.80,850991
9-Apr-13,6.34,6.47,6.24,6.46,852482
8-Apr-13,6.20,6.34,6.17,6.31,547599
5-Apr-13,6.21,6.33,6.16,6.22,908424
4-Apr-13,6.30,6.43,6.28,6.34,661729
3-Apr-13,6.52,6.58,6.23,6.28,1580352
2-Apr-13,6.65,6.73,6.50,6.52,948579
1-Apr-13,6.97,6.99,6.58,6.62,998567
28-Mar-13,7.06,7.10,6.95,7.00,1016356
27-Mar-13,6.98,7.07,6.86,7.05,565613
26-Mar-13,7.14,7.25,6.98,7.05,575544
25-Mar-13,7.03,7.16,6.96,7.14,756416
22-Mar-13,7.05,7.17,7.00,7.02,545780
21-Mar-13,7.15,7.22,7.00,7.05,1514527
20-Mar-13,7.40,7.40,7.15,7.19,1600557
19-Mar-13,7.37,7.46,7.20,7.32,1774182
18-Mar-13,7.00,7.16,6.89,7.02,1096808
15-Mar-13,7.20,7.20,7.04,7.10,1609824
14-Mar-13,7.16,7.21,7.14,7.20,555689
13-Mar-13,7.15,7.22,7.06,7.16,498966
12-Mar-13,7.16,7.19,7.09,7.16,608702
11-Mar-13,7.15,7.26,7.05,7.19,1032555
8-Mar-13,7.06,7.20,6.97,7.19,903921
7-Mar-13,7.00,7.14,6.85,7.13,2302069
6-Mar-13,6.59,6.70,6.54,6.69,538781
5-Mar-13,6.40,6.66,6.40,6.58,554143
4-Mar-13,6.39,6.58,6.39,6.53,604803
1-Mar-13,6.41,6.48,6.34,6.42,1002329
28-Feb-13,6.56,6.63,6.43,6.49,747710
27-Feb-13,6.46,6.74,6.42,6.59,674526
26-Feb-13,6.59,6.66,6.38,6.49,980029
25-Feb-13,6.53,6.70,6.48,6.56,1079257
22-Feb-13,6.47,6.58,6.40,6.50,621010
21-Feb-13,6.59,6.59,6.31,6.44,876585
20-Feb-13,6.83,6.94,6.59,6.60,1163981
19-Feb-13,6.65,6.86,6.61,6.83,1197821
15-Feb-13,6.82,6.88,6.68,6.70,677003
14-Feb-13,6.70,6.82,6.65,6.78,715856
13-Feb-13,6.90,6.94,6.66,6.77,1182218
12-Feb-13,6.78,6.93,6.74,6.87,1080461
11-Feb-13,6.99,7.00,6.77,6.79,1045177
8-Feb-13,7.01,7.16,6.86,6.99,1211217
7-Feb-13,6.86,7.11,6.84,7.11,970440
6-Feb-13,7.18,7.25,6.67,6.84,2705693
5-Feb-13,7.32,7.56,7.25,7.51,1303809
4-Feb-13,7.50,7.75,7.20,7.31,2183290
1-Feb-13,7.15,7.28,7.09,7.23,1516928
31-Jan-13,6.84,7.20,6.69,7.13,1648526
30-Jan-13,6.97,6.99,6.60,6.63,1032668
29-Jan-13,7.08,7.08,6.93,7.00,938064
28-Jan-13,7.06,7.12,7.00,7.07,689959
25-Jan-13,6.88,7.13,6.88,7.07,1422381
24-Jan-13,6.44,6.84,6.43,6.82,1363474
23-Jan-13,6.55,6.63,6.43,6.45,670060
22-Jan-13,6.68,6.68,6.55,6.57,596450
18-Jan-13,6.76,6.78,6.65,6.71,472882
17-Jan-13,6.90,7.04,6.79,6.79,1087550
16-Jan-13,6.53,6.59,6.50,6.53,347716
15-Jan-13,6.46,6.56,6.41,6.56,370569
14-Jan-13,6.47,6.65,6.38,6.53,1034876
11-Jan-13,6.64,6.64,6.48,6.49,856059
10-Jan-13,6.53,6.70,6.46,6.66,1391067
9-Jan-13,6.46,6.55,6.37,6.51,846050
8-Jan-13,6.58,6.59,6.38,6.46,674922
7-Jan-13,6.44,6.65,6.44,6.61,1140111
4-Jan-13,6.42,6.50,6.30,6.50,697051
3-Jan-13,6.33,6.44,6.26,6.39,894282
2-Jan-13,6.01,6.36,5.96,6.34,1859683
31-Dec-12,5.77,5.82,5.66,5.81,1055151
28-Dec-12,5.76,5.95,5.69,5.80,478360
27-Dec-12,5.95,5.95,5.66,5.83,636913
26-Dec-12,6.00,6.11,5.84,5.93,529593
24-Dec-12,5.93,6.00,5.88,6.00,224280
21-Dec-12,5.95,5.97,5.75,5.94,1050742
20-Dec-12,5.94,6.15,5.85,6.07,929176
19-Dec-12,5.95,5.96,5.78,5.94,467612
18-Dec-12,5.84,5.95,5.81,5.92,913257
17-Dec-12,5.82,5.86,5.72,5.84,391771
14-Dec-12,5.79,5.84,5.74,5.80,365524
13-Dec-12,5.81,5.94,5.75,5.80,442072
12-Dec-12,5.97,5.99,5.75,5.78,512138
11-Dec-12,5.81,5.89,5.72,5.81,865194
10-Dec-12,5.85,5.85,5.67,5.72,652782
7-Dec-12,5.78,5.84,5.68,5.79,435281
6-Dec-12,5.77,5.91,5.66,5.73,1239927
5-Dec-12,5.97,5.98,5.72,5.79,927424
4-Dec-12,5.60,5.98,5.57,5.89,1909850
3-Dec-12,5.61,5.65,5.48,5.61,1189459
30-Nov-12,5.51,5.64,5.50,5.58,780677
29-Nov-12,5.48,5.61,5.43,5.56,798867
28-Nov-12,5.24,5.46,5.12,5.41,594007
27-Nov-12,5.40,5.49,5.27,5.27,688476
26-Nov-12,4.87,5.45,4.87,5.39,1883606
23-Nov-12,4.79,4.88,4.71,4.86,425118
21-Nov-12,4.55,4.78,4.54,4.76,684934
20-Nov-12,4.51,4.56,4.40,4.55,644392
19-Nov-12,4.43,4.55,4.41,4.53,598620
16-Nov-12,4.52,4.54,4.32,4.35,1123470
15-Nov-12,4.61,4.68,4.52,4.54,625931
14-Nov-12,4.76,4.79,4.61,4.65,467768
13-Nov-12,4.85,4.89,4.72,4.74,623209
12-Nov-12,4.85,4.97,4.82,4.90,385842
9-Nov-12,4.80,4.87,4.80,4.83,544402
8-Nov-12,4.79,4.93,4.79,4.83,817056
7-Nov-12,4.99,5.02,4.81,4.81,813224
6-Nov-12,5.02,5.15,5.01,5.05,633139
5-Nov-12,5.04,5.35,5.02,5.07,1102872
2-Nov-12,5.11,5.11,4.95,5.02,838964
1-Nov-12,4.95,5.14,4.93,5.06,1105583
31-Oct-12,4.90,4.96,4.90,4.92,687188
26-Oct-12,4.91,5.00,4.85,4.88,946488
25-Oct-12,5.10,5.25,4.75,4.89,2593845
24-Oct-12,4.75,4.80,4.62,4.70,1427589
23-Oct-12,4.67,4.75,4.57,4.70,1469467
22-Oct-12,4.82,4.91,4.68,4.72,722963
19-Oct-12,4.92,4.97,4.75,4.83,1138003
18-Oct-12,5.10,5.20,4.95,4.95,944837
17-Oct-12,5.08,5.18,5.04,5.08,604398
16-Oct-12,5.00,5.10,4.93,5.08,731636
15-Oct-12,5.20,5.20,4.95,4.96,1196152
12-Oct-12,5.21,5.30,5.15,5.20,390290
11-Oct-12,5.20,5.28,5.18,5.22,302304
10-Oct-12,5.18,5.25,5.06,5.17,645954
9-Oct-12,5.38,5.38,5.13,5.14,779742
8-Oct-12,5.35,5.40,5.32,5.38,268424
5-Oct-12,5.38,5.52,5.36,5.39,326408
4-Oct-12,5.40,5.40,5.30,5.35,423724
3-Oct-12,5.44,5.51,5.37,5.37,583571
2-Oct-12,5.49,5.51,5.38,5.44,577417
1-Oct-12,5.52,5.58,5.41,5.48,566034
28-Sep-12,5.52,5.59,5.48,5.48,397095
27-Sep-12,5.53,5.62,5.47,5.57,473805
26-Sep-12,5.53,5.56,5.40,5.51,592119
25-Sep-12,5.65,5.72,5.51,5.53,755245
24-Sep-12,5.64,5.74,5.60,5.61,470480
21-Sep-12,5.79,5.81,5.65,5.69,1005467
20-Sep-12,5.80,5.83,5.70,5.72,778273
19-Sep-12,5.96,5.98,5.78,5.82,1116573
18-Sep-12,6.04,6.09,5.94,5.95,755222
17-Sep-12,6.10,6.14,5.97,6.05,788018
14-Sep-12,5.90,6.18,5.90,6.15,1423573
13-Sep-12,5.78,5.90,5.76,5.88,810891
12-Sep-12,5.75,5.88,5.75,5.79,685288
11-Sep-12,5.87,5.92,5.70,5.72,1006416
10-Sep-12,5.99,6.01,5.85,5.86,570908
7-Sep-12,5.85,6.05,5.85,6.03,665738
6-Sep-12,5.69,5.88,5.67,5.85,893377
5-Sep-12,5.63,5.68,5.56,5.63,396703
4-Sep-12,5.67,5.70,5.55,5.65,602372
31-Aug-12,5.76,5.77,5.63,5.68,528042
30-Aug-12,5.83,5.86,5.68,5.70,556388
29-Aug-12,5.89,6.00,5.84,5.93,414144
28-Aug-12,5.78,5.94,5.72,5.88,463665
27-Aug-12,5.76,5.80,5.67,5.78,387594
24-Aug-12,5.62,5.72,5.60,5.72,412388
23-Aug-12,5.77,5.82,5.61,5.65,498845
22-Aug-12,5.75,5.84,5.72,5.78,380611
21-Aug-12,5.83,5.88,5.70,5.73,434600
20-Aug-12,5.98,5.98,5.82,5.83,500608
17-Aug-12,5.84,6.04,5.80,6.03,577541
16-Aug-12,5.69,5.89,5.69,5.86,596464
15-Aug-12,5.67,5.76,5.67,5.73,260560
14-Aug-12,5.96,5.98,5.65,5.70,553239
13-Aug-12,6.05,6.10,5.78,5.91,491415
10-Aug-12,6.10,6.13,5.99,6.05,326309
9-Aug-12,5.77,6.11,5.77,6.11,603486
8-Aug-12,5.77,5.84,5.72,5.76,305136
7-Aug-12,5.70,5.95,5.65,5.81,548133
6-Aug-12,5.63,5.72,5.41,5.65,1246193
3-Aug-12,5.61,5.70,5.56,5.58,611010
2-Aug-12,5.34,5.61,5.29,5.53,1018596
1-Aug-12,5.58,5.59,5.38,5.38,932616
31-Jul-12,5.59,5.67,5.50,5.52,1258269
30-Jul-12,5.85,5.86,5.56,5.59,1191516
27-Jul-12,5.95,6.00,5.72,5.83,1281193
26-Jul-12,6.00,6.05,5.86,5.86,959571
25-Jul-12,6.18,6.47,5.78,5.82,2900488
24-Jul-12,6.27,6.45,6.16,6.44,1039362
23-Jul-12,6.10,6.19,6.08,6.09,831655
20-Jul-12,6.36,6.43,6.26,6.26,556871
19-Jul-12,6.58,6.59,6.37,6.43,553916
18-Jul-12,6.21,6.45,6.21,6.44,411304
17-Jul-12,6.30,6.36,6.12,6.21,345234
16-Jul-12,6.18,6.29,6.10,6.25,474371
13-Jul-12,6.27,6.40,6.18,6.20,832344
12-Jul-12,6.59,6.64,6.22,6.27,1194222
11-Jul-12,6.76,6.86,6.59,6.68,553981
10-Jul-12,7.00,7.10,6.73,6.76,486017
9-Jul-12,6.97,7.02,6.83,6.94,352381
6-Jul-12,7.31,7.36,6.94,7.00,580540
5-Jul-12,6.96,7.40,6.96,7.39,626872
3-Jul-12,6.90,7.02,6.89,7.00,428461
2-Jul-12,6.88,6.93,6.81,6.90,741609
29-Jun-12,6.74,6.86,6.66,6.84,900215
28-Jun-12,6.71,6.78,6.48,6.57,572881
27-Jun-12,6.68,6.85,6.65,6.79,478400
26-Jun-12,6.66,6.79,6.61,6.66,715504
25-Jun-12,6.72,6.80,6.63,6.66,430615
22-Jun-12,6.75,6.90,6.70,6.86,3817681
21-Jun-12,7.05,7.06,6.70,6.72,530400
20-Jun-12,7.12,7.22,7.00,7.09,438317
19-Jun-12,6.92,7.19,6.81,7.14,675846
18-Jun-12,6.89,6.95,6.79,6.87,466296
15-Jun-12,6.78,7.00,6.75,6.97,733082
14-Jun-12,6.68,6.84,6.57,6.81,379482
13-Jun-12,6.67,6.82,6.61,6.69,746302
12-Jun-12,6.45,6.72,6.41,6.70,477516
11-Jun-12,6.84,6.84,6.43,6.44,509039
8-Jun-12,6.64,6.80,6.47,6.77,375608
7-Jun-12,6.84,6.94,6.65,6.67,565931
6-Jun-12,6.45,6.86,6.43,6.75,757472
5-Jun-12,6.21,6.38,6.17,6.37,654637
4-Jun-12,6.22,6.33,6.15,6.22,558752
1-Jun-12,6.40,6.40,6.15,6.16,1187677
31-May-12,6.37,6.54,6.21,6.41,1625862
30-May-12,6.53,6.55,6.33,6.38,513685
29-May-12,6.49,6.70,6.48,6.62,646170
25-May-12,6.31,6.46,6.22,6.42,463600
24-May-12,6.47,6.49,6.22,6.34,640097
23-May-12,6.21,6.53,6.10,6.46,892013
22-May-12,6.40,6.54,6.22,6.30,812699
21-May-12,6.18,6.42,6.03,6.39,904023
18-May-12,6.40,6.45,6.12,6.17,1121884
17-May-12,6.27,6.56,6.26,6.40,1679615
16-May-12,6.18,6.24,6.02,6.03,1000572
15-May-12,6.20,6.30,6.11,6.13,933792
14-May-12,6.31,6.40,6.20,6.20,907557
11-May-12,6.45,6.53,6.30,6.41,780647
10-May-12,6.68,6.85,6.44,6.48,844849
9-May-12,6.68,6.81,6.60,6.63,900068
8-May-12,6.55,6.82,6.54,6.80,820184
7-May-12,6.62,6.79,6.55,6.63,1215745
4-May-12,6.86,6.89,6.67,6.71,860319
3-May-12,6.93,7.10,6.86,6.92,904775
2-May-12,7.04,7.04,6.85,6.96,964752
1-May-12,7.14,7.32,7.03,7.07,795475
30-Apr-12,7.42,7.42,7.10,7.16,979172
27-Apr-12,7.54,7.54,7.25,7.40,921711
26-Apr-12,7.50,8.04,7.25,7.56,2931434
25-Apr-12,7.67,8.09,7.65,8.06,1514744
24-Apr-12,7.51,7.55,7.37,7.53,634824
23-Apr-12,7.72,8.00,7.43,7.49,1265827
20-Apr-12,7.78,8.14,7.70,7.89,1415908
19-Apr-12,7.64,7.93,7.60,7.63,876274
18-Apr-12,7.62,7.71,7.58,7.68,670677
17-Apr-12,7.63,7.80,7.57,7.68,572769
16-Apr-12,7.51,7.68,7.33,7.55,687010
13-Apr-12,7.77,7.77,7.41,7.49,652910
12-Apr-12,7.53,7.80,7.51,7.78,702646
11-Apr-12,7.29,7.51,7.29,7.48,703105
10-Apr-12,7.38,7.52,7.17,7.18,1171660
9-Apr-12,7.35,7.35,7.15,7.17,680281
5-Apr-12,7.23,7.59,7.16,7.53,965041
4-Apr-12,7.46,7.46,7.15,7.29,907700
3-Apr-12,7.74,7.78,7.48,7.51,1083787
2-Apr-12,8.05,8.14,7.77,7.79,1204148
30-Mar-12,8.21,8.30,8.12,8.12,555806
29-Mar-12,8.11,8.17,7.97,8.12,457600
28-Mar-12,8.18,8.23,8.03,8.20,655446
27-Mar-12,8.02,8.32,8.02,8.16,967849
26-Mar-12,7.71,8.04,7.68,8.04,974135
23-Mar-12,7.75,7.75,7.61,7.63,631025
22-Mar-12,7.73,7.82,7.65,7.74,493267
21-Mar-12,7.75,7.84,7.65,7.83,662418
20-Mar-12,7.75,7.82,7.57,7.71,605116
19-Mar-12,7.68,7.94,7.60,7.84,680100
16-Mar-12,7.89,7.96,7.65,7.69,784632
15-Mar-12,7.74,7.90,7.67,7.86,526715
14-Mar-12,7.81,8.07,7.66,7.74,754467
13-Mar-12,7.60,7.82,7.53,7.82,1005919
12-Mar-12,7.90,7.90,7.50,7.52,675975
9-Mar-12,7.91,7.95,7.80,7.91,435528
8-Mar-12,7.74,7.99,7.65,7.91,618677
7-Mar-12,7.48,7.70,7.48,7.66,573020
6-Mar-12,7.60,7.65,7.44,7.48,662637
5-Mar-12,7.74,7.84,7.65,7.68,495263
2-Mar-12,7.88,8.04,7.73,7.75,639439
1-Mar-12,7.98,8.09,7.84,7.87,1119377
29-Feb-12,8.05,8.26,7.96,7.96,1199525
28-Feb-12,8.24,8.24,8.03,8.03,957653
27-Feb-12,8.09,8.32,7.98,8.27,900632
24-Feb-12,8.19,8.29,8.07,8.18,581847
23-Feb-12,8.05,8.20,7.95,8.17,640651
22-Feb-12,8.36,8.38,8.03,8.06,611614
21-Feb-12,8.37,8.60,8.33,8.39,1086850
17-Feb-12,8.49,8.56,8.27,8.37,930037
16-Feb-12,8.19,8.56,8.17,8.52,1632247
15-Feb-12,7.95,8.53,7.87,8.49,2629864
14-Feb-12,7.90,7.94,7.76,7.87,697851
13-Feb-12,7.90,7.98,7.86,7.96,614057
10-Feb-12,7.89,7.94,7.80,7.85,550077
9-Feb-12,8.06,8.10,7.91,7.96,506041
8-Feb-12,8.09,8.10,7.92,8.06,864462
7-Feb-12,7.91,8.18,7.90,8.09,1132479
6-Feb-12,8.24,8.25,7.83,8.00,2042475
3-Feb-12,8.24,8.90,8.13,8.38,5148992
2-Feb-12,6.96,7.34,6.87,7.31,1143823
1-Feb-12,7.19,7.28,6.95,6.95,1707883
31-Jan-12,7.32,7.40,7.12,7.14,818747
30-Jan-12,7.26,7.39,7.23,7.27,681617
27-Jan-12,7.34,7.50,7.32,7.41,842163
26-Jan-12,7.46,7.49,7.32,7.39,647927
25-Jan-12,7.42,7.44,7.33,7.40,1389585
24-Jan-12,7.36,7.41,7.22,7.39,1045586
23-Jan-12,7.54,7.58,7.35,7.39,742344
20-Jan-12,7.55,7.63,7.51,7.55,963107
19-Jan-12,7.68,7.74,7.47,7.58,1067733
18-Jan-12,7.35,7.62,7.32,7.62,701522
17-Jan-12,7.25,7.40,7.25,7.33,652488
13-Jan-12,7.13,7.26,7.05,7.18,693322
12-Jan-12,7.11,7.20,7.03,7.16,791983
11-Jan-12,7.02,7.23,7.00,7.07,1123716
10-Jan-12,7.00,7.23,6.98,7.02,1365139
9-Jan-12,6.57,6.98,6.51,6.90,1167611
6-Jan-12,6.39,6.60,6.35,6.54,232320
5-Jan-12,6.39,6.45,6.26,6.41,479927
4-Jan-12,6.46,6.53,6.26,6.44,649818
3-Jan-12,6.45,6.56,6.32,6.52,1089046
30-Dec-11,6.14,6.32,6.07,6.28,1124132
29-Dec-11,6.18,6.25,6.12,6.14,887431
28-Dec-11,6.33,6.34,6.14,6.15,585003
27-Dec-11,6.29,6.45,6.27,6.36,369755
23-Dec-11,6.39,6.40,6.28,6.34,359190
22-Dec-11,6.20,6.40,6.16,6.37,824583
21-Dec-11,6.40,6.40,6.15,6.20,1057945
20-Dec-11,6.39,6.46,6.31,6.40,912444
19-Dec-11,6.50,6.50,6.19,6.22,607749
16-Dec-11,6.43,6.57,6.27,6.44,1425978
15-Dec-11,6.38,6.41,6.23,6.38,632238
14-Dec-11,6.50,6.57,6.24,6.28,775427
13-Dec-11,6.72,6.90,6.45,6.54,611652
12-Dec-11,6.73,6.89,6.50,6.63,563161
9-Dec-11,6.62,6.91,6.62,6.85,594139
8-Dec-11,6.80,6.88,6.59,6.61,582465
7-Dec-11,6.92,6.95,6.77,6.84,618058
6-Dec-11,7.15,7.15,6.90,7.01,618777
5-Dec-11,7.08,7.19,6.95,7.15,1213331
2-Dec-11,6.89,7.07,6.76,6.97,599027
1-Dec-11,6.85,6.95,6.73,6.74,639764
30-Nov-11,6.67,6.90,6.63,6.90,1180607
29-Nov-11,6.58,6.58,6.41,6.46,551066
28-Nov-11,6.37,6.60,6.37,6.57,1174829
25-Nov-11,6.20,6.26,6.07,6.12,514945
23-Nov-11,6.35,6.37,6.21,6.24,857383
22-Nov-11,6.55,6.62,6.38,6.42,831726
21-Nov-11,6.82,6.83,6.55,6.57,966091
18-Nov-11,7.09,7.14,6.93,6.96,684911
17-Nov-11,7.04,7.16,6.97,7.04,911886
16-Nov-11,7.00,7.18,6.97,7.03,1591478
15-Nov-11,7.04,7.18,6.95,7.08,1103355
14-Nov-11,7.20,7.30,7.00,7.05,896307
11-Nov-11,7.07,7.25,7.00,7.24,882068
10-Nov-11,7.12,7.13,6.88,6.93,1092531
9-Nov-11,7.11,7.26,6.94,6.97,1224987
8-Nov-11,7.37,7.38,7.10,7.32,877778
7-Nov-11,7.33,7.40,7.05,7.29,775191
4-Nov-11,7.30,7.40,7.23,7.33,526074
3-Nov-11,7.36,7.42,7.06,7.42,1004510
2-Nov-11,7.24,7.30,7.00,7.20,895835
1-Nov-11,7.00,7.18,6.92,7.04,1559533
31-Oct-11,7.52,7.57,7.29,7.31,1461484
28-Oct-11,7.48,7.75,7.22,7.71,998648
27-Oct-11,7.09,7.58,6.95,7.50,2029570
26-Oct-11,7.02,7.16,6.87,7.08,1335797
25-Oct-11,7.32,7.40,7.00,7.01,1477872
24-Oct-11,7.07,7.45,7.07,7.36,1392176
21-Oct-11,7.22,7.50,6.98,7.05,1629657
20-Oct-11,7.14,7.17,6.86,7.05,1357230
19-Oct-11,7.92,7.93,7.11,7.12,2928083
18-Oct-11,7.82,8.03,7.62,7.99,2075158
17-Oct-11,8.10,8.18,7.76,7.79,1670177
14-Oct-11,8.30,8.33,8.02,8.19,1067370
13-Oct-11,8.22,8.28,8.03,8.18,1249719
12-Oct-11,8.52,8.56,8.22,8.31,1361271
11-Oct-11,8.16,8.61,8.08,8.39,1656619
10-Oct-11,8.13,8.30,8.03,8.27,1108500
7-Oct-11,8.14,8.24,7.85,7.89,1116443
6-Oct-11,7.78,8.17,7.75,8.10,1406176
5-Oct-11,7.58,7.93,7.41,7.79,1341687
4-Oct-11,7.07,7.57,7.03,7.53,2218858
3-Oct-11,7.58,7.77,7.12,7.18,1976626
30-Sep-11,7.79,8.01,7.71,7.72,911018
29-Sep-11,8.20,8.23,7.61,8.00,1276169
28-Sep-11,8.41,8.53,7.92,7.94,1263317
27-Sep-11,8.10,8.61,8.05,8.41,2335700
26-Sep-11,7.93,8.00,7.59,7.95,1113267
23-Sep-11,7.62,7.90,7.54,7.87,925923
22-Sep-11,7.50,7.77,7.42,7.62,1684989
21-Sep-11,8.18,8.28,7.82,7.83,1057770
20-Sep-11,8.13,8.42,8.10,8.20,1837293
19-Sep-11,8.16,8.21,7.90,8.04,1531834
16-Sep-11,8.69,8.70,8.08,8.28,2833145
15-Sep-11,8.39,8.97,8.07,8.60,5049429
14-Sep-11,8.09,8.45,7.92,8.29,2305292
13-Sep-11,7.70,8.10,7.65,8.05,2200213
12-Sep-11,7.06,7.69,7.03,7.69,1675739
9-Sep-11,7.51,7.63,7.09,7.22,1088784
8-Sep-11,7.55,7.77,7.46,7.55,1034553
7-Sep-11,7.19,7.66,7.18,7.62,1391558
6-Sep-11,6.73,7.04,6.65,7.02,1033427
2-Sep-11,7.09,7.24,6.90,6.99,1186609
1-Sep-11,7.55,7.70,7.20,7.21,1054417
31-Aug-11,7.75,7.85,7.39,7.52,1145387
30-Aug-11,7.60,7.82,7.50,7.69,1034473
29-Aug-11,7.29,7.71,7.27,7.70,1427713
26-Aug-11,7.01,7.31,6.91,7.29,911622
25-Aug-11,7.30,7.44,6.97,7.06,1336494
24-Aug-11,7.05,7.38,7.00,7.35,1509370
23-Aug-11,6.87,7.09,6.74,7.08,1258790
22-Aug-11,6.89,6.90,6.62,6.85,1839561
19-Aug-11,6.42,7.00,6.33,6.60,2033257
18-Aug-11,6.50,6.54,6.23,6.47,2254604
17-Aug-11,6.85,6.92,6.62,6.79,968670
16-Aug-11,6.98,7.05,6.62,6.83,1310441
15-Aug-11,6.92,7.15,6.82,7.14,921414
12-Aug-11,6.86,6.94,6.60,6.87,1041613
11-Aug-11,6.25,6.90,6.22,6.79,1912768
10-Aug-11,6.84,6.86,6.14,6.16,2085554
9-Aug-11,6.30,6.52,6.00,6.51,2385684
8-Aug-11,6.31,6.60,6.11,6.15,3408153
5-Aug-11,6.72,6.93,6.28,6.72,2397600
4-Aug-11,7.10,7.10,6.63,6.63,1661285
3-Aug-11,7.10,7.25,6.80,7.20,1385282
2-Aug-11,7.00,7.25,6.80,7.10,2859151
1-Aug-11,6.91,7.18,6.76,7.08,2675400
29-Jul-11,6.46,6.66,6.25,6.43,1206763
28-Jul-11,6.55,6.74,6.50,6.53,954798
27-Jul-11,6.94,7.02,6.54,6.58,1796057
26-Jul-11,6.99,7.12,6.98,7.05,518758
25-Jul-11,7.07,7.13,7.00,7.01,658656
22-Jul-11,7.24,7.33,7.12,7.23,752025
21-Jul-11,7.08,7.30,7.01,7.25,1443997
20-Jul-11,7.05,7.14,6.75,7.09,3329621
19-Jul-11,6.15,6.71,6.14,6.57,1952214
18-Jul-11,6.48,6.48,6.14,6.20,829978
15-Jul-11,6.50,6.56,6.44,6.51,710064
14-Jul-11,6.74,6.78,6.49,6.50,766657
13-Jul-11,6.82,6.87,6.66,6.73,1138785
12-Jul-11,6.98,6.99,6.74,6.74,1137606
11-Jul-11,7.16,7.27,6.96,7.02,1040225
8-Jul-11,7.47,7.49,7.24,7.28,1173411
7-Jul-11,7.31,7.60,7.26,7.60,1706132
6-Jul-11,7.03,7.24,7.02,7.24,1221737
5-Jul-11,7.02,7.04,6.85,7.03,884240
1-Jul-11,6.95,7.09,6.87,7.01,828449
30-Jun-11,6.81,6.95,6.80,6.91,548584
29-Jun-11,6.70,6.84,6.60,6.80,675464
28-Jun-11,6.85,6.86,6.62,6.71,701949
27-Jun-11,6.61,6.85,6.58,6.84,842402
24-Jun-11,6.58,6.70,6.50,6.58,3897211
23-Jun-11,6.29,6.59,6.23,6.58,1007428
22-Jun-11,6.42,6.56,6.36,6.38,668616
21-Jun-11,6.12,6.50,6.12,6.46,1225552
20-Jun-11,6.02,6.14,6.00,6.05,603768
17-Jun-11,6.12,6.12,5.91,6.02,1357315
16-Jun-11,6.06,6.17,5.93,6.05,843119
15-Jun-11,6.21,6.26,6.05,6.07,663551
14-Jun-11,6.22,6.31,6.15,6.30,517700
13-Jun-11,6.14,6.24,6.12,6.13,728153
10-Jun-11,6.29,6.31,6.10,6.12,762040
9-Jun-11,6.25,6.40,6.15,6.31,903714
8-Jun-11,6.45,6.52,6.18,6.21,1224669
7-Jun-11,6.58,6.64,6.47,6.51,506114
6-Jun-11,6.65,6.74,6.53,6.55,758065
3-Jun-11,6.75,6.77,6.61,6.62,690189
2-Jun-11,6.80,6.92,6.79,6.84,511042
1-Jun-11,7.08,7.13,6.80,6.80,813846
31-May-11,7.07,7.18,6.88,7.10,1171766
27-May-11,6.98,7.13,6.92,7.01,946370
26-May-11,6.92,7.00,6.90,6.94,626203
25-May-11,6.88,6.99,6.82,6.93,667041
24-May-11,7.00,7.02,6.84,6.85,722619
23-May-11,7.10,7.15,6.85,6.99,1292029
20-May-11,7.21,7.28,7.08,7.19,1135680
19-May-11,7.31,7.35,7.20,7.24,1199655
18-May-11,7.11,7.25,7.02,7.25,819964
17-May-11,7.34,7.38,7.05,7.11,1519545
16-May-11,7.53,7.59,7.39,7.39,959565
13-May-11,7.58,7.69,7.50,7.57,871048
12-May-11,7.47,7.66,7.37,7.62,805344
11-May-11,7.78,7.78,7.49,7.55,996407
10-May-11,7.63,7.86,7.61,7.80,1081807
9-May-11,7.51,7.67,7.46,7.60,546199
6-May-11,7.75,7.79,7.35,7.51,1242821
5-May-11,7.47,7.74,7.47,7.60,1764934
4-May-11,7.44,7.57,7.32,7.52,1925485
3-May-11,7.50,7.64,7.35,7.45,1551003
2-May-11,7.82,7.89,7.50,7.53,1614929
29-Apr-11,7.60,8.25,7.45,7.82,3041440
28-Apr-11,8.11,8.20,7.91,8.00,1284840
27-Apr-11,8.40,8.45,8.05,8.19,1125877
26-Apr-11,8.29,8.39,8.18,8.38,1202070
25-Apr-11,8.08,8.29,8.04,8.28,693828
21-Apr-11,8.21,8.23,8.01,8.10,876561
20-Apr-11,7.99,8.13,7.90,8.04,1291219
19-Apr-11,8.04,8.09,7.81,7.82,811600
18-Apr-11,7.88,8.02,7.82,8.00,2604053
15-Apr-11,7.98,8.05,7.89,8.01,701717
14-Apr-11,7.82,8.03,7.82,8.01,555450
13-Apr-11,7.92,8.03,7.83,7.89,1394771
12-Apr-11,8.10,8.13,7.80,7.82,1307477
11-Apr-11,8.70,8.74,8.13,8.13,1976630
8-Apr-11,8.66,8.73,8.58,8.70,1134123
7-Apr-11,8.58,8.75,8.54,8.59,873015
6-Apr-11,8.41,8.60,8.25,8.57,1190916
5-Apr-11,8.05,8.39,8.00,8.33,995338
4-Apr-11,8.30,8.31,7.96,8.04,1046181
1-Apr-11,8.52,8.54,8.22,8.27,565362
31-Mar-11,8.27,8.47,8.27,8.39,816515
30-Mar-11,8.37,8.40,8.17,8.34,971018
29-Mar-11,8.30,8.42,8.23,8.28,562267
28-Mar-11,8.40,8.42,8.25,8.31,543694
25-Mar-11,8.47,8.58,8.24,8.36,901854
24-Mar-11,8.25,8.52,8.15,8.40,1952792
23-Mar-11,8.10,8.24,7.94,8.12,1941209
22-Mar-11,7.65,8.18,7.56,8.00,2414760
21-Mar-11,7.69,7.74,7.60,7.67,1005453
18-Mar-11,7.70,7.75,7.55,7.60,1854201
17-Mar-11,7.77,7.79,7.54,7.55,1723534
16-Mar-11,7.84,7.95,7.45,7.59,2560488
15-Mar-11,7.61,7.92,7.60,7.81,1588790
14-Mar-11,7.73,8.03,7.62,7.97,1022938
11-Mar-11,7.84,7.88,7.62,7.83,1370044
10-Mar-11,8.07,8.19,7.78,7.87,2070134
9-Mar-11,8.07,8.25,7.90,8.15,1436507
8-Mar-11,8.00,8.45,7.95,8.35,1606089
7-Mar-11,8.18,8.27,7.87,7.97,1180809
4-Mar-11,8.20,8.24,8.00,8.15,969006
3-Mar-11,8.04,8.28,7.96,8.20,1776179
2-Mar-11,7.71,7.96,7.71,7.89,923128
1-Mar-11,8.06,8.06,7.64,7.72,1320322
28-Feb-11,8.19,8.19,7.78,8.01,1359496
25-Feb-11,7.95,8.18,7.93,8.13,1354802
24-Feb-11,7.72,7.93,7.62,7.88,1149853
23-Feb-11,7.86,8.00,7.51,7.69,1818409
22-Feb-11,8.15,8.16,7.85,7.86,1950703
18-Feb-11,8.60,8.66,8.20,8.28,1480359
17-Feb-11,8.14,8.60,8.10,8.55,2711770
16-Feb-11,8.09,8.29,8.05,8.18,1421056
15-Feb-11,8.31,8.37,8.05,8.07,1478719
14-Feb-11,8.79,8.80,8.23,8.33,2008789
11-Feb-11,8.57,8.82,8.52,8.77,1119850
10-Feb-11,8.42,8.70,8.30,8.58,1131847
9-Feb-11,8.57,8.66,8.43,8.49,1665450
8-Feb-11,8.73,8.80,8.50,8.58,1644078
7-Feb-11,8.60,8.87,8.53,8.57,3623144
4-Feb-11,7.93,8.48,7.86,8.45,3921630
3-Feb-11,7.60,7.94,7.56,7.78,1678595
2-Feb-11,7.75,7.80,7.59,7.60,1377160
1-Feb-11,7.38,7.87,7.36,7.75,2288755
31-Jan-11,7.50,7.51,7.13,7.34,4377685
28-Jan-11,7.34,7.75,7.22,7.37,11209919
27-Jan-11,9.24,9.24,8.94,8.98,1802328
26-Jan-11,9.11,9.38,8.95,9.19,1739102
25-Jan-11,9.35,9.38,8.83,9.04,2139022
24-Jan-11,9.20,9.45,9.12,9.35,1603648
21-Jan-11,9.58,9.59,9.11,9.23,1633316
20-Jan-11,9.69,9.69,9.28,9.50,1934400
19-Jan-11,10.34,10.45,9.77,9.79,2089239
18-Jan-11,10.55,10.64,10.18,10.34,1820123
14-Jan-11,10.24,10.62,10.16,10.62,1266051
13-Jan-11,10.35,10.46,10.17,10.22,1239873
12-Jan-11,10.61,10.69,10.34,10.40,1364771
11-Jan-11,10.78,10.94,10.49,10.50,928449
10-Jan-11,10.63,10.75,10.43,10.72,969717
7-Jan-11,11.06,11.10,10.56,10.75,1229423
6-Jan-11,10.61,11.15,10.52,11.06,1152031
5-Jan-11,10.26,10.64,10.20,10.64,731448
4-Jan-11,10.60,10.64,10.20,10.35,849112
3-Jan-11,10.41,10.69,10.28,10.58,1248096
31-Dec-10,10.27,10.39,10.10,10.33,669537
30-Dec-10,10.27,10.39,10.25,10.30,485786
29-Dec-10,10.27,10.44,10.27,10.30,509768
28-Dec-10,10.44,10.49,10.21,10.26,704596
27-Dec-10,10.20,10.54,10.10,10.50,742416
23-Dec-10,10.38,10.50,10.25,10.31,812173
22-Dec-10,10.74,10.74,10.31,10.42,1175667
21-Dec-10,10.92,10.95,10.65,10.71,982741
20-Dec-10,10.80,10.90,10.72,10.80,1079680
17-Dec-10,10.97,11.05,10.84,10.91,1825548
16-Dec-10,10.40,11.00,10.36,11.00,2086458
15-Dec-10,10.08,10.40,10.00,10.16,1153285
14-Dec-10,10.77,10.83,9.98,10.06,2514030
13-Dec-10,10.37,10.50,10.26,10.26,1054860
10-Dec-10,10.01,10.40,9.99,10.30,1341234
9-Dec-10,10.29,10.30,9.85,9.96,2456591
8-Dec-10,9.97,10.14,9.80,10.06,2680182
7-Dec-10,9.50,9.75,9.38,9.56,2827504
6-Dec-10,9.00,9.36,8.88,9.31,1987654
3-Dec-10,8.56,8.96,8.50,8.91,2117079
2-Dec-10,8.30,8.62,8.26,8.56,1904009
1-Dec-10,8.36,8.40,8.22,8.24,1626031
30-Nov-10,8.25,8.30,8.12,8.18,1614742
29-Nov-10,8.42,8.47,8.20,8.25,1440137
26-Nov-10,8.28,8.55,8.28,8.42,711487
24-Nov-10,8.50,8.59,8.32,8.34,2159734
23-Nov-10,8.60,8.60,8.28,8.40,2445903
22-Nov-10,8.45,8.77,8.40,8.67,1442089
19-Nov-10,8.24,8.43,8.14,8.42,1161699
18-Nov-10,8.48,8.48,8.15,8.20,2242360
17-Nov-10,8.26,8.42,8.19,8.34,1123165
16-Nov-10,8.24,8.34,8.10,8.21,1702551
15-Nov-10,8.22,8.45,8.22,8.31,992644
12-Nov-10,8.50,8.60,8.14,8.15,1576943
11-Nov-10,8.47,8.64,8.32,8.61,730031
10-Nov-10,8.62,8.67,8.38,8.65,888080
9-Nov-10,8.79,8.82,8.51,8.56,1092926
8-Nov-10,8.58,8.82,8.58,8.74,1697657
5-Nov-10,8.65,8.65,8.39,8.54,1352753
4-Nov-10,8.74,8.75,8.48,8.57,1874224
3-Nov-10,8.26,8.57,8.25,8.57,2366699
2-Nov-10,8.22,8.26,8.17,8.23,1054434
1-Nov-10,8.20,8.38,8.09,8.14,1325428
29-Oct-10,8.29,8.33,8.18,8.19,952253
28-Oct-10,8.48,8.51,8.12,8.25,2171966
27-Oct-10,8.27,8.40,8.21,8.40,1364622
26-Oct-10,8.45,8.49,8.27,8.29,1790152
25-Oct-10,8.25,8.48,8.21,8.43,1553993
22-Oct-10,8.25,8.25,8.12,8.14,1760345
21-Oct-10,8.22,8.30,8.10,8.21,2548356
20-Oct-10,8.19,8.29,7.97,8.13,4931234
19-Oct-10,8.10,8.39,7.79,7.95,18745490
18-Oct-10,12.45,12.48,11.80,12.33,3518906
15-Oct-10,12.49,12.50,12.04,12.45,2096795
14-Oct-10,12.01,12.13,11.72,11.89,873532
13-Oct-10,12.10,12.19,11.97,12.07,1444044
12-Oct-10,11.75,12.17,11.55,12.03,1309873
11-Oct-10,11.86,11.97,11.72,11.84,863606
8-Oct-10,11.59,11.95,11.26,11.84,852609
7-Oct-10,11.42,11.61,11.16,11.56,1037602
6-Oct-10,11.71,11.90,11.27,11.34,1296384
5-Oct-10,11.38,11.89,11.24,11.68,2403765
4-Oct-10,11.31,11.40,10.83,11.29,2351783
1-Oct-10,11.74,11.94,11.45,11.80,1931219
30-Sep-10,12.19,12.26,11.56,11.67,1580862
29-Sep-10,11.83,12.30,11.82,12.07,2196514
28-Sep-10,11.86,11.89,11.43,11.79,2369919
27-Sep-10,12.11,12.53,11.65,11.78,4096819
24-Sep-10,12.73,12.90,12.55,12.83,1691620
23-Sep-10,11.78,12.63,11.77,12.55,2246994
22-Sep-10,11.86,11.91,11.57,11.90,1386893
21-Sep-10,11.94,12.22,11.65,11.90,2855254
20-Sep-10,11.18,12.00,11.09,11.98,2083606
17-Sep-10,11.20,11.40,11.00,11.12,1740772
16-Sep-10,11.02,11.25,10.86,11.06,1755444
15-Sep-10,11.00,11.14,10.94,11.09,1081197
14-Sep-10,10.45,11.31,10.35,11.09,3606683
13-Sep-10,10.09,10.59,10.07,10.47,3587627
10-Sep-10,9.99,10.36,9.97,9.97,2348641
9-Sep-10,10.01,10.15,9.87,9.98,2742532
8-Sep-10,9.50,9.86,9.40,9.81,2060758
7-Sep-10,9.47,9.56,9.30,9.46,1229785
3-Sep-10,9.17,9.57,9.17,9.49,1372862
2-Sep-10,8.77,9.09,8.71,9.02,645161
1-Sep-10,8.61,8.82,8.50,8.80,717360
31-Aug-10,8.42,8.53,8.26,8.44,871825
30-Aug-10,8.65,8.70,8.41,8.42,707822
27-Aug-10,8.41,8.72,8.19,8.71,908777
26-Aug-10,8.58,8.79,8.27,8.29,938881
25-Aug-10,8.16,8.55,8.13,8.54,972836
24-Aug-10,7.91,8.30,7.87,8.28,930883
23-Aug-10,8.14,8.38,8.05,8.05,547468
20-Aug-10,8.06,8.24,7.94,8.10,499238
19-Aug-10,8.30,8.36,7.98,8.08,742453
18-Aug-10,8.47,8.51,8.32,8.37,377746
17-Aug-10,8.51,8.64,8.38,8.52,629941
16-Aug-10,8.05,8.62,7.94,8.46,832949
13-Aug-10,8.27,8.27,8.06,8.09,513693
12-Aug-10,8.38,8.44,8.22,8.28,555434
11-Aug-10,8.72,8.74,8.42,8.54,945755
10-Aug-10,9.03,9.08,8.87,8.95,803593
9-Aug-10,9.04,9.25,8.92,9.19,618917
6-Aug-10,9.14,9.21,8.82,8.99,968023
5-Aug-10,9.30,9.41,9.14,9.21,689029
4-Aug-10,9.04,9.42,9.01,9.42,1491305
3-Aug-10,9.18,9.18,8.91,8.97,827051
2-Aug-10,9.17,9.19,8.90,9.05,848206
30-Jul-10,8.77,9.18,8.76,9.05,938879
29-Jul-10,9.22,9.22,8.83,8.93,1118235
28-Jul-10,9.31,9.39,9.01,9.05,1131137
27-Jul-10,9.27,9.46,8.86,9.37,2782460
26-Jul-10,9.13,9.87,9.05,9.55,4290880
23-Jul-10,7.88,9.17,7.61,9.14,8485138
22-Jul-10,6.48,7.04,6.40,6.99,1607891
21-Jul-10,6.61,6.62,6.31,6.36,884009
20-Jul-10,6.39,6.59,6.32,6.59,524914
19-Jul-10,6.43,6.50,6.39,6.49,303947
16-Jul-10,6.77,6.85,6.39,6.43,788703
15-Jul-10,6.78,6.89,6.65,6.84,441604
14-Jul-10,6.63,6.87,6.63,6.79,806803
13-Jul-10,6.60,6.69,6.52,6.67,861424
12-Jul-10,6.54,6.61,6.37,6.49,775832
9-Jul-10,6.65,6.78,6.57,6.60,779245
8-Jul-10,6.55,6.72,6.39,6.67,763548
7-Jul-10,6.34,6.52,6.32,6.49,717977
6-Jul-10,6.47,6.62,6.22,6.30,647140
2-Jul-10,6.52,6.52,6.25,6.33,349019
1-Jul-10,6.42,6.48,6.23,6.45,733233
30-Jun-10,6.55,6.80,6.42,6.43,674154
29-Jun-10,6.75,6.77,6.50,6.53,938333
28-Jun-10,6.88,6.94,6.74,6.87,785844
25-Jun-10,6.79,6.97,6.66,6.90,1157811
24-Jun-10,6.94,6.98,6.73,6.73,750705
23-Jun-10,7.00,7.04,6.83,6.94,729573
22-Jun-10,7.22,7.31,6.99,7.00,637466
21-Jun-10,7.46,7.50,7.13,7.19,723510
18-Jun-10,7.00,7.40,6.99,7.31,1565198
17-Jun-10,7.09,7.14,6.82,6.90,835760
16-Jun-10,6.99,7.18,6.93,7.00,713531
15-Jun-10,6.95,7.12,6.85,7.01,1159947
14-Jun-10,6.53,6.94,6.43,6.79,1918087
11-Jun-10,6.19,6.57,6.10,6.45,1379041
10-Jun-10,5.84,6.02,5.81,5.99,745479
9-Jun-10,6.04,6.04,5.70,5.76,1544768
8-Jun-10,6.23,6.42,5.89,5.94,1118422
7-Jun-10,6.45,6.56,6.16,6.18,1101369
4-Jun-10,6.74,6.84,6.38,6.44,946719
3-Jun-10,6.70,6.89,6.69,6.86,703843
2-Jun-10,6.72,6.79,6.65,6.72,935104
1-Jun-10,6.95,7.00,6.69,6.70,1003528
28-May-10,7.27,7.33,7.00,7.04,1144484
27-May-10,7.17,7.34,7.15,7.25,990298
26-May-10,7.17,7.40,6.96,7.00,1410892
25-May-10,6.65,7.13,6.63,7.03,1883815
24-May-10,6.89,6.94,6.64,6.66,832089
21-May-10,6.95,6.95,6.61,6.90,2698499
20-May-10,7.40,7.50,7.10,7.15,937957
19-May-10,7.64,7.69,7.40,7.55,662964
18-May-10,7.96,8.00,7.68,7.70,561124
17-May-10,7.67,7.89,7.50,7.85,1103043
14-May-10,8.05,8.09,7.66,7.74,1080988
13-May-10,8.39,8.50,8.04,8.12,766291
12-May-10,8.23,8.50,8.22,8.43,621224
11-May-10,8.11,8.31,7.96,8.24,901153
10-May-10,8.25,8.31,8.04,8.18,1049016
7-May-10,8.12,8.25,7.75,7.87,1241923
6-May-10,8.72,8.90,7.51,8.21,1455281
5-May-10,8.93,8.98,8.79,8.79,640893
4-May-10,9.16,9.16,8.84,8.98,731073
3-May-10,9.16,9.36,8.93,9.28,836578
30-Apr-10,9.75,9.80,9.10,9.14,1123887
29-Apr-10,9.77,9.87,9.69,9.75,656940
28-Apr-10,9.63,9.77,9.51,9.72,540181
27-Apr-10,9.67,9.98,9.59,9.59,944568
26-Apr-10,9.99,10.01,9.88,9.97,548232
23-Apr-10,9.95,10.00,9.82,10.00,872650
22-Apr-10,9.94,10.07,9.77,10.00,884860
21-Apr-10,10.00,10.04,9.71,10.00,936689
20-Apr-10,9.75,10.04,9.66,10.00,1086685
19-Apr-10,9.73,9.81,9.46,9.71,659209
16-Apr-10,9.89,9.90,9.68,9.79,900714
15-Apr-10,9.79,9.95,9.74,9.91,860080
14-Apr-10,9.60,10.10,9.50,10.05,1659572
13-Apr-10,9.22,9.57,9.11,9.56,1508335
12-Apr-10,9.07,9.24,8.96,9.22,1012013
9-Apr-10,8.67,8.95,8.60,8.91,748370
8-Apr-10,8.77,8.77,8.55,8.67,248377
7-Apr-10,8.83,8.91,8.71,8.76,602947
6-Apr-10,8.51,8.84,8.47,8.84,595048
5-Apr-10,8.48,8.66,8.48,8.61,380416
31-Mar-10,8.38,8.79,8.35,8.52,765500
30-Mar-10,8.40,8.44,8.15,8.43,545807
29-Mar-10,8.45,8.52,8.37,8.40,608370
26-Mar-10,8.22,8.37,8.16,8.34,477563
25-Mar-10,8.16,8.34,8.07,8.17,751995
24-Mar-10,8.31,8.31,8.05,8.08,557505
23-Mar-10,8.05,8.34,8.04,8.31,677083
22-Mar-10,7.88,8.07,7.88,8.05,978578
19-Mar-10,8.11,8.21,7.92,8.02,915369
18-Mar-10,8.10,8.20,8.03,8.13,605408
17-Mar-10,8.23,8.30,8.10,8.13,1085892
16-Mar-10,8.17,8.25,8.12,8.24,311558
15-Mar-10,8.25,8.39,8.12,8.17,400196
12-Mar-10,8.43,8.43,8.08,8.25,465157
11-Mar-10,8.40,8.50,8.20,8.44,546499
10-Mar-10,8.26,8.58,8.21,8.40,895880
9-Mar-10,8.12,8.30,8.02,8.30,433584
8-Mar-10,8.15,8.24,8.07,8.15,413717
5-Mar-10,8.07,8.19,7.98,8.19,454419
4-Mar-10,8.11,8.17,7.97,8.05,141993
3-Mar-10,8.12,8.15,7.88,8.12,625952
2-Mar-10,7.60,8.10,7.54,8.07,945589
1-Mar-10,7.63,7.69,7.49,7.60,514116
26-Feb-10,7.54,7.66,7.50,7.58,346343
25-Feb-10,7.66,7.72,7.52,7.56,590065
24-Feb-10,7.57,7.77,7.50,7.77,521353
23-Feb-10,7.57,7.63,7.19,7.51,913814
22-Feb-10,7.62,7.74,7.60,7.61,357918
19-Feb-10,7.57,7.65,7.41,7.63,544277
18-Feb-10,7.46,7.62,7.40,7.61,474650
17-Feb-10,7.67,7.73,7.38,7.44,717476
16-Feb-10,7.67,7.75,7.56,7.69,658617
12-Feb-10,7.27,7.56,7.25,7.55,1034231
11-Feb-10,7.01,7.31,6.90,7.31,683839
10-Feb-10,6.82,7.03,6.78,7.00,541987
9-Feb-10,6.85,6.95,6.79,6.82,428941
8-Feb-10,6.88,6.90,6.78,6.79,525781
5-Feb-10,6.80,6.94,6.76,6.91,654368
4-Feb-10,6.95,7.05,6.71,6.80,781342
3-Feb-10,7.15,7.25,6.96,7.00,541735
2-Feb-10,7.07,7.21,7.00,7.14,1066209
1-Feb-10,6.86,7.09,6.81,7.03,733527
29-Jan-10,7.08,7.16,6.80,6.85,825310
28-Jan-10,7.49,7.49,7.02,7.06,775236
27-Jan-10,7.51,7.60,7.22,7.32,1696992
26-Jan-10,7.73,7.87,7.51,7.80,778582
25-Jan-10,7.96,7.97,7.70,7.78,528083
22-Jan-10,8.27,8.27,7.90,7.92,759696
21-Jan-10,8.21,8.41,8.11,8.32,704056
20-Jan-10,8.14,8.24,7.99,8.21,535984
19-Jan-10,8.17,8.28,8.11,8.17,562649
15-Jan-10,8.30,8.33,8.07,8.17,562239
14-Jan-10,8.22,8.33,8.17,8.26,527452
13-Jan-10,8.31,8.35,8.05,8.24,652404
12-Jan-10,8.49,8.50,8.17,8.32,875001
11-Jan-10,8.86,9.15,8.45,8.55,2192515
8-Jan-10,9.09,9.27,9.03,9.27,656338
7-Jan-10,9.11,9.27,8.95,9.16,637286
6-Jan-10,9.24,9.24,9.04,9.11,511718
5-Jan-10,9.11,9.23,8.98,9.21,1027505
4-Jan-10,8.95,9.09,8.89,9.08,931666
31-Dec-09,8.97,8.98,8.85,8.87,375707
30-Dec-09,8.80,8.97,8.80,8.95,340594
29-Dec-09,8.97,9.00,8.81,8.85,309434
28-Dec-09,9.00,9.01,8.85,8.94,298300
24-Dec-09,8.91,8.95,8.82,8.94,169007
23-Dec-09,8.90,8.95,8.76,8.85,387901
22-Dec-09,9.04,9.04,8.65,8.87,798612
21-Dec-09,9.20,9.28,9.01,9.06,748278
18-Dec-09,9.27,9.30,9.06,9.12,891893
17-Dec-09,9.34,9.37,9.12,9.16,516287
16-Dec-09,9.36,9.40,9.22,9.32,762150
15-Dec-09,9.37,9.48,9.24,9.24,525107
14-Dec-09,9.50,9.55,9.30,9.35,718453
11-Dec-09,9.53,9.55,9.16,9.33,989515
10-Dec-09,9.61,9.80,9.26,9.37,2088162
9-Dec-09,9.19,9.39,9.00,9.36,1062087
8-Dec-09,9.11,9.23,8.96,9.21,477766
7-Dec-09,9.10,9.26,9.03,9.10,458558
4-Dec-09,9.10,9.20,8.83,9.09,732916
3-Dec-09,8.84,9.08,8.55,8.89,1094993
2-Dec-09,8.48,8.86,8.42,8.83,945652
1-Dec-09,8.28,8.46,8.20,8.45,456229
30-Nov-09,8.04,8.24,8.01,8.23,597331
27-Nov-09,7.88,8.14,7.88,8.08,289967
25-Nov-09,8.15,8.22,8.10,8.12,295357
24-Nov-09,8.21,8.21,8.02,8.14,339383
23-Nov-09,8.08,8.23,7.98,8.19,765243
20-Nov-09,8.02,8.15,7.83,7.93,433476
19-Nov-09,8.15,8.28,7.92,8.06,661672
18-Nov-09,8.41,8.59,8.06,8.26,863451
17-Nov-09,8.10,8.38,8.05,8.37,781367
16-Nov-09,7.99,8.06,7.91,8.04,617321
13-Nov-09,7.84,7.85,7.66,7.80,518631
12-Nov-09,7.77,7.79,7.56,7.74,581345
11-Nov-09,7.60,7.83,7.51,7.76,704451
10-Nov-09,7.68,7.68,7.40,7.47,406672
9-Nov-09,7.57,7.66,7.41,7.66,497670
6-Nov-09,7.41,7.57,7.37,7.46,433336
5-Nov-09,7.33,7.50,7.28,7.44,425671
4-Nov-09,7.51,7.57,7.22,7.23,462040
3-Nov-09,7.18,7.47,7.12,7.45,631521
2-Nov-09,7.51,7.57,7.15,7.22,783856
30-Oct-09,7.60,7.60,7.41,7.43,911603
29-Oct-09,7.65,7.73,7.55,7.62,562753
28-Oct-09,7.80,7.90,7.60,7.61,711828
27-Oct-09,7.86,7.99,7.79,7.79,455563
26-Oct-09,8.04,8.05,7.75,7.79,787289
23-Oct-09,8.43,8.45,8.02,8.06,770124
22-Oct-09,8.19,8.42,8.14,8.41,594252
21-Oct-09,8.30,8.38,8.13,8.16,1291698
20-Oct-09,8.15,8.16,8.00,8.02,537830
19-Oct-09,8.13,8.17,8.01,8.12,373043
16-Oct-09,8.11,8.17,8.01,8.06,425341
15-Oct-09,8.15,8.20,8.07,8.13,468345
14-Oct-09,8.23,8.26,8.13,8.18,433147
13-Oct-09,8.21,8.27,8.11,8.12,466212
12-Oct-09,8.33,8.33,8.11,8.18,556656
9-Oct-09,8.02,8.21,8.01,8.20,331975
8-Oct-09,8.16,8.21,7.97,7.98,721917
7-Oct-09,7.72,8.02,7.60,7.95,669557
6-Oct-09,7.64,7.81,7.55,7.73,496391
5-Oct-09,7.35,7.61,7.18,7.61,604377
2-Oct-09,7.39,7.39,7.25,7.25,509528
1-Oct-09,7.91,7.93,7.46,7.49,614880
30-Sep-09,8.18,8.18,7.91,7.95,367570
29-Sep-09,8.28,8.30,8.06,8.13,365070
28-Sep-09,8.31,8.61,8.28,8.29,524600
25-Sep-09,8.29,8.40,8.20,8.33,335752
24-Sep-09,8.66,8.78,8.22,8.36,841254
23-Sep-09,8.68,8.97,8.61,8.63,732150
22-Sep-09,8.43,9.05,8.36,8.64,1741221
21-Sep-09,8.12,8.30,7.90,8.16,374631
18-Sep-09,8.35,8.35,8.07,8.13,1009357
17-Sep-09,8.68,8.74,8.23,8.29,764575
16-Sep-09,8.25,8.75,8.20,8.65,850873
15-Sep-09,7.25,8.22,7.25,8.18,1934340
14-Sep-09,7.08,7.22,7.02,7.20,589734
11-Sep-09,7.05,7.16,7.04,7.11,285352
10-Sep-09,7.20,7.20,7.01,7.04,371783
9-Sep-09,7.08,7.17,7.03,7.16,306445
8-Sep-09,7.05,7.11,7.01,7.08,368570
4-Sep-09,7.01,7.04,6.90,7.00,422901
3-Sep-09,6.95,7.03,6.90,7.01,307731
2-Sep-09,6.90,7.00,6.80,6.94,263418
1-Sep-09,7.00,7.05,6.80,6.90,673545
31-Aug-09,7.08,7.21,6.95,7.00,627529
28-Aug-09,6.97,7.22,6.97,7.13,541060
27-Aug-09,7.14,7.16,6.90,7.02,624365
26-Aug-09,7.03,7.20,6.90,7.01,643030
25-Aug-09,7.25,7.30,7.00,7.01,391164
24-Aug-09,7.30,7.45,7.15,7.17,411885
21-Aug-09,7.33,7.38,7.10,7.28,556370
20-Aug-09,7.15,7.23,7.06,7.23,414847
19-Aug-09,6.91,7.21,6.85,7.19,474571
18-Aug-09,7.16,7.22,7.00,7.01,476912
17-Aug-09,7.28,7.45,7.01,7.10,407057
14-Aug-09,7.66,7.66,7.28,7.47,435407
13-Aug-09,7.77,7.86,7.53,7.65,352394
12-Aug-09,7.37,7.88,7.36,7.70,658224
11-Aug-09,7.47,7.64,7.35,7.37,527278
10-Aug-09,7.50,7.71,7.38,7.45,506382
7-Aug-09,7.50,7.60,7.22,7.51,641827
6-Aug-09,7.02,7.27,7.00,7.12,376574
5-Aug-09,7.28,7.31,7.02,7.20,450028
4-Aug-09,6.92,7.47,6.92,7.28,853209
3-Aug-09,6.92,7.02,6.76,6.97,752495
31-Jul-09,6.76,6.90,6.49,6.77,1421772
30-Jul-09,7.42,7.45,7.03,7.07,899996
29-Jul-09,7.30,7.42,7.25,7.29,529838
28-Jul-09,7.51,7.60,7.31,7.34,658779
27-Jul-09,7.48,7.58,7.33,7.55,529506
24-Jul-09,7.37,7.49,7.31,7.47,593301
23-Jul-09,7.13,7.50,7.05,7.46,1507685
22-Jul-09,7.16,7.31,7.06,7.11,1160796
21-Jul-09,7.40,7.47,6.94,7.17,1724270
20-Jul-09,7.55,7.79,7.16,7.33,3450363
17-Jul-09,8.90,9.10,8.67,9.00,574703
16-Jul-09,8.79,8.91,8.73,8.89,298656
15-Jul-09,8.98,9.08,8.83,8.87,622496
14-Jul-09,8.53,8.83,8.52,8.82,305468
13-Jul-09,8.51,8.62,8.22,8.51,431756
10-Jul-09,8.49,8.64,8.16,8.49,383621
9-Jul-09,8.48,8.73,8.35,8.52,394876
8-Jul-09,8.54,8.58,8.30,8.39,434905
7-Jul-09,8.62,8.65,8.44,8.47,232981
6-Jul-09,8.79,8.96,8.51,8.62,338791
2-Jul-09,9.28,9.28,8.79,8.81,749218
1-Jul-09,9.18,9.43,9.06,9.33,221045
30-Jun-09,9.25,9.33,9.06,9.13,319563
29-Jun-09,9.12,9.41,9.03,9.21,370492
26-Jun-09,9.10,9.21,8.98,9.10,1178572
25-Jun-09,9.16,9.26,9.00,9.19,461285
24-Jun-09,9.18,9.45,9.10,9.20,443719
23-Jun-09,9.09,9.24,8.99,9.06,454130
22-Jun-09,9.51,9.70,8.98,8.98,654111
19-Jun-09,9.65,9.86,9.41,9.45,752026
18-Jun-09,9.62,9.62,9.35,9.45,369989
17-Jun-09,9.57,9.80,9.46,9.65,531428
16-Jun-09,10.13,10.17,9.56,9.58,628700
15-Jun-09,9.93,10.10,9.66,10.07,719404
12-Jun-09,10.03,10.13,9.94,10.12,460655
11-Jun-09,10.02,10.32,10.01,10.17,605760
10-Jun-09,10.33,10.39,9.70,10.02,921943
9-Jun-09,10.00,10.40,9.88,10.29,636980
8-Jun-09,9.91,10.14,9.74,10.01,451002
5-Jun-09,10.53,10.53,9.80,9.94,863180
4-Jun-09,9.45,10.44,9.36,10.38,1547114
3-Jun-09,9.07,9.49,9.00,9.41,1324688
2-Jun-09,8.96,9.24,8.83,9.13,844408
1-Jun-09,8.72,9.11,8.64,9.08,939551
29-May-09,8.33,8.56,8.21,8.54,863421
28-May-09,8.33,8.42,8.05,8.32,664455
27-May-09,8.48,8.56,8.23,8.23,808436
26-May-09,8.14,8.58,8.14,8.52,581910
22-May-09,8.18,8.34,8.00,8.25,410024
21-May-09,8.20,8.22,7.90,8.10,578763
20-May-09,8.35,8.53,8.16,8.38,627940
19-May-09,8.08,8.31,8.05,8.24,723723
18-May-09,8.05,8.22,7.92,8.16,822771
15-May-09,8.03,8.40,7.97,8.12,436392
14-May-09,8.00,8.18,7.90,8.05,487407
13-May-09,7.94,8.10,7.92,7.94,567921
12-May-09,8.16,8.19,7.95,8.04,584730
11-May-09,8.46,8.51,8.06,8.11,724396
8-May-09,8.55,8.62,8.30,8.60,458276
7-May-09,8.63,8.87,8.23,8.34,614172
6-May-09,8.50,8.83,8.37,8.75,612590
5-May-09,8.53,8.84,8.48,8.60,620817
4-May-09,8.88,8.96,8.72,8.85,610837
1-May-09,8.26,8.75,8.26,8.71,559064
30-Apr-09,8.22,8.62,8.06,8.44,1344845
29-Apr-09,8.26,8.29,8.05,8.08,714881
28-Apr-09,8.25,8.30,8.10,8.14,569077
27-Apr-09,8.45,8.50,8.16,8.26,653567
24-Apr-09,8.54,8.54,8.22,8.45,695246
23-Apr-09,8.41,8.59,8.22,8.33,869272
22-Apr-09,8.29,8.49,7.90,7.93,1188497
21-Apr-09,8.97,9.50,8.90,9.29,936249
20-Apr-09,9.21,9.40,8.89,9.05,529456
17-Apr-09,9.33,9.68,9.26,9.44,1050091
16-Apr-09,8.90,9.37,8.82,9.32,726038
15-Apr-09,8.49,8.90,8.46,8.90,449822
14-Apr-09,8.44,8.85,8.32,8.60,440015
13-Apr-09,8.54,8.68,8.17,8.59,455216
9-Apr-09,8.40,8.71,8.36,8.66,534922
8-Apr-09,8.14,8.40,8.10,8.39,363381
7-Apr-09,8.24,8.34,8.02,8.03,384123
6-Apr-09,8.42,8.45,8.26,8.38,431797
3-Apr-09,8.11,8.50,8.01,8.45,550285
2-Apr-09,8.26,8.30,7.97,8.16,975974
1-Apr-09,7.60,8.18,7.41,8.07,1084692
31-Mar-09,7.33,7.74,7.26,7.40,1121257
30-Mar-09,7.32,7.54,7.00,7.18,656900
27-Mar-09,7.73,7.81,7.43,7.48,538383
26-Mar-09,7.71,7.89,7.54,7.82,555029
25-Mar-09,7.67,7.84,7.15,7.59,635256
24-Mar-09,8.31,8.37,7.52,7.56,711212
23-Mar-09,7.80,8.31,7.65,8.31,540366
20-Mar-09,7.91,7.91,7.35,7.49,751468
19-Mar-09,8.08,8.15,7.68,7.80,402079
18-Mar-09,7.48,7.99,7.48,7.96,575776
17-Mar-09,7.09,7.59,7.00,7.56,496199
16-Mar-09,7.25,7.39,7.04,7.12,385371
13-Mar-09,7.00,7.25,7.00,7.18,417819
12-Mar-09,6.39,7.17,6.25,7.14,726931
11-Mar-09,6.57,6.63,6.37,6.45,289124
10-Mar-09,5.86,6.55,5.86,6.55,611238
9-Mar-09,5.87,6.10,5.69,5.72,597890
6-Mar-09,6.19,6.33,5.81,5.95,673642
5-Mar-09,6.54,6.64,6.13,6.14,643983
4-Mar-09,6.69,6.81,6.50,6.66,686861
3-Mar-09,6.84,6.90,6.52,6.54,596883
2-Mar-09,7.01,7.16,6.62,6.71,721951
27-Feb-09,6.96,7.46,6.96,7.20,552004
26-Feb-09,7.23,7.28,7.03,7.09,425808
25-Feb-09,7.08,7.46,7.00,7.16,601607
24-Feb-09,6.77,7.24,6.57,7.21,1678714
23-Feb-09,6.85,6.87,6.65,6.66,579516
20-Feb-09,6.85,6.96,6.66,6.84,645340
19-Feb-09,6.67,6.84,6.60,6.78,512220
18-Feb-09,6.59,6.75,6.50,6.65,674987
17-Feb-09,7.28,7.30,6.75,6.84,1114535
13-Feb-09,7.16,7.54,7.14,7.49,668204
12-Feb-09,6.87,7.17,6.81,7.12,358851
11-Feb-09,6.68,7.13,6.68,7.00,437088
10-Feb-09,7.05,7.33,7.00,7.11,779326
9-Feb-09,7.15,7.25,6.86,6.99,411994
6-Feb-09,6.91,7.22,6.91,7.15,437595
5-Feb-09,6.56,7.03,6.50,6.94,818540
4-Feb-09,6.94,7.28,6.58,6.65,722393
3-Feb-09,6.04,7.29,6.04,6.96,1148452
2-Feb-09,6.73,6.79,6.27,6.53,1397286
30-Jan-09,7.50,7.58,6.78,6.86,1975879
29-Jan-09,8.63,8.92,8.29,8.32,779388
28-Jan-09,8.45,8.84,8.42,8.80,502471
27-Jan-09,8.43,8.67,8.34,8.45,418460
26-Jan-09,8.34,8.61,8.15,8.42,486267
23-Jan-09,7.90,8.39,7.80,8.30,462320
22-Jan-09,8.30,8.45,7.80,8.15,451075
21-Jan-09,8.13,8.62,7.75,8.56,536759
20-Jan-09,8.53,8.64,8.00,8.00,601371
16-Jan-09,8.91,8.95,8.35,8.70,423481
15-Jan-09,8.45,8.88,8.07,8.83,496991
14-Jan-09,8.82,9.01,8.42,8.44,653690
13-Jan-09,8.71,9.04,8.61,9.01,486417
12-Jan-09,8.84,8.98,8.64,8.74,332426
9-Jan-09,9.24,9.24,8.75,8.86,495485
8-Jan-09,9.05,9.28,8.78,9.27,689172
7-Jan-09,8.97,9.27,8.87,9.12,587803
6-Jan-09,8.99,9.18,8.93,9.09,931438
5-Jan-09,8.98,9.24,8.62,8.98,673891
2-Jan-09,9.00,9.14,8.66,8.98,666430
31-Dec-08,8.72,9.06,8.72,8.96,713099
30-Dec-08,8.37,8.71,8.37,8.68,338860
29-Dec-08,8.55,8.68,8.10,8.25,241626
26-Dec-08,8.65,8.74,8.44,8.55,90769
24-Dec-08,8.43,8.64,8.43,8.56,113678
23-Dec-08,8.63,8.80,8.30,8.45,341090
22-Dec-08,8.77,8.86,8.14,8.56,568270
19-Dec-08,8.90,9.01,8.31,8.75,1403444
18-Dec-08,8.68,9.25,8.33,8.59,898253
17-Dec-08,8.55,9.04,8.51,8.87,702220
16-Dec-08,8.16,8.71,8.16,8.67,664029
15-Dec-08,8.83,8.83,7.65,8.06,1098302
12-Dec-08,8.95,9.59,8.72,9.29,675743
11-Dec-08,9.84,10.05,9.12,9.26,497317
10-Dec-08,9.90,10.29,9.66,9.99,396886
9-Dec-08,9.88,10.39,9.58,9.70,548310
8-Dec-08,9.80,10.23,9.70,10.06,665029
5-Dec-08,9.04,9.59,8.78,9.57,574129
4-Dec-08,8.98,9.70,8.98,9.23,677973
3-Dec-08,8.77,9.17,8.54,9.15,559520
2-Dec-08,8.42,9.32,8.29,9.09,792395
1-Dec-08,9.46,9.46,8.13,8.15,725480
28-Nov-08,9.15,9.77,9.15,9.76,209107
26-Nov-08,8.50,9.48,8.43,9.37,898119
25-Nov-08,8.55,8.83,8.00,8.49,930403
24-Nov-08,7.65,8.60,7.48,8.49,1053499
21-Nov-08,7.38,7.62,6.99,7.51,1798082
20-Nov-08,7.11,7.64,6.76,7.12,1213562
19-Nov-08,7.28,7.71,7.20,7.25,1095729
18-Nov-08,6.69,7.38,6.69,7.31,1098830
17-Nov-08,6.75,7.01,6.57,6.64,452651
14-Nov-08,7.27,7.27,6.75,6.75,445184
13-Nov-08,6.87,7.37,6.40,7.28,730440
12-Nov-08,7.20,7.54,6.80,6.88,557867
11-Nov-08,7.51,7.80,7.28,7.31,373547
10-Nov-08,7.99,7.99,7.52,7.60,237732
7-Nov-08,7.50,7.98,7.50,7.78,361225
6-Nov-08,7.60,7.89,7.29,7.41,740762
5-Nov-08,8.03,8.09,7.52,7.62,481617
4-Nov-08,7.75,8.17,7.71,8.11,529862
3-Nov-08,7.78,7.79,7.35,7.60,407424
31-Oct-08,7.66,7.95,7.52,7.78,636986
30-Oct-08,7.80,7.82,7.43,7.78,546855
29-Oct-08,7.50,7.82,7.25,7.58,594764
28-Oct-08,7.06,7.50,6.90,7.48,478736
27-Oct-08,6.87,7.14,6.71,6.89,399246
24-Oct-08,6.51,7.36,6.50,7.00,985001
23-Oct-08,7.47,7.99,6.91,7.16,1435458
22-Oct-08,7.00,8.19,6.94,7.52,957091
21-Oct-08,7.00,8.47,6.80,7.99,1518684
20-Oct-08,7.15,7.50,7.15,7.50,553709
17-Oct-08,6.82,7.57,6.76,7.00,775134
16-Oct-08,6.39,7.19,6.00,7.17,1020729
15-Oct-08,7.41,7.55,6.22,6.30,708509
14-Oct-08,8.25,8.45,7.41,7.50,1085764
13-Oct-08,7.46,7.83,7.27,7.80,801658
10-Oct-08,6.05,7.37,5.81,7.16,1183228
9-Oct-08,6.87,6.99,6.18,6.25,830296
8-Oct-08,6.59,7.00,6.31,6.58,1217416
7-Oct-08,8.50,8.50,6.80,6.84,867854
6-Oct-08,7.75,10.00,6.50,7.19,1310896
3-Oct-08,8.30,8.55,7.94,7.94,601191
2-Oct-08,9.40,9.47,7.92,8.15,1193085
1-Oct-08,9.45,9.70,9.31,9.47,470610
30-Sep-08,9.24,9.78,8.76,9.56,842353
29-Sep-08,9.51,9.61,8.76,9.09,1361327
26-Sep-08,9.44,10.22,9.43,10.16,878291
25-Sep-08,9.25,9.84,9.16,9.67,569992
24-Sep-08,9.11,9.97,9.11,9.20,1291791
23-Sep-08,9.16,9.34,8.66,9.10,813197
22-Sep-08,9.99,9.99,8.87,9.14,853696
19-Sep-08,8.99,10.00,8.60,10.00,2635226
18-Sep-08,8.30,8.50,7.85,8.45,1703737
17-Sep-08,8.49,8.61,7.89,7.89,906271
16-Sep-08,8.10,8.70,7.90,8.62,959320
15-Sep-08,8.48,8.57,7.98,8.01,617033
12-Sep-08,8.26,9.03,8.17,8.56,1001707
11-Sep-08,7.91,8.30,7.81,8.30,921807
10-Sep-08,8.53,8.53,7.89,7.90,1466226
9-Sep-08,9.54,9.54,8.27,8.29,1404818
8-Sep-08,9.73,10.40,9.31,9.51,653564
5-Sep-08,10.08,10.35,9.36,9.38,1009258
4-Sep-08,10.50,10.50,10.00,10.05,525410
3-Sep-08,10.52,10.87,10.49,10.60,639979
2-Sep-08,11.43,11.48,10.40,10.53,727702
29-Aug-08,11.06,11.15,10.91,11.02,458523
28-Aug-08,10.93,11.22,10.86,11.10,715952
27-Aug-08,10.38,11.05,10.38,10.91,618287
26-Aug-08,10.93,11.16,10.41,10.58,1083848
25-Aug-08,11.57,11.57,10.86,10.93,695068
22-Aug-08,11.51,11.61,11.35,11.48,885452
21-Aug-08,11.43,11.62,11.37,11.41,941280
20-Aug-08,11.41,11.68,11.26,11.47,1058422
19-Aug-08,11.50,11.60,11.11,11.30,585739
18-Aug-08,11.40,11.65,11.32,11.51,989269
15-Aug-08,11.37,11.57,11.16,11.45,881184
14-Aug-08,10.88,11.30,10.86,11.14,676375
13-Aug-08,11.33,11.42,10.65,10.99,703813
12-Aug-08,11.37,11.49,11.17,11.34,953407
11-Aug-08,11.45,11.50,11.24,11.47,1069335
8-Aug-08,11.01,11.60,10.94,11.44,661339
7-Aug-08,11.39,11.39,10.92,10.98,572497
6-Aug-08,11.53,11.55,11.38,11.48,618210
5-Aug-08,11.53,11.58,11.33,11.54,1092151
4-Aug-08,11.45,11.58,11.07,11.37,881517
1-Aug-08,11.27,11.52,10.91,11.43,1069079
31-Jul-08,11.17,11.60,11.05,11.26,1493256
30-Jul-08,11.77,11.88,11.02,11.30,1577619
29-Jul-08,11.06,11.81,11.06,11.75,1999872
28-Jul-08,10.81,11.38,10.81,11.03,1932666
25-Jul-08,10.63,10.93,10.44,10.88,1267229
24-Jul-08,10.70,10.89,10.47,10.60,2043361
23-Jul-08,10.25,11.00,9.75,10.54,3448526
22-Jul-08,8.73,9.34,8.55,8.99,1262850
21-Jul-08,8.72,8.88,8.50,8.68,345492
18-Jul-08,8.44,8.84,8.28,8.67,622511
17-Jul-08,8.34,8.53,8.05,8.45,562123
16-Jul-08,7.97,8.31,7.79,8.27,859231
15-Jul-08,8.01,8.40,7.80,7.92,1051774
14-Jul-08,8.84,8.84,8.00,8.13,935498
11-Jul-08,8.38,8.94,8.19,8.75,756644
10-Jul-08,8.43,8.88,8.26,8.47,583933
9-Jul-08,9.31,9.31,8.41,8.43,1494476
8-Jul-08,8.16,9.29,8.05,9.29,1479856
7-Jul-08,8.22,8.32,7.97,8.13,897366
3-Jul-08,8.25,8.25,8.01,8.14,562281
2-Jul-08,8.38,8.52,8.08,8.13,1460505
1-Jul-08,8.72,8.86,8.23,8.37,1740244
30-Jun-08,8.93,9.06,8.75,8.82,1696590
27-Jun-08,8.98,9.07,8.73,8.91,10165286
26-Jun-08,9.30,9.47,8.87,8.98,1560544
25-Jun-08,9.03,9.50,8.92,9.41,2960080
24-Jun-08,9.23,9.33,8.86,8.91,2218687
23-Jun-08,9.83,9.91,9.19,9.24,1206737
20-Jun-08,9.87,9.99,9.65,9.96,1579695
19-Jun-08,10.18,10.18,9.84,10.00,1260916
18-Jun-08,10.25,10.30,9.74,9.99,2201312
17-Jun-08,9.63,10.50,9.52,10.28,10364715
16-Jun-08,13.00,13.90,12.85,13.81,880341
13-Jun-08,12.56,13.02,12.50,13.01,494171
12-Jun-08,12.58,12.74,12.13,12.41,581612
11-Jun-08,13.13,13.17,12.22,12.23,671326
10-Jun-08,12.70,13.19,12.60,13.10,577192
9-Jun-08,13.39,13.60,12.60,12.85,635009
6-Jun-08,13.92,14.09,13.13,13.29,579913
5-Jun-08,14.13,14.29,13.78,14.01,449945
4-Jun-08,14.13,14.39,13.95,14.06,378125
3-Jun-08,14.17,14.24,13.89,14.24,531643
2-Jun-08,14.50,14.55,13.83,14.06,624633
30-May-08,14.00,14.30,13.82,14.28,550727
29-May-08,13.43,14.05,13.38,13.93,409214
28-May-08,13.62,14.12,13.38,13.43,783699
27-May-08,13.44,13.50,12.91,13.49,638180
23-May-08,13.24,13.57,13.00,13.31,335384
22-May-08,13.40,13.52,13.05,13.16,433156
21-May-08,14.10,14.10,13.15,13.36,493861
20-May-08,14.04,14.05,13.79,14.00,270467
19-May-08,13.74,14.83,13.67,14.05,1127192
16-May-08,13.67,13.70,13.45,13.66,347000
15-May-08,13.20,13.64,12.95,13.57,452592
14-May-08,13.22,13.30,12.95,13.16,258255
13-May-08,13.00,13.24,12.61,13.16,358962
12-May-08,13.05,13.15,12.58,13.02,485722
9-May-08,12.61,13.14,12.56,13.05,406805
8-May-08,12.50,12.82,12.40,12.81,414003
7-May-08,13.06,13.06,12.44,12.46,238557
6-May-08,12.41,13.05,12.10,13.02,608162
5-May-08,12.43,12.51,12.08,12.48,510868
2-May-08,12.52,12.52,12.00,12.36,614631
1-May-08,12.66,12.67,12.00,12.40,832245
30-Apr-08,12.52,12.76,12.22,12.66,529961
29-Apr-08,13.16,13.16,12.15,12.39,749274
28-Apr-08,13.20,13.39,12.86,13.23,764385
25-Apr-08,12.63,13.39,12.29,13.23,1424178
24-Apr-08,12.55,12.66,11.91,12.27,1302696
23-Apr-08,14.10,14.25,12.38,12.55,4012952
22-Apr-08,14.88,16.11,14.82,16.04,1200480
21-Apr-08,15.22,15.48,14.60,15.30,1254283
18-Apr-08,14.45,15.33,14.30,15.31,1286770
17-Apr-08,13.59,14.30,13.30,14.24,857400
16-Apr-08,12.79,13.80,12.51,13.66,1022547
15-Apr-08,12.69,12.74,12.01,12.48,466667
14-Apr-08,12.37,12.39,11.72,12.23,622803
11-Apr-08,12.80,12.80,12.11,12.31,558324
10-Apr-08,12.90,13.15,12.45,12.97,746214
9-Apr-08,12.70,12.93,12.35,12.76,617038
8-Apr-08,12.09,12.81,12.02,12.66,455091
7-Apr-08,12.23,12.54,12.09,12.24,311391
4-Apr-08,12.58,12.58,12.08,12.11,549864
3-Apr-08,11.95,12.65,11.95,12.62,350753
2-Apr-08,12.03,12.34,11.86,12.10,438410
1-Apr-08,12.09,12.31,11.80,12.20,517042
31-Mar-08,12.00,12.22,11.50,12.00,826355
28-Mar-08,12.58,13.20,11.95,12.20,545245
27-Mar-08,12.64,12.99,12.36,12.47,309441
26-Mar-08,13.00,13.10,12.20,12.60,451248
25-Mar-08,12.84,13.17,12.22,13.07,540357
24-Mar-08,11.40,13.10,11.24,12.83,810407
20-Mar-08,11.23,11.39,10.98,11.22,660184
19-Mar-08,10.71,11.13,10.71,11.03,643678
18-Mar-08,10.15,10.55,10.00,10.54,544782
17-Mar-08,10.34,10.35,9.89,9.94,662796
14-Mar-08,11.23,11.23,10.27,10.52,314616
13-Mar-08,10.31,11.08,10.04,11.05,393416
12-Mar-08,10.68,10.75,10.08,10.48,457339
11-Mar-08,10.24,10.67,9.89,10.60,580691
10-Mar-08,10.97,11.00,9.77,9.95,843624
7-Mar-08,11.00,11.44,10.61,11.02,525543
6-Mar-08,11.52,11.64,11.03,11.10,405849
5-Mar-08,11.47,11.82,11.22,11.58,514638
4-Mar-08,10.87,11.43,10.50,11.39,743288
3-Mar-08,11.70,11.77,10.53,10.89,1227420
29-Feb-08,12.91,13.00,11.55,11.68,1469035
28-Feb-08,13.60,13.76,12.98,13.00,533732
27-Feb-08,14.10,14.11,13.57,13.67,397044
26-Feb-08,13.84,14.29,13.43,13.87,551744
25-Feb-08,13.73,13.96,13.25,13.57,539226
22-Feb-08,13.15,13.36,12.32,12.96,544529
21-Feb-08,13.52,13.55,13.01,13.08,232878
20-Feb-08,12.76,13.70,12.67,13.46,462348
19-Feb-08,13.11,13.16,12.57,12.76,572072
15-Feb-08,13.33,13.38,13.04,13.20,493537
14-Feb-08,13.50,13.65,13.21,13.44,431394
13-Feb-08,13.27,13.50,12.89,13.44,551684
12-Feb-08,12.80,13.25,12.80,12.95,697285
11-Feb-08,12.22,12.91,12.10,12.78,662404
8-Feb-08,12.34,12.64,11.94,12.00,520383
7-Feb-08,12.90,12.99,12.06,12.30,1070420
6-Feb-08,12.90,13.27,12.55,12.75,540703
5-Feb-08,13.68,13.68,12.65,12.78,816708
4-Feb-08,14.89,14.89,13.33,13.54,1599786
1-Feb-08,13.47,14.70,12.88,14.69,3436342
31-Jan-08,9.86,10.31,9.56,10.19,756258
30-Jan-08,10.46,10.48,9.95,10.02,531892
29-Jan-08,10.61,10.61,9.96,10.36,867382
28-Jan-08,10.00,10.63,9.66,10.44,614064
25-Jan-08,10.50,10.71,9.86,9.96,1043802
24-Jan-08,10.10,10.46,9.88,10.27,902295
23-Jan-08,9.17,10.03,8.28,10.00,1363848
22-Jan-08,9.06,9.20,8.54,9.08,503171
18-Jan-08,8.90,9.29,8.90,9.24,1080336
17-Jan-08,9.33,9.76,8.40,8.81,1199204
16-Jan-08,9.50,9.85,9.31,9.33,761388
15-Jan-08,10.62,10.74,9.22,9.70,1141049
14-Jan-08,11.19,11.28,10.75,10.78,693406
11-Jan-08,11.29,11.35,10.62,11.01,791736
10-Jan-08,11.05,11.68,11.05,11.34,1010115
9-Jan-08,11.49,11.70,11.13,11.18,1212982
8-Jan-08,11.19,12.06,10.80,11.51,1019152
7-Jan-08,11.02,11.43,10.29,11.20,1698062
4-Jan-08,12.45,12.69,11.05,11.16,2882943
3-Jan-08,14.29,14.29,12.37,12.68,1822343
2-Jan-08,15.00,15.27,14.03,14.13,1519782
31-Dec-07,14.01,15.02,13.94,14.84,804071
28-Dec-07,14.44,14.50,13.82,14.05,779868
27-Dec-07,14.49,14.55,14.02,14.11,525315
26-Dec-07,14.58,14.85,14.01,14.75,926679
24-Dec-07,14.69,14.89,14.37,14.57,492525
21-Dec-07,15.50,15.50,14.65,14.98,1281958
20-Dec-07,16.25,16.28,15.20,15.60,1007867
19-Dec-07,16.62,17.00,16.28,16.37,615422
18-Dec-07,17.00,17.08,16.60,16.79,620147
17-Dec-07,16.93,17.12,16.27,16.75,915411
14-Dec-07,17.15,17.40,16.81,16.95,677185
13-Dec-07,17.45,17.99,17.23,17.49,1519068
12-Dec-07,19.26,19.30,17.41,18.25,1485804
11-Dec-07,18.81,19.63,18.53,18.95,1129626
10-Dec-07,19.30,19.48,18.62,18.84,940939
7-Dec-07,19.50,19.64,18.98,19.33,839481
6-Dec-07,19.56,19.95,19.32,19.40,745530
5-Dec-07,19.49,20.04,19.23,19.80,1704524
4-Dec-07,19.91,20.28,19.00,19.72,4658002
3-Dec-07,21.70,22.49,21.18,22.36,562383
30-Nov-07,21.33,21.95,21.12,21.81,955987
29-Nov-07,20.33,21.55,19.84,21.47,383282
28-Nov-07,19.48,20.41,19.25,20.30,353467
27-Nov-07,19.98,19.98,18.93,19.01,324927
26-Nov-07,20.81,21.18,19.75,19.85,243892
23-Nov-07,20.50,21.07,20.32,20.69,107733
21-Nov-07,20.64,21.28,19.53,19.99,264469
20-Nov-07,21.00,21.50,20.52,20.80,401726
19-Nov-07,21.54,21.83,20.68,21.43,282505
16-Nov-07,20.50,21.62,20.18,21.60,234999
15-Nov-07,20.43,20.81,19.75,20.36,194654
14-Nov-07,21.21,21.44,20.15,20.40,178761
13-Nov-07,20.65,21.12,20.44,21.12,173443
12-Nov-07,20.57,21.19,19.80,20.54,252114
9-Nov-07,20.16,20.83,18.59,20.79,652199
8-Nov-07,22.44,22.44,20.43,20.45,414340
7-Nov-07,22.26,22.55,21.62,21.70,245067
6-Nov-07,21.79,22.67,21.17,22.55,702506
5-Nov-07,21.22,22.05,21.22,21.78,308703
2-Nov-07,22.25,22.45,21.25,21.76,633153
1-Nov-07,22.00,22.68,21.50,22.09,1120785
31-Oct-07,22.50,22.69,22.00,22.07,3974413
30-Oct-07,22.95,23.14,22.32,22.65,266369
29-Oct-07,23.28,23.28,22.32,23.14,476072
26-Oct-07,23.63,24.00,22.80,23.20,234403
25-Oct-07,24.00,24.46,22.62,23.29,309167
24-Oct-07,24.00,25.74,22.50,24.00,945102
23-Oct-07,26.22,27.12,25.66,26.66,891510
22-Oct-07,24.75,25.94,24.52,25.62,259032
19-Oct-07,25.06,25.50,24.61,24.95,348286
18-Oct-07,24.28,25.14,24.12,24.94,160092
17-Oct-07,24.69,25.42,23.66,24.28,333170
16-Oct-07,24.86,25.18,24.41,24.47,177971
15-Oct-07,24.20,26.00,24.20,24.70,388747
12-Oct-07,23.97,25.50,23.41,24.38,302549
11-Oct-07,25.03,25.29,22.94,23.97,297494
10-Oct-07,25.26,25.90,24.35,25.00,293484
9-Oct-07,26.09,26.64,24.56,25.08,279739
8-Oct-07,24.46,26.50,24.46,25.91,568575
5-Oct-07,23.28,25.55,23.28,24.46,864217
4-Oct-07,23.71,24.27,22.67,23.20,310892
3-Oct-07,22.39,25.00,22.26,23.47,738124
2-Oct-07,20.97,22.70,20.61,22.47,407352
1-Oct-07,20.20,21.13,20.20,20.85,297098
28-Sep-07,21.01,21.50,20.04,20.15,1542244
27-Sep-07,20.14,21.59,19.93,21.04,325575
26-Sep-07,19.05,20.25,18.90,19.86,193940
25-Sep-07,18.74,18.91,18.06,18.91,202381
24-Sep-07,18.76,19.30,17.99,18.30,165754
21-Sep-07,17.55,18.81,17.55,18.80,229416
20-Sep-07,17.03,17.69,17.03,17.51,118191
19-Sep-07,17.20,17.84,16.95,17.10,129468
18-Sep-07,17.14,17.44,16.93,17.05,143295
17-Sep-07,16.81,17.24,16.62,17.01,187011
14-Sep-07,17.26,17.38,16.61,16.69,173862
13-Sep-07,17.95,17.95,17.06,17.06,59046
12-Sep-07,18.12,18.12,17.50,17.60,103441
11-Sep-07,18.04,18.61,17.74,18.10,293452
10-Sep-07,17.99,18.43,17.51,17.75,182996
7-Sep-07,18.39,18.39,17.74,18.05,105963
6-Sep-07,18.95,19.43,18.15,18.50,338451
5-Sep-07,18.89,19.49,18.89,19.11,107542
4-Sep-07,19.00,19.25,18.59,19.14,178695
31-Aug-07,18.29,19.88,18.21,19.26,282113
30-Aug-07,17.67,18.29,17.34,18.18,340538
29-Aug-07,17.45,18.15,16.89,18.04,676582
28-Aug-07,17.50,17.71,17.00,17.16,96776
27-Aug-07,18.39,18.39,17.50,17.55,163113
24-Aug-07,17.58,18.50,17.41,18.24,156672
23-Aug-07,18.23,18.23,17.15,17.61,263267
22-Aug-07,18.12,18.12,17.26,17.90,211488
21-Aug-07,18.00,18.50,17.63,17.86,128781
20-Aug-07,18.00,18.35,17.66,18.00,340652
17-Aug-07,18.18,18.81,17.60,17.99,607827
16-Aug-07,17.53,17.95,16.52,17.22,578403
15-Aug-07,18.81,19.06,17.81,17.98,214559
14-Aug-07,19.46,19.89,18.63,18.94,94849
13-Aug-07,19.33,20.12,19.15,19.39,135016
10-Aug-07,21.71,21.71,18.75,19.83,765668
9-Aug-07,20.99,21.97,20.29,21.18,312777
8-Aug-07,20.01,21.38,20.01,20.90,254401
7-Aug-07,20.53,20.74,20.00,20.12,216863
6-Aug-07,20.07,20.46,19.71,20.30,138901
3-Aug-07,20.38,20.61,19.79,20.06,252982
2-Aug-07,20.62,21.34,19.60,20.27,576986
1-Aug-07,22.30,22.37,19.53,20.13,1101823
31-Jul-07,23.50,23.50,22.70,22.80,309372
30-Jul-07,22.70,23.55,22.54,23.06,337925
27-Jul-07,23.00,23.42,22.10,22.16,357244
26-Jul-07,23.85,23.85,22.78,23.45,184005
25-Jul-07,23.50,23.96,23.25,23.77,195124
24-Jul-07,23.38,24.10,22.98,23.30,262224
23-Jul-07,23.09,23.60,23.00,23.30,120450
20-Jul-07,22.91,23.20,22.11,23.20,212319
19-Jul-07,23.50,24.12,22.20,22.35,408821
18-Jul-07,23.18,23.53,22.26,23.29,329704
17-Jul-07,23.90,24.00,23.18,23.31,454384
16-Jul-07,25.03,25.40,23.55,23.80,394952
13-Jul-07,24.56,25.84,24.39,25.72,189106
12-Jul-07,25.00,25.43,23.41,24.90,473489
11-Jul-07,25.29,25.98,24.77,24.99,368409
10-Jul-07,24.12,25.75,23.97,25.00,397498
9-Jul-07,22.89,24.93,22.51,24.29,359469
6-Jul-07,22.23,23.30,22.15,23.05,362286
5-Jul-07,23.35,23.68,22.11,22.34,263257
3-Jul-07,24.00,24.05,22.76,23.33,263489
2-Jul-07,25.54,25.96,23.20,23.86,448471
29-Jun-07,26.90,26.90,24.54,24.92,555103
28-Jun-07,24.38,26.85,23.50,26.74,417527
27-Jun-07,24.12,24.42,23.53,23.90,239659
26-Jun-07,24.20,24.20,23.27,23.74,150364
25-Jun-07,24.85,24.85,23.72,23.75,176505
22-Jun-07,24.44,24.48,23.50,24.41,183891
21-Jun-07,23.97,24.45,23.08,24.04,389267
20-Jun-07,24.96,25.19,23.50,23.97,595261
19-Jun-07,26.60,26.95,24.20,24.61,707253
18-Jun-07,27.80,30.00,26.27,26.60,1730235
15-Jun-07,24.49,27.45,23.76,27.05,1415514
14-Jun-07,23.86,24.72,23.62,24.05,484560
13-Jun-07,24.02,24.98,23.51,23.94,1105312
12-Jun-07,24.97,25.85,23.88,24.06,1109339
11-Jun-07,27.17,27.90,24.64,24.96,1881930
8-Jun-07,21.50,26.41,21.39,25.16,4192163
7-Jun-07,16.00,21.24,16.00,19.70,11839958
