﻿Date,Open,High,Low,Close,Volume
20-Jun-17,13.48,13.48,13.24,13.26,1973571
19-Jun-17,13.69,13.77,13.47,13.51,2093893
16-Jun-17,13.76,13.80,13.53,13.63,4747102
15-Jun-17,13.80,13.93,13.71,13.85,1723736
14-Jun-17,13.77,13.90,13.62,13.90,1908847
13-Jun-17,13.93,14.04,13.86,13.90,1845627
12-Jun-17,13.98,14.16,13.73,13.88,2486099
9-Jun-17,13.76,13.98,13.70,13.93,3650350
8-Jun-17,13.34,13.79,13.30,13.65,1956900
7-Jun-17,13.36,13.45,13.28,13.34,1830225
6-Jun-17,13.23,13.36,13.18,13.30,1998843
5-Jun-17,13.38,13.52,13.29,13.34,1893973
2-Jun-17,13.32,13.52,13.22,13.39,1945546
1-Jun-17,13.28,13.50,13.16,13.47,2802303
31-May-17,13.30,13.32,13.07,13.23,2439131
30-May-17,13.33,13.40,13.16,13.25,2903934
26-May-17,13.31,13.50,13.25,13.42,2225957
25-May-17,13.26,13.39,13.19,13.34,1973933
24-May-17,13.29,13.35,13.12,13.19,1055948
23-May-17,13.24,13.33,13.12,13.25,1794554
22-May-17,13.15,13.25,13.04,13.19,2044428
19-May-17,13.26,13.30,13.09,13.11,2725256
18-May-17,13.19,13.37,13.14,13.20,2273131
17-May-17,13.34,13.40,13.17,13.24,4142720
16-May-17,13.72,13.76,13.49,13.62,1536604
15-May-17,13.69,13.81,13.62,13.71,2386432
12-May-17,13.50,13.68,13.41,13.65,3790917
11-May-17,13.78,13.81,13.50,13.57,2938017
10-May-17,13.78,13.95,13.69,13.83,3553053
9-May-17,13.73,13.89,13.60,13.81,6444112
8-May-17,13.42,13.67,13.33,13.64,5980227
5-May-17,13.57,13.60,13.45,13.45,2795146
4-May-17,13.69,13.76,13.52,13.54,1991645
3-May-17,13.55,13.66,13.50,13.61,2024362
2-May-17,13.83,13.83,13.51,13.64,2643710
1-May-17,13.88,13.95,13.73,13.78,2332771
28-Apr-17,14.51,14.82,13.85,13.85,3465703
27-Apr-17,14.76,14.76,14.49,14.53,1690298
26-Apr-17,14.60,14.85,14.59,14.69,1763590
25-Apr-17,14.75,14.78,14.62,14.62,1301617
24-Apr-17,14.73,14.82,14.59,14.61,1534783
21-Apr-17,14.38,14.46,14.09,14.41,1285274
20-Apr-17,14.22,14.40,14.14,14.39,1824672
19-Apr-17,14.09,14.25,13.85,14.13,1331909
18-Apr-17,13.75,14.49,13.75,14.08,1322481
17-Apr-17,13.87,14.10,13.82,14.10,1017283
13-Apr-17,13.96,14.14,13.83,13.83,3813121
12-Apr-17,14.27,14.34,14.08,14.09,2357479
11-Apr-17,14.13,14.32,14.09,14.31,1958035
10-Apr-17,14.31,14.36,14.09,14.19,1697336
7-Apr-17,14.12,14.27,14.06,14.27,2184815
6-Apr-17,14.06,14.32,13.98,14.26,1767538
5-Apr-17,14.42,14.50,14.06,14.07,2084012
4-Apr-17,14.20,14.38,14.20,14.32,1709627
3-Apr-17,14.37,14.40,14.12,14.29,2004448
31-Mar-17,14.32,14.48,13.85,14.38,3178754
30-Mar-17,13.86,14.37,13.83,14.35,4884074
29-Mar-17,13.94,14.05,13.84,13.85,3232013
28-Mar-17,13.72,14.03,13.72,13.99,1836336
27-Mar-17,13.58,13.81,13.43,13.79,1276974
24-Mar-17,13.87,13.94,13.75,13.82,1710193
23-Mar-17,13.66,13.90,13.56,13.78,2267105
22-Mar-17,13.39,13.71,13.39,13.68,3417186
21-Mar-17,14.45,14.46,13.74,13.76,3431198
20-Mar-17,14.56,14.59,14.33,14.34,1674873
17-Mar-17,14.38,14.59,14.30,14.59,3194663
16-Mar-17,14.42,14.53,14.38,14.45,1521018
15-Mar-17,14.56,14.61,14.35,14.36,1833337
14-Mar-17,14.44,14.54,14.32,14.50,1146610
13-Mar-17,14.16,14.60,14.16,14.53,1326000
10-Mar-17,14.65,14.65,14.40,14.50,1936989
9-Mar-17,14.57,14.72,14.57,14.60,1189715
8-Mar-17,14.84,14.86,14.56,14.56,1667503
7-Mar-17,14.65,14.80,14.56,14.71,2168629
6-Mar-17,14.71,14.74,14.59,14.68,1559080
3-Mar-17,14.65,14.80,14.56,14.78,1734306
2-Mar-17,15.04,15.04,14.62,14.62,1855138
1-Mar-17,14.75,15.11,14.75,15.01,2421910
28-Feb-17,14.83,14.84,14.56,14.63,2099495
27-Feb-17,14.74,14.89,14.72,14.86,2498489
24-Feb-17,14.72,14.81,14.66,14.75,1718363
23-Feb-17,14.90,14.99,14.78,14.92,1668881
22-Feb-17,14.90,14.95,14.83,14.91,1216718
21-Feb-17,14.92,14.95,14.85,14.95,1146376
17-Feb-17,14.87,14.91,14.74,14.90,1207428
16-Feb-17,14.86,14.89,14.78,14.87,1389299
15-Feb-17,14.85,14.89,14.74,14.86,1898228
14-Feb-17,14.65,14.82,14.53,14.80,1937769
13-Feb-17,14.61,14.76,14.49,14.62,2166675
10-Feb-17,14.31,14.49,14.31,14.48,1271445
9-Feb-17,14.31,14.42,14.27,14.37,1290378
8-Feb-17,14.20,14.28,14.08,14.24,1851559
7-Feb-17,14.38,14.45,14.28,14.33,2307938
6-Feb-17,14.41,14.50,14.31,14.31,1185023
3-Feb-17,14.37,14.48,14.33,14.46,1530830
2-Feb-17,14.17,14.30,14.04,14.18,2364684
1-Feb-17,14.48,14.61,14.02,14.25,2479230
31-Jan-17,14.23,14.41,14.18,14.35,3217898
30-Jan-17,14.38,14.48,14.14,14.31,6302405
27-Jan-17,14.30,14.93,14.29,14.46,8097053
26-Jan-17,14.14,14.15,13.99,14.10,3260716
25-Jan-17,14.10,14.19,13.98,14.10,4388210
24-Jan-17,13.81,14.08,13.77,14.01,1678883
23-Jan-17,13.79,13.87,13.70,13.78,1851290
20-Jan-17,13.77,13.92,13.77,13.82,1419723
19-Jan-17,13.88,13.98,13.69,13.77,2133185
18-Jan-17,13.80,13.85,13.61,13.84,1601539
17-Jan-17,14.01,14.01,13.69,13.70,1651378
13-Jan-17,14.04,14.28,14.02,14.12,1670470
12-Jan-17,14.15,14.15,13.84,13.95,1839367
11-Jan-17,14.05,14.21,13.95,14.21,1285537
10-Jan-17,13.97,14.10,13.91,14.06,1640750
9-Jan-17,14.07,14.09,13.90,13.95,1458495
6-Jan-17,14.16,14.26,14.13,14.15,1656594
5-Jan-17,14.26,14.28,14.02,14.12,1300204
4-Jan-17,14.02,14.32,14.02,14.30,2382258
3-Jan-17,14.15,14.22,13.92,14.02,1570104
30-Dec-16,13.65,13.99,13.65,13.95,1248344
29-Dec-16,14.01,14.07,13.84,13.92,1111042
28-Dec-16,14.14,14.14,13.94,13.99,688052
27-Dec-16,13.77,14.11,13.77,14.09,741904
23-Dec-16,14.10,14.14,14.00,14.05,729418
22-Dec-16,13.98,14.12,13.93,14.08,2192303
21-Dec-16,13.89,14.04,13.87,13.99,1855697
20-Dec-16,13.92,14.05,13.84,13.92,2565633
19-Dec-16,13.78,13.96,13.76,13.95,1645911
16-Dec-16,13.91,14.05,13.82,13.85,4133209
15-Dec-16,13.93,14.00,13.80,13.93,1905590
14-Dec-16,13.77,14.08,13.72,13.83,2751820
13-Dec-16,13.90,13.98,13.79,13.85,2665739
12-Dec-16,14.23,14.26,13.81,13.84,2745930
9-Dec-16,14.32,14.36,14.19,14.27,3271729
8-Dec-16,14.07,14.38,13.98,14.34,4291255
7-Dec-16,13.84,14.04,13.77,13.99,1955137
6-Dec-16,13.63,13.87,13.38,13.83,5148715
5-Dec-16,13.66,13.82,13.58,13.82,2388362
2-Dec-16,13.55,13.62,13.43,13.52,2720885
1-Dec-16,13.65,13.72,13.51,13.62,2464886
30-Nov-16,13.87,13.87,13.54,13.54,3071309
29-Nov-16,13.73,13.86,13.67,13.68,3159562
28-Nov-16,14.03,14.08,13.73,13.75,1599606
25-Nov-16,14.03,14.10,13.91,14.10,799823
23-Nov-16,14.00,14.05,13.93,13.98,1387660
22-Nov-16,13.86,13.97,13.82,13.96,1520360
21-Nov-16,13.86,13.86,13.37,13.83,3053904
18-Nov-16,13.76,13.85,13.71,13.79,1895122
17-Nov-16,13.60,13.75,13.54,13.73,2123401
16-Nov-16,13.74,13.92,13.57,13.63,3698350
15-Nov-16,13.68,13.98,13.54,13.88,11784922
14-Nov-16,13.74,14.12,13.62,13.77,4421337
11-Nov-16,13.29,13.63,13.22,13.61,3297603
10-Nov-16,13.15,13.42,13.02,13.30,4325359
9-Nov-16,12.50,12.98,12.45,12.90,3511561
8-Nov-16,12.36,12.40,12.27,12.33,1305111
7-Nov-16,12.33,12.44,12.30,12.44,1684605
4-Nov-16,12.22,12.37,12.12,12.15,1577502
3-Nov-16,12.11,12.21,12.05,12.17,1328301
2-Nov-16,12.26,12.26,12.05,12.10,1567700
1-Nov-16,12.30,12.34,12.11,12.27,2855547
31-Oct-16,12.26,12.31,12.18,12.26,2554981
28-Oct-16,12.50,12.55,12.16,12.27,5652103
27-Oct-16,12.21,12.30,12.17,12.28,2110725
26-Oct-16,12.03,12.19,12.03,12.18,1338944
25-Oct-16,12.05,12.09,11.99,12.08,1378604
24-Oct-16,12.02,12.08,12.00,12.05,1035214
21-Oct-16,11.83,11.98,11.83,11.95,1165800
20-Oct-16,11.95,12.04,11.90,11.93,1136933
19-Oct-16,11.84,12.01,11.83,11.99,1502195
18-Oct-16,11.84,11.87,11.72,11.81,1350066
17-Oct-16,11.77,11.81,11.58,11.70,2666661
14-Oct-16,11.89,11.96,11.75,11.78,2220341
13-Oct-16,11.89,11.89,11.61,11.78,6012968
12-Oct-16,11.92,12.02,11.91,11.95,993257
11-Oct-16,11.94,12.06,11.87,11.93,1529218
10-Oct-16,11.98,12.06,11.98,12.00,883168
7-Oct-16,11.92,12.00,11.84,11.92,1577736
6-Oct-16,12.00,12.05,11.81,11.94,2991838
5-Oct-16,11.98,12.10,11.97,12.03,3076972
4-Oct-16,11.88,11.96,11.83,11.92,1615726
3-Oct-16,11.93,11.98,11.84,11.85,1231200
30-Sep-16,11.85,12.04,11.81,12.01,2212114
29-Sep-16,12.01,12.04,11.78,11.82,1817775
28-Sep-16,11.96,12.00,11.84,11.99,1880117
27-Sep-16,11.77,11.91,11.76,11.90,1639552
26-Sep-16,11.94,12.03,11.82,11.82,1460339
23-Sep-16,12.05,12.16,12.04,12.05,1776711
22-Sep-16,12.02,12.11,11.94,12.10,2284166
21-Sep-16,11.87,12.00,11.77,11.98,3060305
20-Sep-16,11.90,11.91,11.78,11.85,1529101
19-Sep-16,11.92,11.99,11.76,11.86,1982217
16-Sep-16,11.90,11.90,11.75,11.86,7640281
15-Sep-16,11.81,11.94,11.77,11.90,2378039
14-Sep-16,12.02,12.02,11.83,11.86,4643022
13-Sep-16,11.97,12.04,11.85,12.00,3592122
12-Sep-16,12.04,12.10,11.89,12.10,3675457
9-Sep-16,12.00,12.14,12.00,12.07,3541057
8-Sep-16,11.98,12.10,11.96,12.05,2113502
7-Sep-16,11.90,12.03,11.90,12.00,2286176
6-Sep-16,12.21,12.21,11.93,11.96,2366461
2-Sep-16,12.08,12.24,12.05,12.18,2804662
1-Sep-16,12.25,12.30,12.05,12.10,3640659
31-Aug-16,12.24,12.30,12.14,12.25,2659524
30-Aug-16,11.99,12.26,11.99,12.24,2524128
29-Aug-16,11.97,12.04,11.97,12.00,2006823
26-Aug-16,11.90,11.97,11.85,11.95,2684452
25-Aug-16,11.82,11.89,11.82,11.87,3573219
24-Aug-16,11.83,11.88,11.77,11.87,4018969
23-Aug-16,11.74,11.81,11.71,11.80,1798655
22-Aug-16,11.67,11.74,11.60,11.73,1402944
19-Aug-16,11.67,11.73,11.60,11.67,3022299
18-Aug-16,11.53,11.63,11.44,11.63,3390436
17-Aug-16,11.29,11.54,11.23,11.52,5342314
16-Aug-16,11.30,11.31,11.24,11.29,2003876
15-Aug-16,11.26,11.32,11.24,11.31,2094707
12-Aug-16,11.14,11.33,11.10,11.29,3029204
11-Aug-16,11.18,11.24,11.15,11.20,1946361
10-Aug-16,11.24,11.27,11.11,11.18,1815783
9-Aug-16,11.31,11.36,11.23,11.26,2593311
8-Aug-16,11.43,11.43,11.30,11.33,2684563
5-Aug-16,11.23,11.38,11.15,11.35,2133706
4-Aug-16,11.23,11.28,11.10,11.11,1605440
3-Aug-16,11.18,11.27,11.18,11.22,2470287
2-Aug-16,11.23,11.31,11.16,11.17,1755522
1-Aug-16,11.36,11.46,11.26,11.27,2149886
29-Jul-16,11.41,11.48,11.34,11.36,2363788
28-Jul-16,11.31,11.42,11.14,11.41,2376060
27-Jul-16,11.41,11.42,11.29,11.37,1697265
26-Jul-16,11.41,11.46,11.36,11.38,1761648
25-Jul-16,11.43,11.44,11.35,11.41,1964451
22-Jul-16,11.36,11.50,11.34,11.46,1824621
21-Jul-16,11.45,11.51,11.32,11.32,2018454
20-Jul-16,11.48,11.51,11.41,11.45,2106051
19-Jul-16,11.48,11.56,11.42,11.49,1501008
18-Jul-16,11.56,11.62,11.48,11.49,1861178
15-Jul-16,11.57,11.67,11.50,11.54,4270706
14-Jul-16,11.51,11.54,11.39,11.50,3632027
13-Jul-16,11.35,11.42,11.29,11.35,2769090
12-Jul-16,11.28,11.41,11.26,11.35,2584273
11-Jul-16,11.19,11.24,11.17,11.21,2450211
8-Jul-16,11.12,11.21,11.10,11.12,3805845
7-Jul-16,10.96,11.06,10.91,11.01,3079964
6-Jul-16,10.75,11.00,10.71,10.92,3266448
5-Jul-16,10.88,10.88,10.74,10.81,1958612
1-Jul-16,11.08,11.08,10.88,10.96,3078140
30-Jun-16,10.98,11.09,10.87,11.08,2719578
29-Jun-16,10.98,11.00,10.87,10.96,2698497
28-Jun-16,10.81,10.90,10.69,10.83,3727589
27-Jun-16,11.08,11.16,10.67,10.71,5460190
24-Jun-16,11.33,11.53,11.22,11.25,7161609
23-Jun-16,11.65,11.88,11.65,11.87,2159775
22-Jun-16,11.57,11.67,11.54,11.56,2017466
21-Jun-16,11.53,11.60,11.46,11.55,1913939
20-Jun-16,11.49,11.66,11.48,11.50,2397332
17-Jun-16,11.34,11.42,11.29,11.34,4635592
16-Jun-16,11.40,11.44,11.30,11.36,2660742
15-Jun-16,11.47,11.69,11.47,11.50,2800309
14-Jun-16,11.56,11.63,11.44,11.46,2596635
13-Jun-16,11.56,11.71,11.52,11.57,3558757
10-Jun-16,11.64,11.71,11.60,11.64,2005355
9-Jun-16,11.82,11.82,11.73,11.78,2148127
8-Jun-16,11.77,11.92,11.76,11.90,2545188
7-Jun-16,11.94,11.94,11.79,11.79,2316756
6-Jun-16,11.83,11.99,11.83,11.95,3118554
3-Jun-16,11.90,11.90,11.59,11.82,3256339
2-Jun-16,11.97,12.00,11.90,11.98,1781988
1-Jun-16,11.92,12.05,11.85,12.00,2465049
31-May-16,12.01,12.03,11.90,11.97,2741934
27-May-16,11.96,12.00,11.90,12.00,2140570
26-May-16,11.90,11.96,11.75,11.92,2418449
25-May-16,11.88,11.93,11.80,11.92,3550834
24-May-16,11.70,11.85,11.66,11.83,3269715
23-May-16,11.68,11.74,11.61,11.62,1862807
20-May-16,11.62,11.74,11.61,11.71,1693534
19-May-16,11.72,11.78,11.47,11.60,3108541
18-May-16,11.37,11.76,11.36,11.75,2705835
17-May-16,11.60,11.66,11.38,11.42,2521446
16-May-16,11.54,11.69,11.51,11.63,1744715
13-May-16,11.55,11.68,11.46,11.52,2507057
12-May-16,11.64,11.71,11.50,11.61,2410945
11-May-16,11.62,11.74,11.58,11.58,2142521
10-May-16,11.50,11.66,11.50,11.63,1503166
9-May-16,11.45,11.54,11.42,11.47,1930838
6-May-16,11.28,11.49,11.28,11.47,2441148
5-May-16,11.56,11.59,11.43,11.44,2937447
4-May-16,11.45,11.58,11.30,11.46,3343653
3-May-16,11.44,11.53,11.34,11.43,2380187
2-May-16,11.62,11.64,11.53,11.58,2808404
29-Apr-16,11.60,11.74,11.48,11.55,4802302
28-Apr-16,11.79,11.79,11.67,11.71,4134195
27-Apr-16,11.80,11.87,11.72,11.83,3255449
26-Apr-16,11.77,11.88,11.70,11.84,4746720
25-Apr-16,11.66,11.75,11.57,11.74,3238070
22-Apr-16,11.53,11.74,11.47,11.70,4321853
21-Apr-16,11.67,11.69,11.51,11.53,3094939
20-Apr-16,11.64,11.72,11.60,11.65,3681171
19-Apr-16,11.64,11.67,11.52,11.65,3229642
18-Apr-16,11.58,11.68,11.53,11.62,3134385
15-Apr-16,11.67,11.77,11.60,11.61,2946793
14-Apr-16,11.57,11.84,11.51,11.72,4461224
13-Apr-16,11.43,11.59,11.41,11.58,5818223
12-Apr-16,11.33,11.48,11.30,11.40,3500245
11-Apr-16,11.24,11.43,11.24,11.32,3062658
8-Apr-16,11.29,11.38,11.17,11.19,3417946
7-Apr-16,11.42,11.44,11.13,11.19,2321942
6-Apr-16,11.35,11.53,11.28,11.48,4224274
5-Apr-16,11.45,11.53,11.35,11.36,3771578
4-Apr-16,11.61,11.65,11.52,11.56,2185431
1-Apr-16,11.55,11.68,11.49,11.62,3258708
31-Mar-16,11.58,11.72,11.53,11.64,5580127
30-Mar-16,11.54,11.69,11.49,11.61,3532756
29-Mar-16,11.29,11.50,11.20,11.49,4534965
28-Mar-16,11.44,11.44,11.26,11.31,2578792
24-Mar-16,11.25,11.42,11.19,11.38,3953186
23-Mar-16,11.44,11.46,11.30,11.30,2184620
22-Mar-16,11.36,11.53,11.33,11.47,2407414
21-Mar-16,11.41,11.51,11.38,11.45,2089494
18-Mar-16,11.20,11.58,11.20,11.46,6111540
17-Mar-16,11.28,11.42,11.15,11.37,10353349
16-Mar-16,11.45,11.57,11.23,11.27,5838066
15-Mar-16,11.44,11.51,11.35,11.46,6051512
14-Mar-16,11.72,11.74,11.49,11.50,2801067
11-Mar-16,11.55,11.72,11.46,11.72,3673841
10-Mar-16,11.42,11.54,11.38,11.43,4801449
9-Mar-16,11.71,11.74,11.37,11.38,4521151
8-Mar-16,11.70,11.77,11.60,11.67,2157153
7-Mar-16,11.80,11.90,11.59,11.79,1837512
4-Mar-16,11.83,11.93,11.78,11.88,2601400
3-Mar-16,11.77,11.80,11.65,11.80,3657062
2-Mar-16,11.63,11.79,11.51,11.77,2738375
1-Mar-16,11.40,11.68,11.37,11.61,3766594
29-Feb-16,11.59,11.61,11.31,11.32,4671894
26-Feb-16,11.74,11.74,11.58,11.62,2673541
25-Feb-16,11.50,11.68,11.48,11.64,2245983
24-Feb-16,11.20,11.49,11.11,11.47,3879012
23-Feb-16,11.61,11.61,11.30,11.34,3794645
22-Feb-16,11.52,11.68,11.52,11.64,3060096
19-Feb-16,11.35,11.50,11.22,11.43,2565336
18-Feb-16,11.44,11.52,11.29,11.38,2033436
17-Feb-16,11.62,11.67,11.40,11.43,2920395
16-Feb-16,11.49,11.58,11.38,11.54,2668359
12-Feb-16,11.09,11.37,10.92,11.36,3335843
11-Feb-16,10.97,11.08,10.77,10.95,5292240
10-Feb-16,11.42,11.55,11.19,11.20,2528869
9-Feb-16,11.19,11.38,11.15,11.32,3262845
8-Feb-16,11.29,11.39,11.19,11.31,4797165
5-Feb-16,11.64,11.80,11.46,11.48,4729138
4-Feb-16,11.50,11.71,11.43,11.64,4034202
3-Feb-16,11.44,11.59,11.27,11.51,6637303
2-Feb-16,11.51,11.63,11.32,11.35,5510765
1-Feb-16,11.65,11.79,11.56,11.66,5132100
29-Jan-16,11.06,11.69,11.05,11.69,8503513
28-Jan-16,11.85,11.98,11.75,11.81,5240764
27-Jan-16,11.48,11.82,11.46,11.74,5051567
26-Jan-16,11.24,11.54,11.24,11.52,2482710
25-Jan-16,11.39,11.50,11.17,11.18,2081405
22-Jan-16,11.40,11.54,11.26,11.47,2570972
21-Jan-16,11.43,11.52,11.12,11.27,3438571
20-Jan-16,11.22,11.51,11.11,11.41,3276837
19-Jan-16,11.51,11.58,11.14,11.37,2827667
15-Jan-16,11.21,11.42,11.14,11.40,4364974
14-Jan-16,11.36,11.65,11.29,11.56,3624694
13-Jan-16,11.69,11.73,11.30,11.33,3836292
12-Jan-16,11.70,11.71,11.53,11.68,3154797
11-Jan-16,11.59,11.67,11.50,11.60,2316842
8-Jan-16,11.84,11.85,11.53,11.55,3895688
7-Jan-16,11.82,11.98,11.74,11.75,2263917
6-Jan-16,11.96,12.08,11.91,12.00,2855341
5-Jan-16,12.12,12.26,12.10,12.15,2740452
4-Jan-16,12.25,12.37,12.02,12.09,3608343
31-Dec-15,12.55,12.61,12.44,12.44,2211257
30-Dec-15,12.70,12.75,12.56,12.57,1565296
29-Dec-15,12.60,12.72,12.56,12.72,1591173
28-Dec-15,12.46,12.56,12.41,12.55,1371963
24-Dec-15,12.72,12.72,12.44,12.53,1084193
23-Dec-15,12.41,12.51,12.37,12.47,1692801
22-Dec-15,12.38,12.62,12.21,12.37,1663623
21-Dec-15,12.61,12.61,12.17,12.34,1830730
18-Dec-15,12.46,12.48,12.25,12.27,4926919
17-Dec-15,12.76,12.76,12.50,12.51,2440712
16-Dec-15,12.69,12.79,12.51,12.71,3099039
15-Dec-15,12.50,12.65,12.34,12.61,3050922
14-Dec-15,12.40,12.46,12.24,12.34,2609971
11-Dec-15,12.27,12.46,12.27,12.38,3236963
10-Dec-15,12.39,12.58,12.34,12.48,2343638
9-Dec-15,12.52,12.69,12.35,12.40,3340716
8-Dec-15,12.53,12.66,12.49,12.58,1966109
7-Dec-15,12.92,12.93,12.61,12.64,3142138
4-Dec-15,12.65,12.94,12.63,12.91,2396372
3-Dec-15,12.78,12.86,12.61,12.63,2673723
2-Dec-15,12.89,12.90,12.71,12.73,2078375
1-Dec-15,12.89,12.92,12.75,12.89,3613062
30-Nov-15,12.85,12.88,12.76,12.82,2060226
27-Nov-15,12.81,12.84,12.75,12.84,1232060
25-Nov-15,12.80,12.85,12.74,12.81,2123623
24-Nov-15,12.63,12.78,12.62,12.76,2355440
23-Nov-15,12.63,12.76,12.63,12.72,1917394
20-Nov-15,12.58,12.71,12.58,12.67,1757724
19-Nov-15,12.48,12.60,12.47,12.56,1974717
18-Nov-15,12.47,12.52,12.31,12.51,1696520
17-Nov-15,12.38,12.47,12.28,12.39,2728881
16-Nov-15,12.29,12.40,12.23,12.40,5105332
13-Nov-15,12.33,12.43,12.30,12.34,1933009
12-Nov-15,12.67,12.70,12.41,12.42,1551284
11-Nov-15,12.80,12.86,12.69,12.71,2750757
10-Nov-15,12.78,12.85,12.70,12.78,2223669
9-Nov-15,13.13,13.13,12.75,12.81,2441183
6-Nov-15,12.78,12.87,12.66,12.86,3719810
5-Nov-15,12.73,12.99,12.50,12.73,4046634
4-Nov-15,12.76,12.78,12.65,12.70,1549876
3-Nov-15,12.75,12.77,12.62,12.70,1820430
2-Nov-15,12.49,12.77,12.37,12.75,2924999
30-Oct-15,12.49,12.82,12.37,12.51,3936658
29-Oct-15,12.97,13.03,12.80,12.88,2847816
28-Oct-15,12.74,13.04,12.69,13.04,3390603
27-Oct-15,12.64,12.77,12.58,12.66,1926627
26-Oct-15,12.79,12.80,12.65,12.70,4277604
23-Oct-15,12.72,12.81,12.64,12.77,3191355
22-Oct-15,12.53,12.74,12.53,12.66,3564093
21-Oct-15,12.67,12.71,12.48,12.49,2673725
20-Oct-15,12.58,12.70,12.55,12.66,2239889
19-Oct-15,12.51,12.64,12.50,12.58,1856013
16-Oct-15,12.48,12.63,12.47,12.59,1877689
15-Oct-15,12.27,12.48,12.15,12.48,2196167
14-Oct-15,12.51,12.51,12.18,12.20,1956747
13-Oct-15,12.52,12.70,12.50,12.52,1675871
12-Oct-15,12.41,12.62,12.38,12.61,1756476
9-Oct-15,12.57,12.61,12.42,12.44,1704102
8-Oct-15,12.55,12.59,12.44,12.57,1606162
7-Oct-15,12.47,12.52,12.36,12.52,2408759
6-Oct-15,12.39,12.42,12.26,12.34,1836929
5-Oct-15,12.26,12.42,12.25,12.38,2933470
2-Oct-15,12.22,12.25,11.99,12.19,3117984
1-Oct-15,12.38,12.42,12.23,12.34,2495192
30-Sep-15,12.30,12.38,12.26,12.34,3702397
29-Sep-15,12.27,12.38,12.16,12.23,4414523
28-Sep-15,12.31,12.37,12.22,12.23,3341751
25-Sep-15,12.47,12.53,12.26,12.31,2871941
24-Sep-15,12.08,12.38,12.05,12.36,3553495
23-Sep-15,12.08,12.24,12.08,12.17,1589141
22-Sep-15,12.02,12.17,12.02,12.08,3961535
21-Sep-15,12.04,12.20,12.00,12.13,2375554
18-Sep-15,11.90,12.05,11.90,11.96,4211046
17-Sep-15,12.22,12.34,12.05,12.08,2888094
16-Sep-15,12.25,12.29,12.17,12.24,1637444
15-Sep-15,12.18,12.28,12.16,12.25,1791514
14-Sep-15,12.09,12.24,12.02,12.19,3043293
11-Sep-15,11.96,12.07,11.95,12.05,1468153
10-Sep-15,11.90,12.07,11.87,12.03,1916340
9-Sep-15,12.08,12.12,11.90,11.91,2690670
8-Sep-15,11.87,12.00,11.80,12.00,1866345
4-Sep-15,11.81,11.81,11.60,11.70,2168435
3-Sep-15,11.59,11.77,11.51,11.74,2751317
2-Sep-15,11.51,11.59,11.42,11.58,3485238
1-Sep-15,11.65,11.68,11.36,11.41,3181629
31-Aug-15,11.68,11.80,11.66,11.78,1930145
28-Aug-15,11.72,11.81,11.66,11.75,1784645
27-Aug-15,11.61,11.85,11.56,11.75,4009592
26-Aug-15,11.51,11.58,11.27,11.57,3615726
25-Aug-15,11.74,11.74,11.29,11.30,3763393
24-Aug-15,11.51,11.70,11.39,11.43,5762790
21-Aug-15,11.84,12.00,11.84,11.87,3492026
20-Aug-15,12.13,12.27,11.95,11.95,3041228
19-Aug-15,12.28,12.34,12.16,12.21,1793309
18-Aug-15,12.40,12.42,12.24,12.30,2695831
17-Aug-15,12.25,12.45,12.19,12.40,2310543
14-Aug-15,12.10,12.28,12.10,12.28,3124983
13-Aug-15,12.12,12.23,12.08,12.16,2242091
12-Aug-15,12.14,12.19,11.98,12.08,2303369
11-Aug-15,12.20,12.29,12.12,12.20,3651669
10-Aug-15,12.30,12.51,12.21,12.31,2377513
7-Aug-15,12.21,12.29,12.16,12.24,1881314
6-Aug-15,12.38,12.44,12.23,12.27,2823295
5-Aug-15,12.39,12.52,12.32,12.39,2876887
4-Aug-15,12.38,12.50,12.33,12.36,1924075
3-Aug-15,12.19,12.39,12.16,12.35,3732612
31-Jul-15,12.27,12.35,12.10,12.18,4355288
30-Jul-15,12.17,12.29,12.16,12.29,1714789
29-Jul-15,12.23,12.28,12.16,12.20,2109590
28-Jul-15,12.25,12.30,12.15,12.22,2647826
27-Jul-15,12.15,12.21,12.04,12.18,1990642
24-Jul-15,12.31,12.34,12.16,12.20,2239486
23-Jul-15,12.50,12.57,12.30,12.30,3053233
22-Jul-15,12.34,12.56,12.34,12.51,2336929
21-Jul-15,12.42,12.59,12.34,12.39,2939567
20-Jul-15,12.39,12.47,12.36,12.44,1613415
17-Jul-15,12.53,12.53,12.31,12.39,1879533
16-Jul-15,12.51,12.55,12.47,12.50,2022655
15-Jul-15,12.43,12.52,12.33,12.47,2330613
14-Jul-15,12.36,12.46,12.32,12.44,2251535
13-Jul-15,12.40,12.42,12.30,12.40,2970145
10-Jul-15,12.34,12.39,12.24,12.33,3297770
9-Jul-15,12.21,12.32,12.20,12.25,2838645
8-Jul-15,12.16,12.20,12.08,12.15,2351819
7-Jul-15,12.36,12.45,12.13,12.21,3955594
6-Jul-15,12.18,12.34,12.11,12.31,2374968
2-Jul-15,12.44,12.44,12.24,12.29,1928636
1-Jul-15,12.39,12.47,12.32,12.43,2912370
30-Jun-15,12.38,12.47,12.23,12.30,3018868
29-Jun-15,12.49,12.53,12.26,12.26,3214248
26-Jun-15,12.56,12.60,12.46,12.56,7493352
25-Jun-15,12.50,12.56,12.45,12.51,5149188
24-Jun-15,12.51,12.55,12.44,12.44,3175068
23-Jun-15,12.49,12.60,12.47,12.54,4205758
22-Jun-15,12.43,12.50,12.41,12.45,3620235
19-Jun-15,12.45,12.46,12.37,12.40,4853804
18-Jun-15,12.43,12.50,12.32,12.44,3331740
17-Jun-15,12.65,12.65,12.34,12.36,4156820
16-Jun-15,12.59,12.65,12.55,12.62,2984728
15-Jun-15,12.70,12.70,12.40,12.58,3215932
12-Jun-15,12.48,12.53,12.41,12.53,2283923
11-Jun-15,12.57,12.72,12.46,12.50,2651802
10-Jun-15,12.30,12.48,12.29,12.43,3063552
9-Jun-15,12.25,12.31,12.17,12.27,4303504
8-Jun-15,12.19,12.25,12.11,12.22,3106479
5-Jun-15,12.15,12.22,12.06,12.19,3719362
4-Jun-15,12.08,12.16,12.04,12.08,2732613
3-Jun-15,12.08,12.14,12.04,12.11,3962465
2-Jun-15,11.97,12.08,11.95,12.02,3380325
1-Jun-15,12.03,12.08,11.91,11.99,2979902
29-May-15,11.99,12.06,11.95,12.01,3450550
28-May-15,12.11,12.12,11.98,12.03,2361807
27-May-15,11.99,12.14,11.92,12.12,2708554
26-May-15,12.23,12.23,11.87,11.96,4114056
22-May-15,12.17,12.19,12.02,12.02,2687946
21-May-15,12.21,12.25,12.12,12.17,2151090
20-May-15,12.24,12.24,12.11,12.20,2325542
19-May-15,12.18,12.24,12.13,12.21,3148468
18-May-15,12.03,12.19,12.00,12.15,2394105
15-May-15,12.15,12.15,11.96,12.03,2171438
14-May-15,12.14,12.17,12.08,12.15,2309031
13-May-15,12.02,12.14,11.96,12.09,4847300
12-May-15,11.91,12.04,11.89,12.01,2904982
11-May-15,11.95,12.02,11.85,11.98,2449662
8-May-15,11.96,11.98,11.87,11.97,2414087
7-May-15,11.90,11.95,11.82,11.88,2368623
6-May-15,11.91,11.97,11.79,11.95,2868392
5-May-15,11.92,12.01,11.79,11.87,4282761
4-May-15,11.90,12.05,11.88,11.98,3289219
1-May-15,11.96,12.00,11.68,11.85,3594862
30-Apr-15,11.90,11.99,11.82,11.84,2838739
29-Apr-15,11.90,12.05,11.85,11.94,3523955
28-Apr-15,11.86,12.01,11.82,11.96,2586499
27-Apr-15,11.97,12.06,11.83,11.85,3310206
24-Apr-15,12.02,12.03,11.87,11.95,1506176
23-Apr-15,11.98,12.02,11.92,12.00,1738909
22-Apr-15,11.95,12.04,11.81,12.00,3184785
21-Apr-15,11.95,12.00,11.88,11.97,1817204
20-Apr-15,11.84,11.97,11.78,11.94,1584821
17-Apr-15,11.89,11.95,11.75,11.76,1632724
16-Apr-15,11.91,11.99,11.84,11.95,1636297
15-Apr-15,11.84,11.97,11.80,11.94,2080869
14-Apr-15,11.89,11.90,11.76,11.83,1823920
13-Apr-15,11.72,11.94,11.70,11.89,4056719
10-Apr-15,11.78,11.78,11.66,11.73,1541076
9-Apr-15,11.73,11.74,11.64,11.72,1340975
8-Apr-15,11.71,11.77,11.66,11.71,1456602
7-Apr-15,11.69,11.78,11.64,11.67,2675006
6-Apr-15,11.69,11.81,11.63,11.72,2242697
2-Apr-15,11.70,11.81,11.70,11.75,2394470
1-Apr-15,11.72,11.76,11.55,11.70,4077234
31-Mar-15,11.81,11.82,11.68,11.72,2420460
30-Mar-15,11.67,11.87,11.64,11.83,4704264
27-Mar-15,11.63,11.68,11.58,11.64,2455258
26-Mar-15,11.62,11.70,11.55,11.66,3995022
25-Mar-15,11.84,11.85,11.65,11.66,2180734
24-Mar-15,11.82,11.91,11.80,11.85,3127370
23-Mar-15,11.81,11.86,11.75,11.82,1771871
20-Mar-15,11.76,11.88,11.63,11.80,5020492
19-Mar-15,11.56,11.75,11.52,11.72,3736725
18-Mar-15,11.76,11.90,11.56,11.60,3804480
17-Mar-15,11.83,11.98,11.65,11.76,5598867
16-Mar-15,11.52,11.65,11.47,11.59,1077527
13-Mar-15,11.60,11.60,11.41,11.49,1349533
12-Mar-15,11.38,11.58,11.30,11.58,2465804
11-Mar-15,11.27,11.33,11.24,11.32,1718655
10-Mar-15,11.31,11.36,11.26,11.29,1401883
9-Mar-15,11.39,11.50,11.34,11.38,2950700
6-Mar-15,11.45,11.63,11.35,11.36,4323556
5-Mar-15,11.51,11.59,11.40,11.57,1513033
4-Mar-15,11.56,11.59,11.46,11.48,1844399
3-Mar-15,11.55,11.60,11.53,11.58,1015701
2-Mar-15,11.49,11.63,11.45,11.59,2078203
27-Feb-15,11.52,11.60,11.48,11.48,1626192
26-Feb-15,11.51,11.58,11.47,11.54,2483136
25-Feb-15,11.58,11.59,11.49,11.53,1849600
24-Feb-15,11.67,11.69,11.53,11.56,2597142
23-Feb-15,11.65,11.65,11.54,11.64,762294
20-Feb-15,11.66,11.68,11.51,11.68,1640531
19-Feb-15,11.56,11.67,11.54,11.63,1169657
18-Feb-15,11.64,11.70,11.57,11.61,1300404
17-Feb-15,11.72,11.73,11.64,11.69,1110547
13-Feb-15,11.67,11.71,11.59,11.70,1256236
12-Feb-15,11.50,11.64,11.46,11.63,1359318
11-Feb-15,11.44,11.49,11.35,11.46,1365585
10-Feb-15,11.51,11.51,11.37,11.46,1035129
9-Feb-15,11.54,11.56,11.40,11.42,1502164
6-Feb-15,11.57,11.74,11.53,11.57,3889151
5-Feb-15,11.60,11.67,11.48,11.54,4343208
4-Feb-15,11.53,11.65,11.51,11.60,3918799
3-Feb-15,11.30,11.62,11.29,11.58,5865207
2-Feb-15,11.06,11.30,11.03,11.27,2805293
30-Jan-15,10.79,11.15,10.79,11.01,3535071
29-Jan-15,10.79,10.90,10.75,10.90,2510556
28-Jan-15,10.90,10.95,10.76,10.77,4044699
27-Jan-15,10.90,10.98,10.83,10.86,1433054
26-Jan-15,10.96,11.06,10.88,10.99,1638685
23-Jan-15,11.11,11.12,10.99,10.99,1667409
22-Jan-15,10.81,11.12,10.78,11.10,1952833
21-Jan-15,10.71,10.83,10.70,10.73,1664677
20-Jan-15,10.83,10.85,10.71,10.75,1534095
16-Jan-15,10.70,10.81,10.70,10.81,1462699
15-Jan-15,10.81,10.82,10.70,10.72,2765940
14-Jan-15,10.76,10.85,10.73,10.79,3285301
13-Jan-15,10.88,10.99,10.79,10.84,2303007
12-Jan-15,10.79,10.88,10.76,10.82,2271955
9-Jan-15,10.99,11.03,10.80,10.81,1749288
8-Jan-15,10.82,11.00,10.82,10.96,1673342
7-Jan-15,10.86,10.86,10.76,10.80,2868801
6-Jan-15,10.97,10.97,10.74,10.78,5840003
5-Jan-15,11.01,11.08,10.90,10.98,3448842
2-Jan-15,11.25,11.29,10.96,11.04,2117138
31-Dec-14,11.32,11.34,11.21,11.22,1775404
30-Dec-14,11.29,11.36,11.20,11.31,1829466
29-Dec-14,11.19,11.28,11.14,11.28,2048806
26-Dec-14,11.20,11.22,11.15,11.17,1016032
24-Dec-14,11.12,11.16,11.04,11.14,914312
23-Dec-14,11.07,11.15,11.03,11.10,1617322
22-Dec-14,11.01,11.07,10.97,11.06,1501040
19-Dec-14,11.02,11.11,10.88,11.02,5591320
18-Dec-14,11.08,11.12,10.88,11.05,2917494
17-Dec-14,10.84,11.05,10.77,11.01,3814729
16-Dec-14,10.85,10.94,10.80,10.83,3556284
15-Dec-14,10.93,10.97,10.80,10.86,5274943
12-Dec-14,10.87,11.04,10.87,10.87,2764413
11-Dec-14,11.02,11.10,10.94,10.97,2006926
10-Dec-14,11.14,11.20,10.95,11.00,3647782
9-Dec-14,11.02,11.19,10.94,11.17,2227982
8-Dec-14,11.09,11.15,10.99,11.12,3328960
5-Dec-14,10.99,11.12,10.99,11.10,2465481
4-Dec-14,10.86,11.01,10.84,10.99,2953128
3-Dec-14,10.86,10.91,10.79,10.89,1710594
2-Dec-14,10.76,10.91,10.75,10.87,1718561
1-Dec-14,10.80,10.84,10.74,10.76,3150490
28-Nov-14,10.90,10.90,10.79,10.81,1282371
26-Nov-14,10.83,10.90,10.77,10.89,2092475
25-Nov-14,10.75,10.83,10.73,10.82,2979663
24-Nov-14,10.72,10.80,10.65,10.72,1995422
21-Nov-14,10.84,10.84,10.67,10.70,1402110
20-Nov-14,10.63,10.76,10.63,10.75,1048241
19-Nov-14,10.75,10.77,10.60,10.70,1444876
18-Nov-14,10.76,10.82,10.71,10.77,1789762
17-Nov-14,10.76,10.78,10.68,10.73,1254881
14-Nov-14,10.77,10.84,10.74,10.77,1211067
13-Nov-14,10.87,10.89,10.77,10.78,2062679
12-Nov-14,10.75,10.89,10.74,10.87,2009097
11-Nov-14,10.78,10.84,10.74,10.76,2508310
10-Nov-14,10.78,10.84,10.73,10.80,2815974
7-Nov-14,10.75,10.80,10.73,10.76,2294666
6-Nov-14,10.69,10.75,10.45,10.74,2259280
5-Nov-14,10.74,10.81,10.67,10.73,1847523
4-Nov-14,10.69,10.72,10.59,10.69,2752315
3-Nov-14,10.75,10.88,10.68,10.73,3611668
31-Oct-14,10.56,10.75,10.35,10.75,6400187
30-Oct-14,10.30,10.41,10.25,10.32,2786093
29-Oct-14,10.28,10.33,10.19,10.31,3998603
28-Oct-14,10.22,10.33,10.19,10.30,3496994
27-Oct-14,10.14,10.17,10.06,10.17,2268886
24-Oct-14,10.13,10.22,10.03,10.16,2517067
23-Oct-14,10.15,10.21,10.08,10.10,4872250
22-Oct-14,10.03,10.15,10.00,10.05,3650308
21-Oct-14,10.00,10.15,9.96,10.04,5077802
20-Oct-14,9.85,9.96,9.84,9.95,3263211
17-Oct-14,10.15,10.15,9.84,9.86,5296844
16-Oct-14,9.86,10.08,9.80,10.04,8814829
15-Oct-14,10.00,10.03,9.83,9.99,6097078
14-Oct-14,10.08,10.24,10.03,10.09,5860283
13-Oct-14,9.97,10.15,9.95,10.03,3505712
10-Oct-14,9.95,10.10,9.95,9.95,2824915
9-Oct-14,10.15,10.16,9.97,10.00,4044605
8-Oct-14,10.01,10.20,9.96,10.16,4247381
7-Oct-14,10.05,10.09,10.01,10.01,3252065
6-Oct-14,10.16,10.16,10.04,10.06,2034541
3-Oct-14,10.19,10.24,10.10,10.15,2335401
2-Oct-14,10.03,10.14,10.00,10.09,2864921
1-Oct-14,10.12,10.15,10.01,10.03,4853476
30-Sep-14,10.15,10.27,10.12,10.13,5187120
29-Sep-14,10.09,10.13,10.00,10.12,3062647
26-Sep-14,10.10,10.14,10.05,10.12,2650930
25-Sep-14,10.24,10.25,10.08,10.10,2957994
24-Sep-14,10.21,10.28,10.13,10.26,3492627
23-Sep-14,10.37,10.39,10.22,10.22,4531108
22-Sep-14,10.41,10.46,10.34,10.35,2561894
19-Sep-14,10.45,10.53,10.38,10.46,6531317
18-Sep-14,10.45,10.50,10.40,10.44,2753297
17-Sep-14,10.43,10.48,10.40,10.43,2446952
16-Sep-14,10.46,10.52,10.41,10.41,1703585
15-Sep-14,10.52,10.54,10.45,10.47,1414731
12-Sep-14,10.58,10.62,10.48,10.53,3666767
11-Sep-14,10.52,10.59,10.49,10.57,1807844
10-Sep-14,10.50,10.58,10.46,10.56,3141195
9-Sep-14,10.63,10.63,10.49,10.50,2344649
8-Sep-14,10.59,10.67,10.51,10.65,1742920
5-Sep-14,10.52,10.61,10.50,10.61,1595954
4-Sep-14,10.63,10.71,10.53,10.57,1356128
3-Sep-14,10.69,10.70,10.57,10.63,1516855
2-Sep-14,10.67,10.72,10.58,10.68,2251079
29-Aug-14,10.56,10.64,10.53,10.61,1431206
28-Aug-14,10.62,10.64,10.55,10.56,1913387
27-Aug-14,10.76,10.80,10.62,10.63,1678760
26-Aug-14,10.70,10.80,10.64,10.77,2389451
25-Aug-14,10.70,10.73,10.64,10.69,1536911
22-Aug-14,10.64,10.70,10.60,10.65,1406127
21-Aug-14,10.51,10.67,10.50,10.65,1861192
20-Aug-14,10.46,10.54,10.45,10.50,2256005
19-Aug-14,10.45,10.50,10.45,10.50,1262859
18-Aug-14,10.39,10.46,10.36,10.44,2876305
15-Aug-14,10.31,10.44,10.31,10.37,2716601
14-Aug-14,10.36,10.38,10.34,10.37,2543322
13-Aug-14,10.36,10.38,10.34,10.37,4090818
12-Aug-14,10.35,10.38,10.33,10.36,2451828
11-Aug-14,10.40,10.43,10.34,10.37,3237420
8-Aug-14,10.32,10.41,10.32,10.38,2182064
7-Aug-14,10.47,10.49,10.30,10.33,1579178
6-Aug-14,10.35,10.45,10.29,10.43,2618760
5-Aug-14,10.32,10.45,10.29,10.34,2489245
4-Aug-14,10.40,10.46,10.29,10.36,2014315
1-Aug-14,10.38,10.42,10.20,10.36,4067969
31-Jul-14,10.46,10.51,10.32,10.33,4629490
30-Jul-14,10.58,10.62,10.48,10.56,2832636
29-Jul-14,10.57,10.62,10.51,10.56,3227703
28-Jul-14,10.72,10.75,10.56,10.57,2777557
25-Jul-14,10.69,10.79,10.62,10.72,4445680
24-Jul-14,10.72,10.76,10.68,10.75,3143536
23-Jul-14,10.64,10.72,10.61,10.72,2090059
22-Jul-14,10.74,10.78,10.60,10.66,1897643
21-Jul-14,10.72,10.77,10.65,10.72,1871649
18-Jul-14,10.51,10.77,10.50,10.77,4193204
17-Jul-14,10.66,10.66,10.52,10.53,2931594
16-Jul-14,10.86,10.86,10.70,10.70,2575964
15-Jul-14,10.80,10.87,10.79,10.81,2368884
14-Jul-14,10.92,10.95,10.80,10.80,2698492
11-Jul-14,10.83,10.90,10.79,10.86,2059400
10-Jul-14,10.84,10.93,10.76,10.86,3024262
9-Jul-14,11.03,11.08,11.00,11.02,2344454
8-Jul-14,11.10,11.10,10.99,11.00,3088247
7-Jul-14,11.11,11.15,11.10,11.13,2542475
3-Jul-14,11.13,11.20,11.13,11.17,1220955
2-Jul-14,11.14,11.20,11.08,11.11,3485523
1-Jul-14,11.06,11.21,11.05,11.20,8616149
30-Jun-14,11.04,11.09,10.95,11.05,3772235
27-Jun-14,10.99,11.15,10.99,11.06,37017851
26-Jun-14,11.04,11.07,10.94,11.02,5607410
25-Jun-14,11.01,11.10,10.91,11.07,4483745
24-Jun-14,11.13,11.19,11.02,11.05,6713078
23-Jun-14,11.10,11.15,11.04,11.09,5160871
20-Jun-14,11.02,11.17,11.01,11.05,24320333
19-Jun-14,11.04,11.06,10.97,11.00,4391069
18-Jun-14,10.99,11.04,10.88,11.03,3951284
17-Jun-14,10.88,11.11,10.88,10.99,8511796
16-Jun-14,10.94,10.97,10.84,10.85,3829855
13-Jun-14,10.93,10.99,10.90,10.97,3193404
12-Jun-14,10.93,10.95,10.86,10.93,4765623
11-Jun-14,10.86,10.95,10.77,10.93,6001418
10-Jun-14,10.98,11.00,10.89,10.95,3989578
9-Jun-14,10.88,11.04,10.88,11.04,6320257
6-Jun-14,10.92,10.93,10.86,10.92,3880474
5-Jun-14,10.85,10.92,10.85,10.92,4441400
4-Jun-14,10.75,10.90,10.75,10.88,4703541
3-Jun-14,10.84,10.86,10.80,10.81,3477704
2-Jun-14,10.80,10.85,10.74,10.83,5276783
30-May-14,10.73,10.81,10.70,10.80,16973018
29-May-14,10.65,10.74,10.62,10.71,12876409
28-May-14,10.65,10.68,10.55,10.61,4164402
27-May-14,10.60,10.68,10.59,10.68,10141140
23-May-14,10.50,10.62,10.46,10.59,11353506
22-May-14,10.45,10.50,10.40,10.48,4456679
21-May-14,10.45,10.49,10.40,10.42,3302665
20-May-14,10.41,10.47,10.36,10.43,4761678
19-May-14,10.41,10.45,10.40,10.44,3536928
16-May-14,10.42,10.45,10.34,10.45,4714477
15-May-14,10.40,10.49,10.28,10.40,7561588
14-May-14,10.55,10.55,10.42,10.45,7790420
13-May-14,10.60,10.61,10.47,10.54,6620213
12-May-14,10.48,10.63,10.44,10.60,27122689
9-May-14,10.39,10.50,10.38,10.46,32175940
8-May-14,10.40,10.49,10.30,10.42,44550084
