﻿Date,Open,High,Low,Close,Volume
20-Jun-17,11.08,11.58,11.05,11.15,344848
19-Jun-17,10.95,11.26,10.67,11.03,260723
16-Jun-17,10.39,10.85,10.23,10.85,1028128
15-Jun-17,10.64,10.88,10.24,10.50,546485
14-Jun-17,10.22,10.82,10.11,10.78,470369
13-Jun-17,9.89,10.18,9.62,10.13,472754
12-Jun-17,9.64,10.28,9.41,9.81,840131
9-Jun-17,9.60,9.85,9.35,9.64,603393
8-Jun-17,9.68,9.75,9.52,9.53,313151
7-Jun-17,9.82,9.89,9.41,9.72,449472
6-Jun-17,9.86,9.97,9.69,9.78,327687
5-Jun-17,10.49,10.52,9.79,9.94,424340
2-Jun-17,10.66,10.88,10.46,10.47,343372
1-Jun-17,10.25,10.89,10.25,10.65,338274
31-May-17,10.29,10.32,9.90,10.25,419417
30-May-17,10.13,10.40,9.99,10.22,429719
26-May-17,10.47,10.70,10.07,10.16,409872
25-May-17,10.30,10.76,10.16,10.49,656298
24-May-17,10.58,10.60,10.22,10.26,445484
23-May-17,10.60,10.76,10.46,10.60,275241
22-May-17,10.71,10.88,10.41,10.60,249154
19-May-17,10.71,10.99,10.61,10.69,273854
18-May-17,10.79,11.05,10.56,10.72,572096
17-May-17,11.32,11.43,10.67,10.74,329483
16-May-17,11.18,11.72,11.15,11.44,514392
15-May-17,11.24,11.50,10.75,11.16,395890
12-May-17,10.74,11.58,10.66,11.26,811718
11-May-17,10.41,11.25,10.27,10.72,1002718
10-May-17,9.28,10.66,9.14,10.52,1911139
9-May-17,9.30,9.30,9.11,9.26,351682
8-May-17,9.32,9.47,9.14,9.28,425727
5-May-17,9.28,9.43,9.15,9.35,386102
4-May-17,9.33,9.66,9.04,9.30,667485
3-May-17,9.30,9.87,9.28,9.32,1194765
2-May-17,10.13,10.19,9.21,9.44,4578455
1-May-17,8.10,11.43,7.85,10.49,14744383
28-Apr-17,13.48,13.92,13.33,13.82,529187
27-Apr-17,13.00,13.55,12.74,13.45,464094
26-Apr-17,12.60,13.17,12.27,12.97,453115
25-Apr-17,12.54,12.72,12.17,12.58,670469
24-Apr-17,12.56,12.79,12.31,12.46,429907
21-Apr-17,12.86,13.08,12.11,12.41,888355
20-Apr-17,13.67,13.83,12.77,12.81,882014
19-Apr-17,13.41,13.74,13.27,13.65,449854
18-Apr-17,13.45,13.48,13.10,13.39,311943
17-Apr-17,13.81,13.86,13.25,13.45,376080
13-Apr-17,13.75,14.04,13.70,13.78,193684
12-Apr-17,13.95,14.18,13.62,13.82,622756
11-Apr-17,14.35,14.64,13.89,13.97,465652
10-Apr-17,14.30,14.61,13.87,14.38,553049
7-Apr-17,14.56,14.61,13.88,14.13,653976
6-Apr-17,14.53,15.35,14.31,14.68,857242
5-Apr-17,15.22,15.22,14.06,14.53,1103926
4-Apr-17,16.49,16.94,14.94,15.24,854383
3-Apr-17,16.28,17.08,16.26,16.54,924242
31-Mar-17,16.20,16.68,15.81,16.25,545862
30-Mar-17,16.47,16.50,15.65,16.26,600148
29-Mar-17,16.10,16.69,15.90,16.44,421358
28-Mar-17,16.27,16.58,15.62,16.07,594906
27-Mar-17,14.57,16.27,14.54,16.20,758139
24-Mar-17,14.89,14.93,14.49,14.76,217033
23-Mar-17,14.34,15.01,14.20,14.80,437589
22-Mar-17,14.15,14.44,13.64,14.41,1482453
21-Mar-17,15.00,15.24,14.05,14.15,979533
20-Mar-17,15.15,15.34,14.71,14.86,352025
17-Mar-17,15.72,15.94,15.02,15.16,729806
16-Mar-17,15.40,15.82,15.22,15.75,403814
15-Mar-17,14.88,15.50,14.80,15.42,328246
14-Mar-17,14.94,15.05,14.60,14.77,349089
13-Mar-17,14.54,15.02,14.40,14.99,412645
10-Mar-17,14.46,14.60,14.02,14.51,283997
9-Mar-17,14.20,14.75,14.02,14.30,313451
8-Mar-17,13.76,14.67,13.76,14.16,464127
7-Mar-17,13.79,13.95,13.42,13.68,504966
6-Mar-17,14.27,14.59,13.65,13.71,591836
3-Mar-17,15.14,15.43,14.14,14.32,593479
2-Mar-17,14.63,16.90,14.61,15.12,1545578
1-Mar-17,13.36,14.78,10.42,14.60,2661887
28-Feb-17,13.45,13.56,12.91,13.05,592949
27-Feb-17,12.80,13.53,12.80,13.51,300002
24-Feb-17,12.77,12.96,12.65,12.81,145383
23-Feb-17,12.75,13.22,12.66,12.90,324274
22-Feb-17,13.00,13.06,12.68,12.75,354023
21-Feb-17,13.30,13.40,12.89,13.05,405551
17-Feb-17,13.25,13.43,13.12,13.27,437362
16-Feb-17,13.50,13.53,13.00,13.30,610417
15-Feb-17,13.56,13.60,13.34,13.49,419161
14-Feb-17,13.20,13.73,13.19,13.63,600677
13-Feb-17,13.50,13.63,13.19,13.27,677561
10-Feb-17,13.68,13.81,13.53,13.62,277958
9-Feb-17,13.79,14.03,13.50,13.65,363558
8-Feb-17,14.03,14.25,13.58,13.73,426226
7-Feb-17,14.57,14.66,13.85,14.05,197059
6-Feb-17,14.11,14.61,14.05,14.54,354118
3-Feb-17,14.09,14.21,13.75,14.15,206468
2-Feb-17,13.64,13.93,13.52,13.91,227916
1-Feb-17,14.44,14.62,13.58,13.75,395155
31-Jan-17,13.20,14.60,13.01,14.44,808809
30-Jan-17,13.43,13.43,12.80,13.33,274515
27-Jan-17,13.61,13.80,13.38,13.57,202875
26-Jan-17,13.56,13.99,13.56,13.64,158856
25-Jan-17,13.58,13.68,13.34,13.55,274686
24-Jan-17,13.68,13.72,13.06,13.47,338906
23-Jan-17,13.62,13.84,13.52,13.66,333173
20-Jan-17,14.00,14.12,13.51,13.58,398980
19-Jan-17,14.17,14.26,13.81,13.85,303529
18-Jan-17,14.33,14.41,13.82,14.16,497208
17-Jan-17,14.79,14.99,14.16,14.19,408151
13-Jan-17,14.81,15.63,14.81,14.93,470305
12-Jan-17,15.47,15.68,14.68,14.78,824811
11-Jan-17,16.58,16.71,15.32,15.60,563128
10-Jan-17,16.84,16.89,16.25,16.55,412388
9-Jan-17,16.82,17.10,16.47,16.77,450343
6-Jan-17,16.76,17.59,16.51,16.71,612629
5-Jan-17,16.90,17.09,16.27,16.63,385270
4-Jan-17,15.80,16.99,15.75,16.97,529340
3-Jan-17,15.36,15.76,15.16,15.73,410794
30-Dec-16,15.45,15.80,15.09,15.09,476224
29-Dec-16,15.57,15.81,15.29,15.52,284731
28-Dec-16,16.00,16.05,15.45,15.54,253938
27-Dec-16,16.12,16.41,15.88,15.92,245718
23-Dec-16,14.79,16.18,14.78,16.14,401526
22-Dec-16,15.81,15.92,14.70,14.84,490320
21-Dec-16,15.55,16.09,15.04,15.05,400477
20-Dec-16,15.64,15.93,15.40,15.50,314582
19-Dec-16,15.94,16.35,15.42,15.63,496805
16-Dec-16,16.93,17.00,15.84,15.99,3096881
15-Dec-16,15.39,16.35,14.91,16.10,1042966
14-Dec-16,15.24,15.44,14.50,15.27,688222
13-Dec-16,15.39,15.91,14.98,15.30,889593
12-Dec-16,15.44,15.76,14.75,15.27,740477
9-Dec-16,16.11,16.22,15.41,15.50,717858
8-Dec-16,16.67,16.74,15.53,15.97,730981
7-Dec-16,16.24,16.40,15.77,16.21,1108516
6-Dec-16,15.51,16.50,15.20,16.37,1116230
5-Dec-16,15.19,15.49,14.96,15.44,1307371
2-Dec-16,13.91,15.23,13.42,15.02,1259353
1-Dec-16,13.94,14.23,13.65,13.99,615262
30-Nov-16,13.73,14.02,13.61,13.94,503086
29-Nov-16,13.34,14.01,13.30,13.63,609119
28-Nov-16,13.61,13.74,13.24,13.35,458287
25-Nov-16,13.73,13.76,13.41,13.66,299513
23-Nov-16,13.11,13.65,12.75,13.58,618229
22-Nov-16,13.56,13.72,13.10,13.25,458278
21-Nov-16,14.00,14.04,13.36,13.52,482475
18-Nov-16,13.97,14.15,13.72,13.95,549932
17-Nov-16,13.54,13.67,13.28,13.58,425787
16-Nov-16,13.91,14.03,13.32,13.45,601326
15-Nov-16,14.16,14.30,13.83,13.91,557044
14-Nov-16,14.57,14.77,14.13,14.30,719036
11-Nov-16,13.49,14.45,13.37,14.40,948655
10-Nov-16,14.56,15.03,13.49,13.55,1052966
9-Nov-16,12.96,14.24,12.79,14.10,1561298
8-Nov-16,11.88,12.22,11.36,12.00,427433
7-Nov-16,11.65,12.13,11.53,12.04,458657
4-Nov-16,10.80,11.59,10.80,11.36,572743
3-Nov-16,11.77,11.96,10.81,10.87,915785
2-Nov-16,12.85,12.85,11.77,11.79,767580
1-Nov-16,12.48,12.91,12.34,12.84,797744
31-Oct-16,12.15,12.59,11.97,12.40,633325
28-Oct-16,12.09,12.38,11.66,12.16,609011
27-Oct-16,12.94,13.03,12.17,12.20,810148
26-Oct-16,13.05,13.18,12.75,12.86,799827
25-Oct-16,13.34,13.53,13.01,13.06,647198
24-Oct-16,13.69,13.92,13.19,13.30,534450
21-Oct-16,13.07,13.93,13.07,13.65,879630
20-Oct-16,13.05,13.35,13.01,13.21,427880
19-Oct-16,13.12,13.18,12.95,13.11,579751
18-Oct-16,13.36,13.62,13.03,13.12,615527
17-Oct-16,13.08,13.28,12.85,13.25,882016
14-Oct-16,13.50,13.62,12.98,13.03,591671
13-Oct-16,13.48,13.99,13.29,13.43,714501
12-Oct-16,14.48,14.62,13.55,13.59,785507
11-Oct-16,14.89,15.09,14.25,14.46,823346
10-Oct-16,15.21,15.46,15.01,15.09,1101036
7-Oct-16,14.91,15.20,14.64,15.14,854749
6-Oct-16,14.81,14.89,14.48,14.83,809686
5-Oct-16,14.61,15.25,14.34,14.94,1354471
4-Oct-16,15.40,15.42,14.56,14.65,1546287
3-Oct-16,15.24,15.75,15.20,15.46,1982372
30-Sep-16,15.41,15.87,14.44,15.24,5567863
29-Sep-16,15.41,16.23,14.88,15.42,15898553
28-Sep-16,41.63,42.40,40.70,42.35,2938856
27-Sep-16,40.55,41.73,40.20,41.52,421396
26-Sep-16,42.25,42.40,40.71,40.76,330489
23-Sep-16,40.87,42.83,40.87,42.40,589622
22-Sep-16,41.11,41.19,39.76,40.87,516938
21-Sep-16,43.64,44.19,40.52,40.89,873005
20-Sep-16,44.45,44.92,43.46,43.59,337649
19-Sep-16,44.90,45.20,43.91,44.14,599295
16-Sep-16,44.29,45.13,43.64,44.48,783278
15-Sep-16,43.65,45.00,43.54,44.30,521468
14-Sep-16,42.81,43.97,42.81,43.46,235642
13-Sep-16,43.42,43.94,41.74,42.70,255620
12-Sep-16,42.10,43.95,42.04,43.78,202523
9-Sep-16,43.22,43.74,42.32,42.35,322181
8-Sep-16,43.94,44.26,42.88,43.85,435050
7-Sep-16,41.67,43.99,41.67,43.86,558504
6-Sep-16,40.43,42.69,40.43,41.55,526538
2-Sep-16,40.81,41.02,39.96,40.43,179408
1-Sep-16,40.35,40.96,40.02,40.63,327019
31-Aug-16,41.07,41.43,40.10,40.34,304979
30-Aug-16,40.63,41.24,40.34,40.99,447171
29-Aug-16,40.47,41.17,39.87,40.70,270975
26-Aug-16,39.79,40.94,39.62,40.38,324363
25-Aug-16,40.73,42.96,39.02,39.68,400025
24-Aug-16,41.81,42.83,40.14,40.65,611116
23-Aug-16,41.19,42.36,40.80,41.96,458082
22-Aug-16,40.85,41.51,40.54,40.99,333052
19-Aug-16,40.71,41.05,40.49,40.73,304897
18-Aug-16,40.07,41.05,40.00,40.96,228871
17-Aug-16,40.99,41.04,39.56,40.18,323138
16-Aug-16,40.97,41.60,40.45,41.04,376021
15-Aug-16,40.30,41.30,40.18,41.01,319512
12-Aug-16,40.67,40.70,40.07,40.29,209952
11-Aug-16,41.49,41.85,40.63,40.72,288370
10-Aug-16,43.01,43.26,41.07,41.25,599489
9-Aug-16,42.94,44.02,42.64,43.00,617249
8-Aug-16,42.89,43.69,42.19,42.98,1354777
5-Aug-16,41.44,43.85,40.72,42.72,1060305
4-Aug-16,41.30,41.86,40.60,40.78,337500
3-Aug-16,40.84,41.46,40.43,40.94,333009
2-Aug-16,41.15,41.53,40.41,40.98,352442
1-Aug-16,41.01,41.29,40.47,41.24,602602
29-Jul-16,40.81,42.03,39.96,40.80,393437
28-Jul-16,41.72,42.17,40.59,40.97,278890
27-Jul-16,40.50,41.65,40.43,41.59,235737
26-Jul-16,40.66,41.30,40.10,40.33,245863
25-Jul-16,41.38,41.74,40.22,40.92,207032
22-Jul-16,41.05,41.38,40.52,41.30,264789
21-Jul-16,40.75,41.80,39.99,41.03,441463
20-Jul-16,39.19,40.59,38.89,40.48,384038
19-Jul-16,39.44,39.74,38.57,38.76,240646
18-Jul-16,39.58,40.00,38.98,39.41,229095
15-Jul-16,38.98,39.74,38.47,39.66,246639
14-Jul-16,40.32,40.32,37.70,38.90,340795
13-Jul-16,41.65,41.97,39.39,39.77,324686
12-Jul-16,41.41,42.18,41.00,41.45,288081
11-Jul-16,40.91,41.27,40.26,41.00,208345
8-Jul-16,39.99,40.76,39.14,40.64,305582
7-Jul-16,39.74,39.85,38.60,39.67,396072
6-Jul-16,38.66,39.98,38.51,39.49,276226
5-Jul-16,39.37,39.46,38.06,38.93,300344
1-Jul-16,38.83,40.28,38.07,39.68,479140
30-Jun-16,37.48,38.90,37.02,38.82,626937
29-Jun-16,36.36,37.83,36.36,37.43,644400
28-Jun-16,35.00,37.58,34.21,35.80,512075
27-Jun-16,35.94,37.20,33.96,34.66,674419
24-Jun-16,35.65,37.40,35.23,36.38,1581782
23-Jun-16,36.55,37.75,35.85,37.74,342533
22-Jun-16,36.74,36.98,35.05,35.91,575846
21-Jun-16,38.60,38.60,35.90,36.61,570671
20-Jun-16,37.81,39.85,37.34,38.67,616099
17-Jun-16,39.22,39.61,36.86,37.43,1433728
16-Jun-16,38.82,39.62,37.94,39.21,300570
15-Jun-16,38.72,40.00,38.32,39.17,456079
14-Jun-16,39.04,39.98,37.73,38.35,571041
13-Jun-16,39.99,41.58,38.75,39.21,750758
10-Jun-16,40.64,41.91,39.61,40.29,476573
9-Jun-16,40.70,41.90,40.44,41.31,398186
8-Jun-16,40.96,42.02,40.16,41.15,213190
7-Jun-16,40.58,41.54,39.55,40.90,286293
6-Jun-16,40.30,41.72,39.84,40.91,330258
3-Jun-16,40.17,40.53,38.32,39.94,392913
2-Jun-16,39.63,41.29,39.45,40.49,358116
1-Jun-16,38.60,40.05,38.22,39.45,330791
31-May-16,37.71,39.11,37.37,38.70,361105
27-May-16,37.15,37.67,36.08,37.33,400007
26-May-16,36.88,37.28,35.43,36.93,320924
25-May-16,37.26,37.80,36.41,36.94,307176
24-May-16,37.33,37.33,35.88,36.91,359318
23-May-16,35.24,36.77,34.52,36.74,573113
20-May-16,34.51,35.65,33.92,35.23,355595
19-May-16,34.43,35.42,33.43,34.22,338782
18-May-16,33.60,35.45,33.48,34.59,354798
17-May-16,34.52,35.30,33.51,33.71,388785
16-May-16,32.76,34.85,32.50,34.71,285960
13-May-16,31.63,33.49,31.63,32.43,275023
12-May-16,32.27,32.51,30.67,31.63,284993
11-May-16,33.34,34.00,32.13,32.33,260215
10-May-16,33.36,33.95,32.20,33.44,276437
9-May-16,31.17,33.79,30.98,33.14,346583
6-May-16,30.72,31.77,30.16,30.99,274992
5-May-16,32.33,32.60,30.45,31.25,473690
4-May-16,34.64,34.99,32.07,32.18,358299
3-May-16,34.68,36.25,34.34,35.07,374016
2-May-16,34.62,35.24,34.13,35.08,305485
29-Apr-16,34.49,35.08,33.77,34.32,308729
28-Apr-16,36.24,36.54,33.65,34.29,480692
27-Apr-16,36.52,36.88,34.52,35.63,497053
26-Apr-16,37.31,37.34,35.59,36.72,301675
25-Apr-16,37.83,38.42,36.84,37.41,370260
22-Apr-16,37.28,38.18,36.76,37.98,471158
21-Apr-16,35.64,37.92,35.14,37.13,459906
20-Apr-16,36.15,36.60,34.77,35.63,251912
19-Apr-16,36.95,37.61,35.52,36.14,350447
18-Apr-16,35.00,37.38,35.00,36.85,442499
15-Apr-16,35.29,36.11,34.99,35.34,389278
14-Apr-16,34.42,36.15,33.92,35.51,415642
13-Apr-16,33.50,34.60,32.88,34.36,300044
12-Apr-16,32.93,33.67,32.12,33.38,294483
11-Apr-16,34.81,34.81,32.86,33.06,389209
8-Apr-16,35.50,35.88,33.38,34.28,489885
7-Apr-16,34.42,35.73,33.97,34.80,778066
6-Apr-16,30.45,34.87,30.45,34.45,1034042
5-Apr-16,30.01,31.22,29.26,30.25,555701
4-Apr-16,28.26,30.95,28.26,30.52,649034
1-Apr-16,27.44,28.54,27.13,28.25,398879
31-Mar-16,27.70,28.77,26.91,27.80,511872
30-Mar-16,28.84,29.18,27.40,27.70,527248
29-Mar-16,25.95,28.64,25.61,28.52,584313
28-Mar-16,25.89,27.79,25.89,26.06,520115
24-Mar-16,25.96,25.96,24.35,25.58,607389
23-Mar-16,27.31,27.59,25.73,26.22,498443
22-Mar-16,25.80,28.23,25.61,27.26,754883
21-Mar-16,24.39,27.01,24.39,26.15,792661
18-Mar-16,23.79,24.40,22.41,24.16,1292535
17-Mar-16,25.09,25.89,23.08,23.60,832773
16-Mar-16,25.90,26.69,24.68,25.25,344664
15-Mar-16,27.21,27.58,25.07,26.06,515287
14-Mar-16,27.61,28.33,26.88,27.71,427005
11-Mar-16,27.19,27.77,26.30,27.64,605362
10-Mar-16,28.21,29.57,26.02,26.84,608092
9-Mar-16,29.65,29.88,27.26,27.82,636037
8-Mar-16,31.43,31.57,29.38,29.47,473325
7-Mar-16,29.12,31.98,28.63,31.57,588074
4-Mar-16,30.85,31.19,28.98,29.27,583829
3-Mar-16,31.11,31.49,30.08,30.73,453562
2-Mar-16,29.82,31.52,29.27,31.22,1146682
1-Mar-16,28.87,29.83,27.31,29.82,1167613
29-Feb-16,30.11,30.40,27.85,28.12,887256
26-Feb-16,27.99,31.21,27.52,30.40,1036834
25-Feb-16,30.40,32.64,27.44,27.71,1059846
24-Feb-16,29.50,30.73,28.04,30.18,833140
23-Feb-16,33.12,34.03,29.42,30.06,727182
22-Feb-16,31.08,33.27,30.47,32.56,463325
19-Feb-16,29.53,31.04,26.76,30.47,488418
18-Feb-16,30.77,31.04,29.60,29.85,547256
17-Feb-16,28.99,31.78,27.80,30.51,911590
16-Feb-16,26.83,28.48,26.26,27.90,616158
12-Feb-16,27.40,27.65,25.58,26.19,529011
11-Feb-16,25.49,27.25,24.58,26.61,480712
10-Feb-16,26.59,28.56,25.96,26.10,517739
9-Feb-16,25.16,28.63,25.16,26.52,675232
8-Feb-16,27.22,28.00,24.84,25.84,1038824
5-Feb-16,32.11,32.60,28.52,28.60,619240
4-Feb-16,32.14,35.47,31.12,32.61,582325
3-Feb-16,33.32,33.80,30.37,32.40,725571
2-Feb-16,35.54,36.16,32.40,32.57,617924
1-Feb-16,36.62,37.30,35.14,36.25,503041
29-Jan-16,37.59,39.09,35.28,37.08,611307
28-Jan-16,39.60,40.06,36.34,37.54,355142
27-Jan-16,41.53,42.10,38.01,39.04,417844
26-Jan-16,42.14,42.71,40.17,41.59,211871
25-Jan-16,42.07,43.80,41.00,41.74,363093
22-Jan-16,42.91,44.22,40.19,42.56,376926
21-Jan-16,44.21,44.70,41.25,41.58,524805
20-Jan-16,43.69,46.33,42.24,44.43,426104
19-Jan-16,46.03,46.26,43.52,44.60,596695
15-Jan-16,41.41,47.18,41.04,45.41,628676
14-Jan-16,40.36,44.40,39.31,43.48,509787
13-Jan-16,42.91,46.36,39.37,40.23,456919
12-Jan-16,43.40,45.48,40.80,42.96,401180
11-Jan-16,46.03,46.14,42.16,42.84,487446
8-Jan-16,47.73,53.04,43.88,45.35,497118
7-Jan-16,48.05,48.28,46.51,47.42,437714
6-Jan-16,53.32,54.32,48.30,49.21,549972
5-Jan-16,53.91,55.35,53.45,54.32,327438
4-Jan-16,52.90,53.99,51.23,53.63,563799
31-Dec-15,54.65,55.20,53.73,53.79,189203
30-Dec-15,55.32,56.76,54.02,55.21,237445
29-Dec-15,57.28,57.55,54.91,55.76,323499
28-Dec-15,54.41,56.48,54.02,56.39,210307
24-Dec-15,54.62,55.02,53.68,54.51,92343
23-Dec-15,52.45,55.62,52.37,54.47,209095
22-Dec-15,54.28,54.28,51.36,52.66,312614
21-Dec-15,54.59,54.59,52.64,53.90,172218
18-Dec-15,53.93,55.76,53.69,53.91,1172715
17-Dec-15,56.11,56.63,53.99,54.60,337780
16-Dec-15,53.58,56.24,52.29,56.07,276147
15-Dec-15,51.38,53.25,50.95,53.14,475021
14-Dec-15,53.44,53.44,49.43,50.76,432429
11-Dec-15,54.35,55.26,52.60,53.52,372609
10-Dec-15,52.10,55.47,51.80,55.39,406333
9-Dec-15,54.42,54.93,51.73,52.24,376304
8-Dec-15,51.67,55.83,51.52,54.77,411365
7-Dec-15,56.94,57.82,51.16,52.02,471536
4-Dec-15,54.00,57.04,53.91,56.90,451821
3-Dec-15,55.23,56.12,53.15,54.01,333756
2-Dec-15,55.63,57.16,54.14,55.22,505652
1-Dec-15,53.59,55.75,52.15,55.72,493028
30-Nov-15,59.47,59.76,52.35,53.33,471999
27-Nov-15,58.07,59.96,57.72,58.76,213572
25-Nov-15,57.18,58.86,57.18,58.28,590557
24-Nov-15,55.04,57.74,54.59,57.46,317141
23-Nov-15,52.00,57.01,52.00,55.60,464302
20-Nov-15,51.82,54.06,51.41,52.21,375164
19-Nov-15,52.22,52.84,50.80,51.56,224798
18-Nov-15,49.50,51.99,49.08,51.74,248936
17-Nov-15,49.52,50.66,47.87,49.47,271372
16-Nov-15,48.97,50.99,47.29,49.12,303327
13-Nov-15,48.45,49.92,47.75,48.71,513775
12-Nov-15,52.00,52.00,48.09,48.60,494705
11-Nov-15,56.28,56.28,51.80,52.73,298238
10-Nov-15,51.08,56.60,50.76,55.69,831011
9-Nov-15,51.11,51.89,50.06,51.50,595773
6-Nov-15,53.34,53.65,48.52,51.04,809179
5-Nov-15,52.05,53.77,49.90,52.82,586031
4-Nov-15,53.41,54.07,51.22,52.68,332917
3-Nov-15,52.15,54.13,51.11,53.15,578988
2-Nov-15,48.00,52.98,47.24,52.49,572813
30-Oct-15,51.19,52.50,46.90,47.85,1490618
29-Oct-15,52.39,54.77,50.58,51.44,534501
28-Oct-15,49.67,52.96,48.50,52.78,610606
27-Oct-15,47.24,50.18,47.06,49.37,477408
26-Oct-15,47.11,48.16,46.04,47.21,436231
23-Oct-15,44.19,47.81,43.58,46.82,613791
22-Oct-15,42.98,44.46,41.75,43.34,614949
21-Oct-15,43.67,44.44,41.18,42.84,426475
20-Oct-15,43.62,44.67,41.86,43.37,455053
19-Oct-15,43.20,45.41,42.32,43.92,252574
16-Oct-15,42.92,43.52,41.68,43.45,311530
15-Oct-15,41.20,43.07,40.91,42.98,906950
14-Oct-15,42.16,42.76,38.32,41.39,989207
13-Oct-15,44.87,45.67,41.32,41.69,695183
12-Oct-15,43.41,45.95,42.53,44.65,594573
9-Oct-15,41.81,44.94,40.80,43.85,642181
8-Oct-15,41.63,42.75,40.60,42.13,715238
7-Oct-15,39.73,42.11,38.04,41.83,677570
6-Oct-15,43.04,43.04,38.20,39.42,683596
5-Oct-15,42.77,44.57,41.17,43.32,697120
2-Oct-15,38.54,43.59,37.75,43.25,1196136
1-Oct-15,39.55,41.92,38.48,39.41,1015591
30-Sep-15,38.40,40.71,37.55,40.04,1683634
29-Sep-15,37.47,41.39,36.30,37.50,1571087
28-Sep-15,41.27,41.27,35.18,37.04,1995365
25-Sep-15,47.00,47.82,41.27,41.31,1209617
24-Sep-15,47.86,48.00,44.21,46.84,1429502
23-Sep-15,45.95,49.37,45.16,47.86,6516746
22-Sep-15,48.02,50.83,44.81,44.95,2268542
21-Sep-15,55.88,57.22,50.04,50.85,1856991
18-Sep-15,56.00,60.79,53.99,55.60,4939327
17-Sep-15,51.03,58.81,49.28,58.62,4825401
16-Sep-15,42.40,49.75,42.02,48.79,13768533
15-Sep-15,26.66,26.95,25.62,26.11,208151
14-Sep-15,26.16,26.94,25.72,26.70,285402
11-Sep-15,26.03,26.46,25.65,26.23,192226
10-Sep-15,25.50,26.40,25.21,26.24,258800
9-Sep-15,27.84,27.84,25.31,25.43,281574
8-Sep-15,27.54,27.74,26.39,27.54,263183
4-Sep-15,26.06,27.36,26.04,27.12,316035
3-Sep-15,27.61,28.58,26.12,26.47,528200
2-Sep-15,27.50,27.98,25.42,27.35,1089157
1-Sep-15,26.15,27.90,25.83,27.07,915211
31-Aug-15,26.56,27.99,26.43,26.79,476471
28-Aug-15,25.70,27.06,25.47,26.96,435559
27-Aug-15,26.28,27.70,25.34,25.96,442423
26-Aug-15,26.49,26.52,24.44,25.98,707025
25-Aug-15,27.31,27.31,25.47,25.63,670987
24-Aug-15,27.45,27.53,21.19,25.85,650294
21-Aug-15,27.58,30.30,27.25,28.50,588981
20-Aug-15,29.46,30.16,28.37,28.45,420125
19-Aug-15,30.00,30.75,29.20,29.86,326336
18-Aug-15,31.44,31.72,30.13,30.23,353111
17-Aug-15,29.54,31.68,29.41,31.44,510888
14-Aug-15,29.87,30.60,28.87,29.57,343340
13-Aug-15,31.04,31.71,29.56,29.80,442235
12-Aug-15,29.85,31.45,29.23,31.11,400494
11-Aug-15,30.23,32.28,29.83,30.33,451090
10-Aug-15,31.31,31.99,30.29,30.60,355928
7-Aug-15,31.19,31.33,29.55,30.98,245939
6-Aug-15,31.50,32.40,30.06,31.43,533531
5-Aug-15,29.29,30.95,28.76,29.00,324475
4-Aug-15,29.60,29.82,28.48,29.18,277810
3-Aug-15,29.21,30.59,29.20,29.58,391264
31-Jul-15,29.54,31.08,28.50,29.10,714634
30-Jul-15,29.20,30.12,28.33,29.33,202640
29-Jul-15,31.17,31.45,28.97,29.42,394234
28-Jul-15,28.82,31.51,28.40,31.22,446170
27-Jul-15,28.77,29.43,28.16,28.52,336628
24-Jul-15,29.64,30.54,29.06,29.15,207299
23-Jul-15,30.40,30.78,29.52,29.63,300603
22-Jul-15,28.95,31.17,28.29,30.71,519216
21-Jul-15,28.85,30.35,28.60,28.95,400324
20-Jul-15,34.00,34.04,28.72,30.10,1280434
17-Jul-15,35.95,36.50,32.79,33.37,591557
16-Jul-15,36.39,37.08,35.30,36.31,289087
15-Jul-15,34.00,37.81,33.46,35.96,608020
14-Jul-15,35.50,36.67,35.37,35.54,322971
13-Jul-15,35.50,37.00,34.82,35.80,385236
10-Jul-15,33.52,36.17,33.25,34.76,699598
9-Jul-15,33.51,34.17,32.67,33.06,358169
8-Jul-15,33.36,34.29,32.17,32.98,330213
7-Jul-15,33.55,34.45,32.49,33.71,372228
6-Jul-15,30.54,34.48,30.33,34.18,398176
2-Jul-15,31.51,31.80,29.78,31.15,279547
1-Jul-15,32.00,32.50,31.10,31.46,208190
30-Jun-15,31.24,32.00,30.67,31.95,176186
29-Jun-15,31.51,31.93,30.47,30.94,212670
26-Jun-15,32.00,32.05,31.01,31.77,301014
25-Jun-15,32.00,32.85,31.05,31.92,131050
24-Jun-15,33.00,34.36,31.70,31.95,279055
23-Jun-15,33.75,35.45,33.10,33.25,552615
22-Jun-15,30.50,33.90,30.02,33.42,745888
19-Jun-15,27.42,30.52,27.17,29.84,467139
18-Jun-15,27.44,29.00,27.24,27.31,298748
17-Jun-15,26.86,27.91,26.51,27.22,303713
16-Jun-15,26.44,26.77,26.30,26.58,211036
15-Jun-15,28.40,28.46,25.99,26.33,293836
12-Jun-15,28.24,28.76,28.05,28.46,210269
11-Jun-15,27.83,28.42,27.49,28.33,188792
10-Jun-15,28.12,28.25,27.00,27.87,163413
9-Jun-15,27.68,28.23,26.86,28.15,259125
8-Jun-15,27.01,27.62,26.62,27.20,138675
5-Jun-15,26.98,27.39,26.28,27.19,193386
4-Jun-15,26.70,27.50,26.70,26.99,216681
3-Jun-15,26.90,27.12,26.74,26.88,222975
2-Jun-15,26.46,27.31,26.32,26.77,229030
1-Jun-15,26.59,27.01,25.80,26.58,238927
29-May-15,26.45,27.23,26.01,26.25,353453
28-May-15,25.75,26.99,25.75,26.62,211561
27-May-15,24.23,26.14,24.13,25.89,211037
26-May-15,24.85,24.86,24.00,24.21,170002
22-May-15,24.95,25.77,24.73,24.99,157048
21-May-15,24.18,25.13,24.08,24.74,326967
20-May-15,24.30,24.70,23.20,24.35,184516
19-May-15,24.11,24.74,23.40,24.26,171519
18-May-15,23.22,24.61,23.04,24.17,194176
15-May-15,23.07,23.44,22.54,22.91,125716
14-May-15,22.56,23.40,22.02,23.18,116758
13-May-15,22.81,23.06,22.27,22.40,90434
12-May-15,23.04,23.04,22.10,22.80,119967
11-May-15,22.00,23.26,21.92,22.82,195518
8-May-15,22.21,22.52,21.56,21.91,123631
7-May-15,21.14,22.17,20.88,21.86,144948
6-May-15,22.26,23.22,21.06,21.37,337410
5-May-15,22.15,22.52,20.64,21.02,268042
4-May-15,21.53,22.81,21.46,22.16,265473
1-May-15,20.72,21.68,20.56,21.48,229048
30-Apr-15,20.48,21.23,20.25,20.45,279158
29-Apr-15,20.51,20.75,20.03,20.47,154671
28-Apr-15,21.00,21.30,19.86,20.64,213830
27-Apr-15,23.00,23.13,20.48,21.03,279896
24-Apr-15,24.05,24.06,22.34,22.71,135578
23-Apr-15,23.78,24.70,23.57,23.96,93776
22-Apr-15,24.50,24.83,23.12,23.78,227283
21-Apr-15,24.59,25.05,24.27,24.59,108906
20-Apr-15,24.64,25.20,24.21,24.38,347272
17-Apr-15,24.58,24.59,23.39,24.36,208997
16-Apr-15,24.18,25.22,24.18,24.95,334130
15-Apr-15,25.00,25.16,23.90,24.45,188366
14-Apr-15,23.54,24.89,23.54,24.80,765272
13-Apr-15,23.99,24.17,22.94,23.02,196154
10-Apr-15,24.02,24.10,23.26,23.98,87754
9-Apr-15,24.28,24.45,22.80,23.83,179399
8-Apr-15,24.07,24.58,23.96,24.28,158242
7-Apr-15,23.47,24.91,23.47,24.16,148055
6-Apr-15,23.49,24.17,23.17,23.43,81595
2-Apr-15,24.11,24.50,23.53,23.68,96008
1-Apr-15,23.85,24.16,22.70,24.16,203058
31-Mar-15,24.60,24.69,23.71,23.88,429557
30-Mar-15,25.55,25.58,24.34,24.73,241451
27-Mar-15,25.20,25.95,24.87,25.28,198941
26-Mar-15,26.44,27.32,24.32,25.08,320105
25-Mar-15,27.98,29.02,26.22,26.64,278651
24-Mar-15,27.33,28.62,27.00,27.89,222812
23-Mar-15,27.36,28.68,26.09,27.50,425596
20-Mar-15,27.39,28.95,26.35,27.64,1403870
19-Mar-15,24.57,27.06,24.20,26.34,422412
18-Mar-15,24.35,24.69,24.10,24.57,243206
17-Mar-15,24.33,25.74,23.67,24.49,528145
16-Mar-15,23.70,24.47,23.02,24.00,416933
13-Mar-15,23.64,24.17,22.74,23.48,371567
12-Mar-15,24.98,25.09,22.86,23.15,209520
11-Mar-15,24.76,24.97,24.16,24.70,184056
10-Mar-15,23.78,26.00,23.07,24.46,563440
9-Mar-15,24.32,24.54,23.83,24.22,330450
6-Mar-15,24.45,24.50,23.39,23.80,1511535
5-Mar-15,24.00,25.24,23.70,24.73,138287
4-Mar-15,25.10,25.10,23.55,24.20,80567
3-Mar-15,25.89,26.24,25.39,25.73,26558
2-Mar-15,24.95,26.00,24.95,25.93,49010
27-Feb-15,25.86,26.29,24.50,24.85,74771
26-Feb-15,25.88,26.09,25.34,25.99,30785
25-Feb-15,24.39,26.53,24.20,26.00,74825
24-Feb-15,25.41,28.50,24.02,24.31,66417
23-Feb-15,25.51,26.15,25.13,25.54,92711
20-Feb-15,26.48,26.48,25.23,25.65,75044
19-Feb-15,28.62,28.70,25.59,26.38,107716
18-Feb-15,25.71,30.72,25.69,28.57,212792
17-Feb-15,24.96,26.88,24.19,25.58,66324
13-Feb-15,22.20,24.81,22.01,24.53,93666
12-Feb-15,20.68,22.63,20.20,22.08,110440
11-Feb-15,18.99,19.75,18.85,19.68,35631
10-Feb-15,18.75,19.22,18.64,19.10,16722
9-Feb-15,18.75,19.30,18.50,18.52,14853
6-Feb-15,19.00,19.69,18.84,18.89,30128
5-Feb-15,19.07,19.14,18.83,18.99,37752
4-Feb-15,19.91,19.91,18.94,19.00,33549
3-Feb-15,20.00,20.08,19.62,19.97,22593
2-Feb-15,19.73,20.20,19.22,19.99,45155
30-Jan-15,20.26,20.28,19.36,19.42,55340
29-Jan-15,19.93,20.62,19.71,20.51,45730
28-Jan-15,20.62,20.62,19.78,19.82,44162
27-Jan-15,20.27,20.86,20.05,20.29,38076
26-Jan-15,19.80,20.59,19.26,20.51,48683
23-Jan-15,20.25,20.25,19.81,19.86,34676
22-Jan-15,20.00,20.47,19.24,19.93,41427
21-Jan-15,20.30,21.20,19.35,19.75,192860
20-Jan-15,21.38,22.33,19.69,20.19,110230
16-Jan-15,19.37,21.57,18.85,21.45,42732
15-Jan-15,20.43,21.56,19.29,19.47,50790
14-Jan-15,17.95,20.90,17.95,20.35,89759
13-Jan-15,18.35,18.35,16.82,18.13,42434
12-Jan-15,17.10,18.86,17.10,18.11,89853
9-Jan-15,17.24,17.28,16.88,16.96,15552
8-Jan-15,16.62,17.70,16.53,17.37,57536
7-Jan-15,16.87,16.87,16.29,16.45,23148
6-Jan-15,17.67,17.69,16.73,16.78,32868
5-Jan-15,17.32,17.70,17.32,17.38,33002
2-Jan-15,17.91,17.91,17.36,17.57,25383
31-Dec-14,18.16,18.24,17.58,17.65,31395
30-Dec-14,18.96,18.96,17.90,18.00,38402
29-Dec-14,18.91,18.94,18.03,18.91,26420
26-Dec-14,17.99,19.00,17.87,18.96,18088
24-Dec-14,17.97,18.00,17.57,17.99,8230
23-Dec-14,17.27,18.00,16.99,17.83,27149
22-Dec-14,16.69,17.19,16.52,17.03,25642
19-Dec-14,17.16,17.32,16.50,16.73,91867
18-Dec-14,17.00,17.55,16.89,17.31,62815
17-Dec-14,15.51,17.00,15.46,16.88,45690
16-Dec-14,15.38,15.99,15.38,15.75,28196
15-Dec-14,15.70,16.06,15.44,15.67,30671
12-Dec-14,16.00,16.19,15.69,15.79,24459
11-Dec-14,16.39,16.81,16.08,16.26,20330
10-Dec-14,16.67,16.90,16.30,16.30,76896
9-Dec-14,16.77,16.96,16.20,16.81,83569
8-Dec-14,16.67,17.24,16.67,16.98,36765
5-Dec-14,16.28,16.76,16.28,16.67,12665
4-Dec-14,16.29,16.55,15.78,16.30,15204
3-Dec-14,15.41,16.43,15.38,16.35,21433
2-Dec-14,15.42,15.55,14.92,15.45,16789
1-Dec-14,14.50,15.45,14.41,15.34,206846
28-Nov-14,15.15,15.18,14.35,14.37,22025
26-Nov-14,15.00,15.38,14.90,15.19,25252
25-Nov-14,15.20,15.42,14.96,14.99,17051
24-Nov-14,14.83,15.14,14.83,15.12,12827
21-Nov-14,15.10,15.10,14.68,14.82,35128
20-Nov-14,14.45,14.88,14.45,14.80,12483
19-Nov-14,14.28,14.89,14.25,14.47,15235
18-Nov-14,14.09,14.44,14.09,14.37,18699
17-Nov-14,14.84,14.94,13.90,13.96,26976
14-Nov-14,15.25,15.25,14.94,15.15,14777
13-Nov-14,15.04,15.32,15.03,15.24,23700
12-Nov-14,15.40,15.44,15.01,15.20,42343
11-Nov-14,15.68,15.68,15.13,15.55,46942
10-Nov-14,15.23,15.77,14.92,15.74,45045
7-Nov-14,15.46,15.46,15.08,15.26,29350
6-Nov-14,15.28,15.50,15.00,15.47,41043
5-Nov-14,15.45,15.45,14.77,15.19,21829
4-Nov-14,15.01,15.60,15.01,15.06,28816
3-Nov-14,15.20,15.49,14.69,15.16,38888
31-Oct-14,15.49,15.78,14.83,15.50,46376
30-Oct-14,14.91,15.16,14.91,15.10,29252
29-Oct-14,15.20,15.20,14.86,15.02,20761
28-Oct-14,14.96,15.50,14.89,15.38,40674
27-Oct-14,14.64,15.12,14.51,14.92,13494
24-Oct-14,14.94,14.98,14.65,14.75,15619
23-Oct-14,15.39,15.52,14.85,14.89,41839
22-Oct-14,15.34,15.46,15.14,15.19,20004
21-Oct-14,16.09,17.28,15.01,15.25,50520
20-Oct-14,15.73,16.36,15.46,16.04,33863
17-Oct-14,16.31,16.47,15.37,15.88,44113
16-Oct-14,14.71,16.11,14.71,16.05,44318
15-Oct-14,14.36,15.00,14.06,14.96,49870
14-Oct-14,14.52,14.77,14.09,14.57,77151
13-Oct-14,14.37,15.00,14.37,14.72,37440
10-Oct-14,14.37,14.88,14.33,14.34,34802
9-Oct-14,14.92,14.99,14.31,14.54,23041
8-Oct-14,14.51,15.00,14.16,14.99,42136
7-Oct-14,14.68,15.06,14.30,14.50,33621
6-Oct-14,14.78,15.00,14.60,14.84,36492
3-Oct-14,14.20,15.00,13.75,14.79,67796
2-Oct-14,14.32,14.32,13.37,14.07,31535
1-Oct-14,13.75,14.23,13.52,13.61,50044
30-Sep-14,14.45,14.90,13.65,13.71,83831
29-Sep-14,14.26,14.54,13.93,14.51,28008
26-Sep-14,13.24,14.73,13.24,14.47,30279
25-Sep-14,13.60,14.00,13.12,13.21,29294
24-Sep-14,13.43,13.88,13.43,13.76,19445
23-Sep-14,13.03,13.68,12.67,13.08,35450
22-Sep-14,13.74,13.97,13.10,13.12,56341
19-Sep-14,14.47,14.76,13.58,13.79,115439
18-Sep-14,14.21,14.68,14.20,14.45,52113
17-Sep-14,14.10,14.51,14.03,14.14,26423
16-Sep-14,14.16,14.35,14.03,14.13,26498
15-Sep-14,14.65,15.35,13.94,14.22,78361
12-Sep-14,14.75,14.80,14.27,14.29,15954
11-Sep-14,14.76,15.00,14.52,14.79,26714
10-Sep-14,14.18,14.80,14.11,14.62,21508
9-Sep-14,14.95,14.95,14.17,14.22,15882
8-Sep-14,14.78,15.00,14.58,14.72,31815
5-Sep-14,14.53,14.80,14.48,14.68,9057
4-Sep-14,14.37,14.92,14.37,14.63,7520
3-Sep-14,14.99,15.20,14.25,14.31,30791
2-Sep-14,14.19,14.59,13.80,14.44,69742
29-Aug-14,14.30,14.44,13.90,14.22,51917
28-Aug-14,14.75,14.90,14.24,14.31,28281
27-Aug-14,15.10,15.31,14.67,14.83,34031
26-Aug-14,15.77,15.91,15.08,15.19,80094
25-Aug-14,15.61,16.26,15.61,15.90,28954
22-Aug-14,14.91,15.81,14.59,15.62,212140
21-Aug-14,15.51,15.55,14.52,14.97,69367
20-Aug-14,17.16,17.59,15.22,15.55,118626
19-Aug-14,18.09,18.09,16.59,17.29,73244
18-Aug-14,18.57,18.96,17.65,17.99,123372
15-Aug-14,18.51,19.77,18.02,18.38,62337
14-Aug-14,17.64,18.99,17.42,18.19,51910
13-Aug-14,15.98,17.98,15.98,17.69,62489
12-Aug-14,15.77,16.63,15.69,15.98,102195
11-Aug-14,15.36,16.00,15.36,15.88,54365
8-Aug-14,14.26,15.54,14.26,15.27,37785
7-Aug-14,16.22,16.22,14.10,14.33,14711
6-Aug-14,15.23,16.22,14.62,15.23,26495
5-Aug-14,15.80,16.46,14.78,15.34,68406
4-Aug-14,14.88,16.50,14.88,15.86,65010
1-Aug-14,14.55,14.92,14.00,14.78,42410
31-Jul-14,14.62,14.97,14.35,14.49,25755
30-Jul-14,13.96,14.86,13.90,14.79,55780
29-Jul-14,13.31,14.20,13.31,13.86,35769
28-Jul-14,13.71,14.56,13.26,13.34,26917
25-Jul-14,14.06,14.29,13.50,13.72,51951
24-Jul-14,14.28,14.56,14.12,14.17,49370
23-Jul-14,14.32,14.51,14.18,14.30,43213
22-Jul-14,14.22,14.50,14.17,14.33,71654
21-Jul-14,14.31,14.38,14.01,14.25,70565
18-Jul-14,14.17,14.68,14.12,14.40,131302
17-Jul-14,14.20,14.75,14.11,14.32,88138
16-Jul-14,15.15,15.20,14.04,14.31,198833
15-Jul-14,15.22,15.26,14.98,15.09,59869
14-Jul-14,15.36,15.36,14.62,15.27,65638
11-Jul-14,15.06,15.44,14.54,15.26,59476
10-Jul-14,15.71,15.71,14.79,15.13,53728
9-Jul-14,16.18,16.18,15.54,15.91,13974
8-Jul-14,16.82,17.00,16.08,16.16,63160
7-Jul-14,16.90,17.24,16.49,16.91,52696
3-Jul-14,17.18,17.18,16.76,16.95,18501
2-Jul-14,16.90,17.24,16.64,17.17,66050
1-Jul-14,16.66,17.14,16.19,16.97,96230
30-Jun-14,17.26,17.26,16.30,16.86,130449
27-Jun-14,17.18,18.01,16.45,17.15,2285233
26-Jun-14,16.84,17.61,16.70,17.39,52208
25-Jun-14,17.53,18.02,16.81,17.17,106913
24-Jun-14,18.81,18.81,17.63,17.79,89638
23-Jun-14,18.87,19.10,16.14,18.95,142692
20-Jun-14,18.61,19.60,17.99,19.26,201374
19-Jun-14,17.12,18.80,17.12,18.52,164596
18-Jun-14,16.85,19.32,16.76,18.28,203176
17-Jun-14,16.34,16.88,16.10,16.81,36224
16-Jun-14,16.93,17.11,16.23,16.73,75061
13-Jun-14,15.75,17.00,15.75,16.89,28735
12-Jun-14,16.85,16.85,16.60,16.76,44688
11-Jun-14,16.64,16.90,16.51,16.82,26992
10-Jun-14,16.56,16.80,15.67,16.79,23642
9-Jun-14,16.01,17.35,16.01,16.64,43699
6-Jun-14,16.58,16.89,16.00,16.31,29922
5-Jun-14,16.42,16.98,15.13,16.52,92300
4-Jun-14,15.15,16.65,14.86,16.37,78284
3-Jun-14,14.90,15.44,14.74,14.91,68950
2-Jun-14,15.15,15.23,14.95,14.99,52763
30-May-14,15.09,15.48,14.65,15.15,150555
29-May-14,15.06,15.45,14.77,15.00,67064
28-May-14,14.94,15.29,14.54,14.88,47178
27-May-14,15.00,15.19,14.84,14.98,67963
23-May-14,15.00,15.33,14.55,15.25,56623
22-May-14,14.93,15.14,14.92,15.01,40622
21-May-14,15.10,15.50,14.70,14.87,89980
20-May-14,15.51,15.60,14.76,15.03,34366
19-May-14,15.67,16.12,15.17,15.55,66726
16-May-14,15.90,16.04,15.78,15.81,54155
15-May-14,15.77,16.20,15.55,15.95,105100
14-May-14,15.39,15.90,15.05,15.77,40657
13-May-14,15.77,16.11,14.95,15.35,88169
12-May-14,15.87,16.33,15.54,15.80,57987
9-May-14,16.20,16.87,15.75,15.95,44691
8-May-14,15.21,16.46,15.18,16.27,40806
7-May-14,15.70,16.13,15.33,15.42,38207
6-May-14,15.73,15.93,15.18,15.75,37316
5-May-14,15.83,15.95,15.16,15.58,35683
2-May-14,16.41,16.60,15.65,16.08,59175
1-May-14,16.66,16.86,16.41,16.50,62160
30-Apr-14,16.48,16.93,16.42,16.70,24039
29-Apr-14,17.10,17.26,16.27,16.54,81323
28-Apr-14,16.27,17.36,16.01,16.95,116578
25-Apr-14,16.69,16.69,16.00,16.22,41326
24-Apr-14,16.34,16.91,15.92,16.31,39023
23-Apr-14,16.14,16.58,15.75,16.25,55496
22-Apr-14,15.50,16.10,15.46,15.77,65551
21-Apr-14,16.10,16.62,15.46,16.10,61335
17-Apr-14,17.29,17.29,15.71,16.15,43977
16-Apr-14,16.80,16.90,15.28,15.72,41637
15-Apr-14,16.85,16.92,15.78,16.21,44441
14-Apr-14,17.50,18.20,16.67,16.87,42677
11-Apr-14,17.15,18.00,16.89,17.49,46407
10-Apr-14,18.43,19.00,17.99,18.26,65512
9-Apr-14,16.64,18.61,16.64,18.36,50203
8-Apr-14,17.51,17.51,16.10,16.50,43410
7-Apr-14,17.12,17.89,15.95,17.49,53376
4-Apr-14,18.39,19.00,16.98,17.05,66173
3-Apr-14,18.95,18.99,17.71,18.42,43398
2-Apr-14,18.62,19.20,18.59,19.00,52949
1-Apr-14,18.27,19.00,16.11,19.00,39433
31-Mar-14,18.66,18.88,17.95,18.18,65273
28-Mar-14,18.30,19.00,18.29,18.59,17942
27-Mar-14,17.50,18.92,16.02,18.70,25027
26-Mar-14,18.81,18.99,17.70,17.92,51508
25-Mar-14,19.04,19.04,18.11,18.73,81669
24-Mar-14,18.43,19.14,17.36,18.98,43316
21-Mar-14,19.80,19.80,17.30,18.56,510355
20-Mar-14,19.31,20.00,19.31,19.78,59373
19-Mar-14,19.36,19.66,19.01,19.39,84916
18-Mar-14,18.26,19.49,18.06,19.40,158035
17-Mar-14,19.67,20.47,17.75,18.28,130170
14-Mar-14,20.24,20.50,19.32,20.00,73029
13-Mar-14,20.30,21.26,19.85,20.25,87001
12-Mar-14,20.29,20.97,19.26,20.25,100456
11-Mar-14,19.66,20.50,19.60,20.09,128805
10-Mar-14,19.50,19.78,18.75,19.59,83174
7-Mar-14,18.34,19.50,18.00,19.12,92661
6-Mar-14,17.99,18.58,17.60,18.30,91182
5-Mar-14,17.70,18.40,16.34,17.44,132337
4-Mar-14,16.93,18.19,16.92,17.60,70856
3-Mar-14,17.58,17.58,16.00,16.98,69611
28-Feb-14,16.39,17.37,15.90,16.23,40290
27-Feb-14,16.50,16.60,16.29,16.59,67429
26-Feb-14,16.85,16.90,16.38,16.49,81191
25-Feb-14,16.72,16.85,16.39,16.67,39522
24-Feb-14,16.29,16.91,16.29,16.77,57654
21-Feb-14,16.48,16.48,16.14,16.24,17078
20-Feb-14,16.85,16.85,16.25,16.30,42572
19-Feb-14,17.00,17.00,16.63,16.78,39147
18-Feb-14,16.66,17.00,16.50,16.88,33665
14-Feb-14,16.86,17.00,16.51,16.80,40258
13-Feb-14,16.87,17.00,16.79,16.99,41317
12-Feb-14,16.94,17.02,16.65,16.99,48400
11-Feb-14,16.60,17.00,16.51,16.77,110200
10-Feb-14,16.92,17.45,16.60,16.98,79774
7-Feb-14,17.83,17.83,15.80,16.80,60027
6-Feb-14,18.81,18.98,16.75,16.89,219522
5-Feb-14,19.75,19.75,18.00,18.46,57897
4-Feb-14,19.50,19.50,18.70,19.00,162556
3-Feb-14,19.50,20.00,18.80,20.00,126874
31-Jan-14,18.50,19.93,18.00,19.40,679615
30-Jan-14,18.90,19.00,18.90,19.00,1875
29-Jan-14,19.00,20.00,19.00,19.00,7800
28-Jan-14,18.75,19.50,18.75,19.00,81194
27-Jan-14,20.00,20.00,19.00,19.00,7900
24-Jan-14,19.80,19.80,19.80,19.80,2000
23-Jan-14,20.00,20.00,20.00,20.00,2510
22-Jan-14,20.00,20.00,20.00,20.00,7544
21-Jan-14,19.50,20.00,19.16,20.00,7456
17-Jan-14,18.35,19.00,18.35,19.00,5020
16-Jan-14,18.21,18.65,18.21,18.31,8668
15-Jan-14,18.80,19.00,18.00,18.20,105424
14-Jan-14,19.25,19.25,18.00,18.10,14800
13-Jan-14,18.40,18.50,18.20,18.20,5000
10-Jan-14,17.50,20.00,17.50,18.00,157091
9-Jan-14,17.50,17.75,17.10,17.50,159875
8-Jan-14,17.50,18.00,16.00,17.00,51088
7-Jan-14,16.00,17.00,15.00,15.00,59826
6-Jan-14,15.00,15.25,15.00,15.00,320981
3-Jan-14,20.00,20.00,13.00,15.00,61630
2-Jan-14,10.00,20.00,10.00,20.00,26100
27-Dec-13,10.00,10.00,10.00,10.00,2000
