﻿Date,Open,High,Low,Close,Volume
20-Jun-17,17.07,17.18,16.99,17.12,968929
19-Jun-17,17.11,17.20,17.01,17.08,1418886
16-Jun-17,16.79,17.08,16.79,17.05,2844857
15-Jun-17,16.70,16.92,16.68,16.92,722199
14-Jun-17,16.60,16.82,16.52,16.80,726880
13-Jun-17,16.53,16.67,16.50,16.66,434402
12-Jun-17,16.49,16.69,16.48,16.61,696838
9-Jun-17,16.44,16.65,16.44,16.57,894599
8-Jun-17,16.25,16.52,16.16,16.43,611792
7-Jun-17,16.36,16.37,16.19,16.25,507741
6-Jun-17,16.35,16.37,16.19,16.30,430031
5-Jun-17,16.40,16.43,16.26,16.30,554302
2-Jun-17,16.40,16.56,16.31,16.42,781046
1-Jun-17,16.18,16.35,16.07,16.34,997675
31-May-17,16.16,16.19,15.96,16.14,661791
30-May-17,16.18,16.21,16.07,16.12,572766
26-May-17,16.16,16.22,15.99,16.17,669963
25-May-17,16.16,16.25,16.11,16.21,774330
24-May-17,16.12,16.14,16.00,16.11,544512
23-May-17,15.98,16.12,15.90,16.07,596501
22-May-17,15.75,15.97,15.74,15.93,612240
19-May-17,15.66,15.78,15.63,15.73,1086603
18-May-17,15.68,15.75,15.54,15.66,1188266
17-May-17,15.64,15.70,15.55,15.66,722999
16-May-17,15.65,15.75,15.61,15.68,1082947
15-May-17,15.63,15.75,15.58,15.64,823605
12-May-17,15.67,15.68,15.57,15.60,725358
11-May-17,15.58,15.72,15.47,15.64,2743862
10-May-17,15.51,15.62,15.48,15.50,654404
9-May-17,15.85,15.86,15.44,15.52,1165409
8-May-17,16.09,16.14,15.80,15.82,1595390
5-May-17,15.90,16.11,15.80,16.05,1739909
4-May-17,15.98,16.01,15.75,15.90,779592
3-May-17,16.20,16.20,15.94,15.99,775149
2-May-17,16.45,16.45,16.12,16.17,790674
1-May-17,16.35,16.67,16.28,16.48,1055456
28-Apr-17,16.49,16.51,16.28,16.31,977302
27-Apr-17,16.57,16.66,16.41,16.51,1218851
26-Apr-17,16.24,16.55,16.22,16.45,1142352
25-Apr-17,16.18,16.33,16.16,16.25,750531
24-Apr-17,16.13,16.22,16.00,16.21,691144
21-Apr-17,15.97,16.12,15.94,16.04,582835
20-Apr-17,15.94,16.08,15.82,15.97,826651
19-Apr-17,15.95,16.00,15.91,15.96,519793
18-Apr-17,15.92,15.96,15.87,15.94,878700
17-Apr-17,15.80,15.95,15.80,15.91,632752
13-Apr-17,15.78,15.89,15.72,15.77,587052
12-Apr-17,15.83,15.83,15.70,15.76,410778
11-Apr-17,15.62,15.94,15.58,15.84,845969
10-Apr-17,15.50,15.69,15.44,15.66,785246
7-Apr-17,15.59,15.68,15.45,15.47,1202969
6-Apr-17,15.39,15.62,15.33,15.57,1044184
5-Apr-17,15.56,15.61,15.39,15.39,715831
4-Apr-17,15.35,15.58,15.35,15.53,678381
3-Apr-17,15.43,15.44,15.30,15.38,533751
31-Mar-17,15.44,15.44,15.34,15.42,772891
30-Mar-17,15.34,15.41,15.29,15.37,550634
29-Mar-17,15.03,15.42,15.03,15.33,1156886
28-Mar-17,14.94,15.09,14.92,15.04,1371280
27-Mar-17,14.84,14.99,14.84,14.94,1084344
24-Mar-17,15.11,15.17,14.90,14.90,889604
23-Mar-17,15.18,15.30,14.96,15.11,1213889
22-Mar-17,15.49,15.59,15.42,15.57,1552012
21-Mar-17,15.51,15.53,15.37,15.50,1088488
20-Mar-17,15.55,15.57,15.32,15.48,1057322
17-Mar-17,15.26,15.53,15.23,15.51,1728509
16-Mar-17,15.25,15.29,15.06,15.24,994472
15-Mar-17,14.85,15.29,14.85,15.24,820473
14-Mar-17,14.91,14.96,14.76,14.77,708413
13-Mar-17,15.00,15.12,14.89,14.90,435765
10-Mar-17,14.90,15.13,14.90,14.98,593555
9-Mar-17,14.86,15.00,14.72,14.77,666019
8-Mar-17,15.28,15.28,14.86,14.87,907421
7-Mar-17,15.29,15.41,15.25,15.29,507708
6-Mar-17,15.34,15.36,15.22,15.35,559821
3-Mar-17,15.32,15.35,15.14,15.32,723939
2-Mar-17,15.54,15.54,15.28,15.31,684183
1-Mar-17,15.55,15.66,15.41,15.53,1042067
28-Feb-17,15.31,15.55,15.24,15.55,1749925
27-Feb-17,15.29,15.39,15.24,15.28,1231169
24-Feb-17,15.29,15.36,15.12,15.31,1239322
23-Feb-17,15.49,15.84,15.49,15.57,1283626
22-Feb-17,15.23,15.67,15.17,15.49,937655
21-Feb-17,15.59,15.65,15.48,15.65,654644
17-Feb-17,15.64,15.70,15.44,15.52,610724
16-Feb-17,15.30,15.64,15.30,15.63,747343
15-Feb-17,15.40,15.43,15.25,15.34,659427
14-Feb-17,15.50,15.55,15.34,15.43,651776
13-Feb-17,15.40,15.53,15.40,15.53,537931
10-Feb-17,15.24,15.48,15.22,15.38,724861
9-Feb-17,15.00,15.25,14.98,15.21,775028
8-Feb-17,14.97,14.98,14.83,14.97,541421
7-Feb-17,15.07,15.14,14.89,14.97,776227
6-Feb-17,14.90,15.08,14.90,15.07,702746
3-Feb-17,14.85,15.00,14.82,14.89,831628
2-Feb-17,14.60,14.84,14.56,14.80,618551
1-Feb-17,14.58,14.83,14.53,14.60,830445
31-Jan-17,14.66,14.67,14.15,14.57,1628232
30-Jan-17,14.81,14.81,14.48,14.59,700649
27-Jan-17,14.89,14.89,14.74,14.82,568351
26-Jan-17,14.85,14.89,14.78,14.81,726370
25-Jan-17,14.77,14.88,14.72,14.81,544062
24-Jan-17,14.83,14.89,14.75,14.83,726852
23-Jan-17,14.82,14.90,14.80,14.82,553835
20-Jan-17,14.78,14.85,14.69,14.79,412328
19-Jan-17,14.83,14.85,14.72,14.78,454521
18-Jan-17,14.81,14.88,14.74,14.84,720045
17-Jan-17,14.92,14.92,14.81,14.82,710505
13-Jan-17,14.81,14.92,14.79,14.86,394679
12-Jan-17,14.86,14.90,14.74,14.81,679085
11-Jan-17,14.90,14.94,14.77,14.85,941643
10-Jan-17,14.83,14.94,14.76,14.89,1272052
9-Jan-17,15.01,15.02,14.80,14.81,954238
6-Jan-17,14.96,15.07,14.90,14.95,572734
5-Jan-17,14.86,15.01,14.76,15.00,659190
4-Jan-17,14.80,14.99,14.80,14.93,1149141
3-Jan-17,14.66,14.82,14.62,14.79,1809118
30-Dec-16,14.81,14.84,14.56,14.60,876834
29-Dec-16,14.50,14.86,14.50,14.81,1020958
28-Dec-16,14.58,14.65,14.46,14.51,708743
27-Dec-16,14.69,14.75,14.53,14.62,781299
23-Dec-16,14.76,14.76,14.53,14.69,735233
22-Dec-16,14.72,14.82,14.50,14.71,3733584
21-Dec-16,15.16,15.31,15.02,15.23,1664645
20-Dec-16,15.36,15.42,15.04,15.13,1507716
19-Dec-16,14.79,15.34,14.74,15.33,2087580
16-Dec-16,14.51,15.04,14.50,14.79,3959412
15-Dec-16,14.84,14.87,14.37,14.39,1893665
14-Dec-16,15.05,15.25,14.89,14.90,1067746
13-Dec-16,15.52,15.55,15.00,15.04,1719045
12-Dec-16,15.78,16.04,15.68,15.75,1682828
9-Dec-16,15.57,15.78,15.51,15.76,736377
8-Dec-16,15.59,15.68,15.44,15.61,1034147
7-Dec-16,15.24,15.65,15.23,15.62,1383412
6-Dec-16,14.91,15.23,14.85,15.23,1002322
5-Dec-16,14.49,15.01,14.49,14.86,1343463
2-Dec-16,14.55,14.72,14.44,14.46,695132
1-Dec-16,14.91,14.95,14.50,14.54,734777
30-Nov-16,15.12,15.15,14.78,14.90,799603
29-Nov-16,14.90,15.19,14.90,15.13,1215901
28-Nov-16,14.91,15.00,14.87,14.88,519458
25-Nov-16,14.79,14.90,14.77,14.85,256329
23-Nov-16,14.87,14.97,14.68,14.76,819007
22-Nov-16,15.02,15.05,14.88,14.95,830902
21-Nov-16,14.87,15.06,14.85,14.94,679069
18-Nov-16,14.73,14.88,14.66,14.84,494695
17-Nov-16,14.62,14.76,14.60,14.69,628113
16-Nov-16,14.65,14.72,14.53,14.60,602777
15-Nov-16,14.62,14.72,14.32,14.62,831334
14-Nov-16,14.67,14.79,14.64,14.68,963008
11-Nov-16,14.46,14.80,14.46,14.65,1046599
10-Nov-16,14.82,14.86,14.45,14.46,1056559
9-Nov-16,14.45,14.91,14.40,14.78,1328137
8-Nov-16,14.81,14.94,14.80,14.82,885183
7-Nov-16,14.58,15.04,14.50,14.88,1077719
4-Nov-16,14.77,14.88,14.64,14.74,733469
3-Nov-16,14.68,14.96,14.67,14.77,704374
2-Nov-16,14.72,14.80,14.64,14.71,1108317
1-Nov-16,14.89,14.95,14.64,14.75,1125187
31-Oct-16,14.92,14.98,14.81,14.93,855909
28-Oct-16,14.97,15.04,14.82,14.91,757518
27-Oct-16,15.16,15.16,14.90,14.94,698216
26-Oct-16,15.14,15.20,15.02,15.12,575607
25-Oct-16,14.97,15.19,14.97,15.17,436084
24-Oct-16,14.88,15.05,14.87,15.01,602762
21-Oct-16,14.67,14.87,14.66,14.80,586667
20-Oct-16,14.65,14.79,14.65,14.76,422383
19-Oct-16,14.68,14.79,14.59,14.68,534990
18-Oct-16,14.61,14.71,14.50,14.63,578038
17-Oct-16,14.58,14.63,14.52,14.53,665916
14-Oct-16,14.75,14.76,14.48,14.57,739341
13-Oct-16,14.53,14.79,14.52,14.72,483800
12-Oct-16,14.43,14.73,14.37,14.61,507836
11-Oct-16,14.45,14.56,14.36,14.45,431451
10-Oct-16,14.40,14.62,14.36,14.52,362337
7-Oct-16,14.39,14.48,14.24,14.39,698649
6-Oct-16,14.41,14.41,14.18,14.34,976668
5-Oct-16,14.55,14.65,14.39,14.47,840833
4-Oct-16,14.97,14.98,14.44,14.53,1202618
3-Oct-16,15.16,15.17,14.95,14.98,639986
30-Sep-16,15.18,15.32,15.11,15.23,533841
29-Sep-16,15.22,15.31,15.09,15.13,666646
28-Sep-16,15.38,15.38,15.14,15.26,645348
27-Sep-16,15.31,15.47,15.28,15.36,712148
26-Sep-16,15.40,15.68,15.29,15.29,1201107
23-Sep-16,15.61,15.75,15.38,15.43,1279289
22-Sep-16,15.84,16.00,15.81,15.99,1185465
21-Sep-16,15.68,15.78,15.45,15.74,859375
20-Sep-16,15.62,15.73,15.56,15.57,553230
19-Sep-16,15.44,15.63,15.37,15.52,607511
16-Sep-16,15.58,15.58,15.33,15.34,1496961
15-Sep-16,15.41,15.65,15.39,15.62,600043
14-Sep-16,15.32,15.53,15.28,15.37,560117
13-Sep-16,15.65,15.65,15.31,15.31,921857
12-Sep-16,15.34,15.74,15.19,15.69,973404
9-Sep-16,16.11,16.11,15.44,15.45,1286976
8-Sep-16,16.21,16.22,16.08,16.18,486880
7-Sep-16,16.08,16.28,16.08,16.24,679165
6-Sep-16,15.92,16.12,15.80,16.10,809265
2-Sep-16,15.71,15.94,15.70,15.93,632530
1-Sep-16,15.75,15.75,15.51,15.63,626112
31-Aug-16,15.69,15.77,15.56,15.74,853513
30-Aug-16,15.60,15.75,15.52,15.69,940885
29-Aug-16,15.42,15.61,15.42,15.55,539438
26-Aug-16,15.62,15.64,15.24,15.37,711835
25-Aug-16,15.51,15.63,15.49,15.58,558300
24-Aug-16,15.60,15.67,15.50,15.53,449269
23-Aug-16,15.49,15.68,15.34,15.63,832673
22-Aug-16,15.31,15.40,15.23,15.40,397711
19-Aug-16,15.32,15.49,15.17,15.32,490266
18-Aug-16,15.20,15.42,15.20,15.31,551319
17-Aug-16,15.24,15.25,15.06,15.20,503173
16-Aug-16,15.28,15.35,15.16,15.20,479051
15-Aug-16,15.29,15.42,15.28,15.34,478486
12-Aug-16,15.37,15.45,15.25,15.31,735272
11-Aug-16,15.54,15.54,15.33,15.35,668757
10-Aug-16,15.64,15.71,15.48,15.52,559892
9-Aug-16,15.57,15.74,15.57,15.64,797166
8-Aug-16,15.54,15.62,15.44,15.60,995691
5-Aug-16,14.99,15.54,14.91,15.49,2758469
4-Aug-16,14.80,14.90,14.64,14.90,789152
3-Aug-16,14.39,14.79,14.38,14.79,614381
2-Aug-16,14.42,14.50,14.34,14.42,792556
1-Aug-16,14.40,14.49,14.31,14.47,553596
29-Jul-16,14.38,14.46,14.28,14.40,531259
28-Jul-16,14.34,14.43,14.27,14.40,384799
27-Jul-16,14.38,14.42,14.18,14.35,564764
26-Jul-16,14.42,14.44,14.31,14.34,479882
25-Jul-16,14.35,14.39,14.30,14.37,460915
22-Jul-16,14.27,14.40,14.25,14.35,480088
21-Jul-16,14.32,14.36,14.27,14.32,448568
20-Jul-16,14.29,14.37,14.22,14.31,682188
19-Jul-16,14.18,14.29,14.13,14.29,497948
18-Jul-16,14.11,14.22,14.08,14.19,380820
15-Jul-16,14.10,14.13,13.98,14.12,376682
14-Jul-16,14.11,14.14,14.02,14.07,619285
13-Jul-16,13.95,14.09,13.89,14.08,947988
12-Jul-16,13.85,13.97,13.79,13.95,924132
11-Jul-16,13.63,13.87,13.59,13.84,489907
8-Jul-16,13.61,13.68,13.54,13.63,820156
7-Jul-16,13.69,13.71,13.44,13.51,635756
6-Jul-16,13.53,13.72,13.42,13.71,996923
5-Jul-16,13.66,13.73,13.54,13.54,573833
1-Jul-16,13.72,13.84,13.64,13.69,551831
30-Jun-16,13.54,13.69,13.47,13.69,1007908
29-Jun-16,13.58,13.60,13.46,13.55,1067503
28-Jun-16,13.39,13.57,13.33,13.44,1619776
27-Jun-16,13.69,13.72,13.24,13.25,1070648
24-Jun-16,13.51,13.88,13.47,13.76,1927756
23-Jun-16,13.90,13.92,13.77,13.85,2302384
22-Jun-16,14.42,14.44,14.16,14.19,950209
21-Jun-16,14.56,14.56,14.38,14.38,838094
20-Jun-16,14.53,14.56,14.43,14.48,1008973
17-Jun-16,14.29,14.52,14.29,14.41,2137199
16-Jun-16,14.32,14.39,14.18,14.33,742601
15-Jun-16,14.27,14.40,14.22,14.33,732882
14-Jun-16,14.32,14.40,14.21,14.27,710636
13-Jun-16,14.50,14.57,14.35,14.36,712063
10-Jun-16,14.57,14.63,14.48,14.56,667072
9-Jun-16,14.64,14.72,14.54,14.70,984101
8-Jun-16,14.58,14.70,14.55,14.69,800157
7-Jun-16,14.60,14.63,14.46,14.56,609967
6-Jun-16,14.63,14.65,14.50,14.56,838677
3-Jun-16,14.62,14.73,14.56,14.61,1015971
2-Jun-16,14.43,14.58,14.42,14.52,1178812
1-Jun-16,14.35,14.47,14.31,14.46,1896944
31-May-16,14.30,14.43,14.23,14.38,935188
27-May-16,14.41,14.44,14.25,14.26,782448
26-May-16,14.16,14.39,14.16,14.38,791272
25-May-16,14.18,14.20,14.12,14.16,778907
24-May-16,14.20,14.20,14.09,14.16,799682
23-May-16,14.20,14.25,14.07,14.10,1241199
20-May-16,14.07,14.13,13.95,14.09,851419
19-May-16,13.86,13.99,13.70,13.98,975641
18-May-16,14.24,14.27,13.81,13.99,1350741
17-May-16,14.17,14.29,13.93,14.02,1143676
16-May-16,13.95,14.23,13.86,14.22,1389970
13-May-16,13.87,14.02,13.79,13.95,928485
12-May-16,13.85,13.96,13.71,13.90,1617347
11-May-16,13.70,13.99,13.70,13.79,1553347
10-May-16,13.10,13.56,13.10,13.56,1416215
9-May-16,12.95,13.13,12.89,13.01,1292783
6-May-16,12.76,13.01,12.72,12.99,956617
5-May-16,12.70,12.89,12.68,12.80,873249
4-May-16,12.48,12.71,12.46,12.69,923212
3-May-16,12.71,12.75,12.43,12.54,893163
2-May-16,12.88,12.92,12.69,12.77,719586
29-Apr-16,12.80,12.88,12.68,12.85,937052
28-Apr-16,12.72,12.87,12.71,12.82,759687
27-Apr-16,12.68,12.84,12.64,12.83,933202
26-Apr-16,12.66,12.71,12.52,12.66,885036
25-Apr-16,12.59,12.67,12.54,12.64,1250141
22-Apr-16,12.52,12.65,12.52,12.60,1152037
21-Apr-16,12.60,12.67,12.53,12.54,1599484
20-Apr-16,12.50,12.68,12.43,12.55,1470753
19-Apr-16,12.42,12.59,12.41,12.49,736127
18-Apr-16,12.32,12.45,12.32,12.42,935345
15-Apr-16,12.38,12.46,12.32,12.39,737622
14-Apr-16,12.40,12.45,12.33,12.38,644289
13-Apr-16,12.29,12.39,12.20,12.38,837808
12-Apr-16,12.19,12.29,12.13,12.24,767585
11-Apr-16,12.06,12.26,12.04,12.19,1473215
8-Apr-16,12.21,12.30,12.05,12.11,1031288
7-Apr-16,12.08,12.19,12.02,12.11,778813
6-Apr-16,12.14,12.24,12.07,12.11,771753
5-Apr-16,11.96,12.17,11.95,12.16,691701
4-Apr-16,12.22,12.23,12.00,12.04,706339
1-Apr-16,12.11,12.25,11.98,12.23,832061
31-Mar-16,11.89,12.20,11.89,12.18,1820607
30-Mar-16,11.97,12.04,11.83,11.89,683983
29-Mar-16,11.76,11.93,11.60,11.89,790488
28-Mar-16,11.90,11.93,11.70,11.75,829727
24-Mar-16,11.63,11.87,11.53,11.85,1739017
23-Mar-16,12.17,12.21,11.69,11.69,1644936
22-Mar-16,12.50,12.64,12.46,12.61,1009743
21-Mar-16,12.51,12.67,12.50,12.57,1077912
18-Mar-16,12.55,12.63,12.47,12.52,2258856
17-Mar-16,12.32,12.62,12.27,12.48,1110199
16-Mar-16,12.13,12.34,12.07,12.34,1070942
15-Mar-16,12.21,12.23,12.02,12.09,788832
14-Mar-16,12.47,12.51,12.14,12.31,912061
11-Mar-16,12.38,12.60,12.23,12.56,1398139
10-Mar-16,12.22,12.26,12.02,12.21,718244
9-Mar-16,12.20,12.33,12.07,12.17,1344044
8-Mar-16,12.36,12.42,12.01,12.18,1877100
7-Mar-16,12.21,12.39,12.19,12.39,1346675
4-Mar-16,12.18,12.34,12.14,12.24,1354359
3-Mar-16,11.90,12.21,11.88,12.17,1947130
2-Mar-16,11.67,11.95,11.65,11.88,2320643
1-Mar-16,11.36,11.66,11.36,11.65,2777738
29-Feb-16,11.28,11.47,11.28,11.31,1233746
26-Feb-16,11.17,11.58,11.15,11.28,1233188
25-Feb-16,11.03,11.14,10.96,11.13,956238
24-Feb-16,10.80,11.02,10.53,10.97,1187105
23-Feb-16,10.64,11.09,10.63,10.88,1991402
22-Feb-16,10.44,10.58,10.41,10.49,1766076
19-Feb-16,10.37,10.42,10.21,10.35,1081371
18-Feb-16,10.42,10.49,10.30,10.39,709484
17-Feb-16,10.30,10.48,10.29,10.39,1771927
16-Feb-16,10.04,10.26,9.92,10.23,1689526
12-Feb-16,9.85,10.06,9.80,9.98,1558939
11-Feb-16,10.02,10.02,9.74,9.81,1837655
10-Feb-16,10.34,10.57,10.14,10.15,2118383
9-Feb-16,10.57,10.59,10.20,10.32,1560930
8-Feb-16,11.11,11.17,10.66,10.72,1633009
5-Feb-16,11.37,11.42,11.20,11.20,834832
4-Feb-16,11.27,11.46,11.23,11.38,632828
3-Feb-16,11.22,11.33,11.04,11.30,851035
2-Feb-16,11.20,11.23,11.01,11.16,634402
1-Feb-16,11.21,11.40,11.14,11.28,823231
29-Jan-16,11.00,11.33,10.98,11.32,1104079
28-Jan-16,10.96,11.17,10.89,10.94,637726
27-Jan-16,11.01,11.15,10.78,10.88,1053937
26-Jan-16,10.73,11.10,10.68,11.04,1080050
25-Jan-16,11.18,11.24,10.73,10.73,1084538
22-Jan-16,10.92,11.25,10.91,11.25,1470727
21-Jan-16,10.95,11.15,10.78,10.83,992661
20-Jan-16,11.12,11.15,10.38,10.94,2824694
19-Jan-16,11.46,11.46,11.08,11.24,2331178
15-Jan-16,11.56,11.63,11.05,11.44,2012116
14-Jan-16,11.77,11.87,11.45,11.78,1198186
13-Jan-16,12.17,12.19,11.66,11.75,1804166
12-Jan-16,12.42,12.44,12.05,12.17,1099965
11-Jan-16,12.44,12.50,12.33,12.35,1247803
8-Jan-16,12.62,12.65,12.37,12.42,927182
7-Jan-16,12.75,12.80,12.57,12.57,626985
6-Jan-16,12.74,12.95,12.74,12.90,881086
5-Jan-16,12.58,12.90,12.52,12.86,744140
4-Jan-16,12.31,12.59,12.23,12.55,1064058
31-Dec-15,12.41,12.57,12.37,12.39,1195458
30-Dec-15,12.57,12.63,12.41,12.42,790681
29-Dec-15,12.74,12.74,12.53,12.61,1072509
28-Dec-15,12.79,12.84,12.65,12.73,704716
24-Dec-15,12.88,12.92,12.83,12.85,463878
23-Dec-15,12.98,13.01,12.84,12.89,1141623
22-Dec-15,13.07,13.37,13.06,13.35,1466230
21-Dec-15,13.07,13.15,12.94,13.12,1201961
18-Dec-15,13.00,13.14,12.93,13.01,3581472
17-Dec-15,12.86,13.02,12.79,13.00,1208452
16-Dec-15,12.47,12.85,12.46,12.82,1027862
15-Dec-15,12.32,12.49,12.17,12.42,1276989
14-Dec-15,12.60,12.74,12.18,12.23,2313201
11-Dec-15,12.93,13.00,12.55,12.60,1893216
10-Dec-15,12.81,13.10,12.77,13.02,1119454
9-Dec-15,12.76,12.93,12.76,12.82,1333350
8-Dec-15,12.75,12.89,12.72,12.81,1689159
7-Dec-15,12.94,12.98,12.74,12.83,1587558
4-Dec-15,13.01,13.13,12.95,12.97,665199
3-Dec-15,13.08,13.18,12.94,12.99,1150337
2-Dec-15,13.31,13.32,13.01,13.12,1860197
1-Dec-15,13.45,13.50,13.23,13.31,1152884
30-Nov-15,13.43,13.47,13.34,13.42,972005
27-Nov-15,13.27,13.42,13.26,13.39,400395
25-Nov-15,13.28,13.32,13.14,13.30,755156
24-Nov-15,13.35,13.35,13.16,13.31,942524
23-Nov-15,13.35,13.47,13.30,13.40,1307862
20-Nov-15,13.39,13.41,13.28,13.36,1281826
19-Nov-15,13.27,13.41,13.25,13.33,1445363
18-Nov-15,13.08,13.28,13.01,13.28,2458211
17-Nov-15,12.97,13.13,12.92,13.05,1490118
16-Nov-15,12.84,12.98,12.80,12.97,1305845
13-Nov-15,12.78,12.94,12.76,12.86,1452721
12-Nov-15,12.92,12.99,12.81,12.81,1215025
11-Nov-15,12.92,13.07,12.86,12.95,1561567
10-Nov-15,12.48,12.91,12.48,12.87,1955121
9-Nov-15,12.49,12.58,12.37,12.51,1747540
6-Nov-15,12.25,12.55,12.12,12.51,1996627
5-Nov-15,12.48,12.53,12.17,12.35,1813749
4-Nov-15,12.23,12.58,12.22,12.54,2203598
3-Nov-15,12.22,12.27,12.14,12.23,1722771
2-Nov-15,12.04,12.26,12.03,12.26,1667596
30-Oct-15,12.00,12.07,11.95,12.05,1499863
29-Oct-15,12.09,12.14,11.96,12.03,944779
28-Oct-15,12.09,12.22,11.94,12.16,1755103
27-Oct-15,12.34,12.35,11.92,12.09,1869914
26-Oct-15,12.39,12.41,12.30,12.36,612089
23-Oct-15,12.44,12.48,12.30,12.39,609725
22-Oct-15,12.41,12.45,12.36,12.40,807682
21-Oct-15,12.46,12.52,12.38,12.38,498111
20-Oct-15,12.41,12.48,12.38,12.44,603100
19-Oct-15,12.50,12.54,12.42,12.43,935261
16-Oct-15,12.51,12.56,12.43,12.48,951109
15-Oct-15,12.48,12.58,12.28,12.48,1987980
14-Oct-15,12.57,12.66,12.43,12.45,806076
13-Oct-15,12.75,12.80,12.56,12.58,624472
12-Oct-15,12.79,12.88,12.77,12.78,537949
9-Oct-15,12.86,12.89,12.71,12.78,630324
8-Oct-15,12.84,12.92,12.80,12.87,807010
7-Oct-15,12.62,12.84,12.62,12.84,905557
6-Oct-15,12.61,12.74,12.53,12.62,1023937
5-Oct-15,12.30,12.61,12.29,12.61,1669851
2-Oct-15,12.08,12.31,12.05,12.31,1228480
1-Oct-15,12.23,12.36,12.15,12.15,1748805
30-Sep-15,12.36,12.38,12.02,12.24,3667887
29-Sep-15,12.43,12.50,12.32,12.32,2005096
28-Sep-15,12.92,12.92,12.39,12.46,2534276
25-Sep-15,13.12,13.15,12.98,12.99,3303577
24-Sep-15,13.26,13.29,13.07,13.08,2293740
23-Sep-15,13.64,13.74,13.52,13.70,1696012
22-Sep-15,13.61,13.66,13.55,13.59,1227865
21-Sep-15,13.59,13.73,13.56,13.69,1651418
18-Sep-15,13.50,13.66,13.46,13.56,2373145
17-Sep-15,13.31,13.71,13.24,13.61,1730470
16-Sep-15,13.34,13.46,13.31,13.31,1460790
15-Sep-15,13.46,13.48,13.32,13.36,1190463
14-Sep-15,13.50,13.53,13.38,13.45,907158
11-Sep-15,13.22,13.48,13.22,13.48,1007039
10-Sep-15,13.29,13.37,13.20,13.26,1642736
9-Sep-15,13.46,13.53,13.32,13.33,1050114
8-Sep-15,13.51,13.56,13.40,13.42,1492918
4-Sep-15,13.47,13.51,13.28,13.39,1334871
3-Sep-15,13.59,13.66,13.51,13.58,1324830
2-Sep-15,13.63,13.67,13.48,13.56,1823346
1-Sep-15,13.46,13.60,13.43,13.54,1726509
31-Aug-15,13.63,13.71,13.57,13.60,1212980
28-Aug-15,13.79,13.80,13.60,13.65,1509750
27-Aug-15,13.48,13.88,13.43,13.78,1467898
26-Aug-15,13.34,13.47,13.22,13.44,1710445
25-Aug-15,13.42,13.48,13.14,13.17,1981691
24-Aug-15,13.35,13.60,12.48,13.24,2850762
21-Aug-15,13.72,13.86,13.67,13.71,2682979
20-Aug-15,13.75,13.87,13.73,13.85,1263233
19-Aug-15,13.75,13.81,13.65,13.81,1538258
18-Aug-15,13.76,13.85,13.71,13.83,2119341
17-Aug-15,13.75,13.94,13.71,13.94,1044402
14-Aug-15,13.67,13.79,13.66,13.79,686307
13-Aug-15,13.78,13.82,13.67,13.69,687500
12-Aug-15,13.67,13.83,13.56,13.80,966026
11-Aug-15,13.65,13.77,13.57,13.72,1360637
10-Aug-15,13.92,13.93,13.78,13.83,1255106
7-Aug-15,14.05,14.08,13.88,13.90,883270
6-Aug-15,14.13,14.16,13.94,14.09,893041
5-Aug-15,14.25,14.25,14.02,14.10,1351672
4-Aug-15,14.35,14.40,14.20,14.24,588331
3-Aug-15,14.38,14.42,14.26,14.35,876123
31-Jul-15,14.36,14.49,14.33,14.41,882628
30-Jul-15,14.30,14.34,14.23,14.30,1008325
29-Jul-15,14.38,14.42,14.26,14.34,1184288
28-Jul-15,14.38,14.53,14.31,14.38,1259324
27-Jul-15,14.34,14.42,14.32,14.34,1355304
24-Jul-15,14.59,14.65,14.34,14.35,872648
23-Jul-15,14.78,14.78,14.55,14.61,1031769
22-Jul-15,14.84,14.89,14.75,14.79,494340
21-Jul-15,14.89,14.98,14.83,14.84,505150
20-Jul-15,14.96,14.99,14.79,14.91,745580
17-Jul-15,14.99,15.04,14.91,14.97,785230
16-Jul-15,15.02,15.14,14.95,15.00,1267819
15-Jul-15,14.91,15.01,14.81,15.01,1063234
14-Jul-15,14.91,14.98,14.87,14.92,1034330
13-Jul-15,14.85,14.92,14.79,14.90,1078514
10-Jul-15,14.75,14.89,14.68,14.82,824418
9-Jul-15,15.00,15.00,14.69,14.70,1639967
8-Jul-15,14.97,15.04,14.84,14.92,1194767
7-Jul-15,14.80,15.07,14.78,15.03,1896161
6-Jul-15,14.54,14.75,14.52,14.75,940226
2-Jul-15,14.60,14.73,14.57,14.60,1124758
1-Jul-15,14.35,14.58,14.14,14.55,1543625
30-Jun-15,14.53,14.61,14.32,14.32,2185002
29-Jun-15,14.73,14.80,14.47,14.48,1671533
26-Jun-15,15.00,15.03,14.73,14.76,2177883
25-Jun-15,15.22,15.24,15.03,15.03,1288634
24-Jun-15,15.44,15.44,15.21,15.22,1329960
23-Jun-15,15.90,15.93,15.80,15.87,2380743
22-Jun-15,15.96,16.04,15.87,15.91,1855940
19-Jun-15,15.81,15.98,15.71,15.93,2186813
18-Jun-15,15.65,15.86,15.65,15.80,1602356
17-Jun-15,15.48,15.66,15.42,15.64,852308
16-Jun-15,15.44,15.50,15.37,15.48,984371
15-Jun-15,15.57,15.60,15.41,15.45,685533
12-Jun-15,15.53,15.64,15.47,15.58,720889
11-Jun-15,15.35,15.57,15.33,15.53,1747610
10-Jun-15,15.26,15.35,15.23,15.30,961692
9-Jun-15,15.31,15.35,15.22,15.27,1113728
8-Jun-15,15.46,15.48,15.31,15.32,1205323
5-Jun-15,15.56,15.59,15.35,15.43,1351256
4-Jun-15,15.70,15.76,15.65,15.66,700751
3-Jun-15,15.87,15.88,15.69,15.74,1108802
2-Jun-15,15.94,15.94,15.85,15.90,745872
1-Jun-15,15.95,16.00,15.89,15.97,1221487
29-May-15,15.92,15.99,15.86,15.87,1955678
28-May-15,15.95,15.99,15.82,15.93,1690809
27-May-15,15.86,15.94,15.80,15.91,1073487
26-May-15,15.90,15.90,15.78,15.85,805519
22-May-15,15.94,15.99,15.86,15.90,634070
21-May-15,15.99,16.05,15.92,15.95,669317
20-May-15,16.07,16.12,15.98,15.98,947620
19-May-15,16.11,16.11,16.02,16.03,640234
18-May-15,16.10,16.13,16.04,16.11,1067935
15-May-15,16.03,16.11,15.94,16.10,1099397
14-May-15,15.99,16.06,15.96,15.99,1034319
13-May-15,15.99,16.00,15.88,15.92,868214
12-May-15,15.73,15.97,15.66,15.96,1391606
11-May-15,15.67,15.81,15.66,15.80,2333501
8-May-15,15.64,15.73,15.56,15.70,1153644
7-May-15,15.36,15.54,15.22,15.47,1996994
6-May-15,15.32,15.37,15.13,15.18,1227417
5-May-15,15.47,15.56,15.30,15.32,1159736
4-May-15,15.50,15.58,15.44,15.51,757320
1-May-15,15.39,15.51,15.38,15.45,789897
30-Apr-15,15.49,15.53,15.36,15.40,1060132
29-Apr-15,15.56,15.62,15.48,15.51,974289
28-Apr-15,15.72,15.75,15.60,15.63,1089295
27-Apr-15,15.77,15.83,15.69,15.69,804587
24-Apr-15,15.74,15.81,15.74,15.74,480084
23-Apr-15,15.74,15.83,15.72,15.74,1291416
22-Apr-15,15.77,15.83,15.72,15.73,500401
21-Apr-15,15.87,15.88,15.74,15.75,691871
20-Apr-15,15.82,15.89,15.77,15.84,639889
17-Apr-15,15.76,15.85,15.73,15.81,832226
16-Apr-15,15.76,15.86,15.70,15.81,376528
15-Apr-15,15.73,15.77,15.66,15.76,850899
14-Apr-15,15.70,15.74,15.66,15.71,701161
13-Apr-15,15.74,15.74,15.66,15.66,558806
10-Apr-15,15.77,15.78,15.68,15.73,752283
9-Apr-15,15.78,15.80,15.61,15.66,873038
8-Apr-15,15.74,15.84,15.65,15.81,692775
7-Apr-15,15.77,15.80,15.70,15.72,682459
6-Apr-15,15.70,15.80,15.70,15.77,1058677
2-Apr-15,15.69,15.78,15.65,15.69,1128467
1-Apr-15,15.53,15.72,15.50,15.69,1199771
31-Mar-15,15.51,15.58,15.49,15.53,1236974
30-Mar-15,15.47,15.58,15.42,15.53,1118745
27-Mar-15,15.41,15.54,15.37,15.43,1666701
26-Mar-15,15.50,15.65,15.40,15.44,1919863
25-Mar-15,16.14,16.21,15.98,15.99,1643811
24-Mar-15,16.09,16.20,16.01,16.14,1801599
23-Mar-15,16.09,16.19,16.07,16.09,1073052
20-Mar-15,16.00,16.11,15.95,16.08,2795794
19-Mar-15,15.92,16.00,15.82,15.94,928793
18-Mar-15,15.69,16.04,15.68,16.00,999496
17-Mar-15,15.61,15.74,15.58,15.70,811870
16-Mar-15,15.64,15.73,15.58,15.62,721525
13-Mar-15,15.61,15.61,15.46,15.57,686940
12-Mar-15,15.56,15.63,15.48,15.60,764462
11-Mar-15,15.57,15.61,15.38,15.47,1128552
10-Mar-15,15.54,15.63,15.45,15.55,879266
9-Mar-15,15.65,15.79,15.57,15.59,1061103
6-Mar-15,15.84,15.89,15.56,15.57,1352605
5-Mar-15,16.04,16.08,15.93,15.96,1091861
4-Mar-15,15.99,16.04,15.95,16.03,1496813
3-Mar-15,15.92,16.11,15.87,16.00,1890948
2-Mar-15,16.02,16.13,15.91,15.95,1110915
27-Feb-15,15.91,16.00,15.84,15.97,1405059
26-Feb-15,15.94,15.99,15.87,15.92,807503
25-Feb-15,15.82,15.98,15.81,15.94,1068938
24-Feb-15,15.48,15.93,15.43,15.87,3133727
23-Feb-15,15.41,15.44,15.26,15.42,781869
20-Feb-15,15.43,15.47,15.32,15.40,845514
19-Feb-15,15.41,15.50,15.32,15.45,957326
18-Feb-15,15.38,15.44,15.25,15.43,1258312
17-Feb-15,15.27,15.47,15.27,15.37,775627
13-Feb-15,15.35,15.38,15.25,15.33,952759
12-Feb-15,15.25,15.43,15.21,15.32,668264
11-Feb-15,15.22,15.29,15.16,15.20,683896
10-Feb-15,15.30,15.30,15.14,15.22,819261
9-Feb-15,15.21,15.37,15.21,15.25,953426
6-Feb-15,15.33,15.33,15.18,15.24,1165005
5-Feb-15,15.26,15.36,15.22,15.35,839090
4-Feb-15,15.42,15.43,15.22,15.25,1129452
3-Feb-15,15.29,15.53,15.20,15.48,1031619
2-Feb-15,15.30,15.44,15.13,15.31,1770355
30-Jan-15,15.47,15.53,15.31,15.34,1272471
29-Jan-15,15.60,15.60,15.34,15.56,1127715
28-Jan-15,15.65,15.68,15.57,15.61,1292831
27-Jan-15,15.61,15.67,15.54,15.64,1578058
26-Jan-15,15.45,15.69,15.39,15.68,757396
23-Jan-15,15.60,15.63,15.45,15.48,537119
22-Jan-15,15.32,15.61,15.30,15.61,1189237
21-Jan-15,15.14,15.27,15.14,15.25,976931
20-Jan-15,15.45,15.47,15.10,15.17,1120304
16-Jan-15,15.29,15.44,15.20,15.44,1348964
15-Jan-15,15.38,15.45,15.26,15.29,1251037
14-Jan-15,15.48,15.53,15.23,15.37,1335741
13-Jan-15,15.49,15.59,15.42,15.55,2618590
12-Jan-15,15.42,15.52,15.28,15.49,1119444
9-Jan-15,15.58,15.60,15.36,15.42,1003083
8-Jan-15,15.66,15.69,15.54,15.58,759528
7-Jan-15,15.64,15.70,15.54,15.64,938758
6-Jan-15,15.69,15.74,15.55,15.60,1704766
5-Jan-15,15.58,15.71,15.53,15.64,820725
2-Jan-15,15.50,15.68,15.35,15.66,907619
31-Dec-14,15.70,15.80,15.42,15.46,1206264
30-Dec-14,15.74,15.81,15.56,15.66,1175521
29-Dec-14,15.62,15.92,15.62,15.76,957231
26-Dec-14,15.57,15.67,15.54,15.63,741018
24-Dec-14,15.73,15.80,15.52,15.52,908724
23-Dec-14,16.33,16.38,16.11,16.14,1432027
22-Dec-14,16.31,16.42,16.23,16.33,1615660
19-Dec-14,15.96,16.34,15.95,16.30,3136037
18-Dec-14,15.75,15.97,15.70,15.97,1661204
17-Dec-14,15.35,15.69,15.19,15.69,2365628
16-Dec-14,15.51,15.55,15.31,15.31,1602718
15-Dec-14,15.75,15.81,15.42,15.49,1724444
12-Dec-14,15.87,15.91,15.71,15.74,1321046
11-Dec-14,15.85,15.95,15.80,15.91,1431448
10-Dec-14,16.15,16.16,15.82,15.86,1295639
9-Dec-14,15.77,16.16,15.71,16.15,1433812
8-Dec-14,16.15,16.24,15.80,15.82,1233427
5-Dec-14,16.39,16.44,16.14,16.21,1144961
4-Dec-14,16.44,16.54,16.39,16.44,1114174
3-Dec-14,16.44,16.50,16.40,16.48,724574
2-Dec-14,16.40,16.49,16.31,16.43,1090288
1-Dec-14,16.53,16.58,16.40,16.41,820420
28-Nov-14,16.54,16.61,16.44,16.53,493200
26-Nov-14,16.50,16.50,16.38,16.50,933336
25-Nov-14,16.42,16.42,16.32,16.41,795514
24-Nov-14,16.18,16.39,16.18,16.36,1770091
21-Nov-14,16.37,16.39,16.10,16.18,1498657
20-Nov-14,16.20,16.28,16.11,16.26,853039
19-Nov-14,16.28,16.31,16.14,16.18,1292975
18-Nov-14,16.38,16.45,16.31,16.31,645712
17-Nov-14,16.27,16.38,16.25,16.30,999714
14-Nov-14,16.25,16.38,16.20,16.29,740305
13-Nov-14,16.31,16.37,16.22,16.26,819932
12-Nov-14,16.09,16.24,16.03,16.22,1117412
11-Nov-14,16.25,16.29,16.09,16.12,1029752
10-Nov-14,16.25,16.30,16.14,16.26,993597
7-Nov-14,16.10,16.28,16.03,16.26,1293380
6-Nov-14,16.10,16.20,16.02,16.10,1394696
5-Nov-14,16.24,16.33,16.01,16.20,2164985
4-Nov-14,16.56,16.58,16.40,16.51,2134878
3-Nov-14,16.54,16.64,16.51,16.59,998708
31-Oct-14,16.55,16.59,16.45,16.54,887834
30-Oct-14,16.37,16.54,16.34,16.49,918472
29-Oct-14,16.65,16.65,16.30,16.37,1125619
28-Oct-14,16.51,16.66,16.42,16.66,1208008
27-Oct-14,16.41,16.49,16.32,16.48,814159
24-Oct-14,16.39,16.46,16.35,16.42,1061775
23-Oct-14,16.50,16.51,16.38,16.41,1798230
22-Oct-14,16.53,16.61,16.40,16.41,1320289
21-Oct-14,16.46,16.59,16.42,16.51,1485100
20-Oct-14,16.28,16.47,16.27,16.46,1466741
17-Oct-14,16.35,16.41,16.26,16.32,1903061
16-Oct-14,16.14,16.35,16.10,16.28,2421226
15-Oct-14,16.10,16.31,15.94,16.28,2528933
14-Oct-14,16.10,16.21,16.00,16.12,1384288
13-Oct-14,15.93,16.24,15.93,16.07,1361346
10-Oct-14,15.94,16.12,15.90,15.91,1366005
9-Oct-14,16.00,16.17,15.91,15.98,1774795
8-Oct-14,15.73,16.01,15.68,16.00,1332570
7-Oct-14,15.68,15.78,15.66,15.71,1779771
6-Oct-14,15.69,15.82,15.69,15.73,1435191
3-Oct-14,15.87,15.87,15.68,15.70,1736348
2-Oct-14,15.84,15.90,15.65,15.77,1760768
1-Oct-14,15.72,15.93,15.72,15.88,2115901
30-Sep-14,16.01,16.04,15.72,15.72,2062047
29-Sep-14,16.06,16.13,15.91,16.01,1772120
26-Sep-14,16.32,16.32,15.85,16.14,2000379
25-Sep-14,16.08,16.14,15.97,16.03,1666873
24-Sep-14,16.22,16.24,16.05,16.08,2002854
23-Sep-14,16.73,16.79,16.64,16.68,1480490
22-Sep-14,16.90,16.94,16.71,16.71,1100834
19-Sep-14,16.90,16.98,16.82,16.91,1721705
18-Sep-14,16.98,17.06,16.81,16.85,911589
17-Sep-14,17.02,17.13,16.94,16.96,951921
16-Sep-14,16.91,16.99,16.69,16.94,1037025
15-Sep-14,17.01,17.03,16.71,16.88,1834393
12-Sep-14,17.39,17.41,17.01,17.01,1571858
11-Sep-14,17.20,17.45,17.20,17.44,1682945
10-Sep-14,17.23,17.26,17.11,17.19,808921
9-Sep-14,17.40,17.45,17.22,17.28,712519
8-Sep-14,17.44,17.46,17.33,17.40,568299
5-Sep-14,17.24,17.40,17.20,17.39,651797
4-Sep-14,17.25,17.30,17.12,17.20,820427
3-Sep-14,17.35,17.36,17.27,17.29,765404
2-Sep-14,17.62,17.64,17.16,17.28,2190240
29-Aug-14,17.52,17.64,17.44,17.62,531624
28-Aug-14,17.41,17.56,17.40,17.51,705956
27-Aug-14,17.42,17.46,17.35,17.45,597116
26-Aug-14,17.40,17.46,17.35,17.42,555882
25-Aug-14,17.33,17.41,17.31,17.41,611586
22-Aug-14,17.38,17.45,17.29,17.31,510085
21-Aug-14,17.33,17.46,17.31,17.39,660129
20-Aug-14,17.28,17.37,17.22,17.32,531111
19-Aug-14,17.39,17.42,17.29,17.32,505647
18-Aug-14,17.41,17.44,17.31,17.37,783506
15-Aug-14,17.33,17.43,17.27,17.35,726305
14-Aug-14,17.30,17.34,17.26,17.27,467344
13-Aug-14,17.30,17.36,17.27,17.30,532815
12-Aug-14,17.32,17.44,17.25,17.28,703300
11-Aug-14,17.29,17.39,17.27,17.33,703027
8-Aug-14,17.15,17.25,17.15,17.21,622035
7-Aug-14,17.21,17.37,17.14,17.15,593168
6-Aug-14,17.00,17.22,17.00,17.16,941930
5-Aug-14,17.07,17.18,16.99,17.02,612707
4-Aug-14,17.04,17.11,17.03,17.07,960926
1-Aug-14,16.99,17.14,16.95,17.02,768473
31-Jul-14,17.08,17.20,16.98,16.98,1259462
30-Jul-14,17.31,17.38,17.00,17.11,918445
29-Jul-14,17.33,17.38,17.24,17.24,900312
28-Jul-14,17.28,17.40,17.26,17.30,671667
25-Jul-14,17.22,17.29,17.17,17.24,571116
24-Jul-14,17.37,17.41,17.22,17.26,970298
23-Jul-14,17.29,17.42,17.23,17.37,566906
22-Jul-14,17.26,17.33,17.24,17.28,654974
21-Jul-14,17.18,17.23,17.11,17.19,479220
18-Jul-14,17.12,17.26,17.11,17.18,799323
17-Jul-14,17.20,17.24,17.13,17.15,771791
16-Jul-14,17.24,17.29,17.13,17.22,741636
15-Jul-14,17.30,17.33,17.17,17.24,624374
14-Jul-14,17.26,17.31,17.18,17.26,774139
11-Jul-14,17.24,17.34,17.17,17.20,754627
10-Jul-14,17.04,17.29,17.00,17.24,1114608
9-Jul-14,17.07,17.08,16.90,17.07,766849
8-Jul-14,16.92,17.04,16.87,17.02,1634001
7-Jul-14,17.11,17.11,16.91,16.91,1602842
3-Jul-14,17.23,17.23,16.91,17.11,1231546
2-Jul-14,17.29,17.29,17.09,17.28,1219632
1-Jul-14,17.35,17.40,17.31,17.33,1161317
30-Jun-14,17.36,17.40,17.27,17.36,1057853
27-Jun-14,17.28,17.39,17.21,17.38,1381249
26-Jun-14,17.19,17.35,17.15,17.32,789615
25-Jun-14,17.23,17.25,17.11,17.18,1474985
24-Jun-14,17.80,17.83,17.66,17.67,2237712
23-Jun-14,17.55,17.79,17.55,17.74,1422241
20-Jun-14,17.68,17.71,17.54,17.55,2925705
19-Jun-14,17.73,17.80,17.61,17.65,818854
18-Jun-14,17.70,17.73,17.55,17.71,792155
17-Jun-14,17.77,17.83,17.63,17.67,989530
16-Jun-14,17.83,17.89,17.76,17.83,829830
13-Jun-14,17.80,17.86,17.66,17.84,771014
12-Jun-14,17.76,17.80,17.60,17.79,850627
11-Jun-14,17.87,17.90,17.70,17.75,742788
10-Jun-14,17.95,17.98,17.86,17.90,867592
9-Jun-14,17.93,18.00,17.91,17.97,1066575
6-Jun-14,17.82,17.97,17.79,17.96,1043436
5-Jun-14,17.54,17.79,17.51,17.79,821628
4-Jun-14,17.49,17.58,17.30,17.53,764836
3-Jun-14,17.60,17.61,17.45,17.49,785244
2-Jun-14,17.77,17.85,17.60,17.61,892711
30-May-14,17.63,17.77,17.56,17.76,895206
29-May-14,17.66,17.74,17.61,17.61,611577
28-May-14,17.73,17.75,17.60,17.63,1134501
27-May-14,17.67,17.82,17.65,17.69,1163813
23-May-14,17.46,17.65,17.39,17.60,1071920
22-May-14,17.27,17.49,17.25,17.44,1241664
21-May-14,17.21,17.30,17.18,17.27,895784
20-May-14,17.19,17.25,17.01,17.20,1289886
19-May-14,16.97,17.22,16.97,17.22,1433470
16-May-14,16.88,16.97,16.79,16.94,1015335
15-May-14,16.93,17.02,16.80,16.91,1329767
14-May-14,16.84,17.03,16.80,16.96,1191613
13-May-14,16.87,16.95,16.80,16.82,1122967
12-May-14,17.00,17.04,16.85,16.85,800124
9-May-14,16.93,17.09,16.88,16.97,598800
8-May-14,17.02,17.05,16.83,16.90,1341114
7-May-14,16.77,17.11,16.77,17.10,1515170
6-May-14,16.80,16.92,16.76,16.82,1113915
5-May-14,16.67,16.78,16.63,16.78,957693
2-May-14,16.65,16.79,16.56,16.77,1536723
1-May-14,16.70,16.80,16.54,16.71,1166381
30-Apr-14,16.48,16.72,16.46,16.67,796588
29-Apr-14,16.59,16.68,16.43,16.46,1205304
28-Apr-14,16.71,16.77,16.53,16.57,1473214
25-Apr-14,16.60,16.80,16.53,16.60,1594023
24-Apr-14,16.81,16.89,16.55,16.57,1539038
23-Apr-14,16.76,16.90,16.71,16.80,1025471
22-Apr-14,16.65,16.80,16.65,16.72,732744
21-Apr-14,16.56,16.69,16.55,16.67,447284
17-Apr-14,16.57,16.67,16.47,16.58,729496
16-Apr-14,16.65,16.67,16.54,16.57,765388
15-Apr-14,16.62,16.73,16.60,16.65,1478182
14-Apr-14,16.66,16.78,16.52,16.63,1181785
11-Apr-14,16.55,16.72,16.54,16.55,938291
10-Apr-14,16.57,16.80,16.57,16.62,1315085
9-Apr-14,16.62,16.63,16.49,16.56,1237810
8-Apr-14,16.52,16.71,16.51,16.61,1320024
7-Apr-14,16.42,16.70,16.41,16.54,1430749
4-Apr-14,16.51,16.65,16.42,16.43,1658347
3-Apr-14,16.53,16.57,16.42,16.51,1020688
2-Apr-14,16.50,16.64,16.45,16.58,784849
1-Apr-14,16.45,16.56,16.36,16.54,978472
31-Mar-14,16.39,16.65,16.39,16.47,1472459
28-Mar-14,16.28,16.44,16.26,16.30,1724036
27-Mar-14,16.34,16.48,16.15,16.26,1537815
26-Mar-14,17.02,17.14,16.84,16.84,1673827
25-Mar-14,17.12,17.23,16.87,16.92,1533746
24-Mar-14,17.33,17.33,17.01,17.12,1313399
21-Mar-14,16.93,17.35,16.93,17.34,2949833
20-Mar-14,16.90,16.97,16.72,16.87,1280812
19-Mar-14,17.22,17.25,16.79,16.84,1001207
18-Mar-14,17.04,17.19,16.94,17.15,999528
17-Mar-14,17.19,17.20,17.02,17.03,924876
14-Mar-14,17.22,17.46,17.10,17.17,972050
13-Mar-14,17.14,17.32,17.11,17.21,1502406
12-Mar-14,16.75,17.15,16.73,17.12,1276221
11-Mar-14,16.82,16.90,16.64,16.78,1087859
10-Mar-14,16.76,16.87,16.71,16.81,1269484
7-Mar-14,17.18,17.18,16.67,16.72,1341088
6-Mar-14,17.23,17.34,17.16,17.17,959506
5-Mar-14,17.22,17.31,17.16,17.25,916840
4-Mar-14,17.20,17.28,17.02,17.27,2874125
3-Mar-14,16.79,17.15,16.79,17.10,1536627
28-Feb-14,16.80,16.91,16.64,16.83,2404909
27-Feb-14,16.83,16.84,16.57,16.76,1150737
26-Feb-14,16.75,16.88,16.70,16.80,1325152
25-Feb-14,16.66,16.74,16.54,16.70,1456794
24-Feb-14,16.61,16.75,16.56,16.60,1531110
21-Feb-14,16.42,16.56,16.34,16.39,1298175
20-Feb-14,16.59,16.70,16.21,16.38,1005472
19-Feb-14,16.71,16.82,16.44,16.52,1345594
18-Feb-14,16.32,16.72,16.21,16.68,1514292
14-Feb-14,16.44,16.47,16.31,16.33,789598
13-Feb-14,16.11,16.48,16.08,16.44,1641757
12-Feb-14,16.04,16.29,16.03,16.10,1696094
11-Feb-14,15.85,16.08,15.85,16.05,1471938
10-Feb-14,15.82,15.94,15.77,15.86,1079959
7-Feb-14,15.84,16.02,15.79,15.81,1137734
6-Feb-14,15.87,16.03,15.73,15.76,941617
5-Feb-14,15.64,15.87,15.56,15.85,1203601
4-Feb-14,15.60,15.72,15.50,15.64,1167527
3-Feb-14,15.73,15.82,15.55,15.61,1280919
31-Jan-14,15.41,15.75,15.36,15.71,1032995
30-Jan-14,15.52,15.57,15.42,15.56,907873
29-Jan-14,15.57,15.64,15.34,15.46,1371407
28-Jan-14,15.64,15.71,15.53,15.60,965856
27-Jan-14,15.67,15.80,15.48,15.56,1035257
24-Jan-14,15.83,15.85,15.62,15.72,1247667
23-Jan-14,15.59,15.96,15.57,15.79,1742992
22-Jan-14,15.49,15.60,15.48,15.55,966266
21-Jan-14,15.27,15.50,15.26,15.49,1171084
17-Jan-14,15.24,15.25,15.17,15.23,574638
16-Jan-14,15.14,15.26,15.08,15.23,1102988
15-Jan-14,15.08,15.22,15.08,15.13,734586
14-Jan-14,15.21,15.27,15.10,15.11,784060
13-Jan-14,15.29,15.40,15.17,15.18,1619330
10-Jan-14,15.19,15.35,15.17,15.31,1094615
9-Jan-14,15.22,15.23,15.00,15.11,1192285
8-Jan-14,15.09,15.21,15.01,15.21,1289049
7-Jan-14,15.03,15.17,14.97,15.14,1161993
6-Jan-14,14.94,15.14,14.86,15.02,1176243
3-Jan-14,14.86,14.92,14.80,14.87,962354
2-Jan-14,14.69,14.88,14.64,14.86,1163625
31-Dec-13,14.56,14.74,14.55,14.68,1990209
30-Dec-13,14.75,14.76,14.54,14.58,2262435
27-Dec-13,14.67,14.81,14.53,14.74,1799613
26-Dec-13,14.79,14.87,14.71,14.71,1801346
24-Dec-13,14.57,14.86,14.56,14.79,1520329
23-Dec-13,15.29,15.38,15.10,15.10,2426453
20-Dec-13,15.05,15.24,15.00,15.20,2082572
19-Dec-13,15.24,15.30,14.97,14.99,1591020
18-Dec-13,15.15,15.46,15.00,15.21,2812675
17-Dec-13,14.93,15.18,14.89,15.09,1905728
16-Dec-13,14.92,15.08,14.84,14.88,1444674
13-Dec-13,14.95,15.08,14.88,14.91,1177819
12-Dec-13,14.86,14.97,14.75,14.92,1265762
11-Dec-13,15.03,15.07,14.81,14.88,1636994
10-Dec-13,14.86,15.25,14.86,15.03,2055671
9-Dec-13,14.62,14.85,14.60,14.83,2085840
6-Dec-13,14.56,14.68,14.43,14.57,1778770
5-Dec-13,14.56,14.63,14.41,14.50,1644532
4-Dec-13,14.67,14.75,14.54,14.64,1415110
3-Dec-13,14.85,14.98,14.70,14.82,2351235
2-Dec-13,15.05,15.07,14.77,14.79,1758136
29-Nov-13,15.10,15.22,15.02,15.10,687988
27-Nov-13,14.92,15.09,14.82,15.07,1398941
26-Nov-13,15.08,15.09,14.92,14.93,1434482
25-Nov-13,14.91,15.11,14.88,15.06,2491570
22-Nov-13,15.02,15.02,14.77,14.94,1585613
21-Nov-13,15.08,15.16,14.92,14.99,1550706
20-Nov-13,15.00,15.11,14.91,15.08,1389423
19-Nov-13,15.09,15.15,14.92,14.99,1260180
18-Nov-13,15.24,15.30,15.05,15.06,1214062
15-Nov-13,15.16,15.29,15.06,15.21,1190801
14-Nov-13,15.02,15.37,15.02,15.20,1178405
13-Nov-13,14.65,15.05,14.65,15.00,1185207
12-Nov-13,14.50,14.72,14.41,14.70,1666185
11-Nov-13,14.71,14.77,14.44,14.59,1834223
8-Nov-13,15.08,15.09,14.62,14.78,2349218
7-Nov-13,15.21,15.37,15.17,15.24,1318100
6-Nov-13,15.09,15.28,15.06,15.24,1719871
5-Nov-13,15.23,15.30,15.00,15.04,1867394
4-Nov-13,15.43,15.45,15.21,15.25,1402412
1-Nov-13,15.42,15.51,15.22,15.43,1493444
31-Oct-13,15.15,15.51,15.04,15.45,1811447
30-Oct-13,15.08,15.29,15.02,15.11,1630293
29-Oct-13,16.07,16.07,15.02,15.08,4723457
28-Oct-13,16.46,16.50,16.31,16.42,1135505
25-Oct-13,16.38,16.60,16.29,16.47,1096536
24-Oct-13,16.40,16.45,16.28,16.33,939620
23-Oct-13,16.25,16.45,16.12,16.45,1923582
22-Oct-13,15.82,16.26,15.81,16.26,1528127
21-Oct-13,15.90,15.91,15.64,15.69,1010670
18-Oct-13,15.83,15.92,15.62,15.90,1158126
17-Oct-13,15.25,15.74,15.25,15.71,1512020
16-Oct-13,15.09,15.23,14.84,15.19,1412724
15-Oct-13,15.20,15.29,15.03,15.07,824990
14-Oct-13,15.33,15.38,15.19,15.24,848032
11-Oct-13,15.33,15.38,15.21,15.37,858652
10-Oct-13,15.38,15.38,15.22,15.30,950814
9-Oct-13,15.18,15.30,15.14,15.22,1197503
8-Oct-13,15.35,15.40,15.13,15.13,1137988
7-Oct-13,15.26,15.42,15.21,15.40,1004920
4-Oct-13,15.30,15.42,15.28,15.35,946291
3-Oct-13,15.32,15.43,15.24,15.34,1383204
2-Oct-13,15.24,15.46,15.17,15.41,1793271
1-Oct-13,15.35,15.51,15.17,15.51,1114920
30-Sep-13,15.42,15.57,15.29,15.39,851622
27-Sep-13,15.54,15.67,15.47,15.51,827612
26-Sep-13,15.59,15.69,15.50,15.59,973678
25-Sep-13,15.65,15.83,15.58,15.63,1052081
24-Sep-13,15.92,16.00,15.60,15.67,2409194
23-Sep-13,16.15,16.43,16.10,16.41,2231127
20-Sep-13,16.29,16.30,15.95,16.20,2060546
19-Sep-13,16.71,16.76,16.16,16.26,2266579
18-Sep-13,16.00,16.62,15.92,16.62,2585484
17-Sep-13,15.83,16.15,15.80,16.01,1670945
16-Sep-13,16.06,16.25,15.85,16.01,1515034
13-Sep-13,15.71,15.98,15.71,15.85,1181279
12-Sep-13,15.61,15.88,15.60,15.71,1164148
11-Sep-13,15.44,15.60,15.26,15.59,1161395
10-Sep-13,15.70,15.71,15.37,15.42,1249312
9-Sep-13,15.52,15.70,15.50,15.69,933450
6-Sep-13,15.45,15.55,15.37,15.42,669436
5-Sep-13,15.34,15.38,15.20,15.30,701801
4-Sep-13,15.25,15.53,15.20,15.35,857019
3-Sep-13,15.37,15.37,15.02,15.25,960004
30-Aug-13,15.46,15.70,15.30,15.31,926529
29-Aug-13,15.25,15.52,15.18,15.51,938219
28-Aug-13,15.59,15.69,15.13,15.24,1666770
27-Aug-13,15.22,15.65,15.18,15.59,1549853
26-Aug-13,15.48,15.57,15.23,15.29,1091033
23-Aug-13,14.87,15.48,14.83,15.45,1361173
22-Aug-13,14.78,14.87,14.70,14.82,1310790
21-Aug-13,14.70,14.96,14.59,14.75,1082986
20-Aug-13,14.45,14.89,14.45,14.77,2358770
19-Aug-13,14.92,15.00,14.40,14.44,2876778
16-Aug-13,15.34,15.41,14.87,14.90,1628341
15-Aug-13,15.37,15.44,15.18,15.32,1959588
14-Aug-13,15.42,15.70,15.31,15.67,1279292
13-Aug-13,15.84,15.87,15.33,15.48,1950190
12-Aug-13,15.73,15.99,15.72,15.88,1136515
9-Aug-13,15.73,15.86,15.59,15.73,1403315
8-Aug-13,15.50,15.75,15.47,15.74,1356289
7-Aug-13,15.49,15.63,15.34,15.46,1057108
6-Aug-13,15.28,15.49,15.13,15.48,1733373
5-Aug-13,15.82,15.84,15.35,15.36,2317746
2-Aug-13,15.85,16.12,15.74,15.88,1979387
1-Aug-13,16.25,16.31,15.65,15.81,3001480
31-Jul-13,16.71,16.73,16.07,16.43,2271974
30-Jul-13,16.57,17.06,16.57,16.71,1817325
29-Jul-13,16.70,16.80,16.42,16.46,1566388
26-Jul-13,16.67,16.75,16.55,16.69,1081658
25-Jul-13,16.34,16.70,16.25,16.65,1898640
24-Jul-13,16.82,16.85,16.11,16.34,2002212
23-Jul-13,16.72,16.88,16.58,16.80,1101418
22-Jul-13,16.73,16.83,16.62,16.72,1031731
19-Jul-13,16.60,16.76,16.52,16.75,1027284
18-Jul-13,16.81,16.88,16.63,16.63,1070801
17-Jul-13,16.50,17.08,16.49,16.79,1875408
16-Jul-13,16.42,16.54,16.34,16.40,1520674
15-Jul-13,16.19,16.46,16.13,16.42,1060362
12-Jul-13,16.44,16.45,16.09,16.23,1678430
11-Jul-13,15.94,16.47,15.94,16.47,2898594
10-Jul-13,15.58,15.90,15.58,15.76,2888080
9-Jul-13,15.52,15.73,15.43,15.55,2066320
8-Jul-13,15.20,15.62,14.92,15.49,2887750
5-Jul-13,15.73,15.74,14.60,15.23,4986259
3-Jul-13,16.22,16.24,15.64,15.87,2565052
2-Jul-13,16.62,16.70,16.18,16.24,1751727
1-Jul-13,16.63,16.78,16.56,16.62,1892236
28-Jun-13,16.68,16.71,16.44,16.56,1504922
27-Jun-13,16.55,16.86,16.55,16.69,2227285
26-Jun-13,16.64,16.95,16.48,16.50,2623882
25-Jun-13,16.65,16.93,16.38,16.54,2912168
24-Jun-13,17.54,17.56,16.73,17.26,3734593
21-Jun-13,17.46,17.82,17.28,17.69,3471248
20-Jun-13,17.80,17.90,17.28,17.41,3441501
19-Jun-13,18.68,18.75,18.00,18.11,3187399
18-Jun-13,18.47,18.68,18.13,18.60,1860617
17-Jun-13,18.64,18.81,18.15,18.23,1764376
14-Jun-13,18.82,19.07,18.59,18.62,1505895
13-Jun-13,17.93,18.91,17.90,18.84,2189665
12-Jun-13,18.30,18.36,17.86,18.00,2261715
11-Jun-13,18.50,18.53,18.10,18.17,1923567
10-Jun-13,18.76,18.93,18.55,18.66,1584574
7-Jun-13,18.98,19.01,18.45,18.75,1634796
6-Jun-13,18.58,18.94,18.26,18.93,1836525
5-Jun-13,18.91,19.03,18.53,18.62,1597630
4-Jun-13,18.62,18.98,18.53,18.91,2618272
3-Jun-13,18.65,18.74,18.05,18.65,3369125
31-May-13,19.04,19.21,18.61,18.65,1841906
30-May-13,19.20,19.39,19.04,19.10,1731187
29-May-13,18.32,19.30,17.60,19.16,6144843
28-May-13,19.55,19.74,18.45,18.60,4397437
24-May-13,19.40,19.44,19.06,19.42,1802435
23-May-13,19.30,19.51,18.88,19.42,2364180
22-May-13,19.84,20.25,19.35,19.53,2320350
21-May-13,20.25,20.35,19.80,19.85,2113133
20-May-13,20.43,20.43,20.22,20.28,1388910
17-May-13,20.34,20.44,20.14,20.41,1632321
16-May-13,19.84,20.29,19.83,20.23,1431254
15-May-13,19.87,20.03,19.62,19.82,2566653
14-May-13,20.18,20.27,19.79,20.04,3132602
13-May-13,20.64,20.64,20.12,20.21,2078668
10-May-13,20.97,21.00,20.51,20.67,1427507
9-May-13,21.30,21.30,20.90,20.94,1132399
8-May-13,21.01,21.28,21.00,21.27,1649664
7-May-13,20.66,21.11,20.66,20.99,1919637
6-May-13,20.36,20.47,20.17,20.46,1789965
3-May-13,20.81,20.98,20.37,20.39,2343153
2-May-13,21.14,21.15,20.52,20.68,2622040
1-May-13,21.35,21.40,21.01,21.13,1444323
30-Apr-13,21.30,21.40,21.22,21.40,860894
29-Apr-13,21.07,21.30,20.96,21.29,1010275
26-Apr-13,21.15,21.15,20.85,20.95,1326883
25-Apr-13,21.02,21.32,20.92,21.13,1273745
24-Apr-13,21.01,21.01,20.91,20.94,1645344
23-Apr-13,20.98,21.03,20.85,20.99,1661751
22-Apr-13,20.77,20.98,20.71,20.94,1093400
19-Apr-13,20.56,20.80,20.41,20.78,1067564
18-Apr-13,20.66,20.82,20.44,20.56,1271654
17-Apr-13,20.87,20.90,20.41,20.63,2050329
16-Apr-13,20.55,20.97,20.50,20.96,1280242
15-Apr-13,20.89,20.90,20.34,20.42,1852745
12-Apr-13,21.06,21.07,20.75,20.93,1006324
11-Apr-13,21.20,21.23,21.06,21.08,1270727
10-Apr-13,21.37,21.38,21.10,21.22,1356732
9-Apr-13,21.51,21.51,21.22,21.28,763536
8-Apr-13,21.51,21.54,21.28,21.42,884798
5-Apr-13,20.96,21.51,20.82,21.50,2524818
4-Apr-13,20.74,21.19,20.65,21.18,1756101
3-Apr-13,21.10,21.22,20.68,20.75,1959328
2-Apr-13,21.38,21.57,21.05,21.08,1365681
1-Apr-13,21.39,21.60,21.18,21.29,1437833
28-Mar-13,21.42,21.46,21.35,21.39,2299617
27-Mar-13,21.58,21.58,21.27,21.47,2568985
26-Mar-13,22.15,22.26,22.02,22.25,3981290
25-Mar-13,21.99,22.16,21.91,22.07,3119074
22-Mar-13,21.63,21.96,21.63,21.95,1966308
21-Mar-13,21.42,21.70,21.41,21.63,1757128
20-Mar-13,21.40,21.50,21.20,21.45,1672677
19-Mar-13,21.63,21.68,21.31,21.37,1742220
18-Mar-13,21.42,21.68,21.28,21.61,1582746
15-Mar-13,21.56,21.65,21.43,21.52,3482034
14-Mar-13,21.41,21.60,21.40,21.59,1583704
13-Mar-13,21.17,21.43,21.02,21.41,1543734
12-Mar-13,21.21,21.24,21.01,21.15,2021553
11-Mar-13,20.76,21.23,20.73,21.21,2559284
8-Mar-13,20.72,20.76,20.43,20.76,2401126
7-Mar-13,20.54,20.60,20.37,20.57,2332002
6-Mar-13,21.25,21.30,20.62,20.66,2527302
5-Mar-13,21.08,21.26,20.99,21.25,1198896
4-Mar-13,20.83,21.00,20.66,20.97,1015628
1-Mar-13,20.91,21.00,20.76,20.82,1307224
28-Feb-13,20.63,21.07,20.63,21.02,1561340
27-Feb-13,20.45,20.72,20.45,20.66,1678352
26-Feb-13,20.42,20.50,20.20,20.40,1357446
25-Feb-13,20.63,20.68,20.39,20.40,1368212
22-Feb-13,20.40,20.55,20.33,20.55,1509549
21-Feb-13,20.43,20.44,20.06,20.30,2538144
20-Feb-13,20.74,20.88,20.44,20.45,2353689
19-Feb-13,21.08,21.14,20.69,20.77,2964010
15-Feb-13,21.26,21.32,21.04,21.08,1527772
14-Feb-13,21.32,21.36,21.20,21.33,1120102
13-Feb-13,21.32,21.48,21.30,21.35,1485824
12-Feb-13,21.36,21.41,21.23,21.30,1622035
11-Feb-13,21.25,21.39,21.24,21.30,1675825
8-Feb-13,21.15,21.29,21.13,21.25,1751651
7-Feb-13,21.30,21.36,20.72,21.16,4692253
6-Feb-13,21.56,21.65,21.17,21.26,3944214
5-Feb-13,21.58,21.62,21.44,21.56,2666453
4-Feb-13,21.61,21.64,21.42,21.50,1804738
1-Feb-13,21.79,21.80,21.61,21.65,2023665
31-Jan-13,21.79,21.82,21.66,21.70,4034824
30-Jan-13,21.83,21.94,21.67,21.84,2204707
29-Jan-13,21.68,21.87,21.64,21.82,1915806
28-Jan-13,21.58,21.73,21.41,21.73,2020926
25-Jan-13,21.29,21.54,21.26,21.50,2204974
24-Jan-13,21.36,21.40,21.19,21.22,3024346
23-Jan-13,21.18,21.38,21.06,21.29,14412102
22-Jan-13,21.68,21.80,21.62,21.77,1117237
18-Jan-13,21.66,21.80,21.51,21.65,1125591
17-Jan-13,21.68,21.74,21.55,21.65,867973
16-Jan-13,21.46,21.67,21.40,21.63,746751
15-Jan-13,21.44,21.47,21.31,21.45,966554
14-Jan-13,21.55,21.68,21.42,21.46,961775
11-Jan-13,21.59,21.63,21.43,21.59,919306
10-Jan-13,21.52,21.59,21.42,21.55,953933
9-Jan-13,21.31,21.53,21.26,21.46,949408
8-Jan-13,21.21,21.30,21.06,21.26,906096
7-Jan-13,21.15,21.23,21.02,21.23,765669
4-Jan-13,21.08,21.15,20.94,21.14,1021346
3-Jan-13,20.85,21.12,20.85,20.96,1166357
2-Jan-13,20.29,20.92,20.14,20.90,2468110
31-Dec-12,19.60,19.75,19.46,19.71,1539819
28-Dec-12,19.57,19.89,19.55,19.69,1502686
27-Dec-12,19.88,19.97,19.61,19.69,1087784
26-Dec-12,20.04,20.08,19.86,19.88,767953
24-Dec-12,19.95,20.12,19.91,19.97,497768
21-Dec-12,20.00,20.25,19.90,20.02,1909907
20-Dec-12,20.54,20.54,20.19,20.28,2293405
19-Dec-12,20.86,21.20,20.80,21.17,2293010
18-Dec-12,20.60,20.91,20.48,20.84,1613807
17-Dec-12,20.57,20.75,20.37,20.53,1576183
14-Dec-12,20.81,20.81,20.35,20.51,998756
13-Dec-12,20.85,21.05,20.66,20.80,1042817
12-Dec-12,21.19,21.23,20.82,20.85,1018451
11-Dec-12,21.27,21.35,21.11,21.15,1135150
10-Dec-12,21.08,21.27,21.07,21.20,907861
7-Dec-12,21.08,21.15,21.01,21.11,1143621
6-Dec-12,21.08,21.10,20.93,21.08,682306
5-Dec-12,21.12,21.19,20.93,21.10,1340284
4-Dec-12,21.23,21.32,21.09,21.11,1838743
3-Dec-12,21.22,21.33,21.14,21.23,1115981
30-Nov-12,21.13,21.23,21.08,21.17,1370083
29-Nov-12,21.00,21.19,21.00,21.09,1474344
28-Nov-12,20.56,20.94,20.36,20.93,1454086
27-Nov-12,20.44,20.80,20.28,20.60,1419624
26-Nov-12,20.58,20.69,20.28,20.49,1453667
23-Nov-12,20.36,20.58,20.33,20.57,536040
21-Nov-12,20.25,20.35,20.03,20.27,906852
20-Nov-12,20.03,20.16,19.78,20.16,1173565
19-Nov-12,20.03,20.29,19.94,19.99,2002453
16-Nov-12,18.98,19.84,18.90,19.83,2507722
15-Nov-12,17.52,18.78,17.40,18.75,3291549
14-Nov-12,19.25,19.32,18.00,18.20,6005417
13-Nov-12,19.99,20.00,19.06,19.21,3679004
12-Nov-12,20.30,20.40,20.11,20.15,991037
9-Nov-12,20.08,20.49,19.78,20.30,1383279
8-Nov-12,20.21,20.49,20.14,20.23,1075769
7-Nov-12,20.99,20.99,19.63,20.19,3849747
6-Nov-12,21.29,21.30,21.01,21.08,1544666
5-Nov-12,21.34,21.36,21.02,21.20,1316122
2-Nov-12,21.59,21.59,21.27,21.34,1284501
1-Nov-12,21.49,21.50,21.37,21.49,1890844
31-Oct-12,21.34,21.64,21.18,21.43,2588121
26-Oct-12,21.33,21.33,21.09,21.15,1191924
25-Oct-12,21.35,21.40,21.03,21.30,976070
24-Oct-12,20.95,21.36,20.92,21.19,2458272
23-Oct-12,20.78,20.94,20.58,20.93,1700041
22-Oct-12,20.78,20.90,20.26,20.90,1977147
19-Oct-12,21.11,21.11,20.83,20.87,1471755
18-Oct-12,21.14,21.21,21.04,21.12,1795560
17-Oct-12,20.82,21.22,20.75,21.09,2468361
16-Oct-12,20.02,20.83,19.86,20.81,3277990
15-Oct-12,20.65,20.65,19.28,20.13,7426513
12-Oct-12,20.90,20.91,20.67,20.73,2445822
11-Oct-12,20.93,21.13,20.83,20.86,2986579
10-Oct-12,21.05,21.15,20.57,20.83,4600259
9-Oct-12,21.06,21.29,20.97,20.98,3857043
8-Oct-12,20.85,21.02,20.82,20.95,1013076
5-Oct-12,21.10,21.27,20.94,20.99,1879071
4-Oct-12,20.77,21.05,20.60,20.99,3392051
3-Oct-12,20.63,20.65,20.34,20.40,1037598
2-Oct-12,20.26,20.63,20.20,20.61,1340902
1-Oct-12,20.20,20.37,20.05,20.20,1144418
28-Sep-12,20.07,20.31,20.01,20.13,839699
27-Sep-12,20.15,20.28,20.00,20.12,1010987
26-Sep-12,20.22,20.39,20.10,20.15,1501062
25-Sep-12,20.38,20.48,20.20,20.24,1806326
24-Sep-12,20.47,20.55,20.23,20.33,1285368
21-Sep-12,20.41,20.57,20.37,20.47,1982030
20-Sep-12,20.50,20.50,20.08,20.32,3114100
19-Sep-12,20.91,21.16,20.82,21.05,2174755
18-Sep-12,20.95,20.97,20.80,20.82,2248539
17-Sep-12,21.11,21.29,20.92,20.97,2675059
14-Sep-12,21.21,21.55,21.18,21.54,1698178
13-Sep-12,20.90,21.11,20.88,21.04,1377337
12-Sep-12,21.00,21.05,20.80,20.96,1406459
11-Sep-12,20.80,21.07,20.80,21.06,841541
10-Sep-12,20.95,21.09,20.79,20.81,1262635
7-Sep-12,20.76,20.97,20.75,20.96,862084
6-Sep-12,20.65,20.72,20.60,20.72,1146608
5-Sep-12,20.76,20.76,20.58,20.63,1035677
4-Sep-12,20.48,20.69,20.36,20.68,836039
31-Aug-12,20.58,20.60,20.37,20.49,789718
30-Aug-12,20.58,20.60,20.37,20.38,965021
29-Aug-12,20.40,20.69,20.33,20.60,1094678
28-Aug-12,20.20,20.42,19.90,20.36,1300660
27-Aug-12,19.99,20.19,19.99,20.19,1107810
24-Aug-12,19.80,20.00,19.80,19.95,1003146
23-Aug-12,19.72,19.91,19.66,19.81,802297
22-Aug-12,19.89,19.93,19.60,19.73,1149098
21-Aug-12,19.89,20.00,19.86,19.93,1101342
20-Aug-12,19.80,19.90,19.73,19.90,676188
17-Aug-12,19.70,19.79,19.62,19.77,861848
16-Aug-12,19.65,19.77,19.60,19.70,790654
15-Aug-12,19.70,19.73,19.55,19.67,909904
14-Aug-12,19.82,19.87,19.70,19.75,993763
13-Aug-12,19.60,19.84,19.55,19.81,1263291
10-Aug-12,19.48,19.60,19.42,19.60,728482
9-Aug-12,19.25,19.50,19.21,19.48,572792
8-Aug-12,19.21,19.39,19.12,19.23,1011394
7-Aug-12,19.38,19.44,18.96,19.30,1324787
6-Aug-12,19.51,19.51,19.17,19.35,1354339
3-Aug-12,19.47,19.62,19.35,19.46,1293929
2-Aug-12,19.65,19.75,18.85,19.30,2238284
1-Aug-12,19.81,19.87,19.56,19.63,1398222
31-Jul-12,19.80,19.90,19.75,19.79,1163336
30-Jul-12,19.78,19.89,19.70,19.85,1219975
27-Jul-12,19.69,19.88,19.64,19.78,1390209
26-Jul-12,19.62,19.73,19.51,19.60,1150475
25-Jul-12,19.48,19.55,19.40,19.53,962689
24-Jul-12,19.37,19.49,19.32,19.43,1393103
23-Jul-12,19.04,19.41,19.02,19.33,1482563
20-Jul-12,18.86,19.14,18.86,19.14,1070910
19-Jul-12,18.94,19.05,18.85,18.91,1156945
18-Jul-12,18.99,19.10,18.82,18.92,1576766
17-Jul-12,18.90,19.11,18.90,19.06,1269642
16-Jul-12,18.65,18.91,18.61,18.85,954270
13-Jul-12,18.50,18.65,18.40,18.65,1056398
12-Jul-12,18.40,18.54,18.34,18.46,1260728
11-Jul-12,18.57,18.61,18.18,18.50,1566467
10-Jul-12,18.68,18.72,18.45,18.56,1444716
9-Jul-12,18.71,18.74,18.59,18.64,1134361
6-Jul-12,18.61,18.81,18.61,18.72,1226066
5-Jul-12,18.59,18.89,18.59,18.75,1947879
3-Jul-12,18.75,18.87,18.62,18.66,873024
2-Jul-12,18.47,18.73,18.36,18.73,1644055
29-Jun-12,18.52,18.58,18.30,18.34,1276627
28-Jun-12,18.17,18.30,18.11,18.29,681256
27-Jun-12,18.05,18.33,18.04,18.26,1068387
26-Jun-12,18.01,18.14,18.00,18.04,1260893
25-Jun-12,18.12,18.20,17.96,18.00,1352621
22-Jun-12,17.99,18.29,17.97,18.26,2362938
21-Jun-12,18.87,18.88,18.56,18.61,2244413
20-Jun-12,18.85,18.89,18.75,18.85,1594294
19-Jun-12,18.61,18.94,18.58,18.78,2150799
18-Jun-12,18.56,18.67,18.48,18.53,1351220
15-Jun-12,18.26,18.55,18.21,18.55,2255117
14-Jun-12,18.08,18.25,18.01,18.19,1220636
13-Jun-12,18.11,18.15,17.99,18.06,1544514
12-Jun-12,17.92,18.10,17.90,18.10,1280992
11-Jun-12,17.98,18.15,17.87,17.88,1107820
8-Jun-12,17.63,17.93,17.60,17.87,1186287
7-Jun-12,18.03,18.08,17.65,17.66,2012449
6-Jun-12,17.94,18.15,17.89,18.09,967338
5-Jun-12,17.44,17.84,17.44,17.77,983946
4-Jun-12,17.58,17.63,17.41,17.48,1766225
1-Jun-12,17.99,18.08,17.49,17.57,3002839
31-May-12,18.15,18.22,18.01,18.14,1250192
30-May-12,18.28,18.37,18.15,18.15,1213841
29-May-12,18.25,18.40,18.18,18.36,1257056
25-May-12,18.14,18.24,18.07,18.18,1241198
24-May-12,17.95,18.12,17.87,18.11,1293103
23-May-12,17.65,17.96,17.63,17.95,1386913
22-May-12,18.00,18.00,17.67,17.73,1544523
21-May-12,17.68,18.00,17.58,17.95,1475441
18-May-12,17.53,17.72,17.53,17.63,2276373
17-May-12,18.06,18.12,17.45,17.53,1962168
16-May-12,18.04,18.22,18.04,18.12,1075789
15-May-12,18.09,18.22,18.02,18.04,972213
14-May-12,18.24,18.34,18.14,18.14,1011286
11-May-12,18.18,18.34,18.12,18.31,881179
10-May-12,18.28,18.40,18.18,18.23,1268222
9-May-12,18.11,18.29,18.06,18.24,1581390
8-May-12,17.87,18.25,17.87,18.17,3348584
7-May-12,17.52,17.53,17.23,17.39,1219540
4-May-12,17.71,17.75,17.55,17.56,1190178
3-May-12,17.60,17.78,17.59,17.75,1055834
2-May-12,17.66,17.68,17.52,17.58,1301285
1-May-12,17.62,17.85,17.62,17.70,887386
30-Apr-12,17.82,17.91,17.63,17.64,1163448
27-Apr-12,17.81,17.89,17.70,17.80,1052869
26-Apr-12,17.49,17.74,17.45,17.72,854241
25-Apr-12,17.52,17.55,17.37,17.49,775362
24-Apr-12,17.28,17.52,17.27,17.37,874304
23-Apr-12,17.20,17.33,17.12,17.24,1082021
20-Apr-12,17.38,17.50,17.21,17.33,820552
19-Apr-12,17.20,17.38,17.10,17.19,1077495
18-Apr-12,17.24,17.28,17.09,17.17,727402
17-Apr-12,17.13,17.34,17.10,17.26,705929
16-Apr-12,17.14,17.22,17.00,17.09,638071
13-Apr-12,17.26,17.36,17.10,17.11,661021
12-Apr-12,16.99,17.28,16.94,17.26,960965
11-Apr-12,16.81,16.93,16.63,16.93,1122503
10-Apr-12,16.87,16.92,16.50,16.63,2187231
9-Apr-12,17.01,17.07,16.28,16.93,2623687
5-Apr-12,17.24,17.32,17.08,17.18,869039
4-Apr-12,17.30,17.30,17.09,17.24,1286286
3-Apr-12,17.59,17.64,17.30,17.35,1234202
2-Apr-12,17.64,17.64,17.15,17.60,1383838
30-Mar-12,17.69,17.70,17.60,17.65,1265109
29-Mar-12,17.42,17.58,17.38,17.57,1211319
28-Mar-12,17.36,17.48,17.32,17.44,2371243
27-Mar-12,17.77,17.85,17.32,17.33,1725683
26-Mar-12,17.64,17.86,17.62,17.77,1389697
23-Mar-12,17.52,17.64,17.42,17.50,1203662
22-Mar-12,17.53,17.60,17.40,17.49,1723759
21-Mar-12,18.26,18.40,18.20,18.20,2043371
20-Mar-12,18.44,18.50,18.27,18.29,2063080
19-Mar-12,18.33,18.52,18.29,18.44,1879570
16-Mar-12,18.36,18.39,18.20,18.23,1904824
15-Mar-12,18.09,18.37,17.80,18.34,3348979
14-Mar-12,17.94,17.99,17.65,17.90,1999019
13-Mar-12,17.72,17.93,17.70,17.93,1614178
12-Mar-12,17.80,17.88,17.60,17.63,1659055
9-Mar-12,17.48,17.85,17.48,17.76,1350124
8-Mar-12,17.77,17.80,17.35,17.48,1468859
7-Mar-12,17.41,17.67,17.41,17.65,1213809
6-Mar-12,17.76,17.77,17.38,17.40,1969761
5-Mar-12,17.52,17.84,17.52,17.83,2078335
2-Mar-12,17.35,17.55,17.32,17.52,2220262
1-Mar-12,17.21,17.43,17.13,17.31,1869530
29-Feb-12,17.15,17.29,17.10,17.13,1910548
28-Feb-12,17.20,17.20,17.00,17.10,1864344
27-Feb-12,16.93,17.19,16.80,17.16,1998519
24-Feb-12,17.20,17.23,16.90,16.97,2220791
23-Feb-12,16.50,17.34,16.45,17.30,5032682
22-Feb-12,16.48,16.49,16.27,16.31,1664012
21-Feb-12,16.37,16.47,16.14,16.45,2801836
17-Feb-12,15.97,16.19,15.86,16.18,2976773
16-Feb-12,15.80,15.92,15.76,15.92,1178775
15-Feb-12,15.80,15.85,15.71,15.73,1077083
14-Feb-12,15.89,15.89,15.70,15.77,784971
13-Feb-12,15.71,15.87,15.58,15.85,1334892
10-Feb-12,15.73,15.80,15.53,15.54,1368197
9-Feb-12,15.84,15.95,15.77,15.80,1185233
8-Feb-12,15.98,16.00,15.77,15.81,1176169
7-Feb-12,15.71,15.86,15.71,15.84,1291339
6-Feb-12,15.87,15.92,15.75,15.77,1097850
3-Feb-12,15.98,16.07,15.72,15.88,2249790
2-Feb-12,15.83,15.96,15.80,15.83,1342008
1-Feb-12,15.78,15.98,15.71,15.80,1588259
31-Jan-12,15.75,15.80,15.60,15.68,1095666
30-Jan-12,15.83,15.84,15.66,15.69,1634605
27-Jan-12,15.88,16.03,15.75,15.81,1994506
26-Jan-12,15.65,15.86,15.63,15.85,2060849
25-Jan-12,15.45,15.57,15.20,15.54,1913417
24-Jan-12,15.17,15.50,15.10,15.47,1861190
23-Jan-12,15.07,15.25,15.00,15.21,2056413
20-Jan-12,14.85,15.01,14.85,15.01,2077308
19-Jan-12,14.47,14.86,14.45,14.83,1966442
18-Jan-12,14.17,14.41,14.16,14.41,1205302
17-Jan-12,14.09,14.25,14.05,14.14,1466864
13-Jan-12,14.03,14.15,13.97,14.00,1435238
12-Jan-12,14.17,14.20,14.03,14.12,1240230
11-Jan-12,14.13,14.20,14.05,14.19,1779935
10-Jan-12,14.21,14.24,14.11,14.18,1661347
9-Jan-12,14.20,14.21,14.06,14.11,1383465
6-Jan-12,13.90,14.25,13.90,14.11,1987414
5-Jan-12,14.18,14.33,13.94,13.98,1809477
4-Jan-12,14.29,14.36,14.21,14.28,1437517
3-Jan-12,14.23,14.41,14.18,14.33,1805662
30-Dec-11,13.90,14.20,13.85,14.05,2149872
29-Dec-11,13.85,14.06,13.81,13.91,2357821
28-Dec-11,14.16,14.20,13.82,13.84,1702994
27-Dec-11,14.08,14.19,13.97,14.13,2301525
23-Dec-11,14.14,14.19,13.90,14.11,2499871
22-Dec-11,14.22,14.29,14.07,14.09,1989571
21-Dec-11,14.26,14.35,14.07,14.14,2161104
20-Dec-11,14.21,14.35,14.10,14.27,2703786
19-Dec-11,15.09,15.09,14.65,14.67,3223595
16-Dec-11,15.06,15.06,14.78,15.00,2922247
15-Dec-11,15.00,15.01,14.85,14.89,2067314
14-Dec-11,14.81,14.95,14.74,14.87,2543724
13-Dec-11,14.69,15.05,14.69,14.80,2846401
12-Dec-11,14.62,14.62,14.41,14.49,2412553
9-Dec-11,14.32,14.91,14.20,14.71,8200855
8-Dec-11,16.23,16.23,15.68,15.74,2254534
7-Dec-11,16.10,16.21,15.98,16.09,1398598
6-Dec-11,15.85,16.14,15.81,16.08,1852883
5-Dec-11,15.80,15.97,15.73,15.81,2009005
2-Dec-11,15.70,15.80,15.53,15.61,1636220
1-Dec-11,15.74,15.77,15.45,15.49,1346193
30-Nov-11,15.45,15.77,15.32,15.77,2601159
29-Nov-11,15.27,15.27,15.04,15.11,1218851
28-Nov-11,15.08,15.24,14.92,15.19,2009123
25-Nov-11,14.79,14.88,14.62,14.64,739672
23-Nov-11,14.93,15.01,14.74,14.75,1602803
22-Nov-11,14.77,15.10,14.75,15.01,1606692
21-Nov-11,15.04,15.09,14.71,14.84,2427017
18-Nov-11,15.22,15.24,15.03,15.20,1803319
17-Nov-11,15.24,15.47,15.01,15.10,1936382
16-Nov-11,15.24,15.48,15.09,15.17,1440109
15-Nov-11,15.00,15.40,15.00,15.29,1627948
14-Nov-11,15.26,15.30,15.00,15.02,1609079
11-Nov-11,15.18,15.46,15.11,15.29,1636715
10-Nov-11,15.46,15.53,15.01,15.11,1812138
9-Nov-11,15.30,15.59,15.22,15.24,2193002
8-Nov-11,15.58,15.83,15.43,15.76,1921294
7-Nov-11,15.49,15.62,15.25,15.42,1642150
4-Nov-11,15.54,15.54,15.25,15.38,1490900
3-Nov-11,15.12,15.64,15.06,15.57,3119236
2-Nov-11,15.51,15.51,15.20,15.37,1880401
1-Nov-11,15.42,15.64,15.20,15.23,2730048
31-Oct-11,16.15,16.15,15.76,15.78,2371763
28-Oct-11,15.98,16.20,15.84,16.13,3109933
27-Oct-11,16.07,16.18,15.86,16.00,3705408
26-Oct-11,15.64,15.64,15.28,15.55,2643311
25-Oct-11,15.24,15.68,15.00,15.35,3714705
24-Oct-11,14.53,15.28,14.40,15.28,3152298
21-Oct-11,14.34,14.46,14.22,14.46,2192352
20-Oct-11,14.34,14.34,14.00,14.19,2052947
19-Oct-11,14.28,14.37,14.12,14.28,2400686
18-Oct-11,14.14,14.27,13.90,14.20,2372534
17-Oct-11,14.41,14.44,14.10,14.14,1769084
14-Oct-11,14.25,14.42,14.14,14.38,1535967
13-Oct-11,14.36,14.43,13.98,14.14,1933493
12-Oct-11,14.33,14.69,14.24,14.38,2841048
11-Oct-11,14.06,14.25,13.91,14.18,2087893
10-Oct-11,13.98,14.21,13.89,14.13,2034767
7-Oct-11,14.34,14.34,13.67,13.74,1836482
6-Oct-11,13.97,14.50,13.83,14.28,2651806
5-Oct-11,13.75,14.06,13.50,13.95,3099464
4-Oct-11,12.81,13.68,12.55,13.60,7110739
3-Oct-11,14.10,14.10,13.22,13.32,4760240
30-Sep-11,14.49,14.60,14.10,14.13,2279093
29-Sep-11,14.66,14.74,14.27,14.60,1944325
28-Sep-11,14.98,15.08,14.40,14.41,1795131
27-Sep-11,14.97,15.26,14.82,14.96,2358321
26-Sep-11,14.58,14.78,14.45,14.76,2803147
23-Sep-11,14.54,14.75,14.40,14.50,2455559
22-Sep-11,15.05,15.26,14.45,14.56,6032523
21-Sep-11,15.79,15.80,15.31,15.44,6382697
20-Sep-11,16.35,16.35,15.77,15.77,3238268
19-Sep-11,16.15,16.40,16.15,16.30,2968483
16-Sep-11,16.40,16.44,16.07,16.36,4209064
15-Sep-11,16.29,16.42,16.19,16.39,3514864
14-Sep-11,16.93,17.17,16.65,17.01,5308620
13-Sep-11,16.20,16.90,16.15,16.83,3741917
12-Sep-11,16.02,16.23,15.96,16.22,3873211
9-Sep-11,16.29,16.42,16.17,16.28,3104560
8-Sep-11,16.51,16.60,16.30,16.37,2036002
7-Sep-11,16.56,16.67,16.37,16.56,2623908
6-Sep-11,16.13,16.35,15.77,16.30,4195878
2-Sep-11,16.40,16.54,16.15,16.42,6758709
1-Sep-11,17.61,17.61,16.67,16.84,5240833
31-Aug-11,17.78,17.78,17.40,17.64,5080015
30-Aug-11,17.64,17.79,17.40,17.60,2320821
29-Aug-11,17.41,17.67,17.28,17.65,2774975
26-Aug-11,16.80,17.12,16.62,17.08,3597816
25-Aug-11,17.67,17.67,16.60,16.82,7938296
24-Aug-11,17.69,17.69,17.41,17.55,3309116
23-Aug-11,17.46,17.65,17.25,17.60,3227912
22-Aug-11,17.49,17.58,16.93,17.25,4131776
19-Aug-11,17.18,17.60,17.00,17.02,6060790
18-Aug-11,17.92,18.04,17.06,17.25,25402229
17-Aug-11,19.45,19.61,19.23,19.29,3367021
16-Aug-11,19.30,19.74,19.16,19.26,3529392
15-Aug-11,18.83,19.46,18.78,19.33,4444139
12-Aug-11,18.60,18.90,18.28,18.64,2353606
11-Aug-11,18.01,18.71,17.94,18.32,4982430
10-Aug-11,18.49,18.49,17.75,17.77,3908461
9-Aug-11,17.26,18.71,17.00,18.69,5945342
8-Aug-11,16.57,18.24,16.57,16.95,6909468
5-Aug-11,19.01,19.25,18.04,18.55,2816913
4-Aug-11,19.73,19.86,18.89,18.89,3003810
3-Aug-11,19.73,19.74,19.31,19.71,2168034
2-Aug-11,20.26,20.26,19.67,19.67,1960916
1-Aug-11,20.58,20.58,19.86,20.19,3749045
29-Jul-11,19.45,19.70,16.48,19.58,6253159
28-Jul-11,20.09,20.09,19.29,19.73,3432919
27-Jul-11,20.71,20.75,20.19,20.22,2174633
26-Jul-11,20.73,20.81,20.40,20.76,2727610
25-Jul-11,21.05,21.07,20.72,20.78,2813628
22-Jul-11,21.00,21.30,21.00,21.20,1177518
21-Jul-11,21.13,21.17,20.98,21.00,1719082
20-Jul-11,21.25,21.25,20.98,21.02,1757937
19-Jul-11,20.93,21.20,20.93,21.17,1343596
18-Jul-11,20.98,21.05,20.56,20.77,1999483
15-Jul-11,21.05,21.22,21.00,21.09,1399377
14-Jul-11,21.62,21.76,21.02,21.04,1686924
13-Jul-11,21.64,21.80,21.52,21.60,1176128
12-Jul-11,21.54,21.73,21.35,21.58,1358727
11-Jul-11,21.94,22.03,21.56,21.63,1076263
8-Jul-11,22.04,22.07,21.95,22.02,826886
7-Jul-11,21.90,22.13,21.89,22.12,1277726
6-Jul-11,21.70,21.95,21.70,21.86,1049059
5-Jul-11,21.63,21.79,21.60,21.78,1206378
1-Jul-11,21.12,21.62,21.11,21.58,1654565
30-Jun-11,21.05,21.18,21.00,21.13,1142511
29-Jun-11,20.88,21.06,20.88,20.97,1271447
28-Jun-11,20.96,20.96,20.82,20.93,1211052
27-Jun-11,21.10,21.13,20.88,20.90,1599343
24-Jun-11,21.11,21.25,21.06,21.09,1385231
23-Jun-11,21.21,21.30,20.80,21.08,2332194
22-Jun-11,21.08,21.40,20.96,21.25,3115861
21-Jun-11,20.60,20.99,20.53,20.89,15668008
20-Jun-11,20.92,21.09,20.89,20.99,1657185
17-Jun-11,20.99,21.09,20.79,20.89,1640742
16-Jun-11,21.14,21.20,20.86,20.91,1895821
15-Jun-11,21.24,21.28,21.01,21.02,2061208
14-Jun-11,22.28,22.31,22.04,22.09,3133478
13-Jun-11,22.45,22.50,22.03,22.15,2409583
10-Jun-11,22.74,22.90,22.32,22.36,2378097
9-Jun-11,22.64,22.71,22.56,22.68,1690896
8-Jun-11,22.52,22.72,22.42,22.57,1700220
7-Jun-11,22.55,22.62,22.44,22.45,943371
6-Jun-11,22.44,22.63,22.40,22.43,2267136
3-Jun-11,22.47,22.60,22.40,22.43,1042264
2-Jun-11,22.65,22.70,22.52,22.57,921182
1-Jun-11,22.82,22.89,22.57,22.58,1103096
31-May-11,22.85,22.91,22.73,22.77,1075084
27-May-11,22.91,22.93,22.73,22.78,1414466
26-May-11,22.60,22.86,22.50,22.83,1326781
25-May-11,22.80,22.82,22.52,22.61,1287333
24-May-11,22.85,22.97,22.76,22.82,741111
23-May-11,22.88,22.99,22.72,22.83,1114532
20-May-11,23.00,23.10,22.87,22.95,719320
19-May-11,22.85,23.09,22.85,23.01,915067
18-May-11,22.74,22.76,22.63,22.76,548131
17-May-11,22.74,22.78,22.58,22.67,900198
16-May-11,22.71,22.81,22.50,22.73,1285057
13-May-11,23.01,23.05,22.65,22.73,1083758
12-May-11,22.99,23.09,22.92,23.00,867080
11-May-11,23.22,23.30,22.85,22.97,1046802
10-May-11,23.11,23.15,22.86,22.92,1143473
9-May-11,22.76,22.89,22.52,22.85,655120
6-May-11,22.96,23.02,22.70,22.78,651812
5-May-11,22.89,23.00,22.80,22.89,889226
4-May-11,22.82,23.04,22.80,22.91,1474542
3-May-11,22.77,22.80,22.66,22.77,901957
2-May-11,22.79,22.82,22.74,22.79,1063404
29-Apr-11,22.68,22.80,22.64,22.74,1455392
28-Apr-11,22.44,22.60,22.41,22.60,1123325
27-Apr-11,22.25,22.50,22.18,22.48,1175698
26-Apr-11,22.07,22.18,21.98,22.17,1438113
25-Apr-11,21.78,21.96,21.66,21.96,1205862
21-Apr-11,21.66,21.75,21.54,21.73,726789
20-Apr-11,21.44,21.58,21.40,21.58,754942
19-Apr-11,21.30,21.35,21.19,21.32,595155
18-Apr-11,21.28,21.29,21.15,21.23,754553
15-Apr-11,21.12,21.36,21.12,21.28,1078076
14-Apr-11,20.90,21.20,20.84,21.13,1188808
13-Apr-11,20.85,21.17,20.80,20.91,1168463
12-Apr-11,21.06,21.18,20.77,20.77,1328751
11-Apr-11,21.21,21.32,20.98,21.05,1240991
8-Apr-11,21.40,21.48,21.14,21.20,1424293
7-Apr-11,21.57,21.65,21.33,21.38,1098693
6-Apr-11,21.61,21.71,21.50,21.55,785487
5-Apr-11,21.66,21.68,21.55,21.60,819968
4-Apr-11,21.62,21.70,21.50,21.62,956632
1-Apr-11,21.86,21.90,21.52,21.61,1079054
31-Mar-11,21.62,21.88,21.57,21.85,2923644
30-Mar-11,21.74,21.76,21.50,21.60,1232610
29-Mar-11,21.83,21.85,21.55,21.65,1282545
28-Mar-11,21.98,21.99,21.77,21.77,1305703
25-Mar-11,21.76,21.95,21.75,21.93,1291275
24-Mar-11,21.60,21.75,21.51,21.72,1677997
23-Mar-11,21.26,21.60,21.21,21.48,2680190
22-Mar-11,21.23,21.35,21.14,21.28,16890661
21-Mar-11,22.27,22.35,22.13,22.17,1761462
18-Mar-11,22.30,22.49,22.13,22.16,2206126
17-Mar-11,23.65,23.65,23.27,23.31,1481801
16-Mar-11,23.67,23.67,23.35,23.36,1116679
15-Mar-11,23.57,23.66,23.34,23.55,1259129
14-Mar-11,23.39,23.44,23.11,23.35,620211
11-Mar-11,23.57,23.69,23.34,23.42,1104606
10-Mar-11,23.84,23.84,23.53,23.56,619734
9-Mar-11,23.78,23.94,23.70,23.80,636833
8-Mar-11,23.94,24.00,23.68,23.70,1016255
7-Mar-11,23.90,24.07,23.70,24.01,1104497
4-Mar-11,23.74,23.81,23.62,23.79,598224
3-Mar-11,23.69,23.79,23.65,23.76,690354
2-Mar-11,23.66,23.80,23.48,23.60,933340
1-Mar-11,23.40,23.62,23.31,23.47,1057681
28-Feb-11,23.43,23.44,23.18,23.34,781921
25-Feb-11,23.11,23.26,23.07,23.26,489622
24-Feb-11,22.79,23.11,22.74,23.09,894030
23-Feb-11,22.80,22.87,22.54,22.84,596539
22-Feb-11,22.90,22.96,22.76,22.77,609292
18-Feb-11,22.84,22.95,22.73,22.94,523957
17-Feb-11,22.67,22.80,22.62,22.76,488586
16-Feb-11,22.48,22.77,22.35,22.62,1049615
15-Feb-11,22.47,22.49,22.32,22.39,538727
14-Feb-11,22.79,22.79,22.44,22.47,987989
11-Feb-11,22.70,22.78,22.67,22.70,479025
10-Feb-11,22.75,22.78,22.67,22.69,502346
9-Feb-11,22.78,22.87,22.69,22.79,635201
8-Feb-11,22.64,22.87,22.64,22.70,643449
7-Feb-11,22.69,22.80,22.60,22.72,512487
4-Feb-11,22.77,22.84,22.45,22.66,826147
3-Feb-11,22.76,22.86,22.65,22.83,390317
2-Feb-11,22.68,22.79,22.60,22.66,463002
1-Feb-11,22.46,22.83,22.44,22.71,828780
31-Jan-11,22.44,22.49,22.21,22.37,1544242
28-Jan-11,22.73,22.85,22.43,22.43,885215
27-Jan-11,22.76,22.79,22.58,22.62,459467
26-Jan-11,22.57,22.74,22.51,22.69,454306
25-Jan-11,22.42,22.52,22.29,22.52,385038
24-Jan-11,22.12,22.45,22.08,22.38,450555
21-Jan-11,22.24,22.26,22.00,22.00,535520
20-Jan-11,22.33,22.46,22.00,22.11,584143
19-Jan-11,22.80,22.90,22.30,22.35,575710
18-Jan-11,22.64,22.79,22.49,22.79,660877
14-Jan-11,22.63,22.65,22.47,22.63,757298
13-Jan-11,22.65,22.67,22.37,22.56,528859
12-Jan-11,22.57,22.80,22.51,22.59,670478
11-Jan-11,22.41,22.49,22.26,22.46,449146
10-Jan-11,22.21,22.40,22.10,22.29,631966
7-Jan-11,22.07,22.25,22.03,22.20,963555
6-Jan-11,21.87,21.99,21.81,21.90,723699
5-Jan-11,21.59,21.82,21.55,21.78,949704
4-Jan-11,21.83,21.86,21.50,21.54,1075811
3-Jan-11,21.92,21.96,21.67,21.83,943274
31-Dec-10,22.00,22.05,21.84,21.84,408530
30-Dec-10,21.80,22.08,21.80,21.94,544181
29-Dec-10,21.96,22.09,21.73,21.79,1330560
28-Dec-10,23.20,23.20,22.88,22.90,993498
27-Dec-10,23.29,23.30,23.14,23.16,831217
23-Dec-10,23.05,23.29,23.02,23.24,1395484
22-Dec-10,23.07,23.07,22.96,23.02,839438
21-Dec-10,22.78,23.03,22.78,23.00,953262
20-Dec-10,22.69,22.82,22.64,22.77,1103177
17-Dec-10,22.64,22.64,22.44,22.63,1069303
16-Dec-10,22.65,22.86,22.43,22.59,1180255
15-Dec-10,22.52,23.13,22.45,22.51,6756683
14-Dec-10,23.15,23.60,23.10,23.47,713198
13-Dec-10,22.98,23.17,22.98,23.05,460555
10-Dec-10,23.05,23.05,22.89,22.94,555643
9-Dec-10,23.50,23.50,22.87,23.02,547259
8-Dec-10,23.53,23.59,23.03,23.40,551056
7-Dec-10,23.30,23.59,23.22,23.52,818226
6-Dec-10,23.14,23.32,23.06,23.26,530026
3-Dec-10,22.80,23.16,22.75,23.14,433065
2-Dec-10,22.79,22.83,22.70,22.81,397697
1-Dec-10,22.70,22.80,22.57,22.71,508449
30-Nov-10,22.67,22.71,22.50,22.58,1160985
29-Nov-10,22.59,22.69,22.48,22.66,446833
26-Nov-10,22.58,22.59,22.48,22.58,156176
24-Nov-10,22.60,22.64,22.47,22.58,370834
23-Nov-10,22.50,22.59,22.44,22.49,363310
22-Nov-10,22.58,22.60,22.40,22.55,346426
19-Nov-10,22.45,22.62,22.39,22.50,600531
18-Nov-10,22.60,22.60,22.28,22.50,406289
17-Nov-10,22.31,22.45,22.20,22.41,406164
16-Nov-10,22.39,22.53,22.00,22.21,933224
15-Nov-10,22.84,22.84,22.44,22.47,685667
12-Nov-10,22.78,22.88,22.73,22.82,465757
11-Nov-10,22.68,22.85,22.68,22.81,456542
10-Nov-10,22.55,22.75,22.48,22.73,641121
9-Nov-10,22.75,22.88,22.36,22.45,822720
8-Nov-10,22.78,22.83,22.60,22.63,698053
5-Nov-10,22.80,22.85,22.60,22.65,686275
4-Nov-10,22.28,22.82,22.15,22.80,849089
3-Nov-10,22.10,22.21,22.00,22.17,456947
2-Nov-10,21.96,22.19,21.86,22.11,596277
1-Nov-10,21.61,21.88,21.58,21.85,561790
29-Oct-10,21.56,21.65,21.25,21.57,2064528
28-Oct-10,21.82,21.88,21.50,21.50,891081
27-Oct-10,21.80,21.84,21.37,21.77,549672
26-Oct-10,21.95,21.95,21.71,21.79,580633
25-Oct-10,22.00,22.00,21.81,21.97,706253
22-Oct-10,21.80,21.92,21.79,21.86,499516
21-Oct-10,21.93,21.99,21.71,21.77,726686
20-Oct-10,21.94,21.94,21.81,21.83,713661
19-Oct-10,21.67,21.94,21.64,21.80,853970
18-Oct-10,21.74,21.74,21.55,21.70,395360
15-Oct-10,21.68,21.68,21.45,21.62,673642
14-Oct-10,21.54,21.65,21.44,21.60,433604
13-Oct-10,21.56,21.59,21.46,21.49,745461
12-Oct-10,21.62,21.64,21.43,21.45,733736
11-Oct-10,21.50,21.62,21.41,21.61,793713
8-Oct-10,21.05,21.47,21.05,21.46,1347843
7-Oct-10,20.94,21.11,20.83,21.10,8214054
6-Oct-10,21.57,21.86,21.52,21.80,367099
5-Oct-10,21.49,21.58,21.33,21.48,362581
4-Oct-10,21.41,21.41,21.24,21.33,229188
1-Oct-10,21.70,21.70,21.14,21.30,465021
30-Sep-10,21.74,21.80,21.42,21.52,295269
29-Sep-10,21.79,21.93,21.50,21.62,611891
28-Sep-10,21.79,21.79,21.39,21.79,627561
27-Sep-10,23.20,23.20,22.79,22.81,789458
24-Sep-10,22.87,22.99,22.74,22.90,485930
23-Sep-10,22.99,23.20,22.62,22.65,438176
22-Sep-10,22.91,23.15,22.79,23.06,580532
21-Sep-10,23.10,23.10,22.52,22.74,978930
20-Sep-10,22.10,22.32,21.97,22.30,432835
17-Sep-10,21.91,22.00,21.76,22.00,360955
16-Sep-10,21.93,21.93,21.76,21.83,144576
15-Sep-10,21.81,21.91,21.71,21.84,233309
14-Sep-10,21.60,21.96,21.60,21.81,207015
13-Sep-10,21.58,21.60,21.46,21.59,218262
10-Sep-10,21.33,21.49,21.28,21.43,219719
9-Sep-10,21.59,21.59,21.16,21.33,263911
8-Sep-10,21.09,21.44,21.06,21.43,233214
7-Sep-10,21.27,21.27,21.00,21.00,198316
3-Sep-10,21.38,21.38,21.11,21.23,197056
2-Sep-10,21.25,21.27,21.10,21.20,132953
1-Sep-10,21.06,21.19,20.94,21.19,249041
31-Aug-10,20.77,20.96,20.63,20.90,178006
30-Aug-10,20.83,20.97,20.75,20.75,157103
27-Aug-10,20.79,20.85,20.56,20.84,177062
26-Aug-10,20.66,20.90,20.64,20.67,169431
25-Aug-10,20.58,20.66,20.32,20.65,203351
24-Aug-10,20.31,20.71,20.21,20.59,258021
23-Aug-10,20.75,20.75,20.33,20.38,136239
20-Aug-10,20.60,20.66,20.37,20.56,176136
19-Aug-10,20.89,20.89,20.60,20.60,177864
18-Aug-10,20.65,20.90,20.55,20.89,279863
17-Aug-10,20.46,20.67,20.27,20.62,243200
16-Aug-10,20.45,20.65,20.24,20.37,173940
13-Aug-10,20.51,20.58,20.30,20.31,155319
12-Aug-10,20.44,20.62,20.34,20.50,195157
11-Aug-10,20.50,20.65,20.45,20.58,171028
10-Aug-10,20.75,20.86,20.66,20.73,211462
9-Aug-10,20.75,20.85,20.70,20.81,186353
6-Aug-10,20.48,20.71,20.37,20.70,200374
5-Aug-10,20.64,20.74,20.46,20.48,154179
4-Aug-10,20.75,20.83,20.42,20.59,256875
3-Aug-10,20.50,20.65,20.40,20.50,208982
2-Aug-10,20.56,20.64,20.20,20.39,413680
30-Jul-10,20.16,20.47,20.16,20.35,85708
29-Jul-10,20.34,20.59,20.09,20.40,395530
28-Jul-10,20.89,20.90,20.28,20.33,295211
27-Jul-10,20.80,21.00,20.74,20.84,121912
26-Jul-10,20.73,20.87,20.67,20.79,135477
23-Jul-10,20.25,20.65,20.19,20.63,149991
22-Jul-10,20.23,20.39,20.15,20.32,241107
21-Jul-10,20.54,20.54,20.00,20.08,113124
20-Jul-10,19.90,20.43,19.76,20.39,147824
19-Jul-10,20.19,20.19,19.67,20.01,240440
16-Jul-10,20.36,20.45,19.96,19.99,134452
15-Jul-10,20.38,20.62,20.20,20.50,126327
14-Jul-10,20.26,20.43,20.09,20.25,84441
13-Jul-10,20.29,20.58,20.16,20.38,150274
12-Jul-10,20.00,20.18,19.75,20.06,82467
9-Jul-10,20.30,20.35,19.96,20.00,268845
8-Jul-10,20.15,20.35,20.00,20.32,182307
7-Jul-10,19.41,20.00,19.37,20.00,159788
6-Jul-10,19.82,20.07,19.25,19.30,202831
2-Jul-10,19.89,19.96,19.34,19.62,176281
1-Jul-10,19.99,20.16,19.53,19.84,361462
30-Jun-10,20.22,20.45,19.95,20.01,170874
29-Jun-10,20.36,20.39,20.08,20.23,183087
28-Jun-10,20.86,20.86,20.40,20.47,259145
25-Jun-10,20.81,21.49,20.59,21.47,754266
24-Jun-10,20.69,20.89,20.61,20.68,170593
23-Jun-10,21.04,21.08,20.61,20.70,257508
22-Jun-10,21.36,21.42,20.95,20.97,252142
21-Jun-10,21.23,21.32,21.08,21.16,285673
18-Jun-10,21.10,21.26,20.80,21.00,236358
17-Jun-10,21.13,21.20,20.85,21.00,116159
16-Jun-10,20.69,21.19,20.69,20.97,286627
15-Jun-10,20.84,20.97,20.71,20.76,240599
14-Jun-10,20.90,20.90,20.63,20.77,213752
11-Jun-10,20.50,20.85,20.44,20.74,274164
10-Jun-10,20.60,20.70,20.52,20.68,173333
9-Jun-10,20.39,20.58,20.17,20.39,150671
8-Jun-10,19.98,20.37,19.88,20.29,282624
7-Jun-10,20.32,20.58,19.94,19.99,277060
4-Jun-10,20.40,20.46,20.14,20.15,342838
3-Jun-10,20.76,20.85,20.50,20.62,312974
2-Jun-10,20.72,20.85,20.58,20.85,411817
1-Jun-10,20.53,21.02,20.53,20.61,553611
28-May-10,20.79,21.10,20.50,20.59,1279256
27-May-10,20.50,20.77,20.34,20.77,497246
26-May-10,19.79,20.40,19.75,20.13,495802
25-May-10,19.46,19.64,19.13,19.64,508958
24-May-10,19.74,19.90,19.50,19.84,530143
21-May-10,19.01,19.78,18.90,19.71,637690
20-May-10,19.62,19.85,19.04,19.08,666620
19-May-10,19.86,20.12,19.50,19.97,443717
18-May-10,20.28,20.49,19.88,19.95,421333
17-May-10,20.09,20.23,19.75,20.09,306330
14-May-10,20.23,20.26,19.57,19.94,292211
13-May-10,20.34,20.40,20.15,20.29,290082
12-May-10,20.10,20.43,20.08,20.32,218593
11-May-10,19.82,20.23,19.80,20.10,243530
10-May-10,19.90,20.00,19.63,19.97,301423
7-May-10,19.73,19.73,18.80,19.23,495215
6-May-10,19.93,20.09,15.00,19.71,748217
5-May-10,20.39,20.40,19.80,19.92,362623
4-May-10,20.51,20.64,20.35,20.46,377427
3-May-10,20.69,20.76,20.61,20.75,297546
30-Apr-10,20.88,20.88,20.63,20.65,508469
29-Apr-10,20.64,20.93,20.51,20.84,1211079
28-Apr-10,20.67,20.75,20.41,20.55,4994664
27-Apr-10,21.55,21.81,20.88,20.89,565258
26-Apr-10,21.83,21.92,21.62,21.69,188304
23-Apr-10,21.60,22.07,21.50,21.92,204391
22-Apr-10,22.07,22.29,21.90,22.20,128420
21-Apr-10,22.12,22.27,21.87,22.16,162082
20-Apr-10,21.62,22.03,21.54,22.03,451553
19-Apr-10,22.24,22.50,20.92,21.62,348965
16-Apr-10,23.10,23.10,22.25,22.27,287237
15-Apr-10,23.36,23.48,23.11,23.31,98394
14-Apr-10,22.95,23.46,22.87,23.38,141079
13-Apr-10,22.70,22.97,22.51,22.90,101321
12-Apr-10,22.68,22.73,22.43,22.68,160592
9-Apr-10,22.72,22.81,22.57,22.69,101716
8-Apr-10,23.04,23.04,22.73,22.75,97343
7-Apr-10,23.20,23.26,22.99,23.05,133214
6-Apr-10,23.15,23.31,22.98,23.30,172693
5-Apr-10,23.08,23.35,23.01,23.21,119358
1-Apr-10,23.02,23.10,22.86,23.02,130483
31-Mar-10,22.90,23.02,22.66,23.00,235611
30-Mar-10,22.60,22.94,22.53,22.87,79718
29-Mar-10,22.47,22.60,22.12,22.55,125940
26-Mar-10,23.32,23.42,22.95,23.10,214213
25-Mar-10,23.47,23.53,23.29,23.32,131532
24-Mar-10,23.29,23.50,23.22,23.28,114069
23-Mar-10,23.00,23.42,22.99,23.42,137528
22-Mar-10,23.03,23.18,22.96,23.02,186587
19-Mar-10,23.03,23.18,22.90,23.05,433732
18-Mar-10,23.42,23.56,22.82,23.16,362215
17-Mar-10,23.84,23.96,23.70,23.81,139604
16-Mar-10,23.73,23.84,23.67,23.75,112006
15-Mar-10,23.81,23.81,23.60,23.75,122115
12-Mar-10,23.70,23.77,23.64,23.73,105422
11-Mar-10,23.71,23.74,23.48,23.61,111363
10-Mar-10,23.74,23.99,23.52,23.71,159981
9-Mar-10,23.29,23.80,23.05,23.70,210085
8-Mar-10,23.19,23.48,23.08,23.41,126832
5-Mar-10,22.97,23.10,22.91,23.08,139561
4-Mar-10,23.08,23.15,22.61,22.85,134412
3-Mar-10,22.95,23.15,22.85,23.14,77809
2-Mar-10,22.95,22.96,22.72,22.94,73962
1-Mar-10,22.79,22.95,22.66,22.87,109259
26-Feb-10,22.56,22.70,22.41,22.70,220467
25-Feb-10,22.15,22.55,22.15,22.50,147243
24-Feb-10,22.27,22.35,22.15,22.28,108985
23-Feb-10,22.25,22.32,22.10,22.15,135323
22-Feb-10,22.27,22.35,22.00,22.18,106611
19-Feb-10,22.49,22.49,21.87,22.15,186989
18-Feb-10,22.31,22.44,22.21,22.44,171078
17-Feb-10,22.45,22.46,22.00,22.28,139228
16-Feb-10,21.92,22.33,21.87,22.32,144012
12-Feb-10,21.68,21.87,21.57,21.87,93743
11-Feb-10,21.78,21.94,21.66,21.80,84152
10-Feb-10,22.00,22.00,21.67,21.74,94969
9-Feb-10,22.35,22.49,21.77,22.09,171712
8-Feb-10,22.40,22.47,22.27,22.27,84094
5-Feb-10,22.23,22.46,22.06,22.35,235465
4-Feb-10,22.85,22.97,22.16,22.25,214654
3-Feb-10,22.85,23.15,22.77,22.92,143520
2-Feb-10,22.83,23.12,22.62,23.02,255602
1-Feb-10,22.41,22.82,22.41,22.75,250138
29-Jan-10,23.05,23.32,22.34,22.40,976240
28-Jan-10,22.45,22.94,22.45,22.92,360477
27-Jan-10,22.65,22.69,22.41,22.49,210775
26-Jan-10,22.42,22.74,22.27,22.53,240960
25-Jan-10,22.24,22.44,21.91,22.42,196858
22-Jan-10,22.38,22.44,22.00,22.01,262118
21-Jan-10,22.03,22.29,21.86,22.26,243414
20-Jan-10,22.30,22.37,22.00,22.03,233552
19-Jan-10,21.96,22.55,21.85,22.52,367851
15-Jan-10,21.97,22.00,21.74,21.96,236024
14-Jan-10,21.70,22.00,21.70,21.93,385401
13-Jan-10,21.66,21.95,21.40,21.81,512587
12-Jan-10,21.35,21.78,21.35,21.37,3719001
11-Jan-10,22.28,22.34,21.50,21.50,428715
8-Jan-10,22.59,22.83,22.32,22.40,110311
7-Jan-10,22.50,22.50,21.90,22.45,175369
6-Jan-10,22.76,23.00,22.76,22.85,64427
5-Jan-10,22.90,23.05,22.78,22.79,87087
4-Jan-10,23.14,23.18,22.87,22.90,78050
31-Dec-09,22.76,22.93,22.73,22.76,45436
30-Dec-09,22.85,22.94,22.56,22.72,49839
29-Dec-09,22.16,23.13,22.12,22.79,138218
28-Dec-09,23.97,24.05,23.72,23.75,150804
24-Dec-09,24.05,24.18,23.60,23.71,63810
23-Dec-09,24.00,24.35,23.83,23.99,103337
22-Dec-09,23.65,24.92,23.50,23.95,203277
21-Dec-09,23.56,23.65,23.36,23.50,120816
18-Dec-09,23.23,23.53,23.07,23.25,241379
17-Dec-09,22.87,23.50,22.63,22.73,293662
16-Dec-09,22.50,23.00,22.50,22.53,47209
15-Dec-09,22.91,23.02,22.18,22.18,49142
14-Dec-09,22.53,22.91,22.49,22.90,16675
11-Dec-09,22.25,22.50,22.18,22.46,33313
10-Dec-09,22.58,22.58,22.12,22.18,26254
9-Dec-09,22.30,22.70,22.05,22.55,60765
8-Dec-09,21.95,22.51,21.95,22.25,19529
7-Dec-09,21.86,22.24,21.80,22.17,21011
4-Dec-09,22.00,22.39,21.76,21.84,49822
3-Dec-09,21.75,22.00,21.64,21.79,27936
2-Dec-09,21.38,21.89,21.31,21.72,44048
1-Dec-09,21.30,21.31,20.76,21.30,60851
30-Nov-09,21.75,21.75,21.20,21.20,136397
27-Nov-09,21.70,22.07,21.66,21.76,31160
25-Nov-09,21.96,22.10,21.83,21.91,27112
24-Nov-09,21.71,22.05,21.70,21.91,61122
23-Nov-09,21.93,22.01,21.53,21.84,48780
20-Nov-09,21.99,21.99,21.74,21.80,53919
19-Nov-09,21.77,22.00,21.69,21.93,42516
18-Nov-09,22.00,22.03,21.79,21.89,34632
17-Nov-09,21.90,21.95,21.59,21.95,33302
16-Nov-09,21.56,21.96,21.50,21.94,72751
13-Nov-09,21.46,21.53,21.35,21.50,59663
12-Nov-09,21.40,21.48,21.36,21.43,43549
11-Nov-09,21.40,21.50,21.35,21.40,120992
10-Nov-09,21.11,21.39,21.11,21.38,48721
9-Nov-09,20.76,21.47,20.76,21.36,120220
6-Nov-09,20.45,20.64,20.18,20.64,75137
5-Nov-09,19.82,20.52,19.82,20.52,142431
4-Nov-09,19.53,19.65,19.34,19.52,64239
3-Nov-09,19.73,19.75,19.39,19.53,88542
2-Nov-09,20.07,20.11,19.51,19.79,116408
30-Oct-09,20.01,20.21,19.89,19.94,102556
29-Oct-09,20.13,20.25,19.95,20.15,65623
28-Oct-09,20.25,20.34,20.00,20.00,90661
27-Oct-09,20.58,20.58,20.20,20.25,45720
26-Oct-09,20.27,20.59,20.27,20.45,51336
23-Oct-09,20.70,20.70,20.31,20.35,40705
22-Oct-09,20.59,20.75,20.59,20.70,58699
21-Oct-09,21.01,21.01,20.59,20.73,111910
20-Oct-09,21.23,21.36,21.00,21.30,87332
19-Oct-09,21.09,21.37,20.96,21.23,98410
16-Oct-09,21.09,21.11,20.92,20.99,72092
15-Oct-09,21.00,21.20,20.90,21.20,125337
14-Oct-09,21.16,21.17,20.97,21.08,182948
13-Oct-09,20.91,21.07,20.47,21.00,59963
12-Oct-09,21.20,21.30,20.86,20.87,55586
9-Oct-09,21.25,21.34,21.08,21.25,35125
8-Oct-09,21.46,21.55,21.26,21.29,51389
7-Oct-09,21.41,21.53,21.27,21.36,64581
6-Oct-09,21.32,21.48,21.15,21.41,60700
5-Oct-09,21.60,21.60,21.12,21.27,81976
2-Oct-09,21.52,21.79,21.31,21.34,27939
1-Oct-09,21.85,21.94,21.25,21.77,95513
30-Sep-09,22.00,22.09,21.71,21.85,633334
29-Sep-09,21.52,22.15,21.27,21.96,180961
28-Sep-09,21.64,21.81,21.25,21.39,67081
25-Sep-09,21.40,21.77,21.26,21.42,27033
24-Sep-09,22.00,22.00,21.33,21.60,104276
23-Sep-09,22.18,22.18,21.67,21.93,122302
22-Sep-09,21.88,22.10,21.86,21.95,199451
21-Sep-09,21.70,21.95,21.50,21.91,62048
18-Sep-09,21.45,22.03,21.29,22.03,111209
17-Sep-09,21.95,22.00,20.95,21.58,142665
16-Sep-09,21.38,21.95,21.35,21.95,79180
15-Sep-09,21.60,21.83,21.19,21.50,123435
14-Sep-09,21.00,21.79,20.67,21.70,115397
11-Sep-09,20.45,21.14,20.45,21.08,284381
10-Sep-09,20.35,20.64,20.23,20.40,66995
9-Sep-09,20.80,20.98,20.18,20.27,172721
8-Sep-09,20.90,21.18,20.26,20.75,154258
4-Sep-09,20.19,20.98,20.15,20.96,116763
3-Sep-09,20.20,20.20,20.00,20.16,81886
2-Sep-09,20.10,20.18,20.08,20.16,47865
1-Sep-09,20.10,20.24,20.08,20.10,85649
31-Aug-09,20.07,20.18,20.07,20.11,29165
28-Aug-09,20.09,20.17,20.07,20.10,63707
27-Aug-09,20.10,20.17,20.08,20.12,68169
26-Aug-09,20.07,20.24,20.04,20.14,175606
25-Aug-09,20.04,20.04,19.93,20.03,137985
24-Aug-09,20.23,20.23,20.00,20.10,144113
21-Aug-09,20.17,20.25,20.04,20.10,96572
20-Aug-09,19.95,20.22,19.95,20.16,164219
19-Aug-09,19.97,20.18,19.94,19.99,86230
18-Aug-09,20.00,20.12,19.91,20.00,128430
17-Aug-09,19.87,20.00,19.87,19.93,56041
14-Aug-09,19.99,20.05,19.97,20.05,57805
13-Aug-09,19.95,20.14,19.81,19.97,67599
12-Aug-09,20.02,20.02,19.92,19.96,29538
11-Aug-09,20.05,20.05,19.80,20.02,72459
10-Aug-09,20.05,20.20,20.00,20.05,56642
7-Aug-09,19.96,20.15,19.92,20.13,104215
6-Aug-09,19.87,20.07,19.87,19.95,79769
5-Aug-09,19.88,20.00,19.81,19.95,258825
4-Aug-09,19.86,20.00,19.86,19.95,63711
3-Aug-09,20.00,20.01,19.87,20.01,57980
31-Jul-09,19.85,20.03,19.81,20.00,89810
30-Jul-09,20.05,20.05,19.81,20.00,55622
29-Jul-09,20.00,20.07,20.00,20.05,57430
28-Jul-09,19.79,20.04,19.79,20.00,59800
27-Jul-09,20.04,20.05,19.93,20.05,407900
24-Jul-09,20.06,20.06,19.76,19.76,140395
23-Jul-09,20.05,20.05,19.85,20.03,266735
22-Jul-09,19.85,20.03,19.82,20.03,81000
21-Jul-09,19.95,20.00,19.75,19.88,66450
20-Jul-09,20.00,20.00,19.77,19.95,37616
17-Jul-09,19.79,19.99,19.75,19.90,109665
16-Jul-09,19.85,19.85,19.70,19.79,150580
15-Jul-09,19.60,19.95,19.60,19.85,167800
14-Jul-09,19.76,19.80,19.55,19.80,76545
13-Jul-09,19.66,19.78,19.53,19.75,80688
10-Jul-09,19.67,19.92,19.54,19.65,76033
9-Jul-09,19.58,19.75,19.54,19.60,96631
8-Jul-09,19.51,19.79,19.50,19.50,121771
7-Jul-09,19.50,19.70,19.50,19.51,86720
6-Jul-09,19.75,19.85,19.50,19.55,137015
2-Jul-09,19.43,19.85,19.43,19.62,256040
1-Jul-09,19.49,19.50,19.25,19.50,79875
30-Jun-09,19.28,19.49,19.05,19.48,266575
29-Jun-09,19.48,19.50,18.73,19.28,476120
26-Jun-09,19.80,19.80,19.20,19.42,3746743
