﻿Date,Open,High,Low,Close,Volume
20-Jun-17,43.09,43.09,42.43,42.43,387065
19-Jun-17,42.46,43.22,42.30,43.21,664360
16-Jun-17,43.49,43.52,42.40,42.61,1031707
15-Jun-17,43.30,43.60,43.11,43.53,465571
14-Jun-17,44.22,44.22,43.37,43.55,677044
13-Jun-17,44.12,44.20,43.74,44.08,1016083
12-Jun-17,43.65,44.21,43.55,44.07,573029
9-Jun-17,43.33,43.89,43.29,43.67,519890
8-Jun-17,43.60,43.71,43.21,43.28,529542
7-Jun-17,43.76,44.01,43.51,43.61,834276
6-Jun-17,44.20,44.28,43.64,43.72,877706
5-Jun-17,44.53,44.56,44.34,44.34,321644
2-Jun-17,44.67,44.85,44.47,44.56,397841
1-Jun-17,43.65,44.77,43.46,44.73,834163
31-May-17,43.70,43.74,43.38,43.57,523364
30-May-17,43.88,44.11,43.63,43.65,442880
26-May-17,43.64,44.15,43.60,43.94,632290
25-May-17,43.60,44.03,43.60,43.67,882219
24-May-17,43.83,43.83,43.42,43.50,791475
23-May-17,43.87,43.93,43.47,43.72,1002111
22-May-17,42.98,43.93,42.94,43.78,918625
19-May-17,42.77,43.16,42.56,42.93,922127
18-May-17,42.60,43.01,42.44,42.69,563181
17-May-17,42.91,43.28,42.66,42.70,872495
16-May-17,42.66,43.32,42.45,43.30,1011346
15-May-17,42.24,42.91,42.09,42.67,2035881
12-May-17,42.28,42.55,42.01,42.15,1011527
11-May-17,42.25,42.61,41.68,42.54,1493658
10-May-17,45.03,45.25,42.01,42.35,2425381
9-May-17,43.12,43.56,42.86,42.97,1919450
8-May-17,43.17,43.27,42.79,43.06,1362375
5-May-17,42.52,43.24,42.48,43.22,1197684
4-May-17,42.73,42.84,42.44,42.46,1270828
3-May-17,42.99,43.12,42.71,42.73,687437
2-May-17,43.21,43.25,42.94,43.04,726939
1-May-17,43.67,43.85,43.05,43.20,902677
28-Apr-17,44.21,44.23,43.40,43.62,947401
27-Apr-17,44.00,44.39,43.90,44.21,771540
26-Apr-17,44.00,44.17,43.80,43.87,687125
25-Apr-17,44.05,44.25,43.93,44.02,509192
24-Apr-17,43.75,44.04,43.58,43.92,566505
21-Apr-17,43.50,43.66,43.25,43.49,730723
20-Apr-17,43.11,43.59,43.05,43.50,505626
19-Apr-17,42.76,43.26,42.71,42.99,988371
18-Apr-17,42.35,42.78,42.28,42.75,861083
17-Apr-17,42.10,42.56,41.94,42.52,833683
13-Apr-17,42.46,42.55,41.89,41.92,816932
12-Apr-17,42.44,42.57,42.21,42.48,1040582
11-Apr-17,42.10,42.42,41.85,42.42,723380
10-Apr-17,42.34,42.60,42.10,42.24,809611
7-Apr-17,41.89,42.32,41.73,42.20,1439946
6-Apr-17,41.65,41.83,41.25,41.69,1822514
5-Apr-17,42.27,42.43,41.58,41.64,1740385
4-Apr-17,42.82,43.02,41.98,42.19,1973398
3-Apr-17,43.73,43.87,43.06,43.09,967632
31-Mar-17,44.22,44.23,43.60,43.67,846041
30-Mar-17,44.14,44.32,44.08,44.20,504632
29-Mar-17,43.54,44.16,43.54,44.08,872347
28-Mar-17,43.32,44.02,43.29,43.93,567638
27-Mar-17,43.19,43.49,43.10,43.46,669544
24-Mar-17,43.66,43.74,43.38,43.47,704545
23-Mar-17,43.66,44.08,43.42,43.58,750193
22-Mar-17,43.88,44.16,43.50,43.74,1145290
21-Mar-17,44.79,44.79,43.51,43.80,1388856
20-Mar-17,45.30,45.37,44.60,44.67,606195
17-Mar-17,45.46,45.64,45.08,45.64,1064195
16-Mar-17,45.07,45.53,44.89,45.52,934704
15-Mar-17,44.91,45.22,44.85,45.04,747034
14-Mar-17,44.83,45.03,44.67,44.80,586397
13-Mar-17,45.02,45.13,44.82,44.95,426612
10-Mar-17,45.04,45.15,44.68,44.95,522371
9-Mar-17,44.98,45.07,44.66,44.86,486329
8-Mar-17,44.69,44.99,44.50,44.98,739007
7-Mar-17,44.95,45.15,44.65,44.72,1036065
6-Mar-17,45.24,45.33,44.66,44.99,1260646
3-Mar-17,45.29,45.59,45.00,45.51,1043749
2-Mar-17,45.23,45.71,45.01,45.17,1237377
1-Mar-17,44.97,45.27,44.81,45.05,1459403
28-Feb-17,44.89,45.05,44.65,44.82,1146924
27-Feb-17,44.49,44.92,44.16,44.89,1268476
24-Feb-17,44.40,44.73,44.30,44.51,1193811
23-Feb-17,44.65,44.91,44.35,44.50,1648999
22-Feb-17,43.97,45.01,43.26,44.80,4894339
21-Feb-17,46.84,46.95,46.45,46.69,1355071
17-Feb-17,46.22,46.48,46.09,46.48,813374
16-Feb-17,46.55,46.76,46.17,46.51,962205
15-Feb-17,46.50,47.03,46.27,46.70,754600
14-Feb-17,46.14,46.51,46.02,46.42,476534
13-Feb-17,45.99,46.44,45.77,46.34,540235
10-Feb-17,45.65,46.00,45.48,45.96,473309
9-Feb-17,45.34,45.67,45.24,45.62,633096
8-Feb-17,45.02,45.25,44.85,45.10,682841
7-Feb-17,45.25,45.45,45.12,45.22,726831
6-Feb-17,45.36,45.50,45.08,45.25,665311
3-Feb-17,45.18,45.40,44.97,45.19,491396
2-Feb-17,45.07,45.30,44.89,44.97,566614
1-Feb-17,45.54,45.74,44.79,45.05,617840
31-Jan-17,45.31,45.55,45.09,45.55,340548
30-Jan-17,45.36,45.48,44.91,45.42,461381
27-Jan-17,45.76,45.76,45.25,45.51,604838
26-Jan-17,45.79,45.85,45.41,45.52,341837
25-Jan-17,45.61,45.94,45.50,45.67,364019
24-Jan-17,45.05,45.66,44.98,45.59,690836
23-Jan-17,45.37,45.50,44.99,45.12,324343
20-Jan-17,45.21,45.39,44.97,45.38,610133
19-Jan-17,45.87,46.05,45.14,45.25,743790
18-Jan-17,45.80,46.13,45.58,45.85,988515
17-Jan-17,45.65,46.01,45.41,45.92,1147682
13-Jan-17,45.72,45.75,45.49,45.66,726651
12-Jan-17,45.13,45.51,44.85,45.50,752877
11-Jan-17,45.32,45.42,45.16,45.32,1027452
10-Jan-17,45.23,45.37,44.91,45.34,1154379
9-Jan-17,44.69,45.20,44.30,45.17,1388190
6-Jan-17,44.23,44.70,43.97,44.61,963439
5-Jan-17,44.05,44.59,43.84,44.29,824222
4-Jan-17,43.35,44.14,43.33,44.14,953785
3-Jan-17,43.70,43.70,42.74,43.31,1228401
30-Dec-16,42.71,42.78,42.53,42.62,619308
29-Dec-16,42.48,42.71,42.48,42.58,705290
28-Dec-16,43.02,43.02,42.31,42.57,590720
27-Dec-16,42.76,43.04,42.52,42.94,812973
23-Dec-16,42.53,42.68,42.30,42.60,391967
22-Dec-16,42.68,42.72,42.13,42.44,692532
21-Dec-16,42.55,42.85,42.47,42.62,481459
20-Dec-16,42.78,43.00,42.42,42.55,647021
19-Dec-16,42.75,42.97,42.46,42.66,722157
16-Dec-16,43.29,43.48,42.84,42.95,925590
15-Dec-16,42.80,43.29,42.70,43.25,630564
14-Dec-16,42.75,43.24,42.53,42.75,765787
13-Dec-16,43.01,43.14,42.76,42.78,636494
12-Dec-16,43.22,43.24,42.61,42.80,945876
9-Dec-16,43.43,43.43,43.07,43.34,1085761
8-Dec-16,43.41,43.62,43.04,43.34,713305
7-Dec-16,42.58,43.44,42.58,43.21,932380
6-Dec-16,42.00,42.71,41.96,42.69,898364
5-Dec-16,41.97,42.41,41.77,42.06,815016
2-Dec-16,41.62,41.85,41.52,41.68,799395
1-Dec-16,42.21,42.46,41.39,41.49,1321332
30-Nov-16,41.42,42.31,41.42,42.16,1207943
29-Nov-16,41.71,42.06,41.50,41.65,1050715
28-Nov-16,41.64,41.90,41.45,41.70,1514720
25-Nov-16,41.64,41.80,41.44,41.66,273522
23-Nov-16,40.41,41.65,40.41,41.55,1422254
22-Nov-16,40.83,40.96,40.40,40.50,1418453
21-Nov-16,40.17,40.79,39.95,40.66,907729
18-Nov-16,40.18,40.24,39.74,40.17,651469
17-Nov-16,40.58,40.65,39.83,39.98,877367
16-Nov-16,40.10,40.68,39.87,40.52,804548
15-Nov-16,39.83,40.27,39.70,40.16,1001504
14-Nov-16,39.54,39.94,39.52,39.82,863759
11-Nov-16,38.71,39.43,38.39,39.35,1200170
10-Nov-16,39.32,39.67,38.60,38.66,1733875
9-Nov-16,38.29,39.44,38.29,39.22,1546418
8-Nov-16,38.81,38.99,38.16,38.77,2694725
7-Nov-16,39.31,39.60,38.76,38.85,2076318
4-Nov-16,40.50,41.36,38.86,38.94,4996028
3-Nov-16,42.50,42.71,42.01,42.10,1634630
2-Nov-16,42.10,42.50,42.00,42.17,1362216
1-Nov-16,42.49,42.66,41.82,42.02,762803
31-Oct-16,42.36,42.73,42.17,42.58,726062
28-Oct-16,42.01,42.59,42.01,42.50,1267579
27-Oct-16,42.80,42.97,41.90,41.90,1081436
26-Oct-16,43.00,43.21,42.80,42.80,538086
25-Oct-16,43.59,43.59,43.02,43.02,709675
24-Oct-16,43.50,44.02,43.42,43.67,369744
21-Oct-16,43.40,43.58,43.12,43.35,814910
20-Oct-16,43.71,43.86,43.55,43.71,839355
19-Oct-16,44.00,44.04,43.50,43.85,797343
18-Oct-16,43.77,43.89,43.59,43.77,748990
17-Oct-16,43.30,43.61,43.27,43.42,555676
14-Oct-16,43.60,43.63,43.28,43.42,473644
13-Oct-16,43.17,43.35,42.96,43.30,762049
12-Oct-16,43.20,43.82,43.09,43.55,844443
11-Oct-16,43.23,43.27,42.86,43.21,635431
10-Oct-16,43.57,43.92,43.37,43.40,521814
7-Oct-16,43.81,43.81,43.18,43.45,756081
6-Oct-16,43.63,43.89,43.25,43.74,1305197
5-Oct-16,43.66,44.10,43.51,43.88,1289064
4-Oct-16,43.37,43.49,43.14,43.44,995434
3-Oct-16,43.23,43.85,43.10,43.49,1093005
30-Sep-16,42.83,43.27,42.73,43.16,759884
29-Sep-16,43.08,43.11,42.62,42.80,478371
28-Sep-16,43.31,43.31,42.61,43.04,1164565
27-Sep-16,42.86,43.27,42.86,43.17,735568
26-Sep-16,43.47,43.54,42.95,42.98,980991
23-Sep-16,43.30,43.67,43.23,43.56,1045954
22-Sep-16,43.25,43.49,42.98,43.48,963422
21-Sep-16,42.85,43.07,42.59,42.96,1192896
20-Sep-16,42.31,42.58,42.12,42.56,1296692
19-Sep-16,41.64,42.13,41.64,42.03,1160322
16-Sep-16,41.93,41.99,41.53,41.77,1641964
15-Sep-16,41.50,42.18,41.39,42.06,976710
14-Sep-16,41.70,42.01,41.58,41.69,880223
13-Sep-16,42.27,42.27,41.47,41.74,1417252
12-Sep-16,41.12,42.26,41.00,42.07,1603041
9-Sep-16,42.00,42.10,41.44,41.44,1176239
8-Sep-16,42.35,42.55,42.15,42.20,895949
7-Sep-16,42.49,42.80,42.34,42.62,1292739
6-Sep-16,42.66,42.68,42.12,42.61,807274
2-Sep-16,42.49,42.80,42.40,42.75,893159
1-Sep-16,42.27,42.55,41.99,42.29,611847
31-Aug-16,42.17,42.32,41.94,42.28,640373
30-Aug-16,42.31,42.47,41.90,42.17,739903
29-Aug-16,42.04,42.60,42.04,42.34,636169
26-Aug-16,42.21,42.65,41.86,42.09,598190
25-Aug-16,42.23,42.28,41.99,42.06,1108312
24-Aug-16,42.16,42.38,42.06,42.25,758116
23-Aug-16,41.87,42.53,41.87,42.27,1154877
22-Aug-16,41.85,42.01,41.56,41.87,915517
19-Aug-16,41.63,41.74,41.42,41.61,641300
18-Aug-16,41.20,41.76,41.04,41.75,1239827
17-Aug-16,41.14,41.24,40.82,41.13,821471
16-Aug-16,40.73,41.16,40.62,41.08,1193207
15-Aug-16,40.92,41.18,40.81,41.06,942842
12-Aug-16,41.08,41.12,40.72,40.80,608191
11-Aug-16,40.80,41.27,40.65,41.08,1269096
10-Aug-16,40.43,40.81,40.24,40.69,2109610
9-Aug-16,40.48,40.82,40.33,40.40,1428349
8-Aug-16,40.86,41.09,40.52,40.55,1526281
5-Aug-16,41.01,41.12,40.58,40.81,1724098
4-Aug-16,41.13,41.38,40.74,40.78,1820228
3-Aug-16,41.00,41.66,40.23,41.13,4202510
2-Aug-16,42.79,42.90,41.94,42.45,2058360
1-Aug-16,42.64,43.20,42.36,42.92,2440485
29-Jul-16,43.01,43.02,42.52,42.77,810770
28-Jul-16,42.91,43.14,42.60,43.00,1081478
27-Jul-16,43.48,43.48,42.67,42.87,799259
26-Jul-16,43.51,43.91,43.11,43.36,2015810
25-Jul-16,42.96,43.26,42.77,43.23,875856
22-Jul-16,42.42,43.27,42.30,42.98,1185913
21-Jul-16,42.31,42.47,42.06,42.35,655736
20-Jul-16,42.49,42.60,42.26,42.27,637751
19-Jul-16,42.12,42.41,42.03,42.28,436042
18-Jul-16,42.10,42.55,42.01,42.34,637234
15-Jul-16,42.67,42.70,42.16,42.27,853938
14-Jul-16,42.15,42.51,41.86,42.44,1475694
13-Jul-16,42.76,42.85,42.51,42.62,439497
12-Jul-16,42.75,42.99,42.44,42.71,816563
11-Jul-16,42.28,42.58,42.20,42.55,706855
8-Jul-16,41.88,42.26,41.62,42.13,957361
7-Jul-16,41.79,41.98,41.30,41.52,857407
6-Jul-16,41.17,42.00,41.17,41.85,1024862
5-Jul-16,41.79,41.79,41.28,41.49,1010258
1-Jul-16,41.72,42.11,41.51,41.88,1183760
30-Jun-16,41.39,41.76,41.02,41.74,820651
29-Jun-16,40.22,41.37,40.04,41.25,1116159
28-Jun-16,39.20,39.86,39.11,39.77,919832
27-Jun-16,39.80,39.80,38.71,38.90,1412365
24-Jun-16,39.70,40.56,39.70,40.15,3363205
23-Jun-16,40.00,40.80,39.93,40.78,983144
22-Jun-16,39.84,39.84,39.45,39.77,1012517
21-Jun-16,39.66,39.84,39.49,39.66,915622
20-Jun-16,39.52,39.80,39.40,39.68,1321528
17-Jun-16,39.75,39.75,39.10,39.37,1978662
16-Jun-16,39.77,39.99,39.31,39.93,1261161
15-Jun-16,39.75,40.14,39.56,39.89,1038538
14-Jun-16,40.07,40.21,39.55,39.67,1115663
13-Jun-16,40.59,40.86,40.29,40.29,632920
10-Jun-16,41.17,41.33,40.82,40.86,672032
9-Jun-16,41.01,41.58,40.88,41.52,1555232
8-Jun-16,41.38,41.38,41.00,41.30,1074403
7-Jun-16,41.20,41.45,40.93,41.35,1411434
6-Jun-16,41.03,41.20,40.86,41.04,478274
3-Jun-16,41.15,41.15,40.70,40.96,614428
2-Jun-16,41.45,41.55,41.22,41.28,818520
1-Jun-16,40.89,41.49,40.80,41.48,978518
31-May-16,41.29,41.29,40.91,41.04,1175789
27-May-16,41.07,41.33,40.99,41.23,664514
26-May-16,41.03,41.23,40.85,41.00,862773
25-May-16,40.67,41.02,40.67,40.83,780371
24-May-16,40.60,40.75,40.31,40.70,616225
23-May-16,40.45,40.76,40.21,40.31,786531
20-May-16,40.09,40.55,39.91,40.38,1093969
19-May-16,39.75,40.07,39.69,39.94,1976698
18-May-16,39.81,40.08,39.60,39.94,1106666
17-May-16,39.85,40.01,39.53,39.73,1503837
16-May-16,39.31,39.90,39.26,39.89,653645
13-May-16,39.43,39.66,38.95,39.13,812561
12-May-16,39.55,39.62,39.14,39.54,886354
11-May-16,39.70,39.77,39.22,39.44,1126104
10-May-16,39.38,39.78,38.76,39.76,1206809
9-May-16,39.09,39.53,38.99,39.31,664711
6-May-16,38.69,39.22,38.58,39.17,651059
5-May-16,39.50,39.69,38.79,38.88,2017976
4-May-16,39.13,40.06,38.50,39.47,4795412
3-May-16,36.25,36.74,35.68,36.41,2783980
2-May-16,37.36,37.57,35.83,36.58,3117971
29-Apr-16,37.99,38.12,37.38,37.60,832601
28-Apr-16,38.02,38.61,37.92,38.04,840441
27-Apr-16,38.48,38.64,37.93,38.17,1027815
26-Apr-16,38.38,38.88,38.18,38.66,1029246
25-Apr-16,38.35,38.50,38.13,38.33,665245
22-Apr-16,38.32,38.54,38.12,38.41,1090198
21-Apr-16,38.61,38.83,38.33,38.42,516176
20-Apr-16,38.68,38.72,38.28,38.48,462561
19-Apr-16,38.91,39.02,38.21,38.66,576976
18-Apr-16,38.50,38.89,38.45,38.81,516946
15-Apr-16,38.57,38.64,38.31,38.56,1011382
14-Apr-16,39.00,39.13,38.46,38.47,1291255
13-Apr-16,38.05,39.07,37.98,39.00,817371
12-Apr-16,38.19,38.38,37.43,37.93,1867548
11-Apr-16,38.69,38.83,38.20,38.20,841477
8-Apr-16,38.59,38.70,38.27,38.56,710126
7-Apr-16,38.35,38.46,38.04,38.28,820803
6-Apr-16,38.24,38.51,38.08,38.48,545670
5-Apr-16,37.80,38.42,37.80,38.30,817969
4-Apr-16,38.51,38.64,38.10,38.16,1160200
1-Apr-16,37.94,38.53,37.81,38.45,1091766
31-Mar-16,38.24,38.44,37.98,38.14,1080871
30-Mar-16,38.07,38.37,37.90,38.19,783422
29-Mar-16,37.35,37.87,37.15,37.81,1220690
28-Mar-16,37.38,37.54,36.99,37.45,1007731
24-Mar-16,36.76,37.24,36.49,37.23,886038
23-Mar-16,37.11,37.13,36.75,36.83,569909
22-Mar-16,36.93,37.25,36.81,37.03,797705
21-Mar-16,37.27,37.29,36.96,37.18,808695
18-Mar-16,37.76,37.89,37.35,37.46,1193775
17-Mar-16,37.37,37.87,37.25,37.76,897191
16-Mar-16,36.68,37.46,36.51,37.40,902355
15-Mar-16,37.07,37.18,36.66,36.81,628371
14-Mar-16,37.64,37.64,37.05,37.19,695639
11-Mar-16,37.11,37.59,36.80,37.56,1527474
10-Mar-16,36.98,37.35,36.69,36.72,1388959
9-Mar-16,36.17,36.90,36.01,36.88,958626
8-Mar-16,36.19,36.46,35.80,36.00,1045721
7-Mar-16,36.22,36.48,35.67,36.34,861671
4-Mar-16,36.36,36.80,36.26,36.50,1141281
3-Mar-16,35.98,36.39,35.61,36.31,1124246
2-Mar-16,36.14,36.25,35.89,36.01,681755
1-Mar-16,35.55,36.31,35.49,36.24,1039924
29-Feb-16,35.48,35.67,35.25,35.41,779093
26-Feb-16,35.38,35.75,35.20,35.57,1023745
25-Feb-16,34.88,35.26,34.48,35.23,889515
24-Feb-16,34.30,34.86,33.94,34.74,919676
23-Feb-16,34.59,35.12,34.38,34.41,825279
22-Feb-16,34.11,35.01,33.98,34.73,1537660
19-Feb-16,33.10,33.94,33.09,33.90,2462623
18-Feb-16,34.59,34.84,32.17,33.13,3423128
17-Feb-16,33.08,34.43,32.61,33.99,2154125
16-Feb-16,32.60,33.12,32.47,33.04,2736760
12-Feb-16,31.73,33.02,31.73,32.51,2318247
11-Feb-16,32.13,32.37,31.61,32.20,746228
10-Feb-16,32.36,33.07,32.10,32.55,1021393
9-Feb-16,31.90,32.35,31.63,32.15,1451942
8-Feb-16,32.67,32.72,31.74,32.16,1577569
5-Feb-16,33.73,33.81,32.90,32.99,1216118
4-Feb-16,33.58,33.93,33.43,33.89,1426106
3-Feb-16,34.09,34.18,33.29,33.66,1485117
2-Feb-16,34.05,34.06,33.54,33.90,1487335
1-Feb-16,33.18,34.46,32.88,34.25,1913676
29-Jan-16,32.17,33.50,31.54,33.42,1604911
28-Jan-16,32.91,32.91,31.93,31.98,2108106
27-Jan-16,33.55,33.62,32.51,32.66,1744842
26-Jan-16,33.12,33.62,32.94,33.60,856672
25-Jan-16,33.50,33.69,33.03,33.07,1134163
22-Jan-16,33.32,33.70,33.24,33.56,1528158
21-Jan-16,32.95,33.38,32.77,32.92,1695084
20-Jan-16,32.94,33.20,32.00,32.95,1859020
19-Jan-16,33.91,34.06,33.21,33.55,1981851
15-Jan-16,34.41,34.63,33.33,33.70,1672718
14-Jan-16,34.13,34.40,33.53,34.18,1273779
13-Jan-16,34.68,34.71,33.99,34.03,2091142
12-Jan-16,34.77,34.89,33.96,34.67,1504382
11-Jan-16,33.78,34.67,33.78,34.50,1684216
8-Jan-16,34.30,34.59,33.57,33.60,2714855
7-Jan-16,35.16,35.47,34.14,34.25,2145523
6-Jan-16,36.21,36.37,35.20,35.65,2946258
5-Jan-16,36.95,37.11,36.60,36.75,1139883
4-Jan-16,36.69,36.96,36.37,36.92,2439695
31-Dec-15,37.19,37.37,37.03,37.03,966406
30-Dec-15,37.33,37.51,37.20,37.33,701501
29-Dec-15,37.13,37.43,36.98,37.37,672665
28-Dec-15,36.82,37.03,36.78,36.99,725325
24-Dec-15,37.15,37.18,36.75,36.98,529875
23-Dec-15,37.05,37.17,36.87,37.14,1691907
22-Dec-15,36.88,37.07,36.68,36.84,1264892
21-Dec-15,36.81,36.97,36.62,36.82,999066
18-Dec-15,37.06,37.14,36.58,36.63,2088486
17-Dec-15,38.05,38.21,37.37,37.50,1608772
16-Dec-15,38.09,38.33,37.63,38.01,1315158
15-Dec-15,38.03,38.21,37.75,37.85,1075403
14-Dec-15,37.88,38.18,37.49,37.78,1664979
11-Dec-15,37.76,38.31,37.69,37.89,1704561
10-Dec-15,38.32,38.56,38.10,38.16,861308
9-Dec-15,38.30,38.74,38.10,38.24,1568200
8-Dec-15,38.26,38.59,38.06,38.37,1720601
7-Dec-15,38.50,38.68,38.36,38.49,1358940
4-Dec-15,38.02,38.59,37.84,38.58,1316314
3-Dec-15,38.42,38.56,37.82,38.01,1422688
2-Dec-15,38.30,38.59,38.16,38.29,1093967
1-Dec-15,38.04,38.41,37.87,38.30,1427616
30-Nov-15,37.84,38.04,37.67,37.93,1332615
27-Nov-15,37.56,38.02,37.47,37.90,875243
25-Nov-15,37.43,37.58,37.30,37.49,902720
24-Nov-15,36.85,37.46,36.76,37.38,1572096
23-Nov-15,36.62,37.01,36.55,36.91,1085294
20-Nov-15,36.65,36.81,36.44,36.68,1283797
19-Nov-15,36.41,36.65,36.32,36.48,926432
18-Nov-15,36.18,36.39,36.06,36.31,1211377
17-Nov-15,36.05,36.48,35.98,36.11,1481084
16-Nov-15,35.74,36.10,35.63,36.06,1520174
13-Nov-15,36.09,36.27,35.89,35.96,1590990
12-Nov-15,36.26,36.48,36.13,36.24,2301483
11-Nov-15,37.03,37.05,36.72,36.75,1451652
10-Nov-15,36.54,36.90,36.49,36.87,1853158
9-Nov-15,36.81,36.94,36.38,36.70,1606794
6-Nov-15,37.56,37.88,36.97,37.02,2578188
5-Nov-15,37.65,38.56,36.94,37.70,4349245
4-Nov-15,38.61,38.70,38.26,38.42,1416686
3-Nov-15,38.79,38.85,38.41,38.51,1897436
2-Nov-15,38.45,38.98,38.30,38.84,1399183
30-Oct-15,38.29,38.66,38.12,38.40,870931
29-Oct-15,38.20,38.45,37.97,38.22,1493086
28-Oct-15,38.02,38.36,37.76,38.22,1272023
27-Oct-15,37.97,38.09,37.72,37.95,1458290
26-Oct-15,37.36,38.17,37.36,38.06,2622561
23-Oct-15,37.46,37.47,36.95,37.32,2245338
22-Oct-15,37.48,37.52,36.90,37.20,3939304
21-Oct-15,37.62,37.65,37.15,37.26,866659
20-Oct-15,37.54,37.73,37.38,37.49,789940
19-Oct-15,37.26,37.66,37.09,37.59,700650
16-Oct-15,37.28,37.63,37.17,37.35,899016
15-Oct-15,37.39,37.50,37.16,37.26,1737545
14-Oct-15,37.53,37.80,36.99,37.23,2641741
13-Oct-15,37.71,38.02,37.54,37.56,1426091
12-Oct-15,37.77,38.00,37.63,37.86,719310
9-Oct-15,37.60,37.83,37.28,37.80,953637
8-Oct-15,36.85,37.57,36.59,37.49,1095677
7-Oct-15,36.83,36.94,36.48,36.88,778073
6-Oct-15,36.69,37.04,36.41,36.53,946189
5-Oct-15,36.17,36.80,36.17,36.76,974972
2-Oct-15,35.43,36.14,35.26,36.12,1773264
1-Oct-15,35.51,35.76,35.31,35.76,1052593
30-Sep-15,35.16,35.53,35.02,35.50,1413542
29-Sep-15,35.39,35.40,34.72,34.90,1295240
28-Sep-15,36.04,36.10,35.24,35.40,1178402
25-Sep-15,36.23,36.51,35.92,36.21,785790
24-Sep-15,35.80,36.20,35.67,35.98,1421711
23-Sep-15,35.97,36.18,35.69,36.09,743998
22-Sep-15,36.10,36.32,35.70,36.02,1080959
21-Sep-15,36.45,36.86,36.33,36.55,912168
18-Sep-15,36.40,36.86,36.27,36.39,1451932
17-Sep-15,37.03,37.29,36.71,36.80,1192710
16-Sep-15,36.99,37.12,36.76,37.00,940324
15-Sep-15,36.44,37.00,36.22,36.93,1121560
14-Sep-15,36.73,36.97,36.24,36.40,1113248
11-Sep-15,36.41,36.92,36.39,36.73,832313
10-Sep-15,36.66,36.94,36.51,36.57,1077959
9-Sep-15,37.29,37.41,36.77,36.85,1176104
8-Sep-15,37.18,37.24,36.94,37.14,1303368
4-Sep-15,36.56,37.00,36.53,36.74,1321009
3-Sep-15,36.97,37.20,36.79,36.99,1227883
2-Sep-15,36.68,36.87,36.44,36.82,986929
1-Sep-15,36.48,36.81,36.14,36.32,1114597
31-Aug-15,37.19,37.54,36.95,37.04,1511787
28-Aug-15,37.07,37.54,36.96,37.39,1438507
27-Aug-15,36.72,37.20,36.41,37.16,1463896
26-Aug-15,36.24,36.68,35.43,36.63,1302668
25-Aug-15,36.76,36.76,35.71,35.75,1503623
24-Aug-15,35.55,37.03,34.70,36.10,1493114
21-Aug-15,37.52,37.74,37.03,37.04,896513
20-Aug-15,38.55,38.56,37.86,37.87,928764
19-Aug-15,38.92,39.08,38.56,38.78,839075
18-Aug-15,39.21,39.54,39.19,39.19,671247
17-Aug-15,38.69,39.33,38.38,39.33,1060711
14-Aug-15,38.78,39.04,38.56,38.91,712949
13-Aug-15,38.72,39.04,38.53,38.84,765516
12-Aug-15,38.76,39.12,38.57,38.79,977486
11-Aug-15,39.27,39.45,38.95,39.23,904812
10-Aug-15,39.23,39.82,39.22,39.52,985344
7-Aug-15,39.05,39.08,38.84,38.96,1050186
6-Aug-15,39.50,39.50,38.84,38.99,933779
5-Aug-15,38.97,39.87,38.80,39.39,1544529
4-Aug-15,39.07,39.72,38.29,38.64,2093587
3-Aug-15,38.84,39.50,38.84,39.08,1620768
31-Jul-15,38.68,38.96,38.64,38.93,917486
30-Jul-15,38.47,38.79,38.24,38.63,845549
29-Jul-15,37.62,38.64,37.50,38.59,1506149
28-Jul-15,37.45,37.73,37.01,37.67,853682
27-Jul-15,37.56,37.63,37.21,37.34,972655
24-Jul-15,37.76,37.88,37.50,37.68,1249036
23-Jul-15,38.06,38.13,37.47,37.55,640722
22-Jul-15,37.50,38.18,37.46,38.02,982443
21-Jul-15,38.28,38.28,37.57,37.64,722974
20-Jul-15,38.10,38.37,37.95,38.25,417430
17-Jul-15,38.40,38.46,37.98,38.13,444170
16-Jul-15,38.37,38.50,38.20,38.36,590825
15-Jul-15,37.94,38.32,37.71,38.18,942499
14-Jul-15,37.53,37.92,37.40,37.91,1117892
13-Jul-15,37.75,37.81,37.56,37.57,1664794
10-Jul-15,37.39,37.60,37.25,37.52,644660
9-Jul-15,37.41,37.48,37.03,37.09,827768
8-Jul-15,37.37,37.50,37.00,37.01,964312
7-Jul-15,37.74,37.85,37.14,37.62,887465
6-Jul-15,37.35,37.95,37.32,37.77,1026190
2-Jul-15,37.86,38.04,37.47,37.73,625371
1-Jul-15,37.65,37.93,37.44,37.85,687311
30-Jun-15,37.48,37.60,37.19,37.40,597601
29-Jun-15,37.94,38.06,37.27,37.27,800248
26-Jun-15,38.13,38.39,37.90,38.37,994532
25-Jun-15,37.82,38.10,37.78,38.04,679948
24-Jun-15,38.32,38.44,37.81,37.82,363249
23-Jun-15,38.35,38.49,38.27,38.39,477662
22-Jun-15,38.45,38.50,38.16,38.26,327616
19-Jun-15,38.59,38.59,38.41,38.45,671095
18-Jun-15,38.41,38.63,38.40,38.59,877217
17-Jun-15,38.31,38.50,38.13,38.41,775622
16-Jun-15,37.87,38.22,37.73,38.18,469240
15-Jun-15,38.00,38.00,37.71,37.81,692013
12-Jun-15,37.74,38.32,37.74,38.20,568182
11-Jun-15,38.20,38.44,38.08,38.31,468037
10-Jun-15,38.40,38.46,38.09,38.19,1359804
9-Jun-15,38.20,38.35,38.09,38.17,784534
8-Jun-15,38.24,38.32,38.16,38.25,530678
5-Jun-15,38.29,38.40,38.12,38.35,631962
4-Jun-15,38.07,38.33,38.01,38.29,1687467
3-Jun-15,37.56,38.20,37.44,38.18,1398436
2-Jun-15,37.03,37.55,36.95,37.41,1074857
1-Jun-15,37.13,37.33,36.88,37.05,1112360
29-May-15,37.30,37.41,37.00,37.26,848766
28-May-15,37.32,37.66,37.20,37.25,2083676
27-May-15,37.31,37.57,37.22,37.43,628520
26-May-15,37.50,37.58,37.22,37.33,581313
22-May-15,37.64,37.75,37.45,37.55,665204
21-May-15,37.62,37.85,37.60,37.77,451215
20-May-15,37.70,37.80,37.59,37.67,744250
19-May-15,37.69,37.82,37.63,37.66,777291
18-May-15,37.63,37.80,37.42,37.71,1558408
15-May-15,37.36,37.91,37.35,37.90,677619
14-May-15,37.58,37.68,37.32,37.47,875583
13-May-15,37.42,37.69,37.23,37.34,784731
12-May-15,37.36,37.46,37.22,37.39,813874
11-May-15,37.07,37.58,37.07,37.46,593556
8-May-15,37.15,37.55,37.08,37.32,1414127
7-May-15,36.41,36.96,36.28,36.83,1203293
6-May-15,37.22,37.92,35.87,36.53,1663097
5-May-15,37.53,37.62,36.92,37.00,1114744
4-May-15,37.63,37.78,37.50,37.59,681187
1-May-15,37.37,37.72,37.17,37.58,741632
30-Apr-15,37.44,37.79,36.99,37.21,654868
29-Apr-15,37.95,37.95,37.40,37.51,427436
28-Apr-15,37.86,38.12,37.71,38.05,840870
27-Apr-15,38.61,38.77,37.99,38.01,598434
24-Apr-15,38.39,38.72,38.27,38.60,479834
23-Apr-15,38.28,38.50,38.20,38.28,367270
22-Apr-15,38.40,38.48,38.20,38.36,457812
21-Apr-15,38.32,38.42,38.02,38.32,682618
20-Apr-15,37.55,38.18,37.29,38.14,858754
17-Apr-15,37.73,37.73,37.17,37.28,625706
16-Apr-15,37.86,38.08,37.66,37.91,527357
15-Apr-15,37.59,38.14,37.59,37.96,600242
14-Apr-15,37.67,37.74,37.22,37.52,588500
13-Apr-15,38.06,38.13,37.72,37.74,733063
10-Apr-15,37.98,38.28,37.98,38.00,934975
9-Apr-15,38.24,38.46,37.78,37.94,510864
8-Apr-15,38.11,38.37,37.75,38.27,467195
7-Apr-15,38.30,38.71,38.06,38.10,947326
6-Apr-15,37.88,38.39,37.88,38.25,940005
2-Apr-15,37.84,38.33,37.84,38.06,948881
1-Apr-15,37.77,38.05,37.30,37.87,976912
31-Mar-15,37.51,39.52,37.38,37.93,1671506
30-Mar-15,37.10,37.67,36.95,37.53,2238372
27-Mar-15,36.75,36.97,36.51,36.95,1120938
26-Mar-15,36.61,36.96,36.35,36.72,866504
25-Mar-15,37.55,37.55,36.69,36.80,559870
24-Mar-15,37.37,37.63,37.13,37.57,837586
23-Mar-15,37.44,37.73,37.22,37.43,520336
20-Mar-15,37.35,37.70,37.18,37.57,1191418
19-Mar-15,36.89,37.25,36.62,37.19,794850
18-Mar-15,36.88,37.17,36.59,37.03,499579
17-Mar-15,36.82,37.08,36.64,37.02,393127
16-Mar-15,36.68,37.00,36.68,36.84,443271
13-Mar-15,36.56,36.95,36.28,36.76,874971
12-Mar-15,37.23,37.50,37.06,37.13,870704
11-Mar-15,36.46,37.15,36.36,37.10,1074889
10-Mar-15,36.79,36.86,36.40,36.42,678812
9-Mar-15,36.99,37.12,36.88,36.99,562282
6-Mar-15,37.05,37.22,36.76,37.03,932578
5-Mar-15,37.40,37.40,36.81,37.06,1757515
4-Mar-15,36.86,36.87,36.57,36.71,731952
3-Mar-15,37.00,37.21,36.76,36.94,1216349
2-Mar-15,36.24,37.37,36.24,37.32,1517900
27-Feb-15,36.50,36.76,36.31,36.47,856743
26-Feb-15,36.74,36.97,36.52,36.56,400599
25-Feb-15,37.14,37.19,36.78,36.94,400348
24-Feb-15,37.00,37.04,36.71,36.90,675714
23-Feb-15,37.00,37.07,36.74,36.99,788986
20-Feb-15,36.83,37.10,36.46,37.02,747328
19-Feb-15,37.02,37.32,36.69,36.81,1078694
18-Feb-15,36.07,37.51,36.07,36.92,2529043
17-Feb-15,35.53,35.86,35.40,35.60,980854
13-Feb-15,35.67,35.75,35.49,35.64,678008
12-Feb-15,34.98,35.68,34.90,35.67,1014145
11-Feb-15,34.75,34.95,34.50,34.91,809790
10-Feb-15,34.70,34.84,34.30,34.75,1431477
9-Feb-15,34.82,34.82,34.38,34.55,672841
6-Feb-15,34.98,35.23,34.72,34.97,622833
5-Feb-15,34.55,35.00,34.46,34.81,733439
4-Feb-15,34.64,34.79,34.35,34.40,639837
3-Feb-15,34.52,34.96,34.52,34.79,987409
2-Feb-15,34.10,34.57,33.75,34.40,928621
30-Jan-15,34.07,34.25,33.83,34.11,841584
29-Jan-15,34.16,34.34,33.92,34.29,468238
28-Jan-15,34.76,34.82,34.02,34.15,646343
27-Jan-15,34.52,34.88,34.43,34.60,433719
26-Jan-15,34.90,35.06,34.71,34.92,646446
23-Jan-15,34.55,34.90,34.49,34.85,776431
22-Jan-15,34.04,34.70,33.94,34.60,962146
21-Jan-15,33.59,34.09,33.53,33.88,902894
20-Jan-15,33.99,34.30,33.34,33.77,1473039
16-Jan-15,33.31,34.08,33.25,33.98,1005423
15-Jan-15,34.66,34.77,33.85,33.98,847607
14-Jan-15,34.23,34.64,34.09,34.60,688126
13-Jan-15,34.49,35.14,34.24,34.67,1235715
12-Jan-15,34.46,34.65,34.13,34.25,1832091
9-Jan-15,34.78,34.99,34.41,34.69,910791
8-Jan-15,34.51,35.02,34.51,34.75,907874
7-Jan-15,34.30,34.46,34.09,34.24,710002
6-Jan-15,34.45,34.57,33.63,34.14,1590563
5-Jan-15,34.50,34.62,34.23,34.43,1583382
2-Jan-15,34.54,35.00,34.18,34.53,1366917
31-Dec-14,34.99,35.27,34.65,34.65,740428
30-Dec-14,34.93,35.11,34.79,34.89,448253
29-Dec-14,35.00,35.32,34.84,35.02,669315
26-Dec-14,35.04,35.19,34.97,35.01,408384
24-Dec-14,34.90,35.14,34.81,35.01,201035
23-Dec-14,35.14,35.70,35.10,35.18,995517
22-Dec-14,34.87,35.28,34.72,35.03,734301
19-Dec-14,34.20,35.30,33.68,34.88,1323497
18-Dec-14,34.95,34.99,34.30,34.97,1006852
17-Dec-14,33.85,34.82,33.59,34.70,895730
16-Dec-14,33.88,34.29,33.61,33.79,965396
15-Dec-14,34.28,34.72,33.96,34.14,955845
12-Dec-14,34.08,34.44,33.74,34.25,1120721
11-Dec-14,34.17,34.38,34.00,34.20,2072820
10-Dec-14,34.41,34.73,33.90,34.02,1046819
9-Dec-14,34.16,34.56,33.99,34.53,1997398
8-Dec-14,34.57,34.99,34.33,34.55,1322035
5-Dec-14,34.45,34.72,34.26,34.70,2431831
4-Dec-14,34.16,34.62,34.16,34.28,1010808
3-Dec-14,34.08,34.55,34.08,34.40,1377731
2-Dec-14,34.27,34.56,34.05,34.35,1319307
1-Dec-14,34.14,34.41,33.86,34.01,1446804
28-Nov-14,34.58,34.91,34.51,34.65,262724
26-Nov-14,34.72,34.80,34.42,34.54,413205
25-Nov-14,34.50,34.73,34.36,34.73,1034793
24-Nov-14,34.31,34.64,34.29,34.51,1094779
21-Nov-14,34.72,34.80,34.24,34.24,933127
20-Nov-14,34.12,34.87,34.02,34.33,1040700
19-Nov-14,34.35,34.48,34.12,34.19,654496
18-Nov-14,34.28,34.50,34.00,34.22,849646
17-Nov-14,34.25,34.41,34.04,34.28,617517
14-Nov-14,33.79,34.37,33.59,34.36,1001999
13-Nov-14,33.69,33.96,33.44,33.74,714577
12-Nov-14,33.00,34.09,32.85,33.65,1300341
11-Nov-14,33.27,33.41,32.99,33.02,731918
10-Nov-14,33.03,33.33,32.97,33.32,817963
7-Nov-14,33.26,33.35,33.00,33.03,1025373
6-Nov-14,32.97,33.26,32.69,33.22,1793773
5-Nov-14,32.00,33.54,31.85,32.79,3559685
4-Nov-14,30.33,30.59,30.14,30.19,1649681
3-Nov-14,30.33,30.95,30.33,30.43,1330388
31-Oct-14,30.27,30.49,30.17,30.36,799715
30-Oct-14,29.70,30.12,29.46,30.03,416798
29-Oct-14,29.98,30.21,29.55,29.98,1700091
28-Oct-14,29.60,30.21,29.56,29.99,1670345
27-Oct-14,29.09,29.52,29.02,29.48,927976
24-Oct-14,29.20,29.43,29.05,29.30,490745
23-Oct-14,29.05,29.29,28.79,29.19,778407
22-Oct-14,29.05,29.28,28.64,28.64,654234
21-Oct-14,28.62,29.15,28.61,29.05,961064
20-Oct-14,28.08,28.55,28.07,28.48,667734
17-Oct-14,27.47,28.44,27.29,28.24,1578309
16-Oct-14,26.25,27.49,26.22,27.11,1888002
15-Oct-14,26.37,26.88,25.95,26.68,1451420
14-Oct-14,26.65,27.32,26.42,26.68,1651097
13-Oct-14,26.79,26.85,25.91,26.44,2700722
10-Oct-14,27.37,27.56,26.89,26.90,921638
9-Oct-14,27.94,27.98,27.34,27.45,723959
8-Oct-14,27.38,28.06,27.28,27.94,699002
7-Oct-14,27.97,27.97,27.37,27.39,651685
6-Oct-14,28.20,28.35,27.99,28.07,474480
3-Oct-14,28.18,28.39,28.01,28.13,1238724
2-Oct-14,27.60,28.03,27.16,27.98,1275070
1-Oct-14,28.62,28.62,27.57,27.72,1270012
30-Sep-14,28.86,28.87,28.45,28.63,1251877
29-Sep-14,28.50,28.93,28.45,28.81,1565526
26-Sep-14,28.39,28.80,28.28,28.65,952581
25-Sep-14,28.61,28.68,28.33,28.38,763209
24-Sep-14,28.85,28.85,28.09,28.62,1938409
23-Sep-14,29.00,29.13,28.82,28.90,755962
22-Sep-14,29.64,29.80,29.07,29.14,820124
19-Sep-14,30.58,30.62,29.95,30.00,942141
18-Sep-14,30.63,30.76,30.37,30.50,354760
17-Sep-14,30.46,30.78,30.46,30.60,713556
16-Sep-14,30.55,30.56,30.07,30.42,1187304
15-Sep-14,30.38,30.58,30.30,30.56,1013749
12-Sep-14,30.56,30.63,30.38,30.55,1085837
11-Sep-14,30.78,30.78,30.51,30.60,814198
10-Sep-14,30.65,30.88,30.54,30.85,745011
9-Sep-14,30.66,30.87,30.54,30.61,1533448
8-Sep-14,30.49,30.75,30.41,30.73,693799
5-Sep-14,30.58,30.61,30.34,30.61,839436
4-Sep-14,30.34,30.78,30.20,30.61,924834
3-Sep-14,30.43,30.60,30.24,30.33,806352
2-Sep-14,30.18,30.44,30.11,30.35,784585
29-Aug-14,29.99,30.16,29.86,30.16,656195
28-Aug-14,29.89,30.03,29.80,29.92,446831
27-Aug-14,30.09,30.14,29.81,29.94,817575
26-Aug-14,30.22,30.42,30.03,30.10,635994
25-Aug-14,30.08,30.46,30.02,30.26,646176
22-Aug-14,29.89,30.14,29.74,30.01,568385
21-Aug-14,30.00,30.23,29.90,29.91,559254
20-Aug-14,29.95,30.06,29.74,29.98,360562
19-Aug-14,30.00,30.28,29.95,30.01,456942
18-Aug-14,29.40,29.88,29.40,29.81,618415
15-Aug-14,29.57,29.65,28.94,29.27,786004
14-Aug-14,29.09,29.50,28.99,29.45,861138
13-Aug-14,28.98,29.06,28.88,28.98,1612429
12-Aug-14,29.25,29.28,28.89,28.94,2204052
11-Aug-14,29.18,29.55,29.18,29.25,743473
8-Aug-14,29.07,29.29,28.69,29.12,944021
7-Aug-14,29.81,29.92,28.83,28.98,2000091
6-Aug-14,28.68,30.04,28.65,29.65,2726815
5-Aug-14,28.99,29.45,28.79,29.23,1929442
4-Aug-14,29.01,29.25,28.71,28.99,1437303
1-Aug-14,29.31,29.42,28.86,29.02,1226196
31-Jul-14,29.61,29.70,29.08,29.31,849545
30-Jul-14,29.96,29.98,29.66,29.75,1371116
29-Jul-14,30.44,30.56,29.88,29.90,873795
28-Jul-14,30.44,30.60,30.16,30.39,936079
25-Jul-14,30.71,30.79,30.40,30.52,562534
24-Jul-14,30.51,30.92,30.39,30.87,610964
23-Jul-14,30.50,30.70,30.30,30.48,572789
22-Jul-14,30.60,30.66,30.16,30.42,1494067
21-Jul-14,30.70,30.83,30.38,30.47,817027
18-Jul-14,30.70,30.90,30.53,30.88,710173
17-Jul-14,30.90,31.16,30.65,30.69,487552
16-Jul-14,31.50,31.54,31.09,31.15,776361
15-Jul-14,31.46,31.50,30.94,31.32,729286
14-Jul-14,31.27,31.46,31.24,31.35,941222
11-Jul-14,31.59,31.59,31.08,31.15,819533
10-Jul-14,31.60,31.78,31.49,31.60,562913
9-Jul-14,32.44,32.45,31.82,31.98,939401
8-Jul-14,32.16,32.41,31.96,32.37,1313612
7-Jul-14,32.41,32.47,32.01,32.34,984719
3-Jul-14,32.39,32.65,32.16,32.64,485125
2-Jul-14,32.17,32.36,31.99,32.35,453505
1-Jul-14,31.87,32.22,31.87,32.17,888654
30-Jun-14,31.68,32.19,31.68,31.87,1114925
27-Jun-14,31.68,32.00,31.47,31.72,4480103
26-Jun-14,31.44,32.17,31.36,31.77,1024799
25-Jun-14,30.95,31.48,30.92,31.44,638136
24-Jun-14,31.56,31.72,31.02,31.12,1153618
23-Jun-14,31.54,31.75,31.42,31.61,1040310
20-Jun-14,32.00,32.22,31.66,31.89,812693
19-Jun-14,31.86,32.00,31.77,32.00,351989
18-Jun-14,31.75,32.00,31.66,31.86,568331
17-Jun-14,31.35,31.84,31.35,31.77,585917
16-Jun-14,31.00,31.46,31.00,31.39,495322
13-Jun-14,31.09,31.30,30.91,31.06,348181
12-Jun-14,31.27,31.45,30.96,31.05,422286
11-Jun-14,31.38,31.54,31.20,31.42,512406
10-Jun-14,31.55,31.81,31.48,31.57,349831
9-Jun-14,31.81,31.99,31.52,31.66,485741
6-Jun-14,31.55,31.73,31.38,31.67,591142
5-Jun-14,31.12,31.70,30.95,31.53,840475
4-Jun-14,30.76,31.32,30.56,31.13,1065070
3-Jun-14,30.69,31.17,30.64,30.79,1268400
2-Jun-14,30.55,30.95,30.37,30.79,983578
30-May-14,30.55,30.79,30.46,30.54,534035
29-May-14,30.66,30.74,30.48,30.63,725434
28-May-14,30.74,30.88,30.61,30.70,640691
27-May-14,30.20,30.84,30.05,30.76,1014333
23-May-14,29.72,30.21,29.63,30.08,555156
22-May-14,29.60,29.98,29.50,29.69,428921
21-May-14,29.37,29.73,29.33,29.60,367134
20-May-14,29.68,29.73,29.12,29.25,538259
19-May-14,29.33,29.87,29.33,29.74,697950
16-May-14,29.64,29.68,29.11,29.42,1200547
15-May-14,29.33,29.71,28.60,29.64,1807272
14-May-14,29.99,30.02,29.29,29.35,914864
13-May-14,30.18,30.30,29.96,29.97,677107
12-May-14,29.74,30.30,29.56,30.22,911275
9-May-14,30.11,30.19,29.37,29.60,1806936
8-May-14,30.34,30.92,30.12,30.18,1070525
7-May-14,30.32,30.46,29.79,30.44,1629695
6-May-14,29.99,31.00,29.94,30.28,1792132
5-May-14,30.11,30.58,29.85,30.19,1469140
2-May-14,30.18,30.46,30.12,30.20,1561292
1-May-14,29.70,30.31,29.65,30.20,1423109
30-Apr-14,29.39,29.78,29.10,29.78,529900
29-Apr-14,29.52,29.60,29.14,29.46,840237
28-Apr-14,30.07,30.27,29.11,29.47,2546644
25-Apr-14,30.29,30.33,29.85,30.05,757302
24-Apr-14,30.39,30.43,30.05,30.41,429374
23-Apr-14,30.44,30.74,30.22,30.31,679620
22-Apr-14,30.29,30.59,30.28,30.46,291372
21-Apr-14,30.12,30.28,30.02,30.25,373491
17-Apr-14,30.12,30.37,30.02,30.27,412466
16-Apr-14,29.92,30.31,29.71,30.18,637694
15-Apr-14,29.48,29.78,29.18,29.73,1043443
14-Apr-14,29.81,30.01,29.26,29.45,1076897
11-Apr-14,29.80,30.12,29.45,29.62,1479307
10-Apr-14,30.36,30.48,29.69,29.98,1248757
9-Apr-14,29.11,30.35,29.11,30.32,1269358
8-Apr-14,29.14,29.28,28.92,29.00,1635075
7-Apr-14,30.22,30.22,28.79,29.19,1724659
4-Apr-14,31.00,31.07,29.83,30.24,994862
3-Apr-14,30.99,31.05,30.70,30.97,629737
2-Apr-14,30.69,30.98,30.69,30.97,627108
1-Apr-14,30.53,30.94,30.39,30.78,1315835
31-Mar-14,30.17,30.52,30.10,30.35,924745
28-Mar-14,29.80,30.09,29.43,30.00,1098489
27-Mar-14,30.31,30.44,29.31,29.72,2089654
26-Mar-14,30.76,30.88,29.98,29.99,898998
25-Mar-14,30.67,30.83,30.33,30.66,791350
24-Mar-14,30.61,30.84,30.32,30.62,1176256
21-Mar-14,31.43,31.44,30.83,30.83,1388515
20-Mar-14,31.77,31.78,31.27,31.33,525188
19-Mar-14,32.14,32.14,31.58,31.82,772992
18-Mar-14,31.55,32.11,31.41,32.09,1004285
17-Mar-14,31.28,31.58,31.26,31.27,643323
14-Mar-14,30.71,31.28,30.61,31.27,775706
13-Mar-14,31.14,31.23,30.47,30.71,847599
12-Mar-14,31.31,31.41,30.98,31.08,829211
11-Mar-14,31.81,31.98,31.33,31.43,798615
10-Mar-14,31.72,31.87,31.43,31.79,1528775
7-Mar-14,32.11,32.24,31.52,31.63,1358001
6-Mar-14,32.14,32.22,31.87,32.10,808666
5-Mar-14,31.58,32.22,31.50,32.02,1278627
4-Mar-14,31.11,31.62,31.11,31.58,1114867
3-Mar-14,30.74,31.18,30.64,30.91,1368241
28-Feb-14,31.15,31.28,30.82,31.16,1153053
27-Feb-14,30.25,31.00,30.24,30.89,1326687
26-Feb-14,30.05,30.43,29.88,30.28,1308304
25-Feb-14,29.70,30.16,29.70,30.02,829199
24-Feb-14,29.27,29.86,29.20,29.66,1105980
21-Feb-14,29.09,29.51,29.09,29.31,2372151
20-Feb-14,28.95,29.24,28.67,29.05,1603338
19-Feb-14,28.00,29.94,27.27,28.99,4222421
18-Feb-14,28.38,28.47,27.93,28.10,2121072
14-Feb-14,28.53,28.79,28.36,28.40,1043781
13-Feb-14,28.30,28.63,28.10,28.50,525932
12-Feb-14,28.56,28.78,28.32,28.34,752197
11-Feb-14,28.41,28.69,28.38,28.62,381191
10-Feb-14,28.34,28.56,28.09,28.39,719722
7-Feb-14,28.18,28.50,28.09,28.39,1673461
6-Feb-14,27.57,28.20,27.50,28.03,576299
5-Feb-14,27.52,27.78,27.06,27.50,652348
4-Feb-14,27.86,27.96,27.58,27.69,863675
3-Feb-14,27.93,28.12,27.49,27.79,1969675
31-Jan-14,27.64,27.87,27.49,27.82,435225
30-Jan-14,27.90,28.04,27.71,27.85,929741
29-Jan-14,27.81,28.00,27.50,27.64,1739470
28-Jan-14,27.56,28.05,27.51,27.90,1361064
27-Jan-14,27.86,27.89,27.26,27.50,1686981
24-Jan-14,28.54,28.54,27.70,27.89,2469012
23-Jan-14,28.89,28.92,28.50,28.68,1460830
22-Jan-14,28.83,29.11,28.74,28.86,878516
21-Jan-14,28.84,29.06,28.66,28.76,924614
17-Jan-14,28.99,29.09,28.72,28.79,649060
16-Jan-14,29.20,29.20,28.84,28.96,803743
15-Jan-14,29.45,29.63,29.21,29.21,1001548
14-Jan-14,29.05,29.56,28.89,29.50,728299
13-Jan-14,29.06,29.44,28.75,28.87,679870
10-Jan-14,29.20,29.29,28.89,29.21,837851
9-Jan-14,29.37,29.45,29.10,29.18,1004980
8-Jan-14,29.19,29.42,29.05,29.31,1369613
7-Jan-14,29.53,29.68,29.24,29.26,1627439
6-Jan-14,30.08,30.17,29.46,29.55,1744419
3-Jan-14,29.92,30.46,29.88,30.10,1301071
2-Jan-14,29.63,30.10,29.54,29.85,1931513
31-Dec-13,29.30,29.63,29.03,29.55,1002685
30-Dec-13,28.73,29.29,28.65,29.23,659184
27-Dec-13,29.22,29.22,28.62,28.83,850264
26-Dec-13,28.99,29.12,28.75,28.96,340915
24-Dec-13,29.00,29.07,28.89,28.96,280332
23-Dec-13,28.95,29.21,28.82,29.00,730189
20-Dec-13,29.12,29.18,28.68,28.88,2172387
19-Dec-13,28.15,29.03,28.15,29.00,2555191
18-Dec-13,28.56,29.04,28.10,28.26,2807071
17-Dec-13,28.95,28.95,28.66,28.77,1430449
16-Dec-13,28.73,28.94,28.68,28.94,1364344
13-Dec-13,28.53,28.71,28.36,28.69,1426617
12-Dec-13,28.19,28.46,28.10,28.44,1991753
11-Dec-13,27.82,28.31,27.82,28.19,1982427
10-Dec-13,27.95,28.00,27.59,27.75,2262237
9-Dec-13,27.14,27.94,27.14,27.93,1310550
6-Dec-13,27.51,27.51,26.98,27.09,1641090
5-Dec-13,27.28,27.44,27.22,27.25,918352
4-Dec-13,27.38,27.52,26.97,27.35,649385
3-Dec-13,27.38,27.41,27.04,27.40,1806374
2-Dec-13,27.59,27.85,27.29,27.34,2063096
29-Nov-13,27.83,27.99,27.49,27.59,490021
27-Nov-13,27.93,27.93,27.64,27.77,915044
26-Nov-13,27.86,27.97,27.50,27.83,1711541
25-Nov-13,28.00,28.10,27.71,27.84,1032658
22-Nov-13,27.72,28.00,27.51,27.89,1513737
21-Nov-13,28.15,28.24,27.64,27.66,2219034
20-Nov-13,28.11,28.51,28.01,28.03,1886142
19-Nov-13,28.64,28.64,27.80,28.08,3146231
18-Nov-13,29.00,29.09,28.53,28.63,1387185
15-Nov-13,28.95,29.16,28.91,29.00,2552046
14-Nov-13,28.85,28.99,28.58,28.96,1621346
13-Nov-13,28.56,29.00,28.56,28.73,937670
12-Nov-13,28.57,28.80,28.39,28.80,1465223
11-Nov-13,28.30,28.60,28.24,28.48,1668311
8-Nov-13,27.66,28.50,27.60,28.35,3007873
7-Nov-13,28.02,28.29,27.17,27.59,15485120
6-Nov-13,29.52,29.52,27.60,28.52,3978391
5-Nov-13,29.19,29.32,28.62,28.95,2018207
4-Nov-13,29.14,29.32,29.00,29.25,839147
1-Nov-13,29.73,29.76,29.00,29.07,1099209
31-Oct-13,29.17,29.88,29.06,29.72,821713
30-Oct-13,29.55,29.75,29.09,29.15,757639
29-Oct-13,29.62,29.71,29.29,29.47,669405
28-Oct-13,29.55,29.69,29.34,29.49,580714
25-Oct-13,29.98,29.98,29.36,29.57,799312
24-Oct-13,29.50,29.87,29.50,29.86,607995
23-Oct-13,29.86,29.88,29.15,29.50,1020696
22-Oct-13,30.30,30.32,29.81,29.90,920906
21-Oct-13,29.93,30.20,29.50,30.15,926822
18-Oct-13,30.00,30.20,29.88,29.93,805845
17-Oct-13,29.47,29.99,29.44,29.99,922377
16-Oct-13,29.50,29.70,29.27,29.60,1034475
15-Oct-13,29.06,29.57,28.88,29.42,1897428
14-Oct-13,28.69,29.30,28.58,29.24,822168
11-Oct-13,28.32,28.95,28.19,28.93,1325420
10-Oct-13,29.23,29.23,28.25,28.33,1369285
9-Oct-13,27.84,27.97,27.41,27.84,930677
8-Oct-13,28.74,28.87,27.73,27.83,1107330
7-Oct-13,28.48,29.06,28.43,28.85,1336673
4-Oct-13,28.82,28.88,28.58,28.81,840843
3-Oct-13,29.15,29.21,28.63,28.97,1590948
2-Oct-13,28.50,29.20,28.35,29.20,1723193
1-Oct-13,28.39,28.88,28.25,28.68,2023474
30-Sep-13,27.43,28.36,27.25,28.21,1181443
27-Sep-13,27.75,28.01,27.47,27.62,1552150
26-Sep-13,27.70,28.04,27.70,27.87,1348377
25-Sep-13,28.16,28.23,27.66,27.69,2043842
24-Sep-13,28.49,28.50,28.12,28.19,1499944
23-Sep-13,28.19,28.50,27.90,28.50,2167430
20-Sep-13,28.31,28.43,27.75,28.13,6741180
19-Sep-13,28.18,28.35,27.90,28.27,1192108
18-Sep-13,28.29,28.38,27.69,28.08,1278197
17-Sep-13,27.92,28.46,27.92,28.29,776436
16-Sep-13,28.33,28.40,27.84,27.85,926350
13-Sep-13,28.15,28.24,28.03,28.07,1055114
12-Sep-13,28.39,28.49,28.02,28.03,1446091
11-Sep-13,28.58,28.67,28.24,28.46,1055212
10-Sep-13,28.39,28.65,28.26,28.58,1162509
9-Sep-13,27.93,28.32,27.74,28.22,1031422
6-Sep-13,27.77,27.98,27.47,27.88,1514478
5-Sep-13,27.49,27.76,27.47,27.70,458535
4-Sep-13,26.98,27.66,26.90,27.55,651092
3-Sep-13,26.95,27.31,26.71,27.03,530073
30-Aug-13,26.82,26.84,26.35,26.64,336848
29-Aug-13,26.65,27.00,26.41,26.82,471304
28-Aug-13,26.62,26.80,26.41,26.59,347573
27-Aug-13,26.95,27.23,26.49,26.70,458562
26-Aug-13,27.42,27.51,26.95,27.08,477152
23-Aug-13,27.53,27.55,27.18,27.38,353102
22-Aug-13,27.07,27.54,27.03,27.44,675706
21-Aug-13,26.80,27.22,26.68,27.07,622308
20-Aug-13,26.70,27.11,26.55,26.91,688566
19-Aug-13,26.79,26.80,26.29,26.46,577733
16-Aug-13,26.70,27.07,26.55,26.88,818489
15-Aug-13,27.03,27.24,26.70,26.78,1102300
14-Aug-13,27.00,27.33,26.88,27.28,1539316
13-Aug-13,26.57,27.04,26.42,27.00,496320
12-Aug-13,26.95,27.97,26.41,26.63,1525687
9-Aug-13,25.72,26.49,25.72,26.28,1557405
8-Aug-13,25.64,25.97,25.40,25.80,6068720
7-Aug-13,24.84,25.36,24.75,25.06,1219218
6-Aug-13,25.42,25.42,23.91,25.15,1674539
5-Aug-13,26.13,26.28,25.84,25.99,718407
2-Aug-13,25.92,26.11,25.79,26.11,465677
1-Aug-13,25.59,26.08,25.57,26.00,584952
31-Jul-13,24.96,25.54,24.86,25.44,630753
30-Jul-13,24.74,25.12,24.64,24.86,257022
29-Jul-13,25.02,25.08,24.60,24.64,722211
26-Jul-13,25.07,25.20,24.90,25.02,220500
25-Jul-13,25.08,25.31,25.00,25.21,312114
24-Jul-13,25.16,25.29,25.00,25.05,520632
23-Jul-13,25.10,25.31,25.06,25.10,573149
22-Jul-13,24.90,25.10,24.75,25.01,832972
19-Jul-13,24.82,24.87,24.56,24.80,763219
18-Jul-13,24.88,25.06,24.82,24.95,547616
17-Jul-13,24.70,24.90,24.53,24.88,409055
16-Jul-13,24.83,24.87,24.58,24.70,593683
15-Jul-13,24.79,25.00,24.74,24.90,603786
12-Jul-13,24.75,24.82,24.61,24.73,381573
11-Jul-13,24.76,24.90,24.73,24.81,699878
10-Jul-13,24.58,24.60,24.44,24.49,346411
9-Jul-13,24.50,24.90,24.46,24.71,750790
8-Jul-13,23.84,24.50,23.84,24.31,774257
5-Jul-13,23.70,23.86,23.38,23.86,301219
3-Jul-13,23.28,23.72,23.28,23.68,443546
2-Jul-13,23.39,23.65,23.18,23.62,963298
1-Jul-13,23.11,23.50,22.96,23.40,784627
28-Jun-13,23.10,23.32,22.84,22.87,2954673
27-Jun-13,22.82,23.43,22.75,23.25,935381
26-Jun-13,22.56,22.89,22.50,22.74,441774
25-Jun-13,22.39,22.70,22.17,22.52,772188
24-Jun-13,21.99,22.37,21.52,22.26,789236
21-Jun-13,22.50,22.53,21.96,22.13,590753
20-Jun-13,22.66,22.69,22.17,22.27,689439
19-Jun-13,23.29,23.49,22.98,23.13,439450
18-Jun-13,23.07,23.50,22.93,23.38,666138
17-Jun-13,23.02,23.30,22.90,23.05,819862
14-Jun-13,22.84,23.04,22.57,22.75,408605
13-Jun-13,22.28,22.99,22.23,22.94,720462
12-Jun-13,22.89,22.89,22.32,22.34,410797
11-Jun-13,22.66,22.99,22.35,22.72,775586
10-Jun-13,22.60,23.30,22.39,23.00,1027895
7-Jun-13,22.19,22.94,22.10,22.57,1506777
6-Jun-13,21.25,22.20,21.05,22.10,8570747
5-Jun-13,22.25,22.37,21.65,21.69,788523
4-Jun-13,22.50,22.65,22.22,22.42,495374
3-Jun-13,23.09,23.09,22.29,22.58,1380854
31-May-13,23.52,23.59,23.31,23.45,298952
30-May-13,23.74,23.74,23.47,23.63,176704
29-May-13,23.78,23.81,23.60,23.67,205349
28-May-13,24.00,24.06,23.72,23.88,265546
24-May-13,23.95,23.97,23.41,23.85,248998
23-May-13,23.58,24.07,23.47,24.06,413624
22-May-13,24.07,24.08,23.37,23.69,522690
21-May-13,24.25,24.37,24.01,24.02,272146
20-May-13,23.93,24.27,23.90,24.14,356133
17-May-13,24.06,24.22,23.90,24.15,448997
16-May-13,24.11,24.17,23.85,23.96,612051
15-May-13,23.71,24.08,23.61,24.08,350576
14-May-13,23.63,23.85,23.62,23.73,559842
13-May-13,23.80,24.00,23.47,23.53,376419
10-May-13,23.60,23.87,23.42,23.84,287163
9-May-13,23.84,23.88,23.36,23.54,217845
8-May-13,23.57,23.80,23.28,23.77,655550
7-May-13,23.05,23.73,23.05,23.51,644407
6-May-13,23.26,23.45,22.92,23.12,664041
3-May-13,22.84,23.56,22.84,23.49,576647
2-May-13,22.21,22.40,20.90,22.27,707537
1-May-13,22.28,22.44,21.88,22.08,952404
30-Apr-13,22.06,22.38,21.93,22.37,461851
29-Apr-13,21.80,22.10,21.63,22.02,653561
26-Apr-13,21.76,21.91,21.65,21.82,325553
25-Apr-13,21.44,21.83,21.27,21.75,554259
24-Apr-13,21.27,21.36,21.09,21.30,444090
23-Apr-13,20.79,21.27,20.74,21.25,422960
22-Apr-13,20.68,20.86,20.47,20.73,282210
19-Apr-13,20.48,20.86,20.37,20.70,295859
18-Apr-13,21.03,21.07,20.47,20.51,338129
17-Apr-13,20.79,21.10,20.48,20.99,610724
16-Apr-13,20.91,21.34,20.77,20.85,852894
15-Apr-13,21.00,21.29,20.83,20.88,941800
12-Apr-13,20.54,20.97,20.49,20.96,939175
11-Apr-13,20.49,20.75,20.39,20.65,543989
10-Apr-13,20.00,20.54,19.98,20.46,555793
9-Apr-13,20.09,20.11,19.86,19.97,256924
8-Apr-13,19.61,20.00,19.56,20.00,474798
5-Apr-13,19.60,19.61,19.27,19.53,547376
4-Apr-13,19.89,19.97,19.67,19.81,413316
3-Apr-13,20.09,20.26,19.55,19.93,712922
2-Apr-13,20.47,20.50,20.03,20.06,395954
1-Apr-13,20.01,20.33,19.98,20.33,737374
28-Mar-13,19.91,20.16,19.86,20.03,971775
27-Mar-13,19.86,19.97,19.69,19.87,316669
26-Mar-13,19.94,20.07,19.76,20.00,374609
25-Mar-13,20.08,20.08,19.80,19.91,248266
22-Mar-13,20.07,20.07,19.68,20.00,708482
21-Mar-13,19.90,20.18,19.72,20.00,290591
20-Mar-13,20.54,20.56,20.30,20.30,349427
19-Mar-13,20.62,20.72,20.36,20.39,299228
18-Mar-13,20.39,20.64,20.24,20.62,592602
15-Mar-13,20.49,20.74,20.30,20.61,2232933
14-Mar-13,19.78,20.56,19.58,20.51,1786457
13-Mar-13,19.80,19.93,19.64,19.79,439731
12-Mar-13,19.68,19.90,19.61,19.75,508133
11-Mar-13,19.88,19.99,19.61,19.66,643913
8-Mar-13,19.41,20.00,19.27,19.95,1863115
7-Mar-13,19.46,19.60,19.06,19.30,8773282
6-Mar-13,20.30,20.35,19.78,20.07,971368
5-Mar-13,20.62,20.78,20.35,20.46,591560
4-Mar-13,20.50,21.00,20.21,20.58,331693
1-Mar-13,21.00,21.62,20.84,21.53,299581
28-Feb-13,21.27,21.43,20.97,21.22,215655
27-Feb-13,21.04,21.44,21.04,21.24,175381
26-Feb-13,20.69,21.23,20.65,21.08,613238
25-Feb-13,21.35,21.63,20.88,20.94,543610
22-Feb-13,21.37,21.66,21.10,21.32,362180
21-Feb-13,21.92,22.05,19.73,21.36,650486
20-Feb-13,22.05,22.32,21.81,21.97,318884
19-Feb-13,21.47,22.20,21.46,22.19,942015
15-Feb-13,21.59,21.60,21.30,21.42,1199068
14-Feb-13,21.45,21.60,21.39,21.53,285896
13-Feb-13,21.50,21.54,21.43,21.47,124307
12-Feb-13,21.55,21.59,21.38,21.45,319844
11-Feb-13,21.73,21.73,21.45,21.55,161304
8-Feb-13,21.66,21.94,21.58,21.71,114262
7-Feb-13,21.76,21.89,21.51,21.60,313702
6-Feb-13,21.57,21.84,21.52,21.84,154497
5-Feb-13,21.31,21.70,21.26,21.68,113322
4-Feb-13,21.52,21.62,21.14,21.19,149614
1-Feb-13,21.58,21.70,21.33,21.69,304710
31-Jan-13,20.99,21.37,20.71,21.33,322638
30-Jan-13,21.21,21.29,21.05,21.12,203309
29-Jan-13,21.26,21.45,21.17,21.21,201084
28-Jan-13,21.10,21.43,21.06,21.33,572221
25-Jan-13,21.02,21.13,20.98,21.07,437703
24-Jan-13,20.94,21.16,20.90,21.01,249820
23-Jan-13,21.09,21.16,20.87,20.90,565448
22-Jan-13,20.84,21.20,20.81,21.16,192189
18-Jan-13,20.91,21.06,20.82,21.06,93586
17-Jan-13,20.80,21.05,20.70,20.94,165683
16-Jan-13,20.32,20.76,19.90,20.71,571189
15-Jan-13,20.22,20.40,20.11,20.31,489168
14-Jan-13,20.60,20.64,20.19,20.30,309895
11-Jan-13,20.67,20.73,20.50,20.63,201380
10-Jan-13,20.76,20.76,20.61,20.64,253367
9-Jan-13,20.73,20.89,20.60,20.70,472803
8-Jan-13,20.61,20.89,20.50,20.67,347548
7-Jan-13,20.59,20.72,20.27,20.60,377091
4-Jan-13,20.59,20.90,20.51,20.62,255818
3-Jan-13,20.60,20.60,20.40,20.60,256359
2-Jan-13,20.48,20.76,20.47,20.57,204557
31-Dec-12,19.90,20.32,19.76,20.24,214641
28-Dec-12,20.26,20.28,19.76,19.82,273313
27-Dec-12,20.33,20.49,19.99,20.25,488248
26-Dec-12,19.51,19.69,19.46,19.55,216245
24-Dec-12,19.36,19.55,19.01,19.55,110511
21-Dec-12,19.33,19.42,19.02,19.41,432691
20-Dec-12,19.44,19.55,19.28,19.54,353454
19-Dec-12,19.26,19.54,19.13,19.36,338300
18-Dec-12,18.76,19.28,18.76,19.28,206807
17-Dec-12,18.62,18.85,18.43,18.78,523651
14-Dec-12,18.32,18.60,18.24,18.50,230340
13-Dec-12,18.43,18.70,18.23,18.43,301333
12-Dec-12,18.03,18.52,17.95,18.47,370580
11-Dec-12,18.01,18.07,17.78,17.91,412140
10-Dec-12,17.86,18.07,17.60,17.95,500552
7-Dec-12,17.75,17.94,17.58,17.84,525229
6-Dec-12,17.79,18.15,17.77,17.88,5830177
5-Dec-12,18.84,18.93,18.12,18.14,471581
4-Dec-12,18.14,19.09,18.14,18.98,358268
3-Dec-12,17.91,18.37,17.52,18.14,294355
30-Nov-12,17.72,18.11,17.58,17.77,204725
29-Nov-12,18.66,18.72,18.48,18.60,27592
28-Nov-12,18.58,18.72,18.33,18.55,67603
27-Nov-12,18.68,18.78,18.45,18.55,31882
26-Nov-12,18.62,18.68,18.39,18.65,39091
23-Nov-12,18.25,18.72,18.25,18.62,18730
21-Nov-12,18.14,18.21,17.90,18.13,8290
20-Nov-12,18.23,18.27,17.97,18.06,37515
19-Nov-12,18.09,18.33,17.96,18.31,58589
16-Nov-12,17.50,18.02,17.44,18.00,59598
15-Nov-12,17.26,17.58,17.25,17.42,56314
14-Nov-12,17.34,17.51,17.08,17.29,106053
13-Nov-12,17.63,17.79,17.00,17.45,217430
12-Nov-12,18.68,18.89,18.49,18.65,54771
9-Nov-12,18.46,18.77,18.30,18.70,41223
8-Nov-12,19.35,19.35,18.45,18.55,178287
7-Nov-12,19.32,19.74,19.01,19.10,104395
6-Nov-12,19.54,19.93,19.29,19.54,157319
5-Nov-12,20.09,20.10,19.66,19.77,103778
2-Nov-12,20.49,20.49,20.12,20.15,87577
1-Nov-12,19.89,20.40,19.89,20.33,129613
31-Oct-12,19.12,20.05,19.06,20.00,144498
26-Oct-12,19.20,19.28,18.78,18.99,59896
25-Oct-12,19.15,19.24,18.80,19.16,105319
24-Oct-12,19.08,19.23,19.00,19.02,26359
23-Oct-12,18.87,19.14,18.64,19.06,25920
22-Oct-12,18.98,19.11,18.86,19.05,27427
19-Oct-12,19.06,19.25,18.82,19.00,26617
18-Oct-12,19.58,19.68,19.12,19.17,80747
17-Oct-12,19.47,19.83,19.41,19.62,31623
16-Oct-12,19.40,19.57,19.35,19.49,39675
15-Oct-12,19.24,19.42,19.22,19.40,18056
12-Oct-12,19.52,19.60,19.11,19.17,46797
11-Oct-12,19.31,19.54,19.19,19.44,49682
10-Oct-12,19.34,19.34,18.99,19.19,125301
9-Oct-12,19.75,19.75,19.25,19.35,106920
8-Oct-12,19.49,19.76,19.44,19.67,85426
5-Oct-12,19.41,19.60,19.39,19.57,112114
4-Oct-12,19.33,19.55,19.33,19.42,129246
3-Oct-12,19.52,19.56,19.15,19.31,188190
2-Oct-12,19.75,19.81,19.46,19.46,112043
1-Oct-12,19.79,19.91,19.48,19.62,96755
28-Sep-12,19.76,19.76,19.51,19.74,123145
27-Sep-12,19.89,20.07,19.77,19.77,97723
26-Sep-12,20.06,20.06,19.63,19.91,96220
25-Sep-12,20.85,20.85,19.97,19.98,141217
24-Sep-12,20.35,20.67,20.25,20.63,321948
21-Sep-12,19.22,20.50,19.03,20.48,1021811
20-Sep-12,18.41,19.17,18.39,19.17,151185
19-Sep-12,18.67,18.72,18.24,18.54,167409
18-Sep-12,18.75,18.86,18.62,18.71,59732
17-Sep-12,18.74,18.97,18.46,18.92,62345
14-Sep-12,18.87,18.99,18.74,18.77,129025
13-Sep-12,18.74,19.04,18.66,18.77,92233
12-Sep-12,18.65,19.68,18.53,18.81,600502
11-Sep-12,18.51,18.74,18.51,18.62,35555
10-Sep-12,18.63,18.75,18.44,18.59,67398
7-Sep-12,18.25,18.69,18.22,18.67,107871
6-Sep-12,18.35,18.67,18.27,18.28,92606
5-Sep-12,17.96,18.43,17.96,18.30,114667
4-Sep-12,17.45,18.03,17.45,17.95,143014
31-Aug-12,17.61,17.68,17.28,17.50,83424
30-Aug-12,17.49,17.60,17.45,17.50,58102
29-Aug-12,17.48,17.59,17.26,17.57,61096
28-Aug-12,16.97,17.72,16.94,17.48,170030
27-Aug-12,17.28,17.28,16.80,17.04,98798
24-Aug-12,17.08,17.29,16.95,17.19,251989
23-Aug-12,17.68,17.70,16.91,17.11,397102
22-Aug-12,16.85,18.36,16.71,17.71,771207
21-Aug-12,16.87,17.02,16.80,16.88,84761
20-Aug-12,16.99,16.99,16.79,16.87,60558
17-Aug-12,17.06,17.07,16.95,17.01,56584
16-Aug-12,16.91,17.03,16.81,17.00,77339
15-Aug-12,16.89,16.95,16.85,16.93,38166
14-Aug-12,16.67,16.99,16.60,16.88,95107
13-Aug-12,16.34,16.68,16.28,16.67,112378
10-Aug-12,16.15,16.34,16.02,16.32,51086
9-Aug-12,15.90,16.23,15.87,16.23,134312
8-Aug-12,16.05,16.40,16.05,16.37,69181
7-Aug-12,14.10,16.36,14.10,16.14,265456
6-Aug-12,15.30,15.65,15.22,15.56,171654
3-Aug-12,15.85,15.90,15.13,15.30,312722
2-Aug-12,15.64,15.88,15.46,15.70,45411
1-Aug-12,16.09,16.22,15.72,15.81,61852
31-Jul-12,15.98,16.04,15.80,16.01,105440
30-Jul-12,15.82,16.21,15.64,16.04,191783
27-Jul-12,16.40,16.73,16.29,16.50,78665
26-Jul-12,16.32,16.38,16.05,16.26,69412
25-Jul-12,16.14,16.17,16.00,16.15,41512
24-Jul-12,16.03,16.13,15.91,16.09,95825
23-Jul-12,16.02,16.20,15.77,16.09,101015
20-Jul-12,16.60,16.70,16.25,16.25,50360
19-Jul-12,16.42,16.72,16.24,16.69,110610
18-Jul-12,16.52,16.62,16.35,16.46,58565
17-Jul-12,16.54,16.58,16.35,16.52,36213
16-Jul-12,16.64,16.67,16.31,16.51,44779
13-Jul-12,16.65,16.81,16.61,16.63,93348
12-Jul-12,16.75,16.88,16.52,16.52,163357
11-Jul-12,17.00,17.05,16.75,16.94,89221
10-Jul-12,17.08,17.24,16.81,16.93,81592
9-Jul-12,17.17,17.25,17.00,17.09,82864
6-Jul-12,17.05,17.32,16.92,17.21,157114
5-Jul-12,17.16,17.53,17.15,17.52,426085
3-Jul-12,17.15,17.31,17.02,17.31,146661
2-Jul-12,17.04,17.35,16.85,17.30,174311
29-Jun-12,16.88,17.34,16.80,17.19,159166
28-Jun-12,16.02,16.62,16.02,16.57,202898
27-Jun-12,16.03,16.34,16.01,16.22,126262
26-Jun-12,15.94,16.06,15.74,15.96,130360
25-Jun-12,15.88,15.91,15.66,15.81,151591
22-Jun-12,15.95,16.22,15.93,15.98,243802
21-Jun-12,16.12,16.26,15.80,15.90,497417
20-Jun-12,16.31,16.44,16.12,16.17,73423
19-Jun-12,15.86,16.43,15.84,16.31,88766
18-Jun-12,16.07,16.14,15.84,15.87,93335
15-Jun-12,15.67,16.17,15.67,16.12,96162
14-Jun-12,15.65,15.83,15.65,15.75,114024
13-Jun-12,15.62,15.80,15.58,15.66,88345
12-Jun-12,15.40,15.70,15.40,15.63,103798
11-Jun-12,15.70,15.81,15.38,15.40,251951
8-Jun-12,15.13,15.64,14.98,15.58,74822
7-Jun-12,15.30,15.52,15.11,15.18,130989
6-Jun-12,14.84,15.25,14.75,15.21,80992
5-Jun-12,14.70,14.82,14.54,14.73,80757
4-Jun-12,14.68,14.79,14.39,14.78,137301
1-Jun-12,14.69,14.84,14.46,14.60,127566
31-May-12,15.04,15.20,14.81,14.90,83081
30-May-12,15.56,15.56,15.04,15.07,84800
29-May-12,15.56,15.76,15.44,15.70,38061
25-May-12,15.45,15.66,15.40,15.51,45595
24-May-12,15.59,15.63,15.26,15.49,115571
23-May-12,15.68,15.76,15.35,15.65,137269
22-May-12,15.82,16.01,15.72,15.79,36415
21-May-12,15.69,15.88,15.50,15.86,27654
18-May-12,15.70,15.88,15.47,15.63,52706
17-May-12,16.33,16.33,15.65,15.70,63177
16-May-12,16.16,16.42,16.15,16.37,91616
15-May-12,16.19,16.29,15.99,16.15,39511
14-May-12,16.27,16.27,16.02,16.18,70875
11-May-12,16.22,16.50,15.87,16.42,39079
10-May-12,16.50,16.58,16.25,16.37,53293
9-May-12,16.90,16.92,16.34,16.51,122324
8-May-12,17.40,17.47,16.66,17.06,122684
7-May-12,17.57,17.69,17.37,17.47,178143
4-May-12,17.84,17.86,17.53,17.66,63625
3-May-12,18.12,18.26,17.85,17.86,114894
2-May-12,18.22,18.28,17.90,18.16,95941
1-May-12,18.36,18.46,18.26,18.31,73003
30-Apr-12,18.51,18.55,18.28,18.40,70859
27-Apr-12,18.40,18.57,18.21,18.57,62992
26-Apr-12,17.87,18.45,17.82,18.31,200791
25-Apr-12,17.50,17.99,17.40,17.95,137246
24-Apr-12,17.30,17.42,17.19,17.42,97153
23-Apr-12,17.20,17.36,17.15,17.33,111220
20-Apr-12,17.24,17.40,17.20,17.38,95093
19-Apr-12,17.04,17.30,16.97,17.14,95805
18-Apr-12,17.09,17.11,16.91,17.08,97692
17-Apr-12,16.74,17.15,16.74,17.11,166229
16-Apr-12,16.58,16.78,16.48,16.72,113273
13-Apr-12,16.61,16.65,16.35,16.51,69312
12-Apr-12,16.41,16.71,16.41,16.66,134055
11-Apr-12,16.04,16.44,16.01,16.44,153277
10-Apr-12,16.20,16.29,15.81,15.97,319993
9-Apr-12,16.30,16.41,16.02,16.27,116690
5-Apr-12,16.26,16.49,16.24,16.49,144184
4-Apr-12,16.38,16.49,16.33,16.33,203775
3-Apr-12,16.34,16.68,16.33,16.50,283182
2-Apr-12,16.15,16.46,16.11,16.37,189961
30-Mar-12,16.26,16.28,16.16,16.21,124612
29-Mar-12,16.29,16.36,16.07,16.21,106426
28-Mar-12,16.05,16.39,15.99,16.39,598688
27-Mar-12,16.02,16.11,15.97,16.11,548912
26-Mar-12,16.10,16.10,15.93,16.05,240897
23-Mar-12,15.86,16.05,15.68,15.99,136035
22-Mar-12,15.85,15.90,15.68,15.79,529026
21-Mar-12,15.77,16.01,15.73,15.95,175054
20-Mar-12,15.79,15.98,15.69,15.77,183906
19-Mar-12,16.26,16.27,15.88,15.88,184151
16-Mar-12,16.26,16.34,16.12,16.34,76805
15-Mar-12,16.14,16.29,15.94,16.29,75920
14-Mar-12,16.21,16.44,16.07,16.17,57882
13-Mar-12,16.02,16.25,15.98,16.25,94062
12-Mar-12,15.92,16.02,15.82,16.02,101373
9-Mar-12,16.00,16.20,15.90,15.95,257870
8-Mar-12,15.63,16.20,15.61,16.00,224010
7-Mar-12,15.68,15.80,15.49,15.53,151197
6-Mar-12,15.95,16.03,15.60,15.62,59204
5-Mar-12,16.09,16.30,15.98,16.09,133330
2-Mar-12,16.04,16.38,16.04,16.14,98301
1-Mar-12,16.08,16.11,15.82,16.03,197993
29-Feb-12,16.20,16.33,15.91,16.07,362332
28-Feb-12,16.13,16.52,15.67,16.19,240658
27-Feb-12,15.66,15.84,15.46,15.78,94818
24-Feb-12,15.82,15.97,15.60,15.78,103262
23-Feb-12,16.00,16.01,15.72,15.88,100189
22-Feb-12,16.18,16.18,15.80,15.98,136206
21-Feb-12,16.21,16.21,15.95,16.20,59241
17-Feb-12,16.32,16.32,16.03,16.13,55055
16-Feb-12,16.42,16.57,16.22,16.23,111528
15-Feb-12,16.36,16.45,16.16,16.45,114321
14-Feb-12,16.33,16.35,16.15,16.35,54267
13-Feb-12,16.46,16.46,16.18,16.35,34765
10-Feb-12,16.17,16.39,15.81,16.39,66265
9-Feb-12,16.21,16.33,15.76,16.25,106516
8-Feb-12,16.59,16.67,16.21,16.22,70183
7-Feb-12,16.69,16.85,16.41,16.54,74841
6-Feb-12,16.05,16.77,15.95,16.77,128030
3-Feb-12,16.12,16.40,16.00,16.11,94661
2-Feb-12,15.75,16.04,15.59,16.04,115544
1-Feb-12,14.82,16.18,14.70,15.73,297494
31-Jan-12,14.19,14.80,14.06,14.74,349369
30-Jan-12,14.01,14.43,13.93,14.15,537110
27-Jan-12,13.82,13.89,13.47,13.49,224508
26-Jan-12,13.98,14.11,13.86,13.90,32973
25-Jan-12,13.83,14.00,13.78,13.94,115446
24-Jan-12,14.03,14.06,13.77,13.87,186069
23-Jan-12,14.20,14.38,14.00,14.05,72164
20-Jan-12,14.04,14.25,13.98,14.23,213388
19-Jan-12,13.99,14.17,13.96,14.07,110793
18-Jan-12,14.14,14.14,13.90,13.97,217363
17-Jan-12,14.26,14.37,14.08,14.18,30929
13-Jan-12,14.18,14.24,13.89,14.20,93522
12-Jan-12,14.39,14.39,14.07,14.25,95081
11-Jan-12,14.24,14.41,14.11,14.40,42896
10-Jan-12,13.96,14.33,13.96,14.28,130456
9-Jan-12,13.86,13.89,13.62,13.87,60330
6-Jan-12,13.71,13.82,13.55,13.79,53859
5-Jan-12,13.64,13.82,13.46,13.73,58610
4-Jan-12,13.63,13.80,13.54,13.64,33231
3-Jan-12,13.78,13.82,13.53,13.64,60528
30-Dec-11,13.56,13.77,13.50,13.50,80695
29-Dec-11,13.59,13.77,13.50,13.52,67449
28-Dec-11,13.64,13.70,13.44,13.55,73200
27-Dec-11,13.57,13.90,13.48,13.67,37461
23-Dec-11,13.57,13.58,13.37,13.58,91100
22-Dec-11,13.48,13.64,13.43,13.57,53364
21-Dec-11,13.49,13.54,13.38,13.44,78124
20-Dec-11,13.45,13.56,13.38,13.51,137783
19-Dec-11,13.39,13.39,13.01,13.22,94561
16-Dec-11,13.24,13.34,13.17,13.26,75302
15-Dec-11,13.17,13.24,12.93,13.17,40014
14-Dec-11,13.41,13.75,12.95,12.99,160186
13-Dec-11,13.45,13.60,13.41,13.48,100196
12-Dec-11,13.19,13.55,13.09,13.39,125095
9-Dec-11,13.21,13.38,13.21,13.29,45291
8-Dec-11,13.19,13.29,13.18,13.21,51151
7-Dec-11,13.26,13.32,13.03,13.29,64532
6-Dec-11,13.75,13.75,13.30,13.30,23021
5-Dec-11,13.57,13.84,13.48,13.69,100516
2-Dec-11,13.07,13.53,13.00,13.37,191026
1-Dec-11,13.08,13.18,12.76,12.93,72230
30-Nov-11,14.17,14.17,12.67,13.14,189040
29-Nov-11,12.25,12.72,12.19,12.72,52406
28-Nov-11,12.37,12.58,12.08,12.18,39867
25-Nov-11,12.03,12.11,11.94,12.08,29707
23-Nov-11,11.93,12.14,11.91,12.07,44455
22-Nov-11,12.05,12.21,12.02,12.07,38629
21-Nov-11,12.02,12.10,11.85,12.03,140156
18-Nov-11,12.52,12.54,12.22,12.25,47978
17-Nov-11,12.47,12.55,12.35,12.43,164034
16-Nov-11,12.53,12.68,12.45,12.45,86871
15-Nov-11,12.57,12.76,12.46,12.68,71043
14-Nov-11,12.81,13.01,12.58,12.60,52568
11-Nov-11,12.59,12.92,12.56,12.80,58316
10-Nov-11,12.88,12.89,12.43,12.46,107849
9-Nov-11,12.91,12.91,12.66,12.78,106643
8-Nov-11,13.19,13.20,12.88,13.20,122753
7-Nov-11,12.90,13.24,12.90,13.14,144578
4-Nov-11,12.22,13.03,12.08,12.97,348717
3-Nov-11,12.78,13.05,12.25,12.95,138077
2-Nov-11,13.47,13.76,13.36,13.63,69111
1-Nov-11,13.48,13.48,13.09,13.26,481819
31-Oct-11,13.86,13.86,13.54,13.75,54605
28-Oct-11,14.15,14.25,13.82,13.90,75301
27-Oct-11,14.45,14.53,14.16,14.18,103962
26-Oct-11,13.49,13.98,13.37,13.92,102507
25-Oct-11,13.44,13.64,13.30,13.32,108805
24-Oct-11,13.15,13.68,13.15,13.54,97787
21-Oct-11,13.11,13.33,13.11,13.14,106290
20-Oct-11,12.85,13.04,12.69,12.97,59333
19-Oct-11,12.93,12.99,12.74,12.88,44331
18-Oct-11,13.05,13.12,12.81,12.90,69668
17-Oct-11,12.91,13.06,12.91,13.00,96197
14-Oct-11,12.82,13.11,12.79,12.99,84280
13-Oct-11,12.86,12.86,12.54,12.68,106616
12-Oct-11,12.74,13.12,12.70,12.94,150822
11-Oct-11,12.54,12.76,12.49,12.71,95627
10-Oct-11,12.70,13.06,12.47,12.58,144937
7-Oct-11,12.58,12.67,12.12,12.48,117499
6-Oct-11,12.25,12.60,12.23,12.52,52750
5-Oct-11,11.90,12.40,11.73,12.21,253922
4-Oct-11,11.26,12.08,10.92,11.88,406280
3-Oct-11,12.07,12.20,11.48,11.52,262636
30-Sep-11,12.12,12.40,12.10,12.11,143646
29-Sep-11,12.22,12.36,12.03,12.29,133911
28-Sep-11,12.87,12.97,12.10,12.17,133649
27-Sep-11,12.67,13.22,12.61,12.87,112177
26-Sep-11,12.36,12.55,11.94,12.51,207932
23-Sep-11,12.19,12.48,11.92,12.28,215866
22-Sep-11,12.63,12.67,12.02,12.17,121209
21-Sep-11,13.66,13.82,12.99,13.00,203829
20-Sep-11,13.69,13.88,13.57,13.70,155478
19-Sep-11,13.96,14.06,13.56,13.67,183577
16-Sep-11,14.45,14.57,14.12,14.35,251740
15-Sep-11,14.40,14.48,14.03,14.48,211692
14-Sep-11,14.25,14.79,14.20,14.64,99566
13-Sep-11,13.70,14.19,13.70,14.18,1930271
12-Sep-11,13.39,13.71,13.31,13.70,102517
9-Sep-11,13.35,13.62,13.29,13.55,198208
8-Sep-11,14.12,14.12,13.50,13.52,117261
7-Sep-11,13.90,14.15,13.89,14.15,58579
6-Sep-11,13.39,13.73,13.12,13.70,131912
2-Sep-11,14.17,14.17,13.67,13.71,79938
1-Sep-11,14.66,14.86,14.34,14.42,129459
31-Aug-11,14.55,14.72,14.40,14.67,134357
30-Aug-11,14.44,14.62,14.34,14.46,136073
29-Aug-11,14.18,14.55,13.85,14.53,135118
26-Aug-11,13.75,14.08,13.50,13.99,166348
25-Aug-11,14.48,14.48,13.71,13.76,79693
24-Aug-11,14.08,14.43,14.00,14.34,979863
23-Aug-11,13.64,14.08,13.50,14.06,352370
22-Aug-11,13.94,14.02,13.50,13.61,155422
19-Aug-11,13.70,14.00,13.64,13.68,241445
18-Aug-11,13.90,14.15,13.59,13.84,372652
17-Aug-11,14.62,14.73,14.21,14.27,176467
16-Aug-11,14.83,14.96,14.42,14.59,494544
15-Aug-11,13.93,14.26,13.72,14.07,269109
12-Aug-11,13.58,13.98,13.50,13.89,347215
11-Aug-11,13.99,14.17,13.23,13.58,423581
10-Aug-11,12.98,15.82,11.95,13.97,1203504
9-Aug-11,16.28,16.72,15.77,16.70,283165
8-Aug-11,16.19,16.69,15.66,16.00,369975
5-Aug-11,17.10,17.19,16.19,16.58,293702
4-Aug-11,17.39,17.44,16.70,16.90,239883
3-Aug-11,17.16,17.82,17.02,17.58,231161
2-Aug-11,17.69,17.82,17.06,17.24,83683
1-Aug-11,17.92,18.00,17.38,17.80,140024
29-Jul-11,17.66,17.82,17.53,17.78,81783
28-Jul-11,17.84,18.03,17.76,17.82,73943
27-Jul-11,18.30,18.30,17.70,17.82,135275
26-Jul-11,18.60,18.64,18.34,18.42,90703
25-Jul-11,18.37,18.76,18.27,18.61,94601
22-Jul-11,18.55,18.55,18.42,18.46,71785
21-Jul-11,18.34,18.69,18.33,18.54,100234
20-Jul-11,18.25,18.39,18.15,18.28,81220
19-Jul-11,18.16,18.40,18.06,18.30,73945
18-Jul-11,18.22,18.42,17.82,18.07,117193
15-Jul-11,18.32,18.43,18.08,18.22,121091
14-Jul-11,18.69,18.83,18.23,18.28,116452
13-Jul-11,18.51,19.06,18.51,18.72,127446
12-Jul-11,18.58,18.65,18.30,18.49,84463
11-Jul-11,19.15,19.20,18.57,18.65,119445
8-Jul-11,19.22,19.42,19.09,19.36,142237
7-Jul-11,19.47,19.61,19.33,19.37,138109
6-Jul-11,19.37,19.43,19.02,19.32,319230
5-Jul-11,19.35,19.64,19.29,19.50,311944
1-Jul-11,18.91,19.42,18.91,19.35,255071
30-Jun-11,18.68,18.99,18.63,18.91,151472
29-Jun-11,18.48,18.71,18.46,18.69,115984
28-Jun-11,18.25,18.56,18.16,18.45,133507
27-Jun-11,18.20,18.39,18.06,18.23,87548
24-Jun-11,18.17,18.31,17.99,18.24,317406
23-Jun-11,17.91,18.28,17.85,18.21,292978
22-Jun-11,18.13,18.32,18.01,18.05,325330
21-Jun-11,18.05,18.36,17.96,18.20,221151
20-Jun-11,17.81,18.00,17.61,17.99,292783
17-Jun-11,18.04,18.19,17.80,17.83,272398
16-Jun-11,17.93,18.05,17.59,17.89,433643
15-Jun-11,18.03,18.22,17.81,18.06,135837
14-Jun-11,18.38,18.49,18.18,18.23,206128
13-Jun-11,18.58,18.66,18.12,18.24,177783
10-Jun-11,18.43,18.77,18.38,18.58,290818
9-Jun-11,18.57,18.66,18.42,18.45,151709
8-Jun-11,18.79,18.96,18.55,18.57,111097
7-Jun-11,18.86,19.04,18.79,18.87,145400
6-Jun-11,18.99,19.07,18.73,18.80,258792
3-Jun-11,19.25,19.25,18.85,18.97,300633
2-Jun-11,20.54,20.70,19.34,19.43,537821
1-Jun-11,20.68,21.00,20.50,20.57,227205
31-May-11,20.68,20.91,20.58,20.91,871510
27-May-11,20.10,20.57,20.05,20.55,188459
26-May-11,19.89,20.09,19.54,20.04,218681
25-May-11,19.56,20.03,19.46,20.00,220697
24-May-11,19.39,19.79,19.39,19.63,352267
23-May-11,19.56,19.76,19.41,19.46,124068
20-May-11,19.96,20.03,19.63,19.76,197269
19-May-11,20.24,20.25,19.93,20.02,365574
18-May-11,19.06,20.24,19.06,20.22,557164
17-May-11,19.15,19.74,18.88,19.72,600752
16-May-11,19.11,19.39,18.97,19.27,125131
13-May-11,19.34,19.43,19.08,19.19,197987
12-May-11,19.02,19.32,18.84,19.30,210751
11-May-11,19.10,19.25,18.94,19.02,174120
10-May-11,18.92,19.25,18.90,19.16,215201
9-May-11,18.94,18.98,18.76,18.93,232404
6-May-11,18.90,19.00,18.68,18.98,323528
5-May-11,18.54,18.98,18.23,18.80,487501
4-May-11,18.90,18.90,17.28,18.70,980830
3-May-11,19.26,19.64,19.03,19.20,259639
2-May-11,19.50,19.59,19.13,19.30,578062
29-Apr-11,18.68,19.61,18.68,19.50,460848
28-Apr-11,18.60,18.70,18.45,18.67,312114
27-Apr-11,18.19,18.50,18.12,18.40,187659
26-Apr-11,18.07,18.31,18.00,18.26,357306
25-Apr-11,17.87,18.25,17.85,18.09,360021
21-Apr-11,17.74,17.90,17.74,17.87,174592
20-Apr-11,17.50,17.75,17.49,17.71,373756
19-Apr-11,17.85,17.85,17.38,17.44,293498
18-Apr-11,17.38,17.42,17.16,17.42,204933
15-Apr-11,17.12,17.53,17.03,17.47,2032342
14-Apr-11,16.87,17.18,16.85,17.13,2944486
13-Apr-11,16.95,17.10,16.93,16.96,104259
12-Apr-11,16.75,17.24,16.75,16.96,306316
11-Apr-11,16.00,17.10,15.99,17.04,368186
8-Apr-11,16.55,17.05,16.54,16.60,306845
7-Apr-11,15.99,16.76,15.99,16.50,257465
6-Apr-11,15.90,16.28,15.88,16.03,187080
5-Apr-11,15.75,15.96,15.69,15.90,189884
4-Apr-11,15.83,15.98,15.75,15.79,99915
1-Apr-11,15.35,15.92,15.30,15.79,183637
31-Mar-11,15.16,15.38,15.08,15.34,110248
30-Mar-11,15.15,15.25,15.07,15.21,125429
29-Mar-11,14.99,15.20,14.94,15.16,68388
28-Mar-11,15.05,15.11,14.88,15.01,89817
25-Mar-11,15.07,15.15,14.99,15.01,85390
24-Mar-11,14.97,15.22,14.89,15.10,109462
23-Mar-11,14.62,14.92,14.51,14.92,198305
22-Mar-11,14.73,14.84,14.60,14.63,74442
21-Mar-11,14.62,14.84,14.62,14.70,84558
18-Mar-11,14.68,14.89,14.47,14.52,190300
17-Mar-11,14.68,14.83,14.51,14.59,42089
16-Mar-11,14.65,14.72,14.41,14.52,100106
15-Mar-11,14.64,14.82,14.52,14.68,60982
14-Mar-11,14.76,14.92,14.75,14.85,48981
11-Mar-11,14.73,14.96,14.61,14.88,69774
10-Mar-11,14.74,14.99,14.58,14.80,129846
9-Mar-11,14.85,15.10,14.69,14.87,94860
8-Mar-11,14.60,14.93,14.53,14.90,115477
7-Mar-11,14.68,14.75,14.38,14.61,178279
4-Mar-11,14.34,14.66,14.22,14.66,127337
3-Mar-11,14.34,14.38,14.05,14.30,371617
2-Mar-11,14.17,14.44,13.99,14.25,1253803
1-Mar-11,14.10,14.26,13.98,14.20,147809
28-Feb-11,14.40,14.56,13.91,14.04,594704
25-Feb-11,14.31,14.76,14.31,14.44,244706
24-Feb-11,15.35,15.74,14.30,14.37,133710
23-Feb-11,14.99,14.99,14.44,14.45,69617
22-Feb-11,15.04,15.15,14.97,15.02,31438
18-Feb-11,15.25,15.27,15.10,15.23,47701
17-Feb-11,15.06,15.33,15.00,15.23,72019
16-Feb-11,15.13,15.20,15.11,15.13,91512
15-Feb-11,15.00,15.26,14.93,15.17,95517
14-Feb-11,15.07,15.14,14.97,15.08,28531
11-Feb-11,14.87,15.15,14.87,15.09,50566
10-Feb-11,14.85,15.22,14.83,14.93,125478
9-Feb-11,14.89,14.94,14.57,14.91,107521
8-Feb-11,14.88,14.96,14.71,14.85,74104
7-Feb-11,14.87,15.08,14.72,14.86,98858
4-Feb-11,15.05,15.17,14.74,14.90,58755
3-Feb-11,14.89,15.09,14.78,15.04,106044
2-Feb-11,14.82,14.97,14.69,14.92,46200
1-Feb-11,14.90,15.18,14.73,14.89,270425
31-Jan-11,14.72,14.87,14.09,14.84,281847
28-Jan-11,14.73,14.73,14.32,14.66,99244
27-Jan-11,14.65,14.79,14.56,14.71,40831
26-Jan-11,14.63,14.66,14.49,14.66,68253
25-Jan-11,14.36,14.63,14.34,14.63,62176
24-Jan-11,14.29,14.52,14.22,14.41,94084
21-Jan-11,14.46,14.46,14.21,14.32,47869
20-Jan-11,14.24,14.44,14.19,14.39,43760
19-Jan-11,14.13,14.49,14.08,14.35,78946
18-Jan-11,14.37,14.37,14.05,14.17,145863
14-Jan-11,14.17,14.39,14.05,14.39,79227
13-Jan-11,14.48,14.53,14.23,14.23,47091
12-Jan-11,14.30,14.47,14.17,14.46,212915
11-Jan-11,14.18,14.26,14.04,14.23,58083
10-Jan-11,13.93,14.12,13.89,14.12,131896
7-Jan-11,14.02,14.10,13.89,13.97,68443
6-Jan-11,13.94,14.02,13.85,14.02,45999
5-Jan-11,14.12,14.12,13.93,13.99,321527
4-Jan-11,14.10,14.48,13.99,14.11,240225
3-Jan-11,13.87,14.19,13.74,14.07,221803
31-Dec-10,14.00,14.01,13.59,13.80,147229
30-Dec-10,14.01,14.37,13.99,14.03,164362
29-Dec-10,14.04,14.10,13.95,14.04,109357
28-Dec-10,14.05,14.07,13.84,14.07,140411
27-Dec-10,13.90,14.12,13.84,14.02,148830
23-Dec-10,13.93,14.05,13.86,13.95,55801
22-Dec-10,13.85,14.02,13.75,13.91,225737
21-Dec-10,13.37,13.88,13.33,13.80,156211
20-Dec-10,13.43,13.57,13.33,13.36,112240
17-Dec-10,13.29,13.51,13.23,13.42,114272
16-Dec-10,13.10,13.35,13.10,13.26,180731
15-Dec-10,13.21,13.34,13.11,13.16,62300
14-Dec-10,13.11,13.32,13.10,13.21,90714
13-Dec-10,13.03,13.23,12.96,13.10,138869
10-Dec-10,12.65,13.04,12.55,13.02,210218
9-Dec-10,12.70,12.74,12.60,12.64,143838
8-Dec-10,12.56,12.63,12.51,12.63,42983
7-Dec-10,12.56,12.67,12.55,12.56,96961
6-Dec-10,12.64,12.72,12.46,12.52,91847
3-Dec-10,12.60,12.73,12.59,12.71,76878
2-Dec-10,12.49,12.78,12.49,12.63,72526
1-Dec-10,12.14,12.54,12.11,12.48,211381
30-Nov-10,11.86,12.09,11.74,12.05,187430
29-Nov-10,12.20,12.22,11.86,11.90,296345
26-Nov-10,12.36,12.44,12.14,12.14,12647
24-Nov-10,12.36,12.41,12.26,12.39,173057
23-Nov-10,12.18,12.35,12.18,12.28,133814
22-Nov-10,12.21,12.35,12.21,12.30,91429
19-Nov-10,12.24,12.38,12.21,12.30,93546
18-Nov-10,12.32,12.39,12.14,12.24,110087
17-Nov-10,12.04,12.35,11.99,12.21,307825
16-Nov-10,12.04,12.16,11.96,12.01,117905
15-Nov-10,12.10,12.25,12.10,12.11,141124
12-Nov-10,12.08,12.11,11.87,12.07,88380
11-Nov-10,11.96,12.07,11.90,12.06,346655
10-Nov-10,12.08,12.16,12.00,12.06,1356924
9-Nov-10,12.15,12.18,12.01,12.06,523310
8-Nov-10,12.30,12.36,12.09,12.10,557262
5-Nov-10,12.50,12.60,12.15,12.32,238933
4-Nov-10,13.00,13.17,12.32,12.45,639327
3-Nov-10,12.76,12.82,12.52,12.70,191788
2-Nov-10,12.76,12.90,12.66,12.74,100469
1-Nov-10,12.92,12.92,12.61,12.68,102181
29-Oct-10,12.85,12.93,12.82,12.88,71746
28-Oct-10,12.92,13.01,12.83,12.92,29480
27-Oct-10,12.95,12.95,12.83,12.90,49948
26-Oct-10,12.90,13.11,12.90,13.02,46905
25-Oct-10,13.14,13.19,12.91,12.95,71038
22-Oct-10,13.07,13.17,12.95,13.09,174004
21-Oct-10,13.15,13.15,12.88,13.01,143912
20-Oct-10,13.04,13.11,12.98,13.10,54188
19-Oct-10,12.90,13.13,12.90,13.01,72027
18-Oct-10,12.93,13.11,12.93,13.04,66423
15-Oct-10,13.03,13.13,12.87,12.93,72186
14-Oct-10,13.24,13.25,12.95,13.00,131179
13-Oct-10,13.39,13.39,13.14,13.20,34909
12-Oct-10,13.28,13.41,13.21,13.33,19487
11-Oct-10,13.25,13.35,13.21,13.26,106772
8-Oct-10,13.17,13.32,13.12,13.22,36935
7-Oct-10,13.25,13.29,13.10,13.10,22278
6-Oct-10,13.14,13.27,13.05,13.22,56289
5-Oct-10,12.83,13.18,12.66,13.10,104866
4-Oct-10,12.64,12.91,12.64,12.73,175457
1-Oct-10,12.68,12.86,12.47,12.60,131823
30-Sep-10,12.84,12.84,12.54,12.61,59578
29-Sep-10,12.73,12.83,12.64,12.75,31800
28-Sep-10,12.65,12.79,12.62,12.75,112364
27-Sep-10,12.75,12.91,12.60,12.65,184127
24-Sep-10,12.83,12.83,12.66,12.75,117568
23-Sep-10,12.91,13.02,12.61,12.67,75647
22-Sep-10,13.33,13.33,13.01,13.02,35500
21-Sep-10,13.16,13.35,12.94,13.33,131686
20-Sep-10,13.07,13.20,12.96,13.13,40284
17-Sep-10,13.14,13.23,12.96,13.01,96959
16-Sep-10,13.11,13.12,12.88,13.05,42409
15-Sep-10,12.78,13.73,12.70,13.09,304440
14-Sep-10,12.75,12.84,12.73,12.75,50106
13-Sep-10,12.72,12.75,12.63,12.73,40886
10-Sep-10,12.68,12.75,12.45,12.66,103556
9-Sep-10,12.46,12.95,12.35,12.65,112128
8-Sep-10,12.76,12.76,12.24,12.28,131139
7-Sep-10,13.08,13.09,12.74,12.84,172716
3-Sep-10,12.84,13.05,12.66,13.05,77458
2-Sep-10,12.49,12.84,12.47,12.71,56740
1-Sep-10,12.19,12.54,11.97,12.54,98984
31-Aug-10,11.95,12.13,11.87,12.11,150624
30-Aug-10,11.93,11.99,11.75,11.96,395822
27-Aug-10,11.88,12.05,11.80,11.98,368627
26-Aug-10,11.76,11.87,11.65,11.85,189843
25-Aug-10,11.27,11.74,11.18,11.70,99442
24-Aug-10,11.18,11.49,11.11,11.30,310010
23-Aug-10,11.33,11.42,11.26,11.33,184834
20-Aug-10,11.41,11.41,11.18,11.28,119441
19-Aug-10,11.88,11.88,11.32,11.47,139440
18-Aug-10,11.91,12.10,11.74,11.95,203553
17-Aug-10,11.35,12.06,11.32,11.92,114523
16-Aug-10,11.24,11.89,11.13,11.25,120817
13-Aug-10,11.40,11.46,11.16,11.19,207814
12-Aug-10,11.25,11.53,11.03,11.42,184644
11-Aug-10,11.55,11.55,11.26,11.30,474410
10-Aug-10,12.05,12.07,11.59,11.77,125254
9-Aug-10,12.10,12.18,12.04,12.13,490807
6-Aug-10,12.33,12.49,12.00,12.10,1285429
5-Aug-10,12.65,12.79,12.33,12.37,460394
4-Aug-10,11.65,13.08,11.65,12.77,599078
3-Aug-10,12.60,12.72,12.26,12.54,76630
2-Aug-10,12.74,12.96,12.63,12.71,138967
30-Jul-10,12.49,12.79,12.49,12.66,48015
29-Jul-10,12.68,12.83,12.31,12.71,41859
28-Jul-10,12.56,12.72,12.50,12.58,51073
27-Jul-10,13.01,13.01,12.54,12.58,51402
26-Jul-10,12.79,13.08,12.79,12.94,75981
23-Jul-10,12.46,13.07,12.46,12.84,177433
22-Jul-10,12.45,12.62,12.30,12.55,98507
21-Jul-10,12.60,12.82,12.30,12.32,87776
20-Jul-10,12.39,12.61,12.34,12.53,87577
19-Jul-10,12.65,12.76,12.46,12.55,58080
16-Jul-10,12.89,12.94,12.64,12.65,134432
15-Jul-10,12.96,13.01,12.85,12.99,310553
14-Jul-10,12.77,13.14,12.77,12.94,116727
13-Jul-10,12.72,12.96,12.70,12.85,47820
12-Jul-10,12.80,12.91,12.45,12.59,55155
9-Jul-10,12.56,12.90,12.50,12.90,133728
8-Jul-10,12.89,12.97,12.51,12.59,79122
7-Jul-10,12.35,12.86,12.26,12.81,73373
6-Jul-10,12.54,12.64,12.27,12.37,111050
2-Jul-10,12.13,12.48,12.10,12.35,96408
1-Jul-10,12.39,12.39,11.97,12.16,165962
30-Jun-10,12.19,13.23,12.16,12.37,394432
29-Jun-10,12.06,12.32,11.52,12.26,236407
28-Jun-10,12.65,12.79,11.94,12.18,195520
25-Jun-10,12.35,12.78,12.10,12.71,578118
24-Jun-10,12.88,12.93,12.32,12.32,214622
23-Jun-10,12.88,12.99,12.75,12.93,86922
22-Jun-10,13.23,13.27,12.88,12.91,169740
21-Jun-10,13.39,13.54,13.15,13.21,64147
18-Jun-10,13.25,13.35,13.17,13.29,43212
17-Jun-10,13.23,13.33,13.08,13.26,108588
16-Jun-10,13.40,13.50,13.15,13.22,80598
15-Jun-10,13.29,13.61,13.20,13.49,71347
14-Jun-10,13.04,13.51,12.93,13.22,134798
11-Jun-10,12.83,13.05,12.76,13.00,233072
10-Jun-10,13.22,13.39,12.62,12.93,565928
9-Jun-10,13.38,13.50,13.00,13.05,179483
8-Jun-10,13.22,13.51,13.22,13.28,176218
7-Jun-10,13.33,14.00,13.24,13.26,421587
4-Jun-10,13.82,13.82,13.22,13.27,517738
3-Jun-10,14.11,14.26,13.96,14.00,292751
2-Jun-10,14.10,14.42,13.96,14.00,273339
1-Jun-10,13.89,14.59,13.89,14.01,247432
28-May-10,14.00,14.14,13.82,13.94,459165
27-May-10,13.80,14.16,13.80,14.09,265313
26-May-10,13.43,14.34,13.43,13.77,1169179
25-May-10,13.82,14.21,13.04,13.31,381797
24-May-10,14.43,14.70,13.98,14.11,237014
21-May-10,14.13,14.49,13.88,14.45,149814
20-May-10,14.65,14.80,14.24,14.27,421728
19-May-10,14.97,15.02,14.68,14.94,107892
18-May-10,14.97,15.05,14.79,14.99,225936
17-May-10,15.02,15.05,14.51,14.80,181882
14-May-10,14.91,15.00,14.71,14.98,97435
13-May-10,15.10,15.19,14.85,14.97,124424
12-May-10,15.02,15.37,14.94,15.20,126723
11-May-10,14.91,15.26,14.51,15.03,547761
10-May-10,14.82,15.10,14.41,15.00,261610
7-May-10,14.70,15.12,14.52,14.86,275131
6-May-10,15.23,15.38,14.59,14.77,258762
5-May-10,15.30,15.52,15.16,15.52,155016
4-May-10,15.57,15.72,15.18,15.49,206916
3-May-10,15.55,15.84,15.51,15.73,283097
30-Apr-10,15.34,15.70,15.26,15.56,159514
29-Apr-10,15.14,15.46,14.98,15.40,147976
28-Apr-10,15.20,15.21,14.93,15.11,442576
27-Apr-10,15.16,15.40,15.16,15.18,393967
26-Apr-10,15.55,15.67,15.37,15.46,50069
23-Apr-10,15.41,15.54,15.41,15.51,114291
22-Apr-10,15.24,15.63,15.18,15.49,738378
21-Apr-10,15.44,15.60,15.13,15.27,131733
20-Apr-10,15.05,15.52,14.92,15.50,132237
19-Apr-10,14.98,15.12,14.85,15.04,184882
16-Apr-10,15.00,15.17,14.83,14.96,118059
15-Apr-10,15.32,15.32,15.09,15.12,117830
14-Apr-10,15.13,15.36,15.12,15.32,198345
13-Apr-10,15.17,15.35,14.97,15.14,265967
12-Apr-10,15.37,15.41,15.00,15.14,197795
9-Apr-10,15.33,15.45,15.33,15.41,62328
8-Apr-10,14.98,15.33,14.88,15.33,108419
7-Apr-10,15.44,15.55,15.02,15.07,170922
6-Apr-10,15.09,15.77,14.94,15.39,220703
5-Apr-10,15.09,15.25,14.92,15.10,160775
1-Apr-10,15.14,15.40,14.55,15.12,159625
31-Mar-10,15.45,15.56,15.04,15.06,968965
30-Mar-10,15.28,15.55,15.16,15.55,377003
29-Mar-10,15.34,15.34,15.10,15.20,126024
26-Mar-10,15.05,15.34,14.92,15.24,275724
25-Mar-10,14.99,15.01,14.86,15.00,138291
24-Mar-10,14.86,15.04,14.76,14.89,121793
23-Mar-10,15.16,15.16,14.95,15.00,66356
22-Mar-10,14.68,15.30,14.67,15.06,688209
19-Mar-10,14.34,14.80,14.25,14.68,378673
18-Mar-10,14.52,14.52,14.27,14.42,22544
17-Mar-10,14.61,14.75,14.42,14.54,129628
16-Mar-10,14.20,14.60,13.91,14.57,247405
15-Mar-10,14.20,14.20,13.90,14.13,154321
12-Mar-10,13.96,14.20,13.79,14.20,95045
11-Mar-10,14.12,14.16,13.96,13.96,163946
10-Mar-10,14.12,14.24,14.10,14.20,115250
9-Mar-10,14.19,14.25,13.98,14.18,224219
8-Mar-10,14.14,14.23,14.03,14.20,143379
5-Mar-10,14.04,14.42,14.01,14.20,221643
4-Mar-10,14.14,14.30,13.92,14.00,322558
3-Mar-10,14.03,14.26,13.86,14.19,506658
2-Mar-10,13.54,14.00,13.50,13.96,374636
1-Mar-10,13.53,13.93,13.30,13.46,431443
26-Feb-10,14.00,14.00,13.10,13.40,685983
25-Feb-10,13.39,14.17,13.14,14.10,243059
24-Feb-10,13.99,14.08,13.55,13.55,163871
23-Feb-10,13.98,14.01,13.49,13.90,82297
22-Feb-10,14.15,14.15,13.96,14.04,135070
19-Feb-10,14.09,14.19,14.04,14.15,117672
18-Feb-10,13.25,14.10,13.25,14.09,618836
17-Feb-10,13.99,14.15,13.27,13.28,430876
16-Feb-10,14.83,14.99,13.91,13.93,2785054
12-Feb-10,14.39,14.93,14.35,14.77,70255
11-Feb-10,14.46,14.49,14.34,14.48,45879
10-Feb-10,14.27,14.45,14.25,14.37,30390
9-Feb-10,14.33,14.55,14.19,14.35,517525
8-Feb-10,14.16,14.39,14.15,14.24,805781
5-Feb-10,14.03,14.28,13.89,14.20,163834
4-Feb-10,14.15,14.28,13.96,13.96,148450
3-Feb-10,14.23,14.33,14.00,14.25,117250
2-Feb-10,14.50,14.82,14.32,14.36,189942
1-Feb-10,13.89,14.69,13.89,14.40,509548
29-Jan-10,14.07,14.10,13.77,13.87,156999
28-Jan-10,14.24,14.24,13.90,13.92,194195
27-Jan-10,14.50,14.50,13.84,14.14,173813
26-Jan-10,14.47,14.54,14.21,14.50,136271
25-Jan-10,14.38,14.69,14.11,14.50,208953
22-Jan-10,14.53,14.55,14.20,14.33,119849
21-Jan-10,15.12,15.19,14.40,14.48,156006
20-Jan-10,15.25,15.27,14.73,14.94,532269
19-Jan-10,14.60,14.70,14.22,14.52,255260
15-Jan-10,14.47,14.60,14.28,14.55,117179
14-Jan-10,14.75,14.78,14.51,14.60,71377
13-Jan-10,14.68,14.68,14.22,14.59,102600
12-Jan-10,14.71,14.83,14.35,14.57,194626
11-Jan-10,14.55,14.87,14.38,14.67,200231
8-Jan-10,13.95,14.65,13.78,14.50,389617
7-Jan-10,14.13,14.13,13.92,14.01,584712
6-Jan-10,14.01,14.20,13.70,14.00,256767
5-Jan-10,13.98,14.25,13.89,14.01,268737
4-Jan-10,13.78,14.00,13.72,13.97,273512
31-Dec-09,13.64,13.92,13.50,13.79,224181
30-Dec-09,13.50,13.92,13.43,13.71,260031
29-Dec-09,13.19,13.70,13.16,13.52,450749
28-Dec-09,13.45,13.45,13.03,13.22,82451
24-Dec-09,13.13,13.47,13.00,13.39,53172
23-Dec-09,13.26,13.26,12.98,13.05,142528
22-Dec-09,13.50,13.50,13.02,13.10,89653
21-Dec-09,13.42,13.50,13.00,13.46,325600
18-Dec-09,12.86,13.45,12.74,13.31,425612
17-Dec-09,12.07,13.19,12.00,13.00,479110
16-Dec-09,11.90,12.47,11.86,12.30,883601
15-Dec-09,12.00,12.04,11.80,11.80,927822
14-Dec-09,12.09,12.09,11.73,12.00,1238989
11-Dec-09,11.40,12.09,11.09,12.03,11558369
