﻿Date,Open,High,Low,Close,Volume
20-Jun-17,49.90,49.93,48.65,48.70,214000
19-Jun-17,50.20,50.50,49.79,50.13,225727
16-Jun-17,50.22,50.62,49.43,49.88,750958
15-Jun-17,50.20,51.15,49.30,50.50,271404
14-Jun-17,52.17,52.17,49.91,50.77,428411
13-Jun-17,52.81,53.13,52.22,52.28,594314
12-Jun-17,52.01,52.97,51.79,52.70,395940
9-Jun-17,51.20,52.23,50.83,52.01,496814
8-Jun-17,50.00,51.43,49.76,51.04,426526
7-Jun-17,51.07,51.22,49.21,50.04,461846
6-Jun-17,49.66,51.11,48.79,51.07,464061
5-Jun-17,50.05,50.69,49.86,50.11,278997
2-Jun-17,49.22,50.73,49.21,50.21,608414
1-Jun-17,48.55,49.64,47.75,49.36,514303
31-May-17,47.82,48.56,47.20,48.39,368423
30-May-17,48.10,48.13,46.01,47.86,472086
26-May-17,48.38,48.51,47.40,48.45,457645
25-May-17,49.35,49.94,48.05,48.39,413468
24-May-17,51.09,52.40,48.80,49.06,662730
23-May-17,48.69,48.72,47.85,48.46,330306
22-May-17,48.38,48.79,48.17,48.45,349349
19-May-17,47.13,48.42,46.87,48.08,369171
18-May-17,46.81,47.58,46.24,46.95,274903
17-May-17,47.41,47.71,46.52,47.01,304775
16-May-17,48.34,48.38,47.49,48.30,239779
15-May-17,47.45,48.92,47.19,48.25,277865
12-May-17,47.26,47.26,46.87,47.11,120384
11-May-17,47.54,47.85,47.00,47.49,173830
10-May-17,47.56,47.90,47.35,47.70,238320
9-May-17,48.03,48.40,47.32,47.59,259400
8-May-17,47.60,48.57,47.46,47.96,359602
5-May-17,47.53,47.71,47.18,47.67,221667
4-May-17,48.19,48.19,46.73,47.33,468207
3-May-17,47.30,48.20,46.63,48.06,592616
2-May-17,47.42,47.63,46.94,47.46,407983
1-May-17,47.64,48.44,46.73,47.46,508344
28-Apr-17,48.13,48.26,47.26,47.30,389192
27-Apr-17,48.54,48.73,47.40,47.91,283010
26-Apr-17,48.17,49.18,48.12,48.57,349519
25-Apr-17,48.20,48.36,45.81,48.22,322519
24-Apr-17,48.05,48.40,47.37,47.71,311739
21-Apr-17,46.76,47.72,45.25,47.40,524769
20-Apr-17,46.40,47.04,45.78,46.86,615617
19-Apr-17,47.31,47.65,45.98,46.02,601131
18-Apr-17,46.43,47.38,46.09,47.09,703499
17-Apr-17,46.10,46.89,45.35,46.70,590736
13-Apr-17,45.42,45.92,44.14,44.52,302105
12-Apr-17,46.03,46.03,45.16,45.60,373869
11-Apr-17,46.13,46.30,45.63,46.28,367609
10-Apr-17,46.12,46.78,45.61,46.23,457520
7-Apr-17,45.10,45.97,44.78,45.92,516964
6-Apr-17,43.98,45.49,43.29,45.20,421004
5-Apr-17,45.36,45.99,43.91,43.95,530568
4-Apr-17,44.24,45.50,43.48,45.20,368841
3-Apr-17,44.88,45.45,44.24,44.81,515604
31-Mar-17,44.06,45.12,43.85,44.70,384782
30-Mar-17,44.29,44.57,44.07,44.10,279386
29-Mar-17,43.83,44.55,43.55,44.29,335162
28-Mar-17,43.29,44.40,43.29,43.89,476823
27-Mar-17,42.97,43.57,42.45,43.38,493150
24-Mar-17,44.34,44.82,43.57,43.75,228987
23-Mar-17,43.70,44.52,43.64,44.24,349569
22-Mar-17,43.82,44.39,43.22,43.74,489604
21-Mar-17,46.27,47.93,43.91,43.97,406486
20-Mar-17,46.43,46.94,45.59,45.90,286999
17-Mar-17,46.20,46.96,46.20,46.45,1064575
16-Mar-17,46.95,46.99,46.30,46.39,232296
15-Mar-17,45.81,46.88,45.47,46.67,508221
14-Mar-17,44.99,45.99,44.16,45.42,586119
13-Mar-17,45.24,45.97,45.20,45.75,559504
10-Mar-17,46.15,46.15,44.42,45.20,858776
9-Mar-17,47.03,47.73,45.29,45.55,769826
8-Mar-17,48.35,49.07,47.08,47.19,919400
7-Mar-17,48.50,48.99,46.03,47.71,1721440
6-Mar-17,51.13,51.17,50.41,51.00,520508
3-Mar-17,51.11,51.91,50.91,51.61,379914
2-Mar-17,52.24,52.24,51.03,51.13,248106
1-Mar-17,51.04,52.40,50.96,52.19,557365
28-Feb-17,50.78,51.20,50.26,50.34,493001
27-Feb-17,49.53,51.12,49.38,50.81,304550
24-Feb-17,49.26,50.10,48.80,49.79,237548
23-Feb-17,50.17,50.31,49.50,49.76,429276
22-Feb-17,49.94,50.00,49.34,49.90,276666
21-Feb-17,49.85,50.12,49.38,50.01,296180
17-Feb-17,49.69,50.10,49.19,49.94,272958
16-Feb-17,50.49,50.65,49.23,49.69,379360
15-Feb-17,50.34,50.68,49.99,50.49,216898
14-Feb-17,50.44,50.70,50.24,50.49,287718
13-Feb-17,50.91,51.17,50.51,50.66,224583
10-Feb-17,51.07,51.13,50.47,50.70,327053
9-Feb-17,49.27,50.70,49.15,50.42,697270
8-Feb-17,49.39,50.62,48.22,49.04,1159906
7-Feb-17,49.59,50.33,49.50,49.70,382532
6-Feb-17,50.04,50.27,49.05,49.27,553754
3-Feb-17,49.73,50.42,49.18,50.13,420294
2-Feb-17,48.45,49.26,48.18,49.24,447813
1-Feb-17,49.59,50.15,48.23,48.63,399070
31-Jan-17,48.87,49.26,48.31,48.99,363975
30-Jan-17,49.30,49.30,48.09,49.15,598138
27-Jan-17,49.56,50.00,49.18,49.69,416779
26-Jan-17,49.48,50.33,47.77,49.70,781939
25-Jan-17,49.44,49.55,48.39,49.48,626080
24-Jan-17,48.48,49.48,47.92,49.02,729712
23-Jan-17,47.72,48.50,47.46,48.37,525978
20-Jan-17,47.20,48.24,47.20,48.15,562136
19-Jan-17,47.40,47.93,46.79,47.56,391243
18-Jan-17,46.84,47.23,46.63,47.00,577926
17-Jan-17,47.20,47.20,46.55,46.61,416683
13-Jan-17,47.52,48.07,47.24,47.44,389270
12-Jan-17,47.79,48.09,46.10,47.36,419207
11-Jan-17,46.87,48.14,46.60,47.83,676712
10-Jan-17,45.42,46.55,45.28,46.48,657911
9-Jan-17,45.41,45.64,43.00,45.07,674213
6-Jan-17,46.79,46.80,45.74,45.77,447064
5-Jan-17,47.72,47.88,46.26,46.49,510235
4-Jan-17,47.28,48.35,47.28,47.74,894562
3-Jan-17,45.77,47.09,45.05,46.92,1026533
30-Dec-16,45.31,45.61,44.86,45.11,547490
29-Dec-16,45.65,45.97,45.14,45.31,301536
28-Dec-16,45.92,46.12,45.36,45.47,372579
27-Dec-16,45.79,46.39,45.60,45.94,222887
23-Dec-16,45.64,45.85,45.16,45.79,359799
22-Dec-16,45.94,46.05,45.41,45.63,337120
21-Dec-16,45.83,46.44,45.62,45.96,849042
20-Dec-16,45.64,46.21,45.50,45.82,539066
19-Dec-16,45.46,45.85,44.89,45.44,453004
16-Dec-16,46.59,46.89,45.36,45.48,1281814
15-Dec-16,45.49,46.94,45.33,46.49,1069351
14-Dec-16,45.65,46.31,45.21,45.35,876750
13-Dec-16,46.83,47.24,45.83,46.03,780130
12-Dec-16,46.30,46.73,44.96,46.40,1859261
9-Dec-16,45.85,46.32,44.90,45.75,2213271
8-Dec-16,46.00,46.76,43.28,45.35,1636591
7-Dec-16,42.79,44.06,42.59,43.88,829012
6-Dec-16,42.09,43.29,41.92,42.99,1154092
5-Dec-16,41.10,42.65,40.87,41.85,1333230
2-Dec-16,40.53,41.36,39.86,41.08,947583
1-Dec-16,39.29,40.79,38.61,40.51,884515
30-Nov-16,38.90,39.61,38.83,38.99,586314
29-Nov-16,39.43,39.62,38.57,38.67,286555
28-Nov-16,40.55,40.77,39.30,39.38,358377
25-Nov-16,40.74,40.96,39.89,40.77,300180
23-Nov-16,40.15,40.73,39.64,40.73,408438
22-Nov-16,39.62,40.11,39.10,40.08,379666
21-Nov-16,39.59,39.67,38.75,39.37,324298
18-Nov-16,38.62,39.29,38.41,39.28,281376
17-Nov-16,38.46,39.04,36.64,38.67,301434
16-Nov-16,38.39,38.84,38.03,38.30,489391
15-Nov-16,39.39,39.75,38.50,38.77,556860
14-Nov-16,39.91,40.50,39.21,39.25,456888
11-Nov-16,39.15,39.76,38.70,39.55,772436
10-Nov-16,38.00,39.56,37.98,39.19,985454
9-Nov-16,34.03,37.48,34.03,37.46,392483
8-Nov-16,34.04,34.67,33.78,34.46,308402
7-Nov-16,34.14,34.38,33.61,34.12,375941
4-Nov-16,33.46,33.89,33.23,33.32,228882
3-Nov-16,33.77,34.00,33.17,33.26,200498
2-Nov-16,33.75,34.24,33.65,33.65,313805
1-Nov-16,34.66,34.82,33.40,33.86,366206
31-Oct-16,33.89,34.65,33.60,34.42,335101
28-Oct-16,33.80,34.05,33.38,33.84,176406
27-Oct-16,33.95,34.27,33.57,33.81,207203
26-Oct-16,33.93,34.30,33.57,33.73,325321
25-Oct-16,34.45,34.74,33.87,34.22,255384
24-Oct-16,33.97,34.96,33.97,34.61,226792
21-Oct-16,33.60,34.03,33.47,33.73,190148
20-Oct-16,33.47,34.38,33.47,34.04,315691
19-Oct-16,33.91,34.22,33.42,33.78,347790
18-Oct-16,34.13,34.13,33.41,33.76,259699
17-Oct-16,33.34,33.71,33.27,33.66,180808
14-Oct-16,33.96,34.04,33.31,33.34,241360
13-Oct-16,33.57,34.09,33.26,33.71,298629
12-Oct-16,34.29,34.50,33.73,33.92,171375
11-Oct-16,35.39,35.39,33.85,34.25,352700
10-Oct-16,35.51,36.10,35.51,35.59,167168
7-Oct-16,35.76,36.11,34.97,35.26,251604
6-Oct-16,35.17,35.75,35.13,35.64,177027
5-Oct-16,34.78,35.97,34.71,35.62,380006
4-Oct-16,35.48,35.61,34.40,34.53,187366
3-Oct-16,35.03,35.74,34.84,35.43,341570
30-Sep-16,34.68,35.39,34.38,35.20,373626
29-Sep-16,35.20,35.33,34.33,34.52,317400
28-Sep-16,34.05,35.14,33.75,35.12,420720
27-Sep-16,33.62,34.06,33.57,33.89,273321
26-Sep-16,34.40,34.83,33.65,33.82,370217
23-Sep-16,33.56,33.82,33.27,33.65,339850
22-Sep-16,33.17,33.72,33.10,33.65,289016
21-Sep-16,32.78,32.91,32.23,32.86,299543
20-Sep-16,33.47,34.54,32.53,32.58,353996
19-Sep-16,33.30,33.71,32.71,33.24,360352
16-Sep-16,33.78,33.88,33.02,33.05,526608
15-Sep-16,33.56,34.19,33.31,33.86,215693
14-Sep-16,34.15,34.15,33.37,33.59,313335
13-Sep-16,34.53,34.60,33.56,34.12,393167
12-Sep-16,34.72,35.20,34.63,35.02,396918
9-Sep-16,36.01,36.56,34.97,34.97,453804
8-Sep-16,36.56,36.78,36.26,36.49,366056
7-Sep-16,36.73,36.73,36.23,36.62,422787
6-Sep-16,37.34,37.60,36.62,36.68,292274
2-Sep-16,37.24,37.89,37.14,37.23,295704
1-Sep-16,37.47,37.47,36.31,37.05,309695
31-Aug-16,37.26,37.53,36.80,37.34,525463
30-Aug-16,37.63,37.78,36.87,37.27,212779
29-Aug-16,37.47,38.22,37.33,37.66,757311
26-Aug-16,37.13,37.93,36.81,37.31,334621
25-Aug-16,37.03,37.90,36.80,37.04,492849
24-Aug-16,38.58,39.00,35.08,36.95,714707
23-Aug-16,37.05,37.44,35.90,36.93,610409
22-Aug-16,36.67,37.08,36.36,36.99,298126
19-Aug-16,35.46,37.03,34.40,36.82,509195
18-Aug-16,35.02,35.67,34.90,35.62,206924
17-Aug-16,34.73,35.09,34.49,35.07,174485
16-Aug-16,34.76,35.19,34.56,34.81,159190
15-Aug-16,34.16,35.14,34.16,34.89,219405
12-Aug-16,33.90,34.16,33.55,34.09,208475
11-Aug-16,32.48,33.91,32.39,33.86,214252
10-Aug-16,32.85,32.93,32.03,32.34,118167
9-Aug-16,32.54,32.97,32.34,32.84,154426
8-Aug-16,32.42,32.78,32.42,32.57,114524
5-Aug-16,31.97,32.70,31.90,32.41,187381
4-Aug-16,32.15,32.64,31.70,31.73,111452
3-Aug-16,31.23,32.19,31.05,32.17,289400
2-Aug-16,32.05,32.25,30.97,31.23,157604
1-Aug-16,32.28,32.58,31.78,32.08,232062
29-Jul-16,32.48,32.67,32.06,32.30,213947
28-Jul-16,33.23,33.23,32.25,32.65,228159
27-Jul-16,32.82,33.35,32.69,33.28,210052
26-Jul-16,31.85,32.99,31.85,32.65,213139
25-Jul-16,32.65,32.70,31.77,31.90,264009
22-Jul-16,33.30,33.30,32.56,32.76,221984
21-Jul-16,33.78,34.09,33.24,33.30,225128
20-Jul-16,33.35,34.02,33.02,33.74,205989
19-Jul-16,33.31,34.06,33.18,33.36,245332
18-Jul-16,33.48,33.88,33.18,33.51,250290
15-Jul-16,33.73,34.03,33.36,33.54,241668
14-Jul-16,33.88,33.98,33.50,33.50,152628
13-Jul-16,34.08,34.09,33.32,33.46,277212
12-Jul-16,33.80,34.13,33.47,33.83,271573
11-Jul-16,33.30,33.78,32.88,33.45,267094
8-Jul-16,32.00,33.24,31.79,33.21,295847
7-Jul-16,31.26,32.14,31.26,31.70,283565
6-Jul-16,30.77,31.35,30.63,31.30,266324
5-Jul-16,31.49,31.74,30.81,30.96,247209
1-Jul-16,31.01,32.23,31.01,31.77,292006
30-Jun-16,30.78,31.59,30.26,31.00,475344
29-Jun-16,30.13,30.78,29.72,30.66,375436
28-Jun-16,29.99,29.99,29.28,29.78,424244
27-Jun-16,30.84,31.16,29.41,29.60,402868
24-Jun-16,32.90,32.93,31.15,31.16,492197
23-Jun-16,33.34,33.79,33.00,33.78,244281
22-Jun-16,32.73,33.30,32.72,33.05,382371
21-Jun-16,32.75,32.85,32.13,32.55,273619
20-Jun-16,33.36,33.36,32.60,32.86,360102
17-Jun-16,31.79,33.38,31.79,32.90,903331
16-Jun-16,31.80,32.13,30.98,31.59,326457
15-Jun-16,32.27,32.72,32.02,32.08,312418
14-Jun-16,32.78,33.33,31.75,32.04,411426
13-Jun-16,33.24,33.67,32.84,32.87,294801
10-Jun-16,34.50,34.63,33.30,33.40,491608
9-Jun-16,34.82,35.08,34.48,34.92,300263
8-Jun-16,34.77,35.14,34.40,35.02,419195
7-Jun-16,34.36,35.00,34.23,34.62,628259
6-Jun-16,32.98,34.34,32.90,34.30,722905
3-Jun-16,33.02,33.19,32.01,32.93,394260
2-Jun-16,32.66,33.03,32.37,33.03,260630
1-Jun-16,32.95,33.02,32.02,32.88,357992
31-May-16,32.99,33.11,32.64,32.89,473019
27-May-16,33.27,33.48,32.00,32.98,350172
26-May-16,33.89,33.89,32.87,33.35,800437
25-May-16,31.57,33.03,31.32,33.03,665235
24-May-16,30.28,31.39,30.00,31.38,1130967
23-May-16,33.26,33.73,28.65,30.01,4589867
20-May-16,33.61,35.25,33.26,34.99,894093
19-May-16,33.02,34.00,33.02,33.45,1201240
18-May-16,32.75,33.80,32.53,33.00,628864
17-May-16,31.79,33.34,31.56,32.72,676867
16-May-16,31.50,32.17,31.50,31.74,396371
13-May-16,31.91,32.33,31.33,31.36,186375
12-May-16,32.22,32.43,31.38,32.00,233585
11-May-16,32.64,32.83,32.04,32.09,221945
10-May-16,31.87,33.08,31.87,32.72,214281
9-May-16,32.21,32.21,31.56,31.77,227365
6-May-16,31.88,32.59,31.82,32.42,226659
5-May-16,32.52,32.70,31.90,32.00,302461
4-May-16,32.78,33.18,32.18,32.34,275128
3-May-16,33.50,33.92,32.63,32.89,177030
2-May-16,33.81,34.05,33.14,33.95,259376
29-Apr-16,33.25,34.03,33.08,33.72,253247
28-Apr-16,33.91,33.91,33.15,33.23,261406
27-Apr-16,33.85,34.29,33.46,33.95,240432
26-Apr-16,33.13,33.91,32.99,33.85,184364
25-Apr-16,33.72,33.83,32.83,33.09,197112
22-Apr-16,33.73,34.10,33.71,33.89,272137
21-Apr-16,33.76,34.02,33.59,33.78,261299
20-Apr-16,33.40,34.05,33.20,33.75,208139
19-Apr-16,33.01,33.49,33.01,33.41,171841
18-Apr-16,32.63,33.11,32.14,32.90,227919
15-Apr-16,32.67,33.04,32.67,32.84,167853
14-Apr-16,32.80,32.96,32.59,32.85,172292
13-Apr-16,31.99,32.83,31.78,32.81,264250
12-Apr-16,31.77,31.90,30.96,31.78,289786
11-Apr-16,31.85,32.07,31.36,31.65,266779
8-Apr-16,31.90,32.38,31.52,31.84,331903
7-Apr-16,31.69,32.12,30.42,31.57,282715
6-Apr-16,31.66,32.00,31.44,31.99,330075
5-Apr-16,31.74,32.29,31.57,31.70,443705
4-Apr-16,32.39,32.46,31.99,32.09,243922
1-Apr-16,31.95,32.39,31.68,32.36,578952
31-Mar-16,32.62,32.84,32.11,32.14,268600
30-Mar-16,32.57,32.91,32.38,32.55,268668
29-Mar-16,31.61,32.58,30.90,32.45,400467
28-Mar-16,31.94,32.02,31.41,31.78,180756
24-Mar-16,31.29,31.89,30.93,31.88,155996
23-Mar-16,32.68,33.01,31.31,31.60,203656
22-Mar-16,32.54,33.39,32.37,32.86,254648
21-Mar-16,32.46,33.14,32.38,32.77,329840
18-Mar-16,32.02,32.64,31.44,32.59,711982
17-Mar-16,30.55,31.98,29.84,31.89,395269
16-Mar-16,29.30,30.44,28.94,30.21,454165
15-Mar-16,29.29,29.67,28.84,29.41,237496
14-Mar-16,29.38,29.64,29.12,29.50,208678
11-Mar-16,28.62,29.44,28.26,29.44,237246
10-Mar-16,29.31,29.31,28.13,28.51,386773
9-Mar-16,28.92,29.39,28.69,29.29,384781
8-Mar-16,30.39,30.61,28.50,28.74,744058
7-Mar-16,30.37,30.94,30.26,30.88,665763
4-Mar-16,30.14,30.65,30.04,30.51,608314
3-Mar-16,29.35,30.41,29.24,29.97,461967
2-Mar-16,28.08,29.50,26.19,29.36,581645
1-Mar-16,28.18,28.24,27.39,28.16,546290
29-Feb-16,27.81,28.59,27.81,27.99,433058
26-Feb-16,27.98,28.56,27.28,27.74,411961
25-Feb-16,28.08,28.94,27.80,27.82,324980
24-Feb-16,27.69,28.16,26.72,28.10,246137
23-Feb-16,27.71,28.82,27.71,28.03,387304
22-Feb-16,27.50,28.78,27.36,27.88,765575
19-Feb-16,27.74,27.74,26.68,27.13,266811
18-Feb-16,28.72,29.47,27.64,27.87,451161
17-Feb-16,27.89,29.26,27.85,28.91,560485
16-Feb-16,27.26,27.78,26.44,27.66,300514
12-Feb-16,26.71,27.50,26.31,26.99,160807
11-Feb-16,26.56,27.07,25.33,26.37,241423
10-Feb-16,27.55,28.07,26.88,27.09,331754
9-Feb-16,27.35,27.88,26.97,27.45,244577
8-Feb-16,28.00,28.38,27.41,27.73,260174
5-Feb-16,28.95,29.21,28.27,28.28,247016
4-Feb-16,27.86,29.85,27.82,29.11,308274
3-Feb-16,27.38,28.09,26.79,27.81,276232
2-Feb-16,28.24,28.50,27.06,27.11,314638
1-Feb-16,28.95,29.25,28.29,28.49,302980
29-Jan-16,28.27,29.31,28.27,29.23,628483
28-Jan-16,26.62,28.69,25.78,28.27,443122
27-Jan-16,28.52,28.88,27.92,28.40,438875
26-Jan-16,27.74,29.01,27.72,28.62,319938
25-Jan-16,27.85,28.06,27.52,27.65,321026
22-Jan-16,28.05,28.76,27.54,28.04,305855
21-Jan-16,27.14,28.15,26.59,27.69,489136
20-Jan-16,25.90,27.45,25.50,27.15,407710
19-Jan-16,27.60,27.75,26.23,26.27,537476
15-Jan-16,27.75,28.00,26.91,27.27,489030
14-Jan-16,27.95,28.61,27.46,28.49,334752
13-Jan-16,28.27,28.49,27.49,27.81,475358
12-Jan-16,28.80,28.96,27.72,28.13,542863
11-Jan-16,27.93,28.80,27.84,28.60,467737
8-Jan-16,28.91,29.18,27.66,27.66,513712
7-Jan-16,29.26,29.46,28.71,28.76,340966
6-Jan-16,29.86,29.86,29.20,29.30,376017
5-Jan-16,30.40,30.87,29.97,30.25,302696
4-Jan-16,30.48,30.67,30.00,30.42,577366
31-Dec-15,30.85,31.07,30.33,30.79,419697
30-Dec-15,31.33,31.64,30.88,30.90,258091
29-Dec-15,31.18,31.47,30.92,31.36,325837
28-Dec-15,32.00,32.00,30.62,30.95,356109
24-Dec-15,32.10,32.40,31.97,32.18,143523
23-Dec-15,30.92,32.07,30.51,32.04,610362
22-Dec-15,31.04,31.62,30.33,30.82,487182
21-Dec-15,31.06,31.64,30.79,31.07,385291
18-Dec-15,31.49,31.60,30.85,30.98,840253
17-Dec-15,31.94,31.94,31.28,31.49,1028255
16-Dec-15,30.82,31.95,30.82,31.76,590515
15-Dec-15,31.62,31.89,30.97,31.07,549141
14-Dec-15,32.53,32.69,31.40,31.57,376939
11-Dec-15,32.30,32.80,32.27,32.48,561819
10-Dec-15,31.36,32.83,31.34,32.79,583798
9-Dec-15,32.46,32.69,31.17,31.27,649909
8-Dec-15,32.60,32.96,32.27,32.55,402189
7-Dec-15,33.04,33.21,32.76,33.01,424049
4-Dec-15,33.17,33.50,32.84,32.98,655048
3-Dec-15,33.70,34.03,33.00,33.12,1132061
2-Dec-15,33.98,34.18,33.00,33.07,588286
1-Dec-15,30.17,32.95,30.17,32.89,1019793
30-Nov-15,31.88,32.50,31.81,32.10,681079
27-Nov-15,31.94,31.99,31.72,31.90,197974
25-Nov-15,32.04,32.04,31.76,31.99,392038
24-Nov-15,31.71,32.16,31.55,31.97,643534
23-Nov-15,30.57,31.80,30.50,31.76,641828
20-Nov-15,30.35,30.90,29.87,30.78,533657
19-Nov-15,30.27,30.60,28.40,30.23,485048
18-Nov-15,29.01,31.00,28.35,30.53,1245055
17-Nov-15,31.01,31.78,30.81,31.25,638288
16-Nov-15,31.05,31.29,30.68,31.20,760756
13-Nov-15,32.10,32.11,30.59,31.28,1349481
12-Nov-15,37.86,38.44,31.36,32.11,5733395
11-Nov-15,39.96,40.22,38.95,39.00,180729
10-Nov-15,40.32,40.59,39.64,39.84,208899
9-Nov-15,40.38,40.61,40.07,40.35,214907
6-Nov-15,40.30,40.70,39.96,40.53,339405
5-Nov-15,40.52,40.71,40.19,40.60,267799
4-Nov-15,40.64,41.00,40.42,40.47,291385
3-Nov-15,40.20,40.97,39.91,40.62,394947
2-Nov-15,39.04,40.34,39.04,40.16,258237
30-Oct-15,38.84,39.25,38.75,39.11,270849
29-Oct-15,37.86,38.98,37.73,38.75,175795
28-Oct-15,37.18,38.24,36.81,38.01,421176
27-Oct-15,37.04,37.22,36.81,37.10,378714
26-Oct-15,37.45,37.81,37.27,37.31,340758
23-Oct-15,38.69,38.73,36.57,37.45,1037296
22-Oct-15,38.90,39.58,38.79,39.27,328222
21-Oct-15,39.06,39.21,38.61,38.79,336769
20-Oct-15,38.08,39.11,37.99,39.00,235941
19-Oct-15,38.25,38.36,37.99,38.12,232123
16-Oct-15,39.04,39.21,38.25,38.54,196177
15-Oct-15,38.64,39.05,38.35,39.04,160227
14-Oct-15,39.05,39.36,38.40,38.54,199755
13-Oct-15,39.10,39.57,38.95,38.96,220286
12-Oct-15,40.00,40.00,39.28,39.39,212418
9-Oct-15,39.52,39.91,39.37,39.85,229435
8-Oct-15,38.54,39.50,38.17,39.46,389298
7-Oct-15,36.73,38.33,36.73,38.01,658133
6-Oct-15,35.78,36.70,35.78,36.57,359690
5-Oct-15,35.42,35.86,35.35,35.81,426473
2-Oct-15,34.95,35.26,34.58,35.26,368812
1-Oct-15,35.66,35.82,34.64,35.01,699121
30-Sep-15,35.93,35.94,35.55,35.74,491751
29-Sep-15,35.61,35.90,35.32,35.68,343124
28-Sep-15,35.92,36.04,35.70,35.70,293059
25-Sep-15,36.77,36.77,35.94,36.02,366766
24-Sep-15,36.80,36.80,36.13,36.50,369273
23-Sep-15,37.36,37.37,36.41,36.99,374235
22-Sep-15,37.70,37.94,36.66,37.39,490048
21-Sep-15,38.16,38.32,37.83,38.00,364607
18-Sep-15,37.95,38.14,37.90,38.04,585990
17-Sep-15,38.39,38.61,38.14,38.35,338631
16-Sep-15,38.20,38.54,38.14,38.33,197357
15-Sep-15,38.40,38.41,37.96,38.18,355824
14-Sep-15,38.33,38.49,37.84,38.40,435279
11-Sep-15,38.50,38.89,37.84,38.30,465089
10-Sep-15,38.59,39.19,38.58,38.73,253030
9-Sep-15,39.20,39.63,38.54,38.58,379413
8-Sep-15,38.57,39.10,38.24,38.93,724243
4-Sep-15,38.47,38.49,37.90,38.15,341780
3-Sep-15,38.64,39.20,38.51,38.73,255732
2-Sep-15,38.36,38.70,37.96,38.65,319732
1-Sep-15,38.51,38.80,37.87,38.05,512418
31-Aug-15,39.02,39.52,38.84,39.10,752163
28-Aug-15,38.94,39.56,38.77,39.14,694622
27-Aug-15,38.89,39.54,38.50,39.18,692921
26-Aug-15,38.84,38.96,37.37,38.64,912538
25-Aug-15,37.00,40.10,34.72,38.38,1304905
24-Aug-15,34.78,37.15,34.19,35.95,779724
21-Aug-15,37.03,37.44,36.73,36.91,828831
20-Aug-15,38.00,38.23,37.36,37.46,1103036
19-Aug-15,38.51,38.60,38.03,38.10,523109
18-Aug-15,39.31,39.38,38.45,38.60,420746
17-Aug-15,39.70,40.11,39.17,39.56,877838
14-Aug-15,38.66,39.09,38.63,38.92,268085
13-Aug-15,38.85,39.08,38.72,38.86,397477
12-Aug-15,38.30,38.92,38.12,38.82,273998
11-Aug-15,38.17,38.61,38.06,38.51,390863
10-Aug-15,38.49,39.30,38.31,38.78,653268
7-Aug-15,38.98,39.28,37.92,38.24,674773
6-Aug-15,39.38,39.59,38.94,39.17,369886
5-Aug-15,39.27,40.09,39.26,39.33,355740
4-Aug-15,39.46,39.77,39.20,39.30,311795
3-Aug-15,39.28,39.61,39.02,39.38,461841
31-Jul-15,39.36,39.66,39.10,39.28,416052
30-Jul-15,39.75,39.83,39.03,39.22,771867
29-Jul-15,39.37,39.87,39.34,39.72,700114
28-Jul-15,39.29,39.70,38.95,39.42,640076
27-Jul-15,39.22,39.58,38.60,39.18,710057
24-Jul-15,39.56,39.89,39.38,39.40,569077
23-Jul-15,40.47,40.60,39.69,39.72,414839
22-Jul-15,41.39,41.39,40.39,40.52,572583
21-Jul-15,42.67,42.72,41.25,41.42,354772
20-Jul-15,42.83,43.06,42.63,42.82,206476
17-Jul-15,43.10,43.10,42.33,42.91,295877
16-Jul-15,43.28,43.52,43.00,43.19,306686
15-Jul-15,43.31,43.45,42.90,43.16,376512
14-Jul-15,42.61,43.54,42.42,43.45,461457
13-Jul-15,42.08,42.63,42.00,42.48,261386
10-Jul-15,41.52,42.09,41.29,42.01,348954
9-Jul-15,41.59,41.70,40.93,41.32,420412
8-Jul-15,42.00,42.14,40.50,41.24,707706
7-Jul-15,42.96,43.00,41.93,42.25,448556
6-Jul-15,43.47,43.68,42.96,43.11,450144
2-Jul-15,44.10,44.14,43.57,43.78,390913
1-Jul-15,44.25,44.84,43.62,44.00,517090
30-Jun-15,44.06,44.28,43.89,44.13,415338
29-Jun-15,44.59,44.80,43.96,44.00,435387
26-Jun-15,44.37,44.99,44.34,44.86,5824165
25-Jun-15,44.33,44.52,43.92,43.98,243525
24-Jun-15,44.61,44.61,44.05,44.12,356741
23-Jun-15,44.18,44.66,43.90,44.53,449875
22-Jun-15,43.99,44.21,43.58,44.07,450423
19-Jun-15,44.10,44.39,43.59,43.66,507437
18-Jun-15,44.04,44.32,43.68,44.09,208345
17-Jun-15,44.45,44.68,43.55,43.89,230512
16-Jun-15,44.74,45.05,44.26,44.41,467363
15-Jun-15,44.86,45.04,44.02,44.88,422463
12-Jun-15,44.46,44.94,44.24,44.80,358298
11-Jun-15,44.46,44.66,43.90,44.36,329968
10-Jun-15,43.30,44.49,43.25,44.41,369904
9-Jun-15,42.83,43.15,42.66,43.13,208560
8-Jun-15,42.38,43.01,42.12,42.66,328589
5-Jun-15,42.62,42.99,41.45,42.37,854864
4-Jun-15,43.80,44.70,42.49,42.63,695653
3-Jun-15,43.92,44.84,43.92,44.70,686679
2-Jun-15,43.96,44.20,43.79,43.97,182379
1-Jun-15,44.05,44.05,43.44,43.96,325515
29-May-15,43.25,44.11,43.05,43.84,371782
28-May-15,43.76,43.80,42.67,43.25,404362
27-May-15,44.60,44.72,43.50,43.80,367498
26-May-15,44.39,44.55,44.03,44.40,266585
22-May-15,44.67,45.10,44.12,44.39,280475
21-May-15,44.70,44.91,44.13,44.60,415490
20-May-15,45.36,46.16,44.50,44.70,1049056
19-May-15,44.85,45.00,44.50,44.70,689175
18-May-15,45.15,45.40,44.64,44.65,458652
15-May-15,44.61,44.75,44.07,44.50,474062
14-May-15,44.48,44.76,44.16,44.43,232681
13-May-15,44.49,44.49,43.77,44.23,342380
12-May-15,43.44,44.05,42.75,43.94,431977
11-May-15,44.29,44.29,42.86,42.91,695282
8-May-15,41.88,42.37,41.23,41.90,260316
7-May-15,41.29,41.80,41.05,41.56,199264
6-May-15,41.58,41.58,41.05,41.29,523026
5-May-15,41.62,42.18,41.19,41.40,370318
4-May-15,41.67,41.96,41.54,41.69,262312
1-May-15,42.16,42.26,41.37,41.71,415037
30-Apr-15,41.08,42.02,41.08,41.91,867820
29-Apr-15,40.75,41.37,40.69,41.24,387573
28-Apr-15,40.14,41.04,39.77,40.96,276957
27-Apr-15,41.68,41.85,40.10,40.18,574758
24-Apr-15,42.50,42.63,41.41,41.75,520649
23-Apr-15,41.56,42.52,41.42,42.37,643442
22-Apr-15,41.87,42.00,41.48,41.67,408819
21-Apr-15,42.27,42.60,41.70,41.78,273814
20-Apr-15,42.66,43.00,42.05,42.31,657248
17-Apr-15,43.27,43.27,42.50,42.58,396818
16-Apr-15,42.94,43.58,42.27,43.48,879167
15-Apr-15,41.38,43.35,41.10,43.14,1085455
14-Apr-15,40.45,41.40,40.32,41.12,478783
13-Apr-15,40.00,40.80,40.00,40.60,568764
10-Apr-15,39.98,40.18,39.61,39.81,408318
9-Apr-15,39.71,40.00,39.22,39.80,490507
8-Apr-15,40.19,40.45,39.52,39.74,805556
7-Apr-15,40.49,41.14,40.02,40.29,642488
6-Apr-15,39.28,40.29,39.28,40.03,572444
2-Apr-15,38.15,39.88,38.15,39.44,408954
1-Apr-15,38.64,39.79,38.38,39.52,430539
31-Mar-15,38.11,38.80,38.11,38.54,1093267
30-Mar-15,38.81,38.92,38.09,38.46,522782
27-Mar-15,38.55,39.99,38.50,38.79,295708
26-Mar-15,38.98,39.41,38.50,38.67,278799
25-Mar-15,39.69,39.75,38.95,39.05,305802
24-Mar-15,39.85,39.97,39.51,39.65,358342
23-Mar-15,39.79,39.92,39.45,39.85,291859
20-Mar-15,39.85,40.26,39.19,39.79,1482010
19-Mar-15,40.02,40.48,39.55,39.69,324142
18-Mar-15,39.11,40.35,38.91,40.12,500537
17-Mar-15,39.27,40.23,39.14,39.51,639891
16-Mar-15,39.93,40.28,39.30,39.63,506989
13-Mar-15,40.17,40.29,39.50,39.77,344693
12-Mar-15,41.15,41.27,40.01,40.11,535239
11-Mar-15,39.97,41.15,39.81,40.99,533136
10-Mar-15,40.50,40.50,39.87,39.99,502220
9-Mar-15,40.94,41.22,40.71,40.89,406878
6-Mar-15,40.78,41.34,40.54,41.01,595350
5-Mar-15,40.92,41.11,40.40,40.93,756046
4-Mar-15,40.70,41.18,40.28,40.92,400518
3-Mar-15,40.33,40.99,40.28,40.92,556105
2-Mar-15,39.94,40.90,39.84,40.50,465620
27-Feb-15,40.32,40.53,39.81,39.94,487121
26-Feb-15,41.05,41.23,40.49,40.53,1024193
25-Feb-15,39.52,41.24,39.52,41.15,829775
24-Feb-15,40.13,40.88,39.97,40.37,999002
23-Feb-15,38.96,40.99,37.73,40.24,1790632
20-Feb-15,39.11,39.49,38.85,39.28,917456
19-Feb-15,38.83,39.46,38.51,39.09,1477422
18-Feb-15,38.88,39.48,38.73,39.20,797256
17-Feb-15,38.65,39.74,38.42,39.08,535876
13-Feb-15,38.16,38.59,37.93,38.49,1052547
12-Feb-15,39.23,39.27,38.20,38.55,885885
11-Feb-15,38.50,38.72,38.03,38.42,630914
10-Feb-15,38.86,39.14,38.27,38.50,1448976
9-Feb-15,38.95,39.45,38.67,38.96,1051915
6-Feb-15,38.47,39.13,37.10,38.98,2221133
5-Feb-15,39.83,40.33,38.19,38.62,1758997
4-Feb-15,40.35,41.62,39.61,39.82,774718
3-Feb-15,39.84,40.94,39.45,40.70,1581402
2-Feb-15,39.59,40.61,39.35,39.70,689004
30-Jan-15,39.30,40.19,38.49,39.31,740448
29-Jan-15,38.93,39.70,38.51,39.61,835442
28-Jan-15,38.25,39.49,38.08,39.00,1061877
27-Jan-15,38.42,38.61,37.93,38.35,733602
26-Jan-15,38.16,39.00,37.84,38.87,563175
23-Jan-15,38.86,38.94,37.89,38.26,844709
22-Jan-15,38.10,39.00,37.84,38.86,1026246
21-Jan-15,37.36,38.77,37.11,38.04,1164338
20-Jan-15,38.29,38.55,37.15,37.34,1444124
16-Jan-15,38.93,39.05,37.58,38.27,2147607
15-Jan-15,39.74,40.45,38.61,39.08,776722
14-Jan-15,38.79,39.14,38.03,38.89,1246151
13-Jan-15,40.45,41.05,38.88,39.20,1396952
12-Jan-15,41.16,41.49,40.24,40.42,767436
9-Jan-15,41.28,41.71,39.92,41.29,1366435
8-Jan-15,41.30,41.98,40.89,41.65,1826369
7-Jan-15,40.80,41.50,39.75,40.46,1649664
6-Jan-15,40.50,41.43,40.09,40.81,901637
5-Jan-15,40.00,40.84,39.76,40.63,1076739
2-Jan-15,41.32,41.50,39.53,40.22,1381140
31-Dec-14,41.56,42.17,40.77,41.25,673769
30-Dec-14,40.73,41.49,40.00,41.44,1313777
29-Dec-14,40.44,40.99,40.11,40.80,1340308
26-Dec-14,40.25,41.49,39.51,40.78,1315874
24-Dec-14,41.15,41.95,40.90,41.11,739258
23-Dec-14,41.66,42.99,41.00,41.78,1651619
22-Dec-14,42.96,43.36,41.81,42.26,1178837
19-Dec-14,43.06,43.50,41.60,42.74,2060622
18-Dec-14,41.56,43.84,41.56,42.69,1817232
17-Dec-14,41.00,42.93,38.95,42.45,3270912
16-Dec-14,43.34,43.34,40.57,41.06,1430776
15-Dec-14,44.65,44.65,42.00,42.69,173787
12-Dec-14,42.95,45.22,39.96,42.80,651370
11-Dec-14,44.19,44.60,42.17,43.00,457891
10-Dec-14,45.65,46.18,43.38,43.60,715268
9-Dec-14,45.96,46.46,45.12,45.64,115554
8-Dec-14,46.50,46.50,45.50,45.52,1240088
5-Dec-14,46.15,46.29,45.11,46.04,288814
4-Dec-14,47.00,47.25,46.00,46.26,1607296
3-Dec-14,47.00,50.00,45.00,47.04,2961299
