﻿Date,Open,High,Low,Close,Volume
20-Jun-17,26.42,26.61,25.61,25.93,817799
19-Jun-17,25.25,26.74,25.22,26.45,1303706
16-Jun-17,24.76,25.03,24.55,24.92,1027290
15-Jun-17,25.10,25.20,24.69,24.94,830645
14-Jun-17,25.93,25.98,25.18,25.30,1435244
13-Jun-17,26.19,26.40,25.88,25.91,1107554
12-Jun-17,26.40,26.52,25.76,26.06,1200575
9-Jun-17,26.96,27.58,26.14,26.55,1442059
8-Jun-17,26.68,27.70,26.52,26.83,713359
7-Jun-17,27.30,27.46,26.67,26.71,970045
6-Jun-17,27.78,28.04,27.27,27.32,989889
5-Jun-17,28.24,28.55,27.39,27.93,1172551
2-Jun-17,29.70,30.18,27.77,28.28,1806690
1-Jun-17,28.99,29.43,28.64,29.09,800147
31-May-17,29.58,29.58,28.61,28.98,932854
30-May-17,29.80,29.97,29.23,29.52,718127
26-May-17,29.93,29.99,29.38,29.90,796422
25-May-17,30.18,30.50,29.62,29.88,1124377
24-May-17,29.95,30.00,29.52,29.85,884335
23-May-17,30.34,30.50,29.72,29.98,1155946
22-May-17,29.62,30.65,29.31,30.14,2299793
19-May-17,27.64,29.77,27.30,29.13,4013257
18-May-17,25.31,26.43,25.12,26.21,1076237
17-May-17,25.99,26.60,25.44,25.56,1343889
16-May-17,25.59,26.90,25.57,26.70,1743676
15-May-17,25.13,25.49,24.98,25.43,830411
12-May-17,25.32,25.50,24.73,25.18,838211
11-May-17,24.60,25.37,23.83,25.31,2248403
10-May-17,22.80,24.84,22.63,24.78,3204258
9-May-17,21.94,22.12,21.52,21.69,834111
8-May-17,21.88,22.37,21.84,21.96,822536
5-May-17,21.35,21.92,21.02,21.89,1465818
4-May-17,21.38,21.45,20.67,21.33,1531256
3-May-17,21.21,21.94,20.82,21.22,2508809
2-May-17,22.50,22.50,19.46,21.05,6930322
1-May-17,24.59,24.90,24.05,24.41,1565297
28-Apr-17,24.39,24.75,23.85,24.55,1312438
27-Apr-17,24.05,24.58,23.83,24.36,1217504
26-Apr-17,22.95,24.84,22.83,24.25,2215781
25-Apr-17,22.77,23.30,22.17,22.97,1339866
24-Apr-17,23.31,23.48,22.54,22.66,794279
21-Apr-17,23.17,23.36,22.85,23.05,834213
20-Apr-17,22.91,23.41,22.74,23.14,962385
19-Apr-17,22.96,23.18,22.75,22.79,909244
18-Apr-17,21.93,23.17,21.85,22.84,1599816
17-Apr-17,21.56,22.00,21.40,21.95,679376
13-Apr-17,21.87,21.98,21.10,21.56,1134420
12-Apr-17,22.19,22.28,21.73,21.96,910408
11-Apr-17,22.15,22.40,22.02,22.37,1044250
10-Apr-17,22.67,23.12,21.83,22.22,1499744
7-Apr-17,22.84,22.94,22.58,22.70,815924
6-Apr-17,22.71,23.19,22.46,22.84,1255133
5-Apr-17,23.19,23.65,22.33,22.60,1946486
4-Apr-17,22.43,23.76,22.06,23.19,2997554
3-Apr-17,21.01,22.73,21.01,22.46,3537632
31-Mar-17,19.79,21.06,19.73,20.99,1755770
30-Mar-17,19.57,19.82,19.38,19.75,536053
29-Mar-17,18.68,19.93,18.67,19.66,939840
28-Mar-17,18.57,18.69,18.37,18.62,357761
27-Mar-17,18.34,18.60,18.26,18.58,478465
24-Mar-17,18.82,18.97,18.52,18.60,396839
23-Mar-17,18.59,19.04,18.49,18.78,497644
22-Mar-17,18.60,18.93,18.39,18.63,633570
21-Mar-17,19.23,19.25,18.53,18.68,772285
20-Mar-17,19.20,19.26,18.95,19.16,538676
17-Mar-17,19.15,19.36,18.92,19.29,1189670
16-Mar-17,18.49,19.17,18.33,19.07,1012749
15-Mar-17,18.00,18.58,17.93,18.51,934828
14-Mar-17,17.91,17.95,17.35,17.95,608235
13-Mar-17,17.82,18.02,17.58,17.93,456363
10-Mar-17,17.86,17.90,17.58,17.84,487109
9-Mar-17,17.72,17.83,17.41,17.69,594297
8-Mar-17,17.91,18.05,17.77,17.80,544793
7-Mar-17,17.97,18.01,17.73,17.84,468165
6-Mar-17,18.00,18.45,17.75,18.00,1186301
3-Mar-17,18.40,18.55,17.94,18.19,528111
2-Mar-17,18.40,18.71,18.34,18.40,698285
1-Mar-17,18.06,18.64,17.93,18.46,1389757
28-Feb-17,18.10,18.20,17.67,17.73,754723
27-Feb-17,17.60,18.23,17.40,18.19,875945
24-Feb-17,17.80,17.90,17.34,17.39,1303548
23-Feb-17,18.23,18.35,17.86,17.91,1477775
22-Feb-17,18.19,18.35,17.72,18.19,2662805
21-Feb-17,16.88,18.90,16.45,17.98,6049005
17-Feb-17,15.64,15.70,15.25,15.36,948288
16-Feb-17,15.91,15.97,15.40,15.66,844809
15-Feb-17,15.90,16.02,15.74,15.89,597170
14-Feb-17,15.90,16.10,15.80,15.94,444069
13-Feb-17,16.41,16.43,16.01,16.03,353564
10-Feb-17,16.18,16.37,16.05,16.29,395258
9-Feb-17,15.81,16.20,15.70,16.09,456556
8-Feb-17,15.62,15.86,15.47,15.73,368406
7-Feb-17,15.74,15.96,15.60,15.66,246930
6-Feb-17,15.75,16.05,15.68,15.77,600157
3-Feb-17,15.48,15.80,15.38,15.79,382615
2-Feb-17,15.64,15.69,15.41,15.42,328079
1-Feb-17,15.64,15.73,15.53,15.58,373724
31-Jan-17,15.50,15.71,15.35,15.66,409265
30-Jan-17,15.52,15.72,15.26,15.56,443045
27-Jan-17,15.61,15.61,15.38,15.57,354366
26-Jan-17,15.71,15.88,15.48,15.65,405989
25-Jan-17,15.90,16.17,15.66,15.72,542266
24-Jan-17,15.44,15.82,15.40,15.80,489716
23-Jan-17,15.33,15.52,15.14,15.39,403179
20-Jan-17,15.17,15.32,15.00,15.29,518593
19-Jan-17,15.57,15.70,15.13,15.18,404009
18-Jan-17,15.56,15.63,15.25,15.57,480378
17-Jan-17,15.73,15.98,15.44,15.56,416218
13-Jan-17,15.53,16.00,15.53,15.72,557806
12-Jan-17,15.32,15.49,14.99,15.47,475157
11-Jan-17,15.42,15.46,15.15,15.33,446673
10-Jan-17,15.35,15.62,15.34,15.46,389025
9-Jan-17,15.62,15.70,15.28,15.35,426892
6-Jan-17,15.76,15.86,15.49,15.65,391720
5-Jan-17,15.75,15.93,15.48,15.76,513550
4-Jan-17,15.62,15.95,15.57,15.91,555831
3-Jan-17,15.91,16.03,15.42,15.53,689475
30-Dec-16,16.00,16.10,15.63,15.74,770368
29-Dec-16,16.16,16.45,15.86,16.03,673589
28-Dec-16,16.53,16.57,16.02,16.12,671219
27-Dec-16,16.50,16.68,16.22,16.53,588615
23-Dec-16,16.56,16.69,16.34,16.50,368441
22-Dec-16,17.05,17.34,16.39,16.44,813062
21-Dec-16,16.93,17.24,16.61,17.03,817442
20-Dec-16,16.82,17.17,16.73,16.93,671727
19-Dec-16,16.52,17.00,16.51,16.79,614394
16-Dec-16,16.70,16.85,16.46,16.51,943305
15-Dec-16,16.94,17.35,16.59,16.65,618904
14-Dec-16,17.38,17.39,16.79,16.90,716717
13-Dec-16,17.58,17.82,17.19,17.40,605885
12-Dec-16,17.86,17.95,17.50,17.51,730465
9-Dec-16,18.19,18.27,17.73,18.00,809289
8-Dec-16,18.00,18.37,17.96,18.20,1283159
7-Dec-16,17.79,18.09,17.77,17.97,762102
6-Dec-16,17.67,17.95,17.46,17.77,806459
5-Dec-16,17.50,17.72,17.40,17.60,652565
2-Dec-16,17.21,17.60,17.20,17.39,495038
1-Dec-16,17.65,17.84,16.89,17.15,783662
30-Nov-16,18.00,18.20,17.58,17.65,837194
29-Nov-16,17.40,18.09,17.40,17.90,1129170
28-Nov-16,18.01,18.16,17.38,17.41,440394
25-Nov-16,18.01,18.27,17.90,18.00,261462
23-Nov-16,18.06,18.24,17.66,17.97,535631
22-Nov-16,17.18,18.57,17.18,18.27,1238036
21-Nov-16,17.10,17.20,16.56,17.02,666151
18-Nov-16,16.83,16.99,16.70,16.90,437313
17-Nov-16,16.70,16.99,16.43,16.76,439589
16-Nov-16,16.60,16.67,16.25,16.56,509018
15-Nov-16,16.81,17.17,16.52,16.63,589628
14-Nov-16,16.82,17.12,16.61,16.83,783690
11-Nov-16,15.28,16.51,15.28,16.47,927802
10-Nov-16,15.10,15.57,15.09,15.27,860526
9-Nov-16,14.28,15.16,14.02,15.10,1116394
8-Nov-16,15.16,15.24,14.36,14.78,1198914
7-Nov-16,15.63,15.74,15.11,15.22,756555
4-Nov-16,14.99,15.59,14.95,15.31,846401
3-Nov-16,15.07,15.20,14.70,15.02,828243
2-Nov-16,15.22,15.25,14.78,14.99,922799
1-Nov-16,15.34,15.65,14.80,15.18,2056811
31-Oct-16,18.45,18.55,15.03,15.51,6658792
28-Oct-16,18.10,18.80,18.03,18.48,825189
27-Oct-16,18.44,18.68,17.94,18.08,614338
26-Oct-16,18.47,18.95,18.25,18.37,576815
25-Oct-16,19.02,19.03,18.35,18.48,520574
24-Oct-16,19.47,19.53,18.80,19.03,655152
21-Oct-16,18.90,19.39,18.77,19.22,590015
20-Oct-16,18.98,19.38,18.86,19.10,610926
19-Oct-16,19.13,19.31,18.92,19.05,769309
18-Oct-16,18.98,19.35,18.60,18.97,748324
17-Oct-16,18.66,19.01,18.56,18.74,835700
14-Oct-16,18.90,19.02,18.63,18.64,467200
13-Oct-16,18.83,18.95,18.56,18.75,534283
12-Oct-16,18.92,19.44,18.80,19.11,424405
11-Oct-16,19.40,19.43,18.69,18.83,697872
10-Oct-16,19.63,19.80,19.30,19.44,400544
7-Oct-16,19.70,20.09,19.38,19.48,648475
6-Oct-16,19.47,19.71,19.11,19.62,768198
5-Oct-16,19.06,19.75,19.00,19.45,791774
4-Oct-16,19.55,20.10,18.90,18.93,1217017
3-Oct-16,19.67,19.82,19.33,19.53,488097
30-Sep-16,19.27,19.82,19.21,19.67,1062477
29-Sep-16,18.20,20.09,18.20,19.07,2148537
28-Sep-16,18.04,18.29,17.87,18.21,830808
27-Sep-16,17.75,18.05,17.59,18.01,826527
26-Sep-16,17.96,18.08,17.77,17.79,579369
23-Sep-16,18.29,18.69,17.68,17.97,1433894
22-Sep-16,17.14,18.30,17.14,18.23,2687764
21-Sep-16,15.89,17.09,15.89,17.07,2393216
20-Sep-16,15.93,15.94,15.60,15.61,341368
19-Sep-16,15.71,16.33,15.65,15.87,622857
16-Sep-16,15.67,15.87,15.53,15.68,461441
15-Sep-16,15.30,15.78,15.26,15.78,680034
14-Sep-16,15.53,15.74,15.30,15.31,563126
13-Sep-16,15.83,16.02,15.38,15.53,443997
12-Sep-16,15.68,16.07,15.49,16.01,527984
9-Sep-16,15.99,16.08,15.58,15.67,670166
8-Sep-16,15.89,16.31,15.88,16.09,575122
7-Sep-16,15.70,16.09,15.65,16.07,504539
6-Sep-16,16.00,16.00,15.62,15.74,357148
2-Sep-16,15.68,15.97,15.63,15.91,408951
1-Sep-16,15.75,15.78,15.35,15.60,560741
31-Aug-16,15.95,16.20,15.67,15.76,462963
30-Aug-16,16.09,16.25,15.85,15.98,394985
29-Aug-16,15.98,16.23,15.95,16.06,336149
26-Aug-16,16.22,16.38,15.80,15.97,582213
25-Aug-16,15.75,16.33,15.75,16.19,718726
24-Aug-16,16.25,16.41,15.80,15.84,922960
23-Aug-16,16.35,16.62,16.26,16.31,694179
22-Aug-16,16.33,16.39,16.12,16.26,555014
19-Aug-16,16.72,16.73,16.27,16.35,652463
18-Aug-16,16.78,17.08,16.58,16.81,809618
17-Aug-16,17.65,17.84,16.39,16.84,3438474
16-Aug-16,16.46,16.49,16.13,16.28,328707
15-Aug-16,16.34,16.56,16.32,16.41,503383
12-Aug-16,16.11,16.52,16.11,16.32,634163
11-Aug-16,16.00,16.35,15.93,16.23,589453
10-Aug-16,15.93,16.09,15.67,15.88,550506
9-Aug-16,15.91,16.08,15.73,15.85,694585
8-Aug-16,15.67,16.19,15.67,15.97,925894
5-Aug-16,15.46,15.83,15.32,15.61,858746
4-Aug-16,15.50,15.85,15.20,15.22,761238
3-Aug-16,15.06,15.63,14.95,15.61,945360
2-Aug-16,15.27,15.45,15.04,15.20,1027213
1-Aug-16,14.98,15.41,14.51,15.31,1697802
29-Jul-16,14.38,15.06,14.26,15.03,1465794
28-Jul-16,15.06,15.30,14.44,14.49,2210407
27-Jul-16,15.77,16.33,14.85,15.10,4213403
26-Jul-16,16.86,17.44,16.85,16.98,1266847
25-Jul-16,17.10,17.10,16.45,16.90,1262348
22-Jul-16,17.28,17.48,17.01,17.32,727851
21-Jul-16,16.98,17.45,16.93,17.32,637174
20-Jul-16,17.11,17.29,16.72,17.17,596206
19-Jul-16,17.24,17.42,16.97,17.10,465178
18-Jul-16,16.79,17.55,16.72,17.32,828362
15-Jul-16,16.93,17.13,16.69,16.75,583617
14-Jul-16,17.16,17.37,16.79,16.85,745103
13-Jul-16,17.62,17.88,16.78,17.05,955720
12-Jul-16,17.75,17.99,17.52,17.55,1579499
11-Jul-16,16.96,17.58,16.93,17.47,1121230
8-Jul-16,16.50,17.16,16.50,16.85,1012875
7-Jul-16,15.94,16.56,15.92,16.36,904446
6-Jul-16,15.22,15.89,15.15,15.81,613500
5-Jul-16,15.72,15.84,15.02,15.49,784174
1-Jul-16,15.51,16.13,15.46,15.88,1025524
30-Jun-16,15.27,15.43,14.90,15.42,1515719
29-Jun-16,14.89,15.41,14.77,15.32,851304
28-Jun-16,14.53,14.94,14.47,14.69,982226
27-Jun-16,15.36,15.50,14.13,14.29,1881835
24-Jun-16,15.09,15.81,15.00,15.71,1260296
23-Jun-16,15.44,15.86,15.42,15.78,903294
22-Jun-16,15.58,15.76,15.26,15.42,847846
21-Jun-16,16.00,16.10,15.20,15.45,1648719
20-Jun-16,16.00,16.25,15.34,15.93,2166287
17-Jun-16,14.27,16.49,14.19,15.78,7126418
16-Jun-16,13.00,13.34,12.67,13.23,684056
15-Jun-16,13.25,13.67,13.13,13.14,918148
14-Jun-16,13.29,13.46,12.90,13.16,674048
13-Jun-16,13.45,13.60,13.12,13.35,1147953
10-Jun-16,14.09,14.26,13.38,13.50,996431
9-Jun-16,14.27,14.45,14.09,14.33,696979
8-Jun-16,14.33,14.56,14.31,14.47,588834
7-Jun-16,14.00,14.59,14.00,14.29,1157211
6-Jun-16,13.30,14.09,13.27,14.08,786079
3-Jun-16,13.45,13.52,13.05,13.39,673419
2-Jun-16,12.98,13.49,12.95,13.45,904014
1-Jun-16,13.00,13.23,12.90,13.01,754434
31-May-16,12.91,13.22,12.76,13.10,824363
27-May-16,12.51,12.92,12.51,12.80,637793
26-May-16,12.58,12.95,12.50,12.53,795739
25-May-16,11.93,12.67,11.93,12.53,1081488
24-May-16,11.60,12.10,11.60,12.01,846790
23-May-16,12.00,12.10,11.84,11.90,850035
20-May-16,11.50,12.15,11.47,12.02,1136611
19-May-16,11.33,11.60,11.21,11.46,816183
18-May-16,11.56,11.64,11.28,11.35,867228
17-May-16,11.40,12.05,11.40,11.59,1473012
16-May-16,11.46,11.65,11.30,11.41,1545928
13-May-16,11.54,11.79,11.29,11.34,1258971
12-May-16,11.60,11.97,11.53,11.58,1918098
11-May-16,12.23,12.26,11.44,11.51,2592845
10-May-16,11.10,13.18,11.07,12.39,5843489
9-May-16,13.26,13.60,12.64,13.45,2096373
6-May-16,13.23,13.53,13.11,13.53,645642
5-May-16,13.90,14.06,13.34,13.36,785761
4-May-16,14.03,14.40,13.79,13.91,465690
3-May-16,14.45,14.51,13.97,14.08,837208
2-May-16,14.95,15.22,14.52,14.71,868655
29-Apr-16,15.36,15.42,14.38,14.91,1421787
28-Apr-16,16.05,16.25,15.24,15.28,1453811
27-Apr-16,15.78,16.22,15.50,16.02,1070104
26-Apr-16,14.87,15.75,14.87,15.74,1753414
25-Apr-16,15.03,15.07,14.63,14.87,950091
22-Apr-16,14.85,15.62,14.85,15.04,1409987
21-Apr-16,15.29,15.35,14.78,14.82,896983
20-Apr-16,15.02,15.39,14.89,15.16,1043865
19-Apr-16,15.28,15.64,14.79,14.99,1145980
18-Apr-16,15.07,15.32,14.84,15.25,1151913
15-Apr-16,15.11,15.57,14.95,15.13,1172024
14-Apr-16,15.21,15.38,14.85,15.19,1222363
13-Apr-16,14.32,15.35,14.32,15.24,1596895
12-Apr-16,13.95,14.46,13.84,14.22,981112
11-Apr-16,13.81,14.15,13.75,13.96,1263105
8-Apr-16,13.80,14.10,13.56,13.76,860382
7-Apr-16,14.16,14.25,13.64,13.72,1075339
6-Apr-16,14.50,14.59,13.78,14.21,1711069
5-Apr-16,13.45,15.00,13.42,14.20,4595746
4-Apr-16,13.01,13.49,12.81,12.82,1039751
1-Apr-16,13.02,13.26,12.83,13.06,733578
31-Mar-16,12.96,13.29,12.86,13.12,907033
30-Mar-16,13.17,13.27,12.65,12.91,1067246
29-Mar-16,12.65,13.27,12.54,13.04,1426599
28-Mar-16,13.17,13.22,12.39,12.69,1185129
24-Mar-16,12.57,13.23,12.30,13.15,2045863
23-Mar-16,14.32,14.80,12.53,12.54,5544719
22-Mar-16,11.94,14.33,11.80,13.94,7680551
21-Mar-16,12.25,12.30,11.93,12.02,795523
18-Mar-16,11.46,12.26,11.42,12.24,1732013
17-Mar-16,11.06,11.45,10.92,11.33,897689
16-Mar-16,11.24,11.25,10.86,11.07,1119696
15-Mar-16,11.44,11.52,11.20,11.24,865785
14-Mar-16,11.34,11.80,11.28,11.48,1523833
11-Mar-16,11.55,11.59,11.10,11.41,1607921
10-Mar-16,11.84,11.90,11.30,11.48,1831528
9-Mar-16,12.20,12.20,11.29,11.80,3439058
8-Mar-16,13.70,14.11,11.71,11.77,6026699
7-Mar-16,12.25,13.90,12.21,13.84,2290662
4-Mar-16,12.10,12.92,12.01,12.21,1971943
3-Mar-16,11.27,12.41,11.25,12.01,2786562
2-Mar-16,11.03,11.42,10.92,11.38,1831621
1-Mar-16,11.42,11.50,10.73,11.19,2606078
29-Feb-16,10.38,11.40,10.01,11.33,6530314
26-Feb-16,11.37,11.44,11.05,11.11,2126557
25-Feb-16,11.37,11.47,10.75,11.24,2273338
24-Feb-16,11.25,11.59,10.84,11.39,1807729
23-Feb-16,11.50,11.87,11.21,11.27,2702931
22-Feb-16,11.61,12.43,10.75,11.40,9806800
19-Feb-16,14.39,14.46,13.82,14.21,1060843
18-Feb-16,14.89,14.89,13.74,14.42,1496385
17-Feb-16,14.45,16.12,14.36,14.77,3328274
16-Feb-16,12.69,13.95,12.58,13.82,1319383
12-Feb-16,11.96,12.61,11.95,12.33,1123691
11-Feb-16,12.16,12.46,11.50,11.79,1383925
10-Feb-16,12.10,13.03,11.74,12.41,2627949
9-Feb-16,12.06,12.58,11.97,12.09,875647
8-Feb-16,12.20,12.43,11.86,12.35,1128003
5-Feb-16,12.68,12.73,12.27,12.34,616702
4-Feb-16,12.32,13.15,12.26,12.74,957313
3-Feb-16,12.90,12.95,12.07,12.38,994070
2-Feb-16,13.15,13.39,12.60,12.77,1221102
1-Feb-16,12.87,15.08,12.50,13.36,7324974
29-Jan-16,12.84,13.29,12.77,12.91,939371
28-Jan-16,12.79,13.04,12.33,12.89,1117647
27-Jan-16,12.68,13.11,12.43,12.56,688246
26-Jan-16,12.11,12.84,11.97,12.77,874787
25-Jan-16,12.21,12.23,11.79,11.99,834246
22-Jan-16,12.26,12.93,12.13,12.30,874662
21-Jan-16,11.64,12.38,11.49,12.00,1017491
20-Jan-16,11.39,11.84,10.53,11.70,1870809
19-Jan-16,12.42,12.52,11.50,11.69,1306971
15-Jan-16,12.13,12.30,11.74,12.15,1364977
14-Jan-16,12.61,12.85,11.90,12.54,1858395
13-Jan-16,13.12,13.52,12.55,12.60,1173371
12-Jan-16,13.31,13.57,12.68,12.99,1203395
11-Jan-16,13.79,13.87,12.83,13.09,1352180
8-Jan-16,14.40,14.46,13.46,13.71,2057433
7-Jan-16,14.82,15.05,13.85,13.98,1543842
6-Jan-16,16.08,16.10,14.86,15.15,1935848
5-Jan-16,17.17,17.21,16.16,16.33,1464381
4-Jan-16,17.03,17.42,16.83,17.10,1231260
31-Dec-15,17.21,17.66,17.13,17.36,857347
30-Dec-15,17.52,18.14,17.19,17.29,1142755
29-Dec-15,17.99,18.34,17.56,17.65,1462794
28-Dec-15,18.16,18.33,17.76,17.80,623160
24-Dec-15,17.51,18.45,17.43,18.35,807258
23-Dec-15,17.54,18.20,17.11,17.50,1712101
22-Dec-15,16.25,17.59,16.09,17.42,2679776
21-Dec-15,16.69,16.77,15.64,16.22,3209073
18-Dec-15,16.76,17.10,16.38,16.68,2135682
17-Dec-15,17.69,17.72,16.17,16.72,4184110
16-Dec-15,17.82,18.87,17.55,18.68,4912775
15-Dec-15,17.92,18.25,16.71,17.53,12231392
14-Dec-15,13.82,14.14,13.52,14.06,1323319
11-Dec-15,14.21,14.33,13.80,13.89,825068
10-Dec-15,13.85,14.56,13.73,14.43,760304
9-Dec-15,13.94,14.29,13.60,13.91,808670
8-Dec-15,14.05,14.18,13.85,13.96,650001
7-Dec-15,14.31,14.38,13.87,14.27,857261
4-Dec-15,14.03,14.48,13.90,14.39,761258
3-Dec-15,14.75,14.85,13.95,14.03,1202967
2-Dec-15,15.04,15.33,14.77,14.80,731170
1-Dec-15,15.67,15.67,14.70,15.08,1521957
30-Nov-15,14.90,15.70,14.87,15.62,1136998
27-Nov-15,15.76,15.97,14.82,14.88,851072
25-Nov-15,15.03,15.96,15.00,15.74,1032013
24-Nov-15,14.55,15.36,14.30,15.12,1268760
23-Nov-15,13.85,14.68,13.75,14.60,1247000
20-Nov-15,13.96,14.21,13.71,13.90,1079086
19-Nov-15,13.98,14.14,13.66,13.85,734036
18-Nov-15,13.74,14.02,13.57,13.99,962130
17-Nov-15,14.10,14.28,13.52,13.61,1384050
16-Nov-15,13.83,14.03,13.25,14.01,1459987
13-Nov-15,14.81,14.97,13.81,13.87,1242043
12-Nov-15,14.75,15.11,14.66,14.90,758685
11-Nov-15,15.55,15.72,14.83,14.86,989106
10-Nov-15,16.11,16.13,15.23,15.57,1142061
9-Nov-15,16.71,17.24,15.90,16.13,1425077
6-Nov-15,16.46,17.42,16.22,16.71,2159428
5-Nov-15,15.51,16.63,15.29,16.39,2596911
4-Nov-15,15.13,16.40,14.46,15.65,6092383
3-Nov-15,14.05,14.56,13.84,14.22,1478415
2-Nov-15,13.80,14.34,13.59,14.02,1634462
30-Oct-15,13.83,14.06,13.52,13.82,920527
29-Oct-15,13.93,14.28,13.76,13.80,1358970
28-Oct-15,13.95,14.13,13.60,13.93,1570926
27-Oct-15,14.20,14.53,13.77,13.83,1683938
26-Oct-15,15.19,15.70,14.25,14.37,1689608
23-Oct-15,15.59,15.75,14.80,15.19,1605546
22-Oct-15,15.59,16.31,15.25,15.28,1837740
21-Oct-15,16.36,16.44,15.20,15.54,1623436
20-Oct-15,16.50,17.05,16.16,16.26,1200297
19-Oct-15,17.39,17.77,16.40,16.49,1700864
16-Oct-15,16.87,17.70,16.71,17.51,1612975
15-Oct-15,16.76,17.43,16.39,16.84,1954161
14-Oct-15,17.21,17.62,16.47,16.68,1446183
13-Oct-15,16.59,18.00,16.32,17.02,2028109
12-Oct-15,18.93,19.03,16.56,16.60,2826692
9-Oct-15,16.48,21.74,16.32,18.84,12553796
8-Oct-15,15.86,16.43,15.31,16.42,4685137
7-Oct-15,14.21,14.94,14.16,14.58,1478559
6-Oct-15,13.86,14.49,13.80,14.07,1200648
5-Oct-15,14.14,14.38,13.89,13.90,1099698
2-Oct-15,13.64,14.41,13.48,14.10,1482592
1-Oct-15,13.21,14.20,12.80,13.87,1901634
30-Sep-15,13.01,13.66,12.87,13.14,1019769
29-Sep-15,13.14,13.32,12.72,12.85,1196715
28-Sep-15,13.94,14.20,13.06,13.20,1214748
25-Sep-15,14.18,14.31,13.91,14.01,734552
24-Sep-15,14.23,14.32,13.93,14.10,997500
23-Sep-15,14.46,14.81,14.14,14.18,783163
22-Sep-15,14.45,14.64,14.18,14.54,1224728
21-Sep-15,15.36,15.60,14.62,14.71,2415020
18-Sep-15,16.45,16.64,15.18,15.54,2750494
17-Sep-15,16.40,17.10,16.21,16.67,1251529
16-Sep-15,15.85,16.60,15.80,16.47,997406
15-Sep-15,15.58,16.00,15.44,15.89,1483710
14-Sep-15,15.38,15.66,15.11,15.58,827896
11-Sep-15,15.16,15.60,15.08,15.52,931053
10-Sep-15,14.92,15.83,14.91,15.17,1386783
9-Sep-15,15.00,15.39,14.89,14.99,1055794
8-Sep-15,14.34,14.96,14.31,14.94,907796
4-Sep-15,14.55,14.70,14.13,14.28,862158
3-Sep-15,14.46,15.07,14.46,14.76,1041319
2-Sep-15,14.61,14.80,14.16,14.55,1273971
1-Sep-15,14.64,15.26,14.43,14.52,1524839
31-Aug-15,14.70,15.16,14.41,15.11,1619595
28-Aug-15,15.26,15.62,14.79,14.93,1520440
27-Aug-15,15.15,16.49,14.93,15.37,3125721
26-Aug-15,14.98,15.14,14.36,14.93,1869970
25-Aug-15,15.38,15.44,14.61,14.72,1482941
24-Aug-15,14.48,15.44,13.54,14.97,2420428
21-Aug-15,15.06,15.73,14.80,15.45,2599579
20-Aug-15,15.11,16.32,14.84,15.48,5871719
19-Aug-15,14.97,14.98,13.70,14.21,2332896
18-Aug-15,14.25,15.54,14.21,14.96,4072856
17-Aug-15,13.60,14.44,13.43,14.12,3530768
14-Aug-15,12.95,14.46,12.70,14.02,6797994
13-Aug-15,13.65,13.90,12.96,13.01,2211512
12-Aug-15,12.53,13.63,12.50,13.34,2102628
11-Aug-15,12.77,13.19,12.45,12.55,1474053
10-Aug-15,12.11,13.25,12.03,12.86,3229738
7-Aug-15,12.18,12.51,11.90,12.06,2285792
6-Aug-15,12.95,12.99,11.62,12.12,5725001
5-Aug-15,14.56,16.89,13.12,13.27,10193984
4-Aug-15,18.54,18.97,18.30,18.36,2015737
3-Aug-15,19.36,19.45,18.14,18.59,1669787
31-Jul-15,19.10,19.47,19.06,19.30,893643
30-Jul-15,19.00,19.30,18.86,19.14,580859
29-Jul-15,18.90,19.49,18.62,19.06,1361439
28-Jul-15,19.03,19.15,18.26,18.96,985010
27-Jul-15,19.07,19.27,18.75,18.98,610690
24-Jul-15,19.64,19.67,19.11,19.22,862194
23-Jul-15,19.73,19.96,19.23,19.69,1646170
22-Jul-15,19.01,19.69,18.91,19.61,1138291
21-Jul-15,19.15,19.46,19.05,19.06,748741
20-Jul-15,19.37,19.85,18.99,19.21,1467746
17-Jul-15,20.37,20.37,19.24,19.39,2272459
16-Jul-15,20.53,20.57,20.10,20.41,1024681
15-Jul-15,20.75,20.76,20.50,20.50,633474
14-Jul-15,20.71,21.15,20.39,20.71,1022430
13-Jul-15,20.46,21.17,20.31,20.74,1794799
10-Jul-15,20.16,20.70,20.05,20.31,1589979
9-Jul-15,19.90,20.00,19.33,19.91,1691134
8-Jul-15,20.35,20.75,18.76,19.67,2706824
7-Jul-15,20.65,20.90,20.16,20.49,1765729
6-Jul-15,20.50,20.88,20.29,20.61,987059
2-Jul-15,20.93,21.42,20.60,20.64,991105
1-Jul-15,20.90,20.93,20.50,20.93,1306951
30-Jun-15,21.00,21.12,20.29,20.71,1270365
29-Jun-15,20.90,21.83,20.60,20.94,1849247
26-Jun-15,21.20,21.64,20.70,21.12,2117547
25-Jun-15,22.20,22.61,21.10,21.20,2456755
24-Jun-15,21.79,22.98,21.79,22.29,3604230
23-Jun-15,20.33,21.95,20.24,21.60,2855324
22-Jun-15,20.76,20.85,20.06,20.36,1705215
19-Jun-15,20.66,20.85,20.43,20.71,2116985
18-Jun-15,21.04,21.13,20.48,20.58,1755413
17-Jun-15,21.35,21.48,21.01,21.01,887833
16-Jun-15,21.33,21.86,21.12,21.18,1565862
15-Jun-15,21.31,21.56,20.79,21.48,2187837
12-Jun-15,20.89,23.20,20.60,21.49,5240730
11-Jun-15,20.80,21.16,20.53,20.64,804756
10-Jun-15,20.40,21.03,20.35,20.79,1182645
9-Jun-15,20.62,20.70,20.01,20.40,1427317
8-Jun-15,21.30,21.51,20.41,20.60,2170652
5-Jun-15,21.25,21.69,20.91,21.37,1088657
4-Jun-15,21.40,21.75,21.10,21.23,1201196
3-Jun-15,22.37,22.50,21.53,21.58,2208923
2-Jun-15,21.09,22.32,21.04,22.01,2356644
1-Jun-15,20.63,21.13,20.07,21.09,2891276
29-May-15,21.67,21.83,20.30,20.40,3431511
28-May-15,21.56,21.98,21.21,21.66,1379954
27-May-15,22.10,22.19,21.56,21.57,1646533
26-May-15,21.29,22.30,21.04,22.04,4523291
22-May-15,21.13,21.85,20.55,21.04,3943717
21-May-15,20.98,21.94,20.92,21.10,15317464
20-May-15,26.28,26.31,25.20,25.27,1524994
19-May-15,25.57,26.78,25.33,26.39,2798693
18-May-15,26.30,26.63,24.69,26.06,3854965
15-May-15,26.62,26.76,26.21,26.26,1331361
14-May-15,26.36,26.93,26.10,26.67,1776094
13-May-15,26.80,26.96,26.25,26.49,1446064
12-May-15,27.23,27.47,26.50,26.60,2494800
11-May-15,28.59,28.60,27.86,28.06,1101880
8-May-15,27.50,28.18,27.31,28.14,1694364
7-May-15,26.93,29.20,26.81,27.07,5536027
6-May-15,27.10,27.45,26.90,27.23,876031
5-May-15,27.58,27.86,27.03,27.23,1260275
4-May-15,27.08,27.82,26.61,27.69,1647368
1-May-15,28.06,28.15,27.01,27.11,2167476
30-Apr-15,26.46,28.05,25.81,27.49,3995094
29-Apr-15,28.05,28.69,26.54,26.76,10465970
28-Apr-15,33.26,33.70,32.76,33.42,2084281
27-Apr-15,33.05,33.53,33.00,33.15,1359431
24-Apr-15,33.63,33.86,32.96,33.07,1003045
23-Apr-15,33.86,34.33,33.51,33.65,1261321
22-Apr-15,33.25,33.94,32.77,33.86,1602175
21-Apr-15,32.81,33.72,32.42,33.36,2530852
20-Apr-15,32.37,32.53,31.81,32.24,1681813
17-Apr-15,33.20,33.36,32.20,32.37,1656684
16-Apr-15,33.44,33.98,33.12,33.33,1273485
15-Apr-15,33.36,34.05,32.83,33.42,1588285
14-Apr-15,33.22,33.64,32.05,33.44,2269935
13-Apr-15,33.47,33.73,33.07,33.23,1378949
10-Apr-15,34.30,34.67,33.22,33.40,2073115
9-Apr-15,34.15,34.50,33.51,34.18,1843684
8-Apr-15,33.60,34.38,33.53,34.19,2380550
7-Apr-15,34.33,34.79,33.54,33.55,3698795
6-Apr-15,34.31,34.99,33.86,34.09,6631073
2-Apr-15,34.40,35.18,32.20,33.20,12144972
1-Apr-15,30.66,34.14,30.31,33.01,9732272
31-Mar-15,30.14,31.73,30.00,30.78,3292791
30-Mar-15,30.56,31.50,29.80,30.25,4571113
27-Mar-15,30.02,30.99,29.63,30.56,3783858
26-Mar-15,31.83,32.19,29.57,29.89,5594650
25-Mar-15,31.05,33.30,28.80,31.86,17787032
24-Mar-15,27.90,29.65,27.76,28.83,3580100
23-Mar-15,28.36,28.75,27.15,27.89,4270007
20-Mar-15,29.59,29.59,28.46,28.51,6356181
19-Mar-15,29.76,30.15,29.06,29.35,2953461
18-Mar-15,29.73,30.73,29.03,29.69,4006851
17-Mar-15,29.85,30.36,29.12,29.68,3740738
16-Mar-15,30.77,31.74,28.22,29.93,12483282
13-Mar-15,33.93,34.99,30.06,30.55,18910199
12-Mar-15,34.65,37.78,33.13,36.08,23593159
11-Mar-15,30.82,34.44,30.28,32.73,18647328
10-Mar-15,29.10,31.94,29.07,29.58,16410900
9-Mar-15,33.04,33.10,27.79,27.95,14137628
6-Mar-15,34.12,34.70,32.34,33.32,7378187
5-Mar-15,36.89,37.68,33.12,33.83,12032087
4-Mar-15,41.65,41.85,35.40,35.64,15871339
3-Mar-15,40.82,44.16,40.30,40.78,17107225
2-Mar-15,38.26,41.89,38.19,38.83,24432407
27-Feb-15,48.94,52.08,47.60,51.86,2767191
26-Feb-15,51.35,52.20,48.64,49.23,5734168
25-Feb-15,65.78,69.99,49.80,50.63,16437520
24-Feb-15,69.91,69.91,67.80,68.78,1261121
23-Feb-15,68.00,69.43,67.76,69.22,1007411
20-Feb-15,67.66,67.96,66.73,67.90,443690
19-Feb-15,66.54,67.57,65.91,67.44,560234
18-Feb-15,66.50,66.99,65.67,66.89,571651
17-Feb-15,63.64,67.32,63.38,66.41,738723
13-Feb-15,63.38,64.34,62.25,63.69,458428
12-Feb-15,64.67,64.67,62.51,62.80,1206072
11-Feb-15,64.43,65.13,62.95,64.21,423507
10-Feb-15,64.16,64.76,63.13,64.53,639800
9-Feb-15,64.89,65.16,63.39,63.66,431017
6-Feb-15,65.51,65.95,64.78,65.00,382317
5-Feb-15,65.30,66.75,64.63,65.70,376325
4-Feb-15,63.70,65.73,63.70,65.19,475992
3-Feb-15,63.40,64.40,62.80,64.11,352281
2-Feb-15,63.00,63.55,61.63,63.52,613231
30-Jan-15,63.83,63.99,61.55,63.15,872579
29-Jan-15,61.50,64.52,61.31,64.40,1032256
28-Jan-15,60.35,62.76,60.17,61.66,1299817
27-Jan-15,59.60,60.94,59.00,60.27,720688
26-Jan-15,58.70,60.21,58.10,59.88,966682
23-Jan-15,58.25,58.51,57.00,58.37,869137
22-Jan-15,54.71,58.26,54.55,58.21,961405
21-Jan-15,54.79,55.34,53.96,54.21,670577
20-Jan-15,57.25,58.18,54.81,54.93,701965
16-Jan-15,55.11,58.30,54.76,57.11,1212638
15-Jan-15,63.02,63.50,54.35,55.20,2395878
14-Jan-15,62.51,63.78,61.65,63.00,496725
13-Jan-15,65.77,66.08,62.26,63.19,552636
12-Jan-15,64.78,65.01,64.07,64.50,454250
9-Jan-15,66.60,66.71,64.68,64.93,420550
8-Jan-15,65.20,67.69,64.83,66.88,731358
7-Jan-15,63.24,65.18,63.13,64.72,487438
6-Jan-15,63.05,63.05,60.67,62.63,546394
5-Jan-15,63.38,64.17,62.00,63.08,537415
2-Jan-15,66.60,66.66,63.28,63.78,524693
31-Dec-14,65.33,67.86,65.05,66.31,560263
30-Dec-14,64.96,65.62,64.43,65.33,304073
29-Dec-14,63.35,65.46,63.35,65.09,360483
26-Dec-14,64.23,64.93,63.17,63.25,209309
24-Dec-14,64.15,64.69,63.85,63.91,125218
23-Dec-14,64.86,66.15,64.25,64.32,334993
22-Dec-14,63.84,65.00,63.28,64.39,446240
19-Dec-14,63.34,63.95,62.24,63.86,946670
18-Dec-14,63.53,63.78,62.58,63.24,747223
17-Dec-14,60.50,63.29,59.99,62.70,683217
16-Dec-14,60.48,61.45,59.83,60.50,700705
15-Dec-14,59.32,61.33,58.78,59.77,911296
12-Dec-14,58.80,59.95,58.42,58.88,520228
11-Dec-14,60.10,60.68,59.03,59.23,778157
10-Dec-14,61.45,62.95,59.83,59.98,849406
9-Dec-14,60.80,61.82,60.69,61.55,1189078
8-Dec-14,61.52,62.65,61.26,61.44,477417
5-Dec-14,61.34,62.54,61.25,61.93,642393
4-Dec-14,62.86,62.96,60.73,61.23,783267
3-Dec-14,62.70,63.42,62.46,62.60,826625
2-Dec-14,62.70,63.45,62.39,62.93,635910
1-Dec-14,63.25,63.80,61.61,62.59,1168183
28-Nov-14,62.57,64.22,61.95,63.59,480915
26-Nov-14,62.77,62.82,61.85,62.50,502810
25-Nov-14,63.27,63.85,61.64,62.56,810249
24-Nov-14,62.86,64.11,62.12,63.33,1419491
21-Nov-14,59.33,60.98,59.01,60.51,1297307
20-Nov-14,55.55,59.45,55.01,58.74,1086131
19-Nov-14,53.94,56.48,53.24,55.12,1044459
18-Nov-14,53.47,54.18,52.98,53.77,778801
17-Nov-14,54.98,55.40,53.36,53.52,732225
14-Nov-14,54.14,55.27,53.98,55.21,646577
13-Nov-14,54.76,55.39,53.63,54.27,461222
12-Nov-14,55.32,55.67,54.48,54.60,529261
11-Nov-14,55.63,56.25,54.58,55.50,744550
10-Nov-14,56.43,57.32,55.69,55.85,1085354
7-Nov-14,57.87,58.22,56.28,56.57,1253728
6-Nov-14,54.61,58.78,54.55,58.05,1812900
5-Nov-14,54.55,55.33,53.59,53.80,648842
4-Nov-14,52.55,54.43,52.00,54.24,1303920
3-Nov-14,53.76,55.28,53.34,54.30,883609
31-Oct-14,53.00,54.83,52.69,53.77,1190652
30-Oct-14,49.22,52.83,49.22,52.50,1342418
29-Oct-14,49.47,49.47,48.22,48.98,706125
28-Oct-14,48.35,49.79,48.22,49.46,781048
27-Oct-14,48.52,48.63,48.00,48.28,774140
24-Oct-14,48.93,49.50,47.76,48.94,1387013
23-Oct-14,52.48,53.24,49.14,49.15,2543213
22-Oct-14,50.01,53.00,49.10,52.36,5435263
21-Oct-14,59.16,59.32,55.46,57.63,2492741
20-Oct-14,58.47,59.18,57.99,59.05,1113993
17-Oct-14,58.98,60.80,58.32,58.78,1128432
16-Oct-14,56.68,59.17,56.25,58.37,699325
15-Oct-14,54.77,58.10,53.73,57.83,946076
14-Oct-14,54.68,57.13,54.68,55.62,712051
13-Oct-14,54.54,55.64,53.54,54.44,561832
10-Oct-14,53.45,55.85,53.42,54.29,1014780
9-Oct-14,55.78,55.92,52.77,53.47,996856
8-Oct-14,54.79,55.92,53.89,55.85,847083
7-Oct-14,55.10,56.36,54.67,54.93,657726
6-Oct-14,55.82,56.47,55.02,55.12,705058
3-Oct-14,56.09,56.40,55.06,55.51,628844
2-Oct-14,55.68,56.54,54.21,55.45,737240
1-Oct-14,57.33,57.45,55.66,55.82,828185
30-Sep-14,59.09,59.09,57.16,57.38,706188
29-Sep-14,56.66,59.25,56.27,59.08,905109
26-Sep-14,56.37,57.20,56.14,57.07,589042
25-Sep-14,56.44,56.85,55.79,56.27,722547
24-Sep-14,55.10,56.94,55.06,56.57,772970
23-Sep-14,55.90,56.79,54.91,55.07,894402
22-Sep-14,57.64,57.70,55.42,56.10,1013061
19-Sep-14,61.04,61.04,57.63,58.00,1593687
18-Sep-14,60.06,60.94,59.70,60.80,798072
17-Sep-14,58.90,60.96,58.79,59.99,1026332
16-Sep-14,58.33,59.92,57.71,58.97,869376
15-Sep-14,57.85,58.77,57.77,58.64,645334
12-Sep-14,58.81,59.29,57.03,57.82,738490
11-Sep-14,55.98,58.74,55.95,58.70,1358859
10-Sep-14,56.97,57.00,55.69,56.42,1694656
9-Sep-14,56.83,57.63,56.35,57.31,1440311
8-Sep-14,57.80,57.92,56.64,57.03,646035
5-Sep-14,57.85,58.10,57.01,57.79,998291
4-Sep-14,59.08,59.09,55.82,58.08,4091013
3-Sep-14,58.12,59.58,57.76,59.28,1894657
2-Sep-14,57.33,57.61,55.28,55.33,1047425
29-Aug-14,57.58,58.48,57.10,57.22,847272
28-Aug-14,58.06,58.29,57.26,57.47,703429
27-Aug-14,57.97,58.77,57.78,58.46,578866
26-Aug-14,58.05,58.38,57.78,57.97,756043
25-Aug-14,57.90,58.50,57.29,58.01,584343
22-Aug-14,57.32,57.81,56.80,57.45,656687
21-Aug-14,57.39,57.69,56.75,57.30,512849
20-Aug-14,58.30,58.33,57.01,57.34,492261
19-Aug-14,58.08,59.30,58.02,58.63,1114575
18-Aug-14,55.44,57.54,55.44,57.44,891074
15-Aug-14,55.79,56.02,55.00,55.26,512284
14-Aug-14,55.25,55.69,54.81,55.58,507089
13-Aug-14,54.82,55.18,54.25,55.10,708427
12-Aug-14,55.50,55.84,54.21,54.61,625554
11-Aug-14,55.52,55.99,54.97,55.85,1100821
8-Aug-14,54.72,55.96,54.72,55.19,869033
7-Aug-14,54.76,55.93,54.44,54.72,759956
6-Aug-14,55.29,55.48,54.26,54.50,1560107
5-Aug-14,54.64,56.68,54.25,55.92,846335
4-Aug-14,53.60,55.22,53.54,55.09,661916
1-Aug-14,54.19,54.50,52.76,53.34,736090
31-Jul-14,55.55,55.55,53.81,54.22,836296
30-Jul-14,55.50,56.56,54.79,55.36,870483
29-Jul-14,55.01,55.86,54.87,55.43,722703
28-Jul-14,55.14,55.22,53.82,55.07,733708
25-Jul-14,55.00,55.50,54.80,55.22,461164
24-Jul-14,55.96,56.72,55.00,55.14,573269
23-Jul-14,55.64,56.64,55.15,56.02,669258
22-Jul-14,55.69,56.46,55.34,55.77,566399
21-Jul-14,55.50,56.10,55.01,55.60,651916
18-Jul-14,54.80,55.90,54.78,55.62,699056
17-Jul-14,54.64,55.86,54.18,54.90,1124655
16-Jul-14,54.26,55.28,53.48,55.00,943054
15-Jul-14,55.01,55.39,53.27,53.85,1387629
14-Jul-14,55.23,55.96,54.83,55.15,1364397
11-Jul-14,55.82,56.68,54.61,54.86,2491792
10-Jul-14,55.19,57.80,54.31,55.25,10366778
9-Jul-14,76.93,77.27,69.65,70.42,6418839
8-Jul-14,73.98,76.70,73.03,76.59,2039811
7-Jul-14,76.00,76.00,74.15,74.20,669083
3-Jul-14,75.64,76.68,75.50,76.05,789512
2-Jul-14,75.56,76.26,74.72,75.24,448479
1-Jul-14,76.02,76.68,74.94,75.38,905803
30-Jun-14,75.05,76.38,75.05,75.95,702418
27-Jun-14,75.71,76.15,74.80,75.11,530553
26-Jun-14,75.75,76.14,74.05,75.91,533665
25-Jun-14,73.34,76.14,72.86,75.82,770178
24-Jun-14,74.35,75.15,73.54,73.74,903040
23-Jun-14,75.44,76.21,75.29,75.60,445400
20-Jun-14,76.18,77.27,75.15,75.40,1064669
19-Jun-14,79.95,80.15,75.52,75.71,982505
18-Jun-14,78.49,80.05,77.79,79.84,816764
17-Jun-14,76.62,78.88,76.02,78.60,439061
16-Jun-14,76.72,78.65,75.92,76.81,419551
13-Jun-14,77.12,77.50,75.31,77.13,602609
12-Jun-14,78.72,78.89,77.06,77.12,423553
11-Jun-14,78.35,79.05,77.15,78.82,735719
10-Jun-14,79.51,80.32,77.73,78.80,577995
9-Jun-14,80.53,81.56,79.16,79.60,616370
6-Jun-14,82.81,83.72,80.11,80.43,670129
5-Jun-14,81.59,82.60,80.83,82.54,841327
4-Jun-14,79.11,81.64,78.29,81.34,786266
3-Jun-14,77.78,80.04,77.19,79.38,905761
2-Jun-14,78.07,78.93,76.84,78.22,659694
30-May-14,79.10,79.36,76.54,77.68,1592758
29-May-14,82.25,82.63,79.09,79.12,794043
28-May-14,83.34,83.51,81.25,82.08,914470
27-May-14,81.77,84.76,81.28,84.37,784585
23-May-14,80.48,81.54,79.14,81.05,499067
22-May-14,79.53,81.88,79.49,80.51,864806
21-May-14,81.17,81.50,79.31,79.53,824159
20-May-14,82.02,82.36,79.50,81.06,1395635
19-May-14,82.60,83.00,81.11,81.90,685101
16-May-14,81.23,83.07,80.48,82.96,463289
15-May-14,80.83,81.90,79.04,81.42,785575
14-May-14,83.58,83.78,81.30,81.51,348929
13-May-14,85.32,85.37,82.93,83.76,535099
12-May-14,83.95,86.45,83.95,85.50,389193
9-May-14,81.67,84.10,81.03,83.68,673175
8-May-14,81.74,84.70,81.26,82.08,806576
7-May-14,83.80,84.24,80.70,81.74,1103914
6-May-14,86.41,86.52,83.63,83.80,792389
5-May-14,88.33,88.50,86.02,86.88,821930
2-May-14,89.79,91.50,88.84,89.07,1078746
1-May-14,88.00,92.49,86.07,89.04,1763610
30-Apr-14,83.32,88.11,78.92,87.16,3852592
29-Apr-14,85.00,86.66,84.25,86.00,986276
28-Apr-14,85.32,87.55,84.25,84.75,1217269
25-Apr-14,86.54,86.77,83.54,84.69,624060
24-Apr-14,87.35,87.85,85.26,87.42,301305
23-Apr-14,92.01,92.01,86.93,86.96,510631
22-Apr-14,87.74,89.30,87.61,88.25,332040
21-Apr-14,87.08,87.80,86.32,87.30,283731
17-Apr-14,86.08,87.44,85.69,86.87,324932
16-Apr-14,86.25,86.89,84.54,86.68,473010
15-Apr-14,84.85,86.91,82.16,85.64,855150
14-Apr-14,86.67,87.45,83.91,84.70,864078
11-Apr-14,87.25,88.26,84.61,85.68,1395394
10-Apr-14,93.72,95.35,87.96,88.07,989891
9-Apr-14,91.41,94.44,90.79,94.17,425406
8-Apr-14,89.08,91.90,88.63,91.39,739383
7-Apr-14,92.50,93.28,87.41,89.18,957904
4-Apr-14,94.72,96.75,91.89,93.04,681203
3-Apr-14,94.63,95.73,93.45,94.25,741114
2-Apr-14,95.05,95.32,93.62,94.39,513651
1-Apr-14,94.51,95.33,93.78,94.53,654178
31-Mar-14,94.60,95.00,92.74,93.80,862132
28-Mar-14,93.00,94.02,92.25,93.69,440841
27-Mar-14,92.45,93.15,90.65,92.46,521586
26-Mar-14,96.33,96.72,92.26,92.49,453569
25-Mar-14,97.72,98.27,95.10,95.55,621676
24-Mar-14,98.62,98.63,95.61,96.74,838850
21-Mar-14,102.82,103.00,97.90,98.04,1048948
20-Mar-14,107.05,107.05,101.10,102.54,1017509
19-Mar-14,105.70,108.40,105.68,107.44,714210
18-Mar-14,105.31,105.92,103.92,105.55,899577
17-Mar-14,102.50,105.98,101.24,105.65,701072
14-Mar-14,100.89,102.93,100.49,101.43,310342
13-Mar-14,103.16,103.36,100.48,100.95,376254
12-Mar-14,102.39,103.62,101.35,103.11,287270
11-Mar-14,104.04,105.16,102.48,102.72,531685
10-Mar-14,105.35,105.85,103.57,103.75,407411
7-Mar-14,106.58,106.79,104.06,105.00,463057
6-Mar-14,106.32,108.37,105.37,105.78,611901
5-Mar-14,109.14,109.20,106.50,109.04,453362
4-Mar-14,109.25,110.52,108.68,109.04,507320
3-Mar-14,105.61,108.53,105.00,107.75,423226
28-Feb-14,109.63,110.50,106.00,107.28,518117
27-Feb-14,110.19,110.33,108.74,109.30,634797
26-Feb-14,108.71,111.74,108.26,109.23,860612
25-Feb-14,108.10,110.53,107.46,108.02,686929
24-Feb-14,103.81,108.74,103.81,108.05,1049925
21-Feb-14,103.90,104.60,102.43,103.76,794555
20-Feb-14,100.29,104.00,99.94,103.67,1115906
19-Feb-14,98.90,104.00,96.77,100.58,2506221
18-Feb-14,95.90,96.08,93.65,95.60,1416691
14-Feb-14,95.74,97.25,94.84,95.99,565929
13-Feb-14,94.55,96.42,94.29,96.07,532958
12-Feb-14,95.93,96.84,94.84,95.89,775983
11-Feb-14,95.80,96.72,94.80,95.80,600656
10-Feb-14,96.23,96.68,94.38,96.06,574292
7-Feb-14,94.85,96.54,94.85,96.01,731721
6-Feb-14,91.15,95.65,91.15,94.83,806923
5-Feb-14,93.84,94.58,91.95,92.67,835377
4-Feb-14,92.00,94.94,91.00,94.70,1907961
3-Feb-14,88.80,89.59,86.26,86.88,867520
31-Jan-14,88.20,90.19,88.13,88.99,678993
30-Jan-14,90.29,91.55,89.07,90.28,937224
29-Jan-14,90.75,91.52,88.52,88.74,1285801
28-Jan-14,92.20,93.68,91.68,91.70,1491177
27-Jan-14,95.10,95.46,90.86,92.31,1167358
24-Jan-14,97.50,98.82,94.54,95.03,1334176
23-Jan-14,98.68,99.50,97.26,98.99,631825
22-Jan-14,99.60,100.43,98.62,99.58,459251
21-Jan-14,99.96,101.00,98.22,99.55,752077
17-Jan-14,100.14,100.78,99.59,100.05,692275
16-Jan-14,99.83,100.92,98.75,100.14,942129
15-Jan-14,102.35,102.42,100.21,100.35,512914
14-Jan-14,101.35,102.32,100.22,101.71,842278
13-Jan-14,103.63,104.28,101.04,101.35,638583
10-Jan-14,102.08,104.87,101.55,104.32,679389
9-Jan-14,104.70,105.18,101.02,102.08,991925
8-Jan-14,104.35,106.03,103.12,103.92,762307
7-Jan-14,102.67,105.65,102.45,104.64,634316
6-Jan-14,103.22,104.50,102.23,102.57,440927
3-Jan-14,102.92,103.93,102.06,103.07,562076
2-Jan-14,103.14,103.77,101.71,102.90,693565
31-Dec-13,101.78,103.50,100.74,102.89,560748
30-Dec-13,101.60,102.78,101.17,101.83,347412
27-Dec-13,101.61,102.70,101.06,102.00,392564
26-Dec-13,102.01,102.96,101.21,101.61,360401
24-Dec-13,101.66,102.64,101.03,101.75,251993
23-Dec-13,101.38,102.58,100.51,101.20,592090
20-Dec-13,102.28,103.22,99.01,100.89,1509276
19-Dec-13,99.06,102.82,98.00,102.27,2237723
18-Dec-13,94.22,99.86,93.74,99.50,1620570
17-Dec-13,94.06,94.77,92.85,93.82,521202
16-Dec-13,93.50,95.00,92.15,94.41,1494538
13-Dec-13,90.71,90.98,88.36,89.49,731614
12-Dec-13,90.95,92.44,90.10,90.23,865987
11-Dec-13,89.13,92.00,85.58,90.91,2669452
10-Dec-13,103.02,103.72,88.18,89.62,5657161
9-Dec-13,103.94,104.60,102.80,103.80,812123
6-Dec-13,99.04,105.55,99.04,104.20,1672356
5-Dec-13,96.50,98.59,95.83,97.56,927834
4-Dec-13,96.73,97.66,95.13,96.41,706265
3-Dec-13,95.15,97.00,92.76,96.88,1312635
2-Dec-13,100.54,100.69,96.12,96.18,793855
29-Nov-13,101.43,101.69,99.28,100.69,522114
27-Nov-13,103.65,103.92,99.25,101.17,991062
26-Nov-13,102.88,104.70,102.88,103.68,737791
25-Nov-13,101.75,104.03,97.05,102.97,1775405
22-Nov-13,115.95,115.95,100.30,101.81,3738025
21-Nov-13,115.20,118.00,114.86,115.36,347751
20-Nov-13,113.59,115.84,113.35,115.04,402950
19-Nov-13,116.54,118.12,113.23,113.58,541940
18-Nov-13,119.83,119.98,115.51,116.42,332691
15-Nov-13,115.76,119.61,115.61,119.44,594892
14-Nov-13,116.90,117.00,115.06,115.60,235703
13-Nov-13,114.29,117.20,114.29,116.90,297912
12-Nov-13,114.54,115.59,113.40,115.30,290004
11-Nov-13,113.00,114.75,112.02,114.68,332142
8-Nov-13,110.00,113.65,109.58,113.33,358579
7-Nov-13,115.50,115.78,109.32,109.82,551128
6-Nov-13,116.49,116.86,114.20,114.31,292155
5-Nov-13,115.89,116.95,114.66,115.99,378646
4-Nov-13,115.94,116.79,113.49,116.14,465814
1-Nov-13,114.35,115.00,111.36,111.98,436523
31-Oct-13,115.04,115.70,113.28,114.19,298607
30-Oct-13,117.10,118.04,115.00,115.28,441013
29-Oct-13,114.63,117.11,114.26,117.04,447234
28-Oct-13,114.21,114.94,113.17,113.60,267226
25-Oct-13,116.87,116.99,112.77,114.04,517235
24-Oct-13,113.98,117.80,113.98,115.68,674223
23-Oct-13,112.26,116.82,111.76,113.99,1667524
22-Oct-13,108.87,108.99,106.33,108.82,746791
21-Oct-13,106.58,109.30,106.55,107.76,505276
18-Oct-13,107.00,107.38,105.48,106.67,463990
17-Oct-13,107.10,107.10,105.56,107.09,399491
16-Oct-13,107.20,108.02,105.51,107.43,482909
15-Oct-13,108.76,109.31,106.20,106.46,442416
14-Oct-13,107.56,109.70,107.06,109.41,346380
11-Oct-13,107.25,109.00,106.53,108.67,421817
10-Oct-13,103.94,107.44,103.92,107.37,407572
9-Oct-13,102.58,103.79,99.40,102.53,636686
8-Oct-13,104.43,105.50,102.48,102.50,771332
7-Oct-13,106.04,107.00,103.90,104.68,634144
4-Oct-13,105.73,108.21,105.46,107.05,353971
3-Oct-13,105.97,106.22,103.02,105.55,495508
2-Oct-13,107.99,107.99,105.57,106.24,406643
1-Oct-13,106.96,109.39,106.66,108.69,435669
30-Sep-13,104.45,108.30,104.01,106.65,820518
27-Sep-13,100.50,108.00,98.50,107.13,4274381
26-Sep-13,111.43,114.13,111.43,112.96,420544
25-Sep-13,111.00,112.20,109.89,110.80,257890
24-Sep-13,111.72,112.88,110.14,110.82,368183
23-Sep-13,112.64,113.00,109.51,111.78,334808
20-Sep-13,113.83,114.11,112.37,113.11,557996
19-Sep-13,113.03,115.59,112.25,113.13,531222
18-Sep-13,110.15,113.63,108.03,112.81,420011
17-Sep-13,108.42,110.26,108.13,110.23,256271
16-Sep-13,110.23,111.00,108.37,108.62,460345
13-Sep-13,107.84,108.39,106.13,107.43,260087
12-Sep-13,108.51,110.45,107.24,107.45,421008
11-Sep-13,107.59,109.30,107.43,108.80,596653
10-Sep-13,104.02,108.45,103.11,107.46,1005649
9-Sep-13,100.36,104.00,100.36,103.03,476619
6-Sep-13,100.99,101.62,98.46,99.61,353730
5-Sep-13,99.31,101.05,99.20,99.53,301270
4-Sep-13,99.16,101.05,98.30,99.56,318489
3-Sep-13,100.54,100.91,98.16,99.01,353545
30-Aug-13,101.65,101.65,99.10,99.42,213667
29-Aug-13,98.67,103.00,98.26,101.55,359014
28-Aug-13,96.75,99.79,96.15,99.11,402222
27-Aug-13,99.24,99.24,96.43,97.01,509198
26-Aug-13,100.00,101.23,99.19,100.02,326806
23-Aug-13,102.78,103.32,98.75,99.53,507670
22-Aug-13,100.29,103.12,99.98,102.68,601101
21-Aug-13,98.78,101.74,98.56,99.80,796343
20-Aug-13,96.73,99.52,95.42,99.50,754394
19-Aug-13,96.48,98.84,95.39,96.15,685122
16-Aug-13,94.00,97.23,94.00,95.88,534824
15-Aug-13,96.50,96.50,94.01,94.66,469208
14-Aug-13,96.83,97.68,96.12,97.43,486297
13-Aug-13,95.85,97.40,93.54,97.03,674229
12-Aug-13,92.66,95.91,92.62,95.85,354383
9-Aug-13,93.03,94.84,92.55,93.69,558155
8-Aug-13,93.63,94.61,92.89,93.29,537179
7-Aug-13,93.96,94.15,91.20,92.89,479520
6-Aug-13,96.18,96.55,93.57,94.80,408592
5-Aug-13,96.44,96.66,95.02,96.36,290804
2-Aug-13,94.81,97.09,94.12,96.45,414940
1-Aug-13,97.25,98.41,94.67,95.08,638855
31-Jul-13,95.37,98.08,95.36,96.82,678353
30-Jul-13,94.06,95.99,93.24,95.41,543983
29-Jul-13,93.51,94.00,92.26,93.68,474699
26-Jul-13,91.68,93.98,91.64,93.54,419848
25-Jul-13,91.89,92.66,90.31,92.58,750755
24-Jul-13,93.30,96.00,91.53,92.61,1982760
23-Jul-13,87.79,88.13,85.02,86.61,831601
22-Jul-13,88.41,88.90,86.69,87.30,459986
19-Jul-13,86.90,88.26,86.12,88.11,572585
18-Jul-13,85.83,87.33,85.13,87.05,787907
17-Jul-13,85.33,86.03,84.03,85.87,553865
16-Jul-13,86.10,87.00,84.30,85.27,699945
15-Jul-13,87.52,88.05,85.89,86.30,614911
12-Jul-13,84.80,86.95,84.80,86.65,323384
11-Jul-13,84.62,86.24,84.41,84.82,543399
10-Jul-13,84.79,85.49,82.26,83.76,534841
9-Jul-13,83.07,85.76,82.68,85.14,745827
8-Jul-13,82.00,83.68,81.81,82.54,426295
5-Jul-13,81.45,81.83,79.52,81.50,349829
3-Jul-13,78.10,81.00,78.00,80.38,364701
2-Jul-13,79.12,80.84,78.23,78.51,442952
1-Jul-13,77.88,80.25,77.88,79.13,550063
28-Jun-13,80.00,80.22,77.78,77.87,687729
27-Jun-13,78.89,81.14,78.61,80.13,605622
26-Jun-13,78.31,79.45,77.91,78.19,585214
25-Jun-13,76.35,78.48,76.10,77.49,685697
24-Jun-13,73.20,77.59,71.63,76.33,1741929
21-Jun-13,82.50,82.55,74.30,76.63,3495027
20-Jun-13,84.36,84.50,80.71,82.16,1863880
19-Jun-13,88.40,88.40,86.02,86.03,672541
18-Jun-13,87.61,88.68,86.81,88.40,440972
17-Jun-13,86.51,89.24,86.51,87.38,887587
14-Jun-13,85.42,86.79,84.61,85.78,501190
13-Jun-13,81.69,85.96,81.69,85.28,695922
12-Jun-13,82.46,83.75,81.62,81.94,580380
11-Jun-13,82.14,83.37,81.10,82.11,399596
10-Jun-13,83.50,84.39,82.13,83.37,434987
7-Jun-13,82.53,84.21,82.01,83.40,770995
6-Jun-13,76.86,81.86,76.41,81.81,756240
5-Jun-13,78.14,79.90,76.62,77.05,798049
4-Jun-13,80.83,82.37,78.13,78.51,708330
3-Jun-13,82.22,82.55,77.89,80.96,989011
31-May-13,81.56,83.25,81.38,82.11,701362
30-May-13,83.76,84.85,82.00,82.31,620325
29-May-13,86.31,86.54,82.80,83.87,641009
28-May-13,88.91,89.36,85.61,86.74,702816
24-May-13,85.91,87.54,85.26,87.40,346464
23-May-13,86.84,86.92,80.65,86.03,950809
22-May-13,88.89,90.64,87.24,88.01,653191
21-May-13,88.70,89.47,87.06,89.05,507909
20-May-13,89.90,90.48,88.22,88.67,644537
17-May-13,87.97,89.94,87.80,89.91,553101
16-May-13,88.88,89.62,87.05,87.50,602866
15-May-13,89.63,90.51,88.77,89.11,630759
14-May-13,89.68,90.92,89.39,89.79,574634
13-May-13,88.62,89.99,88.01,89.28,747431
10-May-13,85.65,89.34,85.12,88.98,830058
9-May-13,84.25,85.98,84.05,85.22,500240
8-May-13,84.25,84.61,82.51,84.55,432357
7-May-13,84.35,84.74,82.77,84.20,607359
6-May-13,81.90,83.91,81.75,83.90,980806
3-May-13,81.60,82.68,81.15,81.90,588766
2-May-13,79.88,81.12,79.75,80.49,776598
1-May-13,81.91,81.96,79.47,79.69,1403500
30-Apr-13,81.91,82.75,81.70,81.96,647855
29-Apr-13,82.21,83.56,81.73,82.27,782293
26-Apr-13,81.29,83.12,80.61,82.63,800216
25-Apr-13,79.78,82.25,79.59,81.37,1361756
24-Apr-13,75.88,80.70,74.70,78.68,3053742
23-Apr-13,69.93,70.85,69.64,70.49,881014
22-Apr-13,67.39,69.42,66.54,69.15,680209
19-Apr-13,66.19,68.18,65.58,67.37,468096
18-Apr-13,66.54,67.13,64.92,65.86,647908
17-Apr-13,66.06,67.80,64.08,66.47,637583
16-Apr-13,65.78,67.23,65.63,66.87,433212
15-Apr-13,67.69,68.40,64.56,65.01,555331
12-Apr-13,68.71,69.57,67.67,68.24,277602
11-Apr-13,69.40,70.58,68.82,68.97,366449
10-Apr-13,68.29,69.27,67.51,69.06,317834
9-Apr-13,69.38,69.38,67.60,68.10,194745
8-Apr-13,68.10,69.10,67.21,69.05,338403
5-Apr-13,66.12,68.15,63.88,68.05,631571
4-Apr-13,66.74,68.11,66.01,67.74,426911
3-Apr-13,69.36,69.62,65.80,66.74,862444
2-Apr-13,68.92,70.25,68.76,69.42,409827
1-Apr-13,70.25,71.08,68.51,68.63,581600
28-Mar-13,69.46,70.68,69.46,70.22,373892
27-Mar-13,69.36,70.52,69.15,69.47,471968
26-Mar-13,70.12,71.72,69.46,69.78,990968
25-Mar-13,67.51,70.65,67.32,68.97,1301193
22-Mar-13,66.40,67.35,66.36,66.95,326446
21-Mar-13,67.43,67.87,65.31,66.17,432146
20-Mar-13,66.89,68.27,66.55,68.02,462557
19-Mar-13,67.08,67.29,65.70,66.46,340594
18-Mar-13,66.00,67.43,65.06,66.55,512766
15-Mar-13,67.28,67.80,66.38,66.85,1070971
14-Mar-13,67.39,67.93,67.01,67.56,349332
13-Mar-13,67.53,68.22,66.60,67.28,519708
12-Mar-13,67.30,68.28,67.03,67.28,742470
11-Mar-13,66.54,67.39,66.10,67.25,562897
8-Mar-13,65.22,66.87,64.30,66.53,967481
7-Mar-13,64.51,64.76,63.31,64.45,587982
6-Mar-13,64.42,66.47,64.42,64.62,926377
5-Mar-13,63.74,64.53,62.52,63.98,843355
4-Mar-13,60.10,63.94,60.10,63.38,1410244
1-Mar-13,58.79,60.94,58.28,60.70,553925
28-Feb-13,59.25,60.36,58.63,59.19,526056
27-Feb-13,57.25,59.64,57.10,59.24,661655
26-Feb-13,55.00,57.99,53.73,57.75,1553440
25-Feb-13,58.89,59.00,54.61,54.75,1138539
22-Feb-13,59.09,59.57,58.22,58.67,757709
21-Feb-13,63.00,63.01,56.67,58.84,1887377
20-Feb-13,64.05,65.48,62.55,62.56,1649907
19-Feb-13,62.47,62.77,60.35,62.43,1117169
15-Feb-13,64.06,64.64,62.05,62.19,815176
14-Feb-13,62.70,64.49,62.46,63.96,864322
13-Feb-13,62.25,63.08,62.17,62.94,592781
12-Feb-13,61.36,62.29,61.20,62.25,376384
11-Feb-13,60.54,61.32,60.37,61.12,533781
8-Feb-13,59.95,61.15,59.95,60.54,333546
7-Feb-13,58.91,60.46,58.91,59.94,418454
6-Feb-13,59.15,59.40,58.58,58.86,315791
5-Feb-13,57.91,59.55,57.63,59.47,484845
4-Feb-13,58.80,59.20,57.11,57.35,647714
1-Feb-13,59.68,60.40,58.77,58.94,586604
31-Jan-13,59.86,60.41,58.91,59.18,486914
30-Jan-13,58.67,60.23,58.60,59.71,967410
29-Jan-13,58.15,58.61,57.91,58.59,334191
28-Jan-13,58.44,60.00,57.90,58.24,806226
25-Jan-13,57.92,58.79,57.75,58.60,994318
24-Jan-13,56.26,59.48,56.00,57.48,1024334
23-Jan-13,56.48,56.70,55.21,56.26,478040
22-Jan-13,56.32,56.55,55.35,56.37,376115
18-Jan-13,56.50,57.39,55.79,56.08,642833
17-Jan-13,54.79,56.47,54.15,56.44,568900
16-Jan-13,55.08,55.10,53.97,54.40,453912
15-Jan-13,55.11,55.39,54.55,55.20,426097
14-Jan-13,56.69,56.82,55.14,55.33,450686
11-Jan-13,56.20,57.24,56.11,56.82,514090
10-Jan-13,55.54,56.57,54.92,56.27,464147
9-Jan-13,55.00,56.36,55.00,55.17,652110
8-Jan-13,53.22,54.89,52.78,54.76,459167
7-Jan-13,53.33,53.59,52.56,53.05,210530
4-Jan-13,53.09,53.75,52.84,53.49,215798
3-Jan-13,53.76,53.87,52.72,53.00,319562
2-Jan-13,54.46,55.20,53.05,53.55,610731
31-Dec-12,51.46,52.90,51.35,52.83,367621
28-Dec-12,50.42,52.23,50.24,51.57,443825
27-Dec-12,51.25,51.61,49.73,50.78,406364
26-Dec-12,51.42,52.46,51.01,51.33,459596
24-Dec-12,51.34,52.14,51.23,51.31,181376
21-Dec-12,51.25,51.46,50.60,51.46,601794
20-Dec-12,50.90,51.67,50.54,51.67,435339
19-Dec-12,51.56,51.85,50.77,51.01,458369
18-Dec-12,51.27,52.24,51.15,51.68,470635
17-Dec-12,48.89,51.08,48.76,51.08,787431
14-Dec-12,49.34,49.64,48.93,48.95,400929
13-Dec-12,49.40,50.11,49.32,49.56,306726
12-Dec-12,49.18,50.40,48.91,49.41,416852
11-Dec-12,50.50,50.50,48.60,49.00,728957
10-Dec-12,51.12,51.62,50.20,50.31,366802
7-Dec-12,52.04,52.19,50.57,51.11,309600
6-Dec-12,51.41,52.25,50.66,51.80,450530
5-Dec-12,52.65,52.65,50.23,51.53,676522
4-Dec-12,53.42,53.84,52.23,52.60,483704
3-Dec-12,53.74,54.53,53.10,53.16,360257
30-Nov-12,54.06,54.36,53.03,53.68,419448
29-Nov-12,53.36,53.99,52.95,53.86,358687
28-Nov-12,54.03,54.77,52.90,53.36,758821
27-Nov-12,54.37,55.50,53.85,54.14,253447
26-Nov-12,54.66,55.00,53.19,54.32,560420
23-Nov-12,54.97,55.04,54.47,54.77,129289
21-Nov-12,54.67,55.00,53.72,54.65,209858
20-Nov-12,54.43,55.45,54.03,54.57,337866
19-Nov-12,54.59,55.71,54.06,54.34,587734
16-Nov-12,51.45,54.24,50.89,53.69,795756
15-Nov-12,52.77,53.07,50.63,50.95,1016942
14-Nov-12,54.56,56.11,52.68,53.00,775518
13-Nov-12,52.60,54.71,51.71,53.90,955018
12-Nov-12,55.59,56.02,54.75,55.12,219315
9-Nov-12,55.66,55.75,54.56,55.21,599481
8-Nov-12,58.00,58.29,55.90,56.11,573812
7-Nov-12,57.09,58.44,57.00,58.04,1000163
6-Nov-12,56.63,57.67,56.63,57.47,489987
5-Nov-12,56.00,57.16,55.17,56.54,335807
2-Nov-12,57.84,58.50,55.78,56.09,1091399
1-Nov-12,56.14,57.62,56.09,57.59,684172
31-Oct-12,55.41,57.27,54.41,55.82,826721
26-Oct-12,53.50,54.84,52.50,53.17,509635
25-Oct-12,56.83,56.99,53.39,53.75,1066792
24-Oct-12,56.81,58.80,55.55,55.81,2917791
23-Oct-12,49.81,50.57,48.63,50.14,498705
22-Oct-12,50.66,50.79,49.22,50.43,588061
19-Oct-12,51.02,51.24,50.21,50.83,379239
18-Oct-12,51.43,51.94,50.69,51.28,284715
17-Oct-12,51.53,53.10,51.26,51.63,332229
16-Oct-12,50.30,51.80,50.30,51.31,379994
15-Oct-12,48.31,50.30,48.30,50.10,688221
12-Oct-12,48.89,49.00,47.89,48.14,320140
11-Oct-12,49.62,50.00,48.58,48.76,340326
10-Oct-12,49.53,50.25,49.06,49.14,363107
9-Oct-12,51.47,51.47,49.02,49.47,611575
8-Oct-12,50.50,51.86,50.50,51.48,540330
5-Oct-12,51.00,51.91,50.57,50.72,429853
4-Oct-12,50.19,50.94,49.98,50.74,542330
3-Oct-12,48.93,49.93,48.24,49.80,787968
2-Oct-12,48.71,49.67,47.31,48.51,2587816
1-Oct-12,51.18,51.74,50.78,51.20,469350
28-Sep-12,50.46,51.21,50.19,50.68,313378
27-Sep-12,50.58,50.99,50.19,50.54,508944
26-Sep-12,50.90,51.50,49.08,50.45,625319
25-Sep-12,52.20,52.57,50.75,50.88,550884
24-Sep-12,53.00,53.17,50.96,51.84,582660
21-Sep-12,52.41,53.00,52.12,52.98,1674203
20-Sep-12,51.15,51.95,50.66,51.85,328358
19-Sep-12,50.68,52.00,50.55,51.64,496539
18-Sep-12,51.66,51.85,49.91,50.75,821298
17-Sep-12,53.55,53.59,52.17,52.71,615973
14-Sep-12,50.99,54.00,50.95,53.73,969448
13-Sep-12,49.58,51.30,48.61,50.74,563541
12-Sep-12,48.41,49.68,48.41,49.60,365574
11-Sep-12,49.08,49.08,48.08,48.13,431465
10-Sep-12,49.05,49.35,48.56,48.86,279890
7-Sep-12,48.96,49.27,48.30,49.09,371152
6-Sep-12,48.80,49.43,48.16,49.17,471247
5-Sep-12,48.70,49.46,48.48,48.81,543878
4-Sep-12,46.66,49.26,46.66,48.73,679530
31-Aug-12,47.26,47.46,46.41,46.66,297999
30-Aug-12,46.98,47.08,46.77,46.91,364435
29-Aug-12,46.59,47.29,46.26,47.26,554641
28-Aug-12,46.32,46.70,46.05,46.41,398042
27-Aug-12,46.06,46.63,45.88,46.53,384223
24-Aug-12,44.32,45.97,44.28,45.80,554092
23-Aug-12,44.82,44.84,44.35,44.51,495204
22-Aug-12,45.55,45.64,44.62,44.84,547731
21-Aug-12,46.20,46.34,44.90,45.51,462694
20-Aug-12,46.80,47.28,45.86,46.10,504814
17-Aug-12,45.60,47.47,45.42,47.06,595577
16-Aug-12,44.71,45.85,44.37,45.58,467530
15-Aug-12,43.91,45.37,43.91,44.82,699611
14-Aug-12,44.27,44.98,43.33,43.75,572529
13-Aug-12,43.68,44.09,42.92,43.83,331933
10-Aug-12,44.01,44.10,43.14,43.81,371604
9-Aug-12,42.94,44.55,42.80,44.34,442081
8-Aug-12,42.95,43.49,42.37,43.04,240839
7-Aug-12,42.51,43.56,42.04,43.13,373836
6-Aug-12,42.15,42.95,42.00,42.04,400534
3-Aug-12,42.02,43.00,41.87,42.27,701346
2-Aug-12,41.79,42.52,41.62,42.13,827038
1-Aug-12,42.85,43.00,41.76,41.94,840316
31-Jul-12,43.40,43.40,42.22,42.29,822448
30-Jul-12,43.96,43.96,42.48,43.49,815920
27-Jul-12,42.86,44.73,42.50,44.09,820088
26-Jul-12,42.12,43.51,41.30,42.55,2017842
25-Jul-12,36.54,42.06,36.35,41.31,4711096
24-Jul-12,33.72,33.72,32.40,32.58,936244
23-Jul-12,33.38,34.08,32.62,33.64,400847
20-Jul-12,33.74,34.38,33.66,34.11,363295
19-Jul-12,33.82,34.36,33.02,34.10,493961
18-Jul-12,33.39,34.15,33.17,33.70,503018
17-Jul-12,33.96,34.21,33.29,33.46,784713
16-Jul-12,33.59,34.65,33.15,33.95,469754
13-Jul-12,33.25,34.71,33.25,33.74,516925
12-Jul-12,32.24,33.33,32.10,33.20,497280
11-Jul-12,32.79,32.85,32.16,32.54,471189
10-Jul-12,32.85,33.23,32.67,32.80,353397
9-Jul-12,32.51,32.98,32.18,32.58,385605
6-Jul-12,32.38,32.57,31.89,32.49,532528
5-Jul-12,32.76,33.64,32.69,32.87,373241
3-Jul-12,33.63,34.00,32.66,32.86,542694
2-Jul-12,33.01,34.56,33.01,34.42,1105567
29-Jun-12,33.07,34.25,32.82,33.79,562050
28-Jun-12,32.41,32.86,31.83,32.35,528824
27-Jun-12,32.32,32.82,31.95,32.82,427405
26-Jun-12,31.26,32.53,30.81,32.13,533689
25-Jun-12,30.60,31.41,30.10,31.17,381472
22-Jun-12,31.44,31.60,30.75,31.15,998808
21-Jun-12,33.40,33.47,31.12,31.24,768815
20-Jun-12,32.89,33.69,32.63,33.33,579354
19-Jun-12,31.77,33.38,31.76,33.10,827142
18-Jun-12,30.19,31.71,30.00,31.62,574879
15-Jun-12,30.43,30.60,29.99,30.42,1484083
14-Jun-12,29.81,30.52,29.55,30.42,599370
13-Jun-12,30.39,30.71,29.64,29.82,512040
12-Jun-12,29.99,30.81,29.85,30.51,617385
11-Jun-12,30.71,30.71,29.51,29.53,365059
8-Jun-12,29.39,30.58,29.01,30.26,535812
7-Jun-12,29.47,30.08,29.21,29.47,478860
6-Jun-12,28.53,30.07,28.53,29.13,682433
5-Jun-12,27.62,28.41,27.57,28.14,465989
4-Jun-12,27.60,27.84,26.52,27.81,808500
1-Jun-12,28.09,28.62,27.50,27.58,617066
31-May-12,29.33,29.44,28.41,29.09,486615
30-May-12,29.64,29.67,29.00,29.40,269913
29-May-12,30.00,30.50,29.68,29.98,567136
25-May-12,29.52,29.98,29.46,29.84,345558
24-May-12,29.08,29.78,28.85,29.48,426831
23-May-12,28.42,29.10,27.64,28.98,501997
22-May-12,28.34,29.13,28.34,28.60,246211
21-May-12,28.04,28.54,27.37,28.27,411625
18-May-12,28.17,28.44,27.52,28.04,472535
17-May-12,29.44,29.55,27.81,28.16,484404
16-May-12,29.20,30.12,29.08,29.55,826711
15-May-12,27.77,29.34,27.57,28.61,468327
14-May-12,28.56,28.83,27.85,27.88,374280
11-May-12,28.38,29.15,28.33,28.91,367295
10-May-12,28.80,29.00,28.57,28.75,463311
9-May-12,28.18,28.80,27.46,28.54,546139
8-May-12,27.90,28.21,26.90,28.16,694450
7-May-12,28.05,28.80,28.04,28.13,521054
4-May-12,28.10,28.57,27.78,28.03,598132
3-May-12,29.09,29.19,27.91,28.33,575422
2-May-12,29.06,29.35,28.66,29.20,946958
1-May-12,28.84,29.49,28.81,29.17,1061545
30-Apr-12,28.76,29.07,28.43,28.93,1146435
27-Apr-12,27.45,28.84,27.32,28.80,1249997
26-Apr-12,25.29,27.48,25.29,27.48,1740894
25-Apr-12,25.72,25.99,24.32,25.03,1611490
24-Apr-12,23.55,23.93,23.06,23.47,746624
23-Apr-12,23.59,23.93,23.45,23.58,609458
20-Apr-12,24.71,24.71,23.33,23.93,1095628
19-Apr-12,25.62,25.64,24.78,25.11,444508
18-Apr-12,25.54,25.74,25.35,25.55,346138
17-Apr-12,24.23,25.71,24.04,25.64,1288876
16-Apr-12,24.27,24.51,23.64,23.95,1118537
13-Apr-12,23.99,24.30,23.90,24.07,502519
12-Apr-12,24.03,24.46,23.91,24.18,439391
11-Apr-12,23.89,24.29,23.88,24.00,551423
10-Apr-12,24.72,24.94,23.39,23.62,1203563
9-Apr-12,24.52,24.87,24.36,24.73,365935
5-Apr-12,24.59,25.12,24.51,25.01,350065
4-Apr-12,24.65,24.83,24.38,24.74,344213
3-Apr-12,24.83,25.19,24.78,24.94,296800
2-Apr-12,24.46,24.84,24.10,24.84,558481
30-Mar-12,25.27,25.27,24.93,25.11,226853
29-Mar-12,24.92,25.19,24.73,25.10,172861
28-Mar-12,25.15,25.25,24.72,25.17,202336
27-Mar-12,25.05,25.50,25.05,25.16,321905
26-Mar-12,24.37,25.26,24.16,25.00,364230
23-Mar-12,24.28,24.42,23.55,24.30,714736
22-Mar-12,23.92,24.57,23.92,24.35,477145
21-Mar-12,24.44,24.75,24.14,24.20,447022
20-Mar-12,24.24,24.65,24.00,24.43,280263
19-Mar-12,23.91,24.45,23.60,24.33,212338
16-Mar-12,24.48,24.48,23.77,23.96,469748
15-Mar-12,23.91,24.42,23.60,24.41,250530
14-Mar-12,24.23,24.31,23.81,23.97,240918
13-Mar-12,24.20,24.33,23.71,24.33,352354
12-Mar-12,24.00,24.25,23.63,24.04,416603
9-Mar-12,23.45,24.23,23.14,24.01,622883
8-Mar-12,23.24,23.49,23.00,23.46,324125
7-Mar-12,21.99,23.56,21.92,23.06,1067193
6-Mar-12,22.00,22.12,21.89,21.92,448070
5-Mar-12,21.80,22.38,21.80,22.30,631977
2-Mar-12,22.13,22.64,21.79,21.84,401570
1-Mar-12,22.22,22.54,21.99,22.16,791821
29-Feb-12,22.02,22.39,21.66,21.89,696818
28-Feb-12,21.52,22.41,21.52,21.89,1153940
27-Feb-12,20.88,21.60,20.80,21.40,774026
24-Feb-12,20.58,21.28,20.58,21.07,994450
23-Feb-12,20.03,20.69,19.61,20.56,1282501
22-Feb-12,20.06,20.39,18.65,19.17,2513589
21-Feb-12,21.93,22.16,21.37,21.53,428691
17-Feb-12,21.57,22.08,21.57,21.70,323085
16-Feb-12,20.85,21.79,20.81,21.46,609833
15-Feb-12,21.20,21.33,20.80,20.88,393657
14-Feb-12,21.20,21.44,20.12,21.16,1017178
13-Feb-12,22.35,22.45,22.03,22.15,262470
10-Feb-12,22.30,22.30,21.91,22.10,263269
9-Feb-12,22.29,22.65,22.24,22.50,280552
8-Feb-12,22.53,22.69,21.85,22.20,320294
7-Feb-12,22.40,22.68,22.25,22.55,201298
6-Feb-12,22.35,22.64,22.25,22.44,173931
3-Feb-12,22.39,22.85,22.28,22.38,427817
2-Feb-12,22.00,22.23,21.98,22.14,256775
1-Feb-12,21.50,21.99,21.38,21.90,268700
31-Jan-12,21.82,21.89,21.18,21.36,333227
30-Jan-12,21.66,21.86,21.27,21.70,281555
27-Jan-12,21.87,21.96,21.52,21.88,311251
26-Jan-12,21.93,22.20,21.61,21.87,340353
25-Jan-12,21.35,21.87,20.81,21.84,529140
24-Jan-12,20.46,21.51,20.27,21.36,293321
23-Jan-12,20.40,20.55,20.28,20.51,247913
20-Jan-12,20.26,20.57,19.97,20.42,233886
19-Jan-12,20.59,21.13,20.17,20.31,582956
18-Jan-12,19.90,20.65,19.60,20.57,553172
17-Jan-12,19.10,20.32,19.06,19.94,694243
13-Jan-12,18.94,19.07,18.62,18.87,226258
12-Jan-12,18.86,19.20,18.74,19.17,253027
11-Jan-12,18.80,19.00,18.55,18.79,266695
10-Jan-12,18.95,18.97,18.54,18.78,183406
9-Jan-12,18.61,18.80,18.42,18.67,209881
6-Jan-12,18.16,18.81,18.02,18.54,256251
5-Jan-12,17.95,18.68,17.58,18.21,276215
4-Jan-12,17.34,18.13,17.22,17.98,286384
3-Jan-12,17.88,18.10,17.32,17.38,490437
30-Dec-11,17.67,18.00,17.62,17.66,226857
29-Dec-11,17.25,17.84,17.25,17.80,242276
28-Dec-11,17.37,17.47,17.07,17.16,160553
27-Dec-11,17.58,17.58,17.19,17.36,147497
23-Dec-11,17.71,17.90,17.60,17.67,167129
22-Dec-11,17.57,17.71,17.47,17.64,268567
21-Dec-11,17.19,17.61,16.94,17.52,265487
20-Dec-11,16.04,17.25,16.04,17.19,492047
19-Dec-11,15.73,16.14,15.51,15.61,343490
16-Dec-11,16.18,16.33,15.59,15.68,1350786
15-Dec-11,16.01,16.33,15.93,16.07,276170
14-Dec-11,16.41,16.52,15.82,15.84,330207
13-Dec-11,17.13,17.38,16.39,16.43,272776
12-Dec-11,16.99,17.06,16.51,17.03,340931
9-Dec-11,16.73,17.39,16.70,17.09,466812
8-Dec-11,17.22,17.40,16.44,16.56,425664
7-Dec-11,17.17,17.54,17.07,17.34,281188
6-Dec-11,17.51,17.59,17.16,17.17,319079
5-Dec-11,17.31,17.90,17.02,17.47,553476
2-Dec-11,16.90,17.18,16.84,17.00,375466
1-Dec-11,16.93,17.05,16.50,16.76,272659
30-Nov-11,16.53,16.94,16.11,16.94,381731
29-Nov-11,15.85,16.09,15.31,15.96,725396
28-Nov-11,15.82,15.98,15.70,15.83,433797
25-Nov-11,15.26,15.71,15.25,15.26,131607
23-Nov-11,15.34,15.56,15.22,15.29,274633
22-Nov-11,15.80,16.05,15.40,15.45,229255
21-Nov-11,16.60,16.60,15.61,15.85,498605
18-Nov-11,16.79,17.00,16.61,16.86,393892
17-Nov-11,16.86,17.20,16.63,16.75,257142
16-Nov-11,16.83,17.25,16.83,16.90,239724
15-Nov-11,17.14,17.23,16.86,16.98,397446
14-Nov-11,17.20,17.26,16.78,16.92,527901
11-Nov-11,17.33,17.65,17.18,17.22,461251
10-Nov-11,17.27,17.34,16.91,17.09,326619
9-Nov-11,17.10,17.58,16.94,17.09,522840
8-Nov-11,16.79,17.61,16.65,17.51,912551
7-Nov-11,16.82,17.05,16.47,16.66,774918
4-Nov-11,15.46,16.14,15.35,16.02,738641
3-Nov-11,15.59,15.69,14.91,15.61,559050
2-Nov-11,15.00,15.48,14.86,15.35,483792
1-Nov-11,14.50,14.90,14.24,14.73,887905
31-Oct-11,15.14,15.29,14.96,14.97,496146
28-Oct-11,15.09,15.75,15.01,15.33,523207
27-Oct-11,17.13,17.48,15.16,15.61,1295685
26-Oct-11,16.80,16.82,16.14,16.68,380941
25-Oct-11,17.02,17.04,16.23,16.52,417278
24-Oct-11,16.87,17.47,16.69,17.14,645239
21-Oct-11,16.69,16.85,16.52,16.85,445676
20-Oct-11,16.73,16.75,16.05,16.38,449281
19-Oct-11,16.77,17.05,16.44,16.69,395332
18-Oct-11,16.40,16.98,16.18,16.80,439826
17-Oct-11,16.50,16.69,16.29,16.38,281280
14-Oct-11,16.65,16.86,16.34,16.67,429268
13-Oct-11,16.89,16.93,16.16,16.45,374563
12-Oct-11,16.89,17.45,16.82,17.00,426730
11-Oct-11,16.24,16.98,16.11,16.80,364371
10-Oct-11,15.86,16.44,15.79,16.31,323179
7-Oct-11,15.54,16.12,15.48,15.51,478929
6-Oct-11,15.03,15.64,14.96,15.44,458982
5-Oct-11,14.95,15.21,14.68,15.12,564552
4-Oct-11,14.24,15.02,13.82,14.96,989243
3-Oct-11,14.97,15.11,14.38,14.44,533576
30-Sep-11,15.15,16.14,15.08,15.10,635064
29-Sep-11,15.91,16.04,14.92,15.62,411278
28-Sep-11,16.00,16.16,15.49,15.54,199390
27-Sep-11,16.84,16.84,15.86,16.01,505922
26-Sep-11,15.82,16.35,15.63,16.29,428219
23-Sep-11,14.95,15.74,14.95,15.49,588816
22-Sep-11,14.80,15.35,14.60,14.95,514698
21-Sep-11,15.97,16.26,15.40,15.43,206959
20-Sep-11,16.18,16.68,15.73,15.95,398197
19-Sep-11,16.34,16.63,15.66,15.96,368166
16-Sep-11,16.48,16.76,16.06,16.60,1258233
15-Sep-11,15.76,16.55,15.68,16.46,491513
14-Sep-11,15.56,15.79,15.21,15.60,245180
13-Sep-11,15.17,15.55,14.98,15.37,355625
12-Sep-11,14.07,15.07,14.00,15.07,334626
9-Sep-11,14.51,14.65,14.05,14.29,250668
8-Sep-11,14.90,15.39,14.55,14.64,259783
7-Sep-11,14.15,15.26,14.07,14.98,531895
6-Sep-11,13.47,14.00,13.43,13.94,342009
2-Sep-11,14.59,14.86,13.70,13.87,598247
1-Sep-11,15.17,15.35,14.97,15.02,557080
31-Aug-11,15.63,15.83,14.93,15.14,348446
30-Aug-11,15.23,15.78,15.23,15.59,267966
29-Aug-11,14.83,15.39,14.83,15.39,253241
26-Aug-11,14.17,14.73,14.00,14.62,273529
25-Aug-11,14.91,15.00,14.26,14.27,327546
24-Aug-11,14.62,15.15,14.46,14.81,304616
23-Aug-11,14.40,14.85,14.21,14.85,320059
22-Aug-11,14.49,14.64,14.11,14.36,302422
19-Aug-11,14.25,14.92,13.95,14.15,533088
18-Aug-11,14.82,14.90,14.18,14.33,607315
17-Aug-11,15.46,15.58,14.93,15.32,239994
16-Aug-11,15.60,15.71,15.25,15.41,326207
15-Aug-11,15.13,15.77,15.13,15.74,456710
12-Aug-11,15.98,16.02,14.97,15.07,404636
11-Aug-11,14.33,15.74,14.30,15.42,767354
10-Aug-11,14.87,14.89,14.08,14.15,796767
9-Aug-11,14.25,14.97,13.70,14.92,1082470
8-Aug-11,14.85,14.98,13.75,13.98,1702445
5-Aug-11,15.49,15.49,14.66,15.25,1399801
4-Aug-11,15.97,16.00,14.83,14.83,1141839
3-Aug-11,16.03,16.26,15.61,16.04,804330
2-Aug-11,16.29,16.57,15.77,16.05,1165969
1-Aug-11,16.24,16.39,15.35,15.52,647058
29-Jul-11,15.36,15.76,15.11,15.71,442863
28-Jul-11,15.80,16.29,15.51,15.56,607538
27-Jul-11,16.34,16.43,15.51,15.62,1089601
26-Jul-11,17.15,17.57,16.15,16.36,1000359
25-Jul-11,16.90,17.25,16.88,17.08,729420
22-Jul-11,17.24,17.30,16.91,16.92,367619
21-Jul-11,16.88,17.24,16.88,17.10,647952
20-Jul-11,17.15,17.20,16.72,16.75,567085
19-Jul-11,17.20,17.43,16.83,17.04,594316
18-Jul-11,17.25,17.29,16.78,17.02,398108
15-Jul-11,17.60,17.76,17.18,17.23,1003751
14-Jul-11,17.82,17.93,17.39,17.49,1193570
13-Jul-11,18.01,18.33,17.64,17.73,1059073
12-Jul-11,17.99,18.10,17.65,17.80,1093328
11-Jul-11,18.63,18.74,17.84,17.96,1333017
8-Jul-11,18.50,18.88,18.42,18.60,2961013
7-Jul-11,21.15,21.20,18.20,18.32,9262410
6-Jul-11,25.80,25.92,25.44,25.64,196629
5-Jul-11,26.03,26.03,25.52,25.77,235507
1-Jul-11,25.55,26.10,25.40,26.06,312457
30-Jun-11,25.68,25.86,25.25,25.40,422266
29-Jun-11,25.95,26.00,25.46,25.62,192703
28-Jun-11,25.88,25.91,25.71,25.85,175032
27-Jun-11,25.68,26.06,25.53,25.85,239475
24-Jun-11,25.71,25.98,25.42,25.75,405084
23-Jun-11,24.79,25.74,24.58,25.72,652514
22-Jun-11,24.38,24.70,24.18,24.38,277501
21-Jun-11,24.03,24.71,24.03,24.49,283683
20-Jun-11,23.45,23.87,23.31,23.81,249698
17-Jun-11,23.64,24.02,23.41,23.43,471106
16-Jun-11,23.59,23.92,23.12,23.46,230093
15-Jun-11,23.59,23.91,23.45,23.56,380517
14-Jun-11,23.30,23.88,23.20,23.82,326423
13-Jun-11,22.66,23.26,22.66,23.08,284257
10-Jun-11,23.29,23.36,22.41,22.60,428174
9-Jun-11,23.43,23.88,23.29,23.31,382947
8-Jun-11,23.77,23.88,23.31,23.32,331618
7-Jun-11,24.22,24.51,23.78,23.80,227503
6-Jun-11,24.66,24.82,23.95,24.05,592343
3-Jun-11,25.28,25.43,24.70,24.73,335102
2-Jun-11,26.32,26.37,25.51,25.55,351042
1-Jun-11,26.85,26.91,26.23,26.30,478655
31-May-11,26.53,27.00,26.48,26.97,425265
27-May-11,26.11,26.28,25.94,26.23,303234
26-May-11,26.20,26.52,25.92,25.98,607356
25-May-11,25.65,26.34,25.61,26.26,347153
24-May-11,26.04,26.04,25.53,25.63,209036
23-May-11,25.63,26.24,25.63,25.89,462683
20-May-11,26.03,26.31,25.80,25.92,186034
19-May-11,26.37,26.37,25.86,26.12,189137
18-May-11,25.72,26.28,25.60,26.16,227356
17-May-11,25.52,25.95,25.50,25.57,224809
16-May-11,26.24,26.49,25.51,25.52,486162
13-May-11,26.53,26.70,26.17,26.27,287850
12-May-11,26.35,26.60,26.10,26.43,299782
11-May-11,26.12,26.46,25.60,26.29,578570
10-May-11,25.93,26.27,25.77,26.21,176444
9-May-11,25.50,26.05,25.27,25.88,181364
6-May-11,25.53,25.99,25.39,25.49,571316
5-May-11,25.12,25.62,25.00,25.38,264981
4-May-11,25.74,25.74,25.00,25.31,184638
3-May-11,26.00,26.00,25.58,25.69,258888
2-May-11,25.96,26.21,25.75,26.04,813688
29-Apr-11,25.12,25.96,24.97,25.95,468090
28-Apr-11,24.37,25.09,24.27,25.06,504246
27-Apr-11,23.94,25.17,23.48,24.47,946800
26-Apr-11,23.80,24.06,23.35,23.83,358456
25-Apr-11,23.94,24.04,23.39,23.76,321260
21-Apr-11,24.17,24.17,23.75,24.06,201234
20-Apr-11,22.99,24.22,22.97,24.03,652022
19-Apr-11,23.85,24.23,23.66,23.81,235370
18-Apr-11,23.56,24.01,23.52,23.80,317051
15-Apr-11,23.07,24.10,22.74,23.93,1491162
14-Apr-11,23.00,23.00,22.16,22.40,744977
13-Apr-11,23.51,23.52,22.90,23.17,502771
12-Apr-11,23.77,23.88,23.35,23.37,394503
11-Apr-11,24.24,24.40,23.70,23.90,186812
8-Apr-11,24.74,24.74,24.20,24.28,141400
7-Apr-11,24.82,25.12,24.68,24.71,139014
6-Apr-11,24.48,24.84,24.41,24.76,182105
5-Apr-11,24.27,24.75,24.21,24.35,237237
4-Apr-11,24.80,24.80,24.04,24.38,155494
1-Apr-11,25.11,25.15,24.39,24.69,161737
31-Mar-11,24.99,25.14,24.55,24.99,208343
30-Mar-11,25.00,25.07,24.78,25.00,188303
29-Mar-11,24.76,25.28,24.65,24.90,167318
28-Mar-11,24.91,25.00,24.40,24.78,234455
25-Mar-11,24.50,25.00,24.29,24.89,183777
24-Mar-11,24.99,25.00,24.29,24.54,228006
23-Mar-11,23.69,24.90,23.53,24.80,453854
22-Mar-11,23.75,24.39,23.52,23.79,368038
21-Mar-11,23.80,23.94,23.41,23.69,333031
18-Mar-11,24.07,24.36,23.46,23.63,1963837
17-Mar-11,24.87,24.87,23.58,23.88,413748
16-Mar-11,24.41,25.09,24.14,24.51,590282
15-Mar-11,23.62,24.57,22.65,24.52,482758
14-Mar-11,23.06,24.36,22.27,24.25,449181
11-Mar-11,23.42,23.56,23.05,23.39,305952
10-Mar-11,23.12,23.54,22.82,23.42,356493
9-Mar-11,23.40,23.67,23.24,23.43,187059
8-Mar-11,22.75,23.53,22.60,23.49,349699
7-Mar-11,23.64,23.71,22.65,22.76,421923
4-Mar-11,23.52,23.88,23.27,23.56,219777
3-Mar-11,23.12,23.49,23.04,23.49,337122
2-Mar-11,22.76,23.19,22.59,22.97,289235
1-Mar-11,23.51,23.86,22.79,22.81,457024
28-Feb-11,23.75,24.07,23.20,23.28,489959
25-Feb-11,23.96,24.18,23.52,23.77,432452
24-Feb-11,24.43,24.44,23.78,23.95,880458
23-Feb-11,25.93,25.93,24.25,24.44,1630162
22-Feb-11,28.43,28.75,27.26,27.34,354339
18-Feb-11,28.75,28.82,28.52,28.66,153633
17-Feb-11,28.04,28.96,28.02,28.73,183735
16-Feb-11,28.19,28.40,28.01,28.14,145624
15-Feb-11,28.21,28.51,28.14,28.15,128230
14-Feb-11,28.42,28.51,28.20,28.28,62334
11-Feb-11,27.68,28.35,27.62,28.32,124906
10-Feb-11,27.92,28.18,27.65,27.75,143970
9-Feb-11,27.76,28.07,27.61,28.01,175187
8-Feb-11,27.84,27.95,27.56,27.89,165791
7-Feb-11,27.74,28.11,27.73,27.91,131993
4-Feb-11,27.70,27.97,27.45,27.65,92662
3-Feb-11,27.42,27.77,27.14,27.74,250161
2-Feb-11,28.53,28.57,27.39,27.50,208421
1-Feb-11,28.14,28.90,28.14,28.58,392434
31-Jan-11,27.75,28.23,27.58,27.94,280126
28-Jan-11,28.10,28.12,27.59,27.67,380617
27-Jan-11,27.25,28.24,27.19,28.19,272092
26-Jan-11,26.44,27.35,26.31,27.29,249360
25-Jan-11,25.87,26.32,25.73,26.28,329523
24-Jan-11,26.14,26.26,25.85,25.98,782911
21-Jan-11,26.03,26.26,25.98,26.11,159577
20-Jan-11,25.64,26.21,25.64,25.86,144540
19-Jan-11,26.77,26.77,25.60,25.79,204906
18-Jan-11,26.76,26.76,26.36,26.71,127811
14-Jan-11,26.45,26.75,26.14,26.73,219891
13-Jan-11,26.57,26.63,26.24,26.38,113916
12-Jan-11,26.25,26.92,26.21,26.53,228509
11-Jan-11,25.95,26.22,25.77,26.08,142958
10-Jan-11,25.60,25.98,25.45,25.75,110948
7-Jan-11,25.72,25.90,25.23,25.66,167656
6-Jan-11,26.09,26.17,25.52,25.62,284464
5-Jan-11,25.07,26.84,25.07,26.01,1510883
4-Jan-11,25.05,25.28,24.33,24.37,291058
3-Jan-11,25.55,25.71,25.01,25.07,442838
31-Dec-10,24.84,25.07,24.70,24.91,210049
30-Dec-10,24.53,24.94,24.47,24.83,151893
29-Dec-10,24.51,25.04,24.45,24.58,328468
28-Dec-10,24.15,24.55,24.15,24.44,284842
27-Dec-10,24.43,24.51,24.20,24.40,225725
23-Dec-10,24.40,24.67,24.15,24.53,110153
22-Dec-10,24.83,24.83,24.35,24.38,97987
21-Dec-10,24.52,25.12,24.52,24.75,319401
20-Dec-10,24.37,24.59,24.35,24.37,164718
17-Dec-10,24.26,24.40,24.08,24.37,271161
16-Dec-10,23.87,24.32,23.80,24.17,221003
15-Dec-10,23.12,24.15,23.12,23.85,379460
14-Dec-10,23.03,23.24,22.83,23.21,538012
13-Dec-10,23.58,23.67,23.02,23.03,263713
10-Dec-10,23.99,23.99,23.23,23.52,449568
9-Dec-10,24.37,24.48,23.74,23.99,343898
8-Dec-10,25.30,25.45,24.00,24.20,963525
7-Dec-10,26.06,26.10,25.18,25.25,596471
6-Dec-10,25.02,25.97,25.01,25.88,430440
3-Dec-10,24.62,25.19,24.48,25.08,505884
2-Dec-10,24.17,25.05,24.06,24.78,563186
1-Dec-10,23.88,24.27,23.58,24.19,457989
30-Nov-10,22.95,23.60,22.62,23.54,414957
29-Nov-10,23.27,23.52,22.72,23.22,435394
26-Nov-10,23.41,23.78,23.29,23.42,147215
24-Nov-10,22.69,23.63,22.62,23.62,342867
23-Nov-10,21.95,22.60,21.85,22.56,356926
22-Nov-10,21.79,22.27,21.56,22.27,306795
19-Nov-10,21.74,22.15,21.74,21.91,198266
18-Nov-10,21.82,22.43,21.82,22.19,310476
17-Nov-10,21.28,21.60,21.21,21.58,271536
16-Nov-10,21.46,21.81,21.09,21.19,560874
15-Nov-10,22.00,22.01,21.42,21.62,268772
12-Nov-10,21.84,22.18,21.81,21.83,333828
11-Nov-10,21.90,22.33,21.80,22.07,237499
10-Nov-10,21.89,22.21,21.78,22.12,321975
9-Nov-10,21.81,22.00,21.71,21.88,627309
8-Nov-10,21.91,21.99,21.56,21.78,544260
5-Nov-10,21.81,22.23,21.30,21.94,1315200
4-Nov-10,22.16,22.59,21.34,21.51,3476084
3-Nov-10,24.00,25.07,23.95,24.89,385725
2-Nov-10,23.71,24.10,23.42,23.95,267806
1-Nov-10,24.16,24.25,23.22,23.36,210402
29-Oct-10,23.83,24.25,23.63,24.08,128508
28-Oct-10,24.31,24.43,23.68,23.92,140284
27-Oct-10,24.35,24.35,23.44,24.14,231224
26-Oct-10,24.59,24.81,24.35,24.47,193624
25-Oct-10,24.56,24.79,24.47,24.66,180787
22-Oct-10,24.23,24.48,24.11,24.47,212996
21-Oct-10,24.28,24.73,23.63,24.11,353567
20-Oct-10,24.12,24.43,24.03,24.14,168256
19-Oct-10,24.36,24.68,23.75,24.06,333675
18-Oct-10,24.83,24.94,24.63,24.70,450563
15-Oct-10,26.38,26.50,24.57,24.73,777735
14-Oct-10,26.35,26.35,25.67,26.08,274088
13-Oct-10,26.99,26.99,26.44,26.51,251350
12-Oct-10,26.25,27.05,25.95,26.89,429062
11-Oct-10,25.01,26.84,24.99,26.30,653233
8-Oct-10,24.28,25.05,24.20,24.80,254276
7-Oct-10,24.61,24.75,24.17,24.30,275195
6-Oct-10,24.68,24.68,24.16,24.40,275527
5-Oct-10,24.60,24.91,24.36,24.79,204725
4-Oct-10,24.40,24.54,23.90,24.27,192161
1-Oct-10,24.88,24.99,24.12,24.44,336337
30-Sep-10,24.68,24.78,24.31,24.57,277485
29-Sep-10,24.33,24.82,24.28,24.67,145794
28-Sep-10,24.74,24.74,24.00,24.48,214565
27-Sep-10,24.50,24.77,24.31,24.73,185352
24-Sep-10,23.40,24.33,23.40,24.32,192985
23-Sep-10,23.72,24.06,22.78,23.06,423044
22-Sep-10,23.91,24.19,23.54,24.01,264003
21-Sep-10,24.07,24.62,23.90,24.08,313267
20-Sep-10,23.24,24.04,22.93,24.02,208149
17-Sep-10,23.21,23.31,22.55,23.22,894464
16-Sep-10,22.90,23.04,22.66,22.96,194419
15-Sep-10,23.02,23.10,22.72,22.95,230938
14-Sep-10,22.86,23.39,22.75,23.17,366325
13-Sep-10,22.79,23.33,22.54,22.88,468042
10-Sep-10,22.61,22.78,22.42,22.65,271540
9-Sep-10,22.90,22.96,22.40,22.48,180700
8-Sep-10,22.63,22.93,22.47,22.54,202022
7-Sep-10,23.17,23.23,22.55,22.64,355275
3-Sep-10,22.70,23.35,22.41,23.27,300080
2-Sep-10,21.29,22.53,21.29,22.37,311814
1-Sep-10,20.40,21.50,20.21,21.45,454746
31-Aug-10,20.06,20.40,20.00,20.07,304778
30-Aug-10,20.60,20.65,20.18,20.26,281845
27-Aug-10,20.23,20.74,19.86,20.70,369160
26-Aug-10,20.22,20.36,19.98,19.99,356146
25-Aug-10,19.59,20.20,19.33,20.09,575482
24-Aug-10,20.21,20.21,19.56,19.68,865313
23-Aug-10,20.88,21.05,20.39,20.45,359689
20-Aug-10,20.13,20.78,20.11,20.77,381420
19-Aug-10,21.39,21.39,20.10,20.27,509291
18-Aug-10,21.56,21.75,21.22,21.40,264139
17-Aug-10,21.38,22.28,21.37,21.56,472042
16-Aug-10,20.69,21.32,20.55,21.21,317096
13-Aug-10,21.44,21.69,20.70,20.74,510116
12-Aug-10,21.50,21.68,21.12,21.56,500772
11-Aug-10,22.38,22.54,21.86,21.94,349306
10-Aug-10,23.08,23.26,22.65,22.87,236921
9-Aug-10,23.94,24.02,23.36,23.41,455813
6-Aug-10,23.28,24.00,23.06,23.86,516796
5-Aug-10,23.09,23.78,22.77,23.69,645383
4-Aug-10,22.85,23.37,21.43,23.33,2219171
3-Aug-10,24.90,25.28,24.26,24.59,287662
2-Aug-10,25.15,25.49,24.86,25.06,313861
30-Jul-10,24.36,25.04,23.93,24.82,201514
29-Jul-10,24.19,24.94,24.02,24.76,470457
28-Jul-10,23.75,24.05,23.48,23.92,578054
27-Jul-10,24.20,24.43,23.75,23.80,242153
26-Jul-10,23.40,24.15,23.18,24.10,181650
23-Jul-10,22.79,23.53,22.41,23.24,129368
22-Jul-10,21.82,22.96,21.78,22.85,299540
21-Jul-10,22.02,22.18,21.34,21.47,262120
20-Jul-10,21.39,21.83,21.25,21.81,439297
19-Jul-10,21.89,22.12,21.50,21.75,457489
16-Jul-10,23.28,23.28,21.75,21.80,200836
15-Jul-10,23.69,23.69,23.00,23.51,289309
14-Jul-10,23.53,24.19,23.28,23.66,228108
13-Jul-10,23.16,23.91,22.90,23.68,273737
12-Jul-10,22.86,23.15,22.32,22.87,203541
9-Jul-10,22.55,23.01,22.44,23.00,137831
8-Jul-10,23.15,23.36,22.31,22.55,261704
7-Jul-10,21.57,22.79,21.43,22.73,593758
6-Jul-10,22.96,23.24,21.50,21.58,349180
2-Jul-10,23.11,23.34,22.35,22.60,187057
1-Jul-10,23.40,23.43,21.95,23.13,629371
30-Jun-10,23.37,23.90,22.97,23.33,243238
29-Jun-10,23.96,24.14,23.18,23.44,340555
28-Jun-10,24.72,25.11,24.22,24.43,355054
25-Jun-10,24.00,25.08,23.63,24.74,1351316
24-Jun-10,25.21,25.25,24.01,24.01,947224
23-Jun-10,25.64,25.85,25.25,25.45,428782
22-Jun-10,26.48,26.80,25.69,25.75,474173
21-Jun-10,27.50,27.62,26.28,26.47,341467
18-Jun-10,27.29,27.75,27.07,27.18,249576
17-Jun-10,27.61,27.61,26.87,27.17,264809
16-Jun-10,27.10,27.81,26.98,27.52,183216
15-Jun-10,27.68,28.18,26.83,27.41,372222
14-Jun-10,27.92,28.57,27.38,27.63,292066
11-Jun-10,27.00,27.42,26.65,27.42,303808
10-Jun-10,27.00,27.40,26.68,27.25,437722
9-Jun-10,27.32,27.34,25.72,26.35,607231
8-Jun-10,27.90,28.23,26.58,27.00,662334
7-Jun-10,27.81,28.32,27.40,27.83,281928
4-Jun-10,29.60,29.60,27.65,27.82,372808
3-Jun-10,29.38,30.39,29.29,30.07,387402
2-Jun-10,28.66,29.27,27.84,29.25,243194
1-Jun-10,29.19,29.44,28.62,28.66,213801
28-May-10,29.81,29.96,29.12,29.51,381556
27-May-10,29.32,29.84,28.93,29.80,164843
26-May-10,28.06,29.39,27.92,28.69,271979
25-May-10,27.41,27.98,26.86,27.92,267031
24-May-10,28.39,28.63,27.96,28.17,143873
21-May-10,26.46,28.62,26.06,28.34,325835
20-May-10,28.04,28.05,26.83,26.90,259398
19-May-10,29.10,29.78,28.18,28.63,249940
18-May-10,30.22,30.67,29.21,29.33,262904
17-May-10,29.82,30.26,28.92,29.80,329857
14-May-10,30.16,30.16,29.15,29.73,297776
13-May-10,31.24,31.99,30.06,30.38,228315
12-May-10,30.33,31.40,30.23,31.25,312971
11-May-10,29.14,30.82,29.00,30.14,289525
10-May-10,29.38,29.68,29.00,29.47,382022
7-May-10,28.11,28.92,27.19,28.02,343799
6-May-10,29.45,29.99,26.66,28.09,702554
5-May-10,29.98,30.55,29.03,29.68,288686
4-May-10,31.32,31.32,29.98,30.07,360270
3-May-10,30.58,31.91,30.24,31.52,459628
30-Apr-10,31.42,31.72,30.44,30.46,278543
29-Apr-10,31.15,31.57,30.54,31.23,334155
28-Apr-10,29.98,31.15,28.64,30.74,1361278
27-Apr-10,31.81,31.81,29.96,30.60,913355
26-Apr-10,32.05,33.41,31.70,31.87,1039141
23-Apr-10,30.72,32.17,30.72,31.99,490987
22-Apr-10,29.74,30.92,29.59,30.63,661313
21-Apr-10,29.45,29.94,29.12,29.94,179581
20-Apr-10,28.78,29.43,28.74,29.35,111343
19-Apr-10,29.14,29.35,28.20,28.75,170509
16-Apr-10,29.49,29.52,28.76,29.32,262955
15-Apr-10,28.93,29.63,28.53,29.49,303430
14-Apr-10,27.34,28.84,27.34,28.81,233808
13-Apr-10,28.07,28.07,27.01,27.31,321254
12-Apr-10,27.96,28.09,27.71,28.08,146457
9-Apr-10,27.12,27.88,26.82,27.88,280135
8-Apr-10,26.76,27.30,26.21,27.05,188357
7-Apr-10,27.34,27.68,26.66,26.81,214223
6-Apr-10,27.21,27.72,27.15,27.29,236517
5-Apr-10,26.86,27.47,26.81,27.44,265977
1-Apr-10,26.78,27.00,26.20,26.69,365486
31-Mar-10,26.46,26.97,26.17,26.67,255589
30-Mar-10,26.60,26.90,26.32,26.57,279102
29-Mar-10,26.41,26.72,26.00,26.50,212923
26-Mar-10,26.72,27.08,26.26,26.42,460832
25-Mar-10,26.47,26.93,26.29,26.70,325630
24-Mar-10,26.56,26.98,25.88,26.42,392193
23-Mar-10,26.38,26.99,26.27,26.75,389876
22-Mar-10,24.81,26.46,24.50,26.30,860552
19-Mar-10,25.67,25.70,24.64,24.92,533393
18-Mar-10,25.61,25.85,25.34,25.59,226846
17-Mar-10,25.12,25.89,24.85,25.76,406795
16-Mar-10,24.39,25.20,24.06,25.14,411040
15-Mar-10,24.17,24.42,23.95,24.37,248582
12-Mar-10,24.35,24.73,23.78,24.16,184749
11-Mar-10,23.86,24.31,23.38,24.19,260958
10-Mar-10,24.00,24.00,23.63,23.80,241502
9-Mar-10,24.53,24.74,23.73,23.99,300892
8-Mar-10,24.81,24.99,24.48,24.70,281869
5-Mar-10,24.65,25.00,24.60,24.89,627599
4-Mar-10,23.89,24.67,23.81,24.53,558927
3-Mar-10,23.04,23.88,22.79,23.77,691397
2-Mar-10,22.90,23.18,22.62,23.07,530193
1-Mar-10,22.15,22.96,22.05,22.86,593014
26-Feb-10,22.46,22.51,22.03,22.18,706590
25-Feb-10,22.19,22.81,21.85,22.51,542451
24-Feb-10,22.86,23.01,22.34,22.51,403173
23-Feb-10,23.30,23.42,22.82,22.94,684852
22-Feb-10,22.92,23.36,22.82,23.34,435285
19-Feb-10,22.43,23.13,22.12,22.78,537856
18-Feb-10,25.30,25.30,22.04,22.57,1612062
17-Feb-10,25.96,26.21,25.40,25.80,180255
16-Feb-10,25.74,25.91,25.22,25.81,193460
12-Feb-10,24.74,25.46,24.58,25.46,203401
11-Feb-10,24.10,24.96,23.92,24.93,158539
10-Feb-10,24.15,24.26,23.62,24.23,127594
9-Feb-10,23.60,24.17,23.29,24.16,212926
8-Feb-10,22.79,23.61,22.69,23.32,202703
5-Feb-10,23.51,23.51,22.65,22.75,329199
4-Feb-10,24.70,24.70,23.45,23.45,385386
3-Feb-10,24.69,25.01,24.55,24.81,312199
2-Feb-10,24.00,24.92,23.79,24.91,580681
1-Feb-10,23.67,24.10,23.53,24.05,406530
29-Jan-10,23.69,23.90,23.53,23.68,167976
28-Jan-10,24.18,24.18,23.25,23.65,144908
27-Jan-10,23.69,24.06,23.25,24.05,180127
26-Jan-10,22.84,23.87,22.84,23.75,372444
25-Jan-10,23.57,23.79,22.59,22.94,411120
22-Jan-10,24.66,24.67,23.05,23.30,465296
21-Jan-10,25.04,25.37,24.64,24.69,209861
20-Jan-10,24.90,25.26,24.80,25.07,372504
19-Jan-10,25.13,25.13,24.90,25.02,296764
15-Jan-10,25.72,26.03,24.75,25.03,174259
14-Jan-10,26.10,26.19,25.56,25.59,255604
13-Jan-10,25.36,26.27,24.63,26.10,414087
12-Jan-10,25.41,26.54,24.95,25.16,718955
11-Jan-10,28.53,28.53,25.38,26.25,1827191
8-Jan-10,26.63,27.65,26.63,27.64,259535
7-Jan-10,26.27,26.86,26.21,26.85,170504
6-Jan-10,26.02,26.40,25.77,26.24,178186
5-Jan-10,26.37,26.54,25.82,26.10,153132
4-Jan-10,27.18,27.25,25.29,26.18,524378
31-Dec-09,27.11,27.57,26.76,26.80,277251
30-Dec-09,27.93,28.25,27.07,27.20,189190
29-Dec-09,28.42,28.93,28.16,28.19,90746
28-Dec-09,28.55,28.82,28.02,28.42,133562
24-Dec-09,28.25,28.58,28.22,28.40,78480
23-Dec-09,27.25,28.39,27.25,28.25,180172
22-Dec-09,27.45,27.45,27.13,27.18,131016
21-Dec-09,27.11,27.44,26.92,27.25,120735
18-Dec-09,27.59,27.59,26.65,27.04,610385
17-Dec-09,28.00,28.02,26.63,27.64,529359
16-Dec-09,27.57,28.44,27.57,28.19,208871
15-Dec-09,27.66,28.01,27.09,27.44,253211
14-Dec-09,26.72,27.58,26.43,27.54,262145
11-Dec-09,26.05,26.45,26.00,26.39,189785
10-Dec-09,25.63,26.15,25.20,26.00,216436
9-Dec-09,25.76,25.84,25.08,25.45,100000
8-Dec-09,25.67,26.21,25.25,25.82,184262
7-Dec-09,26.48,26.84,25.98,26.10,169330
4-Dec-09,26.79,27.60,26.13,26.35,599004
3-Dec-09,25.78,26.55,25.59,26.31,687010
2-Dec-09,24.71,25.99,24.63,25.77,431647
1-Dec-09,23.70,24.92,23.70,24.68,283785
30-Nov-09,24.09,24.19,23.21,23.62,284649
27-Nov-09,24.09,24.67,23.83,24.04,64368
25-Nov-09,24.20,24.76,23.80,24.57,258662
24-Nov-09,24.82,25.31,24.11,24.17,174999
23-Nov-09,24.78,25.28,24.78,25.00,301056
20-Nov-09,24.34,24.72,24.13,24.62,269311
19-Nov-09,24.99,25.04,24.08,24.43,397030
18-Nov-09,24.91,25.23,24.90,25.06,311934
17-Nov-09,24.41,25.34,24.37,24.91,516384
16-Nov-09,25.41,25.52,24.69,24.71,2710081
13-Nov-09,24.97,25.12,24.73,25.00,455854
12-Nov-09,24.50,25.00,24.35,24.81,290399
11-Nov-09,24.62,25.15,24.36,24.54,547258
10-Nov-09,26.15,26.25,24.25,24.44,1443290
9-Nov-09,25.23,25.80,24.81,24.98,317949
6-Nov-09,23.76,25.07,23.76,24.95,362504
5-Nov-09,22.97,24.65,22.58,24.01,536046
4-Nov-09,23.40,24.48,21.91,22.89,915624
3-Nov-09,21.36,22.90,21.24,22.80,624529
2-Nov-09,21.46,22.00,21.04,21.70,267130
30-Oct-09,20.74,21.47,20.61,21.25,346243
29-Oct-09,20.57,21.04,20.44,20.81,563791
28-Oct-09,21.66,21.96,20.42,20.44,310264
27-Oct-09,22.29,22.29,21.45,21.53,299680
26-Oct-09,22.64,23.49,22.15,22.18,304997
23-Oct-09,23.27,23.50,22.50,22.64,119345
22-Oct-09,23.17,23.22,22.50,23.03,286002
21-Oct-09,23.50,24.71,22.90,23.26,501256
20-Oct-09,23.50,23.80,23.20,23.60,293979
19-Oct-09,22.51,23.48,22.28,23.38,262472
16-Oct-09,21.76,22.65,21.76,22.50,178737
15-Oct-09,22.05,22.36,21.84,22.01,252927
14-Oct-09,22.75,23.00,22.05,22.22,325538
13-Oct-09,22.53,22.76,22.26,22.58,170461
12-Oct-09,23.13,23.17,21.71,22.50,395098
9-Oct-09,23.34,23.60,22.75,23.06,177747
8-Oct-09,24.18,24.34,23.37,23.47,391226
7-Oct-09,23.20,24.04,23.04,23.87,512575
6-Oct-09,21.95,23.04,21.90,23.01,291289
5-Oct-09,21.28,21.74,21.00,21.66,161127
2-Oct-09,21.37,21.52,20.92,21.11,248553
1-Oct-09,21.65,21.89,21.24,21.50,429166
30-Sep-09,21.37,21.85,20.92,21.69,258005
29-Sep-09,21.06,21.71,21.03,21.30,180342
28-Sep-09,20.71,21.25,20.45,21.00,277730
25-Sep-09,21.09,21.09,20.00,20.45,397519
24-Sep-09,21.46,21.59,20.47,20.51,296617
23-Sep-09,21.73,22.04,21.20,21.30,188890
22-Sep-09,21.10,21.68,20.47,21.55,371232
21-Sep-09,21.77,21.77,20.89,21.17,269378
18-Sep-09,22.30,22.30,21.70,21.78,200725
17-Sep-09,22.53,22.60,22.15,22.28,126792
16-Sep-09,22.10,22.60,21.73,22.50,170499
15-Sep-09,22.31,22.69,22.01,22.03,249370
14-Sep-09,22.07,22.62,21.58,22.42,231237
11-Sep-09,21.81,22.50,21.79,22.30,326782
10-Sep-09,21.59,22.25,21.40,22.07,222147
9-Sep-09,20.69,21.70,20.50,21.50,235913
8-Sep-09,20.55,20.77,20.36,20.62,424724
4-Sep-09,20.36,20.77,20.13,20.51,195282
3-Sep-09,20.77,20.94,20.12,20.33,463063
2-Sep-09,20.75,20.99,20.11,20.60,448343
1-Sep-09,21.95,22.35,20.35,20.59,956844
31-Aug-09,22.18,22.18,21.75,22.00,603467
28-Aug-09,22.51,22.74,22.04,22.15,590514
27-Aug-09,21.99,22.42,21.80,22.38,243671
26-Aug-09,22.16,22.40,21.70,22.07,298246
25-Aug-09,22.39,22.73,21.73,21.91,683196
24-Aug-09,21.72,22.70,21.50,22.05,618907
21-Aug-09,20.80,21.67,20.47,21.27,931778
20-Aug-09,20.92,21.18,20.13,20.57,344029
19-Aug-09,20.12,21.37,20.08,20.76,539090
18-Aug-09,19.92,20.49,19.86,20.31,726547
17-Aug-09,19.86,20.12,19.23,19.92,478703
14-Aug-09,20.77,20.80,20.00,20.20,186674
13-Aug-09,21.05,21.08,20.40,20.77,287521
12-Aug-09,20.38,20.95,20.34,20.68,322445
10-Aug-09,20.43,20.50,20.00,20.47,548460
7-Aug-09,20.08,20.80,19.70,20.66,366733
6-Aug-09,20.00,20.43,19.63,19.72,449299
5-Aug-09,19.00,21.14,18.63,20.10,1408662
4-Aug-09,16.89,17.41,16.68,17.18,162992
3-Aug-09,16.60,16.97,16.33,16.96,277833
31-Jul-09,16.47,16.89,16.32,16.42,94458
30-Jul-09,16.52,17.17,16.35,16.46,173795
29-Jul-09,16.67,16.81,16.12,16.44,132819
28-Jul-09,16.71,16.87,16.06,16.75,170580
27-Jul-09,17.00,17.47,16.29,16.90,243751
24-Jul-09,17.48,17.58,16.64,17.00,288092
23-Jul-09,16.76,17.67,16.70,17.67,299914
22-Jul-09,16.31,16.94,16.24,16.82,260103
21-Jul-09,16.64,16.80,16.00,16.31,194889
20-Jul-09,16.53,16.57,15.92,16.52,435290
17-Jul-09,16.20,16.63,15.75,16.49,538470
16-Jul-09,17.18,17.25,16.65,16.86,288851
15-Jul-09,17.15,17.50,16.93,17.23,493417
14-Jul-09,16.92,17.16,16.74,17.03,424193
13-Jul-09,16.21,17.00,15.92,16.89,594172
10-Jul-09,15.73,16.46,15.51,16.32,377017
9-Jul-09,15.53,16.06,15.49,15.78,201899
8-Jul-09,15.12,15.53,14.86,15.48,355973
7-Jul-09,15.40,15.58,15.08,15.20,246416
6-Jul-09,15.56,15.56,15.17,15.40,488272
2-Jul-09,15.18,15.96,14.85,15.40,252460
1-Jul-09,15.77,16.10,15.77,15.89,220924
30-Jun-09,16.00,16.03,15.31,15.76,208473
29-Jun-09,16.77,17.15,15.71,15.81,343010
26-Jun-09,15.38,16.69,15.10,16.52,830382
25-Jun-09,14.83,15.42,14.67,15.42,233526
24-Jun-09,14.27,14.94,14.19,14.88,298625
23-Jun-09,14.05,14.29,14.01,14.12,121499
22-Jun-09,14.20,14.24,13.79,14.00,241605
19-Jun-09,14.10,14.70,14.10,14.25,182767
18-Jun-09,14.23,14.25,13.95,14.09,212280
17-Jun-09,14.01,14.35,14.00,14.27,194965
16-Jun-09,15.12,15.33,13.79,14.12,340258
15-Jun-09,15.52,15.52,14.67,15.12,257644
12-Jun-09,15.31,15.44,15.18,15.40,140802
11-Jun-09,15.88,16.21,15.34,15.38,269172
10-Jun-09,15.87,16.66,15.43,15.79,431616
9-Jun-09,15.10,15.68,14.98,15.53,141963
8-Jun-09,15.02,15.12,14.49,15.06,141522
5-Jun-09,15.32,15.52,15.05,15.06,211524
4-Jun-09,15.68,15.68,14.78,15.15,292154
3-Jun-09,15.95,16.12,15.25,15.44,413079
2-Jun-09,15.88,16.05,15.69,15.95,348082
1-Jun-09,15.50,16.01,15.30,15.87,394836
29-May-09,15.24,15.24,14.71,15.15,321602
28-May-09,15.00,15.47,14.40,15.00,320286
27-May-09,14.93,15.39,14.82,14.92,334876
26-May-09,14.04,15.10,14.00,15.00,331760
22-May-09,14.08,14.33,14.00,14.10,256208
21-May-09,13.94,14.29,13.92,14.07,278925
20-May-09,14.40,14.99,14.28,14.37,264639
19-May-09,13.79,14.47,13.78,14.36,367166
18-May-09,13.43,13.86,13.20,13.79,505843
15-May-09,13.16,13.36,13.00,13.01,324788
14-May-09,12.57,13.51,12.25,13.18,445826
13-May-09,12.72,13.03,12.30,12.48,491751
12-May-09,13.09,13.39,13.00,13.02,530791
11-May-09,14.38,14.47,13.50,13.51,393615
8-May-09,15.35,15.56,14.31,14.77,272899
7-May-09,15.17,15.65,15.03,15.30,427147
6-May-09,16.45,16.45,14.38,15.16,609601
5-May-09,16.05,16.49,15.87,16.34,224790
4-May-09,15.24,16.26,15.24,16.06,526354
1-May-09,15.00,15.29,14.43,15.00,277503
30-Apr-09,16.14,16.19,14.92,14.96,380273
29-Apr-09,15.08,16.11,15.03,15.97,510775
28-Apr-09,14.50,15.10,14.27,14.94,294635
27-Apr-09,15.16,15.20,14.41,14.76,367482
24-Apr-09,14.54,15.46,14.36,15.35,488784
23-Apr-09,14.84,15.25,13.85,14.51,349608
22-Apr-09,14.39,15.36,14.19,14.67,637240
21-Apr-09,13.28,14.59,13.28,14.41,477544
20-Apr-09,14.48,14.48,12.86,13.44,500083
17-Apr-09,14.14,14.60,13.90,14.60,377547
16-Apr-09,13.73,14.14,13.33,14.01,418449
15-Apr-09,13.40,13.73,13.22,13.50,380454
14-Apr-09,13.90,13.91,13.00,13.31,498361
13-Apr-09,13.80,13.80,13.10,13.31,411824
9-Apr-09,13.30,14.25,13.07,13.97,314846
8-Apr-09,11.92,12.95,11.91,12.95,249286
7-Apr-09,12.82,12.82,11.90,11.92,355071
6-Apr-09,13.13,13.34,12.67,12.96,439958
3-Apr-09,13.30,13.61,12.98,13.57,173602
2-Apr-09,12.87,13.60,12.65,13.43,432667
1-Apr-09,12.33,12.76,11.93,12.74,273559
31-Mar-09,12.18,12.94,11.93,12.75,238644
30-Mar-09,12.17,12.56,11.82,12.03,368011
27-Mar-09,11.90,12.95,11.82,12.78,373664
26-Mar-09,11.70,12.23,11.70,12.04,507793
25-Mar-09,10.94,11.61,10.84,11.61,311208
24-Mar-09,10.60,11.08,10.60,10.75,364949
23-Mar-09,10.52,10.84,10.42,10.61,315444
20-Mar-09,11.00,11.03,10.36,10.41,326097
19-Mar-09,11.00,11.08,10.91,10.97,236107
18-Mar-09,10.73,11.01,10.57,11.01,190175
17-Mar-09,9.99,10.75,9.93,10.74,247034
16-Mar-09,10.36,10.41,9.95,10.04,232396
13-Mar-09,10.61,10.77,9.71,10.17,249711
12-Mar-09,9.29,11.03,9.25,10.69,1363258
11-Mar-09,9.97,9.97,8.44,8.55,833444
10-Mar-09,7.38,7.55,7.29,7.43,333222
9-Mar-09,7.58,7.67,7.02,7.03,296562
6-Mar-09,7.93,8.06,7.39,7.71,263253
5-Mar-09,8.25,8.25,7.79,7.88,241077
4-Mar-09,8.61,8.62,8.05,8.20,214095
3-Mar-09,9.37,9.39,8.34,8.35,263594
2-Mar-09,9.50,9.50,9.08,9.30,229160
27-Feb-09,9.26,9.80,9.23,9.58,167054
26-Feb-09,9.00,9.66,8.92,9.35,183367
25-Feb-09,8.84,9.23,8.72,8.97,183855
24-Feb-09,8.57,9.26,8.41,8.93,333752
23-Feb-09,9.15,9.25,8.30,8.46,317744
20-Feb-09,9.28,9.56,9.00,9.12,221777
19-Feb-09,9.41,9.64,9.29,9.58,158955
18-Feb-09,9.82,10.04,9.08,9.19,297189
17-Feb-09,10.27,10.27,9.56,9.78,185182
13-Feb-09,10.31,10.55,10.00,10.38,208174
12-Feb-09,9.91,10.54,9.70,10.47,189697
11-Feb-09,10.00,10.15,9.81,10.00,276275
10-Feb-09,10.00,10.21,9.85,10.00,239019
9-Feb-09,10.11,10.19,9.63,10.04,252828
6-Feb-09,9.96,10.60,9.89,10.22,305941
5-Feb-09,9.32,10.00,9.30,9.95,179246
4-Feb-09,9.74,9.81,9.27,9.35,125978
3-Feb-09,9.72,10.08,9.48,9.69,237983
2-Feb-09,8.52,9.73,8.52,9.65,341186
30-Jan-09,9.44,9.55,8.49,8.87,291704
29-Jan-09,10.08,10.08,9.37,9.45,141806
28-Jan-09,9.66,10.51,9.66,9.97,586913
27-Jan-09,9.59,9.72,9.33,9.66,302012
26-Jan-09,9.49,9.79,9.33,9.37,115666
23-Jan-09,9.48,9.53,9.04,9.45,139057
22-Jan-09,9.57,9.97,9.44,9.64,141510
21-Jan-09,9.67,9.98,9.29,9.87,230445
20-Jan-09,10.13,10.13,9.48,9.66,306823
16-Jan-09,10.27,10.62,10.02,10.21,288766
15-Jan-09,9.13,10.05,9.04,10.03,212930
14-Jan-09,9.21,9.25,8.91,9.07,244180
13-Jan-09,9.35,9.52,9.05,9.41,183526
12-Jan-09,10.13,10.22,9.23,9.40,159902
9-Jan-09,10.14,10.48,9.80,10.11,202605
8-Jan-09,10.29,10.29,9.82,9.94,276845
7-Jan-09,10.61,10.78,10.00,10.35,217631
6-Jan-09,10.08,10.84,9.98,10.78,253556
5-Jan-09,10.56,10.66,9.89,9.92,295455
2-Jan-09,10.58,10.76,10.31,10.60,114906
31-Dec-08,10.90,11.11,10.55,10.56,321849
30-Dec-08,10.11,10.96,10.11,10.91,203970
29-Dec-08,10.28,10.33,9.45,10.11,358308
26-Dec-08,9.55,10.59,9.45,10.36,223013
24-Dec-08,9.31,9.54,8.93,9.52,166083
23-Dec-08,10.05,10.18,8.94,9.01,262894
22-Dec-08,10.55,10.64,9.29,9.91,212082
19-Dec-08,10.85,10.93,10.29,10.53,277237
18-Dec-08,11.00,11.03,10.18,10.52,395462
17-Dec-08,10.44,10.96,10.36,10.80,280316
16-Dec-08,9.48,10.52,9.40,10.52,182089
15-Dec-08,9.45,9.66,9.00,9.39,70032
12-Dec-08,8.96,9.73,8.68,9.30,242733
11-Dec-08,10.62,10.65,9.08,9.12,207800
10-Dec-08,10.33,11.00,10.33,10.78,104704
9-Dec-08,11.00,11.00,10.16,10.27,235529
8-Dec-08,11.44,11.66,10.62,11.10,474856
5-Dec-08,9.75,11.48,9.75,11.17,386630
4-Dec-08,9.89,10.17,9.55,9.92,251119
3-Dec-08,9.53,10.14,9.38,9.83,107509
2-Dec-08,9.02,10.17,9.02,9.78,183139
1-Dec-08,8.99,9.62,8.91,8.97,194820
28-Nov-08,9.27,9.48,9.12,9.48,121295
26-Nov-08,7.90,9.85,7.90,9.45,479419
25-Nov-08,8.11,8.46,7.94,8.03,799496
24-Nov-08,8.05,8.35,7.17,8.15,311409
21-Nov-08,8.19,8.45,7.59,8.25,159265
20-Nov-08,8.72,8.80,8.00,8.03,134597
19-Nov-08,9.14,9.15,8.79,8.81,250467
18-Nov-08,9.00,9.20,8.69,9.19,283145
17-Nov-08,9.59,9.79,8.95,8.99,161759
14-Nov-08,10.24,10.30,9.60,9.65,132374
13-Nov-08,9.58,10.71,9.56,10.40,319632
12-Nov-08,10.70,10.88,9.65,9.81,175347
11-Nov-08,9.79,11.07,9.66,10.87,193503
10-Nov-08,10.50,10.85,9.70,9.79,170599
7-Nov-08,9.99,10.49,9.97,10.40,166700
6-Nov-08,8.75,10.06,8.75,9.86,456000
5-Nov-08,7.93,8.87,7.92,8.30,343900
4-Nov-08,8.23,8.40,7.87,8.10,572700
3-Nov-08,8.31,8.40,8.16,8.30,264600
31-Oct-08,8.95,8.98,8.15,8.33,343500
30-Oct-08,9.13,9.13,8.77,8.93,87500
29-Oct-08,9.01,9.08,8.73,8.77,222300
28-Oct-08,9.10,9.10,8.53,8.97,257800
27-Oct-08,9.09,9.40,8.71,8.71,193300
24-Oct-08,8.98,9.42,8.68,9.25,168100
23-Oct-08,9.60,9.70,8.80,9.33,171400
22-Oct-08,10.22,10.29,9.52,9.66,327300
21-Oct-08,9.94,10.47,9.91,9.99,421200
20-Oct-08,9.87,10.21,9.75,10.03,515600
17-Oct-08,9.48,10.08,9.42,9.77,193200
16-Oct-08,9.50,9.85,9.13,9.76,239300
15-Oct-08,10.42,10.42,9.25,9.36,123600
14-Oct-08,11.10,11.50,10.11,10.31,139100
13-Oct-08,10.01,11.10,10.01,11.00,192000
10-Oct-08,9.42,10.08,8.75,9.69,257900
9-Oct-08,10.27,10.67,9.60,9.70,282400
8-Oct-08,9.22,11.00,9.22,10.28,174300
7-Oct-08,10.23,10.64,10.02,10.13,247700
6-Oct-08,10.76,10.76,9.14,10.40,210200
3-Oct-08,11.78,11.93,10.94,11.05,170000
2-Oct-08,11.84,12.00,10.90,11.64,453500
1-Oct-08,12.50,12.81,11.70,11.96,299400
30-Sep-08,12.84,12.84,12.11,12.56,189400
29-Sep-08,13.14,14.05,12.00,12.74,317700
26-Sep-08,12.82,13.46,12.82,13.16,125300
25-Sep-08,13.44,14.10,13.44,13.67,452500
24-Sep-08,14.00,14.11,13.30,13.33,235200
23-Sep-08,13.50,14.00,13.48,13.96,151600
22-Sep-08,14.88,14.90,13.50,13.50,311500
19-Sep-08,14.76,15.25,14.30,14.60,545100
18-Sep-08,13.60,14.05,13.11,14.05,421700
17-Sep-08,13.17,13.94,12.60,13.28,308300
16-Sep-08,13.01,13.67,12.36,13.62,422100
15-Sep-08,13.67,14.14,13.39,13.43,360100
12-Sep-08,15.07,15.13,14.16,14.36,344000
11-Sep-08,14.25,15.14,13.85,15.07,674000
10-Sep-08,14.70,14.93,13.72,14.34,606100
9-Sep-08,15.30,16.47,14.51,14.63,1037300
8-Sep-08,14.16,15.54,13.97,15.22,733600
5-Sep-08,13.70,14.01,13.31,13.89,212300
4-Sep-08,14.50,14.59,13.96,13.99,344000
3-Sep-08,13.59,15.03,13.37,14.64,540500
2-Sep-08,13.40,13.59,12.80,13.57,453200
29-Aug-08,12.79,13.12,12.44,12.91,278500
28-Aug-08,13.01,13.01,11.78,12.83,812900
27-Aug-08,12.41,13.20,12.41,12.96,210600
26-Aug-08,12.31,12.51,12.19,12.47,207000
25-Aug-08,12.72,12.77,12.18,12.19,127900
22-Aug-08,12.02,12.90,12.02,12.78,106800
21-Aug-08,11.71,12.25,11.45,12.00,187500
20-Aug-08,11.50,12.22,11.50,11.85,147700
19-Aug-08,12.18,12.30,11.52,11.62,172600
18-Aug-08,12.35,12.64,12.06,12.32,107600
15-Aug-08,12.90,13.11,12.27,12.44,206300
14-Aug-08,12.45,12.89,12.38,12.74,308500
13-Aug-08,13.30,13.30,12.10,12.49,352200
12-Aug-08,13.51,13.76,13.11,13.22,138000
11-Aug-08,13.42,13.70,13.17,13.54,261900
8-Aug-08,13.26,13.91,12.96,13.76,198300
7-Aug-08,13.91,13.94,12.90,13.39,1283300
6-Aug-08,14.25,15.25,14.20,14.34,562200
5-Aug-08,14.49,15.00,13.74,14.25,242000
4-Aug-08,15.18,15.18,14.22,14.23,154200
1-Aug-08,14.76,15.16,14.72,15.06,203300
31-Jul-08,14.83,15.24,14.81,14.98,167400
30-Jul-08,14.71,15.20,14.62,15.02,368700
29-Jul-08,14.41,14.87,14.17,14.87,193400
28-Jul-08,14.22,14.41,13.95,14.40,153300
25-Jul-08,14.09,14.71,14.09,14.48,76000
24-Jul-08,14.79,14.79,13.78,14.20,119300
23-Jul-08,14.66,15.00,14.49,14.69,194900
22-Jul-08,13.83,14.53,13.72,14.50,324900
21-Jul-08,14.30,14.43,13.70,13.90,294100
18-Jul-08,14.40,14.55,13.84,14.10,256700
17-Jul-08,13.48,14.71,13.42,14.40,372500
16-Jul-08,13.19,13.60,12.85,13.57,265600
15-Jul-08,12.92,13.94,12.64,13.21,377000
14-Jul-08,13.11,13.20,12.73,13.04,389300
11-Jul-08,12.91,13.41,12.86,13.12,315300
10-Jul-08,13.20,13.23,12.67,13.15,211600
9-Jul-08,14.10,14.10,12.91,13.17,408400
8-Jul-08,12.80,14.23,12.31,14.04,469500
7-Jul-08,12.92,13.22,12.55,12.72,292500
3-Jul-08,13.45,13.46,12.75,12.99,170500
2-Jul-08,13.70,13.95,13.31,13.54,315700
1-Jul-08,12.91,13.63,12.69,13.61,274800
30-Jun-08,13.73,13.82,12.99,13.00,379700
27-Jun-08,14.05,14.14,13.59,13.98,632800
26-Jun-08,14.26,14.30,13.74,14.05,100100
25-Jun-08,13.84,15.28,13.76,14.47,293200
24-Jun-08,14.02,14.16,13.56,13.72,164800
23-Jun-08,14.92,15.12,14.00,14.07,325500
20-Jun-08,14.85,14.96,14.51,14.96,101100
19-Jun-08,14.78,14.92,14.50,14.86,181900
18-Jun-08,15.34,15.73,14.40,14.77,279100
17-Jun-08,15.06,15.80,14.67,15.49,390600
16-Jun-08,14.27,15.25,14.17,15.11,292700
13-Jun-08,13.30,15.17,13.19,14.42,432200
12-Jun-08,12.87,13.69,12.86,13.35,292300
11-Jun-08,12.94,13.08,12.61,12.93,329500
10-Jun-08,13.80,13.80,12.77,12.99,467700
9-Jun-08,14.40,14.49,13.40,13.74,431900
6-Jun-08,14.66,15.43,14.25,15.09,216400
5-Jun-08,14.21,15.13,14.21,14.70,597300
4-Jun-08,14.39,14.59,14.13,14.21,172200
3-Jun-08,15.39,15.39,14.15,14.51,443700
2-Jun-08,16.09,16.09,15.08,15.39,366900
30-May-08,16.13,16.24,15.33,15.88,247600
29-May-08,16.31,16.41,15.91,16.13,154100
28-May-08,15.11,16.47,15.04,16.42,163700
27-May-08,15.31,15.31,14.68,15.16,215400
23-May-08,15.75,15.96,15.00,15.07,232500
22-May-08,15.65,16.09,15.25,15.74,355000
21-May-08,16.42,16.75,15.11,15.60,186100
20-May-08,16.27,16.37,15.85,16.24,216600
19-May-08,17.35,17.35,15.25,16.27,441500
16-May-08,16.88,18.14,16.36,16.48,131400
15-May-08,15.90,16.90,15.85,16.55,280200
14-May-08,15.75,16.49,15.25,15.84,209500
13-May-08,15.08,16.43,15.00,15.81,569600
12-May-08,14.42,15.87,14.38,14.94,296200
9-May-08,13.73,14.68,13.67,14.44,317800
8-May-08,13.52,13.81,13.07,13.66,184100
7-May-08,13.45,13.80,13.21,13.48,294500
6-May-08,12.80,13.55,12.80,13.35,329600
5-May-08,12.34,12.87,12.29,12.59,347500
2-May-08,12.25,12.50,11.89,12.25,440600
1-May-08,12.50,12.70,11.77,12.06,392400
30-Apr-08,13.30,13.31,12.50,12.54,312600
29-Apr-08,14.00,14.19,13.04,13.19,497800
28-Apr-08,13.25,14.57,13.02,13.40,209700
25-Apr-08,13.15,13.31,12.56,13.21,69700
24-Apr-08,12.80,13.30,12.71,13.23,97400
23-Apr-08,13.06,13.17,12.88,12.94,93300
22-Apr-08,13.05,13.11,12.54,13.02,169500
21-Apr-08,12.38,13.10,12.25,13.05,206500
18-Apr-08,12.25,12.34,12.05,12.26,128000
17-Apr-08,11.83,12.67,11.83,12.02,259500
16-Apr-08,11.96,12.02,11.75,11.77,100300
15-Apr-08,12.15,12.80,11.90,11.91,152400
14-Apr-08,12.40,12.45,11.97,12.04,149900
11-Apr-08,11.63,12.80,11.63,12.32,165400
10-Apr-08,11.10,12.06,11.10,11.92,122100
9-Apr-08,11.36,11.53,11.09,11.18,80100
8-Apr-08,11.14,11.65,11.00,11.30,124000
7-Apr-08,11.30,11.45,10.92,11.10,176600
4-Apr-08,11.03,11.41,10.76,11.34,138800
3-Apr-08,10.75,11.19,10.33,10.84,71100
2-Apr-08,10.62,10.90,10.02,10.68,193700
1-Apr-08,10.85,10.99,10.56,10.67,167900
31-Mar-08,10.50,10.94,10.40,10.60,141700
28-Mar-08,10.85,11.00,10.62,10.69,125300
27-Mar-08,11.03,11.24,10.65,10.85,551700
26-Mar-08,10.85,11.29,10.54,11.03,119800
25-Mar-08,10.68,11.00,10.46,10.98,172700
24-Mar-08,10.00,10.74,9.95,10.48,105700
20-Mar-08,9.75,10.08,9.45,10.08,43100
19-Mar-08,9.68,9.96,9.47,9.65,33900
18-Mar-08,9.55,10.07,9.35,9.75,88000
17-Mar-08,8.80,9.52,8.80,9.36,87500
14-Mar-08,9.30,9.40,9.06,9.32,136800
13-Mar-08,8.70,9.10,8.55,9.05,754100
12-Mar-08,8.94,9.85,8.00,8.69,408500
11-Mar-08,7.90,7.91,7.40,7.63,83800
10-Mar-08,8.13,8.13,7.76,7.76,25000
7-Mar-08,8.20,8.27,7.77,8.09,19700
6-Mar-08,8.40,8.50,8.05,8.28,36100
5-Mar-08,8.50,8.65,8.31,8.49,22700
4-Mar-08,8.70,8.71,7.98,8.44,132700
3-Mar-08,9.10,9.11,8.46,8.81,135400
29-Feb-08,8.85,9.15,8.78,9.15,76300
28-Feb-08,9.58,9.58,8.75,9.00,197700
27-Feb-08,9.90,9.94,9.30,9.53,29500
26-Feb-08,9.80,10.47,9.73,9.99,80800
25-Feb-08,9.39,10.15,9.31,10.15,88100
22-Feb-08,9.52,9.73,9.21,9.39,66300
21-Feb-08,9.54,9.64,9.49,9.55,70900
20-Feb-08,9.28,9.64,9.11,9.59,47100
19-Feb-08,9.65,9.68,9.30,9.33,27200
15-Feb-08,9.49,9.66,9.31,9.58,30100
14-Feb-08,9.26,9.49,9.05,9.39,13400
13-Feb-08,9.46,9.60,8.91,9.31,21900
12-Feb-08,9.30,9.45,9.14,9.42,31900
11-Feb-08,9.45,9.45,9.02,9.29,60700
8-Feb-08,9.35,9.50,9.26,9.31,28100
7-Feb-08,9.30,9.40,8.86,9.24,17700
6-Feb-08,9.09,9.45,9.09,9.35,74700
5-Feb-08,9.35,9.45,9.04,9.15,59200
4-Feb-08,9.57,9.98,9.36,9.40,132900
1-Feb-08,8.67,9.48,8.67,9.48,126000
31-Jan-08,8.38,9.25,8.30,8.90,175000
30-Jan-08,8.15,8.55,8.07,8.26,35800
29-Jan-08,7.57,8.24,7.10,8.15,84500
28-Jan-08,6.67,7.75,6.52,7.65,156300
25-Jan-08,6.66,6.85,6.45,6.61,246900
24-Jan-08,6.65,7.06,6.25,6.50,301700
23-Jan-08,6.41,6.64,6.36,6.50,189900
22-Jan-08,6.10,6.69,5.68,6.50,349000
18-Jan-08,6.50,6.50,5.95,6.07,93300
17-Jan-08,6.80,6.81,6.17,6.28,284100
16-Jan-08,7.20,7.20,6.54,6.75,139500
15-Jan-08,7.32,7.47,7.00,7.25,66200
14-Jan-08,7.49,7.65,6.85,7.42,445600
11-Jan-08,8.16,8.16,7.31,7.45,84100
10-Jan-08,8.14,8.25,8.10,8.14,42900
9-Jan-08,8.40,8.49,8.10,8.11,39600
8-Jan-08,8.75,8.84,8.25,8.39,87100
7-Jan-08,9.42,9.42,8.41,8.71,45100
4-Jan-08,9.00,9.11,8.90,9.03,70100
3-Jan-08,9.10,9.20,9.01,9.13,121500
2-Jan-08,8.99,9.10,8.99,9.10,133500
31-Dec-07,9.15,9.15,8.99,8.99,113600
28-Dec-07,8.99,9.13,8.83,9.03,97000
27-Dec-07,9.00,9.20,8.80,9.01,219200
26-Dec-07,8.89,8.91,8.73,8.90,33800
24-Dec-07,8.55,9.00,8.35,8.99,68000
21-Dec-07,8.75,8.94,8.45,8.61,142800
20-Dec-07,8.99,9.00,8.55,8.80,49200
19-Dec-07,8.75,9.00,8.50,8.99,99900
18-Dec-07,8.55,8.60,7.79,8.26,73600
17-Dec-07,9.05,9.05,8.55,8.55,61700
14-Dec-07,9.05,9.29,8.90,9.07,22400
13-Dec-07,9.35,9.37,9.00,9.13,13800
12-Dec-07,9.74,9.75,8.83,9.34,188200
11-Dec-07,9.46,9.59,9.11,9.50,57500
10-Dec-07,9.25,9.80,9.10,9.47,57200
7-Dec-07,9.05,9.53,9.05,9.30,102300
6-Dec-07,9.41,9.43,9.10,9.10,9400
5-Dec-07,9.34,9.65,9.27,9.47,69500
4-Dec-07,9.75,9.75,9.40,9.40,37600
3-Dec-07,9.18,9.68,8.96,9.61,93900
30-Nov-07,8.60,9.25,8.60,8.97,225300
29-Nov-07,8.42,9.00,8.00,8.60,50300
28-Nov-07,7.90,8.65,7.90,8.51,234600
27-Nov-07,8.62,8.99,7.80,7.83,281100
26-Nov-07,9.10,9.10,8.50,8.60,448500
23-Nov-07,9.05,9.05,8.79,8.98,2200
21-Nov-07,8.97,9.15,8.85,9.07,411300
20-Nov-07,8.97,9.09,8.80,9.04,67000
19-Nov-07,8.95,9.20,8.95,8.95,260800
16-Nov-07,9.00,9.25,8.90,8.95,551500
15-Nov-07,9.00,9.50,9.00,9.01,246500
14-Nov-07,9.50,9.50,9.00,9.00,267900
13-Nov-07,9.10,9.75,7.25,9.60,765500
12-Nov-07,9.90,9.90,8.83,9.25,1048300
9-Nov-07,10.25,10.49,9.61,9.76,4039400
