﻿Date,Open,High,Low,Close,Volume
20-Jun-17,40.25,40.41,39.66,39.71,702698
19-Jun-17,40.25,40.74,39.95,40.13,388974
16-Jun-17,39.83,40.06,39.39,39.99,788493
15-Jun-17,39.51,39.99,39.08,39.95,635333
14-Jun-17,40.28,40.42,39.52,39.74,674804
13-Jun-17,40.19,40.56,39.82,40.52,290837
12-Jun-17,40.16,40.73,39.61,39.97,521004
9-Jun-17,41.87,42.06,39.95,40.25,555653
8-Jun-17,41.41,41.85,40.87,41.83,571600
7-Jun-17,41.67,41.92,41.23,41.54,287835
6-Jun-17,42.15,42.25,41.21,41.64,614962
5-Jun-17,42.76,42.82,41.98,42.04,417962
2-Jun-17,43.01,43.32,42.66,42.90,649609
1-Jun-17,41.67,43.30,41.56,43.01,858147
31-May-17,41.31,41.70,41.18,41.67,799322
30-May-17,42.03,42.03,41.24,41.28,562501
26-May-17,40.63,42.17,40.63,41.78,933622
25-May-17,40.49,40.67,39.93,40.55,674896
24-May-17,39.52,40.29,39.42,40.20,460960
23-May-17,38.99,39.56,38.70,39.29,425451
22-May-17,38.85,39.05,38.60,38.75,351113
19-May-17,37.69,38.77,37.69,38.63,732245
18-May-17,36.39,38.02,36.39,37.98,1030734
17-May-17,36.33,36.92,36.33,36.43,430156
16-May-17,36.58,36.97,36.58,36.72,426567
15-May-17,36.49,37.04,36.41,36.63,812434
12-May-17,36.93,37.01,36.58,36.60,427766
11-May-17,36.78,37.10,36.48,37.03,441048
10-May-17,37.24,37.50,36.78,36.89,321494
9-May-17,38.72,38.72,36.85,37.33,444384
8-May-17,37.71,37.74,37.16,37.29,480658
5-May-17,37.34,37.73,37.34,37.69,225216
4-May-17,37.42,37.50,37.14,37.34,326215
3-May-17,37.49,37.59,37.10,37.56,442866
2-May-17,38.39,38.49,36.97,37.49,792886
1-May-17,38.12,38.45,37.86,38.39,510270
28-Apr-17,38.55,38.56,37.90,38.10,575899
27-Apr-17,39.70,39.70,38.22,38.45,1127521
26-Apr-17,40.51,40.78,39.56,39.74,794714
25-Apr-17,41.26,41.38,40.68,40.74,1059838
24-Apr-17,39.75,40.97,39.60,40.79,2109155
21-Apr-17,39.15,40.16,39.02,39.71,2558400
20-Apr-17,38.45,39.28,38.11,39.18,958207
19-Apr-17,38.21,38.64,37.62,38.45,1836656
18-Apr-17,38.83,38.83,38.44,38.50,358458
17-Apr-17,38.93,39.09,38.69,38.83,95493
13-Apr-17,38.87,39.13,38.69,39.00,245719
12-Apr-17,38.96,39.15,38.70,38.94,134963
11-Apr-17,39.20,39.20,38.80,38.97,189284
10-Apr-17,39.52,39.59,39.10,39.25,102033
7-Apr-17,39.45,39.86,39.22,39.52,275140
6-Apr-17,39.84,39.84,38.93,39.48,245007
5-Apr-17,39.15,39.77,38.76,39.29,453055
4-Apr-17,38.50,39.18,38.50,39.00,309089
3-Apr-17,38.99,39.18,38.27,38.54,318574
31-Mar-17,38.96,39.17,37.12,38.92,474210
30-Mar-17,38.54,39.38,38.39,39.19,292894
29-Mar-17,38.40,38.73,38.40,38.66,158840
28-Mar-17,38.17,38.94,38.17,38.58,279898
27-Mar-17,38.04,38.53,37.92,38.35,324747
24-Mar-17,38.82,38.99,38.16,38.33,156449
23-Mar-17,38.22,39.00,37.98,38.78,353475
22-Mar-17,38.00,38.79,37.83,38.21,484468
21-Mar-17,39.47,39.94,38.75,38.81,473216
20-Mar-17,39.56,39.86,39.35,39.47,110139
17-Mar-17,39.21,40.01,39.16,39.57,613872
16-Mar-17,39.14,39.39,38.91,39.21,333035
15-Mar-17,39.87,40.06,39.18,39.23,331983
14-Mar-17,39.71,39.81,39.25,39.74,457341
13-Mar-17,38.48,40.18,38.38,39.83,966062
10-Mar-17,38.60,38.81,38.43,38.52,198892
9-Mar-17,38.87,39.10,38.25,38.53,303280
8-Mar-17,38.93,39.14,38.78,38.87,195498
7-Mar-17,38.79,39.17,38.79,38.88,190443
6-Mar-17,38.84,38.95,38.74,38.84,420016
3-Mar-17,39.27,39.27,38.99,38.99,330623
2-Mar-17,39.53,39.53,39.08,39.32,237908
1-Mar-17,39.56,39.88,39.39,39.64,243728
28-Feb-17,39.41,39.55,38.86,39.33,514130
27-Feb-17,39.01,39.41,39.01,39.35,200362
24-Feb-17,38.68,39.51,38.55,39.05,288324
23-Feb-17,39.58,39.69,38.73,38.89,348256
22-Feb-17,39.40,39.99,39.22,39.42,510886
21-Feb-17,38.24,39.00,38.05,38.93,329622
17-Feb-17,37.99,38.27,37.85,38.02,371301
16-Feb-17,37.65,38.13,37.65,37.93,356477
15-Feb-17,36.08,37.62,36.07,37.54,1153221
14-Feb-17,36.03,36.48,35.75,35.92,504509
13-Feb-17,36.25,36.51,36.10,36.22,333453
10-Feb-17,36.38,36.65,36.10,36.25,227021
9-Feb-17,36.18,36.68,35.23,36.38,160189
8-Feb-17,36.43,36.56,36.09,36.40,189914
7-Feb-17,36.95,36.95,36.42,36.56,300810
6-Feb-17,36.66,36.96,36.48,36.89,164332
3-Feb-17,36.54,36.78,36.38,36.74,204512
2-Feb-17,36.80,37.02,36.34,36.44,674960
1-Feb-17,36.40,36.81,36.24,36.79,650100
31-Jan-17,36.16,36.36,35.84,36.24,1030583
30-Jan-17,36.25,36.33,35.82,36.26,353985
27-Jan-17,36.02,36.50,35.81,36.45,190474
26-Jan-17,35.34,36.18,35.34,36.05,430821
25-Jan-17,35.43,35.69,35.32,35.34,321577
24-Jan-17,35.30,35.58,35.02,35.20,688475
23-Jan-17,35.10,35.71,35.04,35.27,897371
20-Jan-17,35.32,35.58,35.03,35.52,318177
19-Jan-17,35.87,35.87,35.16,35.31,340502
18-Jan-17,35.20,35.81,34.44,35.72,254361
17-Jan-17,35.66,35.66,35.05,35.19,389106
13-Jan-17,35.25,35.65,35.20,35.59,258797
12-Jan-17,35.11,35.30,34.04,35.09,276201
11-Jan-17,35.60,35.60,35.10,35.30,307270
10-Jan-17,35.22,35.65,34.98,35.60,496906
9-Jan-17,35.02,35.48,34.89,35.25,387794
6-Jan-17,35.55,35.75,34.97,35.02,668651
5-Jan-17,34.71,35.48,34.71,35.46,400046
4-Jan-17,34.55,34.98,34.50,34.84,453032
3-Jan-17,34.61,34.90,34.33,34.50,505712
30-Dec-16,34.45,34.79,34.23,34.52,320807
29-Dec-16,34.80,34.80,34.32,34.49,219121
28-Dec-16,34.86,34.93,34.40,34.54,200953
27-Dec-16,34.93,35.23,34.89,34.93,113873
23-Dec-16,34.89,34.99,34.77,34.91,117827
22-Dec-16,35.10,35.17,34.55,35.00,197590
21-Dec-16,35.13,35.41,35.07,35.18,518079
20-Dec-16,34.63,35.26,34.45,35.13,661520
19-Dec-16,34.82,35.07,34.57,34.69,374690
16-Dec-16,34.92,35.25,34.57,34.67,735420
15-Dec-16,35.41,35.42,34.83,34.93,398617
14-Dec-16,35.04,35.74,35.04,35.47,297327
13-Dec-16,34.96,35.30,34.96,35.23,290239
12-Dec-16,35.68,35.74,34.74,34.79,544873
9-Dec-16,35.99,36.22,35.57,35.80,258536
8-Dec-16,35.82,36.21,35.64,35.89,457007
7-Dec-16,35.07,36.12,34.91,35.75,550018
6-Dec-16,34.57,35.17,34.57,35.06,616268
5-Dec-16,34.42,34.98,34.34,34.58,903729
2-Dec-16,36.20,36.58,33.79,34.42,1287208
1-Dec-16,36.23,36.46,35.94,36.41,686084
30-Nov-16,36.24,36.47,36.06,36.30,806506
29-Nov-16,35.77,36.32,35.76,36.24,297225
28-Nov-16,36.58,36.58,35.84,35.90,189999
25-Nov-16,36.52,36.62,36.40,36.51,136201
23-Nov-16,36.58,36.76,35.82,36.49,435192
22-Nov-16,36.68,36.88,36.31,36.63,1207463
21-Nov-16,36.47,36.66,36.31,36.47,406136
18-Nov-16,35.98,36.55,35.98,36.43,461871
17-Nov-16,35.93,36.17,35.29,36.06,458501
16-Nov-16,35.24,35.98,35.14,35.84,651769
15-Nov-16,35.47,36.19,35.12,36.02,545810
14-Nov-16,35.24,35.68,34.72,35.41,1094305
11-Nov-16,34.23,34.79,34.02,34.60,670310
10-Nov-16,34.10,34.58,33.81,34.24,628922
9-Nov-16,33.08,34.03,32.64,33.91,261221
8-Nov-16,33.05,33.81,33.05,33.54,655644
7-Nov-16,33.28,33.28,32.80,33.14,353894
4-Nov-16,32.50,32.87,31.83,32.47,479270
3-Nov-16,32.70,32.89,32.28,32.37,475877
2-Nov-16,33.01,33.16,32.60,32.63,448703
1-Nov-16,33.37,33.49,32.83,32.98,354987
31-Oct-16,33.12,33.49,33.09,33.27,401148
28-Oct-16,33.16,33.52,32.92,33.10,211548
27-Oct-16,34.10,34.11,32.93,33.07,594450
26-Oct-16,33.90,34.16,33.79,34.01,285539
25-Oct-16,33.67,34.06,33.64,34.04,421067
24-Oct-16,33.63,33.88,33.55,33.75,177004
21-Oct-16,33.27,33.63,33.14,33.57,471539
20-Oct-16,33.37,33.61,33.22,33.40,365869
19-Oct-16,33.09,33.47,32.80,33.38,417977
18-Oct-16,33.01,33.03,32.90,32.95,345002
17-Oct-16,32.49,32.84,32.49,32.62,273058
14-Oct-16,32.66,33.57,32.53,32.57,389028
13-Oct-16,32.48,32.65,32.24,32.59,336298
12-Oct-16,32.70,32.83,32.57,32.62,257798
11-Oct-16,33.35,33.35,32.55,32.71,495078
10-Oct-16,33.68,33.74,33.22,33.33,421686
7-Oct-16,33.61,33.61,33.20,33.53,260313
6-Oct-16,33.63,33.71,33.34,33.66,475410
5-Oct-16,34.10,34.17,33.58,33.64,310511
4-Oct-16,34.34,34.44,33.79,34.06,333349
3-Oct-16,34.07,34.44,33.92,34.34,595649
30-Sep-16,33.78,34.07,33.61,33.98,812667
29-Sep-16,33.50,33.84,33.42,33.58,330368
28-Sep-16,33.68,33.68,33.36,33.55,231051
27-Sep-16,33.59,33.85,33.43,33.68,361735
26-Sep-16,33.84,34.02,33.58,33.60,558787
23-Sep-16,33.90,34.07,33.78,34.00,209225
22-Sep-16,33.85,34.12,33.75,33.95,271136
21-Sep-16,33.48,33.84,33.22,33.77,159603
20-Sep-16,33.59,33.60,33.12,33.41,303025
19-Sep-16,33.38,33.89,33.19,33.41,220981
16-Sep-16,33.54,33.94,32.89,33.20,1496995
15-Sep-16,33.63,33.82,33.35,33.77,369196
14-Sep-16,33.44,33.64,33.23,33.59,389088
13-Sep-16,33.77,33.88,33.21,33.51,466721
12-Sep-16,33.42,34.10,33.25,34.00,757084
9-Sep-16,34.25,34.25,33.37,33.61,334968
8-Sep-16,34.22,34.40,33.94,34.25,226467
7-Sep-16,33.82,34.32,33.71,34.25,1432105
6-Sep-16,33.81,33.94,33.53,33.80,292416
2-Sep-16,33.46,33.86,33.43,33.82,214125
1-Sep-16,33.53,33.63,32.92,33.54,222104
31-Aug-16,33.47,33.61,33.13,33.51,349116
30-Aug-16,33.39,33.59,33.08,33.52,258004
29-Aug-16,33.32,33.65,33.24,33.46,230415
26-Aug-16,33.08,33.48,32.83,33.31,321617
25-Aug-16,32.59,33.13,32.48,33.08,252168
24-Aug-16,33.10,33.10,32.38,32.59,341467
23-Aug-16,33.02,33.17,32.88,33.05,178958
22-Aug-16,33.00,33.25,32.76,32.91,192345
19-Aug-16,33.05,33.10,32.88,33.02,280674
18-Aug-16,33.81,34.18,33.07,33.16,627296
17-Aug-16,33.87,33.97,33.62,33.80,146416
16-Aug-16,33.82,34.05,33.54,33.94,266560
15-Aug-16,34.18,34.26,33.60,33.83,594021
12-Aug-16,34.13,34.21,33.77,33.91,174978
11-Aug-16,33.85,34.16,33.61,34.09,258909
10-Aug-16,33.46,33.91,32.74,33.69,292597
9-Aug-16,33.70,33.71,31.65,33.48,571563
8-Aug-16,34.22,34.43,33.44,33.64,719097
5-Aug-16,34.33,34.59,33.91,34.27,663136
4-Aug-16,34.38,34.58,34.04,34.15,391005
3-Aug-16,34.54,34.60,34.13,34.30,319961
2-Aug-16,35.10,35.14,34.30,34.55,480611
1-Aug-16,35.64,35.74,35.10,35.22,366416
29-Jul-16,35.22,35.89,35.08,35.75,345353
28-Jul-16,35.71,35.74,34.84,35.23,458044
27-Jul-16,35.55,36.01,35.31,35.77,624954
26-Jul-16,34.43,35.59,34.32,35.30,1348604
25-Jul-16,34.52,34.68,33.94,33.95,311388
22-Jul-16,34.15,34.80,33.93,34.72,581842
21-Jul-16,33.93,34.24,33.71,34.18,306601
20-Jul-16,33.80,34.05,33.56,33.99,476546
19-Jul-16,33.34,33.87,33.20,33.77,433115
18-Jul-16,33.18,33.46,33.01,33.40,327142
15-Jul-16,33.23,33.26,32.94,33.20,244097
14-Jul-16,32.78,33.34,32.55,33.16,170513
13-Jul-16,32.45,32.73,32.21,32.66,357956
12-Jul-16,32.96,32.99,32.22,32.40,386633
11-Jul-16,32.51,32.81,32.34,32.66,210876
8-Jul-16,32.07,32.56,31.95,32.44,500888
7-Jul-16,31.69,32.17,31.56,31.91,260964
6-Jul-16,31.42,31.74,30.97,31.74,428631
5-Jul-16,31.39,32.18,31.03,31.66,683796
1-Jul-16,31.35,31.70,31.18,31.62,401577
30-Jun-16,30.67,31.46,30.65,31.36,453631
29-Jun-16,30.25,30.90,29.38,30.72,524920
28-Jun-16,29.56,30.22,29.27,30.12,852329
27-Jun-16,30.21,30.50,29.26,29.49,830869
24-Jun-16,30.02,31.07,30.02,30.56,1766294
23-Jun-16,30.38,31.50,30.02,31.43,716394
22-Jun-16,30.19,30.42,30.01,30.25,957861
21-Jun-16,30.81,30.84,30.18,30.24,408982
20-Jun-16,31.10,31.39,30.69,30.87,405482
17-Jun-16,30.93,31.56,30.68,30.85,2088408
16-Jun-16,30.84,31.32,30.65,31.26,211267
15-Jun-16,30.95,31.42,30.91,31.08,225270
14-Jun-16,31.02,31.27,30.70,31.00,373967
13-Jun-16,31.73,31.94,31.06,31.13,448528
10-Jun-16,31.93,32.19,31.69,31.88,182968
9-Jun-16,31.89,32.32,31.78,32.31,388158
8-Jun-16,31.77,32.14,31.63,31.91,360661
7-Jun-16,31.73,31.98,31.52,31.69,387894
6-Jun-16,32.13,32.48,31.77,31.80,281595
3-Jun-16,32.06,32.20,31.80,32.15,368366
2-Jun-16,32.29,32.58,31.99,32.18,708426
1-Jun-16,31.92,32.47,31.58,32.42,751251
31-May-16,31.96,32.10,31.61,31.89,479426
27-May-16,31.69,32.02,31.50,31.99,305129
26-May-16,31.83,32.18,31.66,31.72,314602
25-May-16,31.81,32.47,31.52,31.90,537665
24-May-16,31.29,31.88,31.20,31.84,470404
23-May-16,31.43,31.58,31.19,31.27,259306
20-May-16,31.15,31.79,31.11,31.51,427191
19-May-16,31.62,31.62,30.89,31.21,1957285
18-May-16,31.13,31.60,30.95,31.50,786841
17-May-16,31.57,31.71,31.15,31.31,502029
16-May-16,31.80,32.20,31.49,31.95,336096
13-May-16,32.01,32.27,31.56,31.74,329796
12-May-16,32.02,32.37,31.80,32.18,345024
11-May-16,32.94,32.94,32.16,32.27,424365
10-May-16,32.27,32.73,32.14,32.69,344085
9-May-16,32.05,32.75,31.47,32.41,318320
6-May-16,31.85,32.83,31.85,32.70,462649
5-May-16,32.16,32.57,32.07,32.30,394844
4-May-16,32.35,33.32,32.15,32.25,283066
3-May-16,32.22,33.13,32.22,32.87,259816
2-May-16,32.40,33.19,32.40,32.96,198893
29-Apr-16,32.84,32.94,32.31,32.77,467125
28-Apr-16,33.65,34.00,32.63,32.72,424699
27-Apr-16,33.63,33.63,32.87,33.37,417757
26-Apr-16,33.08,33.45,32.73,33.30,503802
25-Apr-16,32.52,33.08,32.34,33.05,1083647
22-Apr-16,32.91,33.24,32.42,32.68,938227
21-Apr-16,32.05,33.00,32.05,32.79,973798
20-Apr-16,32.25,33.16,32.13,32.58,1523024
19-Apr-16,30.74,32.83,30.74,32.53,3124046
18-Apr-16,28.00,34.00,28.00,31.20,4351840
