﻿Date,Open,High,Low,Close,Volume
20-Jun-17,18.36,19.45,18.20,18.43,557508
19-Jun-17,18.33,18.60,18.03,18.30,321716
16-Jun-17,17.54,18.43,17.29,18.24,626197
15-Jun-17,17.72,18.13,17.48,17.76,226385
14-Jun-17,18.23,18.63,17.70,17.88,165320
13-Jun-17,18.29,18.49,17.80,18.27,198169
12-Jun-17,18.29,18.91,17.88,18.05,240047
9-Jun-17,18.59,18.83,18.09,18.28,159202
8-Jun-17,18.30,18.72,18.02,18.60,124638
7-Jun-17,19.13,19.13,18.03,18.25,168995
6-Jun-17,19.86,20.39,18.92,18.96,227149
5-Jun-17,19.32,20.16,18.78,20.07,334051
2-Jun-17,18.49,19.48,18.20,19.42,231564
1-Jun-17,17.83,18.72,17.72,18.45,204140
31-May-17,17.75,17.82,16.63,17.75,418728
30-May-17,18.23,18.56,17.66,17.76,175046
26-May-17,18.89,19.46,18.15,18.25,226846
25-May-17,19.38,19.38,18.76,18.96,131414
24-May-17,19.45,19.57,19.06,19.25,113100
23-May-17,19.12,19.59,18.89,19.48,145229
22-May-17,19.28,19.47,18.92,19.12,115355
19-May-17,19.58,19.95,19.23,19.24,163425
18-May-17,19.39,19.74,19.11,19.57,222169
17-May-17,19.60,19.63,19.20,19.33,230901
16-May-17,19.50,19.97,19.43,19.96,84727
15-May-17,19.37,19.72,19.28,19.55,114122
12-May-17,18.64,19.48,18.30,19.36,227259
11-May-17,19.00,19.03,18.48,18.64,258033
10-May-17,19.13,19.41,18.91,19.05,105913
9-May-17,18.96,19.23,18.60,19.21,197185
8-May-17,19.62,20.03,18.56,18.92,284554
5-May-17,21.17,21.17,19.54,19.66,227855
4-May-17,20.35,21.80,19.55,21.18,464253
3-May-17,21.39,21.59,21.01,21.35,249681
2-May-17,22.23,22.31,21.40,21.55,226324
1-May-17,21.65,22.29,21.57,22.17,194270
28-Apr-17,21.76,21.87,21.36,21.61,148958
27-Apr-17,21.67,21.94,21.58,21.75,88929
26-Apr-17,21.44,21.87,21.24,21.68,138224
25-Apr-17,21.24,21.82,21.02,21.50,194022
24-Apr-17,20.80,20.98,19.75,20.95,270337
21-Apr-17,20.71,20.71,19.81,20.48,544355
20-Apr-17,20.20,20.82,19.92,20.79,322586
19-Apr-17,19.33,20.30,19.19,20.14,509936
18-Apr-17,19.10,19.35,18.82,19.26,192067
17-Apr-17,18.85,19.22,18.58,19.21,141343
13-Apr-17,18.13,18.83,18.11,18.82,199485
12-Apr-17,17.50,18.30,17.37,18.24,349582
11-Apr-17,17.80,18.02,17.20,17.50,133357
10-Apr-17,18.06,18.35,17.60,17.82,294863
7-Apr-17,17.30,18.07,17.30,18.02,183959
6-Apr-17,17.64,17.78,16.75,17.21,282244
5-Apr-17,18.47,18.67,17.42,17.48,467241
4-Apr-17,18.15,18.58,18.01,18.37,137118
3-Apr-17,18.59,18.79,18.12,18.25,266080
31-Mar-17,18.18,18.94,17.33,18.60,977234
30-Mar-17,18.78,18.88,17.56,17.61,300124
29-Mar-17,17.84,19.24,17.63,18.83,541809
28-Mar-17,18.01,18.22,17.29,17.76,161825
27-Mar-17,17.69,18.09,17.69,17.99,301744
24-Mar-17,17.97,18.33,17.62,17.93,129447
23-Mar-17,18.28,18.50,17.76,17.88,214045
22-Mar-17,18.03,18.31,17.70,18.28,152052
21-Mar-17,19.18,19.33,17.65,17.96,355258
20-Mar-17,18.95,19.29,18.60,19.10,150718
17-Mar-17,19.14,19.35,18.71,18.97,505106
16-Mar-17,19.46,19.73,19.08,19.36,135754
15-Mar-17,18.83,19.67,18.83,19.49,204263
14-Mar-17,19.38,19.42,18.33,18.74,299420
13-Mar-17,19.70,20.08,19.32,19.50,136554
10-Mar-17,19.68,19.89,19.14,19.79,118598
9-Mar-17,19.53,19.87,19.33,19.49,153024
8-Mar-17,18.97,20.04,18.97,19.44,136805
7-Mar-17,19.33,19.77,18.81,18.86,198288
6-Mar-17,20.27,20.27,19.39,19.71,181956
3-Mar-17,20.13,20.56,19.93,20.35,129527
2-Mar-17,20.22,21.52,19.90,20.01,291657
1-Mar-17,21.00,21.01,19.36,19.85,394256
28-Feb-17,21.04,22.00,20.48,21.14,551831
27-Feb-17,19.60,21.12,19.60,20.92,322195
24-Feb-17,19.21,19.77,19.11,19.60,136317
23-Feb-17,19.86,20.01,19.13,19.46,135752
22-Feb-17,20.50,20.93,19.69,19.71,289152
21-Feb-17,21.49,21.49,20.38,20.52,143647
17-Feb-17,21.01,21.77,20.83,21.39,294744
16-Feb-17,20.48,21.26,20.17,21.09,382518
15-Feb-17,19.25,20.59,19.11,20.53,286122
14-Feb-17,19.31,19.53,18.85,19.30,113395
13-Feb-17,19.42,20.00,19.10,19.34,280588
10-Feb-17,19.05,19.66,18.85,19.31,106293
9-Feb-17,18.30,19.05,18.30,18.98,164577
8-Feb-17,18.51,18.61,18.05,18.30,106353
7-Feb-17,19.15,19.18,18.44,18.63,137071
6-Feb-17,18.94,19.19,18.66,19.13,182764
3-Feb-17,18.46,19.16,18.26,19.00,268373
2-Feb-17,18.23,18.48,17.82,18.25,134886
1-Feb-17,18.56,18.63,18.08,18.35,213018
31-Jan-17,17.69,18.50,17.55,18.47,266912
30-Jan-17,18.25,18.37,17.80,17.91,143732
27-Jan-17,18.28,18.58,18.10,18.39,162573
26-Jan-17,18.57,18.79,18.15,18.23,155407
25-Jan-17,18.64,18.81,18.24,18.55,245724
24-Jan-17,19.45,19.73,18.21,18.52,422697
23-Jan-17,19.48,19.58,18.93,19.41,283234
20-Jan-17,19.35,19.66,19.15,19.57,245119
19-Jan-17,19.29,19.49,19.00,19.30,199128
18-Jan-17,19.55,19.55,18.94,19.30,225723
17-Jan-17,19.91,19.91,19.07,19.35,252297
13-Jan-17,19.86,20.70,19.56,20.22,275638
12-Jan-17,19.51,20.14,19.01,19.84,160026
11-Jan-17,20.62,20.88,19.31,19.84,426147
10-Jan-17,19.78,20.74,19.33,20.74,259054
9-Jan-17,20.46,20.66,19.60,19.66,411378
6-Jan-17,20.00,21.00,20.00,20.22,404332
5-Jan-17,20.37,20.74,19.61,19.98,269808
4-Jan-17,19.91,20.78,19.91,20.25,373284
3-Jan-17,20.78,20.89,19.50,19.82,267779
30-Dec-16,20.09,20.56,19.93,20.44,320520
29-Dec-16,19.83,20.38,19.70,20.07,290569
28-Dec-16,19.45,20.12,19.14,19.81,279892
27-Dec-16,19.71,20.18,19.22,19.40,198122
23-Dec-16,18.43,19.65,18.43,19.57,448524
22-Dec-16,18.97,18.97,18.22,18.36,377367
21-Dec-16,19.80,19.92,18.82,18.91,239092
20-Dec-16,20.47,20.92,19.70,19.90,222780
19-Dec-16,20.10,20.69,19.65,19.81,249260
16-Dec-16,19.68,20.75,19.56,20.26,561367
15-Dec-16,20.05,20.10,19.22,19.65,817438
14-Dec-16,23.18,23.47,19.67,19.81,1230638
13-Dec-16,25.78,26.12,23.34,23.42,501428
12-Dec-16,26.80,27.00,25.36,25.46,297110
9-Dec-16,27.60,28.48,26.94,27.15,219618
8-Dec-16,26.33,27.28,25.14,27.22,231503
7-Dec-16,27.79,28.48,25.95,26.47,209145
6-Dec-16,27.16,28.35,26.43,28.24,277547
5-Dec-16,26.71,27.77,25.94,27.08,287127
2-Dec-16,24.22,26.75,23.85,26.27,275531
1-Dec-16,26.07,26.24,24.07,24.31,271876
30-Nov-16,27.64,28.05,25.75,25.93,202988
29-Nov-16,27.49,27.83,26.76,27.48,149187
28-Nov-16,27.99,27.99,26.46,27.31,242183
25-Nov-16,28.00,28.90,26.97,28.13,105601
23-Nov-16,26.48,28.07,25.98,27.91,394583
22-Nov-16,27.50,27.77,26.43,27.18,206881
21-Nov-16,28.09,28.39,27.16,27.48,237440
18-Nov-16,29.13,29.45,28.02,28.15,168384
17-Nov-16,29.16,29.48,28.40,28.92,254569
16-Nov-16,31.00,31.10,28.96,29.00,215667
15-Nov-16,30.80,31.85,29.66,30.87,257032
14-Nov-16,30.00,31.44,28.97,30.95,528610
11-Nov-16,27.70,29.78,27.26,29.69,436771
10-Nov-16,27.82,28.91,27.30,27.88,498543
9-Nov-16,23.78,27.24,23.44,27.01,525602
8-Nov-16,22.14,22.99,21.61,22.48,146940
7-Nov-16,21.48,22.50,21.15,22.36,259478
4-Nov-16,19.97,21.14,19.97,20.86,244524
3-Nov-16,21.50,21.91,19.54,19.92,600401
2-Nov-16,24.09,24.09,21.64,21.74,335700
1-Nov-16,23.74,24.05,23.00,23.79,119083
31-Oct-16,23.83,24.03,23.44,23.69,128664
28-Oct-16,23.70,23.99,23.02,23.77,171173
27-Oct-16,24.86,25.04,23.69,23.85,151614
26-Oct-16,24.75,25.24,24.26,24.52,103660
25-Oct-16,25.42,25.42,24.62,24.74,114846
24-Oct-16,26.24,26.24,24.98,25.35,204208
21-Oct-16,25.19,26.23,23.91,25.57,169275
20-Oct-16,24.16,25.47,23.88,25.34,249588
19-Oct-16,25.58,25.58,24.30,24.31,137173
18-Oct-16,25.67,26.34,25.52,25.60,174967
17-Oct-16,25.19,25.48,24.10,25.28,308069
14-Oct-16,26.51,26.60,25.02,25.12,362282
13-Oct-16,26.36,27.19,25.93,26.42,288568
12-Oct-16,29.37,29.99,26.46,26.87,314197
11-Oct-16,30.40,31.04,29.14,29.51,129095
10-Oct-16,30.07,30.99,29.88,30.87,111852
7-Oct-16,30.26,30.35,29.36,29.64,233673
6-Oct-16,29.90,30.07,29.15,29.75,176451
5-Oct-16,29.30,30.19,29.06,30.06,127153
4-Oct-16,29.68,30.03,29.00,29.23,176847
3-Oct-16,29.64,29.82,28.70,29.59,216150
30-Sep-16,29.68,30.23,29.23,29.91,171095
29-Sep-16,32.46,32.55,29.37,29.43,272372
28-Sep-16,32.32,32.68,31.91,32.37,231364
27-Sep-16,30.92,32.18,30.74,32.15,311263
26-Sep-16,32.00,32.00,30.90,31.06,126991
23-Sep-16,31.37,32.43,31.03,31.31,318518
22-Sep-16,31.69,31.99,31.16,31.40,154877
21-Sep-16,31.52,31.66,30.26,31.40,208798
20-Sep-16,31.18,31.67,30.48,31.28,141097
19-Sep-16,31.54,31.85,30.58,30.84,143484
16-Sep-16,30.04,31.94,30.04,31.30,464835
15-Sep-16,29.01,30.14,28.72,29.97,157265
14-Sep-16,28.68,29.89,28.64,28.94,220907
13-Sep-16,29.09,29.26,27.43,28.42,293700
12-Sep-16,28.38,29.62,27.97,29.47,452669
9-Sep-16,29.67,30.06,28.55,28.57,203529
8-Sep-16,29.88,30.36,29.62,30.07,184570
7-Sep-16,30.69,30.75,29.66,29.99,203182
6-Sep-16,29.98,30.54,29.57,29.97,301408
2-Sep-16,30.26,30.30,29.46,29.64,93530
1-Sep-16,29.83,30.35,29.70,30.05,215721
31-Aug-16,29.98,30.09,29.21,29.81,220754
30-Aug-16,30.00,30.37,29.44,30.03,243558
29-Aug-16,30.14,30.54,29.82,29.97,196929
26-Aug-16,29.41,30.23,29.41,30.00,224981
25-Aug-16,29.35,30.14,28.55,29.26,194104
24-Aug-16,31.35,31.99,29.01,29.24,245233
23-Aug-16,31.70,31.94,31.35,31.43,189895
22-Aug-16,30.90,31.81,30.47,31.80,167510
19-Aug-16,31.09,31.20,30.45,30.66,160725
18-Aug-16,30.91,31.39,30.71,31.17,144453
17-Aug-16,31.51,31.51,30.54,30.90,184565
16-Aug-16,31.63,32.24,31.09,31.52,244175
15-Aug-16,31.45,33.30,31.45,31.83,362738
12-Aug-16,30.95,31.64,30.47,31.29,196159
11-Aug-16,30.21,31.41,29.58,31.14,216605
10-Aug-16,30.83,31.32,29.72,29.89,149779
9-Aug-16,30.78,31.37,29.98,31.33,165696
8-Aug-16,31.68,32.24,30.41,30.62,201695
5-Aug-16,32.33,32.33,31.11,31.51,228114
4-Aug-16,31.40,33.00,28.35,32.35,516736
3-Aug-16,30.06,31.74,29.96,31.63,228093
2-Aug-16,30.83,31.06,29.86,30.30,240991
1-Aug-16,30.83,31.22,30.46,30.90,280371
29-Jul-16,29.83,31.00,29.29,30.59,144652
28-Jul-16,29.87,30.37,29.70,30.02,247808
27-Jul-16,29.16,29.99,29.07,29.96,143076
26-Jul-16,28.57,29.10,28.30,28.97,145918
25-Jul-16,29.11,29.11,28.19,28.82,104036
22-Jul-16,28.77,29.06,28.14,28.99,107647
21-Jul-16,29.18,29.91,28.49,28.76,200047
20-Jul-16,27.24,29.06,27.02,28.82,205618
19-Jul-16,28.28,28.80,26.97,27.08,243413
18-Jul-16,27.35,28.50,26.89,28.43,299488
15-Jul-16,26.59,27.33,25.73,27.24,226537
14-Jul-16,26.72,27.20,25.95,26.46,160799
13-Jul-16,27.71,27.84,26.11,26.21,175222
12-Jul-16,27.52,28.00,26.85,27.50,211353
11-Jul-16,27.48,27.85,26.98,27.08,187294
8-Jul-16,25.90,27.17,25.70,27.11,261490
7-Jul-16,26.41,26.41,25.25,25.87,265634
6-Jul-16,25.94,26.54,25.48,26.23,347627
5-Jul-16,26.80,26.98,26.11,26.20,215454
1-Jul-16,26.89,27.52,26.59,27.19,305466
30-Jun-16,26.95,27.57,26.34,26.99,567249
29-Jun-16,26.46,27.24,25.64,26.91,330609
28-Jun-16,23.67,27.00,23.53,25.86,422542
27-Jun-16,23.99,24.91,22.38,23.05,358577
24-Jun-16,24.80,25.60,24.07,24.13,346740
23-Jun-16,24.79,26.55,24.41,26.39,296215
22-Jun-16,24.27,25.90,23.92,24.39,204671
21-Jun-16,24.64,24.72,23.57,24.29,192351
20-Jun-16,24.85,25.01,24.03,24.54,247595
17-Jun-16,25.55,25.74,24.03,24.35,539259
16-Jun-16,25.37,25.60,24.78,25.48,259039
15-Jun-16,25.57,26.22,25.03,25.58,300182
14-Jun-16,26.31,26.78,24.91,25.31,302733
13-Jun-16,25.84,26.83,25.67,26.36,367191
10-Jun-16,26.83,26.93,25.99,26.16,222704
9-Jun-16,27.18,27.51,26.86,27.28,295367
8-Jun-16,27.95,28.09,27.17,27.50,224192
7-Jun-16,27.91,28.33,27.43,27.85,275492
6-Jun-16,26.47,28.37,25.96,28.20,285726
3-Jun-16,27.30,27.30,26.16,26.38,305362
2-Jun-16,25.88,27.47,25.73,27.44,262516
1-Jun-16,25.44,26.39,25.12,25.94,241995
31-May-16,24.75,25.90,24.61,25.56,282200
27-May-16,23.97,25.30,23.81,24.50,233197
26-May-16,24.30,24.37,23.88,23.95,246763
25-May-16,23.80,24.72,23.55,24.36,348645
24-May-16,22.96,23.58,22.67,23.46,255781
23-May-16,22.49,23.26,22.36,22.65,265610
20-May-16,21.47,22.66,21.47,22.61,297405
19-May-16,20.88,21.59,20.55,21.32,483318
18-May-16,19.99,22.35,19.84,21.06,1185544
17-May-16,18.18,18.62,17.78,18.04,225874
16-May-16,17.56,18.36,17.00,18.24,262631
13-May-16,16.76,17.63,16.28,17.39,156127
12-May-16,17.80,17.80,16.50,16.81,372985
11-May-16,18.58,18.83,17.52,17.62,158839
10-May-16,18.79,18.86,17.87,18.60,234811
9-May-16,18.18,18.94,18.16,18.79,466294
6-May-16,18.62,19.06,18.08,18.15,216264
5-May-16,18.46,19.45,16.77,18.85,595093
4-May-16,19.78,20.08,19.42,19.46,355880
3-May-16,20.49,20.91,19.84,20.01,275602
2-May-16,20.53,20.97,19.70,20.81,297867
29-Apr-16,20.67,21.07,20.18,20.56,241190
28-Apr-16,20.92,21.61,20.44,20.84,224621
27-Apr-16,21.26,21.48,20.68,21.08,155572
26-Apr-16,21.97,21.97,21.04,21.38,285644
25-Apr-16,22.21,22.88,21.89,22.00,184085
22-Apr-16,21.77,22.54,21.23,22.36,182226
21-Apr-16,20.89,21.94,20.64,21.66,282726
20-Apr-16,21.06,21.38,20.22,21.01,215710
19-Apr-16,21.87,21.91,20.35,20.82,312756
18-Apr-16,22.08,22.08,21.35,21.80,265090
15-Apr-16,21.36,22.35,21.10,22.20,196133
14-Apr-16,21.58,21.89,21.03,21.47,207238
13-Apr-16,21.05,21.73,20.55,21.54,202696
12-Apr-16,20.73,20.94,20.14,20.81,291118
11-Apr-16,20.67,21.60,19.90,20.67,240749
8-Apr-16,20.97,21.50,20.10,20.44,244983
7-Apr-16,21.13,21.33,19.72,20.32,247096
6-Apr-16,19.54,21.48,19.54,21.42,333104
5-Apr-16,19.51,19.98,18.98,19.39,237848
4-Apr-16,19.14,20.38,19.11,19.84,346436
1-Apr-16,18.54,19.13,18.12,18.98,279236
31-Mar-16,17.37,19.19,17.37,18.75,339305
30-Mar-16,17.37,18.50,17.01,17.23,191220
29-Mar-16,15.94,17.23,15.53,17.16,195188
28-Mar-16,16.49,16.67,15.67,15.97,241385
24-Mar-16,15.80,16.87,15.18,16.38,194623
23-Mar-16,17.39,17.59,15.88,15.95,272763
22-Mar-16,16.67,17.54,16.67,17.39,249319
21-Mar-16,16.08,17.08,15.85,16.78,234117
18-Mar-16,15.42,16.24,15.03,16.15,444837
17-Mar-16,15.77,16.01,14.90,15.15,404419
16-Mar-16,16.04,16.63,15.45,15.89,232067
15-Mar-16,17.20,17.20,16.00,16.05,353958
14-Mar-16,17.48,17.91,17.06,17.49,256770
11-Mar-16,16.72,17.77,16.50,17.60,273777
10-Mar-16,17.54,18.09,16.15,16.61,317672
9-Mar-16,17.99,17.99,16.71,17.33,238231
8-Mar-16,19.37,19.85,17.76,17.87,303216
7-Mar-16,18.42,19.49,17.80,19.47,311583
4-Mar-16,17.53,18.73,16.92,18.61,498414
3-Mar-16,17.05,17.27,16.52,17.14,329069
2-Mar-16,16.70,17.71,16.27,17.08,418798
1-Mar-16,15.91,16.67,15.00,16.63,467909
29-Feb-16,15.77,16.52,15.53,15.98,354938
26-Feb-16,15.41,16.14,15.01,15.82,276897
25-Feb-16,15.93,16.27,15.01,15.28,233924
24-Feb-16,15.48,15.98,14.85,15.74,246133
23-Feb-16,17.42,17.49,15.68,15.69,211148
22-Feb-16,17.94,18.41,17.41,17.51,222019
19-Feb-16,16.96,17.51,16.29,17.42,236458
18-Feb-16,18.03,18.44,17.10,17.15,305852
17-Feb-16,17.06,18.30,16.89,17.54,318732
16-Feb-16,16.64,17.53,16.21,16.88,250604
12-Feb-16,15.66,16.50,15.08,16.38,219726
11-Feb-16,15.65,16.06,14.84,15.30,368594
10-Feb-16,16.36,17.38,15.83,16.06,207370
9-Feb-16,15.87,16.83,15.52,16.21,236323
8-Feb-16,17.91,18.23,15.70,16.21,400782
5-Feb-16,18.97,19.65,17.97,18.23,331282
4-Feb-16,18.50,20.44,18.19,19.18,207637
3-Feb-16,19.85,19.90,17.81,18.53,302599
2-Feb-16,20.34,20.49,19.48,19.70,202325
1-Feb-16,20.03,21.02,19.24,20.64,216595
29-Jan-16,19.49,20.35,18.97,20.13,275770
28-Jan-16,20.74,22.64,19.37,19.49,271463
27-Jan-16,22.15,22.33,20.45,20.54,246148
26-Jan-16,22.34,22.44,21.13,22.15,181951
25-Jan-16,22.16,23.62,21.66,22.29,281640
22-Jan-16,21.99,22.41,21.12,22.31,246337
21-Jan-16,22.11,22.44,21.04,21.23,241499
20-Jan-16,21.49,22.79,20.46,21.98,326667
19-Jan-16,23.01,23.01,21.11,21.88,275246
15-Jan-16,22.58,23.76,21.84,22.44,257082
14-Jan-16,22.73,23.96,21.42,23.79,323211
13-Jan-16,24.81,25.03,22.18,22.54,367308
12-Jan-16,23.78,25.34,23.51,24.85,375920
11-Jan-16,25.02,25.07,22.84,23.17,293221
8-Jan-16,26.19,26.95,24.75,24.82,216419
7-Jan-16,26.82,27.24,25.81,26.07,245540
6-Jan-16,27.87,28.18,26.61,27.62,250355
5-Jan-16,29.46,29.70,28.12,28.52,261083
4-Jan-16,30.22,30.66,29.02,29.41,268756
31-Dec-15,30.95,31.50,30.58,30.97,184445
30-Dec-15,31.06,31.58,30.76,31.13,151102
29-Dec-15,30.60,31.45,30.01,31.28,195487
28-Dec-15,31.16,31.69,30.09,30.36,124711
24-Dec-15,31.16,31.57,30.98,31.27,93022
23-Dec-15,30.94,31.49,30.55,31.11,120562
22-Dec-15,31.56,31.56,30.33,30.76,196746
21-Dec-15,31.78,32.09,30.74,31.46,169660
18-Dec-15,31.07,31.98,30.63,31.43,2086811
17-Dec-15,31.23,31.87,30.10,31.27,220199
16-Dec-15,30.40,31.49,30.20,31.36,273093
15-Dec-15,29.81,30.36,28.69,30.06,368087
14-Dec-15,29.67,30.43,29.04,29.46,353651
11-Dec-15,30.40,31.16,29.50,29.56,439133
10-Dec-15,31.87,32.22,30.64,31.25,255226
9-Dec-15,33.04,33.04,31.46,31.72,139930
8-Dec-15,31.94,33.89,31.47,33.13,186922
7-Dec-15,34.46,34.90,32.29,32.59,223316
4-Dec-15,33.13,34.63,32.80,34.46,262474
3-Dec-15,34.83,34.91,32.43,33.12,169027
2-Dec-15,34.41,35.15,33.87,34.73,192179
1-Dec-15,34.81,35.06,33.86,34.38,270310
30-Nov-15,35.56,36.11,34.22,34.58,239255
27-Nov-15,35.36,35.90,35.11,35.50,50778
25-Nov-15,34.34,35.73,34.16,35.30,194605
24-Nov-15,34.64,35.12,33.54,34.24,192386
23-Nov-15,33.66,35.37,33.39,34.70,282903
20-Nov-15,32.87,33.81,32.27,33.59,146545
19-Nov-15,34.20,34.86,31.67,32.50,258754
18-Nov-15,33.19,34.25,32.85,34.10,369588
17-Nov-15,32.35,33.58,31.96,33.02,208468
16-Nov-15,31.44,32.68,30.77,32.45,277814
13-Nov-15,31.13,32.78,30.57,31.91,201241
12-Nov-15,32.30,32.49,31.30,31.45,199514
11-Nov-15,33.79,33.88,32.28,32.57,168942
10-Nov-15,33.27,33.93,32.66,33.54,306927
9-Nov-15,32.41,33.74,31.24,33.25,284594
6-Nov-15,31.14,32.36,30.60,32.19,162271
5-Nov-15,31.90,32.11,30.42,31.41,207563
4-Nov-15,33.03,33.43,31.50,32.65,399591
3-Nov-15,33.00,34.31,32.42,32.87,244369
2-Nov-15,31.31,33.48,31.05,33.37,240723
30-Oct-15,31.04,31.50,30.61,31.07,127076
29-Oct-15,32.15,32.84,31.03,31.29,218038
28-Oct-15,30.14,32.20,29.26,32.16,381923
27-Oct-15,29.48,30.40,29.32,30.38,205579
26-Oct-15,29.43,30.46,28.61,29.70,166716
23-Oct-15,28.88,29.62,28.55,29.43,399687
22-Oct-15,29.50,30.24,27.85,28.20,572611
21-Oct-15,29.34,29.98,28.11,29.15,395469
20-Oct-15,29.09,29.47,28.28,28.71,320183
19-Oct-15,25.96,29.40,25.48,29.28,733059
16-Oct-15,25.92,26.83,25.43,26.01,324351
15-Oct-15,24.38,25.85,24.17,25.79,493692
14-Oct-15,25.31,26.50,23.97,24.36,754210
13-Oct-15,23.70,26.73,23.70,25.15,946492
12-Oct-15,24.01,24.05,23.43,23.84,307972
9-Oct-15,23.37,24.17,23.23,23.74,163678
8-Oct-15,22.77,23.85,22.41,23.48,573870
7-Oct-15,21.63,23.30,21.09,23.11,440204
6-Oct-15,22.52,22.89,20.35,21.55,234523
5-Oct-15,22.80,23.77,21.57,22.76,241007
2-Oct-15,20.47,22.56,20.32,22.38,290313
1-Oct-15,21.11,21.50,19.67,20.59,321327
30-Sep-15,21.15,21.91,20.29,21.42,557151
29-Sep-15,21.71,23.21,20.45,20.58,453514
28-Sep-15,23.71,23.71,21.25,21.79,461326
25-Sep-15,26.92,26.94,23.83,24.00,687451
24-Sep-15,26.17,26.87,25.49,26.59,425173
23-Sep-15,26.03,26.80,25.70,26.46,234588
22-Sep-15,25.27,26.59,25.27,26.01,440674
21-Sep-15,28.90,28.90,25.55,26.50,318874
18-Sep-15,27.57,28.86,27.49,28.59,615911
17-Sep-15,27.50,28.36,27.07,28.14,244595
16-Sep-15,27.39,27.74,26.72,27.54,212866
15-Sep-15,26.75,27.41,26.35,27.25,125462
14-Sep-15,26.52,27.00,26.00,26.77,228294
11-Sep-15,26.19,26.73,25.78,26.64,255016
10-Sep-15,26.28,26.65,25.88,26.35,252675
9-Sep-15,27.50,27.53,26.11,26.25,154938
8-Sep-15,26.62,27.46,26.03,27.35,177167
4-Sep-15,25.64,26.80,25.50,25.92,94222
3-Sep-15,26.89,26.89,25.91,26.19,287237
2-Sep-15,26.16,26.80,25.18,26.67,213357
1-Sep-15,25.66,26.49,25.40,25.76,234777
31-Aug-15,27.07,27.99,26.14,26.35,194533
28-Aug-15,26.09,27.25,26.05,27.17,254611
27-Aug-15,26.68,27.30,25.59,26.31,400522
26-Aug-15,26.21,26.64,24.84,26.44,315118
25-Aug-15,27.38,27.53,25.15,25.26,414524
24-Aug-15,26.40,28.18,24.43,26.20,286343
21-Aug-15,27.79,29.89,27.50,28.12,268609
20-Aug-15,29.34,29.98,28.64,28.79,278770
19-Aug-15,30.34,31.18,29.48,29.95,380751
18-Aug-15,31.87,32.15,30.65,30.79,304267
17-Aug-15,30.61,32.51,30.15,32.12,225907
14-Aug-15,31.60,31.99,30.03,30.82,260047
13-Aug-15,32.72,33.97,31.38,31.56,317331
12-Aug-15,32.55,32.96,30.86,32.56,342262
11-Aug-15,33.19,33.61,32.31,32.99,532219
10-Aug-15,34.61,35.22,32.84,33.60,492482
7-Aug-15,33.00,34.45,32.76,34.13,563893
6-Aug-15,38.30,38.49,32.13,33.12,605255
5-Aug-15,38.18,38.58,37.64,37.88,130555
4-Aug-15,38.14,38.39,37.43,37.68,193231
3-Aug-15,37.15,39.00,36.30,37.79,267361
31-Jul-15,37.21,38.55,36.73,37.60,577410
30-Jul-15,37.19,37.49,36.00,37.16,190762
29-Jul-15,37.39,37.76,36.35,37.03,283665
28-Jul-15,35.91,37.48,35.10,37.33,271112
27-Jul-15,36.05,36.72,34.22,35.54,382283
24-Jul-15,37.21,38.38,36.51,36.72,421637
23-Jul-15,39.00,39.39,37.42,37.60,236594
22-Jul-15,37.28,38.98,36.67,38.84,310060
21-Jul-15,37.75,37.96,36.00,37.71,401360
20-Jul-15,37.73,37.84,36.63,37.53,328170
17-Jul-15,36.90,37.70,36.30,37.51,449644
16-Jul-15,36.55,37.75,36.18,36.55,623362
15-Jul-15,37.02,37.44,36.25,36.36,2186156
14-Jul-15,38.99,39.21,37.93,38.07,274254
13-Jul-15,39.00,39.90,38.52,39.44,224656
10-Jul-15,36.32,38.99,36.17,38.85,308952
9-Jul-15,35.89,36.25,34.41,35.82,233776
8-Jul-15,36.38,36.89,35.08,35.35,260208
7-Jul-15,36.67,36.87,35.21,36.84,192323
6-Jul-15,34.70,37.23,34.60,36.82,233631
2-Jul-15,35.21,35.48,34.68,35.27,94857
1-Jul-15,37.15,37.75,34.93,35.18,452109
30-Jun-15,36.23,38.21,35.88,37.97,325773
29-Jun-15,35.96,37.18,35.60,35.69,262626
26-Jun-15,36.65,37.47,35.26,36.44,1207652
25-Jun-15,36.98,37.35,35.57,36.41,155747
24-Jun-15,37.83,38.24,36.68,36.86,255951
23-Jun-15,37.86,38.37,37.31,38.08,270467
22-Jun-15,36.94,38.00,36.24,38.00,245221
19-Jun-15,36.90,36.98,36.36,36.50,304212
18-Jun-15,35.37,36.90,35.15,36.84,355655
17-Jun-15,34.40,35.19,34.40,34.99,217149
16-Jun-15,35.18,35.75,34.02,34.29,209110
15-Jun-15,33.91,35.48,33.64,35.36,456618
12-Jun-15,33.64,34.07,33.15,33.97,186660
11-Jun-15,32.00,33.78,31.99,33.74,160637
10-Jun-15,31.65,32.53,31.20,31.85,158838
9-Jun-15,32.76,32.76,30.32,31.57,218803
8-Jun-15,33.73,33.73,32.41,32.82,135930
5-Jun-15,32.40,33.76,31.95,33.69,129303
4-Jun-15,32.53,32.96,31.82,32.73,113238
3-Jun-15,32.44,32.95,31.91,32.83,110651
2-Jun-15,31.70,32.93,30.99,32.23,148388
1-Jun-15,32.69,32.69,30.50,31.97,224912
29-May-15,32.02,32.70,31.70,32.35,170769
28-May-15,31.87,32.27,31.33,31.97,191639
27-May-15,32.30,32.56,31.39,31.90,124726
26-May-15,31.44,32.36,31.05,32.04,140804
22-May-15,31.16,31.90,30.98,31.50,141282
21-May-15,32.30,32.53,30.09,31.13,172825
20-May-15,32.14,32.68,31.55,32.34,124516
19-May-15,32.88,32.92,31.12,31.92,150462
18-May-15,30.68,33.21,30.24,32.83,348985
15-May-15,30.46,30.88,29.50,30.84,226652
14-May-15,30.00,30.70,28.71,30.42,205926
13-May-15,30.81,31.41,29.58,29.68,210537
12-May-15,29.78,31.16,29.44,30.69,405683
11-May-15,29.20,30.41,29.00,30.24,675103
8-May-15,29.75,30.44,28.78,29.09,202699
7-May-15,28.72,29.75,27.49,29.74,308450
6-May-15,27.16,28.79,26.89,27.85,122420
5-May-15,29.45,29.45,26.68,27.17,310809
4-May-15,29.71,30.12,28.98,29.73,177352
1-May-15,28.72,29.92,28.50,29.75,156670
30-Apr-15,31.56,32.00,27.92,28.61,339096
29-Apr-15,31.96,32.47,31.00,31.87,124318
28-Apr-15,32.26,33.18,30.26,32.02,177679
27-Apr-15,34.17,34.32,31.74,32.12,258631
24-Apr-15,33.78,34.50,33.52,33.96,101710
23-Apr-15,33.53,34.00,32.58,33.87,358193
22-Apr-15,33.76,34.20,32.80,33.73,136675
21-Apr-15,33.74,34.35,33.19,33.78,107568
20-Apr-15,33.01,33.86,32.40,33.43,111333
17-Apr-15,33.27,33.70,32.34,32.85,182867
16-Apr-15,33.82,34.34,33.40,33.59,110856
15-Apr-15,33.98,34.46,33.19,33.96,121538
14-Apr-15,34.90,34.90,33.51,34.16,137064
13-Apr-15,34.49,34.90,33.88,34.78,140211
10-Apr-15,33.66,35.00,33.29,34.43,103395
9-Apr-15,33.35,33.69,31.89,33.30,106278
8-Apr-15,33.12,34.50,32.64,33.40,159350
7-Apr-15,32.12,34.31,32.12,33.26,282390
6-Apr-15,31.56,32.48,31.34,32.03,183705
2-Apr-15,31.66,32.15,30.70,31.64,168362
1-Apr-15,30.86,31.71,29.60,31.55,207050
31-Mar-15,31.78,32.46,31.09,31.37,163811
30-Mar-15,32.32,33.00,31.13,32.11,126116
27-Mar-15,30.89,32.08,30.87,31.93,145603
26-Mar-15,31.08,31.13,29.50,30.77,305557
25-Mar-15,33.26,33.30,30.85,30.90,275693
24-Mar-15,33.94,35.31,33.02,33.21,251137
23-Mar-15,35.67,36.87,33.70,33.89,322843
20-Mar-15,39.00,39.90,34.73,36.25,1389228
19-Mar-15,37.00,39.45,36.96,39.17,304166
18-Mar-15,35.35,37.58,35.24,37.16,451351
17-Mar-15,34.94,35.65,34.54,35.38,191430
16-Mar-15,34.95,35.56,34.56,34.94,149816
13-Mar-15,35.31,35.89,34.11,34.77,198649
12-Mar-15,36.03,36.03,34.68,35.25,211461
11-Mar-15,34.82,36.01,34.20,35.71,263099
10-Mar-15,34.04,35.14,33.21,34.63,202361
9-Mar-15,35.58,35.58,34.01,34.40,278655
6-Mar-15,35.39,35.85,34.95,35.36,340205
5-Mar-15,34.62,35.86,34.47,35.58,268184
4-Mar-15,34.25,35.54,31.16,34.62,551485
3-Mar-15,34.64,34.76,34.01,34.65,133944
2-Mar-15,34.47,34.79,34.06,34.70,209171
27-Feb-15,34.54,35.67,34.15,34.57,168711
26-Feb-15,34.11,34.84,34.00,34.62,296587
25-Feb-15,34.44,34.83,33.61,34.30,165716
24-Feb-15,35.05,35.52,34.27,34.51,189395
23-Feb-15,35.64,35.65,34.54,35.13,270824
20-Feb-15,36.01,36.93,35.58,35.86,616687
19-Feb-15,35.83,36.06,35.59,35.91,302824
18-Feb-15,36.32,36.70,35.18,35.93,343109
17-Feb-15,34.20,36.75,33.83,36.55,640124
13-Feb-15,34.00,34.21,33.31,34.09,384263
12-Feb-15,33.49,34.24,32.91,33.98,140625
11-Feb-15,33.27,34.25,32.64,33.18,143115
10-Feb-15,32.72,33.73,32.35,33.39,272068
9-Feb-15,32.99,33.12,31.94,32.25,252635
6-Feb-15,33.45,34.24,32.85,33.13,209647
5-Feb-15,31.61,33.66,31.14,33.49,208720
4-Feb-15,31.07,31.73,30.35,31.36,146097
3-Feb-15,31.77,32.03,30.23,31.37,193558
2-Feb-15,31.04,32.00,30.23,31.69,214489
30-Jan-15,31.18,32.40,30.40,31.62,210421
29-Jan-15,32.40,32.58,31.11,31.47,212473
28-Jan-15,33.02,33.65,31.69,32.31,168329
27-Jan-15,32.31,33.41,32.05,32.74,245337
26-Jan-15,32.19,33.18,31.74,33.10,275899
23-Jan-15,32.55,33.16,31.65,32.44,201722
22-Jan-15,32.00,32.93,30.73,32.60,297644
21-Jan-15,32.46,33.60,31.79,31.91,357606
20-Jan-15,32.06,33.93,31.67,33.39,249743
16-Jan-15,30.92,32.50,30.30,31.87,250305
15-Jan-15,34.59,34.59,31.21,31.47,161476
14-Jan-15,33.20,35.28,32.80,34.55,165652
13-Jan-15,34.25,34.71,33.05,33.65,238619
12-Jan-15,33.64,34.56,33.02,33.87,156963
9-Jan-15,36.00,36.00,33.76,33.91,195357
8-Jan-15,36.22,37.00,34.77,36.02,243676
7-Jan-15,33.16,36.00,33.10,35.74,255914
6-Jan-15,34.82,35.82,32.75,32.84,295443
5-Jan-15,34.66,35.98,34.13,34.73,164089
2-Jan-15,35.28,36.20,34.09,35.18,132727
31-Dec-14,34.22,35.50,34.22,35.07,203792
30-Dec-14,35.40,35.40,33.01,34.12,182354
29-Dec-14,35.51,36.20,34.64,35.67,220135
26-Dec-14,33.26,35.90,33.26,35.56,205249
24-Dec-14,32.60,34.43,32.40,33.00,253179
23-Dec-14,38.42,38.42,32.45,32.66,542882
22-Dec-14,36.37,39.90,35.51,38.58,730587
19-Dec-14,33.75,34.95,33.00,34.53,995560
18-Dec-14,29.89,35.58,28.23,33.83,1562144
17-Dec-14,28.79,29.25,28.28,29.25,291122
16-Dec-14,28.91,30.00,28.06,28.79,224505
15-Dec-14,30.47,30.99,28.56,28.99,259653
12-Dec-14,29.15,30.47,29.15,29.68,181189
11-Dec-14,30.14,31.16,29.27,29.75,195611
10-Dec-14,30.38,31.31,29.56,29.76,202559
9-Dec-14,28.21,30.86,28.07,30.76,135531
8-Dec-14,29.26,30.64,28.79,28.91,267750
5-Dec-14,28.60,29.40,28.51,28.91,158215
4-Dec-14,29.05,29.44,27.97,28.60,205036
3-Dec-14,28.72,29.98,28.01,29.24,309058
2-Dec-14,28.26,29.00,28.01,28.60,197807
1-Dec-14,28.03,28.46,26.32,28.31,289870
28-Nov-14,27.90,29.17,27.60,28.26,211210
26-Nov-14,27.83,28.49,27.52,28.04,141292
25-Nov-14,28.00,28.68,27.50,27.76,236465
24-Nov-14,27.56,28.93,27.56,28.01,502905
21-Nov-14,26.85,27.72,26.28,27.21,476665
20-Nov-14,23.53,26.30,23.29,26.10,352850
19-Nov-14,24.85,24.85,23.58,23.69,104217
18-Nov-14,23.02,24.79,23.00,24.58,434406
17-Nov-14,23.29,23.29,22.52,22.97,133756
14-Nov-14,24.09,24.09,22.84,23.27,168464
13-Nov-14,23.74,25.18,23.55,24.13,356414
12-Nov-14,22.00,24.00,20.56,23.78,396366
11-Nov-14,20.16,21.38,19.52,21.15,318351
10-Nov-14,19.90,21.89,19.75,20.24,945527
7-Nov-14,19.20,19.96,18.76,19.84,168931
6-Nov-14,19.72,20.10,19.01,19.21,190727
5-Nov-14,20.88,21.29,19.71,19.88,104113
4-Nov-14,21.07,21.39,20.53,20.62,63740
3-Nov-14,21.29,21.48,20.81,21.19,101639
31-Oct-14,21.32,21.61,20.55,21.29,228491
30-Oct-14,20.19,21.18,20.19,20.67,193003
29-Oct-14,21.79,21.79,20.07,20.27,130994
28-Oct-14,20.75,21.97,20.53,21.79,206882
27-Oct-14,19.02,20.65,19.02,20.58,214032
24-Oct-14,19.66,19.68,19.10,19.16,256337
23-Oct-14,19.53,20.60,19.29,19.69,577409
22-Oct-14,19.35,19.85,19.14,19.28,58043
21-Oct-14,19.27,19.54,18.81,19.28,61061
20-Oct-14,18.35,19.00,18.35,19.00,69676
17-Oct-14,19.21,19.21,18.38,18.46,112043
16-Oct-14,18.00,18.88,18.00,18.69,179184
15-Oct-14,18.57,19.15,18.08,18.42,199783
14-Oct-14,18.06,19.68,17.92,19.18,259153
13-Oct-14,18.15,18.60,17.31,17.78,159979
10-Oct-14,19.58,20.32,18.00,18.12,308387
9-Oct-14,20.49,20.58,19.52,19.72,117123
8-Oct-14,19.48,20.59,19.22,20.50,100982
7-Oct-14,20.19,20.30,19.45,19.47,118806
6-Oct-14,21.25,21.25,20.20,20.41,110476
3-Oct-14,20.55,21.23,20.09,21.11,161701
2-Oct-14,19.71,20.53,19.61,20.25,160680
1-Oct-14,20.48,20.76,19.54,19.77,211883
30-Sep-14,20.06,21.16,20.06,20.90,334805
29-Sep-14,19.01,20.09,19.00,20.01,173296
26-Sep-14,19.58,20.12,19.28,19.47,143707
25-Sep-14,20.38,20.68,19.45,19.49,166951
24-Sep-14,19.98,20.86,19.98,20.41,164071
23-Sep-14,20.20,20.69,19.61,19.84,176615
22-Sep-14,21.31,21.56,20.13,20.45,220474
19-Sep-14,21.94,22.34,21.00,21.57,534509
18-Sep-14,21.37,22.02,20.90,21.78,212122
17-Sep-14,21.30,22.14,21.10,21.31,195479
16-Sep-14,21.05,21.56,20.54,21.34,234774
15-Sep-14,21.70,21.74,20.79,21.11,204350
12-Sep-14,22.33,22.42,21.11,21.70,130253
11-Sep-14,21.89,22.15,21.55,22.07,73171
10-Sep-14,21.53,22.76,21.12,22.08,174994
9-Sep-14,22.75,22.90,21.20,21.44,236077
8-Sep-14,21.47,22.68,21.43,22.63,182549
5-Sep-14,21.18,21.76,20.56,21.47,185279
4-Sep-14,21.34,21.96,21.00,21.29,142159
3-Sep-14,21.15,21.56,20.88,21.23,159689
2-Sep-14,21.31,21.46,20.69,20.84,183471
29-Aug-14,21.05,21.71,21.05,21.36,98340
28-Aug-14,21.80,22.00,20.96,21.05,123816
27-Aug-14,22.53,22.56,21.57,21.69,109385
26-Aug-14,21.54,22.73,21.54,22.34,177516
25-Aug-14,22.10,22.50,21.29,21.45,132442
22-Aug-14,21.00,22.23,20.98,21.98,423209
21-Aug-14,21.07,21.38,20.54,20.92,389968
20-Aug-14,20.67,20.81,20.00,20.18,108465
19-Aug-14,20.86,21.00,20.33,20.79,77866
18-Aug-14,20.52,21.13,20.28,20.91,90236
15-Aug-14,20.79,20.96,20.03,20.46,73350
14-Aug-14,20.71,21.21,20.22,20.54,199664
13-Aug-14,20.69,21.00,20.33,20.78,189442
12-Aug-14,19.93,20.85,19.81,20.52,137366
11-Aug-14,19.36,20.30,19.36,20.12,171949
8-Aug-14,18.98,19.31,18.67,19.19,176141
7-Aug-14,18.69,19.22,18.35,18.94,190737
6-Aug-14,18.87,19.88,18.35,18.55,355199
5-Aug-14,19.35,20.25,18.83,20.19,243192
4-Aug-14,19.96,20.22,19.33,19.48,137343
1-Aug-14,20.26,20.41,19.23,19.88,163419
31-Jul-14,20.85,21.06,20.00,20.30,142677
30-Jul-14,21.46,21.82,20.92,21.19,146531
29-Jul-14,20.24,21.39,20.24,21.22,248700
28-Jul-14,21.09,21.10,20.00,20.20,112232
25-Jul-14,20.97,21.32,20.57,21.09,118956
24-Jul-14,22.25,22.28,21.09,21.16,167035
23-Jul-14,20.47,22.59,20.37,22.21,462836
22-Jul-14,19.01,20.41,18.76,20.15,173935
21-Jul-14,18.71,19.20,18.33,18.85,206220
18-Jul-14,18.30,19.53,18.30,18.85,153414
17-Jul-14,18.94,19.27,18.25,18.37,339026
16-Jul-14,19.51,19.67,18.97,19.05,113913
15-Jul-14,20.20,20.20,19.14,19.37,205567
14-Jul-14,20.29,20.48,20.00,20.25,148399
11-Jul-14,20.28,20.97,19.77,20.11,219103
10-Jul-14,19.20,19.85,18.85,19.82,349965
9-Jul-14,19.93,20.06,19.25,19.72,250817
8-Jul-14,21.38,21.57,19.55,19.88,329034
7-Jul-14,22.17,22.73,21.25,21.39,136656
3-Jul-14,22.29,22.50,21.68,22.17,73731
2-Jul-14,22.39,22.61,21.84,22.23,156310
1-Jul-14,21.82,22.70,21.51,22.31,208843
30-Jun-14,22.12,22.20,21.50,21.73,214753
27-Jun-14,22.48,22.60,21.39,22.24,2287925
26-Jun-14,23.33,23.34,22.32,22.64,163734
25-Jun-14,22.41,23.49,22.05,23.24,164890
24-Jun-14,23.10,23.55,22.37,22.64,229881
23-Jun-14,22.69,23.70,22.69,23.09,368313
20-Jun-14,22.50,23.20,22.37,22.71,430467
19-Jun-14,22.56,22.74,21.96,22.43,266652
18-Jun-14,21.90,22.69,21.29,22.54,215215
17-Jun-14,22.10,22.93,21.54,21.81,159525
16-Jun-14,21.65,22.74,21.37,22.20,307277
13-Jun-14,21.50,21.64,20.52,21.50,226112
12-Jun-14,21.46,22.15,21.20,21.34,376073
11-Jun-14,20.74,21.91,20.74,21.44,228261
10-Jun-14,21.20,21.47,20.44,20.99,555065
9-Jun-14,20.63,22.43,20.40,21.29,512377
6-Jun-14,20.66,20.99,19.81,20.03,434968
5-Jun-14,19.62,20.61,19.25,20.15,228443
4-Jun-14,18.50,19.75,18.41,19.70,200862
3-Jun-14,18.46,18.95,18.25,18.54,167331
2-Jun-14,18.62,19.15,18.41,18.50,220997
30-May-14,20.29,20.32,18.51,18.66,426666
29-May-14,19.60,20.68,19.49,20.44,2095030
28-May-14,19.29,19.83,18.84,19.44,524485
27-May-14,19.05,19.45,18.73,19.21,385509
23-May-14,18.49,18.96,18.03,18.53,81809
22-May-14,18.43,19.09,18.15,18.50,215277
21-May-14,18.75,19.15,18.10,18.26,176477
20-May-14,19.50,19.50,18.50,18.63,245074
19-May-14,19.12,19.82,18.96,19.43,182175
16-May-14,18.88,19.32,18.58,19.09,104708
15-May-14,19.92,19.92,18.55,18.78,185121
14-May-14,19.50,20.48,19.39,19.94,147834
13-May-14,20.23,20.96,19.52,19.69,139304
12-May-14,19.05,20.55,18.58,20.34,185037
9-May-14,18.36,19.16,17.96,19.01,359770
8-May-14,19.06,19.49,18.00,18.45,285226
7-May-14,19.50,20.98,18.32,19.15,394883
6-May-14,20.27,20.75,19.50,19.64,83798
5-May-14,19.23,20.46,19.12,20.16,150947
2-May-14,19.61,19.74,19.09,19.43,97025
1-May-14,19.97,19.97,18.95,19.49,253127
30-Apr-14,19.74,20.23,19.54,19.94,146875
29-Apr-14,20.79,20.79,18.78,19.88,314554
28-Apr-14,20.60,20.99,19.39,20.87,238676
25-Apr-14,20.64,20.86,19.77,20.54,227684
24-Apr-14,19.66,20.85,19.30,20.71,312176
23-Apr-14,19.26,21.24,18.64,20.65,678091
22-Apr-14,19.08,19.79,18.52,19.21,730757
21-Apr-14,20.23,20.75,18.76,19.08,239455
17-Apr-14,20.20,20.20,19.00,20.02,239088
16-Apr-14,20.00,20.98,19.81,20.21,371924
15-Apr-14,20.16,20.49,18.35,19.58,602911
14-Apr-14,20.63,21.41,20.00,20.16,293668
11-Apr-14,23.21,23.49,19.95,20.38,662536
10-Apr-14,24.36,24.57,22.85,23.49,313507
9-Apr-14,23.10,24.30,22.63,24.17,618476
8-Apr-14,24.50,24.50,22.67,23.24,1488543
7-Apr-14,26.06,27.00,24.05,25.13,266640
4-Apr-14,27.46,28.11,25.50,26.06,167939
3-Apr-14,29.35,31.11,26.54,27.28,172592
2-Apr-14,29.52,30.23,28.93,29.47,68785
1-Apr-14,27.95,29.86,27.95,29.32,127853
31-Mar-14,28.54,28.80,27.53,27.83,209379
28-Mar-14,31.47,32.04,27.81,28.28,213092
27-Mar-14,31.50,31.72,29.52,31.57,142690
26-Mar-14,32.54,33.73,31.50,31.60,136989
25-Mar-14,34.00,34.12,32.00,32.35,163881
24-Mar-14,35.03,35.03,31.81,33.86,228062
21-Mar-14,38.50,38.55,34.51,35.15,205420
20-Mar-14,37.88,38.46,37.61,38.21,72728
19-Mar-14,37.38,38.35,36.96,38.04,148053
18-Mar-14,36.34,37.33,36.26,37.23,176327
17-Mar-14,35.48,37.00,34.58,36.21,191941
14-Mar-14,34.06,35.75,33.26,35.14,151068
13-Mar-14,33.21,34.37,33.11,34.11,118993
12-Mar-14,33.62,34.02,32.83,33.30,68843
11-Mar-14,33.52,34.25,32.83,33.84,100732
10-Mar-14,33.30,33.43,32.76,32.89,77525
7-Mar-14,34.25,34.25,32.76,33.22,185932
6-Mar-14,34.57,36.53,33.90,33.99,117955
5-Mar-14,36.00,37.00,34.50,34.94,271436
4-Mar-14,33.81,35.22,33.81,34.59,201698
3-Mar-14,34.44,34.56,33.09,33.37,280186
28-Feb-14,37.27,37.50,34.26,35.00,227941
27-Feb-14,36.43,37.32,36.06,37.17,95692
26-Feb-14,37.42,37.79,36.00,36.60,154825
25-Feb-14,36.59,37.35,35.70,37.14,140431
24-Feb-14,35.75,35.97,35.04,35.30,65533
21-Feb-14,35.24,36.48,35.03,35.74,445979
20-Feb-14,35.27,35.76,34.60,35.00,98638
19-Feb-14,34.62,35.80,34.51,34.94,218093
18-Feb-14,35.65,36.48,34.52,34.56,442550
14-Feb-14,35.64,35.64,33.51,33.92,324097
13-Feb-14,36.50,36.50,34.37,35.29,1549655
12-Feb-14,40.07,40.20,37.26,38.00,45007
11-Feb-14,35.97,37.53,34.02,37.17,55061
10-Feb-14,36.30,36.94,35.01,36.04,166782
7-Feb-14,35.14,38.28,35.02,36.99,42121
6-Feb-14,38.24,38.24,34.64,35.17,20502
5-Feb-14,36.34,36.91,34.56,35.11,36312
4-Feb-14,36.50,38.58,35.51,36.42,29492
3-Feb-14,39.67,41.00,38.04,38.35,42098
31-Jan-14,38.43,40.22,38.30,39.81,31983
30-Jan-14,36.66,39.15,36.03,38.90,29520
29-Jan-14,38.55,38.55,36.57,37.11,43846
28-Jan-14,38.10,38.93,38.10,38.55,78581
27-Jan-14,39.66,39.66,37.01,37.90,52318
24-Jan-14,38.93,39.96,38.62,39.51,72359
23-Jan-14,38.10,39.16,37.96,38.83,28618
22-Jan-14,39.21,39.21,37.58,38.06,77908
21-Jan-14,40.44,40.88,37.80,39.00,119329
17-Jan-14,38.74,40.78,38.74,40.21,55272
16-Jan-14,37.05,39.17,37.05,38.67,24191
15-Jan-14,37.10,37.88,36.65,37.07,133032
14-Jan-14,37.10,37.74,36.80,37.19,124563
13-Jan-14,37.03,37.11,35.41,37.00,203465
10-Jan-14,34.13,37.48,34.13,37.03,154352
9-Jan-14,32.46,33.93,32.46,33.92,63936
8-Jan-14,31.40,32.26,30.88,32.26,66592
7-Jan-14,29.50,32.08,28.96,31.53,114415
6-Jan-14,29.48,29.48,28.71,29.31,58143
3-Jan-14,28.89,29.48,28.38,29.48,156490
2-Jan-14,27.15,29.04,27.06,28.83,59265
31-Dec-13,28.01,28.52,26.79,27.43,171698
30-Dec-13,26.68,28.28,26.09,28.05,105531
27-Dec-13,26.93,26.93,26.26,26.77,184685
26-Dec-13,27.17,27.17,26.31,26.81,48925
24-Dec-13,27.20,27.20,26.31,27.00,24403
23-Dec-13,27.05,27.80,26.52,27.16,65832
20-Dec-13,26.76,27.52,25.62,26.85,984998
19-Dec-13,27.28,27.63,26.44,26.69,107536
18-Dec-13,26.87,27.69,25.82,27.53,93580
17-Dec-13,26.29,27.52,25.85,26.80,73223
16-Dec-13,25.35,26.39,24.46,26.15,59322
13-Dec-13,24.96,25.64,24.08,25.20,79863
12-Dec-13,25.22,25.22,24.40,24.96,61748
11-Dec-13,25.93,26.10,24.31,24.90,92129
10-Dec-13,25.99,26.60,25.36,26.01,68834
9-Dec-13,26.02,27.00,25.55,26.00,59258
6-Dec-13,25.93,26.95,25.32,26.01,29697
5-Dec-13,25.77,27.33,25.17,25.76,65015
4-Dec-13,27.40,27.92,24.72,26.00,248884
3-Dec-13,27.12,27.19,25.04,25.64,80510
2-Dec-13,26.43,27.27,25.83,25.83,37408
29-Nov-13,26.62,27.98,25.92,26.47,11212
27-Nov-13,26.31,27.98,26.20,27.25,41010
26-Nov-13,24.54,26.98,24.54,26.52,115035
25-Nov-13,23.79,25.78,23.05,24.86,35446
22-Nov-13,21.87,24.15,21.74,23.79,40600
21-Nov-13,22.29,22.41,21.55,21.82,85154
20-Nov-13,23.30,23.86,21.50,22.21,55260
19-Nov-13,26.00,26.00,23.00,23.21,96030
18-Nov-13,27.49,27.95,25.40,26.11,81075
15-Nov-13,28.46,30.25,27.03,27.11,122197
14-Nov-13,28.47,28.75,27.34,27.96,33078
13-Nov-13,26.86,29.00,26.86,28.48,40902
12-Nov-13,26.75,27.49,26.49,26.93,43301
11-Nov-13,25.91,26.81,25.51,26.54,32239
8-Nov-13,26.25,26.51,25.37,25.91,59160
7-Nov-13,25.56,26.26,25.27,26.00,56295
6-Nov-13,26.09,27.01,25.62,26.23,261627
5-Nov-13,26.61,27.25,25.27,26.23,72480
4-Nov-13,28.22,28.22,25.60,26.15,64894
1-Nov-13,27.62,27.62,26.50,27.32,25351
31-Oct-13,27.00,28.32,26.52,26.94,101455
30-Oct-13,26.36,28.00,26.36,26.85,22129
29-Oct-13,27.08,27.77,26.00,27.13,35418
28-Oct-13,27.65,27.69,26.77,27.37,16000
25-Oct-13,28.00,28.45,27.43,27.50,18403
24-Oct-13,26.01,29.30,26.01,28.00,93160
23-Oct-13,27.22,27.72,25.70,26.17,76836
22-Oct-13,25.98,27.99,25.74,27.22,107343
21-Oct-13,25.20,25.72,24.89,25.70,120486
18-Oct-13,25.09,25.73,25.05,25.41,152849
17-Oct-13,26.50,26.50,24.51,25.16,47377
16-Oct-13,25.23,25.70,24.16,25.43,97664
15-Oct-13,25.06,25.99,23.10,25.01,322357
14-Oct-13,26.50,26.50,25.01,25.38,244457
11-Oct-13,25.20,26.27,24.89,26.10,549481
10-Oct-13,24.00,26.40,23.91,24.99,5361700
