﻿Date,Open,High,Low,Close,Volume
20-Jun-17,18.90,18.96,18.50,18.53,1218294
19-Jun-17,18.60,19.16,18.29,18.92,2058161
16-Jun-17,18.75,18.96,18.41,18.70,3896593
15-Jun-17,18.89,19.04,18.47,18.79,2633285
14-Jun-17,18.63,18.73,18.31,18.72,2251382
13-Jun-17,18.53,18.70,18.29,18.53,1495304
12-Jun-17,18.35,18.98,18.35,18.50,2184219
9-Jun-17,18.21,18.66,18.12,18.51,2004446
8-Jun-17,17.39,18.42,17.39,18.20,4971816
7-Jun-17,18.16,18.35,17.49,17.51,3897606
6-Jun-17,18.91,19.25,18.05,18.16,8281776
5-Jun-17,19.55,19.86,19.30,19.83,2516279
2-Jun-17,19.94,19.98,19.55,19.56,1699019
1-Jun-17,19.36,20.03,19.02,19.94,2275401
31-May-17,19.25,19.37,18.57,19.33,2447186
30-May-17,19.73,19.75,19.22,19.26,1759962
26-May-17,19.65,19.82,19.44,19.77,953848
25-May-17,19.61,20.02,19.54,19.67,1172531
24-May-17,19.90,19.90,19.34,19.51,1071903
23-May-17,19.98,20.05,19.49,19.59,1586073
22-May-17,19.83,20.15,19.78,20.01,1996735
19-May-17,20.00,20.07,19.70,19.82,1862091
18-May-17,19.93,20.09,19.80,19.96,1299898
17-May-17,20.20,20.40,19.97,20.00,1627414
16-May-17,20.89,20.89,20.08,20.38,2323692
15-May-17,21.02,21.36,20.90,20.92,1191402
12-May-17,21.46,21.46,20.55,21.01,2370920
11-May-17,21.96,21.97,21.33,21.50,1405033
10-May-17,21.79,22.13,21.72,22.08,1187668
9-May-17,21.64,21.91,21.55,21.86,2469516
8-May-17,22.50,22.50,21.59,21.63,2812307
5-May-17,22.52,22.62,21.99,22.51,1639833
4-May-17,22.58,22.63,22.37,22.49,1451681
3-May-17,23.19,23.22,22.42,22.54,2237496
2-May-17,23.09,23.41,22.88,23.23,1485782
1-May-17,23.41,23.53,23.04,23.07,1758963
28-Apr-17,23.92,24.06,23.31,23.36,2874925
27-Apr-17,24.10,24.11,23.81,23.85,1712283
26-Apr-17,23.77,24.16,23.74,24.02,1827817
25-Apr-17,23.97,24.05,23.35,23.69,2395389
24-Apr-17,23.95,24.08,23.84,23.92,1118710
21-Apr-17,23.86,23.92,23.16,23.80,1035117
20-Apr-17,23.71,24.00,23.45,23.89,1429169
19-Apr-17,23.42,23.66,23.37,23.58,1123785
18-Apr-17,23.27,23.40,23.16,23.36,839322
17-Apr-17,23.08,23.28,23.02,23.25,1170946
13-Apr-17,22.86,23.36,22.86,22.99,1539166
12-Apr-17,22.93,22.93,22.62,22.91,1312586
11-Apr-17,22.80,23.00,22.59,22.98,1668497
10-Apr-17,22.95,23.29,22.86,22.91,1226701
7-Apr-17,23.00,23.05,22.80,22.91,1889249
6-Apr-17,22.60,23.19,22.58,23.07,2812817
5-Apr-17,22.39,22.90,22.28,22.46,2356894
4-Apr-17,22.28,22.37,22.01,22.35,1467861
3-Apr-17,22.45,22.57,22.21,22.36,2230879
31-Mar-17,22.71,22.71,22.28,22.39,3047801
30-Mar-17,22.25,22.64,22.20,22.64,2198388
29-Mar-17,22.00,22.45,21.82,22.27,3224216
28-Mar-17,21.88,22.30,21.82,22.23,19907337
27-Mar-17,22.48,22.60,21.88,21.98,7728109
24-Mar-17,21.86,22.14,21.63,21.96,1177992
23-Mar-17,21.58,22.01,21.57,21.79,1494888
22-Mar-17,21.45,21.65,21.30,21.61,1131568
21-Mar-17,21.92,22.03,21.20,21.54,1871000
20-Mar-17,22.20,22.24,21.80,21.87,928488
17-Mar-17,22.82,22.82,22.14,22.20,1273252
16-Mar-17,22.35,22.58,22.16,22.40,1604039
15-Mar-17,22.36,22.50,22.06,22.35,2719907
14-Mar-17,22.04,22.32,21.72,22.28,1543036
13-Mar-17,21.94,22.06,21.58,22.04,1790924
10-Mar-17,22.04,22.28,21.93,22.13,1567214
9-Mar-17,22.09,22.36,21.84,21.98,1945051
8-Mar-17,21.63,22.34,21.42,22.08,3953217
7-Mar-17,21.50,21.84,20.53,21.00,4462642
6-Mar-17,20.47,20.58,20.12,20.53,2008614
3-Mar-17,20.45,20.60,19.94,20.46,1889702
2-Mar-17,20.31,20.50,20.25,20.41,1242570
1-Mar-17,20.27,20.46,20.00,20.31,1338032
28-Feb-17,20.59,20.63,19.76,20.09,2178480
27-Feb-17,21.00,21.15,20.50,20.73,2206240
24-Feb-17,20.39,21.36,20.35,21.09,2405624
23-Feb-17,20.74,20.98,20.35,20.38,2142393
22-Feb-17,20.81,21.03,20.72,20.76,1235984
21-Feb-17,20.88,21.02,20.67,20.84,1475697
17-Feb-17,20.56,20.92,20.53,20.78,1256941
16-Feb-17,20.80,20.92,20.51,20.61,1793750
15-Feb-17,20.76,20.92,20.68,20.88,1193880
14-Feb-17,20.96,20.96,20.12,20.75,1890677
13-Feb-17,20.68,20.88,20.38,20.54,1780427
10-Feb-17,20.63,20.74,20.34,20.65,1596889
9-Feb-17,19.82,20.75,19.75,20.64,2663574
8-Feb-17,19.50,19.82,19.37,19.74,1201532
7-Feb-17,19.63,19.80,19.56,19.59,1134171
6-Feb-17,19.73,19.90,19.55,19.62,1155368
3-Feb-17,20.04,20.45,19.76,19.83,1891012
2-Feb-17,19.82,20.15,19.59,20.02,1728575
1-Feb-17,19.67,20.15,19.56,19.79,2097883
31-Jan-17,19.25,19.74,19.00,19.67,2316690
30-Jan-17,19.50,19.60,19.14,19.35,2041558
27-Jan-17,20.21,20.25,19.25,19.56,3596916
26-Jan-17,20.36,20.64,20.00,20.11,3500966
25-Jan-17,20.90,21.13,19.95,20.29,10976235
24-Jan-17,21.66,21.86,21.58,21.78,861918
23-Jan-17,21.98,21.99,21.60,21.64,1051243
20-Jan-17,21.89,22.17,21.59,22.00,1970926
19-Jan-17,21.48,21.89,21.44,21.83,2020969
18-Jan-17,21.63,21.86,21.38,21.60,2502663
17-Jan-17,21.01,21.87,20.83,21.62,2759635
13-Jan-17,20.37,20.74,20.37,20.52,676633
12-Jan-17,20.43,20.56,20.13,20.37,1150596
11-Jan-17,20.84,20.84,20.33,20.52,1676174
10-Jan-17,20.65,21.01,20.49,20.84,1316162
9-Jan-17,20.50,20.77,20.44,20.60,1677052
6-Jan-17,20.99,20.99,20.40,20.59,1596377
5-Jan-17,21.00,21.00,20.64,20.84,1808415
4-Jan-17,20.67,21.28,20.67,21.22,1946467
3-Jan-17,20.75,20.90,20.52,20.65,2718942
30-Dec-16,20.53,20.53,20.16,20.45,1128748
29-Dec-16,20.53,20.83,20.29,20.40,930745
28-Dec-16,20.76,20.81,20.33,20.52,1403593
27-Dec-16,20.56,20.74,20.46,20.66,1801070
23-Dec-16,20.60,20.88,20.36,20.45,2157459
22-Dec-16,21.89,21.89,20.60,20.61,1658508
21-Dec-16,21.86,21.98,21.64,21.90,1707087
20-Dec-16,21.88,22.03,21.83,21.87,1593902
19-Dec-16,21.80,22.10,21.77,21.85,1819853
16-Dec-16,22.13,22.34,21.78,21.84,1757698
15-Dec-16,22.36,22.40,21.88,22.16,2918112
14-Dec-16,22.75,22.89,22.21,22.36,3073353
13-Dec-16,22.20,22.85,21.99,22.54,7778262
12-Dec-16,23.54,23.70,22.63,22.66,1236211
9-Dec-16,23.62,23.74,23.33,23.53,1058508
8-Dec-16,22.86,24.12,22.86,23.76,2701751
7-Dec-16,23.46,23.48,22.77,22.86,3223272
6-Dec-16,20.79,24.48,20.67,23.85,11460770
5-Dec-16,24.07,24.66,24.02,24.31,1950045
2-Dec-16,23.76,24.24,23.41,23.97,1334200
1-Dec-16,24.31,24.66,23.82,23.97,1265422
30-Nov-16,24.37,24.48,24.10,24.38,1134526
29-Nov-16,24.95,25.36,24.38,24.43,1299132
28-Nov-16,25.33,25.44,24.74,25.05,1031410
25-Nov-16,25.45,25.57,25.24,25.32,401398
23-Nov-16,24.86,25.55,24.72,25.38,1256126
22-Nov-16,24.19,24.90,24.02,24.86,3130628
21-Nov-16,24.25,24.33,23.94,24.02,1242903
18-Nov-16,24.36,24.93,24.04,24.13,923403
17-Nov-16,24.38,24.61,24.24,24.43,1366970
16-Nov-16,23.98,24.28,23.80,24.26,559766
15-Nov-16,24.30,24.68,23.90,24.07,754722
14-Nov-16,22.94,24.38,22.94,24.34,1544546
11-Nov-16,22.36,22.89,22.08,22.86,1098588
10-Nov-16,22.63,23.31,22.25,22.37,1948524
9-Nov-16,21.88,22.55,21.81,22.43,699123
8-Nov-16,22.20,22.38,21.86,22.18,743585
7-Nov-16,22.73,22.73,21.72,22.12,1433898
4-Nov-16,22.15,23.06,22.03,22.73,1364878
3-Nov-16,23.38,23.55,22.53,22.60,1327585
2-Nov-16,23.01,23.62,23.01,23.41,1531880
1-Nov-16,23.23,23.49,22.97,23.09,1212710
31-Oct-16,23.23,23.28,23.05,23.25,656088
28-Oct-16,22.23,23.30,22.20,23.15,968705
27-Oct-16,22.99,23.00,22.11,22.32,1213439
26-Oct-16,22.89,23.22,22.84,23.07,749606
25-Oct-16,23.54,23.54,22.88,23.05,1006917
24-Oct-16,24.00,24.16,23.56,23.59,623174
21-Oct-16,23.97,24.16,23.88,23.93,932652
20-Oct-16,23.66,24.07,23.61,24.03,430783
19-Oct-16,23.46,24.01,23.34,23.67,520485
18-Oct-16,23.59,23.70,23.49,23.53,371314
17-Oct-16,23.81,23.84,23.43,23.44,370859
14-Oct-16,23.70,23.95,23.55,23.74,564700
13-Oct-16,23.81,23.83,23.46,23.68,795309
12-Oct-16,23.88,24.05,23.81,23.95,393826
11-Oct-16,24.59,24.59,23.84,23.88,627931
10-Oct-16,24.21,24.56,24.15,24.56,507905
7-Oct-16,24.38,24.63,24.04,24.16,817921
6-Oct-16,24.11,24.39,23.99,24.37,337432
5-Oct-16,24.21,24.22,24.02,24.11,678826
4-Oct-16,24.41,24.45,24.00,24.12,676372
3-Oct-16,24.31,24.67,23.99,24.33,794200
30-Sep-16,24.07,24.18,23.84,24.17,662266
29-Sep-16,24.15,24.22,23.92,24.02,745939
28-Sep-16,24.11,24.26,23.88,24.11,1018516
27-Sep-16,24.10,24.39,24.07,24.17,362906
26-Sep-16,24.36,24.62,24.00,24.13,826062
23-Sep-16,24.30,24.56,24.30,24.36,424223
22-Sep-16,24.43,24.43,24.01,24.22,906461
21-Sep-16,24.00,24.45,23.93,24.22,505933
20-Sep-16,24.52,24.69,23.96,23.97,922487
19-Sep-16,24.15,24.44,24.01,24.44,1194680
16-Sep-16,23.92,24.04,23.69,24.01,1272652
15-Sep-16,23.79,24.00,23.67,23.99,965637
14-Sep-16,24.23,24.40,23.87,23.90,1084379
13-Sep-16,24.88,25.03,24.04,24.17,1874476
12-Sep-16,25.00,25.23,24.86,25.05,1310651
9-Sep-16,25.31,25.61,24.97,25.01,1469312
8-Sep-16,24.99,25.49,24.90,25.37,1686321
7-Sep-16,25.09,25.24,24.91,25.19,1223749
6-Sep-16,24.86,25.15,24.51,25.15,1362970
2-Sep-16,23.96,24.47,23.96,24.41,717612
1-Sep-16,23.94,24.20,23.80,24.19,1278961
31-Aug-16,24.24,24.47,23.77,23.96,1402503
30-Aug-16,24.52,24.56,24.21,24.21,1385300
29-Aug-16,24.99,25.07,24.42,24.61,1510627
26-Aug-16,24.99,25.14,24.78,25.02,1799467
25-Aug-16,25.79,25.89,24.31,25.04,2612921
24-Aug-16,25.83,26.30,25.79,26.19,1215810
23-Aug-16,25.69,25.92,25.66,25.88,601752
22-Aug-16,25.48,25.66,25.32,25.63,886443
19-Aug-16,25.26,25.70,25.01,25.50,625952
18-Aug-16,25.18,25.52,25.10,25.40,1043610
17-Aug-16,25.18,25.18,24.90,25.14,672980
16-Aug-16,25.35,25.72,25.32,25.34,514262
15-Aug-16,25.52,25.88,25.41,25.44,708868
12-Aug-16,25.17,25.64,24.93,25.40,680484
11-Aug-16,25.21,25.61,25.05,25.15,722998
10-Aug-16,24.96,25.20,24.88,24.96,851520
9-Aug-16,25.14,25.17,24.92,24.98,1027566
8-Aug-16,25.42,25.91,25.08,25.21,1639309
5-Aug-16,25.55,25.72,25.42,25.42,945236
4-Aug-16,25.55,25.89,25.48,25.52,659556
3-Aug-16,25.38,25.55,25.20,25.50,1165874
2-Aug-16,26.32,26.41,25.45,25.49,872830
1-Aug-16,26.30,26.57,26.15,26.29,911886
29-Jul-16,26.41,26.54,26.00,26.36,2708366
28-Jul-16,26.22,26.48,25.76,26.34,834995
27-Jul-16,26.16,26.53,26.16,26.46,938790
26-Jul-16,26.22,26.51,25.66,26.24,1518551
25-Jul-16,26.12,26.50,26.08,26.24,1797131
22-Jul-16,26.30,26.30,25.96,26.04,1697423
21-Jul-16,26.90,27.00,25.98,26.08,1637362
20-Jul-16,26.85,27.02,26.67,26.90,1187042
19-Jul-16,26.63,26.80,26.20,26.59,1932362
18-Jul-16,26.86,27.63,26.86,27.56,1543951
15-Jul-16,27.38,27.38,26.74,26.81,1251512
14-Jul-16,27.21,27.47,26.79,27.19,1977330
13-Jul-16,27.35,27.50,26.54,27.13,8823823
12-Jul-16,29.20,29.75,28.85,28.88,1281525
11-Jul-16,28.71,28.96,28.63,28.84,594019
8-Jul-16,28.49,29.24,28.37,28.69,994014
7-Jul-16,28.11,28.43,27.54,28.24,657913
6-Jul-16,27.43,28.21,27.24,28.13,1170419
5-Jul-16,27.96,28.20,27.48,27.65,664350
1-Jul-16,28.39,28.54,27.87,28.02,1221294
30-Jun-16,27.76,28.50,26.73,28.44,1259619
29-Jun-16,27.55,28.03,27.27,27.85,852473
28-Jun-16,27.26,27.61,27.22,27.34,1283805
27-Jun-16,26.87,27.58,25.52,26.89,1222677
24-Jun-16,26.34,27.24,26.34,27.01,4000965
23-Jun-16,27.07,27.38,26.96,27.26,688928
22-Jun-16,27.08,27.29,26.71,26.80,843142
21-Jun-16,27.27,27.48,26.98,26.98,666477
20-Jun-16,27.09,27.49,27.06,27.14,791373
17-Jun-16,26.77,27.20,26.73,26.79,865855
16-Jun-16,26.88,27.06,26.47,26.77,793551
15-Jun-16,26.63,27.21,26.63,27.06,1249580
14-Jun-16,26.52,26.67,25.96,26.62,1137000
13-Jun-16,26.75,26.92,26.52,26.57,812092
10-Jun-16,27.06,27.29,26.65,27.01,1250418
9-Jun-16,27.52,27.89,27.03,27.40,1534319
8-Jun-16,27.82,28.24,27.31,27.80,2591683
7-Jun-16,27.69,27.96,26.10,27.69,7021202
6-Jun-16,30.60,31.36,30.04,30.14,2635782
3-Jun-16,30.25,30.48,29.91,30.41,1197725
2-Jun-16,29.37,30.46,29.23,30.17,1401992
1-Jun-16,29.32,29.67,29.17,29.62,768503
31-May-16,28.99,29.46,28.99,29.31,753348
27-May-16,28.68,29.18,28.68,29.02,470362
26-May-16,28.72,28.95,28.47,28.71,303660
25-May-16,28.30,28.84,28.11,28.68,438354
24-May-16,28.31,28.61,27.49,28.27,508987
23-May-16,28.24,28.48,28.11,28.27,514325
20-May-16,28.09,28.34,27.90,28.17,741795
19-May-16,27.51,28.28,26.83,28.16,1126763
18-May-16,28.04,28.05,27.21,27.74,1331312
17-May-16,28.42,28.68,28.00,28.16,498972
16-May-16,28.25,28.75,28.03,28.48,637811
13-May-16,28.29,28.73,27.81,28.20,1238650
12-May-16,28.47,28.67,28.24,28.46,638420
11-May-16,28.61,28.64,28.26,28.28,802842
10-May-16,28.85,29.02,28.57,28.88,367081
9-May-16,28.59,29.03,28.40,28.85,452319
6-May-16,28.04,28.74,27.26,28.61,939213
5-May-16,29.00,29.24,28.56,28.61,1196801
4-May-16,28.71,29.16,28.66,29.15,793181
3-May-16,28.95,29.08,28.33,28.91,839234
2-May-16,28.58,29.12,28.52,29.10,937334
29-Apr-16,28.59,28.59,28.10,28.43,960363
28-Apr-16,28.68,28.92,28.42,28.57,1329802
27-Apr-16,28.51,29.16,28.42,29.00,601702
26-Apr-16,28.45,28.73,28.37,28.60,521415
25-Apr-16,28.35,28.68,28.18,28.52,830238
22-Apr-16,28.20,28.83,28.17,28.45,659552
21-Apr-16,28.98,29.22,28.25,28.28,978099
20-Apr-16,29.13,29.22,28.66,28.75,893658
19-Apr-16,29.18,29.43,28.99,29.29,1815778
18-Apr-16,28.76,29.56,28.32,29.16,1461144
15-Apr-16,28.35,29.14,28.19,29.09,1384139
14-Apr-16,28.72,28.75,28.35,28.52,500734
13-Apr-16,28.25,28.78,28.25,28.68,774501
12-Apr-16,27.90,28.19,27.74,28.11,678574
11-Apr-16,28.22,28.45,27.81,27.89,889422
8-Apr-16,28.29,28.29,27.77,28.04,833328
7-Apr-16,28.17,28.56,27.79,28.05,1346469
6-Apr-16,27.89,28.58,27.65,28.53,1548817
5-Apr-16,27.92,28.10,27.18,27.69,2327042
4-Apr-16,28.21,28.38,27.84,28.20,1780140
1-Apr-16,27.89,28.35,27.71,28.03,1986846
31-Mar-16,27.58,28.25,27.47,27.97,1097714
30-Mar-16,27.30,27.67,27.16,27.47,821066
29-Mar-16,27.09,27.44,27.04,27.21,1382676
28-Mar-16,26.69,27.25,26.53,27.18,1851038
24-Mar-16,26.48,26.58,26.11,26.54,2110173
23-Mar-16,26.24,26.55,26.07,26.31,10434744
22-Mar-16,27.45,27.86,26.69,26.93,2102455
21-Mar-16,27.88,28.50,26.87,27.13,2817974
18-Mar-16,27.50,28.79,26.96,27.50,3241640
17-Mar-16,25.53,27.50,24.63,27.44,5319085
16-Mar-16,24.52,24.89,24.15,24.32,1873372
15-Mar-16,24.95,25.15,24.57,24.74,775918
14-Mar-16,25.11,25.40,24.82,24.97,587915
11-Mar-16,24.66,25.32,24.53,25.10,784547
10-Mar-16,24.49,24.87,24.24,24.52,512595
9-Mar-16,24.09,24.60,24.02,24.49,596782
8-Mar-16,23.92,24.33,23.87,24.07,823630
7-Mar-16,23.68,23.88,23.12,23.85,489753
4-Mar-16,24.19,24.99,24.09,24.34,593574
3-Mar-16,24.26,24.44,23.03,24.09,488311
2-Mar-16,24.21,24.34,23.81,24.28,601208
1-Mar-16,23.42,24.54,23.25,24.33,803163
29-Feb-16,23.03,23.42,22.83,23.30,569012
26-Feb-16,22.82,23.08,22.43,22.91,606599
25-Feb-16,22.56,22.84,22.08,22.72,727446
24-Feb-16,22.28,22.62,22.13,22.47,722629
23-Feb-16,22.51,22.83,22.32,22.60,446283
22-Feb-16,22.22,23.15,21.95,22.55,590428
19-Feb-16,22.30,22.38,21.56,21.95,600510
18-Feb-16,22.78,23.48,22.03,22.52,591752
17-Feb-16,22.00,23.17,21.95,22.87,658116
16-Feb-16,21.32,22.07,20.90,21.91,1020489
12-Feb-16,20.70,21.31,20.38,21.00,853213
11-Feb-16,20.58,20.84,20.25,20.55,770835
10-Feb-16,21.07,21.42,20.74,20.84,832550
9-Feb-16,20.78,21.33,20.60,20.93,509422
8-Feb-16,21.13,21.39,20.49,21.04,673611
5-Feb-16,22.11,22.11,21.23,21.39,752018
4-Feb-16,21.40,22.46,21.14,22.19,646683
3-Feb-16,22.22,22.43,21.54,21.54,607026
2-Feb-16,22.33,22.50,21.79,22.08,407303
1-Feb-16,21.66,22.47,21.38,22.36,788234
29-Jan-16,20.89,21.80,20.78,21.80,660666
28-Jan-16,21.13,21.34,20.61,20.75,402512
27-Jan-16,21.52,21.63,20.90,20.93,478561
26-Jan-16,21.32,21.89,21.22,21.55,698855
25-Jan-16,21.86,22.12,21.20,21.35,520037
22-Jan-16,22.07,22.30,21.75,22.11,720637
21-Jan-16,21.68,22.01,21.02,21.91,1444226
20-Jan-16,20.37,20.87,19.46,20.64,886406
19-Jan-16,21.15,21.35,20.57,20.75,1015454
15-Jan-16,20.43,21.22,20.43,21.10,751722
14-Jan-16,20.97,21.31,20.32,21.12,836071
13-Jan-16,21.24,21.45,20.74,20.83,475609
12-Jan-16,21.10,21.56,20.80,21.29,630867
11-Jan-16,21.56,21.93,20.60,20.78,690447
8-Jan-16,21.79,21.88,20.90,20.90,640685
7-Jan-16,21.89,22.11,20.89,21.64,613213
6-Jan-16,21.73,22.36,21.60,22.07,1513832
5-Jan-16,22.34,22.53,22.03,22.10,888080
4-Jan-16,21.71,22.34,21.66,22.31,819249
31-Dec-15,22.00,22.45,21.93,22.11,269871
30-Dec-15,22.24,22.39,22.03,22.10,227444
29-Dec-15,22.24,22.36,21.95,22.19,304077
28-Dec-15,21.83,22.15,21.67,22.05,538416
24-Dec-15,22.12,22.29,21.83,21.86,324188
23-Dec-15,21.86,22.31,21.76,22.10,492163
22-Dec-15,21.54,21.94,21.28,21.88,756737
21-Dec-15,21.47,21.63,21.18,21.40,595257
18-Dec-15,21.68,22.06,21.02,21.31,1201409
17-Dec-15,22.67,22.78,21.93,21.93,504144
16-Dec-15,22.48,22.77,22.31,22.69,666430
15-Dec-15,22.40,22.74,22.16,22.30,877821
14-Dec-15,22.22,22.50,21.98,22.29,855880
11-Dec-15,22.49,22.66,22.07,22.23,707406
10-Dec-15,22.51,23.04,22.51,22.66,644090
9-Dec-15,22.07,22.63,21.42,22.51,1853758
8-Dec-15,21.43,22.15,21.43,22.03,1326420
7-Dec-15,21.81,22.05,21.62,21.83,692984
4-Dec-15,21.32,22.50,20.09,21.80,1868214
3-Dec-15,21.56,22.65,21.31,21.69,4160894
2-Dec-15,22.06,22.34,21.58,21.91,985369
1-Dec-15,22.33,22.67,21.89,22.14,939433
30-Nov-15,22.26,22.62,21.97,22.21,1764499
27-Nov-15,22.44,22.66,22.14,22.14,232240
25-Nov-15,22.46,22.90,22.34,22.42,536537
24-Nov-15,22.02,22.84,21.60,22.54,1808190
23-Nov-15,21.95,22.47,21.91,22.17,951777
20-Nov-15,21.53,22.20,21.53,21.98,1464390
19-Nov-15,21.05,21.73,20.70,21.50,1622591
18-Nov-15,20.39,20.82,20.08,20.76,1419027
17-Nov-15,20.92,21.15,20.16,20.24,854594
16-Nov-15,20.83,21.05,20.44,20.69,799464
13-Nov-15,21.48,21.53,20.68,20.91,942821
12-Nov-15,22.00,22.22,21.63,21.74,689741
11-Nov-15,22.27,22.85,22.04,22.13,921039
10-Nov-15,22.82,22.87,22.25,22.30,1275105
9-Nov-15,23.42,23.42,22.64,22.93,818763
6-Nov-15,23.36,23.68,23.30,23.52,1001051
5-Nov-15,23.63,23.87,23.40,23.49,1796689
4-Nov-15,23.88,24.05,23.53,23.61,797762
3-Nov-15,23.48,23.74,23.38,23.70,1190914
2-Nov-15,23.39,23.64,23.26,23.46,797020
30-Oct-15,22.92,23.53,22.69,23.38,742112
29-Oct-15,22.87,23.07,22.67,22.86,383088
28-Oct-15,22.28,23.13,22.28,23.02,580794
27-Oct-15,22.66,23.07,22.00,22.34,509414
26-Oct-15,22.35,22.85,22.26,22.77,303654
23-Oct-15,22.25,22.95,22.10,22.35,864595
22-Oct-15,22.76,23.35,21.91,22.14,522068
21-Oct-15,22.94,23.02,22.55,22.74,488876
20-Oct-15,23.00,23.21,22.77,22.78,610618
19-Oct-15,23.07,23.56,22.67,23.01,498821
16-Oct-15,23.46,23.80,23.05,23.18,403279
15-Oct-15,22.80,23.70,22.64,23.50,585899
14-Oct-15,23.40,23.62,22.45,22.73,591144
13-Oct-15,23.63,23.87,23.19,23.32,395213
12-Oct-15,23.92,24.05,23.53,23.67,288941
9-Oct-15,23.81,23.91,23.37,23.83,498387
8-Oct-15,23.57,24.10,23.49,23.71,402887
7-Oct-15,23.48,23.77,23.04,23.76,461994
6-Oct-15,23.66,23.88,22.83,23.17,456041
5-Oct-15,23.15,23.79,23.13,23.66,1092879
2-Oct-15,22.35,23.12,21.78,23.08,757544
1-Oct-15,22.99,23.16,22.41,22.57,568423
30-Sep-15,22.43,23.18,22.42,23.10,500130
29-Sep-15,22.86,23.04,22.10,22.34,713172
28-Sep-15,23.56,23.56,22.57,22.70,643707
25-Sep-15,24.34,24.34,23.59,23.66,598840
24-Sep-15,24.46,24.46,23.99,24.13,348730
23-Sep-15,24.67,24.70,24.28,24.51,355975
22-Sep-15,24.87,25.09,24.38,24.69,439319
21-Sep-15,25.57,25.85,24.91,25.02,665628
18-Sep-15,25.09,25.71,25.08,25.56,1453251
17-Sep-15,26.42,26.48,25.89,25.93,425023
16-Sep-15,26.58,26.68,26.27,26.52,529969
15-Sep-15,26.33,26.59,25.87,26.43,567003
14-Sep-15,26.68,26.84,26.24,26.36,385889
11-Sep-15,26.34,26.70,26.03,26.67,789083
10-Sep-15,25.47,26.41,25.47,26.38,687718
9-Sep-15,26.34,26.34,25.64,25.69,437895
8-Sep-15,26.37,26.37,25.56,26.06,730510
4-Sep-15,25.72,26.18,25.54,25.93,651260
3-Sep-15,25.89,26.23,25.78,25.97,719328
2-Sep-15,25.43,26.06,25.26,25.92,1007253
1-Sep-15,25.95,26.41,25.20,25.36,716608
31-Aug-15,25.62,26.34,25.55,26.21,1536717
28-Aug-15,25.35,25.69,24.94,25.65,1192384
27-Aug-15,24.50,26.15,24.50,25.48,2473005
26-Aug-15,23.71,23.98,22.85,23.92,1224402
25-Aug-15,23.57,23.74,23.01,23.10,1247998
24-Aug-15,22.53,23.79,21.83,23.08,1237263
21-Aug-15,24.20,24.25,23.54,23.59,660727
20-Aug-15,25.09,25.09,24.60,24.63,647651
19-Aug-15,25.64,25.64,25.08,25.24,187569
18-Aug-15,25.31,26.05,25.31,25.70,307790
17-Aug-15,25.38,25.50,25.16,25.40,593289
14-Aug-15,26.00,26.00,25.45,25.48,350005
13-Aug-15,25.84,26.30,25.61,25.97,650918
12-Aug-15,26.04,26.13,25.27,25.80,728784
11-Aug-15,25.89,26.39,25.84,26.21,566178
10-Aug-15,25.53,26.16,25.53,26.06,563533
7-Aug-15,25.20,25.39,24.98,25.38,498942
6-Aug-15,25.55,25.64,24.89,25.20,632670
5-Aug-15,25.09,25.60,25.04,25.54,608447
4-Aug-15,24.67,25.11,24.62,25.05,588902
3-Aug-15,25.37,25.37,24.45,24.74,640168
31-Jul-15,25.02,25.44,25.02,25.34,576674
30-Jul-15,24.70,25.08,24.60,24.99,914669
29-Jul-15,24.82,25.08,24.68,24.77,635334
28-Jul-15,25.19,25.19,24.69,24.74,1115074
27-Jul-15,25.34,25.55,24.98,25.05,853691
24-Jul-15,25.99,26.31,25.18,25.36,1776576
23-Jul-15,26.53,26.60,26.00,26.11,617406
22-Jul-15,25.85,26.46,25.76,26.40,926230
21-Jul-15,25.95,26.06,25.73,25.96,770926
20-Jul-15,25.96,26.12,25.81,25.98,646011
17-Jul-15,26.48,26.54,25.89,25.95,332020
16-Jul-15,26.73,26.73,26.35,26.55,546955
15-Jul-15,26.74,26.82,26.41,26.53,540828
14-Jul-15,26.49,26.83,26.47,26.69,844131
13-Jul-15,26.64,26.80,26.28,26.46,1178479
10-Jul-15,26.70,26.78,26.31,26.41,2917731
9-Jul-15,27.53,27.91,26.95,27.09,559206
8-Jul-15,26.99,27.30,26.82,27.18,593249
7-Jul-15,27.16,27.30,26.64,27.26,595489
6-Jul-15,27.25,27.84,27.04,27.08,1801713
2-Jul-15,27.52,27.92,27.06,27.40,590854
1-Jul-15,27.29,27.44,26.79,27.38,721702
30-Jun-15,26.31,27.12,26.20,26.91,796842
29-Jun-15,26.80,26.92,26.24,26.31,553777
26-Jun-15,26.53,27.25,26.36,26.97,3085631
25-Jun-15,26.54,26.62,26.25,26.54,444776
24-Jun-15,26.83,27.09,26.37,26.41,810233
23-Jun-15,27.00,27.05,26.64,26.93,589948
22-Jun-15,26.83,27.06,26.64,26.91,510248
19-Jun-15,27.06,27.12,26.57,26.64,588854
18-Jun-15,26.83,27.25,26.73,26.95,500331
17-Jun-15,26.82,27.06,26.36,26.72,619713
16-Jun-15,26.91,27.24,26.53,26.80,475500
15-Jun-15,26.68,26.97,26.27,26.91,543945
12-Jun-15,26.76,26.94,26.58,26.74,400308
11-Jun-15,26.94,27.12,26.54,26.87,549472
10-Jun-15,26.29,26.84,26.08,26.81,505433
9-Jun-15,26.00,26.29,25.80,26.28,572250
8-Jun-15,26.92,26.98,25.90,25.96,1251200
5-Jun-15,26.91,27.01,26.74,26.98,733740
4-Jun-15,26.60,27.42,26.11,27.05,2259331
3-Jun-15,27.99,28.49,27.85,28.25,778962
2-Jun-15,27.50,28.00,27.38,27.95,558445
1-Jun-15,27.45,27.57,27.09,27.52,652755
29-May-15,27.58,27.62,27.01,27.36,1307197
28-May-15,27.01,27.52,26.84,27.52,583891
27-May-15,26.69,27.11,26.62,26.96,657983
26-May-15,26.77,27.21,26.49,26.67,411620
22-May-15,27.04,27.33,26.86,26.94,323128
21-May-15,27.05,27.17,26.93,27.05,413639
20-May-15,26.93,27.16,26.64,27.05,434348
19-May-15,27.12,27.19,26.78,27.01,533854
18-May-15,26.54,27.22,26.53,27.15,901296
15-May-15,26.54,26.81,26.38,26.53,398835
14-May-15,26.94,27.21,26.28,26.47,948836
13-May-15,26.47,27.09,26.09,26.79,515884
12-May-15,26.49,26.91,26.27,26.31,405066
11-May-15,26.51,26.92,26.46,26.62,190118
8-May-15,26.92,27.19,26.45,26.50,545992
7-May-15,26.66,26.96,26.60,26.82,275717
6-May-15,26.41,26.79,26.16,26.66,560528
5-May-15,26.60,26.74,26.25,26.28,378561
4-May-15,26.39,26.70,25.99,26.56,586616
1-May-15,25.92,26.42,25.90,26.25,355976
30-Apr-15,26.01,26.46,25.82,25.86,316251
29-Apr-15,26.54,27.13,25.86,26.12,378674
28-Apr-15,27.03,27.06,26.50,26.84,455620
27-Apr-15,27.74,27.74,26.89,26.99,360563
24-Apr-15,27.35,27.63,27.21,27.62,345450
23-Apr-15,27.64,27.65,26.97,27.27,485364
22-Apr-15,28.04,28.05,27.21,27.68,382679
21-Apr-15,28.17,28.36,27.90,27.99,374607
20-Apr-15,27.92,28.31,27.56,28.02,260605
17-Apr-15,28.15,28.32,27.63,27.68,445091
16-Apr-15,28.37,28.60,27.96,28.25,466862
15-Apr-15,27.89,28.47,27.72,28.45,793427
14-Apr-15,27.29,27.95,27.25,27.71,565505
13-Apr-15,27.16,27.72,27.07,27.35,421829
10-Apr-15,27.28,27.52,27.05,27.20,416200
9-Apr-15,27.46,27.67,27.12,27.17,641593
8-Apr-15,27.05,27.60,27.05,27.45,806876
7-Apr-15,27.10,27.33,26.97,26.98,478965
6-Apr-15,27.08,27.68,27.01,27.05,575114
2-Apr-15,26.93,27.41,26.71,27.11,959263
1-Apr-15,27.11,27.22,26.59,26.89,1234591
31-Mar-15,27.09,27.46,26.99,27.06,1255974
30-Mar-15,27.04,27.40,26.97,27.12,1241085
27-Mar-15,27.10,27.24,26.90,26.94,945855
26-Mar-15,27.21,27.46,26.80,27.01,975615
25-Mar-15,28.61,28.82,27.34,27.35,951634
24-Mar-15,29.36,29.47,28.60,28.66,656304
23-Mar-15,29.81,29.99,29.23,29.35,1045929
20-Mar-15,29.71,30.00,29.38,29.92,849366
19-Mar-15,28.03,29.45,27.00,29.42,1347238
18-Mar-15,28.81,29.49,28.55,29.20,715500
17-Mar-15,29.31,29.50,28.70,28.82,550481
16-Mar-15,28.62,29.50,28.51,29.27,840860
13-Mar-15,27.91,28.38,27.81,28.31,444029
12-Mar-15,28.24,28.47,27.82,28.03,411134
11-Mar-15,27.85,28.28,27.68,28.19,447780
10-Mar-15,27.61,27.86,27.29,27.65,223925
9-Mar-15,27.20,27.86,27.07,27.85,374066
6-Mar-15,27.30,27.66,27.12,27.15,360241
5-Mar-15,26.98,27.41,26.83,27.32,289338
4-Mar-15,27.03,27.34,26.57,26.84,621212
3-Mar-15,27.29,27.53,26.98,27.07,443019
2-Mar-15,27.64,27.64,26.65,27.29,771899
27-Feb-15,28.24,28.71,27.92,28.20,469950
26-Feb-15,28.35,28.51,28.07,28.16,535601
25-Feb-15,27.93,28.73,27.80,28.32,724516
24-Feb-15,27.94,27.99,27.66,27.77,475764
23-Feb-15,27.94,27.94,27.57,27.86,385836
20-Feb-15,27.71,27.95,27.27,27.84,554185
19-Feb-15,27.63,27.80,27.52,27.65,187342
18-Feb-15,27.48,27.84,27.35,27.52,261165
17-Feb-15,27.09,27.76,27.09,27.47,212291
13-Feb-15,27.91,27.98,27.41,27.45,320052
12-Feb-15,27.75,27.95,27.34,27.80,311200
11-Feb-15,27.37,27.83,27.13,27.61,398378
10-Feb-15,27.10,27.67,26.89,27.47,262203
9-Feb-15,27.16,27.38,26.79,27.01,216985
6-Feb-15,27.47,27.74,26.98,27.22,526689
5-Feb-15,26.59,27.31,26.37,26.96,611332
4-Feb-15,26.79,26.80,25.94,26.64,821044
3-Feb-15,26.94,27.10,26.29,26.80,756338
2-Feb-15,26.22,26.89,25.77,26.86,1059577
30-Jan-15,25.55,26.16,25.15,25.80,1426907
29-Jan-15,26.07,26.38,25.61,25.64,517493
28-Jan-15,26.52,27.00,25.91,26.00,713848
27-Jan-15,25.58,27.23,25.35,26.49,1608853
26-Jan-15,25.73,26.07,25.43,25.75,1553597
23-Jan-15,24.36,25.86,24.21,25.58,8331292
22-Jan-15,22.45,23.54,22.29,23.52,1002907
21-Jan-15,22.13,22.60,21.77,22.57,554788
20-Jan-15,22.36,22.89,22.20,22.26,606937
16-Jan-15,22.09,22.92,21.89,22.89,498236
15-Jan-15,23.87,23.93,22.13,22.21,535825
14-Jan-15,23.89,24.29,23.20,23.84,628901
13-Jan-15,23.40,24.34,23.29,24.08,639484
12-Jan-15,24.26,24.27,23.26,23.38,709450
9-Jan-15,25.13,25.34,24.35,24.38,389686
8-Jan-15,25.13,25.60,24.41,25.10,417891
7-Jan-15,24.12,24.97,24.12,24.91,479015
6-Jan-15,23.83,24.03,23.42,23.91,996972
5-Jan-15,24.58,24.58,23.37,23.73,507826
2-Jan-15,24.84,25.00,24.33,24.70,402333
31-Dec-14,24.45,24.79,24.23,24.73,358827
30-Dec-14,25.16,25.46,24.29,24.32,276958
29-Dec-14,24.58,25.23,24.52,25.22,503118
26-Dec-14,24.52,24.77,24.44,24.53,280688
24-Dec-14,24.09,24.63,23.76,24.36,128835
23-Dec-14,24.46,24.63,24.06,24.09,345925
22-Dec-14,24.42,24.63,24.02,24.30,318166
19-Dec-14,24.94,24.94,23.63,24.39,2164056
18-Dec-14,23.97,25.24,23.97,24.76,570521
17-Dec-14,23.24,23.94,23.06,23.59,614888
16-Dec-14,23.07,23.64,23.02,23.23,406358
15-Dec-14,23.48,23.85,23.04,23.04,549945
12-Dec-14,23.28,23.60,23.08,23.39,250638
11-Dec-14,23.36,23.57,22.82,23.28,439427
10-Dec-14,22.80,23.45,22.76,23.27,486453
9-Dec-14,22.67,22.90,22.40,22.75,354818
8-Dec-14,23.11,23.21,22.48,22.89,390806
5-Dec-14,23.80,23.80,23.07,23.19,549752
4-Dec-14,23.48,23.92,23.33,23.74,375354
3-Dec-14,23.24,23.66,23.20,23.56,249384
2-Dec-14,23.70,24.00,23.20,23.23,324420
1-Dec-14,24.06,24.06,23.39,23.63,591481
28-Nov-14,23.88,24.29,23.81,24.06,150132
26-Nov-14,23.15,23.97,23.15,23.97,355794
25-Nov-14,23.44,23.68,23.05,23.23,237679
24-Nov-14,23.04,23.69,22.96,23.33,562868
21-Nov-14,22.25,23.00,22.01,22.95,709528
20-Nov-14,22.10,22.47,21.04,21.97,1686791
19-Nov-14,21.86,22.18,21.51,21.75,1224003
18-Nov-14,21.80,22.40,21.58,21.86,847110
17-Nov-14,20.99,21.89,20.59,21.65,1010147
14-Nov-14,20.68,20.99,20.11,20.93,427722
13-Nov-14,20.06,20.52,19.74,20.50,765357
12-Nov-14,19.79,20.21,19.61,20.06,1073010
11-Nov-14,20.68,21.28,19.16,19.76,979143
10-Nov-14,18.70,18.93,18.33,18.61,113044
7-Nov-14,18.69,18.94,18.46,18.78,323661
6-Nov-14,18.05,18.78,18.05,18.68,663891
5-Nov-14,18.07,18.16,17.82,18.10,305443
4-Nov-14,18.11,18.27,17.85,17.96,680561
3-Nov-14,18.31,18.44,17.93,18.15,429639
31-Oct-14,17.88,18.48,17.88,18.28,462365
30-Oct-14,17.77,17.86,17.28,17.82,576317
29-Oct-14,18.11,18.11,17.68,17.87,209180
28-Oct-14,18.13,18.49,17.75,17.99,195778
27-Oct-14,18.25,18.41,17.96,18.16,72278
24-Oct-14,18.27,18.47,18.13,18.29,118462
23-Oct-14,18.33,18.49,18.20,18.25,202926
22-Oct-14,18.40,18.50,18.30,18.33,245204
21-Oct-14,17.85,18.40,17.65,18.32,861002
20-Oct-14,17.65,17.92,17.44,17.85,266375
17-Oct-14,17.43,17.75,17.40,17.72,299012
16-Oct-14,17.05,17.45,16.74,17.44,322858
15-Oct-14,17.30,17.44,16.72,17.17,526216
14-Oct-14,17.36,17.52,17.15,17.33,425661
13-Oct-14,17.26,17.55,17.02,17.41,697202
10-Oct-14,17.25,17.46,17.16,17.35,373439
9-Oct-14,17.46,17.49,17.24,17.28,483297
8-Oct-14,17.42,17.57,17.24,17.53,376656
7-Oct-14,17.67,17.67,17.32,17.43,368155
6-Oct-14,17.85,17.86,17.45,17.65,683535
3-Oct-14,17.39,17.87,17.32,17.79,1326238
2-Oct-14,17.55,17.55,17.15,17.42,816795
1-Oct-14,17.48,17.86,17.28,17.49,1480824
30-Sep-14,17.44,17.59,17.12,17.48,2114979
29-Sep-14,17.29,17.60,17.08,17.53,449059
26-Sep-14,17.41,17.50,17.15,17.44,997986
25-Sep-14,17.38,17.57,17.30,17.46,351591
24-Sep-14,17.29,17.53,17.22,17.47,417358
23-Sep-14,17.03,17.35,16.88,17.21,442743
22-Sep-14,17.25,17.30,16.64,16.97,674978
19-Sep-14,17.49,17.82,17.06,17.29,2284724
18-Sep-14,17.93,18.04,17.10,17.40,708077
17-Sep-14,17.80,18.09,17.70,17.84,255941
16-Sep-14,18.10,18.25,17.76,17.91,380366
15-Sep-14,17.80,18.09,17.76,18.01,718094
12-Sep-14,17.92,18.09,17.78,17.85,518451
11-Sep-14,17.50,18.03,17.36,18.02,1002860
10-Sep-14,17.64,17.70,17.49,17.50,493568
9-Sep-14,17.44,17.70,17.10,17.64,410537
8-Sep-14,17.30,17.79,17.10,17.49,1004413
5-Sep-14,17.40,17.40,17.10,17.17,450971
4-Sep-14,17.13,17.40,17.01,17.35,500752
3-Sep-14,17.00,17.44,17.00,17.23,665942
2-Sep-14,17.10,17.23,16.91,17.19,617704
29-Aug-14,17.05,17.07,16.64,16.98,538634
28-Aug-14,16.70,17.00,16.58,16.90,1735745
27-Aug-14,16.75,16.83,15.94,16.54,2368677
26-Aug-14,15.52,15.70,15.00,15.14,1307046
25-Aug-14,15.16,15.70,15.16,15.62,482406
22-Aug-14,15.60,15.60,15.29,15.36,160344
21-Aug-14,15.33,15.60,15.06,15.50,315150
20-Aug-14,14.92,15.45,14.76,15.41,293655
19-Aug-14,14.77,15.00,14.76,14.90,285567
18-Aug-14,14.91,15.06,14.76,14.77,374215
15-Aug-14,14.77,14.92,14.76,14.89,235135
14-Aug-14,14.98,15.04,14.76,14.79,302250
13-Aug-14,15.12,15.20,14.82,14.97,230025
12-Aug-14,14.95,15.25,14.91,15.16,972137
11-Aug-14,14.91,15.15,14.81,14.95,694967
8-Aug-14,14.90,15.09,14.77,14.91,431322
7-Aug-14,14.77,15.37,14.76,14.95,494458
6-Aug-14,15.75,15.95,14.64,14.83,650604
5-Aug-14,15.21,16.48,15.01,15.68,462486
4-Aug-14,15.42,15.95,15.19,15.29,257825
1-Aug-14,15.00,15.99,14.51,15.34,964981
31-Jul-14,15.08,15.47,14.77,15.08,494733
30-Jul-14,15.68,15.98,14.85,15.12,536995
29-Jul-14,15.91,16.03,15.70,15.77,268885
28-Jul-14,16.65,16.65,15.92,16.00,265825
25-Jul-14,16.85,16.85,16.62,16.73,504328
24-Jul-14,16.75,16.90,16.69,16.79,438867
23-Jul-14,16.65,16.77,16.45,16.70,366350
22-Jul-14,16.65,16.95,16.20,16.68,327513
21-Jul-14,16.50,16.74,16.18,16.68,354564
18-Jul-14,16.54,16.54,16.01,16.35,323968
17-Jul-14,16.38,16.50,16.24,16.45,207475
16-Jul-14,16.69,16.69,16.24,16.31,353846
15-Jul-14,16.50,16.54,16.21,16.40,661771
14-Jul-14,16.75,16.81,16.30,16.38,643367
11-Jul-14,16.63,16.68,15.61,16.60,1354310
10-Jul-14,16.90,16.90,16.66,16.72,334918
9-Jul-14,16.90,16.99,16.86,16.90,197355
8-Jul-14,17.03,17.03,16.81,16.91,508549
7-Jul-14,17.00,17.01,16.79,16.91,358089
3-Jul-14,16.66,17.04,16.66,17.03,182472
2-Jul-14,16.62,16.84,16.47,16.76,551194
1-Jul-14,17.06,17.09,16.60,16.85,988942
30-Jun-14,17.15,17.28,16.93,17.05,1671775
27-Jun-14,17.00,17.25,16.66,17.02,18023399
