﻿Date,Open,High,Low,Close,Volume
20-Jun-17,19.55,19.65,19.35,19.50,429681
19-Jun-17,19.40,19.62,19.30,19.55,515939
16-Jun-17,19.00,19.40,19.00,19.40,881038
15-Jun-17,19.05,19.22,18.98,19.10,254938
14-Jun-17,18.85,19.15,18.80,19.15,357236
13-Jun-17,18.85,18.95,18.70,18.80,205157
12-Jun-17,18.85,19.00,18.70,18.80,291850
9-Jun-17,18.75,18.98,18.58,18.85,397995
8-Jun-17,18.40,18.80,18.40,18.65,192635
7-Jun-17,18.35,18.50,18.35,18.45,193213
6-Jun-17,18.55,18.60,18.40,18.40,243910
5-Jun-17,18.60,18.60,18.40,18.55,293660
2-Jun-17,18.50,18.75,18.40,18.60,376144
1-Jun-17,18.30,18.50,18.19,18.45,295567
31-May-17,18.10,18.30,18.00,18.25,313710
30-May-17,18.00,18.15,17.95,18.10,178337
26-May-17,18.10,18.15,17.88,18.05,256140
25-May-17,18.30,18.35,18.10,18.10,249403
24-May-17,18.20,18.25,18.05,18.25,320678
23-May-17,18.10,18.20,17.95,18.15,217694
22-May-17,17.90,18.10,17.90,18.05,243420
19-May-17,17.70,17.95,17.70,17.90,561706
18-May-17,17.70,18.00,17.60,17.75,541273
17-May-17,17.85,17.90,17.65,17.70,401832
16-May-17,17.80,17.85,17.65,17.85,509751
15-May-17,17.65,17.80,17.65,17.75,388014
12-May-17,17.85,17.95,17.62,17.65,229507
11-May-17,17.85,17.85,17.65,17.75,444637
10-May-17,17.80,17.95,17.72,17.90,354213
9-May-17,18.10,18.18,17.72,17.85,1468615
8-May-17,18.20,18.35,18.00,18.10,558272
5-May-17,18.10,18.15,17.80,18.05,962372
4-May-17,17.95,18.20,17.50,17.65,590837
3-May-17,18.00,18.05,17.62,17.90,478435
2-May-17,18.30,18.30,17.90,18.05,939161
1-May-17,18.00,18.40,17.95,18.30,626801
28-Apr-17,18.35,18.35,18.00,18.00,521612
27-Apr-17,17.95,18.50,17.85,18.35,989289
26-Apr-17,17.65,17.95,17.60,17.85,379617
25-Apr-17,17.50,17.78,17.50,17.70,359997
24-Apr-17,17.70,17.70,17.40,17.55,499635
21-Apr-17,17.40,17.70,17.30,17.60,485036
20-Apr-17,17.40,17.50,17.20,17.35,398117
19-Apr-17,17.50,17.50,17.25,17.35,367518
18-Apr-17,17.30,17.45,17.20,17.40,555014
17-Apr-17,17.00,17.30,16.95,17.30,345233
13-Apr-17,16.80,17.00,16.75,16.95,317963
12-Apr-17,16.95,16.95,16.80,16.80,303882
11-Apr-17,16.70,17.00,16.65,16.95,293884
10-Apr-17,16.65,16.90,16.55,16.70,835678
7-Apr-17,16.65,16.75,16.55,16.70,838078
6-Apr-17,16.55,16.65,16.35,16.60,393837
5-Apr-17,16.75,16.88,16.48,16.50,476561
4-Apr-17,16.70,16.85,16.60,16.75,466134
3-Apr-17,16.75,16.75,16.50,16.70,370640
31-Mar-17,16.75,16.80,16.62,16.75,633246
30-Mar-17,16.75,16.90,16.60,16.75,374455
29-Mar-17,16.35,16.75,16.35,16.70,380460
28-Mar-17,16.75,16.90,16.70,16.80,458018
27-Mar-17,16.65,16.75,16.50,16.70,384462
24-Mar-17,16.80,16.85,16.60,16.65,504973
23-Mar-17,16.75,16.95,16.70,16.75,424060
22-Mar-17,16.65,16.80,16.55,16.75,584637
21-Mar-17,16.75,16.75,16.55,16.65,353401
20-Mar-17,16.80,16.85,16.60,16.65,315985
17-Mar-17,16.25,16.85,16.25,16.75,1019818
16-Mar-17,16.25,16.32,16.10,16.25,182794
15-Mar-17,15.80,16.35,15.80,16.30,313514
14-Mar-17,15.90,15.95,15.80,15.80,104840
13-Mar-17,15.95,16.10,15.75,15.90,243492
10-Mar-17,15.75,16.05,15.75,16.00,318431
9-Mar-17,15.90,16.05,15.70,15.70,228421
8-Mar-17,16.20,16.20,15.90,15.90,217292
7-Mar-17,16.30,16.30,16.10,16.15,120521
6-Mar-17,16.50,16.55,16.25,16.35,258765
3-Mar-17,16.75,16.75,16.45,16.55,253696
2-Mar-17,16.65,16.75,16.45,16.75,438534
1-Mar-17,16.55,16.95,16.50,16.70,499557
28-Feb-17,16.35,16.55,16.32,16.55,548435
27-Feb-17,16.30,16.50,16.30,16.35,276380
24-Feb-17,16.20,16.35,16.10,16.35,448909
23-Feb-17,16.20,16.40,16.05,16.25,261261
22-Feb-17,16.00,16.28,16.00,16.20,252195
21-Feb-17,16.05,16.10,15.95,16.05,216179
17-Feb-17,16.30,16.30,15.95,16.00,279156
16-Feb-17,15.80,16.35,15.80,16.25,464963
15-Feb-17,15.90,15.95,15.75,15.80,322794
14-Feb-17,15.85,16.05,15.75,15.95,836991
13-Feb-17,16.10,16.15,15.90,15.95,397288
10-Feb-17,16.00,16.15,15.95,16.10,216143
9-Feb-17,16.25,16.45,15.95,16.00,319398
8-Feb-17,15.90,16.20,15.85,16.15,483491
7-Feb-17,16.15,16.20,15.95,16.05,195757
6-Feb-17,16.00,16.25,16.00,16.15,167596
3-Feb-17,16.00,16.15,15.95,16.00,220227
2-Feb-17,15.95,16.10,15.90,15.95,288472
1-Feb-17,15.90,16.08,15.75,15.95,296601
31-Jan-17,15.80,15.98,15.50,15.90,444874
30-Jan-17,16.20,16.20,15.85,15.90,549131
27-Jan-17,16.35,16.35,16.15,16.20,112437
26-Jan-17,16.30,16.35,16.10,16.30,154701
25-Jan-17,16.40,16.45,16.30,16.35,236358
24-Jan-17,16.45,16.52,16.30,16.35,202642
23-Jan-17,16.40,16.58,16.40,16.45,391465
20-Jan-17,16.50,16.55,16.40,16.40,130033
19-Jan-17,16.35,16.50,16.30,16.50,193490
18-Jan-17,16.50,16.60,16.30,16.35,243440
17-Jan-17,16.75,16.85,16.50,16.55,236716
13-Jan-17,16.55,16.80,16.55,16.70,197978
12-Jan-17,16.90,16.95,16.50,16.55,229575
11-Jan-17,16.90,17.05,16.80,16.90,544100
10-Jan-17,16.70,16.98,16.65,16.90,440838
9-Jan-17,16.70,16.85,16.60,16.75,546685
6-Jan-17,16.70,16.90,16.65,16.70,257934
5-Jan-17,16.75,16.80,16.60,16.75,299094
4-Jan-17,16.50,16.75,16.50,16.70,389659
3-Jan-17,15.80,16.55,15.75,16.50,682631
30-Dec-16,15.90,15.95,15.65,15.70,483741
29-Dec-16,15.65,15.90,15.60,15.85,490389
28-Dec-16,15.45,15.70,15.40,15.70,510038
27-Dec-16,16.10,16.25,15.65,15.90,664694
23-Dec-16,15.95,16.10,15.70,16.05,453011
22-Dec-16,16.00,16.05,15.85,16.00,513730
21-Dec-16,16.05,16.15,15.88,15.95,445187
20-Dec-16,16.00,16.20,15.95,16.00,289443
19-Dec-16,16.00,16.15,15.80,16.00,600954
16-Dec-16,15.65,16.15,15.65,15.95,695781
15-Dec-16,16.15,16.15,15.50,15.55,500882
14-Dec-16,16.20,16.48,16.10,16.20,360962
13-Dec-16,16.60,16.70,16.10,16.15,356435
12-Dec-16,16.90,17.00,16.55,16.60,326744
9-Dec-16,16.95,17.05,16.80,16.95,445268
8-Dec-16,16.80,17.00,16.75,17.00,358810
7-Dec-16,16.60,16.90,16.60,16.80,277593
6-Dec-16,16.40,16.58,16.35,16.55,303331
5-Dec-16,16.20,16.40,16.20,16.35,450619
2-Dec-16,16.50,16.55,16.15,16.15,310378
1-Dec-16,16.70,16.74,16.15,16.45,570960
30-Nov-16,16.95,16.95,16.65,16.70,262960
29-Nov-16,16.90,17.10,16.80,16.95,364320
28-Nov-16,16.75,16.90,16.70,16.85,300967
25-Nov-16,16.65,16.80,16.60,16.80,72416
23-Nov-16,16.65,16.85,16.50,16.55,215268
22-Nov-16,16.75,16.80,16.60,16.70,366374
21-Nov-16,16.60,16.75,16.55,16.65,252158
18-Nov-16,16.50,16.55,16.30,16.55,306380
17-Nov-16,16.35,16.60,16.35,16.40,290260
16-Nov-16,16.35,16.60,16.35,16.45,411439
15-Nov-16,16.45,16.55,15.90,16.35,499030
14-Nov-16,16.80,16.90,16.45,16.50,555465
11-Nov-16,16.55,17.00,16.55,16.80,518079
10-Nov-16,17.15,17.20,16.55,16.60,408606
9-Nov-16,16.35,17.10,16.35,17.05,368108
8-Nov-16,17.15,17.15,17.05,17.10,236203
7-Nov-16,17.05,17.25,16.95,17.10,255197
4-Nov-16,17.00,17.20,16.90,17.00,279065
3-Nov-16,17.20,17.30,16.75,16.90,276697
2-Nov-16,16.85,16.85,16.65,16.75,298538
1-Nov-16,17.05,17.10,16.65,16.75,448039
31-Oct-16,17.10,17.15,17.00,17.05,141366
28-Oct-16,17.05,17.15,16.90,17.00,63769
27-Oct-16,17.30,17.30,17.05,17.08,81737
26-Oct-16,17.30,17.40,17.25,17.25,126052
25-Oct-16,17.20,17.40,17.20,17.40,182256
24-Oct-16,17.05,17.20,17.00,17.20,201309
21-Oct-16,17.05,17.10,17.00,17.00,202222
20-Oct-16,16.90,17.10,16.90,17.10,198217
19-Oct-16,16.90,17.05,16.80,17.00,151335
18-Oct-16,16.70,16.95,16.70,16.80,94289
17-Oct-16,16.85,16.85,16.70,16.75,110344
14-Oct-16,16.84,16.91,16.73,16.80,132962
13-Oct-16,16.78,16.98,16.72,16.89,140832
12-Oct-16,16.49,16.86,16.49,16.76,197736
11-Oct-16,16.46,16.59,16.42,16.52,198626
10-Oct-16,16.44,16.67,16.40,16.53,204214
7-Oct-16,16.48,16.52,16.29,16.46,338662
6-Oct-16,16.40,16.53,16.33,16.40,470734
5-Oct-16,16.59,16.68,16.48,16.50,347099
4-Oct-16,16.90,16.95,16.41,16.61,444923
3-Oct-16,17.15,17.15,16.87,16.89,285395
30-Sep-16,17.23,17.30,17.11,17.19,228529
29-Sep-16,17.26,17.28,17.07,17.17,170023
28-Sep-16,17.28,17.36,17.12,17.25,257201
27-Sep-16,17.57,17.72,17.52,17.67,269862
26-Sep-16,17.61,17.77,17.52,17.54,291724
23-Sep-16,17.62,17.71,17.57,17.61,279851
22-Sep-16,17.47,17.71,17.47,17.71,342978
21-Sep-16,17.38,17.50,17.25,17.47,261283
20-Sep-16,17.41,17.47,17.34,17.35,233773
19-Sep-16,17.22,17.46,17.22,17.36,237037
16-Sep-16,17.34,17.34,17.00,17.22,916662
15-Sep-16,17.18,17.38,17.09,17.33,210380
14-Sep-16,17.06,17.31,17.03,17.14,288444
13-Sep-16,17.19,17.22,17.01,17.01,373015
12-Sep-16,17.00,17.22,16.85,17.19,275695
9-Sep-16,17.66,17.66,16.98,16.98,338104
8-Sep-16,17.63,17.74,17.62,17.70,262775
7-Sep-16,17.52,17.71,17.50,17.70,406511
6-Sep-16,17.36,17.52,17.20,17.50,357081
2-Sep-16,17.11,17.37,17.07,17.34,490022
1-Sep-16,17.00,17.07,16.86,17.01,422226
31-Aug-16,16.96,17.09,16.88,17.06,294913
30-Aug-16,16.98,17.02,16.93,17.00,330134
29-Aug-16,16.92,17.12,16.92,16.95,332517
26-Aug-16,17.26,17.31,16.90,16.94,499652
25-Aug-16,17.21,17.32,17.15,17.28,249138
24-Aug-16,17.28,17.33,17.17,17.27,311708
23-Aug-16,17.26,17.40,17.20,17.32,334982
22-Aug-16,17.22,17.28,17.09,17.20,413094
19-Aug-16,17.16,17.29,17.07,17.19,314869
18-Aug-16,17.21,17.41,17.15,17.23,388282
17-Aug-16,17.22,17.25,16.98,17.15,397737
16-Aug-16,17.35,17.35,17.15,17.15,297955
15-Aug-16,17.28,17.44,17.28,17.32,347596
12-Aug-16,17.50,17.55,17.36,17.41,379579
11-Aug-16,17.62,17.62,17.33,17.46,419619
10-Aug-16,17.50,17.58,17.47,17.55,495849
9-Aug-16,17.40,17.61,17.35,17.55,352547
8-Aug-16,17.36,17.42,17.33,17.34,219350
5-Aug-16,16.95,17.41,16.95,17.38,586735
4-Aug-16,17.03,17.09,16.88,17.00,609031
3-Aug-16,16.81,17.01,16.72,16.98,727543
2-Aug-16,16.58,17.02,16.49,16.78,769061
1-Aug-16,16.33,16.50,16.27,16.47,313141
29-Jul-16,16.38,16.49,16.28,16.36,265942
28-Jul-16,16.28,16.50,16.26,16.41,612373
27-Jul-16,16.28,16.39,16.20,16.32,493434
26-Jul-16,16.18,16.29,16.11,16.23,485465
25-Jul-16,16.34,16.34,16.20,16.20,256184
22-Jul-16,16.35,16.40,16.22,16.34,634695
21-Jul-16,16.13,16.33,16.07,16.31,906772
20-Jul-16,15.99,16.20,15.92,16.10,219269
19-Jul-16,15.82,16.00,15.75,16.00,270576
18-Jul-16,15.67,15.82,15.62,15.81,216661
15-Jul-16,15.68,15.73,15.60,15.71,204123
14-Jul-16,15.71,15.78,15.64,15.65,232175
13-Jul-16,15.71,15.75,15.61,15.71,232699
12-Jul-16,15.71,15.81,15.66,15.70,738496
11-Jul-16,15.58,15.83,15.52,15.76,349839
8-Jul-16,15.77,15.78,15.53,15.62,426189
7-Jul-16,15.71,15.76,15.65,15.71,406899
6-Jul-16,15.52,15.81,15.45,15.74,314517
5-Jul-16,15.85,15.90,15.50,15.54,587769
1-Jul-16,15.85,15.90,15.72,15.84,554280
30-Jun-16,15.60,15.81,15.51,15.79,272322
29-Jun-16,15.50,15.66,15.50,15.59,348008
28-Jun-16,15.31,15.52,15.23,15.48,458692
27-Jun-16,15.66,15.73,15.44,15.62,577763
24-Jun-16,15.50,15.90,15.43,15.74,510302
23-Jun-16,15.79,15.84,15.70,15.79,170201
22-Jun-16,15.79,15.84,15.72,15.75,296241
21-Jun-16,15.89,15.91,15.75,15.78,369121
20-Jun-16,15.86,16.00,15.84,15.84,239897
17-Jun-16,15.85,15.95,15.76,15.79,536786
16-Jun-16,15.68,15.82,15.59,15.82,324149
15-Jun-16,15.66,15.76,15.61,15.66,424790
14-Jun-16,15.74,15.81,15.61,15.63,372377
13-Jun-16,16.02,16.02,15.79,15.80,264668
10-Jun-16,16.03,16.08,15.92,15.99,343821
9-Jun-16,16.03,16.08,15.97,16.06,236507
8-Jun-16,16.02,16.11,15.95,16.02,299507
7-Jun-16,15.99,16.07,15.94,15.98,551139
6-Jun-16,15.94,15.99,15.85,15.93,291511
3-Jun-16,15.89,15.96,15.83,15.89,1156223
2-Jun-16,15.85,15.91,15.76,15.84,430312
1-Jun-16,15.83,15.89,15.80,15.85,442148
31-May-16,15.78,15.88,15.74,15.83,390421
27-May-16,15.66,15.82,15.66,15.81,301099
26-May-16,15.66,15.75,15.61,15.67,489209
25-May-16,15.66,15.74,15.57,15.62,577899
24-May-16,15.55,15.72,15.48,15.66,1334483
23-May-16,15.25,15.58,15.24,15.53,972201
20-May-16,15.02,15.20,15.02,15.19,557370
19-May-16,14.97,15.04,14.79,15.02,525327
18-May-16,15.29,15.35,14.93,15.04,619031
17-May-16,15.40,15.44,15.20,15.28,437448
16-May-16,15.32,15.47,15.32,15.40,284943
13-May-16,15.40,15.46,15.30,15.38,341581
12-May-16,15.38,15.48,15.27,15.38,307831
11-May-16,15.33,15.49,15.33,15.36,369861
10-May-16,15.41,15.42,15.28,15.40,235576
9-May-16,15.37,15.46,15.28,15.38,488579
6-May-16,15.06,15.35,15.06,15.34,396194
5-May-16,15.11,15.27,15.07,15.16,884669
4-May-16,14.67,15.10,14.62,15.06,1405957
3-May-16,14.73,14.75,14.59,14.73,636047
2-May-16,14.82,14.90,14.61,14.73,613907
29-Apr-16,14.67,14.83,14.61,14.83,578416
28-Apr-16,14.57,14.74,14.49,14.72,619950
27-Apr-16,14.95,14.96,14.84,14.90,1037467
26-Apr-16,14.95,15.05,14.86,14.92,379755
25-Apr-16,14.86,14.98,14.84,14.93,372177
22-Apr-16,14.90,14.94,14.81,14.88,314673
21-Apr-16,14.95,14.97,14.79,14.86,408270
20-Apr-16,14.95,15.00,14.93,14.94,521796
19-Apr-16,14.93,15.07,14.92,14.97,543309
18-Apr-16,14.84,14.94,14.80,14.91,254676
15-Apr-16,14.95,14.97,14.82,14.87,336448
14-Apr-16,14.93,15.04,14.88,14.95,258762
13-Apr-16,14.85,14.98,14.81,14.93,557345
12-Apr-16,14.82,14.94,14.78,14.85,329384
11-Apr-16,14.69,14.85,14.58,14.79,1065957
8-Apr-16,14.51,14.61,14.45,14.47,218055
7-Apr-16,14.36,14.56,14.31,14.45,298927
6-Apr-16,14.50,14.60,14.35,14.39,427962
5-Apr-16,14.52,14.65,14.48,14.54,332078
4-Apr-16,14.70,14.70,14.52,14.54,270644
1-Apr-16,14.65,14.75,14.50,14.64,290744
31-Mar-16,14.40,14.74,14.38,14.68,739391
30-Mar-16,14.44,14.56,14.35,14.35,431540
29-Mar-16,14.16,14.47,14.13,14.44,393963
28-Mar-16,14.60,14.67,14.46,14.54,692855
24-Mar-16,14.50,14.60,14.34,14.58,322326
23-Mar-16,14.76,14.77,14.49,14.50,473196
22-Mar-16,14.67,14.79,14.55,14.77,347128
21-Mar-16,14.48,14.74,14.48,14.68,435583
18-Mar-16,14.50,14.53,14.38,14.44,964753
17-Mar-16,14.08,14.51,14.04,14.46,521125
16-Mar-16,13.90,14.12,13.88,14.06,376584
15-Mar-16,13.95,14.01,13.78,13.93,305428
14-Mar-16,14.11,14.17,13.89,14.06,439763
11-Mar-16,14.00,14.24,14.00,14.19,476929
10-Mar-16,14.17,14.22,13.81,14.04,545929
9-Mar-16,14.37,14.42,13.97,14.15,610950
8-Mar-16,14.46,14.49,14.15,14.37,699047
7-Mar-16,14.27,14.51,14.25,14.50,944012
4-Mar-16,14.30,14.42,14.21,14.36,1214802
3-Mar-16,14.01,14.26,13.93,14.24,905887
2-Mar-16,13.71,14.04,13.63,13.97,914823
1-Mar-16,13.85,13.90,13.65,13.69,491391
29-Feb-16,13.74,13.94,13.74,13.82,914329
26-Feb-16,13.64,14.08,13.63,13.77,808427
25-Feb-16,13.61,13.72,13.50,13.60,394551
24-Feb-16,13.49,13.62,13.10,13.57,749456
23-Feb-16,13.34,13.62,13.25,13.54,452953
22-Feb-16,13.46,13.58,13.40,13.44,651129
19-Feb-16,13.37,13.43,13.28,13.34,388995
18-Feb-16,13.36,13.42,13.25,13.39,392219
17-Feb-16,13.17,13.34,13.06,13.29,983473
16-Feb-16,12.81,13.12,12.74,13.07,819095
12-Feb-16,12.63,12.94,12.49,12.81,736322
11-Feb-16,12.79,12.79,12.52,12.62,754650
10-Feb-16,12.94,13.11,12.87,12.91,781382
9-Feb-16,13.10,13.23,12.88,12.95,938436
8-Feb-16,13.45,13.47,13.15,13.15,1103016
5-Feb-16,13.54,13.60,13.30,13.48,849343
4-Feb-16,13.75,13.84,13.46,13.53,1115532
3-Feb-16,13.10,13.45,12.99,13.41,1077280
2-Feb-16,12.93,13.07,12.67,13.02,570595
1-Feb-16,13.01,13.13,12.94,12.99,502502
29-Jan-16,12.69,13.04,12.61,13.03,688709
28-Jan-16,12.55,12.77,12.48,12.56,397030
27-Jan-16,12.60,12.73,12.38,12.44,444232
26-Jan-16,12.26,12.66,12.08,12.59,504974
25-Jan-16,12.74,12.74,12.24,12.26,440162
22-Jan-16,12.48,12.81,12.33,12.74,603754
21-Jan-16,12.67,12.67,12.28,12.33,806509
20-Jan-16,12.61,12.70,12.01,12.60,969409
19-Jan-16,13.05,13.05,12.65,12.80,723819
15-Jan-16,13.20,13.21,12.63,13.03,1081851
14-Jan-16,13.44,13.54,13.15,13.42,434428
13-Jan-16,13.79,13.79,13.34,13.44,574691
12-Jan-16,14.12,14.12,13.68,13.75,404557
11-Jan-16,14.18,14.23,14.02,14.11,307911
8-Jan-16,14.29,14.36,14.10,14.13,488048
7-Jan-16,14.18,14.36,14.05,14.29,665307
6-Jan-16,14.13,14.50,14.13,14.36,697940
5-Jan-16,14.10,14.52,14.05,14.41,414496
4-Jan-16,13.90,14.10,13.84,14.08,447972
31-Dec-15,13.93,14.14,13.93,13.96,501060
30-Dec-15,14.09,14.17,14.03,14.03,457300
29-Dec-15,14.23,14.37,14.05,14.16,412752
28-Dec-15,14.66,14.73,14.48,14.62,491460
24-Dec-15,14.84,14.86,14.69,14.70,203624
23-Dec-15,14.91,14.93,14.78,14.86,330964
22-Dec-15,14.58,14.82,14.54,14.80,632149
21-Dec-15,14.35,14.55,14.22,14.54,663968
18-Dec-15,14.19,14.40,14.14,14.27,1142398
17-Dec-15,14.21,14.35,14.15,14.24,447962
16-Dec-15,13.94,14.21,13.90,14.18,691716
15-Dec-15,13.75,13.98,13.74,13.89,743777
14-Dec-15,14.09,14.17,13.63,13.77,667326
11-Dec-15,14.21,14.32,14.06,14.14,786651
10-Dec-15,14.22,14.35,14.12,14.32,491353
9-Dec-15,14.23,14.38,14.23,14.23,414214
8-Dec-15,14.25,14.32,14.08,14.27,464724
7-Dec-15,14.52,14.52,14.26,14.33,418002
4-Dec-15,14.54,14.60,14.50,14.52,333301
3-Dec-15,14.60,14.71,14.49,14.51,427085
2-Dec-15,14.74,14.77,14.61,14.63,328059
1-Dec-15,15.00,15.05,14.70,14.72,842911
30-Nov-15,15.03,15.08,14.93,14.99,801952
27-Nov-15,14.85,15.02,14.82,15.01,159547
25-Nov-15,14.74,14.86,14.65,14.85,323723
24-Nov-15,14.78,14.85,14.67,14.75,345121
23-Nov-15,14.92,14.95,14.82,14.89,214678
20-Nov-15,15.07,15.12,14.88,14.89,342997
19-Nov-15,14.95,15.12,14.95,15.05,365349
18-Nov-15,14.84,15.05,14.77,15.04,538360
17-Nov-15,14.84,14.96,14.74,14.78,513956
16-Nov-15,14.71,14.89,14.62,14.87,534487
13-Nov-15,14.74,14.86,14.66,14.81,427878
12-Nov-15,14.82,14.98,14.78,14.81,468963
11-Nov-15,14.90,15.06,14.88,14.90,355640
10-Nov-15,14.63,14.92,14.63,14.90,501679
9-Nov-15,14.59,14.72,14.54,14.62,501907
6-Nov-15,14.58,14.74,14.42,14.68,497440
5-Nov-15,14.90,14.90,14.67,14.68,480620
4-Nov-15,14.96,14.98,14.83,14.86,518398
3-Nov-15,14.88,14.98,14.76,14.96,482948
2-Nov-15,14.41,14.89,14.41,14.86,560234
30-Oct-15,14.42,14.56,14.30,14.51,731306
29-Oct-15,14.60,14.60,14.25,14.48,717964
28-Oct-15,14.42,14.74,14.33,14.64,1163453
27-Oct-15,14.27,14.84,14.22,14.38,1074165
26-Oct-15,14.87,14.90,14.74,14.85,656339
23-Oct-15,14.81,14.88,14.64,14.86,574093
22-Oct-15,14.80,14.84,14.72,14.80,530951
21-Oct-15,14.78,14.87,14.71,14.75,352505
20-Oct-15,14.76,14.80,14.68,14.75,577813
19-Oct-15,14.77,14.87,14.73,14.74,354148
16-Oct-15,14.98,14.98,14.83,14.86,328246
15-Oct-15,14.94,14.95,14.67,14.94,555656
14-Oct-15,14.89,15.02,14.81,14.90,311077
13-Oct-15,15.11,15.13,14.89,14.93,263541
12-Oct-15,15.13,15.22,15.09,15.09,187540
9-Oct-15,15.15,15.21,15.01,15.14,250941
8-Oct-15,15.15,15.22,15.10,15.15,584972
7-Oct-15,14.97,15.18,14.97,15.18,443240
6-Oct-15,15.06,15.06,14.93,14.98,405480
5-Oct-15,14.89,15.16,14.89,15.03,667528
2-Oct-15,14.88,14.95,14.81,14.93,804439
1-Oct-15,14.73,14.90,14.64,14.85,935497
30-Sep-15,14.47,14.76,14.37,14.74,1626382
29-Sep-15,14.60,14.66,14.45,14.49,1146022
28-Sep-15,14.80,14.88,14.51,14.65,1153638
25-Sep-15,15.43,15.43,15.19,15.20,647027
24-Sep-15,15.36,15.48,15.29,15.42,647000
23-Sep-15,15.34,15.47,15.33,15.44,618312
22-Sep-15,15.40,15.48,15.32,15.33,484321
21-Sep-15,15.40,15.50,15.32,15.48,443739
18-Sep-15,15.39,15.45,15.27,15.36,1138981
17-Sep-15,15.22,15.62,15.14,15.57,496855
16-Sep-15,15.24,15.36,15.22,15.28,296590
15-Sep-15,15.22,15.33,15.18,15.29,277577
14-Sep-15,15.45,15.45,15.28,15.29,298086
11-Sep-15,15.23,15.47,15.19,15.44,468486
10-Sep-15,15.20,15.30,15.11,15.24,657634
9-Sep-15,15.20,15.26,15.05,15.12,547491
8-Sep-15,15.19,15.26,15.10,15.21,424823
4-Sep-15,15.13,15.22,14.95,15.10,370934
3-Sep-15,15.30,15.34,15.20,15.22,323316
2-Sep-15,15.24,15.34,15.15,15.23,459809
1-Sep-15,15.16,15.26,15.13,15.21,651719
31-Aug-15,15.24,15.31,15.14,15.27,665494
28-Aug-15,15.25,15.40,15.20,15.29,1026704
27-Aug-15,15.39,15.68,15.29,15.56,378391
26-Aug-15,15.32,15.39,15.20,15.39,449581
25-Aug-15,15.48,15.48,15.18,15.20,600305
24-Aug-15,15.40,15.58,14.70,15.29,702215
21-Aug-15,15.80,15.97,15.68,15.70,496027
20-Aug-15,15.85,16.02,15.80,15.95,258650
19-Aug-15,16.00,16.00,15.85,15.91,218820
18-Aug-15,15.94,15.99,15.86,15.98,301534
17-Aug-15,15.73,15.99,15.73,15.99,369131
14-Aug-15,15.79,15.84,15.69,15.82,228618
13-Aug-15,15.88,15.88,15.74,15.77,252967
12-Aug-15,15.70,15.87,15.66,15.84,303638
11-Aug-15,15.60,15.84,15.46,15.80,417840
10-Aug-15,15.66,15.70,15.54,15.55,423666
7-Aug-15,15.74,15.80,15.69,15.71,327093
6-Aug-15,15.81,15.89,15.70,15.80,320242
5-Aug-15,15.95,15.95,15.76,15.84,333995
4-Aug-15,16.03,16.09,15.92,15.97,372339
3-Aug-15,16.08,16.15,16.04,16.09,466873
31-Jul-15,16.09,16.23,16.07,16.14,415698
30-Jul-15,15.80,16.10,15.80,16.07,533230
29-Jul-15,15.96,16.16,15.95,16.10,462739
28-Jul-15,15.91,16.09,15.90,16.03,893616
27-Jul-15,16.02,16.08,15.92,15.96,331788
24-Jul-15,16.10,16.20,15.95,15.98,352758
23-Jul-15,16.37,16.37,16.12,16.14,360635
22-Jul-15,16.35,16.45,16.35,16.37,221564
21-Jul-15,16.37,16.54,16.37,16.38,269307
20-Jul-15,16.54,16.54,16.38,16.47,295191
17-Jul-15,16.50,16.57,16.41,16.54,305764
16-Jul-15,16.48,16.66,16.48,16.52,330457
15-Jul-15,16.40,16.49,16.31,16.47,380302
14-Jul-15,16.45,16.55,16.37,16.48,324550
13-Jul-15,16.42,16.58,16.41,16.45,299974
10-Jul-15,16.44,16.60,16.40,16.48,266977
9-Jul-15,16.76,16.77,16.49,16.49,312012
8-Jul-15,16.78,16.89,16.69,16.73,341354
7-Jul-15,16.52,16.80,16.52,16.78,514433
6-Jul-15,16.27,16.40,16.23,16.40,282484
2-Jul-15,16.19,16.33,16.16,16.27,346758
1-Jul-15,16.05,16.20,15.90,16.16,442352
30-Jun-15,16.00,16.22,15.90,15.99,736475
29-Jun-15,16.19,16.37,15.96,16.00,721348
26-Jun-15,16.67,16.70,16.19,16.27,1303333
25-Jun-15,17.33,17.36,17.13,17.16,490122
24-Jun-15,17.44,17.45,17.31,17.33,368232
23-Jun-15,17.51,17.54,17.41,17.49,382916
22-Jun-15,17.48,17.58,17.46,17.50,459807
19-Jun-15,17.52,17.64,17.45,17.55,931436
18-Jun-15,17.38,17.55,17.38,17.51,403126
17-Jun-15,17.24,17.41,17.18,17.41,436221
16-Jun-15,17.15,17.31,17.07,17.25,320784
15-Jun-15,17.24,17.31,17.17,17.22,287098
12-Jun-15,17.23,17.30,17.15,17.24,311921
11-Jun-15,17.07,17.23,17.02,17.23,519822
10-Jun-15,16.92,17.03,16.84,17.03,555047
9-Jun-15,16.96,16.98,16.89,16.94,638005
8-Jun-15,16.99,17.04,16.83,17.00,816563
5-Jun-15,17.17,17.17,16.97,17.05,911079
4-Jun-15,17.20,17.29,17.20,17.28,314919
3-Jun-15,17.35,17.40,17.19,17.29,387820
2-Jun-15,17.53,17.64,17.37,17.42,759268
1-Jun-15,17.46,17.64,17.41,17.62,498104
29-May-15,17.38,17.49,17.31,17.47,668353
28-May-15,17.36,17.44,17.31,17.43,380575
27-May-15,17.30,17.39,17.27,17.38,293738
26-May-15,17.32,17.36,17.24,17.33,512849
22-May-15,17.45,17.47,17.36,17.39,335093
21-May-15,17.51,17.52,17.40,17.46,297679
20-May-15,17.43,17.53,17.36,17.48,363582
19-May-15,17.42,17.46,17.35,17.44,304909
18-May-15,17.41,17.47,17.30,17.46,304063
15-May-15,17.40,17.47,17.28,17.47,406434
14-May-15,17.39,17.46,17.23,17.38,257132
13-May-15,17.23,17.39,17.20,17.31,415128
12-May-15,17.33,17.44,17.18,17.36,352520
11-May-15,17.39,17.48,17.28,17.33,378097
8-May-15,17.45,17.54,17.37,17.46,457389
7-May-15,17.34,17.43,17.12,17.38,462544
6-May-15,17.48,17.49,17.19,17.34,457748
5-May-15,17.55,17.64,17.36,17.41,590625
4-May-15,17.58,17.67,17.52,17.59,456311
1-May-15,17.53,17.66,17.46,17.62,593572
30-Apr-15,17.60,17.80,17.48,17.54,1396931
29-Apr-15,17.84,17.85,17.65,17.71,962649
28-Apr-15,18.15,18.15,17.76,17.86,861916
27-Apr-15,18.18,18.21,18.04,18.10,287775
24-Apr-15,18.10,18.25,18.03,18.09,191044
23-Apr-15,18.11,18.20,18.08,18.11,165259
22-Apr-15,18.14,18.20,18.08,18.11,211472
21-Apr-15,18.25,18.26,18.09,18.09,177840
20-Apr-15,18.18,18.28,18.18,18.22,186867
17-Apr-15,18.12,18.28,18.11,18.17,279507
16-Apr-15,18.14,18.25,18.11,18.20,157222
15-Apr-15,18.18,18.29,18.13,18.19,205941
14-Apr-15,18.01,18.19,18.01,18.17,215123
13-Apr-15,18.17,18.20,18.02,18.06,311612
10-Apr-15,18.05,18.19,18.05,18.17,234413
9-Apr-15,18.04,18.08,17.93,18.02,259522
8-Apr-15,18.05,18.14,17.98,18.08,237009
7-Apr-15,18.11,18.13,18.01,18.08,236541
6-Apr-15,18.00,18.16,18.00,18.16,282797
2-Apr-15,18.12,18.17,17.98,18.02,277268
1-Apr-15,17.97,18.12,17.90,18.08,289931
31-Mar-15,17.80,17.97,17.80,17.96,381857
30-Mar-15,17.88,17.96,17.76,17.87,444760
27-Mar-15,17.88,18.00,17.81,17.90,599265
26-Mar-15,18.25,18.43,18.17,18.39,675350
25-Mar-15,18.45,18.53,18.24,18.25,467313
24-Mar-15,18.40,18.47,18.38,18.40,284692
23-Mar-15,18.20,18.47,18.16,18.45,606433
20-Mar-15,18.07,18.37,18.02,18.19,2732232
19-Mar-15,18.46,18.63,18.36,18.43,377521
18-Mar-15,18.27,18.60,18.20,18.51,468089
17-Mar-15,18.10,18.27,18.10,18.23,275231
16-Mar-15,18.18,18.32,18.10,18.11,281750
13-Mar-15,18.13,18.27,18.06,18.16,214959
12-Mar-15,18.17,18.28,18.08,18.17,287584
11-Mar-15,18.22,18.26,18.01,18.08,235111
10-Mar-15,17.83,18.18,17.80,18.17,404997
9-Mar-15,18.13,18.23,17.93,17.94,625171
6-Mar-15,18.25,18.35,18.02,18.08,540800
5-Mar-15,18.45,18.49,18.31,18.42,238609
4-Mar-15,18.35,18.42,18.26,18.42,246053
3-Mar-15,18.39,18.39,18.22,18.33,323357
2-Mar-15,18.43,18.48,18.31,18.38,335589
27-Feb-15,18.28,18.46,18.23,18.45,360710
26-Feb-15,18.32,18.38,18.21,18.25,245208
25-Feb-15,18.35,18.44,18.28,18.31,320492
24-Feb-15,18.23,18.30,18.15,18.30,239069
23-Feb-15,18.31,18.38,18.22,18.28,292864
20-Feb-15,18.20,18.40,18.20,18.27,260782
19-Feb-15,18.34,18.34,18.17,18.20,255054
18-Feb-15,18.24,18.29,18.06,18.29,497237
17-Feb-15,18.21,18.48,18.20,18.24,376728
13-Feb-15,18.36,18.41,18.25,18.33,403891
12-Feb-15,18.32,18.40,18.23,18.32,425650
11-Feb-15,18.35,18.40,18.22,18.24,482817
10-Feb-15,18.35,18.46,18.22,18.32,425257
9-Feb-15,18.24,18.45,18.23,18.35,740004
6-Feb-15,18.68,18.68,18.38,18.47,631197
5-Feb-15,18.85,18.92,18.64,18.77,474305
4-Feb-15,18.95,18.95,18.55,18.63,343340
3-Feb-15,18.55,18.97,18.50,18.89,372086
2-Feb-15,18.64,18.65,18.31,18.56,547759
30-Jan-15,18.75,18.75,18.56,18.64,364354
29-Jan-15,18.81,18.84,18.51,18.79,373672
28-Jan-15,18.95,19.03,18.70,18.74,328630
27-Jan-15,18.92,18.95,18.80,18.87,297860
26-Jan-15,18.85,19.00,18.65,19.00,350716
23-Jan-15,18.92,18.92,18.65,18.80,299874
22-Jan-15,18.67,18.88,18.57,18.87,754542
21-Jan-15,18.44,18.59,18.44,18.57,577357
20-Jan-15,18.84,18.84,18.43,18.49,571978
16-Jan-15,18.70,18.79,18.60,18.76,540351
15-Jan-15,18.76,18.85,18.65,18.69,481496
14-Jan-15,18.60,18.77,18.50,18.76,575727
13-Jan-15,18.94,18.98,18.64,18.76,545279
12-Jan-15,19.02,19.10,18.80,18.98,557702
9-Jan-15,19.25,19.35,19.07,19.08,285667
8-Jan-15,19.35,19.35,19.19,19.28,391946
7-Jan-15,19.27,19.31,19.13,19.30,1768003
6-Jan-15,19.30,19.39,19.14,19.20,428047
5-Jan-15,19.10,19.29,19.06,19.21,428487
2-Jan-15,18.91,19.20,18.81,19.17,412483
31-Dec-14,19.20,19.36,18.80,18.84,636034
30-Dec-14,19.23,19.34,19.01,19.21,525570
29-Dec-14,19.28,19.41,19.19,19.27,479442
26-Dec-14,19.68,19.82,19.62,19.78,650738
24-Dec-14,19.84,19.84,19.51,19.65,423403
23-Dec-14,19.85,19.90,19.67,19.82,382643
22-Dec-14,19.92,19.92,19.71,19.85,360301
19-Dec-14,19.53,19.92,19.39,19.82,1019932
18-Dec-14,19.49,19.51,19.25,19.48,318561
17-Dec-14,19.09,19.36,19.09,19.36,381161
16-Dec-14,19.17,19.30,19.06,19.06,590270
15-Dec-14,19.45,19.54,19.11,19.21,536356
12-Dec-14,19.56,19.64,19.43,19.44,421842
11-Dec-14,19.40,19.70,19.33,19.66,465613
10-Dec-14,19.85,19.87,19.39,19.40,448589
9-Dec-14,19.36,19.85,19.35,19.85,477940
8-Dec-14,19.89,19.99,19.47,19.51,477532
5-Dec-14,20.04,20.08,19.85,19.94,436910
4-Dec-14,20.19,20.22,20.02,20.13,395751
3-Dec-14,20.14,20.22,20.02,20.16,220465
2-Dec-14,20.00,20.15,19.92,20.10,298081
1-Dec-14,20.11,20.11,19.92,19.96,295388
28-Nov-14,20.12,20.17,20.05,20.07,187106
26-Nov-14,20.00,20.12,19.95,20.07,302775
25-Nov-14,20.00,20.00,19.87,19.94,275804
24-Nov-14,19.80,19.95,19.77,19.92,223076
21-Nov-14,19.94,19.94,19.68,19.77,436763
20-Nov-14,19.78,19.88,19.71,19.88,266779
19-Nov-14,19.75,19.83,19.68,19.76,403429
18-Nov-14,19.83,19.85,19.74,19.75,253516
17-Nov-14,19.65,19.82,19.65,19.73,382087
14-Nov-14,19.60,19.76,19.56,19.74,253266
13-Nov-14,19.70,19.76,19.63,19.63,247988
12-Nov-14,19.68,19.70,19.57,19.67,231783
11-Nov-14,19.68,19.74,19.62,19.66,178205
10-Nov-14,19.70,19.75,19.62,19.72,326754
7-Nov-14,19.59,19.73,19.45,19.69,371985
6-Nov-14,19.60,19.62,19.47,19.56,296142
5-Nov-14,19.62,19.72,19.48,19.57,390667
4-Nov-14,19.77,19.79,19.57,19.61,547213
3-Nov-14,19.57,19.71,19.54,19.70,491797
31-Oct-14,19.70,19.76,19.45,19.59,1007634
30-Oct-14,19.65,19.79,19.42,19.70,633915
29-Oct-14,20.06,20.06,19.64,19.75,618390
28-Oct-14,19.85,20.04,19.78,20.03,1114807
27-Oct-14,19.85,19.89,19.70,19.84,414559
24-Oct-14,19.88,19.88,19.69,19.84,442245
23-Oct-14,19.93,19.95,19.76,19.84,858181
22-Oct-14,19.97,20.10,19.81,19.84,704966
21-Oct-14,19.95,19.98,19.77,19.90,441247
20-Oct-14,19.63,19.88,19.55,19.88,467691
17-Oct-14,19.86,19.87,19.59,19.60,506413
16-Oct-14,19.62,19.79,19.46,19.72,529168
15-Oct-14,19.61,19.79,19.42,19.70,1187623
14-Oct-14,19.70,19.80,19.59,19.61,610223
13-Oct-14,19.32,19.82,19.32,19.62,512024
10-Oct-14,19.49,19.61,19.33,19.33,390150
9-Oct-14,19.54,19.75,19.41,19.42,395844
8-Oct-14,19.14,19.50,19.12,19.48,550439
7-Oct-14,19.07,19.25,18.97,19.12,334576
6-Oct-14,18.88,19.12,18.85,19.02,358819
3-Oct-14,19.03,19.03,18.79,18.87,412036
2-Oct-14,19.05,19.13,18.82,18.88,383496
1-Oct-14,18.88,19.07,18.85,19.02,546000
30-Sep-14,19.07,19.17,18.81,18.82,755897
29-Sep-14,19.19,19.21,19.00,19.09,514343
26-Sep-14,19.16,19.26,19.02,19.21,706304
25-Sep-14,19.75,19.88,19.64,19.80,750210
24-Sep-14,19.77,19.83,19.64,19.69,508183
23-Sep-14,19.83,19.91,19.72,19.72,435675
22-Sep-14,20.15,20.20,19.82,19.86,441205
19-Sep-14,19.99,20.17,19.94,20.10,1342178
18-Sep-14,20.11,20.12,19.89,19.92,460069
17-Sep-14,20.05,20.23,19.95,20.05,472645
16-Sep-14,19.87,20.00,19.72,20.00,441730
15-Sep-14,19.86,19.98,19.77,19.87,443337
12-Sep-14,20.49,20.49,19.86,19.91,745354
11-Sep-14,20.28,20.52,20.26,20.50,534585
10-Sep-14,20.38,20.44,20.16,20.24,306275
9-Sep-14,20.40,20.48,20.37,20.37,271172
8-Sep-14,20.49,20.49,20.35,20.45,273014
5-Sep-14,20.21,20.46,20.21,20.43,302875
4-Sep-14,20.40,20.40,20.19,20.25,434837
3-Sep-14,20.37,20.43,20.34,20.35,337303
2-Sep-14,20.62,20.62,20.35,20.41,357863
29-Aug-14,20.42,20.60,20.38,20.58,248824
28-Aug-14,20.46,20.49,20.38,20.45,239314
27-Aug-14,20.54,20.55,20.43,20.48,303948
26-Aug-14,20.48,20.53,20.40,20.48,260896
25-Aug-14,20.36,20.49,20.31,20.42,1400941
22-Aug-14,20.48,20.52,20.33,20.36,270167
21-Aug-14,20.40,20.53,20.40,20.44,334950
20-Aug-14,20.42,20.50,20.39,20.47,254476
19-Aug-14,20.48,20.51,20.39,20.45,253543
18-Aug-14,20.50,20.53,20.37,20.44,235049
15-Aug-14,20.40,20.47,20.35,20.42,439722
14-Aug-14,20.35,20.36,20.28,20.31,265231
13-Aug-14,20.38,20.38,20.28,20.31,178289
12-Aug-14,20.30,20.40,20.28,20.31,323261
11-Aug-14,20.33,20.42,20.26,20.33,254683
8-Aug-14,20.13,20.30,20.13,20.24,250805
7-Aug-14,20.27,20.41,20.13,20.14,344783
6-Aug-14,20.07,20.26,20.07,20.21,297441
5-Aug-14,20.13,20.17,20.04,20.07,313948
4-Aug-14,20.04,20.12,20.03,20.07,352128
1-Aug-14,20.01,20.16,19.94,20.02,449256
31-Jul-14,19.85,20.01,19.69,19.93,687585
30-Jul-14,20.04,20.10,19.82,19.85,452867
29-Jul-14,20.15,20.19,20.00,20.02,330562
28-Jul-14,19.98,20.10,19.94,20.05,404352
25-Jul-14,19.85,20.00,19.83,19.92,272812
24-Jul-14,19.91,19.95,19.81,19.89,2255221
23-Jul-14,19.92,20.00,19.86,19.92,220661
22-Jul-14,19.81,19.89,19.73,19.86,212559
21-Jul-14,19.60,19.77,19.59,19.71,361337
18-Jul-14,19.55,19.76,19.55,19.65,266888
17-Jul-14,19.59,19.69,19.55,19.59,230084
16-Jul-14,19.72,19.73,19.57,19.64,405118
15-Jul-14,19.79,19.82,19.62,19.69,269312
14-Jul-14,19.65,19.77,19.60,19.75,268225
11-Jul-14,19.65,19.76,19.58,19.59,351011
10-Jul-14,19.59,19.76,19.55,19.66,437152
9-Jul-14,19.61,19.69,19.51,19.67,488902
8-Jul-14,19.60,19.72,19.56,19.63,500531
7-Jul-14,19.57,19.58,19.49,19.56,353126
3-Jul-14,19.69,19.74,19.45,19.57,745302
2-Jul-14,19.80,19.84,19.57,19.79,487178
1-Jul-14,19.95,20.07,19.77,19.83,440877
30-Jun-14,20.03,20.04,19.87,20.02,333750
27-Jun-14,19.90,20.09,19.85,20.02,1086376
26-Jun-14,19.71,19.97,19.62,19.94,734685
25-Jun-14,20.27,20.32,20.13,20.26,822829
24-Jun-14,20.23,20.42,20.23,20.30,541299
23-Jun-14,20.41,20.50,20.36,20.40,422751
20-Jun-14,20.43,20.45,20.25,20.35,836521
19-Jun-14,20.52,20.55,20.35,20.35,422004
18-Jun-14,20.40,20.46,20.28,20.44,367770
17-Jun-14,20.48,20.58,20.30,20.33,330941
16-Jun-14,20.55,20.68,20.43,20.52,467143
13-Jun-14,20.57,20.65,20.40,20.55,360751
12-Jun-14,20.35,20.60,20.29,20.57,427919
11-Jun-14,20.32,20.43,20.30,20.39,246576
10-Jun-14,20.48,20.48,20.34,20.35,386340
9-Jun-14,20.47,20.62,20.41,20.43,587846
6-Jun-14,20.49,20.64,20.45,20.52,388026
5-Jun-14,20.20,20.41,20.14,20.41,495917
4-Jun-14,20.19,20.19,19.99,20.14,334252
3-Jun-14,20.23,20.29,20.13,20.15,342639
2-Jun-14,20.49,20.49,20.25,20.28,618167
30-May-14,20.41,20.47,20.30,20.43,507084
29-May-14,20.45,20.46,20.32,20.36,361100
28-May-14,20.54,20.59,20.38,20.39,638625
27-May-14,20.50,20.67,20.46,20.54,356510
23-May-14,20.32,20.50,20.25,20.41,239203
22-May-14,20.10,20.34,20.07,20.23,398266
21-May-14,20.09,20.13,20.01,20.06,416493
20-May-14,20.16,20.19,19.94,20.05,525847
19-May-14,19.96,20.16,19.81,20.15,793850
16-May-14,19.82,19.96,19.76,19.90,476664
15-May-14,19.67,19.90,19.66,19.82,678726
14-May-14,19.89,19.96,19.81,19.92,431428
13-May-14,20.00,20.09,19.81,19.82,460748
12-May-14,20.02,20.14,19.89,19.99,435816
9-May-14,19.85,20.03,19.83,19.98,343750
8-May-14,20.01,20.18,19.89,19.89,432364
7-May-14,19.79,20.14,19.79,20.13,344263
6-May-14,19.84,19.91,19.78,19.81,380250
5-May-14,19.85,19.95,19.80,19.87,305903
2-May-14,20.09,20.09,19.84,19.95,475857
1-May-14,19.95,20.25,19.80,20.14,827302
30-Apr-14,19.56,19.81,19.46,19.80,379475
29-Apr-14,19.73,19.82,19.48,19.54,886747
28-Apr-14,19.69,19.88,19.66,19.70,521175
25-Apr-14,19.63,19.75,19.60,19.72,346839
24-Apr-14,19.64,19.75,19.53,19.65,313827
23-Apr-14,19.55,19.65,19.52,19.60,270205
22-Apr-14,19.48,19.55,19.40,19.51,371323
21-Apr-14,19.29,19.46,19.24,19.43,372177
17-Apr-14,19.36,19.40,19.18,19.28,401788
16-Apr-14,19.30,19.37,19.18,19.36,355360
15-Apr-14,19.18,19.28,19.11,19.25,397223
14-Apr-14,19.28,19.39,19.08,19.17,349856
11-Apr-14,19.16,19.45,19.16,19.23,427571
10-Apr-14,19.23,19.48,19.15,19.23,1418533
9-Apr-14,19.22,19.26,19.08,19.19,492537
8-Apr-14,19.11,19.24,19.04,19.19,557822
7-Apr-14,18.96,19.28,18.90,19.12,493498
4-Apr-14,18.89,19.09,18.85,18.92,452097
3-Apr-14,18.95,18.98,18.79,18.87,279537
2-Apr-14,18.82,18.95,18.80,18.93,302071
1-Apr-14,18.75,18.89,18.64,18.82,612049
31-Mar-14,18.82,18.86,18.63,18.77,627939
28-Mar-14,18.81,18.94,18.70,18.72,410549
27-Mar-14,18.72,18.95,18.53,18.77,865945
26-Mar-14,19.64,19.71,19.34,19.36,1042743
25-Mar-14,19.92,19.92,19.57,19.59,749851
24-Mar-14,19.97,19.99,19.61,19.82,739949
21-Mar-14,19.77,19.97,19.75,19.93,831725
20-Mar-14,19.63,19.74,19.42,19.72,439389
19-Mar-14,20.18,20.18,19.62,19.69,603730
18-Mar-14,20.10,20.20,20.04,20.13,288032
17-Mar-14,20.17,20.22,20.07,20.09,323382
14-Mar-14,20.16,20.33,20.06,20.15,408786
13-Mar-14,19.90,20.15,19.74,20.15,526268
12-Mar-14,19.52,19.88,19.52,19.86,460030
11-Mar-14,19.76,19.81,19.52,19.55,448269
10-Mar-14,19.56,19.84,19.56,19.73,385407
7-Mar-14,20.07,20.07,19.51,19.66,1092351
6-Mar-14,20.32,20.35,20.21,20.24,325450
5-Mar-14,20.16,20.35,20.13,20.31,404992
4-Mar-14,20.33,20.33,20.12,20.18,1046365
3-Mar-14,20.14,20.28,20.13,20.23,473876
28-Feb-14,20.10,20.19,19.94,20.17,807094
27-Feb-14,20.06,20.13,19.89,20.07,442355
26-Feb-14,19.91,20.14,19.87,20.07,610283
25-Feb-14,19.90,19.96,19.79,19.89,392228
24-Feb-14,19.76,19.87,19.75,19.81,617752
21-Feb-14,19.83,19.86,19.70,19.80,608923
20-Feb-14,19.96,20.00,19.67,19.72,436045
19-Feb-14,20.13,20.34,19.90,19.92,696272
18-Feb-14,19.77,20.16,19.71,20.13,646172
14-Feb-14,19.88,19.94,19.71,19.84,283491
13-Feb-14,19.63,19.85,19.59,19.85,314093
12-Feb-14,19.52,19.85,19.52,19.69,742387
11-Feb-14,19.72,19.72,19.52,19.56,416424
10-Feb-14,19.55,19.79,19.39,19.70,991370
7-Feb-14,19.40,19.63,19.26,19.55,1856988
6-Feb-14,19.50,19.68,19.07,19.16,1191321
5-Feb-14,19.68,19.80,19.54,19.68,739225
4-Feb-14,19.59,19.65,19.39,19.64,444847
3-Feb-14,19.58,19.64,19.42,19.49,497223
31-Jan-14,19.04,19.75,19.03,19.55,803406
30-Jan-14,19.01,19.30,18.96,19.14,391644
29-Jan-14,19.07,19.22,18.86,18.97,486895
28-Jan-14,19.10,19.32,18.83,19.11,579459
27-Jan-14,19.06,19.21,18.71,18.98,447159
24-Jan-14,19.10,19.25,19.03,19.06,340129
23-Jan-14,18.94,19.20,18.94,19.11,423809
22-Jan-14,18.83,18.99,18.82,18.89,301243
21-Jan-14,18.58,18.83,18.58,18.83,249531
17-Jan-14,18.64,18.69,18.50,18.58,191114
16-Jan-14,18.51,18.63,18.43,18.61,330212
15-Jan-14,18.49,18.63,18.41,18.50,449305
14-Jan-14,18.76,18.81,18.43,18.46,457368
13-Jan-14,18.46,18.82,18.46,18.80,629279
10-Jan-14,18.35,18.59,18.31,18.54,506720
9-Jan-14,18.28,18.28,18.05,18.25,392556
8-Jan-14,18.17,18.33,18.10,18.28,437429
7-Jan-14,18.08,18.26,18.03,18.21,441159
6-Jan-14,17.89,18.26,17.71,18.07,818738
3-Jan-14,17.67,17.94,17.67,17.91,475606
2-Jan-14,17.43,17.71,17.37,17.66,636685
31-Dec-13,17.40,17.58,17.37,17.46,753249
30-Dec-13,17.52,17.69,17.40,17.43,649998
27-Dec-13,17.46,17.63,17.27,17.55,884727
26-Dec-13,18.28,18.36,18.10,18.10,1115705
24-Dec-13,18.13,18.34,18.13,18.21,482908
23-Dec-13,18.30,18.43,18.20,18.20,880179
20-Dec-13,18.05,18.24,17.98,18.20,1908971
19-Dec-13,18.10,18.15,17.93,18.02,1039734
18-Dec-13,17.97,18.15,17.58,18.04,1212080
17-Dec-13,17.84,17.98,17.81,17.95,815408
16-Dec-13,18.25,18.25,17.77,17.88,1237947
13-Dec-13,18.27,18.33,18.07,18.16,498437
12-Dec-13,18.21,18.29,18.03,18.18,450453
11-Dec-13,18.62,18.73,18.11,18.26,648485
10-Dec-13,18.40,18.68,18.40,18.60,606163
9-Dec-13,18.13,18.41,18.03,18.36,554761
6-Dec-13,18.27,18.30,18.00,18.15,619119
5-Dec-13,18.33,18.45,18.10,18.18,551993
4-Dec-13,18.17,18.50,18.08,18.45,614236
3-Dec-13,18.41,18.57,18.27,18.32,769973
2-Dec-13,18.83,18.83,18.27,18.35,924913
29-Nov-13,19.12,19.25,18.69,18.89,703564
27-Nov-13,19.00,19.15,18.90,19.07,535846
26-Nov-13,19.10,19.16,18.94,18.99,648533
25-Nov-13,18.97,19.25,18.86,19.10,569237
22-Nov-13,19.21,19.21,18.81,19.08,714684
21-Nov-13,19.37,19.39,19.09,19.15,571622
20-Nov-13,19.30,19.52,19.23,19.31,593326
19-Nov-13,19.52,19.59,19.21,19.24,514856
18-Nov-13,19.51,19.59,19.37,19.45,417557
15-Nov-13,19.68,19.83,19.36,19.44,617464
14-Nov-13,19.42,19.91,19.38,19.68,648184
13-Nov-13,19.13,19.39,19.07,19.33,454240
12-Nov-13,19.04,19.34,18.98,19.22,542982
11-Nov-13,19.34,19.44,18.80,19.06,788490
8-Nov-13,19.58,19.60,19.17,19.36,631839
7-Nov-13,19.82,19.91,19.70,19.78,549443
6-Nov-13,19.69,19.94,19.67,19.78,412780
5-Nov-13,19.67,19.77,19.57,19.66,658859
4-Nov-13,19.51,19.70,19.39,19.63,530910
1-Nov-13,19.08,19.51,19.08,19.50,755584
31-Oct-13,19.31,19.40,19.10,19.11,783233
30-Oct-13,19.59,19.69,19.25,19.43,728059
29-Oct-13,20.22,20.22,19.50,19.67,1378918
28-Oct-13,20.93,20.93,20.60,20.77,652413
25-Oct-13,20.95,20.99,20.71,20.74,720347
24-Oct-13,20.91,21.06,20.89,20.90,404567
23-Oct-13,20.73,20.96,20.67,20.88,517502
22-Oct-13,20.44,20.77,20.44,20.77,645748
21-Oct-13,20.45,20.49,20.33,20.34,521032
18-Oct-13,19.97,20.42,19.82,20.42,798962
17-Oct-13,19.39,19.94,19.39,19.90,1529515
16-Oct-13,19.36,19.40,19.03,19.34,943119
15-Oct-13,19.62,19.67,19.27,19.32,681731
14-Oct-13,19.70,19.81,19.43,19.61,581363
11-Oct-13,19.78,19.97,19.76,19.91,420153
10-Oct-13,19.90,19.95,19.66,19.73,750908
9-Oct-13,20.03,20.23,19.73,19.75,658063
8-Oct-13,20.16,20.25,19.93,19.95,604617
7-Oct-13,20.23,20.41,20.13,20.13,616218
4-Oct-13,20.26,20.48,20.21,20.32,574282
3-Oct-13,20.48,20.59,20.22,20.30,1005552
2-Oct-13,20.24,20.67,20.24,20.55,1093060
1-Oct-13,19.72,20.27,19.56,20.27,876476
30-Sep-13,19.78,19.92,19.39,19.77,1235562
27-Sep-13,19.98,20.12,19.90,19.90,526713
26-Sep-13,20.40,20.45,19.97,20.06,767561
25-Sep-13,20.95,21.30,20.95,21.11,1387847
24-Sep-13,20.78,21.08,20.60,20.96,843786
23-Sep-13,20.55,20.92,20.55,20.78,641148
20-Sep-13,20.50,20.68,20.18,20.55,1268963
19-Sep-13,21.19,21.21,20.45,20.59,948306
18-Sep-13,20.41,21.05,20.10,20.97,1272873
17-Sep-13,20.54,20.85,20.37,20.41,429147
16-Sep-13,21.15,21.15,20.44,20.52,731207
13-Sep-13,20.17,20.76,20.12,20.69,840612
12-Sep-13,20.17,20.40,20.11,20.13,764690
11-Sep-13,20.09,20.20,19.98,20.18,615330
10-Sep-13,20.24,20.24,19.77,20.02,610675
9-Sep-13,20.12,20.30,20.05,20.23,576897
6-Sep-13,20.19,20.39,20.06,20.25,560838
5-Sep-13,20.14,20.24,19.77,19.80,656328
4-Sep-13,20.05,20.41,20.00,20.14,1042669
3-Sep-13,20.18,20.41,19.83,20.02,766681
30-Aug-13,20.18,20.41,20.03,20.04,678387
29-Aug-13,19.95,20.20,19.81,20.18,700050
28-Aug-13,20.18,20.22,19.86,19.94,619283
27-Aug-13,20.03,20.44,20.02,20.19,953497
26-Aug-13,20.04,20.44,20.01,20.14,866003
23-Aug-13,19.58,20.13,19.46,19.98,734376
22-Aug-13,19.06,19.53,18.79,19.50,710545
21-Aug-13,18.65,19.18,18.53,18.96,835256
20-Aug-13,17.99,18.75,17.99,18.70,1138504
19-Aug-13,19.39,19.40,17.94,17.96,1629309
16-Aug-13,19.66,19.72,19.31,19.31,762904
15-Aug-13,19.67,19.83,19.50,19.61,768147
14-Aug-13,20.03,20.12,19.84,19.92,660268
13-Aug-13,20.20,20.25,19.91,19.98,691004
12-Aug-13,20.11,20.41,20.07,20.20,795073
9-Aug-13,20.10,20.25,20.01,20.07,564327
8-Aug-13,19.78,20.24,19.61,20.08,1368012
7-Aug-13,19.76,19.81,19.39,19.69,836324
6-Aug-13,19.84,19.91,19.66,19.82,748824
5-Aug-13,19.97,19.97,19.68,19.92,934586
2-Aug-13,19.85,19.98,19.48,19.85,1049950
1-Aug-13,19.60,19.79,19.42,19.70,1907528
31-Jul-13,19.93,19.93,18.98,19.58,2478718
30-Jul-13,19.20,19.60,18.92,19.42,2795978
29-Jul-13,18.40,18.46,18.26,18.38,1123235
26-Jul-13,18.67,18.75,18.32,18.40,858367
25-Jul-13,18.45,18.57,18.31,18.52,767026
24-Jul-13,18.87,18.87,18.28,18.46,1248231
23-Jul-13,18.89,19.14,18.71,18.90,1600117
22-Jul-13,18.37,18.82,18.34,18.80,1078444
19-Jul-13,18.22,18.41,18.16,18.41,857579
18-Jul-13,18.26,18.26,18.04,18.21,1156049
17-Jul-13,17.79,18.21,17.79,18.20,1179235
16-Jul-13,17.99,17.99,17.69,17.78,608547
15-Jul-13,17.60,18.03,17.55,17.94,923013
12-Jul-13,17.92,17.92,17.48,17.57,962792
11-Jul-13,17.41,17.93,17.36,17.85,1316249
10-Jul-13,17.09,17.13,16.83,16.91,1344418
9-Jul-13,16.66,17.08,16.65,17.05,2053829
8-Jul-13,16.08,16.68,16.01,16.61,1990492
5-Jul-13,17.46,17.46,16.14,16.42,4069945
3-Jul-13,17.72,17.74,17.36,17.64,697823
2-Jul-13,18.19,18.24,17.60,17.77,1138783
1-Jul-13,18.08,18.22,17.82,18.17,1231306
28-Jun-13,17.72,18.06,17.51,17.98,1645487
27-Jun-13,17.61,17.75,17.52,17.71,1247360
26-Jun-13,17.74,17.84,17.38,17.46,3253776
25-Jun-13,18.12,18.50,18.09,18.20,2153468
24-Jun-13,18.53,18.57,17.66,17.97,2029385
21-Jun-13,19.14,19.25,18.25,18.59,2419433
20-Jun-13,19.79,19.87,18.88,18.98,2463766
19-Jun-13,20.87,20.92,19.80,20.01,2511975
18-Jun-13,20.17,20.33,19.76,20.31,878193
17-Jun-13,20.30,20.53,20.03,20.18,905375
14-Jun-13,20.57,20.90,20.11,20.17,1758695
13-Jun-13,19.72,20.54,19.51,20.34,1270955
12-Jun-13,20.35,20.35,19.70,19.79,1393687
11-Jun-13,20.05,20.34,19.78,20.25,1794448
10-Jun-13,20.88,20.95,20.26,20.35,1371072
7-Jun-13,21.36,21.37,20.78,20.91,1164374
6-Jun-13,20.96,21.20,20.86,21.17,1596099
5-Jun-13,20.99,21.13,20.88,20.95,1544772
4-Jun-13,20.56,21.09,20.55,20.95,1962629
3-Jun-13,21.02,21.25,20.30,20.69,1768817
31-May-13,21.56,21.77,20.99,21.07,1052715
30-May-13,21.26,21.92,21.25,21.61,1140874
29-May-13,21.05,21.58,20.09,21.45,3852847
28-May-13,22.29,22.40,20.92,21.30,3949027
24-May-13,22.39,22.45,22.01,22.15,1181176
23-May-13,22.51,22.59,21.76,22.39,1788747
22-May-13,22.91,23.58,22.72,22.83,1809433
21-May-13,23.44,23.48,22.81,22.90,1706002
20-May-13,23.91,23.91,23.41,23.48,820882
17-May-13,23.86,23.89,23.66,23.86,790885
16-May-13,23.56,23.88,23.50,23.75,897071
15-May-13,23.66,23.73,23.20,23.50,1325219
14-May-13,23.63,23.88,23.60,23.72,1112601
13-May-13,24.27,24.30,23.54,23.70,3443831
10-May-13,24.89,24.99,24.25,24.33,1087319
9-May-13,24.90,25.03,24.80,24.85,607700
8-May-13,24.79,24.97,24.71,24.97,632992
7-May-13,24.48,24.84,24.48,24.73,902547
6-May-13,24.71,24.86,24.42,24.48,2829416
3-May-13,25.12,25.80,25.04,25.19,3354901
2-May-13,26.26,26.30,25.99,26.10,1082457
1-May-13,26.58,26.62,26.03,26.16,941549
30-Apr-13,26.16,26.59,26.09,26.56,793558
29-Apr-13,25.97,26.30,25.91,26.30,1006349
26-Apr-13,26.01,26.03,25.72,25.86,567060
25-Apr-13,26.07,26.09,25.86,25.91,485377
24-Apr-13,26.06,26.06,25.77,26.00,426522
23-Apr-13,25.86,26.10,25.85,26.00,753964
22-Apr-13,25.51,25.87,25.36,25.74,540770
19-Apr-13,25.17,25.49,25.07,25.47,600571
18-Apr-13,25.29,25.39,25.05,25.24,673766
17-Apr-13,25.53,25.54,25.00,25.19,1147731
16-Apr-13,25.27,25.66,25.27,25.59,696788
15-Apr-13,25.75,25.77,25.13,25.21,966364
12-Apr-13,25.74,25.86,25.51,25.70,424932
11-Apr-13,25.78,25.94,25.73,25.85,601426
10-Apr-13,26.04,26.04,25.82,25.87,754278
9-Apr-13,26.13,26.13,25.85,25.96,458224
8-Apr-13,26.17,26.18,25.85,26.06,515685
5-Apr-13,25.74,26.15,25.62,26.15,634540
4-Apr-13,25.73,26.00,25.52,26.00,643121
3-Apr-13,26.09,26.16,25.71,25.79,1442259
2-Apr-13,26.10,26.13,25.95,26.12,1299152
1-Apr-13,25.94,26.07,25.82,26.00,981544
28-Mar-13,25.58,25.94,25.51,25.84,1207191
27-Mar-13,25.33,25.56,25.20,25.55,802900
26-Mar-13,25.29,25.42,25.20,25.34,1140904
25-Mar-13,25.25,25.48,25.21,25.25,1061731
22-Mar-13,24.89,25.22,24.89,25.12,995132
21-Mar-13,24.89,25.08,24.81,24.87,823705
20-Mar-13,24.96,25.23,24.71,24.88,2205668
19-Mar-13,25.47,25.50,24.82,24.90,2570121
18-Mar-13,25.40,25.60,25.17,25.48,1934715
15-Mar-13,26.32,26.32,26.19,26.31,2679350
14-Mar-13,26.35,26.39,26.13,26.22,1786337
13-Mar-13,26.35,26.35,26.11,26.28,1264734
12-Mar-13,26.10,26.36,26.04,26.26,1490325
11-Mar-13,26.10,26.30,26.01,26.06,1538835
8-Mar-13,26.45,26.50,25.98,26.10,1574337
7-Mar-13,26.27,26.43,26.01,26.22,813098
6-Mar-13,26.58,26.59,26.25,26.30,808127
5-Mar-13,26.48,26.60,26.41,26.46,1331815
4-Mar-13,26.11,26.46,26.08,26.40,1995903
1-Mar-13,25.65,26.14,25.42,26.08,1798115
28-Feb-13,25.71,25.87,25.58,25.70,5708995
27-Feb-13,25.71,25.86,25.62,25.75,1229911
26-Feb-13,25.54,25.72,25.41,25.71,1580089
25-Feb-13,25.65,25.71,25.35,25.37,1497337
22-Feb-13,25.49,25.66,25.28,25.49,3059004
21-Feb-13,25.90,25.92,25.20,25.30,2815275
20-Feb-13,26.11,26.14,25.89,25.90,1447676
19-Feb-13,26.10,26.20,25.91,26.05,2650844
15-Feb-13,26.00,26.06,25.71,26.02,1101972
14-Feb-13,26.05,26.09,25.91,25.97,813128
13-Feb-13,25.75,26.07,25.70,26.07,2934952
12-Feb-13,25.65,25.77,25.63,25.70,17088531
11-Feb-13,26.35,26.71,26.16,26.57,1699447
8-Feb-13,25.43,25.59,25.29,25.45,819074
7-Feb-13,25.98,25.98,25.18,25.23,1228676
6-Feb-13,26.20,26.24,25.81,25.94,729699
5-Feb-13,26.30,26.36,26.16,26.20,391691
4-Feb-13,26.43,26.49,26.12,26.16,293351
1-Feb-13,26.22,26.50,26.08,26.45,454769
31-Jan-13,26.14,26.14,25.98,26.08,311489
30-Jan-13,25.79,26.20,25.79,26.14,532218
29-Jan-13,25.65,25.88,25.61,25.85,298934
28-Jan-13,25.39,25.64,25.12,25.60,391834
25-Jan-13,25.54,25.59,25.14,25.21,542182
24-Jan-13,25.85,25.90,25.50,25.59,305304
23-Jan-13,25.60,25.78,25.47,25.75,513052
22-Jan-13,25.75,25.78,25.67,25.71,466276
18-Jan-13,25.69,25.81,25.68,25.75,563814
17-Jan-13,25.77,25.84,25.66,25.67,387308
16-Jan-13,25.77,25.82,25.61,25.75,427863
15-Jan-13,25.26,25.85,25.26,25.82,671243
14-Jan-13,25.24,25.36,25.10,25.34,810076
11-Jan-13,25.23,25.25,25.11,25.13,260389
10-Jan-13,25.15,25.20,25.05,25.13,285039
9-Jan-13,25.15,25.15,25.00,25.11,186393
8-Jan-13,25.05,25.23,24.93,24.98,313957
7-Jan-13,24.84,25.12,24.82,25.05,381737
4-Jan-13,24.98,25.14,24.85,25.09,698076
3-Jan-13,24.65,24.94,24.59,24.89,578881
2-Jan-13,23.96,24.70,23.81,24.61,805286
31-Dec-12,23.51,23.65,23.08,23.57,767103
28-Dec-12,23.70,23.98,23.52,23.52,550411
27-Dec-12,23.75,24.02,23.65,23.83,1179657
26-Dec-12,24.20,24.26,23.67,23.80,544342
24-Dec-12,24.57,24.58,24.13,24.19,461049
21-Dec-12,25.00,25.25,24.79,25.21,1202174
20-Dec-12,25.50,25.50,25.18,25.30,584285
19-Dec-12,25.50,25.58,25.40,25.46,619773
18-Dec-12,25.53,25.58,25.40,25.45,589496
17-Dec-12,25.22,25.54,25.21,25.53,569529
14-Dec-12,24.86,25.01,24.55,25.01,494545
13-Dec-12,24.98,25.01,24.65,24.94,521890
12-Dec-12,25.52,25.68,24.80,24.93,543891
11-Dec-12,25.66,25.70,25.30,25.38,597077
10-Dec-12,25.41,25.61,25.36,25.56,355835
7-Dec-12,25.50,25.54,25.16,25.36,343353
6-Dec-12,25.10,25.51,25.06,25.49,315046
5-Dec-12,25.63,25.65,25.00,25.09,455536
4-Dec-12,25.64,25.66,25.51,25.60,318447
3-Dec-12,25.57,25.67,25.43,25.57,488325
30-Nov-12,25.30,25.62,25.30,25.54,497859
29-Nov-12,25.42,25.54,25.00,25.53,483659
28-Nov-12,25.03,25.39,24.90,25.39,471915
27-Nov-12,25.25,25.25,25.00,25.04,564848
26-Nov-12,25.14,25.28,24.75,25.16,624863
23-Nov-12,24.88,25.00,24.75,25.00,275095
21-Nov-12,24.79,24.88,24.52,24.84,534146
20-Nov-12,24.76,24.79,24.35,24.73,613620
19-Nov-12,24.84,24.94,24.32,24.72,666164
16-Nov-12,23.81,24.40,23.57,24.22,880650
15-Nov-12,22.04,23.41,21.36,23.20,1185866
14-Nov-12,23.28,23.40,22.25,22.44,1964137
13-Nov-12,23.92,23.97,22.72,23.15,2393498
12-Nov-12,24.55,24.65,24.12,24.15,613666
9-Nov-12,24.55,24.79,24.26,24.52,532375
8-Nov-12,24.39,24.91,24.39,24.76,845090
7-Nov-12,24.78,24.83,23.74,24.16,1335140
6-Nov-12,25.59,25.64,25.11,25.17,428268
5-Nov-12,25.44,25.67,25.08,25.59,538196
2-Nov-12,25.54,25.80,25.38,25.40,510282
1-Nov-12,25.42,25.84,25.40,25.52,1106511
31-Oct-12,24.54,25.00,24.45,24.93,590999
26-Oct-12,24.62,24.69,24.23,24.41,357418
25-Oct-12,24.72,24.84,24.33,24.59,319716
24-Oct-12,24.44,24.75,24.29,24.68,437164
23-Oct-12,24.59,24.87,24.28,24.46,369174
22-Oct-12,24.80,24.87,24.41,24.77,441625
19-Oct-12,25.03,25.10,24.59,24.82,379957
18-Oct-12,24.73,25.12,24.73,25.06,346687
17-Oct-12,24.49,24.90,24.46,24.73,694819
16-Oct-12,24.00,24.44,23.73,24.43,751092
15-Oct-12,24.30,24.37,22.41,24.06,3582840
12-Oct-12,25.00,25.22,24.32,24.46,964917
11-Oct-12,24.75,25.34,24.75,25.03,808897
10-Oct-12,25.49,25.53,24.22,24.77,2763719
9-Oct-12,25.79,25.90,25.52,25.55,745985
8-Oct-12,25.85,26.03,25.56,25.85,545554
5-Oct-12,25.85,26.14,25.69,25.90,564802
4-Oct-12,25.52,25.85,25.35,25.78,696917
3-Oct-12,25.65,25.79,25.42,25.46,485892
2-Oct-12,25.55,25.79,25.49,25.75,508913
1-Oct-12,25.13,25.59,25.01,25.45,783612
28-Sep-12,24.80,25.28,24.73,25.13,766270
27-Sep-12,24.82,24.89,24.40,24.85,1124995
26-Sep-12,25.17,25.27,24.73,24.80,794707
25-Sep-12,25.41,25.60,25.09,25.17,639278
24-Sep-12,25.50,25.69,25.39,25.40,502714
21-Sep-12,25.42,25.65,25.30,25.52,1232822
20-Sep-12,25.15,25.50,25.15,25.24,598698
19-Sep-12,25.60,25.78,25.22,25.24,1985701
18-Sep-12,26.60,26.60,26.23,26.32,1928985
17-Sep-12,26.48,26.62,26.27,26.56,1257074
14-Sep-12,25.96,26.27,25.86,26.23,1565649
13-Sep-12,25.90,25.96,25.60,25.83,1024179
12-Sep-12,25.75,25.92,25.63,25.80,796085
11-Sep-12,25.28,25.48,25.25,25.47,545571
10-Sep-12,25.36,25.76,25.05,25.08,1016908
7-Sep-12,25.12,25.50,25.09,25.24,695134
6-Sep-12,25.00,25.14,24.86,25.06,727075
5-Sep-12,24.84,24.90,24.77,24.84,503005
4-Sep-12,24.73,24.84,24.61,24.82,561788
31-Aug-12,24.70,24.75,24.58,24.73,279897
30-Aug-12,24.76,24.82,24.58,24.64,308810
29-Aug-12,24.75,24.91,24.67,24.87,452466
28-Aug-12,24.54,24.73,24.40,24.69,353153
27-Aug-12,24.20,24.50,24.17,24.50,453795
24-Aug-12,24.10,24.31,24.10,24.23,394303
23-Aug-12,24.18,24.18,24.02,24.13,311618
22-Aug-12,24.31,24.31,23.89,24.13,441650
21-Aug-12,24.39,24.49,24.23,24.31,362441
20-Aug-12,24.22,24.33,24.08,24.33,300560
17-Aug-12,23.91,24.15,23.90,24.15,255720
16-Aug-12,24.40,24.41,23.94,23.96,491892
15-Aug-12,24.31,24.40,24.27,24.35,238178
14-Aug-12,24.29,24.34,24.20,24.31,368795
13-Aug-12,24.23,24.34,24.12,24.23,493267
10-Aug-12,24.32,24.35,24.08,24.13,290458
9-Aug-12,24.07,24.27,24.05,24.22,432484
8-Aug-12,23.80,24.09,23.65,24.01,808796
7-Aug-12,23.72,23.93,23.30,23.76,1610162
6-Aug-12,24.60,24.60,23.51,23.67,1993171
3-Aug-12,24.85,24.85,24.50,24.59,493293
2-Aug-12,24.63,24.80,24.60,24.64,368146
1-Aug-12,24.63,24.88,24.59,24.59,655057
31-Jul-12,24.65,24.76,24.51,24.55,707381
30-Jul-12,24.74,24.85,24.71,24.81,538980
27-Jul-12,24.52,24.70,24.45,24.64,449692
26-Jul-12,24.52,24.58,24.40,24.42,205066
25-Jul-12,24.44,24.64,24.31,24.45,309442
24-Jul-12,24.60,24.65,24.32,24.44,424142
23-Jul-12,24.47,24.61,24.37,24.52,362842
20-Jul-12,24.44,24.60,24.34,24.58,383908
19-Jul-12,24.20,24.59,24.16,24.44,648426
18-Jul-12,24.66,24.66,24.13,24.18,940616
17-Jul-12,24.69,24.80,24.65,24.73,510709
16-Jul-12,24.49,24.67,24.38,24.57,449327
13-Jul-12,24.34,24.47,24.17,24.37,536415
12-Jul-12,24.36,24.50,24.12,24.28,549328
11-Jul-12,24.68,24.69,23.92,24.38,1156265
10-Jul-12,24.85,24.89,24.57,24.62,743576
9-Jul-12,24.90,25.00,24.77,24.80,864107
6-Jul-12,24.61,25.01,24.50,24.83,857227
5-Jul-12,24.35,24.83,24.30,24.69,690465
3-Jul-12,24.08,24.41,24.00,24.35,461745
2-Jul-12,23.90,24.15,23.86,24.00,731875
29-Jun-12,23.75,23.91,23.75,23.84,949018
28-Jun-12,23.44,23.63,23.44,23.62,462170
27-Jun-12,23.44,23.60,23.35,23.55,467464
26-Jun-12,23.30,23.44,23.21,23.32,643656
25-Jun-12,23.30,23.44,23.15,23.31,580914
22-Jun-12,23.12,23.40,23.11,23.34,3783760
21-Jun-12,23.29,23.32,23.00,23.13,705984
20-Jun-12,23.33,23.48,23.13,23.19,872949
19-Jun-12,22.86,23.31,22.86,23.24,2263163
18-Jun-12,23.84,23.84,23.63,23.67,1584279
15-Jun-12,23.76,23.82,23.67,23.81,1486213
14-Jun-12,23.81,23.87,23.71,23.79,1256355
13-Jun-12,23.94,23.94,23.74,23.86,1382375
12-Jun-12,23.87,23.93,23.76,23.88,937574
11-Jun-12,23.90,23.90,23.67,23.67,632990
8-Jun-12,23.78,23.90,23.65,23.69,640070
7-Jun-12,24.13,24.13,23.80,23.83,670689
6-Jun-12,23.89,24.04,23.81,23.94,1199768
5-Jun-12,23.63,23.77,23.58,23.70,910483
4-Jun-12,23.66,23.70,23.50,23.59,1022306
1-Jun-12,23.57,23.84,23.40,23.42,1011244
31-May-12,23.60,23.83,23.55,23.79,2409214
30-May-12,23.70,23.70,23.55,23.58,578076
29-May-12,23.79,23.86,23.62,23.73,1050233
25-May-12,23.28,23.69,23.27,23.63,1237004
24-May-12,23.09,23.39,23.08,23.20,9106778
23-May-12,23.79,23.89,23.64,23.82,669638
22-May-12,23.85,24.00,23.69,23.79,629797
21-May-12,23.59,23.90,23.45,23.76,667375
18-May-12,23.30,23.66,23.27,23.57,918489
17-May-12,23.74,23.82,23.12,23.27,912628
16-May-12,23.65,23.81,23.52,23.68,564187
15-May-12,23.42,23.75,23.41,23.45,903281
14-May-12,23.65,23.65,23.20,23.28,843806
11-May-12,23.74,23.95,23.66,23.95,491780
10-May-12,23.59,23.81,23.53,23.74,591564
9-May-12,23.43,23.72,23.35,23.52,550958
8-May-12,23.50,23.54,23.26,23.42,588177
7-May-12,23.87,23.87,23.21,23.50,640119
4-May-12,23.14,23.36,23.07,23.31,418966
3-May-12,22.81,23.23,22.81,23.14,739204
2-May-12,22.76,22.85,22.71,22.81,203592
1-May-12,22.78,22.99,22.76,22.78,331423
30-Apr-12,22.89,22.89,22.70,22.73,259061
27-Apr-12,22.69,23.04,22.66,22.80,461883
26-Apr-12,22.29,22.68,22.25,22.61,465244
25-Apr-12,22.09,22.27,22.00,22.22,417113
24-Apr-12,21.99,22.05,21.95,22.01,228753
23-Apr-12,21.83,22.03,21.80,21.93,248173
20-Apr-12,21.98,21.98,21.87,21.94,210612
19-Apr-12,21.88,21.93,21.76,21.88,404836
18-Apr-12,21.88,21.93,21.76,21.80,268541
17-Apr-12,21.91,21.98,21.85,21.88,272734
16-Apr-12,21.98,21.99,21.88,21.91,214417
13-Apr-12,21.92,21.99,21.84,21.94,332206
12-Apr-12,21.80,21.92,21.79,21.90,319513
11-Apr-12,21.79,21.87,21.55,21.83,383573
10-Apr-12,21.75,21.84,21.60,21.67,329539
9-Apr-12,21.61,21.84,21.56,21.80,439317
5-Apr-12,21.76,21.81,21.68,21.75,230461
4-Apr-12,21.68,21.85,21.68,21.76,372979
3-Apr-12,21.80,21.87,21.74,21.75,327546
2-Apr-12,21.75,21.82,21.68,21.79,575529
30-Mar-12,21.76,21.78,21.61,21.77,1470200
29-Mar-12,21.68,21.75,21.50,21.71,358282
28-Mar-12,21.85,21.86,21.61,21.76,475311
27-Mar-12,21.82,21.84,21.71,21.80,490072
26-Mar-12,21.72,21.79,21.67,21.76,326629
23-Mar-12,21.47,21.68,21.46,21.65,190189
22-Mar-12,21.45,21.70,21.45,21.55,503881
21-Mar-12,21.57,21.62,21.35,21.52,532562
20-Mar-12,21.62,21.70,21.56,21.58,325627
19-Mar-12,21.62,21.75,21.60,21.66,330213
16-Mar-12,21.78,21.80,21.55,21.58,655323
15-Mar-12,21.78,21.79,21.65,21.65,1010283
14-Mar-12,21.94,21.97,21.50,21.50,11257356
13-Mar-12,23.00,23.00,22.33,22.47,1215878
12-Mar-12,23.54,23.61,23.15,23.52,810043
9-Mar-12,24.04,24.06,23.22,23.55,742169
8-Mar-12,23.75,24.23,23.50,24.09,894985
7-Mar-12,23.70,23.75,22.95,23.54,778984
6-Mar-12,23.00,23.17,22.60,22.74,776732
5-Mar-12,21.60,22.15,21.57,22.04,445248
2-Mar-12,21.69,21.69,21.57,21.63,221478
1-Mar-12,21.54,21.66,21.54,21.60,161277
29-Feb-12,21.65,21.71,21.50,21.56,240673
28-Feb-12,21.46,21.70,21.46,21.65,147558
27-Feb-12,21.38,21.68,21.25,21.49,234619
24-Feb-12,21.60,21.73,21.38,21.38,686263
23-Feb-12,21.62,21.89,21.61,21.79,218769
22-Feb-12,21.73,21.80,21.69,21.74,195016
21-Feb-12,21.91,21.94,21.71,21.71,236635
17-Feb-12,21.98,21.98,21.66,21.75,275995
16-Feb-12,21.70,21.80,21.60,21.75,332751
15-Feb-12,21.66,22.04,21.57,21.71,468185
14-Feb-12,21.87,21.94,21.44,21.50,836390
13-Feb-12,20.94,21.80,20.90,21.56,811874
10-Feb-12,20.48,20.80,20.34,20.69,386544
9-Feb-12,20.50,20.90,20.32,20.40,823327
8-Feb-12,19.79,19.80,19.58,19.74,105161
7-Feb-12,19.56,19.89,19.50,19.65,194172
6-Feb-12,19.78,19.84,19.52,19.67,101058
3-Feb-12,19.80,19.84,19.60,19.70,126810
2-Feb-12,19.68,19.75,19.53,19.60,102538
1-Feb-12,19.67,19.84,19.56,19.74,144023
31-Jan-12,19.60,19.67,19.50,19.58,119851
30-Jan-12,19.58,19.58,19.40,19.48,97320
27-Jan-12,19.26,19.54,19.15,19.50,95500
26-Jan-12,19.13,19.57,19.06,19.25,314208
25-Jan-12,18.90,19.50,18.88,19.06,401493
24-Jan-12,18.90,18.90,18.82,18.85,454548
23-Jan-12,18.90,18.97,18.87,18.90,205854
20-Jan-12,18.96,18.96,18.84,18.89,162671
19-Jan-12,19.00,19.00,18.83,18.94,149135
18-Jan-12,18.89,19.24,18.83,19.00,141320
17-Jan-12,18.86,19.00,18.56,18.82,186565
13-Jan-12,18.80,18.89,18.80,18.85,140954
12-Jan-12,18.97,19.00,18.80,18.85,175614
11-Jan-12,18.88,18.99,18.84,18.92,87962
10-Jan-12,19.00,19.00,18.80,18.85,98921
9-Jan-12,18.82,19.00,18.76,18.88,76544
6-Jan-12,18.85,18.90,18.69,18.73,44376
5-Jan-12,18.90,18.98,18.76,18.80,71787
4-Jan-12,18.87,19.00,18.87,18.99,90006
3-Jan-12,18.99,19.00,18.86,18.94,152177
30-Dec-11,18.63,18.87,18.61,18.82,53438
29-Dec-11,18.54,18.77,18.54,18.68,47277
28-Dec-11,18.93,18.93,18.55,18.57,56365
27-Dec-11,18.50,19.00,18.49,18.66,71257
23-Dec-11,18.52,18.60,18.41,18.54,31341
22-Dec-11,18.73,18.80,18.45,18.48,111096
21-Dec-11,18.51,18.86,18.42,18.63,82956
20-Dec-11,18.11,18.76,18.11,18.51,180224
19-Dec-11,19.00,19.00,18.75,18.90,212943
16-Dec-11,18.70,19.00,18.51,18.99,354055
15-Dec-11,18.68,18.73,18.23,18.52,145583
14-Dec-11,18.25,18.63,18.25,18.49,150487
13-Dec-11,18.21,18.51,18.21,18.27,144076
12-Dec-11,17.62,17.91,17.62,17.83,50567
9-Dec-11,17.67,17.96,17.60,17.79,77979
8-Dec-11,17.70,17.75,17.56,17.63,61308
7-Dec-11,17.60,17.88,17.49,17.79,77763
6-Dec-11,17.57,17.75,17.53,17.58,97517
5-Dec-11,17.82,17.82,17.46,17.58,87639
2-Dec-11,17.70,17.89,17.51,17.58,40221
1-Dec-11,17.69,17.76,17.50,17.55,67340
30-Nov-11,17.84,17.85,17.50,17.81,80208
29-Nov-11,17.57,17.61,17.40,17.50,46576
28-Nov-11,17.71,17.84,17.48,17.63,47324
25-Nov-11,17.38,17.63,17.36,17.36,11661
23-Nov-11,17.33,17.55,17.33,17.42,34965
22-Nov-11,17.50,17.60,17.30,17.40,40885
21-Nov-11,17.49,17.52,17.26,17.35,45965
18-Nov-11,17.51,17.62,17.45,17.51,46519
17-Nov-11,17.60,17.61,17.50,17.55,34768
16-Nov-11,17.37,17.79,17.37,17.62,60451
15-Nov-11,17.45,17.58,17.35,17.51,37168
14-Nov-11,17.53,17.58,17.27,17.44,61122
11-Nov-11,17.50,17.73,17.39,17.70,79170
10-Nov-11,17.58,17.76,17.20,17.50,84275
9-Nov-11,17.46,17.62,17.20,17.46,82363
8-Nov-11,17.99,17.99,17.56,17.70,152680
7-Nov-11,17.75,18.01,17.53,17.93,46833
4-Nov-11,17.55,17.99,17.46,17.91,36819
3-Nov-11,17.70,17.98,17.44,17.67,124414
2-Nov-11,18.13,18.13,17.90,17.96,29297
1-Nov-11,17.57,18.15,17.57,17.82,90629
31-Oct-11,18.11,18.25,17.55,18.18,124710
28-Oct-11,17.85,18.20,17.69,18.10,54772
27-Oct-11,18.44,18.44,17.43,18.03,141794
26-Oct-11,17.45,18.05,17.44,17.94,107545
25-Oct-11,16.50,17.50,16.50,17.08,136334
24-Oct-11,16.32,16.63,16.16,16.51,41274
21-Oct-11,16.33,16.44,16.04,16.42,43578
20-Oct-11,16.18,16.28,16.00,16.06,21262
19-Oct-11,16.80,16.85,16.10,16.17,39723
18-Oct-11,16.40,16.90,16.00,16.89,54678
17-Oct-11,16.12,16.93,16.10,16.70,49496
14-Oct-11,15.81,16.25,15.55,16.24,25099
13-Oct-11,15.64,15.93,15.52,15.70,43696
12-Oct-11,16.33,16.33,15.51,15.83,102450
11-Oct-11,16.38,16.40,15.94,16.09,40091
10-Oct-11,16.17,16.49,15.98,16.46,57951
7-Oct-11,16.06,16.43,15.59,15.95,106351
6-Oct-11,16.31,16.96,16.20,16.94,48728
5-Oct-11,16.56,16.58,16.20,16.32,36474
4-Oct-11,15.97,16.68,15.07,16.60,167328
3-Oct-11,16.52,17.08,16.13,16.24,65054
30-Sep-11,16.65,16.88,16.50,16.70,760130
29-Sep-11,16.70,16.90,16.52,16.80,43114
28-Sep-11,16.94,16.94,16.48,16.60,50973
27-Sep-11,17.00,17.06,16.76,17.00,59406
26-Sep-11,17.13,17.15,16.75,16.96,36000
23-Sep-11,17.60,17.60,16.49,16.96,76664
22-Sep-11,16.65,17.04,16.43,17.00,101517
21-Sep-11,17.45,18.00,16.96,16.96,43956
20-Sep-11,17.95,18.17,17.65,17.70,40168
19-Sep-11,18.39,18.43,18.00,18.20,28857
16-Sep-11,17.70,18.47,17.70,18.47,50030
15-Sep-11,18.02,18.06,17.75,18.00,25600
14-Sep-11,17.80,17.81,17.51,17.80,45576
13-Sep-11,17.12,17.74,17.12,17.64,34095
12-Sep-11,16.91,17.09,16.91,17.09,24013
9-Sep-11,17.06,17.13,17.00,17.09,13750
8-Sep-11,16.90,17.27,16.40,17.03,40987
7-Sep-11,17.20,17.49,16.81,17.12,138270
6-Sep-11,17.23,17.79,17.23,17.37,28003
2-Sep-11,17.85,17.97,17.06,17.51,161956
1-Sep-11,18.14,18.24,18.05,18.05,11573
31-Aug-11,18.07,18.42,18.00,18.20,15536
30-Aug-11,18.22,18.70,17.75,18.03,48288
29-Aug-11,18.85,18.85,18.20,18.37,19237
26-Aug-11,17.67,18.72,17.67,18.64,88000
25-Aug-11,18.17,18.17,17.98,18.01,41198
24-Aug-11,18.10,18.75,18.05,18.19,22090
23-Aug-11,18.50,18.50,17.55,18.28,282960
22-Aug-11,19.10,19.10,18.30,18.40,48375
19-Aug-11,19.00,19.17,18.79,18.86,89677
18-Aug-11,19.10,19.49,19.00,19.00,102829
17-Aug-11,19.50,19.57,19.41,19.41,104899
16-Aug-11,19.65,19.65,19.25,19.59,45733
15-Aug-11,19.68,19.76,19.25,19.65,132839
12-Aug-11,19.70,19.70,19.25,19.53,148793
11-Aug-11,19.05,19.69,18.81,19.69,163055
10-Aug-11,18.53,20.00,18.52,19.25,203875
9-Aug-11,18.01,19.50,18.00,19.40,276271
8-Aug-11,18.00,18.74,18.00,18.05,562283
5-Aug-11,18.50,18.75,18.50,18.63,254098
4-Aug-11,19.00,19.28,18.41,18.41,3881477
