﻿Date,Open,High,Low,Close,Volume
20-Jun-17,13.61,13.70,13.28,13.28,189437
19-Jun-17,13.62,13.81,13.47,13.70,339210
16-Jun-17,13.29,13.53,13.19,13.52,463523
15-Jun-17,13.30,13.44,13.23,13.38,279167
14-Jun-17,13.37,13.39,13.19,13.39,193597
13-Jun-17,13.30,13.52,13.23,13.39,290300
12-Jun-17,13.13,13.63,13.12,13.31,411826
9-Jun-17,12.83,13.15,12.74,13.12,311192
8-Jun-17,12.72,12.92,12.60,12.83,369861
7-Jun-17,12.67,12.81,12.61,12.75,214253
6-Jun-17,12.53,12.76,12.46,12.66,342143
5-Jun-17,12.65,12.80,12.57,12.62,317836
2-Jun-17,13.11,13.18,12.65,12.68,499753
1-Jun-17,12.94,13.16,12.82,13.15,387756
31-May-17,13.05,13.06,12.75,12.93,358659
30-May-17,12.85,13.13,12.85,13.01,383519
26-May-17,12.66,12.84,12.66,12.83,312780
25-May-17,12.89,12.89,12.60,12.70,381145
24-May-17,12.71,12.92,12.64,12.83,508800
23-May-17,12.68,12.88,12.55,12.73,517095
22-May-17,12.43,12.73,12.41,12.65,584515
19-May-17,12.41,12.49,12.33,12.41,372069
18-May-17,12.16,12.70,12.16,12.41,889923
17-May-17,12.10,12.19,11.87,11.87,521476
16-May-17,12.66,12.70,12.30,12.30,477370
15-May-17,12.60,12.83,12.58,12.61,301755
12-May-17,12.80,12.80,12.54,12.60,524333
11-May-17,12.99,13.02,12.75,12.82,707455
10-May-17,13.35,13.35,12.98,12.99,443445
9-May-17,13.35,13.45,13.26,13.35,380948
8-May-17,13.26,13.37,13.15,13.30,397275
5-May-17,13.62,13.65,13.37,13.62,540231
4-May-17,14.09,14.13,13.55,13.55,593183
3-May-17,13.66,14.14,13.65,14.13,790543
2-May-17,13.51,13.57,13.37,13.50,629431
1-May-17,13.20,13.30,13.05,13.16,627750
28-Apr-17,13.45,13.49,13.00,13.16,827486
27-Apr-17,14.45,14.69,13.34,13.41,1605230
26-Apr-17,14.38,14.74,14.34,14.65,554286
25-Apr-17,14.30,14.52,14.28,14.40,397021
24-Apr-17,14.49,14.49,14.17,14.25,279603
21-Apr-17,14.38,14.42,14.18,14.27,222813
20-Apr-17,14.08,14.52,14.00,14.41,368571
19-Apr-17,13.91,14.01,13.88,13.97,298534
18-Apr-17,13.75,13.89,13.70,13.87,186289
17-Apr-17,13.66,13.87,13.66,13.85,225502
13-Apr-17,13.80,13.83,13.65,13.66,218902
12-Apr-17,13.98,14.00,13.78,13.82,246214
11-Apr-17,13.75,14.08,13.74,14.05,428801
10-Apr-17,13.70,13.83,13.65,13.76,264946
7-Apr-17,13.64,13.74,13.59,13.66,441146
6-Apr-17,13.59,13.70,13.46,13.66,447339
5-Apr-17,13.83,13.94,13.61,13.62,349302
4-Apr-17,13.85,13.92,13.77,13.81,350286
3-Apr-17,14.25,14.26,13.81,13.84,743120
31-Mar-17,14.19,14.30,14.16,14.21,496911
30-Mar-17,14.05,14.30,14.05,14.28,533156
29-Mar-17,14.11,14.26,14.09,14.09,337753
28-Mar-17,14.09,14.26,14.09,14.20,268548
27-Mar-17,14.20,14.24,14.12,14.18,255233
24-Mar-17,14.30,14.49,14.26,14.32,242959
23-Mar-17,14.22,14.35,14.10,14.29,282281
22-Mar-17,14.35,14.40,14.12,14.17,426313
21-Mar-17,14.70,14.70,14.33,14.37,532046
20-Mar-17,14.82,14.83,14.61,14.68,333893
17-Mar-17,14.75,14.88,14.73,14.84,698985
16-Mar-17,15.00,15.03,14.68,14.75,385925
15-Mar-17,14.80,15.02,14.80,14.95,352740
14-Mar-17,14.69,14.76,14.62,14.74,296810
13-Mar-17,14.70,14.89,14.69,14.71,335733
10-Mar-17,14.70,14.75,14.60,14.71,325431
9-Mar-17,14.64,14.67,14.56,14.63,389034
8-Mar-17,14.68,14.72,14.60,14.64,371105
7-Mar-17,14.80,14.86,14.64,14.65,483757
6-Mar-17,14.76,14.90,14.71,14.78,539128
3-Mar-17,15.21,15.31,15.09,15.19,439238
2-Mar-17,15.45,15.53,15.19,15.20,708637
1-Mar-17,15.53,15.72,15.40,15.47,690510
28-Feb-17,15.45,15.53,15.32,15.43,694943
27-Feb-17,15.29,15.64,15.29,15.53,509708
24-Feb-17,15.10,15.33,15.03,15.31,519778
23-Feb-17,15.24,15.35,14.97,15.10,810597
22-Feb-17,15.00,15.31,14.92,15.22,846070
21-Feb-17,15.80,15.80,14.61,15.01,1259357
17-Feb-17,15.90,15.90,15.67,15.89,328427
16-Feb-17,15.92,15.92,15.80,15.91,287240
15-Feb-17,15.71,15.97,15.66,15.89,268785
14-Feb-17,15.69,15.91,15.67,15.74,230029
13-Feb-17,15.78,15.90,15.66,15.74,231464
10-Feb-17,15.70,15.79,15.62,15.79,164546
9-Feb-17,15.38,15.68,15.36,15.59,262721
8-Feb-17,15.50,15.53,15.28,15.46,284865
7-Feb-17,15.89,15.89,15.50,15.55,159017
6-Feb-17,15.91,15.91,15.70,15.82,225869
3-Feb-17,15.94,16.05,15.85,15.93,304281
2-Feb-17,16.03,16.11,15.84,15.86,428764
1-Feb-17,15.25,16.14,15.25,16.13,729637
31-Jan-17,15.17,15.27,15.06,15.24,363195
30-Jan-17,15.17,15.22,14.90,15.19,321542
27-Jan-17,15.30,15.38,15.14,15.25,402294
26-Jan-17,15.30,15.35,15.21,15.29,184950
25-Jan-17,15.30,15.46,15.15,15.29,429421
24-Jan-17,15.24,15.41,15.17,15.23,300487
23-Jan-17,15.25,15.41,15.21,15.26,220605
20-Jan-17,15.26,15.39,15.20,15.35,327346
19-Jan-17,15.60,15.60,15.22,15.27,277459
18-Jan-17,15.89,15.89,15.49,15.58,294911
17-Jan-17,15.92,15.96,15.78,15.81,187473
13-Jan-17,15.91,16.16,15.88,16.01,264339
12-Jan-17,15.86,16.00,15.70,15.89,532374
11-Jan-17,15.78,15.98,15.74,15.89,623268
10-Jan-17,15.90,15.90,15.72,15.74,354567
9-Jan-17,15.95,16.01,15.81,15.82,432512
6-Jan-17,16.13,16.13,15.89,15.92,451260
5-Jan-17,16.19,16.34,15.99,16.13,243587
4-Jan-17,16.10,16.32,16.04,16.28,321627
3-Jan-17,16.05,16.20,15.83,16.04,325220
30-Dec-16,16.02,16.03,15.78,15.99,415911
29-Dec-16,15.92,16.05,15.88,16.00,259726
28-Dec-16,16.04,16.12,15.80,15.83,314566
27-Dec-16,16.00,16.16,15.97,16.06,336439
23-Dec-16,16.00,16.10,15.88,15.96,494696
22-Dec-16,16.11,16.18,15.81,15.96,343788
21-Dec-16,16.19,16.26,15.94,16.08,512236
20-Dec-16,16.12,16.30,16.08,16.27,722707
19-Dec-16,15.98,16.15,15.89,16.10,481813
16-Dec-16,15.86,16.08,15.84,16.00,2656281
15-Dec-16,15.76,16.20,15.75,15.80,857778
14-Dec-16,16.04,16.19,15.79,15.82,632288
13-Dec-16,16.06,16.25,15.91,16.05,732423
12-Dec-16,16.11,16.25,15.95,16.03,730562
9-Dec-16,16.10,16.18,16.02,16.15,907644
8-Dec-16,15.99,16.08,15.93,16.05,555701
7-Dec-16,15.87,16.02,15.87,15.99,784610
6-Dec-16,15.74,15.97,15.61,15.89,817410
5-Dec-16,15.99,16.01,15.83,15.85,9858672
2-Dec-16,15.99,16.10,15.91,15.99,2659032
1-Dec-16,15.35,15.55,15.03,15.31,680614
30-Nov-16,15.34,15.45,15.12,15.36,521159
29-Nov-16,15.63,15.67,15.10,15.21,659652
28-Nov-16,15.86,15.97,15.65,15.65,689880
25-Nov-16,15.91,16.00,15.71,15.72,954458
23-Nov-16,15.70,15.80,15.49,15.71,810948
22-Nov-16,15.60,15.81,15.52,15.66,918695
21-Nov-16,15.78,15.83,15.56,15.61,738412
18-Nov-16,15.55,15.80,15.28,15.68,3218112
17-Nov-16,16.84,16.92,16.73,16.75,212516
16-Nov-16,16.67,16.90,16.67,16.79,322189
15-Nov-16,16.95,16.99,16.56,16.69,314349
14-Nov-16,17.00,17.19,16.91,16.96,458336
11-Nov-16,16.32,17.19,16.24,17.12,392217
10-Nov-16,16.02,16.39,15.89,16.33,410212
9-Nov-16,15.05,16.05,15.05,15.98,390129
8-Nov-16,15.01,15.20,14.95,15.13,352866
7-Nov-16,14.98,15.26,14.88,15.09,554004
4-Nov-16,14.39,14.90,14.37,14.84,433447
3-Nov-16,14.24,14.44,14.16,14.40,826261
2-Nov-16,14.24,14.38,14.09,14.16,534015
1-Nov-16,14.49,14.60,14.19,14.25,454702
31-Oct-16,14.26,14.76,14.25,14.40,549111
28-Oct-16,15.02,15.16,13.95,14.27,881919
27-Oct-16,14.15,15.70,14.10,15.05,1130242
26-Oct-16,14.36,14.38,14.12,14.13,264388
25-Oct-16,14.53,14.73,14.39,14.41,426369
24-Oct-16,14.45,14.65,14.45,14.55,246499
21-Oct-16,14.25,14.45,14.19,14.43,129258
20-Oct-16,14.66,14.68,14.28,14.36,236048
19-Oct-16,14.66,14.75,14.55,14.68,185045
18-Oct-16,14.61,14.67,14.37,14.55,164268
17-Oct-16,14.70,14.72,14.37,14.39,139912
14-Oct-16,14.73,14.86,14.61,14.70,394470
13-Oct-16,14.53,14.76,14.43,14.72,214629
12-Oct-16,14.37,14.77,14.26,14.62,934231
11-Oct-16,14.77,14.77,14.30,14.34,324392
10-Oct-16,14.65,15.07,14.65,14.77,641623
7-Oct-16,15.17,15.21,14.69,14.72,451805
6-Oct-16,15.22,15.38,15.15,15.21,271979
5-Oct-16,15.51,15.52,15.20,15.34,394724
4-Oct-16,15.48,15.59,15.27,15.40,318597
3-Oct-16,15.50,15.53,15.40,15.48,533225
30-Sep-16,15.80,15.87,15.49,15.50,563130
29-Sep-16,15.95,16.01,15.61,15.63,263997
28-Sep-16,15.97,16.33,15.97,16.30,198951
27-Sep-16,15.87,16.18,15.84,15.97,166899
26-Sep-16,16.07,16.08,15.82,15.83,153307
23-Sep-16,15.77,16.33,15.72,16.23,277478
22-Sep-16,15.71,15.87,15.59,15.82,284334
21-Sep-16,15.90,15.95,15.36,15.56,544565
20-Sep-16,15.91,16.07,15.78,15.79,87332
19-Sep-16,15.76,15.93,15.62,15.79,177598
16-Sep-16,16.05,16.05,15.59,15.64,383311
15-Sep-16,15.83,16.11,15.68,16.11,230059
14-Sep-16,15.91,16.04,15.76,15.81,125548
13-Sep-16,15.98,16.10,15.75,15.94,178424
12-Sep-16,15.73,16.12,15.65,16.10,223425
9-Sep-16,16.34,16.48,15.78,15.80,187702
8-Sep-16,16.46,16.52,16.31,16.44,174444
7-Sep-16,16.12,16.54,16.11,16.52,234908
6-Sep-16,16.22,16.26,15.93,16.16,180188
2-Sep-16,15.98,16.26,15.97,16.17,169485
1-Sep-16,16.02,16.02,15.75,15.91,235652
31-Aug-16,16.13,16.24,15.86,15.98,246522
30-Aug-16,15.95,16.14,15.82,16.08,413791
29-Aug-16,15.56,16.10,15.56,15.80,384773
26-Aug-16,15.48,15.72,15.45,15.59,417875
25-Aug-16,15.31,15.72,15.28,15.64,517649
24-Aug-16,16.38,16.42,15.16,15.40,1085522
23-Aug-16,16.88,17.04,16.84,16.90,146061
22-Aug-16,16.84,16.89,16.66,16.87,244978
19-Aug-16,16.83,16.95,16.77,16.82,136442
18-Aug-16,16.89,16.93,16.79,16.88,196230
17-Aug-16,16.79,16.92,16.74,16.80,135669
16-Aug-16,16.95,16.96,16.78,16.79,132952
15-Aug-16,16.90,17.01,16.84,16.97,113840
12-Aug-16,16.85,16.92,16.75,16.92,162898
11-Aug-16,16.85,16.91,16.78,16.84,246319
10-Aug-16,17.19,17.19,16.75,16.80,277560
9-Aug-16,16.96,17.13,16.90,17.13,316898
8-Aug-16,17.10,17.15,16.87,16.96,241749
5-Aug-16,17.15,17.44,17.15,17.43,292703
4-Aug-16,17.20,17.31,16.98,17.13,268154
3-Aug-16,17.26,17.38,17.10,17.17,211706
2-Aug-16,17.69,17.69,17.16,17.19,301104
1-Aug-16,17.58,17.77,17.48,17.72,394297
29-Jul-16,17.85,18.16,17.31,17.66,504312
28-Jul-16,19.10,19.10,17.65,18.02,645400
27-Jul-16,19.86,19.88,19.41,19.60,239292
26-Jul-16,19.58,19.88,19.45,19.82,289789
25-Jul-16,19.69,19.77,19.32,19.57,305518
22-Jul-16,19.64,19.75,19.57,19.70,188111
21-Jul-16,19.65,19.80,19.57,19.65,164620
20-Jul-16,19.72,19.74,19.54,19.63,122964
19-Jul-16,19.44,19.62,19.26,19.57,198206
18-Jul-16,19.48,19.63,19.41,19.49,182622
15-Jul-16,19.49,19.51,19.30,19.48,253926
14-Jul-16,19.43,19.53,19.24,19.34,223798
13-Jul-16,19.40,19.50,19.23,19.33,243667
12-Jul-16,19.21,19.49,19.15,19.39,310097
11-Jul-16,18.91,19.18,18.86,19.11,277662
8-Jul-16,19.08,19.10,18.81,18.83,266602
7-Jul-16,18.70,19.03,18.60,18.93,439801
6-Jul-16,18.35,18.68,18.18,18.65,313012
5-Jul-16,18.15,18.45,18.03,18.42,323792
1-Jul-16,18.05,18.20,17.98,18.16,300795
30-Jun-16,17.73,18.25,17.69,18.07,438809
29-Jun-16,17.30,17.75,17.18,17.72,260591
28-Jun-16,17.24,17.31,17.02,17.10,238397
27-Jun-16,17.38,17.42,16.87,16.95,384176
24-Jun-16,17.37,17.79,17.14,17.58,1242299
23-Jun-16,17.78,18.10,17.75,17.99,273441
22-Jun-16,17.49,17.62,17.37,17.57,213686
21-Jun-16,17.80,17.82,17.31,17.39,182146
20-Jun-16,17.75,17.97,17.62,17.74,187288
17-Jun-16,17.60,17.73,17.36,17.49,338172
16-Jun-16,17.47,17.58,17.23,17.56,230253
15-Jun-16,17.50,17.67,17.40,17.49,154912
14-Jun-16,17.48,17.66,17.31,17.46,168617
13-Jun-16,17.71,17.71,17.36,17.46,230093
10-Jun-16,17.72,17.95,17.52,17.74,240687
9-Jun-16,17.86,17.94,17.63,17.86,248341
8-Jun-16,17.57,17.91,17.48,17.90,256602
7-Jun-16,17.45,17.63,17.33,17.51,287641
6-Jun-16,17.28,17.55,17.28,17.39,236377
3-Jun-16,17.42,17.44,17.18,17.25,262352
2-Jun-16,17.16,17.49,17.00,17.47,336216
1-Jun-16,17.28,17.45,16.80,17.16,734817
31-May-16,17.07,17.54,17.00,17.43,415712
27-May-16,16.73,16.92,16.62,16.91,332374
26-May-16,16.67,16.83,16.34,16.70,289952
25-May-16,17.04,17.04,16.56,16.62,408292
24-May-16,16.86,17.08,16.83,16.95,158205
23-May-16,17.00,17.14,16.81,16.83,246160
20-May-16,16.39,17.06,16.38,17.06,394052
19-May-16,16.35,16.58,16.16,16.28,596240
18-May-16,16.15,16.41,16.15,16.40,363632
17-May-16,16.25,16.52,16.10,16.16,432255
16-May-16,15.91,16.22,15.81,16.10,177952
13-May-16,15.70,15.96,15.58,15.80,251064
12-May-16,16.10,16.24,15.48,15.70,332408
11-May-16,16.40,16.44,15.97,16.02,260651
10-May-16,16.06,16.22,15.87,16.13,269432
9-May-16,16.06,16.18,15.63,16.03,416149
6-May-16,16.17,16.58,16.02,16.44,354759
5-May-16,15.99,16.28,15.87,16.19,183093
4-May-16,15.92,16.17,15.76,15.89,203342
3-May-16,16.18,16.34,15.75,15.96,273883
2-May-16,16.10,16.36,15.91,16.21,301966
29-Apr-16,16.10,16.11,15.76,16.05,262255
28-Apr-16,17.11,17.19,16.07,16.31,338434
27-Apr-16,16.07,16.31,15.96,16.11,147840
26-Apr-16,15.81,16.21,15.68,16.11,181862
25-Apr-16,15.59,15.74,15.37,15.74,235006
22-Apr-16,15.45,15.62,15.32,15.62,187643
21-Apr-16,15.58,15.70,15.44,15.46,100654
20-Apr-16,15.65,15.68,15.46,15.58,83634
19-Apr-16,15.43,15.77,15.30,15.66,185607
18-Apr-16,15.10,15.35,15.00,15.31,261284
15-Apr-16,15.40,15.44,14.97,15.09,238797
14-Apr-16,15.44,15.57,15.16,15.49,219424
13-Apr-16,15.15,15.49,15.08,15.44,232929
12-Apr-16,14.67,15.15,14.61,15.11,353828
11-Apr-16,14.62,14.90,14.55,14.74,195225
8-Apr-16,14.63,14.83,14.45,14.57,177091
7-Apr-16,14.45,14.95,14.43,14.55,388418
6-Apr-16,14.90,14.96,14.45,14.60,476406
5-Apr-16,15.67,16.01,14.73,14.85,704880
4-Apr-16,16.35,16.45,16.07,16.23,217488
1-Apr-16,16.48,16.53,16.07,16.31,193747
31-Mar-16,16.36,16.65,16.29,16.64,375567
30-Mar-16,16.69,16.69,15.92,16.33,188442
29-Mar-16,16.39,16.70,16.25,16.65,341259
28-Mar-16,16.20,16.51,16.19,16.36,203809
24-Mar-16,16.00,16.23,15.81,16.16,230023
23-Mar-16,16.45,16.50,16.07,16.08,228410
22-Mar-16,16.17,16.50,15.76,16.43,318175
21-Mar-16,16.23,16.39,16.02,16.25,195547
18-Mar-16,16.19,16.38,16.08,16.24,235047
17-Mar-16,16.50,16.51,15.95,16.07,311125
16-Mar-16,15.86,16.64,15.85,16.50,215934
15-Mar-16,16.34,16.34,15.74,15.92,260630
14-Mar-16,16.29,16.45,16.12,16.40,122804
11-Mar-16,16.13,16.42,15.83,16.36,216996
10-Mar-16,16.00,16.34,15.76,15.92,295501
9-Mar-16,16.22,16.65,16.04,16.15,216103
8-Mar-16,16.13,16.52,15.95,16.18,175209
7-Mar-16,15.98,16.18,15.75,16.17,312052
4-Mar-16,16.13,16.44,16.01,16.28,196496
3-Mar-16,15.49,16.25,15.49,16.17,241804
2-Mar-16,15.69,15.82,15.30,15.50,414312
1-Mar-16,15.75,15.85,15.47,15.73,229260
29-Feb-16,15.32,15.74,15.26,15.63,462178
26-Feb-16,15.99,16.21,15.13,15.26,390241
25-Feb-16,16.25,16.74,15.18,15.96,434194
24-Feb-16,15.05,15.44,14.91,15.32,189300
23-Feb-16,15.12,15.46,15.12,15.24,166206
22-Feb-16,14.96,15.45,14.96,15.28,229897
19-Feb-16,14.86,15.06,14.78,14.82,191476
18-Feb-16,14.86,15.23,14.83,14.89,211396
17-Feb-16,15.20,15.31,14.67,14.80,318802
16-Feb-16,14.75,15.14,14.69,15.06,327892
12-Feb-16,14.93,15.27,14.55,14.65,244571
11-Feb-16,14.36,15.21,14.28,14.82,366862
10-Feb-16,14.82,15.18,14.25,14.77,403309
9-Feb-16,14.89,15.28,14.65,14.91,148358
8-Feb-16,15.67,15.76,14.53,15.13,318740
5-Feb-16,15.99,16.44,15.76,15.83,243474
4-Feb-16,16.34,16.44,15.73,16.05,215209
3-Feb-16,16.86,16.86,16.25,16.39,143840
2-Feb-16,16.84,16.97,16.51,16.69,117210
1-Feb-16,17.20,17.33,16.86,17.01,136825
29-Jan-16,16.83,17.37,16.81,17.32,276368
28-Jan-16,16.56,16.92,16.49,16.81,161875
27-Jan-16,16.96,17.18,16.36,16.41,196067
26-Jan-16,16.50,17.24,16.49,17.11,185021
25-Jan-16,17.16,17.24,16.41,16.47,195211
22-Jan-16,17.02,17.25,16.78,17.19,186174
21-Jan-16,16.66,17.14,16.50,16.76,328192
20-Jan-16,16.17,16.80,15.54,16.64,310423
19-Jan-16,16.75,16.85,16.23,16.47,251361
15-Jan-16,16.89,17.20,16.19,16.63,424501
14-Jan-16,16.84,17.50,16.69,17.28,325957
13-Jan-16,18.20,18.54,16.71,16.74,429338
12-Jan-16,17.93,18.27,17.79,18.09,206636
11-Jan-16,18.05,18.24,17.60,17.75,249222
8-Jan-16,18.02,18.34,17.90,18.03,253056
7-Jan-16,18.44,18.70,17.95,18.03,262692
6-Jan-16,18.80,19.10,18.63,18.71,248205
5-Jan-16,19.07,19.29,18.81,19.06,170310
4-Jan-16,19.06,19.38,18.83,19.01,277784
31-Dec-15,19.67,19.69,19.41,19.46,167048
30-Dec-15,19.93,20.01,19.66,19.67,120767
29-Dec-15,19.87,20.11,19.77,19.98,148636
28-Dec-15,19.62,19.91,19.52,19.82,144889
24-Dec-15,19.83,19.96,19.66,19.73,44931
23-Dec-15,19.54,19.99,19.43,19.84,201502
22-Dec-15,19.52,19.56,19.20,19.36,179880
21-Dec-15,19.26,19.52,19.01,19.50,198534
18-Dec-15,19.92,20.06,19.13,19.17,580167
17-Dec-15,19.38,20.00,19.38,19.93,307468
16-Dec-15,19.23,19.43,19.14,19.24,402361
15-Dec-15,19.15,19.57,19.14,19.17,270351
14-Dec-15,18.89,19.20,18.50,19.04,297973
11-Dec-15,18.70,19.03,18.56,18.78,186649
10-Dec-15,18.89,19.30,18.79,18.98,182144
9-Dec-15,19.11,19.23,18.78,18.80,224892
8-Dec-15,18.76,19.46,18.47,19.13,314306
7-Dec-15,19.30,19.33,18.76,18.96,248086
4-Dec-15,18.59,19.28,18.41,19.23,351872
3-Dec-15,18.50,18.78,18.13,18.50,292249
2-Dec-15,18.50,18.62,18.12,18.18,150848
1-Dec-15,18.25,18.75,18.25,18.50,218989
30-Nov-15,18.30,18.32,18.09,18.21,225989
27-Nov-15,18.14,18.28,17.97,18.24,112617
25-Nov-15,18.04,18.36,17.94,18.17,151023
24-Nov-15,17.93,18.11,17.77,18.04,173861
23-Nov-15,17.67,18.10,17.67,17.98,273343
20-Nov-15,17.64,17.87,17.51,17.67,180133
19-Nov-15,17.44,17.57,17.24,17.51,375946
18-Nov-15,17.05,17.40,17.04,17.40,186798
17-Nov-15,17.10,17.26,16.78,17.02,267284
16-Nov-15,16.80,17.18,16.78,17.09,223079
13-Nov-15,16.57,17.01,16.50,16.75,301000
12-Nov-15,17.03,17.42,16.56,16.61,274786
11-Nov-15,17.07,17.39,17.07,17.24,127904
10-Nov-15,17.30,17.68,16.93,17.05,211159
9-Nov-15,17.42,17.67,17.10,17.21,271118
6-Nov-15,17.44,18.02,17.44,17.70,433069
5-Nov-15,17.28,17.92,17.22,17.41,631306
4-Nov-15,16.75,17.24,16.37,17.10,515879
3-Nov-15,17.10,17.17,16.68,16.71,248237
2-Nov-15,16.10,17.30,15.92,17.18,324364
30-Oct-15,15.85,16.40,15.85,16.10,300009
29-Oct-15,16.73,16.73,15.04,15.81,780847
28-Oct-15,16.86,17.32,16.79,17.22,274509
27-Oct-15,16.81,16.90,16.59,16.82,168315
26-Oct-15,17.20,17.20,16.66,16.85,182093
23-Oct-15,17.27,17.82,17.05,17.27,365876
22-Oct-15,16.84,17.23,16.67,17.04,188497
21-Oct-15,17.26,17.26,16.73,16.75,125322
20-Oct-15,16.73,17.35,16.66,17.16,189049
19-Oct-15,17.35,17.47,16.61,16.82,263297
16-Oct-15,17.57,17.66,17.26,17.45,156295
15-Oct-15,17.43,17.56,17.11,17.49,161777
14-Oct-15,17.41,17.63,17.21,17.36,124132
13-Oct-15,17.76,17.84,17.34,17.37,185026
12-Oct-15,18.00,18.12,17.50,17.79,283341
9-Oct-15,17.47,18.12,17.45,17.96,450958
8-Oct-15,16.76,17.53,16.62,17.46,324358
7-Oct-15,16.33,16.73,16.28,16.71,188790
6-Oct-15,16.64,16.64,16.26,16.31,195065
5-Oct-15,15.98,16.93,15.98,16.58,385868
2-Oct-15,15.42,15.83,15.16,15.83,336167
1-Oct-15,15.52,15.53,15.10,15.52,299854
30-Sep-15,15.15,15.51,15.08,15.46,222530
29-Sep-15,15.04,15.35,14.94,14.99,278837
28-Sep-15,14.99,15.17,14.91,15.01,226017
25-Sep-15,15.16,15.49,14.98,15.00,322112
24-Sep-15,15.48,15.54,14.95,15.03,212376
23-Sep-15,15.62,15.75,15.40,15.50,139332
22-Sep-15,15.80,15.93,15.53,15.60,220995
21-Sep-15,16.30,16.30,15.76,15.96,343719
18-Sep-15,15.88,16.30,15.75,16.29,551820
17-Sep-15,15.84,16.30,15.78,16.06,224340
16-Sep-15,15.53,15.95,15.53,15.87,281032
15-Sep-15,15.12,15.68,15.01,15.56,259918
14-Sep-15,15.55,15.60,14.96,15.10,385082
11-Sep-15,15.52,15.78,15.39,15.53,513644
10-Sep-15,15.49,15.73,15.40,15.63,349272
9-Sep-15,15.59,15.81,15.41,15.50,324022
8-Sep-15,15.25,15.56,15.18,15.46,181073
4-Sep-15,14.99,15.12,14.93,15.05,124984
3-Sep-15,15.29,15.39,15.14,15.17,182270
2-Sep-15,15.27,15.29,14.91,15.23,257745
1-Sep-15,14.70,15.22,14.70,15.11,355427
31-Aug-15,15.01,15.19,14.76,14.92,735153
28-Aug-15,15.23,15.25,14.98,15.11,449127
27-Aug-15,15.23,15.36,14.86,15.34,674707
26-Aug-15,14.57,15.18,14.39,15.07,563861
25-Aug-15,15.09,15.18,14.29,14.34,400067
24-Aug-15,14.31,14.91,13.96,14.64,488957
21-Aug-15,14.85,15.29,14.53,15.05,317419
20-Aug-15,15.42,15.58,15.03,15.06,456522
19-Aug-15,15.45,15.68,15.45,15.48,200992
18-Aug-15,15.80,15.88,15.44,15.51,252671
17-Aug-15,15.50,15.96,15.35,15.93,356545
14-Aug-15,15.43,15.59,15.36,15.56,197859
13-Aug-15,15.50,15.75,15.36,15.40,295814
12-Aug-15,15.35,15.53,15.13,15.44,410637
11-Aug-15,15.53,15.76,15.30,15.53,325815
10-Aug-15,15.49,15.87,15.40,15.58,581462
7-Aug-15,16.13,16.31,15.38,15.78,767428
6-Aug-15,16.44,16.44,15.15,15.90,865024
5-Aug-15,15.92,16.45,15.83,16.26,571084
4-Aug-15,15.90,16.09,15.40,15.80,1233987
3-Aug-15,16.92,17.12,15.78,15.86,1141787
31-Jul-15,18.05,18.10,16.91,17.01,782651
30-Jul-15,16.88,18.59,16.72,18.01,974225
29-Jul-15,16.58,16.98,16.32,16.83,729115
28-Jul-15,16.48,16.59,16.29,16.58,610146
27-Jul-15,16.45,16.49,16.24,16.36,564614
24-Jul-15,16.41,16.63,16.41,16.49,417059
23-Jul-15,16.77,16.82,16.35,16.40,695904
22-Jul-15,16.32,16.81,16.27,16.70,689806
21-Jul-15,17.41,17.77,16.24,16.38,1239577
20-Jul-15,17.44,17.74,17.38,17.43,292704
17-Jul-15,17.90,17.92,17.35,17.37,331445
16-Jul-15,17.80,17.91,17.35,17.90,411761
15-Jul-15,18.20,18.26,17.49,17.58,762812
14-Jul-15,17.75,18.32,17.75,18.19,424096
13-Jul-15,17.64,17.97,17.48,17.83,581272
10-Jul-15,17.47,17.89,17.33,17.48,571998
9-Jul-15,17.28,17.55,16.95,17.19,719680
8-Jul-15,16.87,17.24,16.85,16.97,439008
7-Jul-15,17.55,17.55,16.84,16.98,1080377
6-Jul-15,17.76,17.84,17.10,17.50,731188
2-Jul-15,18.09,18.38,17.72,17.84,516614
1-Jul-15,18.12,18.32,17.83,17.99,238895
30-Jun-15,17.68,18.10,17.55,17.93,224367
29-Jun-15,18.07,18.12,17.48,17.50,339638
26-Jun-15,18.26,18.39,18.00,18.22,423480
25-Jun-15,18.29,18.50,18.20,18.25,269808
24-Jun-15,19.20,19.27,17.99,18.19,351334
23-Jun-15,19.06,19.31,18.89,19.27,278535
22-Jun-15,19.23,19.24,18.63,19.08,311315
19-Jun-15,18.69,19.28,18.53,19.20,513816
18-Jun-15,18.36,18.65,18.19,18.63,328574
17-Jun-15,18.58,18.66,18.26,18.28,211167
16-Jun-15,18.29,18.56,18.29,18.55,258016
15-Jun-15,17.85,18.44,17.80,18.29,468912
12-Jun-15,18.38,18.61,17.93,18.03,496198
11-Jun-15,18.89,18.97,18.35,18.70,532787
10-Jun-15,18.99,19.04,18.70,18.81,347908
9-Jun-15,18.97,19.19,18.76,19.00,510132
8-Jun-15,19.10,19.46,18.82,18.93,1722226
5-Jun-15,21.13,21.14,18.42,18.72,2861879
4-Jun-15,22.24,22.49,21.13,21.25,425293
3-Jun-15,22.11,22.53,21.92,22.52,340807
2-Jun-15,21.98,22.45,21.83,22.00,256077
1-Jun-15,22.08,22.30,21.94,22.04,202199
29-May-15,22.13,22.20,21.88,22.02,179691
28-May-15,22.41,22.45,22.14,22.20,110714
27-May-15,22.11,22.45,22.00,22.41,198468
26-May-15,22.64,22.64,21.97,22.09,338006
22-May-15,22.45,22.70,22.40,22.67,219170
21-May-15,22.65,22.70,22.44,22.44,114096
20-May-15,22.72,22.72,22.41,22.69,111323
19-May-15,22.49,22.74,22.40,22.72,163098
18-May-15,22.07,22.63,22.01,22.50,174748
15-May-15,22.44,22.60,22.11,22.20,150422
14-May-15,22.28,22.53,22.10,22.34,126300
13-May-15,22.64,22.74,22.16,22.25,227752
12-May-15,22.28,22.60,22.22,22.58,268422
11-May-15,22.29,22.66,21.87,22.38,189652
8-May-15,22.51,22.81,22.32,22.36,236856
7-May-15,22.22,22.44,22.10,22.39,336110
6-May-15,22.49,22.59,21.88,22.17,407812
5-May-15,23.35,23.35,22.20,22.48,281103
4-May-15,23.87,24.04,22.90,23.42,322688
1-May-15,23.16,24.32,23.15,23.87,584921
30-Apr-15,21.96,23.24,21.93,23.13,598830
29-Apr-15,22.14,22.35,21.78,21.91,286915
28-Apr-15,22.01,22.22,21.92,22.12,362982
27-Apr-15,22.11,22.46,21.99,22.06,348677
24-Apr-15,22.21,22.30,21.96,22.11,169093
23-Apr-15,21.98,22.28,21.95,22.27,228137
22-Apr-15,21.88,22.01,21.62,21.94,181350
21-Apr-15,21.94,22.16,21.81,21.86,256391
20-Apr-15,21.72,21.84,21.57,21.84,144430
17-Apr-15,21.78,21.88,21.42,21.57,238235
16-Apr-15,21.82,22.18,21.60,21.93,197858
15-Apr-15,22.47,22.47,21.17,21.90,585211
14-Apr-15,22.17,22.37,21.71,22.34,365034
13-Apr-15,23.09,23.09,21.98,22.10,383418
10-Apr-15,23.00,23.41,22.84,23.10,262106
9-Apr-15,23.40,23.73,22.80,22.91,299409
8-Apr-15,23.39,23.52,23.19,23.39,196754
7-Apr-15,23.21,23.52,23.08,23.39,225126
6-Apr-15,23.84,23.96,23.10,23.28,183971
2-Apr-15,23.83,24.28,23.67,23.98,205729
1-Apr-15,23.75,24.03,23.29,23.75,381079
31-Mar-15,23.54,23.97,23.49,23.93,257758
30-Mar-15,23.46,23.86,23.45,23.49,185158
27-Mar-15,23.20,23.48,22.98,23.34,249824
26-Mar-15,23.90,23.93,22.95,23.11,344232
25-Mar-15,24.80,24.82,23.92,23.94,574353
24-Mar-15,24.66,24.89,24.48,24.69,151340
23-Mar-15,25.39,25.39,24.65,24.75,176302
20-Mar-15,25.11,25.43,25.06,25.39,626758
19-Mar-15,24.80,25.20,24.69,25.11,206931
18-Mar-15,24.86,25.05,24.70,24.83,106039
17-Mar-15,25.09,25.20,24.72,24.99,174841
16-Mar-15,24.69,25.20,24.57,25.17,268561
13-Mar-15,24.70,24.73,24.34,24.47,154580
12-Mar-15,24.80,24.93,24.55,24.74,269401
11-Mar-15,24.23,24.66,24.11,24.62,332997
10-Mar-15,24.27,24.38,23.87,24.22,253545
9-Mar-15,24.01,24.58,24.01,24.50,302574
6-Mar-15,24.30,24.51,24.06,24.19,358207
5-Mar-15,24.48,24.79,24.08,24.45,238812
4-Mar-15,24.00,24.67,23.93,24.15,558341
3-Mar-15,24.77,24.77,24.03,24.05,380755
2-Mar-15,24.67,24.79,24.42,24.78,307708
27-Feb-15,25.12,25.62,24.56,24.70,648455
26-Feb-15,23.95,25.77,23.25,25.07,1029671
25-Feb-15,23.07,23.71,22.65,23.62,402954
24-Feb-15,22.58,22.97,22.31,22.94,170089
23-Feb-15,22.75,22.86,22.30,22.55,245403
20-Feb-15,22.70,22.81,22.22,22.73,372774
19-Feb-15,22.51,22.81,22.42,22.66,150704
18-Feb-15,22.48,22.60,22.41,22.53,218498
17-Feb-15,22.48,22.60,22.28,22.47,202341
13-Feb-15,22.17,22.45,21.61,22.38,264053
12-Feb-15,23.00,23.00,22.00,22.11,371018
11-Feb-15,22.52,23.45,22.39,22.99,354939
10-Feb-15,22.67,22.73,22.04,22.32,295720
9-Feb-15,23.24,23.30,22.52,22.54,275891
6-Feb-15,23.74,23.96,23.05,23.24,307199
5-Feb-15,23.37,23.80,23.32,23.80,293548
4-Feb-15,22.87,23.50,22.84,23.36,202539
3-Feb-15,22.83,23.34,22.71,22.96,274596
2-Feb-15,23.30,23.30,22.51,22.82,425040
30-Jan-15,22.95,23.46,22.58,23.39,917269
29-Jan-15,22.42,23.27,22.30,23.06,485900
28-Jan-15,22.43,22.87,22.31,22.36,504716
27-Jan-15,22.04,22.33,21.88,22.29,211837
26-Jan-15,21.81,22.40,21.49,22.32,446978
23-Jan-15,21.39,21.96,21.39,21.83,635070
22-Jan-15,21.39,21.59,21.21,21.45,541957
21-Jan-15,21.29,21.39,21.07,21.25,425909
20-Jan-15,21.39,21.39,21.00,21.21,443436
16-Jan-15,20.75,21.39,20.75,21.35,434194
15-Jan-15,20.98,21.23,20.65,20.77,976498
14-Jan-15,21.01,21.30,20.55,20.80,3222171
13-Jan-15,22.62,23.05,21.81,22.33,152397
12-Jan-15,22.03,22.84,21.77,22.42,267370
9-Jan-15,21.95,22.63,21.75,21.96,247932
8-Jan-15,21.61,22.17,21.61,22.00,253782
7-Jan-15,22.17,22.27,21.34,21.52,270227
6-Jan-15,23.62,23.62,21.81,22.10,278533
5-Jan-15,23.16,23.60,22.88,23.35,407907
2-Jan-15,23.67,24.01,23.10,23.29,142244
31-Dec-14,23.60,23.72,23.41,23.63,117419
30-Dec-14,23.56,23.89,23.45,23.59,138449
29-Dec-14,24.07,24.37,23.58,23.59,124672
26-Dec-14,24.29,24.40,24.00,24.09,88812
24-Dec-14,23.63,24.21,23.63,24.15,104733
23-Dec-14,23.98,24.11,23.45,23.61,151402
22-Dec-14,23.92,24.45,23.62,23.94,228360
19-Dec-14,24.09,24.52,24.00,24.33,573789
18-Dec-14,24.07,24.35,23.88,24.13,339771
17-Dec-14,23.26,23.96,23.26,23.80,276269
16-Dec-14,22.91,23.61,22.89,23.22,266002
15-Dec-14,23.20,23.62,22.25,22.86,229759
12-Dec-14,23.22,23.91,22.97,22.99,310345
11-Dec-14,22.80,23.55,22.76,23.41,726747
10-Dec-14,22.46,23.02,22.28,22.80,437899
9-Dec-14,21.86,22.50,21.80,22.50,473682
8-Dec-14,22.12,22.34,21.76,22.03,292527
5-Dec-14,21.55,22.37,21.00,22.14,812030
4-Dec-14,21.48,21.66,21.07,21.45,262558
3-Dec-14,21.54,21.69,21.22,21.50,268839
2-Dec-14,21.69,22.07,21.19,21.44,502910
1-Dec-14,20.62,21.65,20.32,21.60,689523
28-Nov-14,20.55,20.67,20.31,20.32,98164
26-Nov-14,20.09,20.49,19.96,20.45,187913
25-Nov-14,20.51,20.69,19.95,20.00,364232
24-Nov-14,20.05,20.74,20.01,20.31,438723
21-Nov-14,19.06,20.05,18.89,19.96,536850
20-Nov-14,18.44,18.83,18.38,18.75,149799
19-Nov-14,18.81,18.82,18.28,18.42,151568
18-Nov-14,19.11,19.26,18.83,18.87,202355
17-Nov-14,19.08,19.14,18.40,19.00,220844
14-Nov-14,19.08,19.20,18.78,19.12,137322
13-Nov-14,19.24,19.55,18.99,19.06,197870
12-Nov-14,18.93,19.33,18.88,19.12,203975
11-Nov-14,18.95,19.07,18.71,18.92,140299
10-Nov-14,18.76,19.13,18.45,18.92,272930
7-Nov-14,18.65,18.71,18.24,18.66,174035
6-Nov-14,18.93,19.01,18.62,18.93,424078
5-Nov-14,18.78,18.99,18.57,18.97,249574
4-Nov-14,18.87,19.18,18.74,18.77,239731
3-Nov-14,19.12,19.28,18.74,18.79,395341
31-Oct-14,19.77,19.77,18.96,19.06,691917
30-Oct-14,16.97,18.40,16.97,18.39,502418
29-Oct-14,17.26,17.53,16.81,16.91,166544
28-Oct-14,16.92,17.51,16.73,17.42,147270
27-Oct-14,16.93,17.04,16.66,16.83,65075
24-Oct-14,16.96,17.06,16.85,17.02,94313
23-Oct-14,16.24,16.92,16.04,16.89,310965
22-Oct-14,16.23,16.47,16.09,16.11,190755
21-Oct-14,16.29,16.54,16.24,16.29,242279
20-Oct-14,16.31,16.64,16.23,16.31,198477
17-Oct-14,16.85,17.03,16.40,16.50,162513
16-Oct-14,16.90,17.10,16.67,16.73,267891
15-Oct-14,17.45,17.60,16.55,17.27,255048
14-Oct-14,17.01,17.50,16.92,17.48,326025
13-Oct-14,16.65,17.36,16.41,16.91,321070
10-Oct-14,16.52,16.81,15.98,16.45,220397
9-Oct-14,17.18,17.18,16.48,16.64,197843
8-Oct-14,16.88,17.15,16.40,17.14,140909
7-Oct-14,16.53,16.94,16.39,16.87,192524
6-Oct-14,16.80,16.88,16.47,16.60,218999
3-Oct-14,16.42,16.85,16.19,16.80,184391
2-Oct-14,16.29,16.31,15.76,16.25,477792
1-Oct-14,16.64,16.64,15.82,16.24,322659
30-Sep-14,17.24,17.36,16.48,16.63,705436
29-Sep-14,16.80,17.27,16.80,17.24,330105
26-Sep-14,16.94,17.03,16.72,16.87,543046
25-Sep-14,16.86,17.27,16.77,16.84,475625
24-Sep-14,16.35,16.71,16.22,16.68,212912
23-Sep-14,16.55,16.59,16.24,16.37,402829
22-Sep-14,16.43,16.62,16.42,16.54,457830
19-Sep-14,16.36,16.69,16.21,16.40,371341
18-Sep-14,16.28,16.40,16.11,16.15,2252983
17-Sep-14,16.97,17.03,16.61,16.76,109643
16-Sep-14,16.93,17.03,16.71,16.97,75355
15-Sep-14,17.35,17.35,16.45,16.97,192181
12-Sep-14,17.31,17.45,17.14,17.30,130455
11-Sep-14,17.26,17.42,17.25,17.37,70377
10-Sep-14,17.27,17.54,17.05,17.34,171711
9-Sep-14,17.44,17.44,17.00,17.27,179797
8-Sep-14,17.66,17.66,17.35,17.57,86302
5-Sep-14,17.45,17.71,17.30,17.68,80084
4-Sep-14,17.80,17.95,17.48,17.50,146826
3-Sep-14,17.87,17.94,17.52,17.72,177585
2-Sep-14,17.59,17.86,17.44,17.74,137683
29-Aug-14,17.37,17.56,17.13,17.47,117860
28-Aug-14,17.42,17.48,17.22,17.40,68188
27-Aug-14,17.10,17.53,17.00,17.45,140686
26-Aug-14,17.18,17.21,16.97,17.12,181622
25-Aug-14,16.68,17.23,16.54,17.08,283102
22-Aug-14,16.12,16.65,15.99,16.49,230621
21-Aug-14,16.31,16.37,16.06,16.18,219076
20-Aug-14,16.69,16.70,16.24,16.35,280178
19-Aug-14,16.52,17.13,16.50,16.77,634927
18-Aug-14,15.68,16.53,15.62,16.45,420951
15-Aug-14,15.18,15.45,15.01,15.36,145801
14-Aug-14,14.99,15.12,14.82,15.03,70972
13-Aug-14,15.05,15.28,14.98,15.00,91763
12-Aug-14,15.19,15.24,14.95,15.05,62963
11-Aug-14,14.78,15.43,14.78,15.27,109319
8-Aug-14,14.64,14.80,14.48,14.70,169816
7-Aug-14,15.41,15.52,14.95,14.98,116829
6-Aug-14,15.43,15.84,15.33,15.41,151136
5-Aug-14,15.28,15.75,15.14,15.47,166271
4-Aug-14,14.89,15.37,14.78,15.32,253237
1-Aug-14,15.08,15.09,14.62,14.75,366713
31-Jul-14,14.23,15.20,14.23,15.06,734046
30-Jul-14,14.36,14.47,14.13,14.16,238542
29-Jul-14,14.22,14.46,14.20,14.35,75417
28-Jul-14,14.28,14.37,14.16,14.23,115830
25-Jul-14,14.33,14.44,14.21,14.31,123612
24-Jul-14,14.51,14.65,14.29,14.40,109951
23-Jul-14,14.53,14.70,14.45,14.55,172290
22-Jul-14,14.67,14.69,14.38,14.46,257277
21-Jul-14,14.58,14.76,14.47,14.69,91193
18-Jul-14,14.42,14.72,14.27,14.70,124287
17-Jul-14,14.42,14.59,14.42,14.49,102905
16-Jul-14,14.61,14.73,14.22,14.52,285997
15-Jul-14,14.95,15.04,14.53,14.61,143095
14-Jul-14,14.52,15.04,14.42,14.98,280011
11-Jul-14,14.21,14.50,14.21,14.49,106184
10-Jul-14,14.03,14.41,13.99,14.26,167726
9-Jul-14,14.29,14.31,14.14,14.30,293337
8-Jul-14,14.20,14.32,13.86,14.29,288524
7-Jul-14,14.14,14.25,14.02,14.25,199492
3-Jul-14,14.15,14.25,14.01,14.22,106287
2-Jul-14,14.15,14.25,14.02,14.15,155720
1-Jul-14,14.09,14.21,13.82,14.15,323552
30-Jun-14,13.59,14.20,13.59,14.11,406911
27-Jun-14,13.59,14.17,13.55,13.66,2987331
26-Jun-14,13.51,13.74,13.41,13.63,261277
25-Jun-14,13.16,13.57,13.16,13.54,397955
24-Jun-14,13.35,13.37,12.89,13.16,443028
23-Jun-14,13.74,13.74,13.28,13.41,282149
20-Jun-14,13.82,13.94,13.57,13.79,493439
19-Jun-14,13.90,14.00,13.73,13.81,234357
18-Jun-14,13.94,14.03,13.91,13.96,207351
17-Jun-14,14.00,14.11,13.88,14.03,214152
16-Jun-14,14.23,14.29,13.96,14.10,213901
13-Jun-14,14.41,14.45,13.98,14.24,189373
12-Jun-14,14.47,14.59,14.35,14.41,108103
11-Jun-14,14.51,14.60,14.45,14.50,129713
10-Jun-14,14.55,14.63,14.44,14.59,203832
9-Jun-14,14.52,14.75,14.48,14.63,164149
6-Jun-14,14.47,14.66,14.38,14.60,198903
5-Jun-14,14.05,14.56,14.00,14.47,333977
4-Jun-14,13.99,14.13,13.90,14.02,240772
3-Jun-14,13.90,14.11,13.90,14.05,175900
2-Jun-14,13.91,14.01,13.91,13.97,144865
30-May-14,13.93,14.04,13.90,13.97,232237
29-May-14,13.93,14.00,13.83,13.97,137479
28-May-14,13.70,14.00,13.64,13.97,167487
27-May-14,13.57,13.87,13.53,13.76,269851
23-May-14,13.54,13.65,13.53,13.60,149562
22-May-14,13.57,13.70,13.49,13.60,123273
21-May-14,13.47,13.70,13.47,13.59,168783
20-May-14,13.44,13.64,13.32,13.50,126746
19-May-14,13.64,13.68,13.25,13.51,271817
16-May-14,13.67,13.75,13.59,13.64,138161
15-May-14,13.90,13.97,13.62,13.72,135819
14-May-14,13.88,13.99,13.82,13.90,81403
13-May-14,13.70,14.16,13.68,13.95,153413
12-May-14,13.48,13.98,13.43,13.77,143621
9-May-14,13.45,13.59,13.35,13.50,180621
8-May-14,13.63,13.80,13.45,13.62,158518
7-May-14,13.98,14.08,13.57,13.65,212856
6-May-14,13.99,14.10,13.92,13.96,86784
5-May-14,13.86,14.22,13.84,14.04,143514
2-May-14,13.92,14.16,13.82,13.97,219837
1-May-14,14.05,14.06,13.10,13.92,1102559
30-Apr-14,13.95,14.37,13.86,14.27,340820
29-Apr-14,14.32,14.32,13.79,13.98,520001
28-Apr-14,14.42,14.79,14.26,14.33,226427
25-Apr-14,14.72,14.77,14.36,14.42,220606
24-Apr-14,14.76,14.81,14.65,14.73,119373
23-Apr-14,14.82,14.85,14.69,14.69,91036
22-Apr-14,14.87,14.99,14.76,14.90,157452
21-Apr-14,14.70,14.97,14.70,14.90,379419
17-Apr-14,14.93,15.00,14.69,14.82,184821
16-Apr-14,14.98,15.04,14.78,15.00,195097
15-Apr-14,14.83,14.93,14.51,14.93,217005
14-Apr-14,14.95,15.14,14.55,14.76,258531
11-Apr-14,15.13,15.30,14.85,14.93,171741
10-Apr-14,15.31,15.65,15.12,15.28,197713
9-Apr-14,15.10,15.72,15.00,15.28,211057
8-Apr-14,15.08,15.22,14.89,15.21,313735
7-Apr-14,15.20,15.25,15.00,15.10,700067
4-Apr-14,15.54,15.55,15.10,15.29,129085
3-Apr-14,15.72,15.72,15.26,15.56,251557
2-Apr-14,15.68,15.79,15.43,15.65,323792
1-Apr-14,15.00,15.70,14.85,15.70,343742
31-Mar-14,15.01,15.14,14.79,15.02,281549
28-Mar-14,14.96,15.03,14.81,14.99,540988
27-Mar-14,14.89,15.04,14.72,14.90,456723
26-Mar-14,14.90,14.97,14.79,14.86,599003
25-Mar-14,15.10,15.10,14.68,14.94,528489
24-Mar-14,15.08,15.14,14.24,15.01,419874
21-Mar-14,15.00,15.18,14.88,15.08,566063
20-Mar-14,14.85,15.16,14.71,14.95,455734
19-Mar-14,15.23,15.25,14.66,14.84,370173
18-Mar-14,14.24,15.00,14.10,14.80,484783
17-Mar-14,13.66,14.27,13.55,14.20,303416
14-Mar-14,13.97,14.25,13.61,13.69,307526
13-Mar-14,14.18,14.45,13.67,14.18,260077
12-Mar-14,13.89,14.26,13.50,14.05,347570
11-Mar-14,14.93,15.10,13.83,14.03,804075
10-Mar-14,14.58,15.15,14.58,14.98,244527
7-Mar-14,14.76,14.79,14.50,14.57,280941
6-Mar-14,14.69,14.85,14.50,14.55,201449
5-Mar-14,14.94,15.65,14.50,14.74,534752
4-Mar-14,14.78,15.25,14.61,14.95,410255
3-Mar-14,14.35,14.74,14.03,14.71,594942
28-Feb-14,13.29,14.70,13.17,14.40,1089993
27-Feb-14,13.14,13.42,13.11,13.30,520922
26-Feb-14,12.59,13.91,12.25,13.10,1062149
25-Feb-14,11.80,12.65,11.80,12.59,780615
24-Feb-14,12.00,12.11,11.83,11.93,1106629
21-Feb-14,12.11,12.31,12.00,12.05,1141618
20-Feb-14,12.06,12.30,11.76,12.20,797363
19-Feb-14,12.35,12.47,12.01,12.13,1208558
18-Feb-14,12.55,13.05,12.08,12.32,1564802
14-Feb-14,12.50,13.46,12.50,12.80,1341801
13-Feb-14,13.40,13.69,12.55,12.67,434883
12-Feb-14,13.75,13.85,13.50,13.65,86828
11-Feb-14,14.24,14.25,13.64,13.80,59001
10-Feb-14,13.99,14.21,13.85,14.17,85483
7-Feb-14,14.00,14.24,13.50,14.00,267779
6-Feb-14,12.04,14.13,11.95,13.89,296330
5-Feb-14,10.75,12.29,10.65,12.29,747949
4-Feb-14,10.60,11.60,10.35,10.50,1539284
