﻿Date,Open,High,Low,Close,Volume
20-Jun-17,103.83,105.30,102.78,103.01,1921990
19-Jun-17,102.24,104.18,101.96,103.60,1551990
16-Jun-17,101.59,102.21,100.69,101.20,1557737
15-Jun-17,99.95,101.82,99.01,101.26,2349256
14-Jun-17,102.76,104.14,100.75,102.16,2139063
13-Jun-17,103.55,103.89,101.30,102.22,2071540
12-Jun-17,102.20,103.69,99.50,102.32,4478100
9-Jun-17,109.75,110.66,101.82,103.74,3859160
8-Jun-17,108.17,109.78,107.77,109.68,1843107
7-Jun-17,108.00,108.49,107.07,108.19,1934036
6-Jun-17,107.08,108.63,106.89,107.87,1517244
5-Jun-17,107.39,108.43,107.15,107.43,1597992
2-Jun-17,106.56,107.55,105.73,107.30,1464083
1-Jun-17,105.18,106.55,104.32,106.51,2626125
31-May-17,105.51,105.79,103.81,104.65,2230581
30-May-17,105.42,106.80,104.82,105.36,1612305
26-May-17,104.00,106.73,103.53,106.03,2988235
25-May-17,103.70,105.29,103.55,104.52,1770747
24-May-17,102.53,103.92,101.83,103.00,5774927
23-May-17,101.37,101.76,100.06,101.70,2338251
22-May-17,99.81,102.23,99.76,101.70,2087395
19-May-17,99.50,100.72,99.23,99.30,2131758
18-May-17,97.88,99.10,97.35,98.97,2842059
17-May-17,98.70,99.40,98.06,98.55,3630285
16-May-17,98.76,100.19,97.81,100.18,1845962
15-May-17,97.24,98.61,96.91,97.95,892450
12-May-17,96.81,97.35,95.99,96.90,966061
11-May-17,96.50,96.92,95.50,96.76,1100191
10-May-17,97.22,97.57,96.36,96.47,1210042
9-May-17,98.16,98.47,96.96,97.33,1586206
8-May-17,97.68,99.09,97.15,97.90,2173116
5-May-17,96.12,98.19,96.12,98.07,1818083
4-May-17,94.59,96.30,94.15,96.02,1515958
3-May-17,94.69,95.15,93.73,94.11,982385
2-May-17,94.82,95.10,93.77,94.96,1170402
1-May-17,94.64,95.44,93.71,94.93,2741325
28-Apr-17,94.30,95.32,92.94,94.48,2342129
27-Apr-17,96.28,96.92,93.30,94.33,4690399
26-Apr-17,90.43,91.21,89.03,90.92,2814850
25-Apr-17,89.92,90.80,89.56,90.24,1417602
24-Apr-17,89.67,89.67,88.35,89.42,1312012
21-Apr-17,88.80,89.43,88.08,88.32,1076475
20-Apr-17,88.49,88.49,87.46,88.26,1352012
19-Apr-17,87.96,88.40,87.65,88.15,1194688
18-Apr-17,86.00,87.67,85.93,87.60,1381737
17-Apr-17,85.04,86.42,84.92,86.41,1118215
13-Apr-17,84.37,85.20,84.34,84.64,1132148
12-Apr-17,85.01,85.71,84.03,84.49,874250
11-Apr-17,85.35,85.99,84.82,85.39,939028
10-Apr-17,85.95,86.39,85.42,85.53,671436
7-Apr-17,85.90,86.57,85.52,86.02,767039
6-Apr-17,85.75,86.42,85.10,86.19,673557
5-Apr-17,85.99,87.68,85.41,85.66,1416340
4-Apr-17,86.06,87.38,85.20,85.29,1177198
3-Apr-17,87.60,88.36,85.41,86.22,1250023
31-Mar-17,86.82,88.00,86.38,87.47,910624
30-Mar-17,87.44,87.70,86.81,86.94,771791
29-Mar-17,86.28,87.88,86.10,87.61,1438420
28-Mar-17,85.40,86.37,84.83,86.00,940816
27-Mar-17,84.24,85.59,83.42,84.87,906894
24-Mar-17,85.04,85.69,84.31,84.81,818649
23-Mar-17,85.12,85.80,84.13,84.40,860136
22-Mar-17,83.85,85.19,83.46,85.04,1423350
21-Mar-17,88.80,89.00,83.79,83.93,2410051
20-Mar-17,88.85,88.94,87.75,88.11,621321
17-Mar-17,89.05,89.47,88.51,88.71,1010277
16-Mar-17,88.79,89.37,88.49,88.80,953622
15-Mar-17,87.88,88.77,87.29,88.41,1020658
14-Mar-17,88.49,88.61,86.68,87.47,1142589
13-Mar-17,88.09,88.86,87.66,88.64,1292811
10-Mar-17,88.27,88.59,86.90,88.03,857091
9-Mar-17,87.31,88.13,86.39,87.83,893161
8-Mar-17,87.32,88.27,86.98,87.29,794034
7-Mar-17,86.33,87.69,86.10,87.06,1478591
6-Mar-17,85.93,86.77,85.56,86.26,1419210
3-Mar-17,86.03,87.19,86.01,86.47,1189485
2-Mar-17,89.09,89.14,86.24,86.34,1411414
1-Mar-17,88.02,88.99,86.74,88.89,3165753
28-Feb-17,87.22,88.28,86.82,86.92,2168345
27-Feb-17,90.61,90.61,86.93,87.75,5592673
24-Feb-17,91.60,92.39,90.66,91.82,1038173
23-Feb-17,93.36,93.40,91.41,92.65,832162
22-Feb-17,92.71,93.67,92.17,92.98,547666
21-Feb-17,93.02,93.51,92.17,93.18,617651
17-Feb-17,91.87,92.97,91.23,92.74,1117760
16-Feb-17,93.94,94.19,91.54,91.85,1411179
15-Feb-17,92.44,94.72,92.33,93.97,1584467
14-Feb-17,91.68,93.30,91.35,92.89,1422454
13-Feb-17,92.18,92.50,91.50,91.74,960525
10-Feb-17,92.58,92.82,91.70,92.46,1647909
9-Feb-17,90.14,92.31,90.01,92.30,1819978
8-Feb-17,89.76,90.44,89.39,90.09,1887296
7-Feb-17,90.81,91.16,90.35,90.66,1646858
6-Feb-17,89.19,90.71,88.63,90.50,1441749
3-Feb-17,89.18,89.99,89.12,89.47,2454808
2-Feb-17,89.25,89.84,88.23,88.86,2125715
1-Feb-17,91.17,91.17,89.39,89.70,2884156
31-Jan-17,90.10,90.67,88.95,90.62,1326870
30-Jan-17,89.60,90.33,88.01,90.12,1585650
27-Jan-17,89.01,90.50,88.71,90.09,1980966
26-Jan-17,92.01,92.98,89.41,89.48,4369411
25-Jan-17,84.91,86.96,84.49,86.36,2686379
24-Jan-17,83.86,84.59,82.14,83.97,1487810
23-Jan-17,83.84,83.91,82.26,83.25,988780
20-Jan-17,83.12,84.27,83.11,83.40,1251869
19-Jan-17,82.96,83.60,82.39,82.70,1302082
18-Jan-17,83.01,84.35,82.69,82.85,1466114
17-Jan-17,83.08,83.25,81.29,81.41,879932
13-Jan-17,83.82,84.00,82.63,83.53,745833
12-Jan-17,83.02,83.76,80.91,83.46,1397980
11-Jan-17,81.26,84.90,81.26,83.90,2084701
10-Jan-17,82.25,82.43,81.14,81.67,1268804
9-Jan-17,81.80,82.57,81.30,82.00,1339252
6-Jan-17,79.24,82.39,78.90,82.10,1686580
5-Jan-17,78.71,79.67,78.34,79.13,1564020
4-Jan-17,76.09,78.98,75.89,78.83,2015348
3-Jan-17,75.31,76.99,74.63,75.66,1101812
30-Dec-16,75.11,75.44,73.66,74.34,1051731
29-Dec-16,75.17,75.61,74.20,74.94,759288
28-Dec-16,76.76,77.05,75.14,75.22,978396
27-Dec-16,76.01,77.40,76.00,76.88,548764
23-Dec-16,74.60,76.07,74.36,76.02,606186
22-Dec-16,76.92,77.05,74.17,74.55,1365586
21-Dec-16,78.04,78.04,76.03,77.25,1019091
20-Dec-16,78.10,78.52,77.18,78.30,907959
19-Dec-16,77.72,78.08,77.20,77.50,974827
16-Dec-16,79.46,79.88,77.26,77.86,1338069
15-Dec-16,78.93,80.27,78.86,79.43,741625
14-Dec-16,79.62,79.65,78.58,78.95,1008138
13-Dec-16,78.69,80.70,78.69,79.39,864146
12-Dec-16,78.85,78.85,76.76,77.88,1691541
9-Dec-16,80.73,81.59,79.22,79.40,903045
8-Dec-16,80.40,80.78,79.52,80.11,1298916
7-Dec-16,80.17,80.17,78.22,79.98,1414132
6-Dec-16,80.00,80.00,78.47,79.61,1657291
5-Dec-16,77.33,79.97,77.26,79.87,2173146
2-Dec-16,72.85,76.71,72.80,76.56,3102889
1-Dec-16,83.20,83.50,76.34,77.09,3124201
30-Nov-16,84.25,84.77,82.66,83.15,1563986
29-Nov-16,84.85,85.50,83.27,83.42,1562207
28-Nov-16,87.70,88.40,84.56,84.82,1816839
25-Nov-16,86.91,88.39,86.50,87.74,718825
23-Nov-16,85.93,87.66,85.93,87.05,1353018
22-Nov-16,86.26,86.68,85.42,86.23,1344873
21-Nov-16,85.80,87.00,85.75,86.55,1505479
18-Nov-16,87.01,87.79,85.50,85.75,1248346
17-Nov-16,85.77,87.17,85.50,86.83,917025
16-Nov-16,85.24,86.03,84.89,85.67,1065705
15-Nov-16,83.43,86.22,83.20,85.62,1653743
14-Nov-16,82.89,83.92,82.30,83.27,1359244
11-Nov-16,81.81,82.83,80.50,82.63,1852041
10-Nov-16,85.75,87.70,82.05,82.14,2600944
9-Nov-16,83.99,86.05,83.34,84.98,1358110
8-Nov-16,84.47,86.00,83.75,85.50,1136169
7-Nov-16,84.77,85.82,84.39,85.09,1409303
4-Nov-16,84.00,84.77,83.10,83.21,1630834
3-Nov-16,84.57,85.09,83.53,83.88,1629300
2-Nov-16,86.02,86.92,84.55,84.59,1646665
1-Nov-16,87.45,87.56,85.91,86.89,2562482
31-Oct-16,86.13,88.04,85.89,87.91,2791016
28-Oct-16,85.21,87.39,84.58,86.12,3102319
27-Oct-16,86.82,89.79,84.56,84.96,11112308
26-Oct-16,79.51,79.98,78.61,78.90,2292025
25-Oct-16,81.13,81.95,79.41,79.79,2117039
24-Oct-16,80.39,81.58,80.16,81.00,2127620
21-Oct-16,78.45,80.26,78.19,80.06,1455325
20-Oct-16,78.71,79.00,78.19,78.85,1561409
19-Oct-16,79.17,80.15,78.16,78.92,3482034
18-Oct-16,76.39,77.97,75.61,76.16,1000930
17-Oct-16,75.73,75.74,74.26,74.64,1033151
14-Oct-16,76.15,76.44,75.06,75.62,1582905
13-Oct-16,74.75,75.62,73.85,75.39,1489602
12-Oct-16,76.63,77.07,73.02,75.27,3202088
11-Oct-16,80.25,80.80,78.36,78.80,1674897
10-Oct-16,79.04,80.49,79.04,80.03,1057114
7-Oct-16,78.15,78.95,77.47,78.52,1293500
6-Oct-16,79.49,79.91,77.97,78.38,1167968
5-Oct-16,78.95,80.02,78.80,79.43,1086640
4-Oct-16,79.59,79.84,78.43,79.28,1442289
3-Oct-16,79.07,79.72,78.40,79.57,1056740
30-Sep-16,78.76,79.70,78.06,79.15,1568362
29-Sep-16,79.41,80.10,77.73,78.48,1028976
28-Sep-16,79.09,80.31,79.09,79.77,1892963
27-Sep-16,76.49,79.20,76.35,79.04,1506507
26-Sep-16,77.13,77.23,76.41,76.75,909128
23-Sep-16,77.51,77.78,76.80,77.45,1205559
22-Sep-16,77.45,78.17,76.91,77.92,1406411
21-Sep-16,75.92,76.92,74.96,76.88,1145783
20-Sep-16,75.52,76.09,74.78,75.28,1123610
19-Sep-16,77.88,78.20,75.90,75.99,923852
16-Sep-16,77.05,78.35,76.78,77.29,2113666
15-Sep-16,73.27,77.75,72.98,77.71,3084080
14-Sep-16,72.47,73.28,71.98,72.56,1296083
13-Sep-16,73.61,74.27,71.34,72.42,1997359
12-Sep-16,73.22,74.71,72.69,74.53,703952
9-Sep-16,74.82,75.36,73.35,73.58,844546
8-Sep-16,76.40,76.65,74.94,75.40,1154927
7-Sep-16,77.38,78.39,76.48,76.56,1722223
6-Sep-16,76.73,77.99,75.98,77.72,2139756
2-Sep-16,74.10,76.86,74.10,76.24,1989297
1-Sep-16,72.13,74.09,71.93,74.00,1548071
31-Aug-16,72.70,72.80,71.74,72.67,956952
30-Aug-16,73.30,73.75,73.09,73.44,876132
29-Aug-16,73.61,73.83,72.92,73.39,884961
26-Aug-16,73.42,74.08,72.88,73.50,746441
25-Aug-16,73.17,74.91,72.78,73.60,1017541
24-Aug-16,72.44,73.46,72.44,72.77,1017523
23-Aug-16,72.00,73.00,71.80,72.62,1007015
22-Aug-16,73.63,73.70,71.24,71.39,1350694
19-Aug-16,72.86,73.96,72.58,73.69,736325
18-Aug-16,73.24,73.63,72.48,73.07,1044519
17-Aug-16,74.21,74.70,72.68,73.07,1165807
16-Aug-16,76.41,76.48,74.50,74.52,894982
15-Aug-16,75.84,76.81,75.15,76.74,861619
12-Aug-16,75.53,75.80,74.96,75.77,1079568
11-Aug-16,74.64,76.29,74.50,76.09,1264832
10-Aug-16,75.00,75.08,74.27,74.55,667905
9-Aug-16,74.82,75.28,74.67,75.00,733138
8-Aug-16,75.00,75.63,74.64,74.94,1121047
5-Aug-16,75.09,75.99,74.89,75.83,883370
4-Aug-16,73.87,75.03,73.87,74.94,1716316
3-Aug-16,72.81,74.39,72.50,74.27,2010446
2-Aug-16,74.59,74.82,71.69,73.23,2148451
1-Aug-16,74.79,75.45,74.05,75.07,1286223
29-Jul-16,75.90,75.90,73.44,74.92,2495854
28-Jul-16,75.40,78.77,74.15,76.38,3991920
27-Jul-16,74.00,75.00,72.48,72.98,2139363
26-Jul-16,73.56,73.98,72.96,73.34,1116141
25-Jul-16,72.84,74.18,72.61,73.56,1383216
22-Jul-16,71.55,73.14,70.76,72.67,1133937
21-Jul-16,72.40,72.93,70.60,71.05,1358073
20-Jul-16,70.68,73.42,70.11,72.65,1755930
19-Jul-16,69.83,70.91,69.63,69.99,939526
18-Jul-16,70.82,70.90,69.68,69.83,1429739
15-Jul-16,71.47,71.63,70.33,71.02,1228439
14-Jul-16,70.85,71.26,70.15,70.16,842776
13-Jul-16,71.67,72.76,70.07,70.15,1821131
12-Jul-16,69.34,72.33,68.12,70.46,1857852
11-Jul-16,69.41,70.28,68.80,68.85,1135509
8-Jul-16,65.41,69.63,65.41,69.12,2096340
7-Jul-16,65.55,65.69,64.75,65.01,1304048
6-Jul-16,65.05,65.56,64.31,65.33,1171912
5-Jul-16,65.91,65.91,64.77,65.27,1539214
1-Jul-16,66.52,67.45,66.01,66.21,817226
30-Jun-16,67.00,67.00,64.90,66.40,1715743
29-Jun-16,65.83,66.98,65.57,66.44,1484828
28-Jun-16,65.00,65.70,63.88,65.13,2255759
27-Jun-16,69.67,69.86,63.51,63.67,3034057
24-Jun-16,72.57,73.22,70.21,70.33,2646412
23-Jun-16,72.15,75.19,71.75,75.18,1363638
22-Jun-16,72.47,72.62,71.80,71.92,752321
21-Jun-16,72.86,73.14,71.87,72.73,927375
20-Jun-16,73.17,73.63,72.50,72.60,1109235
17-Jun-16,73.27,74.53,71.62,72.07,1774359
16-Jun-16,73.81,73.96,72.68,73.68,776917
15-Jun-16,73.12,75.09,73.01,74.47,1080471
14-Jun-16,72.51,73.52,72.19,72.98,934759
13-Jun-16,73.32,74.38,72.55,72.71,1753940
10-Jun-16,74.68,75.09,73.79,74.03,1391166
9-Jun-16,76.43,77.26,75.40,75.56,855972
8-Jun-16,75.96,77.76,75.40,77.04,2531027
7-Jun-16,74.88,76.07,74.05,76.02,1978637
6-Jun-16,73.69,75.24,73.46,75.06,1079295
3-Jun-16,73.82,74.00,72.86,73.53,1102676
2-Jun-16,72.79,74.26,72.51,74.23,1184705
1-Jun-16,71.38,73.50,71.06,73.17,1889654
31-May-16,70.58,71.69,70.27,71.63,2295437
27-May-16,69.91,70.89,68.91,70.73,1349660
26-May-16,70.71,71.06,69.94,70.05,1171732
25-May-16,71.35,71.50,70.63,70.76,1116040
24-May-16,70.54,71.81,70.09,70.98,1502533
23-May-16,69.57,71.13,69.39,70.23,1180692
20-May-16,70.38,70.77,68.08,70.00,2883189
19-May-16,71.00,72.00,69.61,69.75,1920294
18-May-16,69.59,71.05,69.23,70.03,1005336
17-May-16,70.17,70.51,68.96,69.50,1180227
16-May-16,67.56,70.45,67.29,70.30,1943774
13-May-16,67.26,68.38,66.84,67.44,1476993
12-May-16,69.29,69.58,67.20,67.47,1688445
11-May-16,68.51,70.12,68.42,68.64,1560243
10-May-16,67.44,68.70,67.18,68.53,1400922
9-May-16,66.85,68.30,66.80,67.43,918759
6-May-16,67.05,67.74,65.83,67.28,1612833
5-May-16,68.07,68.63,67.26,67.79,1510183
4-May-16,69.48,69.83,67.52,67.61,1698288
3-May-16,70.84,71.09,69.14,69.84,1597993
2-May-16,71.45,72.10,70.86,72.02,1156639
29-Apr-16,71.34,72.13,70.17,71.48,1780051
28-Apr-16,73.12,73.64,71.12,71.37,1414001
27-Apr-16,72.25,73.81,72.25,73.15,1523070
26-Apr-16,73.42,73.49,72.07,72.66,1395811
25-Apr-16,73.35,74.57,73.00,73.41,2525077
22-Apr-16,73.44,73.75,71.80,73.11,3253622
21-Apr-16,74.77,76.84,73.21,74.27,8393397
20-Apr-16,64.18,65.50,63.88,65.11,2749187
19-Apr-16,64.47,64.74,62.55,63.67,2091683
18-Apr-16,63.20,64.90,63.02,64.47,2259238
15-Apr-16,63.18,63.42,62.46,63.28,1188624
14-Apr-16,63.08,63.50,61.90,63.00,3443582
13-Apr-16,62.47,63.93,61.43,63.77,1775442
12-Apr-16,62.99,63.32,61.55,61.75,2461342
11-Apr-16,64.87,65.33,63.18,63.31,1348227
8-Apr-16,64.36,65.03,63.79,64.50,1236110
7-Apr-16,63.59,64.82,63.32,64.02,1301832
6-Apr-16,63.74,64.11,62.91,63.84,1775709
5-Apr-16,63.47,64.41,63.11,63.65,1670900
4-Apr-16,62.07,64.37,61.96,64.28,2272130
1-Apr-16,61.13,62.25,60.05,62.03,1536951
31-Mar-16,60.90,61.41,59.93,61.18,2374217
30-Mar-16,61.50,62.43,61.02,61.07,1661909
29-Mar-16,60.24,61.37,59.93,61.14,1557474
28-Mar-16,61.64,61.67,59.77,60.34,1616740
24-Mar-16,61.53,61.72,60.83,61.69,1052252
23-Mar-16,62.20,63.12,62.00,62.25,2035799
22-Mar-16,60.42,62.82,60.25,62.32,1621904
21-Mar-16,60.25,61.32,59.91,61.05,1377751
18-Mar-16,61.05,61.34,59.94,60.15,2735886
17-Mar-16,62.33,62.76,60.15,60.80,2468105
16-Mar-16,61.35,62.64,60.97,62.37,1191318
15-Mar-16,61.89,62.07,60.75,61.65,1523265
14-Mar-16,62.84,63.11,61.86,62.35,1795508
11-Mar-16,61.10,63.68,60.94,63.35,2121435
10-Mar-16,61.40,62.32,59.76,60.72,2295696
9-Mar-16,60.54,60.58,59.25,60.49,2206174
8-Mar-16,58.41,61.06,58.15,60.34,3015875
7-Mar-16,57.99,58.80,56.58,58.22,1393689
4-Mar-16,58.87,59.56,58.13,58.50,1906091
3-Mar-16,57.36,58.40,56.74,58.36,2307961
2-Mar-16,57.50,58.11,56.62,57.66,2043385
1-Mar-16,55.84,57.85,55.36,57.85,3652317
29-Feb-16,55.25,56.23,54.94,54.99,1935800
26-Feb-16,54.58,56.20,54.27,55.51,2586441
25-Feb-16,53.11,55.00,52.77,54.16,2703306
24-Feb-16,52.02,52.75,50.00,52.55,2688979
23-Feb-16,54.24,54.39,51.45,53.01,2872701
22-Feb-16,55.10,56.35,54.25,54.69,2461055
19-Feb-16,54.22,55.62,54.06,54.74,2840101
18-Feb-16,55.53,55.84,54.22,54.26,3249209
17-Feb-16,52.50,55.55,52.31,55.26,5309211
16-Feb-16,50.59,52.26,49.95,52.04,2719037
12-Feb-16,49.48,50.29,48.11,50.08,2099322
11-Feb-16,49.13,49.64,47.31,49.03,2912991
10-Feb-16,48.67,51.80,48.67,49.99,3093729
9-Feb-16,46.60,49.33,46.12,48.52,5447852
8-Feb-16,50.92,51.12,46.00,47.14,6509499
5-Feb-16,54.12,55.47,49.46,52.31,7257300
4-Feb-16,58.85,60.25,58.39,58.62,3634546
3-Feb-16,57.57,59.44,56.67,59.30,3644925
2-Feb-16,61.48,61.64,56.83,57.25,4793060
1-Feb-16,61.60,62.83,61.44,61.96,2667255
29-Jan-16,63.99,65.51,60.71,62.21,7140490
28-Jan-16,57.82,64.38,57.67,63.57,19775122
27-Jan-16,77.12,77.60,74.53,75.37,3820517
26-Jan-16,76.12,78.19,75.27,77.96,2496382
25-Jan-16,76.44,77.16,75.06,76.10,1840679
22-Jan-16,75.58,76.76,75.58,76.67,1270960
21-Jan-16,74.74,76.11,73.62,74.41,1921763
20-Jan-16,73.25,75.32,70.14,74.31,2111375
19-Jan-16,77.16,77.79,73.67,74.32,1957624
15-Jan-16,76.12,77.26,74.72,76.34,1773817
14-Jan-16,77.23,78.50,73.91,78.21,1497984
13-Jan-16,81.09,81.79,75.49,76.79,1889658
12-Jan-16,79.73,81.49,79.73,80.99,1665225
11-Jan-16,78.72,79.06,77.20,78.53,1113587
8-Jan-16,80.11,80.65,77.89,78.12,1219886
7-Jan-16,79.68,81.65,78.93,79.64,1553068
6-Jan-16,82.88,83.06,80.70,81.42,1418179
5-Jan-16,84.51,85.55,83.47,84.00,1328660
4-Jan-16,84.98,85.67,83.17,84.07,1273607
31-Dec-15,87.38,87.61,85.99,86.56,708460
30-Dec-15,88.20,88.36,87.13,87.38,691955
29-Dec-15,87.47,88.56,87.36,88.12,1121871
28-Dec-15,86.64,87.26,86.29,86.89,471582
24-Dec-15,86.80,87.36,86.59,86.96,251290
23-Dec-15,86.97,87.63,86.40,86.89,920030
22-Dec-15,87.50,87.55,86.07,86.48,1032726
21-Dec-15,86.93,87.10,86.12,87.02,1457278
18-Dec-15,87.18,87.82,85.72,85.73,3043639
17-Dec-15,87.51,88.22,85.69,87.27,1570496
16-Dec-15,85.99,87.60,84.94,87.39,1566858
15-Dec-15,84.03,86.29,84.03,85.60,1422616
14-Dec-15,83.47,84.25,82.12,83.57,1640135
11-Dec-15,85.97,87.00,83.17,83.49,1901100
10-Dec-15,86.07,87.88,85.97,86.94,1115371
9-Dec-15,87.28,87.66,85.72,86.10,1167220
8-Dec-15,87.07,88.47,85.65,87.72,1385633
7-Dec-15,89.53,89.90,87.63,87.98,1237233
4-Dec-15,88.10,91.28,88.10,89.99,1821500
3-Dec-15,88.32,90.54,87.56,88.09,2277887
2-Dec-15,87.00,88.90,86.80,87.53,1856273
1-Dec-15,87.27,87.42,86.13,86.47,1420761
30-Nov-15,87.58,87.58,86.14,87.01,1137745
27-Nov-15,86.74,87.74,86.66,87.29,420550
25-Nov-15,86.67,87.73,86.66,86.89,665063
24-Nov-15,85.71,86.86,85.15,86.70,832124
23-Nov-15,86.07,87.70,85.82,86.46,880129
20-Nov-15,86.14,87.21,85.77,86.19,1434471
19-Nov-15,86.00,86.99,85.55,85.75,1600750
18-Nov-15,85.00,85.95,84.28,85.75,1946884
17-Nov-15,84.40,85.53,84.00,84.91,921363
16-Nov-15,82.57,84.64,82.04,84.37,763462
13-Nov-15,84.04,84.64,82.32,82.88,1106665
12-Nov-15,83.49,85.25,82.89,84.50,1052711
11-Nov-15,84.00,84.67,83.08,83.90,856050
10-Nov-15,83.73,84.50,83.21,84.15,1302264
9-Nov-15,85.00,85.53,84.07,84.60,1355641
6-Nov-15,84.12,85.88,84.00,85.24,1344942
5-Nov-15,83.23,84.49,82.79,83.91,1308872
4-Nov-15,82.67,84.40,82.16,83.84,1734920
3-Nov-15,82.00,83.68,81.18,82.53,1266314
2-Nov-15,81.68,82.42,80.64,82.02,798762
30-Oct-15,81.94,82.35,80.90,81.65,1415751
29-Oct-15,82.01,82.91,81.38,81.56,799391
28-Oct-15,80.08,82.18,79.72,82.15,1742556
27-Oct-15,78.37,80.47,78.17,80.17,1786373
26-Oct-15,78.87,79.30,77.75,78.80,938196
23-Oct-15,78.19,78.96,75.32,78.89,2619981
22-Oct-15,72.31,78.61,72.29,77.95,3980849
21-Oct-15,74.94,75.13,72.96,73.02,2530440
20-Oct-15,75.92,76.59,74.32,74.73,1156564
19-Oct-15,76.34,76.73,74.87,75.79,1033430
16-Oct-15,75.38,76.49,75.07,76.46,1051428
15-Oct-15,73.99,76.30,73.92,75.64,1289136
14-Oct-15,74.02,75.02,73.43,73.90,1022964
13-Oct-15,74.08,76.21,73.60,74.16,767871
12-Oct-15,74.34,75.24,73.56,74.28,555590
9-Oct-15,73.12,74.72,72.18,74.42,942283
8-Oct-15,74.93,74.93,71.77,73.02,1679374
7-Oct-15,75.23,75.27,73.02,74.97,1845865
6-Oct-15,75.90,76.91,74.25,74.58,1272359
5-Oct-15,72.62,76.53,72.40,76.47,1818478
2-Oct-15,70.35,72.26,69.90,72.23,924013
1-Oct-15,69.14,71.65,67.65,71.58,1777500
30-Sep-15,69.72,70.30,67.07,69.45,1692959
29-Sep-15,68.97,69.65,67.76,68.94,1083242
28-Sep-15,72.63,72.81,68.76,69.03,1755892
25-Sep-15,73.13,74.48,71.94,72.86,2369565
24-Sep-15,72.69,72.73,70.97,72.12,1107952
23-Sep-15,73.18,74.25,72.38,72.99,798083
22-Sep-15,73.27,73.75,72.17,73.06,1063798
21-Sep-15,74.78,75.62,73.64,74.41,1010426
18-Sep-15,73.72,75.02,73.63,74.36,1424345
17-Sep-15,73.61,75.54,73.57,74.61,720911
16-Sep-15,74.41,74.62,73.37,73.94,894759
15-Sep-15,73.65,74.36,73.03,74.26,761367
14-Sep-15,73.57,73.87,72.35,73.56,1044612
11-Sep-15,72.75,73.66,71.88,73.60,838714
10-Sep-15,71.64,73.24,71.64,72.66,860615
9-Sep-15,73.75,74.44,71.81,72.02,1234610
8-Sep-15,70.98,73.45,70.70,73.33,1345191
4-Sep-15,70.21,70.75,69.25,69.79,1064583
3-Sep-15,70.34,71.93,70.07,71.22,1544640
2-Sep-15,69.57,69.96,67.85,69.95,1781722
1-Sep-15,69.59,70.87,68.65,68.92,1573545
31-Aug-15,72.15,72.78,70.84,70.96,1003264
28-Aug-15,72.36,73.37,71.54,72.54,856536
27-Aug-15,71.94,73.26,70.42,72.36,1580744
26-Aug-15,70.34,71.69,68.88,71.41,1667547
25-Aug-15,70.80,72.13,68.24,68.67,1896217
24-Aug-15,65.97,71.96,64.29,68.00,3299850
21-Aug-15,69.43,71.00,68.55,69.91,1831991
20-Aug-15,74.88,74.95,70.16,70.31,1680370
19-Aug-15,76.50,76.54,74.80,75.63,1155708
18-Aug-15,77.28,77.88,75.82,75.89,588102
17-Aug-15,76.03,77.28,75.82,77.25,634204
14-Aug-15,75.50,76.75,74.59,76.63,805873
13-Aug-15,76.71,77.05,74.73,75.70,912878
12-Aug-15,75.90,76.91,74.44,76.85,1092566
11-Aug-15,75.80,77.10,75.30,76.67,710925
10-Aug-15,77.54,77.84,76.32,76.59,879544
7-Aug-15,75.91,77.00,74.91,76.95,932599
6-Aug-15,78.28,78.28,75.42,75.99,1678395
5-Aug-15,78.22,79.89,78.02,78.41,1171986
4-Aug-15,79.28,79.48,77.20,77.91,1973169
3-Aug-15,80.50,80.96,78.56,79.15,1192544
31-Jul-15,80.24,81.13,79.38,80.50,1827644
30-Jul-15,78.48,81.21,76.60,81.03,3264682
29-Jul-15,76.90,78.50,74.95,77.98,3943093
28-Jul-15,76.77,78.88,76.08,78.63,1055265
27-Jul-15,78.85,78.89,76.12,76.34,1579381
24-Jul-15,78.47,80.97,77.51,79.64,1436829
23-Jul-15,78.32,79.25,77.47,78.02,920539
22-Jul-15,78.11,78.94,77.77,77.85,622938
21-Jul-15,78.81,79.68,77.97,78.57,574712
20-Jul-15,79.17,79.33,78.57,78.84,453030
17-Jul-15,79.12,80.23,78.57,78.92,809530
16-Jul-15,78.15,79.15,77.84,78.92,665940
15-Jul-15,77.60,78.42,76.96,77.58,911704
14-Jul-15,76.70,78.85,76.70,77.41,998335
13-Jul-15,77.34,77.55,75.81,76.60,999372
10-Jul-15,77.15,77.58,76.62,76.74,656492
9-Jul-15,75.61,77.05,75.61,76.18,931106
8-Jul-15,74.99,76.04,74.21,74.83,703239
7-Jul-15,73.87,75.86,72.08,75.68,1380385
6-Jul-15,73.40,74.72,73.07,73.70,1079502
2-Jul-15,73.87,74.60,73.16,74.53,801960
1-Jul-15,75.42,75.63,73.47,73.90,1072951
30-Jun-15,74.30,74.71,73.60,74.31,1113588
29-Jun-15,75.81,76.61,73.46,73.77,1309288
26-Jun-15,79.27,79.27,75.31,77.02,2086614
25-Jun-15,77.82,79.32,77.75,78.92,1071705
24-Jun-15,80.39,80.64,77.13,77.47,1693316
23-Jun-15,80.90,80.90,80.04,80.75,674390
22-Jun-15,81.00,81.67,79.63,80.32,928917
19-Jun-15,81.32,81.32,80.01,80.38,1932027
18-Jun-15,80.19,81.15,79.20,80.97,1598142
17-Jun-15,79.51,80.89,79.37,79.92,1313619
16-Jun-15,77.57,79.43,77.35,79.40,941310
15-Jun-15,77.07,77.87,76.46,77.64,673985
12-Jun-15,77.33,78.28,77.33,77.94,580551
11-Jun-15,78.00,78.68,77.11,77.73,822048
10-Jun-15,75.90,77.82,75.24,77.70,1263542
9-Jun-15,75.11,76.18,73.66,75.66,1288967
8-Jun-15,76.78,77.10,74.67,74.67,1155008
5-Jun-15,74.91,77.16,74.91,76.89,1139698
4-Jun-15,76.20,77.12,74.95,75.46,953892
3-Jun-15,75.39,76.80,75.23,76.61,898309
2-Jun-15,75.60,75.91,75.04,75.38,1134658
1-Jun-15,76.64,76.90,75.02,75.68,1360233
29-May-15,77.97,78.05,76.02,76.61,2922551
28-May-15,78.00,79.13,77.62,78.40,1364888
27-May-15,77.25,78.65,75.66,78.39,1488124
26-May-15,78.34,78.69,76.95,77.71,1019941
22-May-15,78.58,79.00,77.60,78.76,1214417
21-May-15,77.74,78.96,77.55,78.87,1153981
20-May-15,77.72,77.91,76.26,77.45,1826597
19-May-15,77.24,78.27,76.77,77.78,1521638
18-May-15,75.32,77.53,75.32,77.26,990633
15-May-15,76.01,76.35,75.04,75.71,867009
14-May-15,75.34,77.14,74.46,76.05,1571727
13-May-15,74.39,75.31,73.46,75.11,1600992
12-May-15,73.00,74.98,72.09,74.26,837206
11-May-15,73.71,74.66,73.39,73.99,758603
8-May-15,74.85,76.26,73.90,73.91,1862694
7-May-15,73.29,74.41,73.05,74.01,682915
6-May-15,73.50,73.98,72.34,73.30,889629
5-May-15,73.00,73.79,71.42,73.28,1886343
4-May-15,73.73,74.54,73.42,73.61,869202
1-May-15,74.57,75.48,73.52,73.75,1455840
30-Apr-15,76.66,77.57,74.57,74.86,1728100
29-Apr-15,74.62,79.50,73.64,77.47,2818653
28-Apr-15,74.98,75.96,74.00,74.99,1127210
27-Apr-15,76.79,76.79,74.42,74.76,1342558
24-Apr-15,77.31,77.34,76.01,76.09,1380861
23-Apr-15,77.10,77.71,76.75,76.88,1803694
22-Apr-15,77.93,78.23,76.70,77.72,2243700
21-Apr-15,75.51,77.81,75.51,77.50,3631247
20-Apr-15,73.60,75.66,72.78,74.64,3783547
17-Apr-15,74.75,74.99,70.32,73.29,13045713
16-Apr-15,80.36,83.45,80.30,82.84,4304118
15-Apr-15,80.46,80.95,79.71,80.75,1159462
14-Apr-15,80.74,81.09,79.50,80.20,1003516
13-Apr-15,82.79,83.52,80.66,80.73,1218535
10-Apr-15,81.77,82.36,81.11,82.34,698868
9-Apr-15,80.72,81.90,79.78,81.74,872934
8-Apr-15,78.76,81.00,78.76,80.84,1137380
7-Apr-15,78.69,79.95,78.32,78.47,842051
6-Apr-15,76.93,79.10,75.98,78.24,1790022
2-Apr-15,75.75,76.23,75.14,76.12,1129214
1-Apr-15,78.55,78.77,75.13,75.65,1987612
31-Mar-15,79.26,80.04,78.61,78.78,975037
30-Mar-15,78.96,80.00,78.83,79.44,611638
27-Mar-15,77.31,78.80,76.90,78.47,782538
26-Mar-15,75.56,77.68,75.00,77.03,1620989
25-Mar-15,79.49,79.49,76.11,76.20,1430948
24-Mar-15,79.28,80.39,79.05,79.25,654940
23-Mar-15,79.37,79.82,78.76,79.28,570245
20-Mar-15,80.54,81.00,79.00,79.38,1304932
19-Mar-15,79.88,80.99,79.85,80.46,702245
18-Mar-15,80.00,81.00,79.06,80.05,1126086
17-Mar-15,79.17,80.15,78.90,79.90,1569093
16-Mar-15,77.26,79.18,76.95,78.65,1212862
13-Mar-15,76.62,77.30,75.97,76.92,1116664
12-Mar-15,74.35,76.66,74.24,76.66,1781380
11-Mar-15,73.75,74.81,73.44,74.24,710221
10-Mar-15,73.60,74.07,72.61,73.59,873527
9-Mar-15,74.00,74.32,72.42,74.24,721651
6-Mar-15,74.28,75.29,73.52,74.06,907379
5-Mar-15,73.60,75.44,73.45,74.70,1052105
4-Mar-15,74.97,75.06,73.37,73.60,1190300
3-Mar-15,76.12,76.94,74.61,75.45,1148099
2-Mar-15,75.97,76.80,75.13,76.44,1382508
27-Feb-15,79.20,79.20,75.95,76.26,3541960
26-Feb-15,80.01,81.24,78.86,79.53,1960209
25-Feb-15,78.17,79.41,78.07,79.03,1422967
24-Feb-15,78.78,79.00,77.93,78.75,1156504
23-Feb-15,78.77,79.37,78.36,78.67,1124221
20-Feb-15,77.91,79.30,77.52,79.06,1004251
19-Feb-15,77.38,78.99,77.07,78.16,1057631
18-Feb-15,77.00,77.72,76.10,77.48,871186
17-Feb-15,77.12,77.25,75.46,76.88,949655
13-Feb-15,76.25,77.64,74.99,77.55,1470870
12-Feb-15,73.88,75.97,73.85,75.95,1488855
11-Feb-15,72.82,74.00,72.46,73.88,1039807
10-Feb-15,73.13,73.54,72.55,73.32,1147954
9-Feb-15,74.27,74.65,72.77,72.88,930630
6-Feb-15,73.92,75.15,73.36,74.94,1053836
5-Feb-15,74.90,75.27,73.79,74.22,1549703
4-Feb-15,72.50,74.75,71.96,74.61,1608777
3-Feb-15,72.99,73.44,71.73,72.65,1335892
2-Feb-15,72.33,73.00,70.07,72.99,2084767
30-Jan-15,72.61,73.45,70.50,72.90,2233462
29-Jan-15,73.05,74.35,70.04,73.88,3751975
28-Jan-15,68.50,70.21,66.94,68.91,2673456
27-Jan-15,67.26,68.18,66.41,67.91,879654
26-Jan-15,68.70,68.70,66.50,68.01,883389
23-Jan-15,66.59,69.50,66.55,68.74,1029797
22-Jan-15,66.19,66.55,64.57,66.14,490190
21-Jan-15,64.71,66.84,64.37,65.52,755601
20-Jan-15,63.84,65.05,62.55,64.83,879205
16-Jan-15,63.62,64.20,63.10,63.96,837187
15-Jan-15,66.69,66.69,63.44,63.63,1017586
14-Jan-15,66.19,66.60,65.42,66.34,755558
13-Jan-15,67.80,69.44,66.46,67.27,628353
12-Jan-15,67.12,68.44,66.50,68.19,799564
9-Jan-15,69.28,69.28,66.23,67.11,1037125
8-Jan-15,67.87,69.08,67.44,68.89,640288
7-Jan-15,66.91,67.47,66.00,67.09,622984
6-Jan-15,67.18,67.87,65.17,66.33,857475
5-Jan-15,66.57,68.37,66.43,67.15,800527
2-Jan-15,67.81,68.49,66.27,67.38,815825
31-Dec-14,67.94,68.93,67.62,67.85,573883
30-Dec-14,68.45,69.17,67.09,67.88,809751
29-Dec-14,69.96,69.96,68.25,68.86,462008
26-Dec-14,69.77,70.90,69.53,70.12,386804
24-Dec-14,69.61,70.45,69.33,69.69,269751
23-Dec-14,70.00,70.64,69.52,69.57,976846
22-Dec-14,69.00,70.54,68.99,69.71,1003743
19-Dec-14,68.22,69.34,68.06,69.10,1560661
18-Dec-14,66.75,68.12,66.68,68.08,1467100
17-Dec-14,64.05,66.02,63.00,65.69,1321841
16-Dec-14,63.90,65.44,62.65,63.58,1760417
15-Dec-14,62.75,63.80,62.09,63.44,1606445
12-Dec-14,60.75,61.83,60.51,61.25,1216581
11-Dec-14,61.89,62.58,61.15,61.35,923921
10-Dec-14,62.53,63.48,60.97,61.26,1409498
9-Dec-14,60.89,62.18,59.58,62.03,724990
8-Dec-14,61.99,63.24,61.32,61.69,1136449
5-Dec-14,62.66,62.81,61.98,62.63,767694
4-Dec-14,61.40,62.68,61.15,62.50,890313
3-Dec-14,61.67,62.10,60.58,61.83,1124047
2-Dec-14,61.78,61.98,60.48,61.73,1429700
1-Dec-14,63.41,63.44,61.16,61.85,1114264
28-Nov-14,62.67,64.66,62.00,63.96,478477
26-Nov-14,63.02,64.55,62.86,63.97,830209
25-Nov-14,63.90,63.98,62.76,62.98,848932
24-Nov-14,64.36,64.57,63.51,63.97,924979
21-Nov-14,65.06,65.75,63.74,63.98,924079
20-Nov-14,63.28,64.60,62.69,64.13,1194901
19-Nov-14,64.94,65.07,62.69,63.72,802579
18-Nov-14,65.21,65.98,64.62,64.98,919149
17-Nov-14,67.01,67.40,64.37,65.32,1129535
14-Nov-14,66.77,67.61,66.51,67.51,614362
13-Nov-14,67.62,68.26,66.51,66.97,773109
12-Nov-14,67.77,68.64,67.35,67.68,1247630
11-Nov-14,68.62,69.00,67.94,68.15,809465
10-Nov-14,67.40,69.34,67.09,68.91,1335740
7-Nov-14,66.66,68.28,66.12,67.79,771728
6-Nov-14,65.69,67.51,65.62,66.85,1408968
5-Nov-14,67.15,67.24,65.24,65.55,922001
4-Nov-14,66.13,67.08,65.96,66.88,838997
3-Nov-14,67.44,67.99,66.01,66.21,1289813
31-Oct-14,67.46,69.87,67.19,67.93,1712333
30-Oct-14,64.69,66.94,63.86,66.42,1119991
29-Oct-14,66.84,66.97,64.95,65.03,1240569
28-Oct-14,64.49,67.15,64.21,66.97,1629132
27-Oct-14,65.14,65.44,63.97,64.09,1145486
24-Oct-14,63.90,66.49,63.70,65.45,2327166
23-Oct-14,59.75,65.48,59.52,64.54,5352417
22-Oct-14,60.48,60.67,57.87,58.07,1799190
21-Oct-14,59.62,61.30,59.54,60.48,1519183
20-Oct-14,60.23,61.12,58.93,59.28,1046322
17-Oct-14,58.21,61.10,57.75,60.38,1557231
16-Oct-14,55.87,58.20,55.56,57.25,1208872
15-Oct-14,55.04,57.97,54.05,57.40,1269597
14-Oct-14,54.93,56.48,54.13,56.03,1943066
13-Oct-14,56.83,57.52,54.11,54.20,1941068
10-Oct-14,57.91,58.66,56.47,56.47,1019894
9-Oct-14,59.28,60.81,58.34,58.36,1275670
8-Oct-14,57.99,59.51,56.30,59.36,801660
7-Oct-14,60.05,60.05,57.72,57.82,713632
6-Oct-14,60.25,61.89,59.96,60.53,1109561
3-Oct-14,58.25,60.38,58.21,60.29,1001882
2-Oct-14,57.44,58.09,55.80,57.92,875111
1-Oct-14,58.49,58.49,56.60,57.30,1079011
30-Sep-14,59.86,60.22,58.17,58.78,1109813
29-Sep-14,58.90,59.80,58.74,59.79,530798
26-Sep-14,58.43,59.79,58.31,59.56,614732
25-Sep-14,59.96,60.15,58.25,58.40,933357
24-Sep-14,59.17,60.36,58.88,60.07,874527
23-Sep-14,60.23,60.68,59.16,59.17,1230872
22-Sep-14,61.96,61.96,60.11,60.60,866771
19-Sep-14,61.76,63.67,61.64,62.34,3001285
18-Sep-14,61.02,61.45,60.23,61.31,853390
17-Sep-14,59.80,61.47,59.69,61.01,1417935
16-Sep-14,58.46,60.26,58.20,59.91,1523292
15-Sep-14,62.43,62.43,57.89,58.98,1442334
12-Sep-14,63.15,63.16,61.14,61.61,1459768
11-Sep-14,62.25,63.39,61.63,63.36,1506014
10-Sep-14,62.20,62.66,61.44,62.48,1483282
9-Sep-14,63.84,63.97,61.96,62.23,1199914
8-Sep-14,62.75,64.98,62.72,64.31,1961649
5-Sep-14,61.21,62.68,60.68,62.47,883329
4-Sep-14,62.80,62.99,60.89,61.26,1121414
3-Sep-14,63.32,63.75,62.26,62.74,1521726
2-Sep-14,61.27,62.88,60.51,62.85,1575306
29-Aug-14,59.78,61.58,59.76,61.13,1675914
28-Aug-14,60.00,60.00,59.36,59.53,884704
27-Aug-14,60.11,60.67,59.56,60.08,1346256
26-Aug-14,58.88,59.99,58.22,59.73,1039000
25-Aug-14,60.00,60.00,58.47,58.82,994297
22-Aug-14,56.97,60.40,56.62,59.62,2087456
21-Aug-14,57.64,57.93,56.57,56.90,833457
20-Aug-14,57.81,58.52,57.14,57.53,1246232
19-Aug-14,56.14,57.78,56.14,57.71,1740805
18-Aug-14,55.35,56.10,55.22,56.00,1456196
15-Aug-14,55.10,55.46,54.11,54.70,937433
14-Aug-14,55.41,55.47,54.56,54.89,725911
13-Aug-14,55.00,55.39,54.53,55.31,1439353
12-Aug-14,56.00,56.27,54.35,54.61,928365
11-Aug-14,55.41,56.07,54.89,55.99,801749
8-Aug-14,55.77,55.77,54.51,55.00,1057876
7-Aug-14,55.77,56.16,54.89,55.36,1035978
6-Aug-14,56.04,56.69,55.19,55.37,1617547
5-Aug-14,57.06,58.11,56.42,56.63,1166539
4-Aug-14,56.83,57.93,56.47,57.71,1196467
1-Aug-14,58.35,59.05,56.03,56.67,1959752
31-Jul-14,57.37,61.45,57.06,58.80,3004535
30-Jul-14,60.00,63.17,59.72,62.64,3376065
29-Jul-14,58.27,59.85,57.88,59.70,1222298
28-Jul-14,59.56,59.97,57.65,58.33,2003642
25-Jul-14,59.02,59.98,58.52,59.73,654031
24-Jul-14,58.37,59.62,58.12,59.43,1168671
23-Jul-14,59.08,59.17,57.87,58.23,976316
22-Jul-14,59.28,60.31,58.36,58.55,1358242
21-Jul-14,57.03,59.04,56.69,58.88,1513650
18-Jul-14,56.94,58.41,56.85,57.52,1457973
17-Jul-14,55.95,57.22,55.95,56.61,2246734
16-Jul-14,56.65,57.16,55.62,56.32,1174742
15-Jul-14,57.67,58.15,55.77,56.02,1432765
14-Jul-14,57.72,59.00,57.08,57.55,1067819
11-Jul-14,57.59,58.02,56.29,57.02,1025836
10-Jul-14,55.68,58.30,54.12,57.50,1511745
9-Jul-14,56.17,56.88,55.31,56.64,1249415
8-Jul-14,59.64,59.72,55.52,55.88,3241249
7-Jul-14,61.33,61.71,59.67,59.93,1308961
3-Jul-14,62.33,62.33,61.19,61.60,598146
2-Jul-14,63.17,63.48,61.70,62.12,1193116
1-Jul-14,62.36,64.61,62.19,63.58,2411900
30-Jun-14,61.40,62.34,61.40,61.96,1523099
27-Jun-14,61.51,62.51,60.65,61.40,4465733
26-Jun-14,61.78,62.18,60.83,61.63,1235869
25-Jun-14,60.89,62.02,60.60,61.93,885292
24-Jun-14,60.94,62.81,60.94,61.09,1353394
23-Jun-14,60.07,61.30,59.52,61.23,1542678
20-Jun-14,60.20,60.52,59.09,60.47,1214393
19-Jun-14,60.75,60.75,59.21,60.02,1036719
18-Jun-14,60.26,60.71,59.25,60.52,1266559
17-Jun-14,59.76,60.43,58.87,60.00,1787368
16-Jun-14,58.96,60.12,58.36,59.96,1630235
13-Jun-14,57.56,59.21,56.96,59.20,1869062
12-Jun-14,57.23,58.90,56.24,57.48,2378429
11-Jun-14,55.63,57.85,55.22,57.80,1763265
10-Jun-14,55.88,56.85,54.95,55.97,1235154
9-Jun-14,56.77,57.49,55.64,55.94,1554737
6-Jun-14,54.07,56.99,53.91,56.61,3493424
5-Jun-14,51.43,53.98,50.79,53.89,2883476
4-Jun-14,50.10,51.42,49.28,51.39,1398711
3-Jun-14,49.90,50.75,48.67,50.41,2854196
2-Jun-14,52.33,52.34,49.46,50.26,3069076
30-May-14,54.06,54.36,51.51,52.31,2385137
29-May-14,53.98,54.78,53.52,54.39,1646967
28-May-14,54.21,54.38,52.13,53.81,3027946
27-May-14,52.75,54.45,52.60,54.30,3130886
23-May-14,50.50,52.96,49.86,52.53,2624243
22-May-14,48.43,50.81,48.00,50.44,1715997
21-May-14,48.63,49.43,47.70,48.37,1192490
20-May-14,48.40,49.26,47.01,48.49,1716616
19-May-14,47.18,48.93,46.80,48.40,1605413
16-May-14,48.00,48.11,46.34,47.39,2116772
15-May-14,47.19,48.04,45.96,47.82,2179449
14-May-14,47.17,48.75,46.81,47.57,1195656
13-May-14,48.28,49.00,47.31,47.33,1920261
12-May-14,46.83,48.94,46.08,48.51,2208986
9-May-14,46.50,47.53,45.87,46.46,2414659
8-May-14,46.49,48.17,45.67,46.74,3065195
7-May-14,49.64,49.74,45.53,47.06,6097622
6-May-14,52.24,52.74,49.46,49.49,2199813
5-May-14,50.56,52.24,49.82,52.22,2522803
2-May-14,50.73,51.94,49.32,51.18,2653418
1-May-14,49.25,53.04,49.02,50.48,3002449
30-Apr-14,49.15,50.10,47.84,49.72,3084026
29-Apr-14,46.40,50.42,46.40,49.17,4090021
28-Apr-14,47.60,49.08,44.17,46.42,5747366
25-Apr-14,49.59,49.86,47.04,47.23,4431647
24-Apr-14,54.70,54.70,45.07,49.88,10450296
23-Apr-14,55.09,55.15,52.52,53.07,3321304
22-Apr-14,53.47,55.33,53.16,55.23,2329370
21-Apr-14,52.10,53.37,51.30,53.15,1806867
17-Apr-14,53.15,53.97,51.90,53.26,1716059
16-Apr-14,52.12,53.51,50.95,53.29,3210096
15-Apr-14,49.94,51.99,48.63,51.71,2539079
14-Apr-14,50.12,51.14,48.80,49.65,2132022
11-Apr-14,49.91,50.84,49.10,49.67,2564341
10-Apr-14,54.74,54.89,49.84,50.63,4070316
9-Apr-14,52.03,55.00,51.15,54.88,4494518
8-Apr-14,51.21,52.25,50.26,50.86,8369294
7-Apr-14,51.75,52.68,49.21,50.94,4198965
4-Apr-14,55.50,55.80,51.87,52.32,5890275
3-Apr-14,61.08,61.33,53.77,54.68,5284710
2-Apr-14,63.23,63.96,60.50,61.27,1637366
1-Apr-14,60.07,62.55,59.71,62.53,2254175
31-Mar-14,58.38,59.95,57.86,59.92,1877135
28-Mar-14,59.28,59.69,57.80,57.91,1526377
27-Mar-14,57.20,59.25,55.14,59.01,3132207
26-Mar-14,60.00,60.71,57.39,57.55,1893272
25-Mar-14,61.80,62.25,57.57,59.21,3398905
24-Mar-14,62.63,63.06,59.58,61.54,2764718
21-Mar-14,66.64,66.64,62.53,62.56,2996497
20-Mar-14,66.87,68.58,66.43,66.60,1109620
19-Mar-14,68.46,68.89,67.00,67.44,825690
18-Mar-14,67.08,69.45,66.51,68.46,1337254
17-Mar-14,66.80,67.97,66.35,66.99,751149
14-Mar-14,67.64,68.04,66.07,66.18,1150727
13-Mar-14,69.29,69.41,66.01,67.74,1233112
12-Mar-14,66.44,68.99,65.80,68.82,1223713
11-Mar-14,67.18,68.18,66.23,66.94,1214781
10-Mar-14,66.94,67.22,65.41,66.90,1529832
7-Mar-14,69.25,69.32,66.26,67.14,1373779
6-Mar-14,70.25,70.40,68.32,68.57,1450626
5-Mar-14,70.72,71.46,69.43,70.03,1322575
4-Mar-14,68.78,71.34,68.74,70.81,1780777
3-Mar-14,66.78,67.98,65.58,67.95,1638195
28-Feb-14,69.69,70.20,65.78,68.06,1804374
27-Feb-14,68.92,71.80,68.92,70.12,2123053
26-Feb-14,68.63,70.42,68.20,68.68,1377859
25-Feb-14,69.00,69.30,67.81,68.76,886425
24-Feb-14,68.88,69.85,68.50,68.90,930726
21-Feb-14,67.45,71.10,67.23,69.28,2324208
20-Feb-14,67.00,67.38,66.04,67.08,790296
19-Feb-14,67.28,67.46,66.02,66.75,817664
18-Feb-14,67.10,67.89,67.00,67.52,1267742
14-Feb-14,67.55,68.00,66.67,67.53,972318
13-Feb-14,65.39,68.48,65.14,67.65,1211641
12-Feb-14,66.18,66.84,65.51,66.19,817222
11-Feb-14,65.50,66.53,65.04,66.13,861955
10-Feb-14,65.96,66.08,65.21,65.84,1523961
7-Feb-14,62.02,67.71,62.02,66.29,2967332
6-Feb-14,63.68,63.91,61.99,62.65,1540199
5-Feb-14,64.34,64.69,61.87,63.53,1993453
4-Feb-14,63.61,64.62,63.14,64.15,2261891
3-Feb-14,63.07,65.19,61.46,62.96,2942191
31-Jan-14,63.99,64.69,62.31,63.43,3252788
30-Jan-14,68.45,70.48,65.27,65.61,6921954
29-Jan-14,58.19,58.22,56.44,57.60,2003631
28-Jan-14,58.27,59.49,57.99,58.96,1527549
27-Jan-14,59.06,59.17,56.07,58.00,2477098
24-Jan-14,62.59,62.82,58.06,58.56,1954727
23-Jan-14,61.09,62.48,60.65,62.46,795725
22-Jan-14,60.80,61.68,60.49,61.48,932346
21-Jan-14,62.24,62.77,60.65,60.80,1688790
17-Jan-14,61.67,63.04,61.58,62.05,1199039
16-Jan-14,60.00,62.23,59.69,61.89,1533023
15-Jan-14,58.00,60.49,58.00,60.31,1530503
14-Jan-14,57.45,58.04,56.45,57.63,1432911
13-Jan-14,59.68,59.98,56.76,57.09,1978785
10-Jan-14,58.02,59.50,57.51,59.38,1302983
9-Jan-14,58.90,59.08,57.45,57.66,1800095
8-Jan-14,58.26,59.08,57.55,57.89,1544901
7-Jan-14,56.07,58.85,56.04,57.78,2306254
6-Jan-14,55.10,56.47,55.10,55.73,1143779
3-Jan-14,54.67,55.70,54.36,55.18,668053
2-Jan-14,55.57,56.71,55.15,55.69,917422
31-Dec-13,55.39,56.04,55.39,56.01,422940
30-Dec-13,55.53,55.67,55.23,55.51,748316
27-Dec-13,55.21,55.63,55.02,55.50,606284
26-Dec-13,54.94,55.13,54.53,55.07,449930
24-Dec-13,54.84,55.22,54.44,55.05,435167
23-Dec-13,54.75,55.84,54.63,55.24,1538099
20-Dec-13,51.23,54.27,51.11,54.21,3200897
19-Dec-13,50.83,51.55,50.15,50.84,1157467
18-Dec-13,51.53,51.88,50.16,51.01,1104845
17-Dec-13,51.10,51.61,50.78,51.43,1238923
16-Dec-13,51.02,51.99,50.62,51.37,1842337
13-Dec-13,49.46,50.84,49.25,50.53,1928554
12-Dec-13,49.35,49.59,48.22,49.00,2265531
11-Dec-13,51.14,51.18,49.31,49.35,1813895
10-Dec-13,50.90,51.35,50.74,50.86,1300286
9-Dec-13,52.98,53.00,51.22,51.63,1604881
6-Dec-13,54.14,54.28,52.53,52.71,861403
5-Dec-13,52.96,54.06,52.49,53.49,1093766
4-Dec-13,51.52,53.32,51.52,53.20,1353981
3-Dec-13,52.06,52.53,51.72,51.98,638293
2-Dec-13,53.20,53.25,51.90,52.34,1120620
29-Nov-13,53.96,54.44,52.42,53.11,589921
27-Nov-13,54.45,54.46,53.40,53.76,740584
26-Nov-13,53.22,55.06,52.64,54.50,7598271
25-Nov-13,55.49,55.50,52.17,52.61,1833010
22-Nov-13,53.25,55.82,52.84,55.42,2571309
21-Nov-13,51.64,52.89,51.14,52.84,1227251
20-Nov-13,51.84,52.52,50.54,51.15,1457035
19-Nov-13,52.01,52.75,51.08,51.85,2327401
18-Nov-13,53.27,53.68,51.43,51.66,1130052
15-Nov-13,53.05,53.49,52.63,53.10,765779
14-Nov-13,53.37,53.86,52.41,52.62,1126311
13-Nov-13,52.00,53.57,51.54,53.54,1145027
12-Nov-13,52.00,52.81,51.50,52.35,1389308
11-Nov-13,51.82,52.49,51.71,51.96,1141227
8-Nov-13,51.53,52.99,51.20,51.86,1963021
7-Nov-13,54.14,54.42,51.52,51.79,3767006
6-Nov-13,55.03,55.35,51.80,53.73,2555604
5-Nov-13,54.16,56.36,53.92,55.36,1294652
4-Nov-13,54.14,54.41,53.71,54.16,1058534
1-Nov-13,54.22,54.51,53.01,53.81,1217870
31-Oct-13,54.17,54.92,52.82,54.61,972204
30-Oct-13,54.03,55.17,53.70,54.10,1058085
29-Oct-13,54.81,55.49,53.93,54.05,1179379
28-Oct-13,56.60,56.94,54.68,54.84,1122317
25-Oct-13,57.55,57.80,56.05,56.69,2050901
24-Oct-13,54.75,58.41,54.75,58.37,3032544
23-Oct-13,54.00,54.00,52.50,52.96,1418262
22-Oct-13,54.22,54.57,52.59,54.08,1281810
21-Oct-13,52.68,54.04,52.68,53.88,1108656
18-Oct-13,52.15,52.38,51.24,51.83,636898
17-Oct-13,51.57,52.00,50.88,51.71,1325430
16-Oct-13,50.11,52.30,50.04,51.85,1204948
15-Oct-13,51.92,51.92,49.68,49.69,1080686
14-Oct-13,51.18,52.90,50.77,51.90,716454
11-Oct-13,51.65,51.89,50.88,51.59,726757
10-Oct-13,49.05,51.82,48.70,51.60,1422388
9-Oct-13,48.92,49.08,47.37,48.08,1583189
8-Oct-13,53.06,53.06,47.64,48.91,4258444
7-Oct-13,54.26,55.46,53.14,53.25,1235713
4-Oct-13,53.09,55.46,52.81,54.43,1688824
3-Oct-13,52.39,52.90,51.56,52.15,1512797
2-Oct-13,51.35,52.42,51.22,52.27,1158196
1-Oct-13,51.60,51.89,50.61,51.49,1288635
30-Sep-13,52.10,52.34,51.17,51.95,1383145
27-Sep-13,52.44,53.00,52.36,52.52,839863
26-Sep-13,52.58,52.78,52.13,52.39,1147424
25-Sep-13,52.68,53.11,52.18,52.35,1009900
24-Sep-13,51.72,53.11,51.57,52.59,1065334
23-Sep-13,52.00,52.39,51.50,51.82,1414366
20-Sep-13,51.63,52.26,51.26,52.23,3878295
19-Sep-13,51.40,51.75,51.08,51.57,990212
18-Sep-13,50.67,51.65,50.44,51.22,2185496
17-Sep-13,48.62,49.41,48.62,49.34,1454753
16-Sep-13,48.96,49.85,48.22,48.75,1324390
13-Sep-13,49.44,49.55,47.34,48.79,1667086
12-Sep-13,50.00,50.35,49.41,49.45,1246351
11-Sep-13,49.86,50.27,49.55,49.89,1184710
10-Sep-13,49.30,49.97,49.15,49.88,927188
9-Sep-13,47.02,49.47,46.61,49.14,1801635
6-Sep-13,47.81,48.00,46.52,46.95,1980283
5-Sep-13,47.25,48.09,46.80,47.60,1251117
4-Sep-13,47.60,47.60,46.12,47.20,1213111
3-Sep-13,47.10,47.64,46.41,46.90,1931287
30-Aug-13,46.90,47.05,45.98,46.88,2180021
29-Aug-13,45.92,47.03,45.90,47.00,766858
28-Aug-13,46.46,46.83,45.87,46.43,1026767
27-Aug-13,46.72,46.72,45.61,46.08,1731510
26-Aug-13,45.82,47.83,45.58,47.35,2248969
23-Aug-13,45.45,46.27,45.45,45.74,1788446
22-Aug-13,45.14,46.60,45.04,45.56,1814773
21-Aug-13,44.20,46.03,44.02,45.46,3527247
20-Aug-13,43.65,44.61,43.52,44.48,895767
19-Aug-13,44.35,44.38,43.66,43.88,1750792
16-Aug-13,43.69,44.61,43.32,44.47,2291121
15-Aug-13,42.92,43.61,42.68,43.61,1890947
14-Aug-13,41.59,43.56,41.53,43.51,1712350
13-Aug-13,42.16,42.16,41.35,41.59,690683
12-Aug-13,41.90,43.00,41.77,42.06,964475
9-Aug-13,42.60,42.96,42.17,42.49,1123500
8-Aug-13,41.71,42.88,41.33,42.68,928916
7-Aug-13,42.24,42.31,41.35,41.64,1371871
6-Aug-13,43.50,43.68,41.93,42.30,2022355
5-Aug-13,45.36,45.36,43.91,44.01,1146878
2-Aug-13,45.60,46.00,45.19,45.62,3912574
1-Aug-13,46.09,47.43,42.57,46.40,4927347
31-Jul-13,43.29,43.91,43.16,43.58,1652124
30-Jul-13,43.75,43.91,42.89,43.21,1061061
29-Jul-13,44.10,44.62,43.60,43.75,889802
26-Jul-13,45.09,45.29,44.05,44.14,712979
25-Jul-13,44.47,45.57,44.47,45.38,807436
24-Jul-13,43.95,44.94,43.95,44.54,1067711
23-Jul-13,44.00,44.00,43.41,43.52,671607
22-Jul-13,44.00,44.01,43.62,43.83,787051
19-Jul-13,44.55,44.55,43.84,43.89,718128
18-Jul-13,43.73,45.07,43.53,44.84,1359531
17-Jul-13,44.36,44.62,43.70,43.73,1135474
16-Jul-13,45.31,45.38,43.91,43.99,1891182
15-Jul-13,45.43,45.92,44.96,45.26,959869
12-Jul-13,44.84,46.54,44.82,45.46,3342527
11-Jul-13,44.02,44.81,43.90,44.43,1840405
10-Jul-13,42.98,44.00,42.89,43.47,941578
9-Jul-13,43.05,43.45,42.18,43.29,1120643
8-Jul-13,43.14,44.00,42.79,42.87,1540328
5-Jul-13,41.77,43.34,41.68,43.31,1393842
3-Jul-13,40.93,41.82,40.93,41.74,1015155
2-Jul-13,40.79,41.28,40.53,41.21,1037346
1-Jul-13,40.21,41.40,39.82,40.79,1504944
28-Jun-13,40.86,41.35,40.21,40.39,4740479
27-Jun-13,41.00,41.40,40.19,40.93,2105140
26-Jun-13,40.00,41.00,39.82,40.89,1638822
25-Jun-13,39.75,40.01,39.04,39.60,905724
24-Jun-13,38.92,40.02,38.12,39.43,1700522
21-Jun-13,38.86,39.28,37.61,39.24,1676949
20-Jun-13,38.31,38.52,37.78,38.33,1137043
19-Jun-13,37.78,39.61,37.78,38.69,1614868
18-Jun-13,38.37,38.44,37.23,37.67,1359900
17-Jun-13,37.76,38.18,37.46,38.04,812868
14-Jun-13,37.92,38.30,37.24,37.25,645753
13-Jun-13,38.33,38.33,35.90,37.93,2043375
12-Jun-13,40.34,40.49,38.23,38.37,2877456
11-Jun-13,39.44,40.24,38.90,39.95,2812188
10-Jun-13,39.34,39.76,38.95,39.65,1532022
7-Jun-13,37.00,39.23,36.61,39.16,1598751
6-Jun-13,35.79,36.75,35.58,36.74,646058
5-Jun-13,35.99,36.10,35.62,35.91,783820
4-Jun-13,36.89,37.31,35.89,36.09,973104
3-Jun-13,36.54,36.77,35.91,36.75,1744551
31-May-13,36.40,37.17,36.15,36.76,1116405
30-May-13,36.84,37.67,36.61,36.77,1360346
29-May-13,36.79,37.07,35.21,36.72,2483287
28-May-13,38.57,38.88,37.25,37.31,624476
24-May-13,37.66,37.86,37.05,37.81,671318
23-May-13,37.72,38.24,36.50,37.65,1123594
22-May-13,40.06,40.98,38.10,38.42,1375630
21-May-13,40.13,40.39,39.26,40.04,1205931
20-May-13,40.48,41.00,39.96,40.31,1829090
17-May-13,39.75,40.48,39.44,40.39,1419734
16-May-13,40.60,41.08,39.65,39.90,1867489
15-May-13,40.08,40.98,40.03,40.53,2086834
14-May-13,39.45,40.34,39.43,40.24,2501168
13-May-13,39.22,40.14,39.05,39.47,1559502
10-May-13,38.54,40.22,38.31,38.99,2530160
9-May-13,39.26,39.60,38.52,38.85,1895091
8-May-13,39.62,40.25,39.29,39.58,1441400
7-May-13,40.58,40.58,39.01,39.52,1846599
6-May-13,41.00,41.00,39.95,40.40,723593
3-May-13,39.73,41.00,38.69,40.95,1527196
2-May-13,39.71,40.17,38.70,39.14,1312634
1-May-13,40.75,40.77,38.65,38.80,2944545
30-Apr-13,41.96,41.97,40.27,40.96,1780145
29-Apr-13,42.40,43.01,42.07,42.09,1030090
26-Apr-13,43.10,43.30,41.85,42.51,2807833
25-Apr-13,40.46,43.99,39.76,43.39,6030135
24-Apr-13,37.51,38.21,37.42,37.62,1159899
23-Apr-13,37.00,38.38,36.85,37.33,1935375
22-Apr-13,36.27,36.87,35.99,36.67,903247
19-Apr-13,36.31,37.85,36.11,36.29,1629144
18-Apr-13,35.81,36.51,35.46,36.07,1248032
17-Apr-13,35.83,36.09,34.98,35.63,693618
16-Apr-13,35.04,36.94,34.95,36.35,1439244
15-Apr-13,34.98,35.54,34.64,34.94,740371
12-Apr-13,35.05,35.57,34.76,35.19,1170675
11-Apr-13,35.67,35.80,34.86,34.99,866955
10-Apr-13,35.69,35.97,35.25,35.85,764896
9-Apr-13,35.51,36.13,35.29,35.76,601101
8-Apr-13,35.24,35.59,35.07,35.55,716381
5-Apr-13,34.28,35.20,34.28,35.17,543711
4-Apr-13,34.45,35.14,34.15,35.05,721345
3-Apr-13,35.64,35.81,33.95,34.53,1100532
2-Apr-13,36.04,36.06,35.32,35.71,839655
1-Apr-13,36.20,36.50,34.78,35.23,1391364
28-Mar-13,36.74,37.24,35.92,36.20,744062
27-Mar-13,36.12,36.69,35.93,36.21,608468
26-Mar-13,36.35,36.38,35.68,36.14,583549
25-Mar-13,36.38,36.51,35.74,36.05,472902
22-Mar-13,36.31,36.49,35.83,36.27,723317
21-Mar-13,34.60,36.17,34.44,36.00,1497838
20-Mar-13,35.36,35.44,34.44,34.76,877906
19-Mar-13,35.77,36.03,34.39,34.46,1187341
18-Mar-13,36.64,36.64,35.40,35.63,1541037
15-Mar-13,37.58,37.75,37.09,37.10,1552013
14-Mar-13,37.83,37.87,36.57,37.45,1129556
13-Mar-13,37.88,38.18,37.01,37.61,996665
12-Mar-13,37.00,38.22,37.00,37.83,1856652
11-Mar-13,36.91,37.14,35.72,37.00,1185091
8-Mar-13,36.95,36.95,36.33,36.66,610778
7-Mar-13,36.82,37.00,36.45,36.77,572119
6-Mar-13,36.41,37.47,35.72,36.95,2400679
5-Mar-13,33.65,36.82,33.33,36.57,3713928
4-Mar-13,32.49,33.78,32.48,33.68,1298654
1-Mar-13,32.06,33.01,31.69,32.79,1562298
28-Feb-13,32.14,32.55,31.78,32.47,937468
27-Feb-13,31.59,33.63,31.26,32.20,1950699
26-Feb-13,31.88,32.11,30.89,31.25,2125433
25-Feb-13,33.48,33.75,32.00,32.17,1357574
22-Feb-13,31.45,33.86,31.11,33.48,2128899
21-Feb-13,32.13,32.90,31.14,31.54,2572411
20-Feb-13,33.40,33.92,32.84,32.96,1475926
19-Feb-13,33.66,34.33,32.86,33.46,3227865
15-Feb-13,33.00,34.12,32.34,33.86,3513390
14-Feb-13,30.63,33.21,30.40,32.88,5687739
13-Feb-13,29.00,29.89,28.70,29.78,2704707
12-Feb-13,29.50,29.75,29.04,29.25,679215
11-Feb-13,29.75,29.75,29.15,29.55,721366
8-Feb-13,29.35,29.83,29.24,29.83,1021258
7-Feb-13,29.42,29.45,28.58,29.42,1065994
6-Feb-13,29.36,29.78,29.36,29.72,757322
5-Feb-13,28.90,29.92,28.61,29.78,1909688
4-Feb-13,28.00,29.15,27.70,28.96,1650242
1-Feb-13,26.33,28.84,25.71,28.07,8243387
31-Jan-13,27.75,30.50,27.65,27.72,3540636
30-Jan-13,30.07,30.50,28.57,28.97,2502562
29-Jan-13,30.88,31.23,29.90,30.20,1110993
28-Jan-13,30.88,31.47,30.72,31.25,944851
25-Jan-13,29.54,31.50,29.38,31.10,1529790
24-Jan-13,27.64,29.59,27.00,29.52,1730080
23-Jan-13,27.56,28.01,27.45,27.93,601574
22-Jan-13,27.16,27.72,26.83,27.62,905695
18-Jan-13,27.53,27.75,27.16,27.40,391963
17-Jan-13,27.42,27.78,27.25,27.60,953013
16-Jan-13,27.23,27.48,26.85,27.34,797919
15-Jan-13,26.04,27.48,25.59,27.22,1239007
14-Jan-13,27.22,27.28,25.94,26.07,1047069
11-Jan-13,26.60,27.50,26.46,27.46,1133736
10-Jan-13,26.45,26.62,26.15,26.46,691111
9-Jan-13,26.35,26.67,25.54,26.37,1430339
8-Jan-13,27.36,27.61,25.61,26.20,2827068
7-Jan-13,28.54,29.10,27.02,27.36,2516970
4-Jan-13,29.80,29.84,28.96,29.02,1034356
3-Jan-13,30.10,30.40,29.41,29.69,863018
2-Jan-13,30.75,30.75,29.18,30.20,1525475
31-Dec-12,28.94,30.25,28.90,30.03,1247381
28-Dec-12,29.16,29.48,28.90,29.05,1106997
27-Dec-12,29.49,29.99,29.25,29.52,1234870
26-Dec-12,30.84,30.94,29.39,29.95,3430340
24-Dec-12,32.24,32.57,30.90,31.66,677656
21-Dec-12,32.48,32.74,32.23,32.49,622505
20-Dec-12,32.28,32.85,32.25,32.83,343868
19-Dec-12,32.85,32.85,31.96,32.43,439369
18-Dec-12,31.01,33.00,31.01,32.63,833913
17-Dec-12,30.50,31.13,30.00,31.10,382731
14-Dec-12,30.29,30.94,30.02,30.54,373921
13-Dec-12,30.35,30.96,29.82,30.33,410263
12-Dec-12,30.03,31.28,29.41,30.63,834547
11-Dec-12,29.66,30.24,29.38,29.83,471831
10-Dec-12,29.42,29.75,29.25,29.45,190922
7-Dec-12,29.50,29.62,28.87,29.30,373809
6-Dec-12,29.39,29.65,29.09,29.47,651405
5-Dec-12,30.49,30.49,28.52,29.41,1314772
4-Dec-12,31.98,32.39,29.74,30.19,1278964
3-Dec-12,31.38,32.65,31.16,32.04,1012190
30-Nov-12,32.23,33.02,31.08,32.63,2460351
29-Nov-12,31.55,32.82,31.11,32.30,715710
28-Nov-12,30.52,31.38,29.98,31.21,446605
27-Nov-12,30.53,30.80,29.20,30.30,1097389
26-Nov-12,28.61,30.86,28.61,30.50,790776
23-Nov-12,31.18,31.20,30.51,30.77,186608
21-Nov-12,31.03,32.17,29.88,31.18,1658445
20-Nov-12,30.93,33.75,30.71,31.67,981112
19-Nov-12,30.52,31.44,28.82,31.06,1238532
16-Nov-12,33.43,34.50,29.45,30.35,1798551
15-Nov-12,28.34,31.98,28.28,31.79,7050802
14-Nov-12,30.39,30.60,28.15,28.71,502838
13-Nov-12,30.49,30.49,28.38,29.48,550938
12-Nov-12,30.00,30.99,29.52,29.66,537269
9-Nov-12,30.91,31.55,29.71,30.07,410199
8-Nov-12,30.87,31.59,30.68,30.90,287928
7-Nov-12,32.53,32.73,31.00,31.25,532631
6-Nov-12,32.41,33.53,32.18,32.95,462278
5-Nov-12,32.15,32.58,31.16,32.28,345074
2-Nov-12,31.23,32.73,30.61,32.14,450138
1-Nov-12,31.33,31.64,29.55,31.04,788599
31-Oct-12,32.11,32.74,30.12,30.65,568824
26-Oct-12,31.68,32.98,31.39,31.89,601641
25-Oct-12,35.65,37.59,30.71,31.39,1953835
24-Oct-12,34.56,35.77,34.04,35.65,604560
23-Oct-12,33.32,34.86,32.61,34.56,440020
22-Oct-12,34.45,34.50,32.54,33.44,721130
19-Oct-12,34.80,35.48,33.90,34.35,534525
18-Oct-12,34.77,34.88,34.50,34.79,261446
17-Oct-12,34.33,35.46,34.02,34.77,684487
16-Oct-12,34.64,34.64,33.70,34.31,503221
15-Oct-12,32.88,34.91,32.80,34.51,754758
12-Oct-12,34.83,34.83,32.89,33.32,597628
11-Oct-12,35.01,35.29,34.36,34.50,267280
10-Oct-12,35.95,36.06,34.62,34.78,445937
9-Oct-12,36.61,36.80,35.78,36.00,505221
8-Oct-12,36.60,36.66,35.97,36.53,251337
5-Oct-12,37.20,37.45,36.50,37.00,449418
4-Oct-12,36.70,37.20,36.70,37.15,145658
3-Oct-12,36.53,37.68,36.52,37.03,283021
2-Oct-12,36.07,36.75,35.59,36.50,586650
1-Oct-12,37.98,38.14,34.62,36.48,903815
28-Sep-12,39.99,39.99,36.16,38.68,1582523
27-Sep-12,38.40,40.33,38.40,40.04,478750
26-Sep-12,39.85,39.85,36.77,38.08,853831
25-Sep-12,40.90,41.77,39.61,39.99,605401
24-Sep-12,39.90,40.70,38.58,40.37,378688
21-Sep-12,38.48,39.83,38.10,39.63,353590
20-Sep-12,38.50,38.63,37.18,38.00,739402
19-Sep-12,36.88,38.73,36.84,38.65,406231
18-Sep-12,38.65,38.65,36.38,36.80,677909
17-Sep-12,39.00,39.77,38.03,38.19,812252
14-Sep-12,37.88,39.33,37.72,39.06,724049
13-Sep-12,35.13,38.32,34.71,37.51,460486
12-Sep-12,33.54,35.44,33.26,35.05,350491
11-Sep-12,34.80,35.17,32.84,33.01,288458
10-Sep-12,37.00,37.00,34.24,34.39,457263
7-Sep-12,36.50,37.31,35.62,36.55,410974
6-Sep-12,34.20,36.08,34.11,36.06,396188
5-Sep-12,33.66,34.33,33.01,34.19,331630
4-Sep-12,31.11,33.84,31.11,33.67,332776
31-Aug-12,30.24,31.50,29.92,31.10,285934
30-Aug-12,29.24,31.00,29.03,29.78,186469
29-Aug-12,29.39,29.79,29.25,29.49,116549
28-Aug-12,29.27,29.70,29.05,29.32,152466
27-Aug-12,29.70,31.31,29.13,29.27,259951
24-Aug-12,28.79,29.94,28.79,29.70,145544
23-Aug-12,29.93,30.67,28.81,29.03,292194
22-Aug-12,30.27,30.52,29.83,29.85,617755
21-Aug-12,30.19,30.61,29.95,30.26,196645
20-Aug-12,29.55,29.95,29.55,29.89,277662
17-Aug-12,30.00,30.04,29.44,29.60,389247
16-Aug-12,30.06,30.57,29.60,29.75,300501
15-Aug-12,32.11,32.11,29.47,29.68,467714
14-Aug-12,32.65,33.96,32.20,32.28,553200
13-Aug-12,32.03,32.55,31.72,32.43,214803
10-Aug-12,29.37,32.00,29.37,31.65,221263
9-Aug-12,27.48,30.02,27.30,29.51,135433
8-Aug-12,27.91,27.91,27.01,27.57,296624
7-Aug-12,28.30,28.75,27.79,28.00,197951
6-Aug-12,29.00,29.16,27.23,28.02,583736
3-Aug-12,29.43,31.43,28.58,28.67,430928
2-Aug-12,27.50,29.30,27.00,29.08,556879
1-Aug-12,27.32,27.98,26.76,27.71,111834
31-Jul-12,25.44,27.56,25.41,27.00,283931
30-Jul-12,25.25,25.45,25.05,25.39,84203
27-Jul-12,24.48,25.44,24.32,25.33,100051
26-Jul-12,24.93,25.35,24.00,24.42,157915
25-Jul-12,25.06,25.47,24.84,24.93,110704
24-Jul-12,24.83,25.96,24.60,24.84,291458
23-Jul-12,25.01,25.01,23.91,24.35,603333
20-Jul-12,24.04,25.23,23.90,25.23,260839
19-Jul-12,24.67,24.67,23.90,24.00,254456
18-Jul-12,24.43,24.69,24.00,24.23,103725
17-Jul-12,24.48,24.48,23.93,24.27,227454
16-Jul-12,24.08,24.56,23.80,24.38,118051
13-Jul-12,24.69,24.92,23.98,24.18,89055
12-Jul-12,23.30,24.47,22.62,24.08,325426
11-Jul-12,25.02,25.35,23.49,23.74,296479
10-Jul-12,25.22,25.69,25.05,25.05,303969
9-Jul-12,25.96,26.30,25.18,25.27,152336
6-Jul-12,25.75,26.12,25.10,25.84,355017
5-Jul-12,25.50,26.26,25.14,25.96,540959
3-Jul-12,24.85,25.32,24.60,25.31,401048
2-Jul-12,24.75,25.20,24.10,24.77,656652
29-Jun-12,23.75,24.75,22.83,24.60,10922574
4-Jan-11,9.98,9.98,9.98,9.98,727
22-Dec-10,-,-,-,9.98,0
21-Dec-10,9.98,9.98,9.98,9.98,3430
10-Dec-10,-,-,-,9.95,0
9-Dec-10,9.93,9.93,9.93,9.93,300
7-Dec-10,-,-,-,9.93,0
22-Nov-10,-,-,-,9.97,0
17-Nov-10,-,-,-,9.97,0
11-Nov-10,-,-,-,9.94,0
10-Nov-10,9.89,9.90,9.86,9.88,6500
9-Nov-10,9.97,9.97,9.97,9.97,2120
1-Nov-10,-,-,-,9.89,0
28-Oct-10,-,-,-,9.95,0
25-Oct-10,-,-,-,9.98,0
14-Oct-10,-,-,-,9.87,0
13-Oct-10,9.88,9.88,9.88,9.88,1500
8-Oct-10,-,-,-,9.85,0
5-Oct-10,-,-,-,9.85,0
30-Sep-10,-,-,-,9.90,0
27-Sep-10,-,-,-,9.85,0
21-Sep-10,-,-,-,9.78,0
20-Sep-10,9.84,9.84,9.84,9.84,200
17-Sep-10,9.87,9.87,9.87,9.87,1600
15-Sep-10,-,-,-,9.77,0
10-Sep-10,-,-,-,9.84,0
9-Sep-10,-,-,-,9.84,0
8-Sep-10,-,-,-,9.84,0
7-Sep-10,-,-,-,9.84,0
2-Sep-10,-,-,-,9.84,0
1-Sep-10,9.84,9.84,9.84,9.84,2800
31-Aug-10,-,-,-,9.75,0
30-Aug-10,-,-,-,9.75,0
27-Aug-10,9.84,9.84,9.84,9.84,100
26-Aug-10,-,-,-,9.76,0
24-Aug-10,-,-,-,9.76,0
23-Aug-10,9.74,9.74,9.74,9.74,330
20-Aug-10,9.80,9.80,9.80,9.80,200
19-Aug-10,-,-,-,9.85,0
18-Aug-10,-,-,-,9.85,0
17-Aug-10,-,-,-,9.85,0
16-Aug-10,-,-,-,9.85,0
13-Aug-10,-,-,-,9.85,0
12-Aug-10,-,-,-,9.85,0
11-Aug-10,-,-,-,9.85,0
10-Aug-10,-,-,-,9.74,0
9-Aug-10,-,-,-,9.74,0
6-Aug-10,9.74,9.74,9.74,9.74,1300
5-Aug-10,-,-,-,9.80,0
4-Aug-10,-,-,-,9.80,0
3-Aug-10,9.66,9.80,9.66,9.67,2500
2-Aug-10,-,-,-,9.65,0
30-Jul-10,-,-,-,9.65,0
29-Jul-10,9.72,9.72,9.72,9.72,800
28-Jul-10,9.65,9.65,9.65,9.65,3550
27-Jul-10,-,-,-,9.80,0
26-Jul-10,9.74,9.80,9.74,9.80,2000
23-Jul-10,-,-,-,9.60,0
22-Jul-10,9.65,9.67,9.60,9.60,20593
21-Jul-10,9.65,9.65,9.65,9.65,1552
20-Jul-10,9.62,9.62,9.61,9.61,2700
19-Jul-10,9.71,9.71,9.71,9.71,2100
16-Jul-10,-,-,-,9.79,0
15-Jul-10,-,-,-,9.79,0
14-Jul-10,-,-,-,9.79,0
13-Jul-10,9.79,9.79,9.79,9.79,5000
12-Jul-10,9.71,9.71,9.71,9.71,700
9-Jul-10,9.70,9.70,9.70,9.70,600
8-Jul-10,-,-,-,9.70,0
7-Jul-10,-,-,-,9.70,0
6-Jul-10,9.70,9.70,9.70,9.70,370
2-Jul-10,-,-,-,9.70,0
1-Jul-10,-,-,-,9.70,0
30-Jun-10,-,-,-,9.70,0
29-Jun-10,-,-,-,9.70,0
28-Jun-10,9.70,9.70,9.70,9.70,3395
25-Jun-10,-,-,-,9.60,0
24-Jun-10,-,-,-,9.60,0
23-Jun-10,-,-,-,9.60,0
22-Jun-10,-,-,-,9.60,0
21-Jun-10,-,-,-,9.60,0
18-Jun-10,9.60,9.60,9.60,9.60,3000
17-Jun-10,-,-,-,9.65,0
16-Jun-10,9.67,9.68,9.63,9.65,2000
15-Jun-10,-,-,-,9.60,0
14-Jun-10,9.60,9.60,9.60,9.60,100
11-Jun-10,9.61,9.69,9.61,9.69,1300
10-Jun-10,-,-,-,9.53,0
9-Jun-10,-,-,-,9.53,0
8-Jun-10,-,-,-,9.53,0
7-Jun-10,-,-,-,9.53,0
4-Jun-10,-,-,-,9.53,0
3-Jun-10,-,-,-,9.53,0
2-Jun-10,-,-,-,9.53,0
1-Jun-10,9.53,9.53,9.53,9.53,100
28-May-10,9.69,9.70,9.53,9.53,1380
27-May-10,-,-,-,9.53,0
26-May-10,9.53,9.53,9.53,9.53,1000
25-May-10,9.53,9.53,9.53,9.53,400
24-May-10,-,-,-,9.53,0
21-May-10,9.53,9.53,9.53,9.53,500
20-May-10,9.53,9.53,9.53,9.53,200
19-May-10,9.54,9.54,9.54,9.54,900
18-May-10,-,-,-,9.52,0
17-May-10,9.52,9.53,9.52,9.52,3720
14-May-10,-,-,-,9.52,0
13-May-10,9.52,9.52,9.52,9.52,750
12-May-10,-,-,-,9.52,0
11-May-10,-,-,-,9.52,0
10-May-10,9.70,9.70,9.52,9.52,200
7-May-10,-,-,-,9.62,0
6-May-10,9.60,9.62,9.60,9.62,9130
5-May-10,-,-,-,9.53,0
4-May-10,-,-,-,9.53,0
3-May-10,9.57,9.57,9.53,9.53,5000
30-Apr-10,9.61,9.61,9.61,9.61,100
29-Apr-10,-,-,-,9.60,0
28-Apr-10,-,-,-,9.60,0
27-Apr-10,9.50,9.60,9.50,9.60,1490
26-Apr-10,-,-,-,9.65,0
23-Apr-10,9.65,9.65,9.65,9.65,150
22-Apr-10,-,-,-,9.60,0
21-Apr-10,9.60,9.60,9.60,9.60,1000
20-Apr-10,-,-,-,9.65,0
19-Apr-10,9.65,9.65,9.65,9.65,200
16-Apr-10,-,-,-,9.53,0
15-Apr-10,9.65,9.70,9.53,9.53,6000
14-Apr-10,-,-,-,9.53,0
13-Apr-10,9.53,9.53,9.53,9.53,1200
12-Apr-10,9.52,9.52,9.52,9.52,2200
9-Apr-10,9.50,9.52,9.50,9.52,2700
8-Apr-10,9.52,9.52,9.52,9.52,600
7-Apr-10,9.52,9.52,9.52,9.52,3000
6-Apr-10,9.55,9.55,9.55,9.55,600
5-Apr-10,9.50,9.50,9.50,9.50,1480
1-Apr-10,-,-,-,9.52,0
31-Mar-10,-,-,-,9.52,0
30-Mar-10,9.52,9.52,9.52,9.52,100
29-Mar-10,9.50,9.52,9.50,9.50,3600
26-Mar-10,9.55,9.55,9.55,9.55,700
25-Mar-10,9.51,9.51,9.50,9.50,13044
24-Mar-10,-,-,-,9.60,0
23-Mar-10,-,-,-,9.60,0
22-Mar-10,9.60,9.60,9.60,9.60,100
19-Mar-10,-,-,-,9.45,0
18-Mar-10,9.45,9.45,9.45,9.45,400
17-Mar-10,-,-,-,9.50,0
16-Mar-10,-,-,-,9.50,0
15-Mar-10,9.38,9.50,9.38,9.50,1650
12-Mar-10,-,-,-,9.39,0
11-Mar-10,-,-,-,9.39,0
10-Mar-10,-,-,-,9.39,0
9-Mar-10,-,-,-,9.39,0
8-Mar-10,-,-,-,9.39,0
5-Mar-10,9.39,9.39,9.39,9.39,300
4-Mar-10,-,-,-,9.51,0
3-Mar-10,9.46,9.59,9.42,9.51,1100
2-Mar-10,9.41,9.41,9.41,9.41,100
1-Mar-10,-,-,-,9.38,0
26-Feb-10,9.38,9.38,9.38,9.38,100
25-Feb-10,9.26,9.26,9.26,9.26,1500
24-Feb-10,-,-,-,9.39,0
23-Feb-10,9.47,9.47,9.38,9.39,1000
22-Feb-10,9.47,9.47,9.34,9.34,200
19-Feb-10,-,-,-,9.30,0
18-Feb-10,9.26,9.30,9.26,9.30,496
17-Feb-10,-,-,-,9.35,0
16-Feb-10,-,-,-,9.35,0
12-Feb-10,9.35,9.35,9.35,9.35,200
11-Feb-10,-,-,-,9.20,0
10-Feb-10,9.22,9.22,9.20,9.20,3500
9-Feb-10,-,-,-,9.20,0
8-Feb-10,9.20,9.20,9.20,9.20,1350
5-Feb-10,-,-,-,9.49,0
4-Feb-10,9.40,9.49,9.40,9.49,1400
3-Feb-10,-,-,-,9.20,0
2-Feb-10,-,-,-,9.20,0
1-Feb-10,9.20,9.20,9.20,9.20,150
29-Jan-10,9.46,9.46,9.14,9.16,2800
28-Jan-10,9.12,9.12,9.12,9.12,100
27-Jan-10,9.06,9.06,9.05,9.05,600
26-Jan-10,-,-,-,9.07,0
25-Jan-10,-,-,-,9.07,0
22-Jan-10,9.07,9.07,9.07,9.07,600
21-Jan-10,9.01,9.05,9.01,9.05,750
20-Jan-10,9.20,9.25,9.14,9.25,1500
19-Jan-10,9.05,9.25,9.05,9.25,6329
15-Jan-10,9.12,9.15,9.12,9.15,1505
14-Jan-10,9.13,9.17,9.11,9.17,600
13-Jan-10,-,-,-,9.15,0
12-Jan-10,9.15,9.15,9.15,9.15,1600
11-Jan-10,9.15,9.15,9.15,9.15,500
8-Jan-10,9.15,9.15,9.15,9.15,800
7-Jan-10,-,-,-,9.00,0
6-Jan-10,9.00,9.00,9.00,9.00,1000
5-Jan-10,8.95,8.95,8.95,8.95,100
4-Jan-10,9.05,9.05,8.90,8.90,1600
31-Dec-09,-,-,-,9.05,0
30-Dec-09,-,-,-,9.05,0
29-Dec-09,-,-,-,9.05,0
28-Dec-09,9.04,9.05,8.78,9.05,2150
24-Dec-09,-,-,-,9.05,0
23-Dec-09,9.11,9.11,9.05,9.05,1300
22-Dec-09,-,-,-,9.19,0
21-Dec-09,9.10,9.20,9.10,9.19,12350
18-Dec-09,9.05,9.06,9.01,9.05,10826
17-Dec-09,-,-,-,9.10,0
16-Dec-09,9.10,9.10,9.10,9.10,300
15-Dec-09,9.00,9.00,9.00,9.00,6000
14-Dec-09,9.00,9.00,9.00,9.00,300
11-Dec-09,9.20,9.20,8.90,8.90,715
10-Dec-09,9.00,9.00,9.00,9.00,1600
9-Dec-09,9.20,9.20,9.20,9.20,510
8-Dec-09,9.10,9.10,9.10,9.10,200
7-Dec-09,-,-,-,8.95,0
4-Dec-09,8.95,8.95,8.95,8.95,125
3-Dec-09,-,-,-,8.97,0
2-Dec-09,-,-,-,8.97,0
1-Dec-09,-,-,-,8.97,0
30-Nov-09,8.90,9.07,8.90,8.97,1900
27-Nov-09,9.00,9.00,8.81,8.81,1000
25-Nov-09,9.05,9.13,8.90,8.91,1530
24-Nov-09,-,-,-,8.90,0
23-Nov-09,9.05,9.05,8.90,8.90,300
20-Nov-09,9.00,9.00,8.55,8.55,4598
19-Nov-09,8.95,8.95,8.95,8.95,500
18-Nov-09,-,-,-,8.80,0
17-Nov-09,-,-,-,8.80,0
16-Nov-09,8.80,8.80,8.80,8.80,100
13-Nov-09,8.73,8.80,8.71,8.80,900
12-Nov-09,9.00,9.00,9.00,9.00,7000
11-Nov-09,9.00,9.00,9.00,9.00,2596
10-Nov-09,-,-,-,9.15,0
9-Nov-09,-,-,-,9.15,0
6-Nov-09,9.15,9.15,9.15,9.15,200
5-Nov-09,9.00,9.15,9.00,9.15,400
4-Nov-09,9.00,9.00,9.00,9.00,1000
3-Nov-09,-,-,-,9.11,0
2-Nov-09,-,-,-,9.11,0
30-Oct-09,9.13,9.14,8.96,9.11,5800
29-Oct-09,-,-,-,9.25,0
28-Oct-09,-,-,-,9.25,0
27-Oct-09,-,-,-,9.25,0
26-Oct-09,-,-,-,9.25,0
23-Oct-09,9.25,9.25,9.25,9.25,175
22-Oct-09,-,-,-,9.10,0
21-Oct-09,9.10,9.10,9.10,9.10,1000
20-Oct-09,-,-,-,9.20,0
19-Oct-09,-,-,-,9.20,0
16-Oct-09,8.85,9.20,8.85,9.20,1050
15-Oct-09,9.20,9.20,9.20,9.20,500
14-Oct-09,8.85,8.85,8.85,8.85,4000
13-Oct-09,8.85,8.85,8.85,8.85,2000
12-Oct-09,-,-,-,8.75,0
9-Oct-09,-,-,-,8.75,0
8-Oct-09,-,-,-,8.75,0
7-Oct-09,8.40,8.75,8.40,8.75,5200
6-Oct-09,8.75,8.75,8.75,8.75,200
5-Oct-09,8.75,8.75,8.75,8.75,2500
2-Oct-09,8.55,8.70,8.50,8.70,9700
1-Oct-09,-,-,-,8.70,0
30-Sep-09,8.70,8.70,8.70,8.70,200
29-Sep-09,-,-,-,8.70,0
28-Sep-09,-,-,-,8.70,0
25-Sep-09,8.70,8.70,8.70,8.70,100
24-Sep-09,8.51,8.70,8.51,8.70,16903
23-Sep-09,-,-,-,8.50,0
22-Sep-09,-,-,-,8.50,0
21-Sep-09,-,-,-,8.50,0
18-Sep-09,8.50,8.50,8.50,8.50,400
17-Sep-09,8.50,8.50,8.50,8.50,1700
16-Sep-09,8.61,8.63,8.61,8.62,1504
15-Sep-09,8.80,8.80,8.80,8.80,500
14-Sep-09,-,-,-,8.65,0
11-Sep-09,-,-,-,8.65,0
10-Sep-09,8.63,8.65,8.63,8.65,4997
9-Sep-09,-,-,-,8.65,0
8-Sep-09,-,-,-,8.65,0
4-Sep-09,8.40,8.65,8.30,8.65,700
3-Sep-09,8.45,8.45,8.45,8.45,1200
2-Sep-09,-,-,-,8.40,0
1-Sep-09,8.65,8.65,8.40,8.40,1107
31-Aug-09,-,-,-,8.65,0
28-Aug-09,-,-,-,8.65,0
27-Aug-09,-,-,-,8.65,0
26-Aug-09,8.75,8.75,8.22,8.65,3207
25-Aug-09,8.65,8.65,8.64,8.65,10986
24-Aug-09,8.75,8.75,8.56,8.75,5700
21-Aug-09,9.00,9.00,9.00,9.00,400
20-Aug-09,8.50,8.50,8.50,8.50,1575
19-Aug-09,-,-,-,8.50,0
18-Aug-09,8.45,8.50,8.45,8.50,1175
17-Aug-09,-,-,-,8.30,0
14-Aug-09,8.50,8.50,8.30,8.30,450
13-Aug-09,-,-,-,8.35,0
12-Aug-09,-,-,-,8.35,0
10-Aug-09,-,-,-,8.35,0
7-Aug-09,8.35,8.35,8.35,8.35,800
6-Aug-09,8.20,8.20,8.20,8.20,1490
5-Aug-09,8.00,8.20,8.00,8.20,2234
4-Aug-09,-,-,-,7.65,0
3-Aug-09,-,-,-,7.65,0
31-Jul-09,-,-,-,7.65,0
30-Jul-09,7.51,7.65,7.51,7.65,18700
29-Jul-09,-,-,-,7.31,0
28-Jul-09,-,-,-,7.31,0
27-Jul-09,-,-,-,7.31,0
24-Jul-09,-,-,-,7.31,0
23-Jul-09,-,-,-,7.31,0
22-Jul-09,-,-,-,7.31,0
21-Jul-09,-,-,-,7.31,0
20-Jul-09,-,-,-,7.31,0
17-Jul-09,-,-,-,7.31,0
16-Jul-09,-,-,-,7.31,0
15-Jul-09,7.31,7.31,7.31,7.31,200
14-Jul-09,8.00,8.00,7.30,7.30,420
13-Jul-09,-,-,-,8.20,0
10-Jul-09,-,-,-,8.20,0
9-Jul-09,8.20,8.20,8.20,8.20,3000
8-Jul-09,-,-,-,8.40,0
7-Jul-09,-,-,-,8.40,0
6-Jul-09,-,-,-,8.40,0
2-Jul-09,-,-,-,8.40,0
1-Jul-09,-,-,-,8.40,0
30-Jun-09,7.45,8.40,7.30,8.40,1919
29-Jun-09,-,-,-,7.40,0
26-Jun-09,-,-,-,7.40,0
25-Jun-09,7.40,7.40,7.40,7.40,1200
24-Jun-09,7.40,7.40,7.30,7.30,2000
23-Jun-09,7.40,7.40,7.30,7.30,1750
22-Jun-09,7.46,7.46,7.40,7.40,1600
19-Jun-09,-,-,-,7.40,0
18-Jun-09,-,-,-,7.40,0
17-Jun-09,7.90,8.00,7.40,7.40,5301
16-Jun-09,7.25,7.25,7.25,7.25,100
15-Jun-09,-,-,-,8.47,0
12-Jun-09,-,-,-,8.47,0
11-Jun-09,7.00,8.50,6.97,8.47,26530
10-Jun-09,-,-,-,7.05,0
9-Jun-09,-,-,-,7.05,0
8-Jun-09,-,-,-,7.05,0
5-Jun-09,7.01,7.05,7.01,7.05,350
4-Jun-09,6.89,7.00,6.89,7.00,1800
3-Jun-09,6.89,6.89,6.89,6.89,100
2-Jun-09,-,-,-,6.90,0
1-Jun-09,-,-,-,6.90,0
29-May-09,-,-,-,6.90,0
28-May-09,6.90,6.90,6.90,6.90,300
27-May-09,6.27,6.30,6.27,6.27,2500
26-May-09,-,-,-,6.20,0
22-May-09,-,-,-,6.20,0
21-May-09,-,-,-,6.20,0
20-May-09,6.20,6.20,6.20,6.20,100
19-May-09,-,-,-,6.20,0
18-May-09,-,-,-,6.20,0
15-May-09,5.71,6.20,5.60,6.20,7210
14-May-09,6.01,7.10,5.60,7.10,5900
13-May-09,6.00,6.12,5.60,6.12,10000
12-May-09,-,-,-,6.58,0
11-May-09,-,-,-,6.58,0
8-May-09,-,-,-,6.58,0
7-May-09,6.58,6.58,6.58,6.58,100
6-May-09,-,-,-,6.60,0
5-May-09,-,-,-,6.60,0
4-May-09,-,-,-,6.60,0
1-May-09,-,-,-,6.60,0
30-Apr-09,6.60,6.60,6.60,6.60,1000
29-Apr-09,-,-,-,6.10,0
28-Apr-09,6.10,6.10,6.10,6.10,100
27-Apr-09,-,-,-,5.67,0
24-Apr-09,-,-,-,5.67,0
23-Apr-09,-,-,-,5.67,0
22-Apr-09,6.06,6.06,5.51,5.67,1700
21-Apr-09,-,-,-,6.46,0
20-Apr-09,-,-,-,6.46,0
17-Apr-09,-,-,-,6.46,0
16-Apr-09,6.10,6.55,6.00,6.46,1300
15-Apr-09,-,-,-,5.50,0
14-Apr-09,-,-,-,5.50,0
13-Apr-09,5.53,5.53,5.50,5.50,1264
9-Apr-09,5.55,5.55,5.50,5.53,1913
8-Apr-09,-,-,-,5.50,0
7-Apr-09,-,-,-,5.50,0
6-Apr-09,-,-,-,5.50,0
3-Apr-09,-,-,-,5.50,0
2-Apr-09,-,-,-,5.50,0
1-Apr-09,-,-,-,5.50,0
31-Mar-09,-,-,-,5.50,0
30-Mar-09,5.55,6.00,5.50,5.50,2642
27-Mar-09,5.65,6.29,5.65,6.29,4600
26-Mar-09,-,-,-,6.00,0
25-Mar-09,5.50,6.00,5.50,6.00,700
24-Mar-09,-,-,-,5.50,0
23-Mar-09,5.50,5.50,5.50,5.50,500
20-Mar-09,5.50,5.50,5.50,5.50,5570
19-Mar-09,-,-,-,5.50,0
18-Mar-09,5.00,7.25,5.00,5.50,10880
17-Mar-09,4.90,5.00,4.90,5.00,4500
16-Mar-09,4.83,4.83,3.78,4.27,3910
13-Mar-09,3.77,3.77,3.77,3.77,500
12-Mar-09,3.15,3.80,3.15,3.80,1300
11-Mar-09,-,-,-,3.65,0
10-Mar-09,4.00,4.00,3.55,3.65,4430
9-Mar-09,5.00,5.04,4.00,4.00,9610
6-Mar-09,5.00,5.00,5.00,5.00,1400
5-Mar-09,4.82,4.82,4.70,4.70,5000
4-Mar-09,-,-,-,5.22,0
3-Mar-09,5.90,5.90,5.22,5.22,5100
2-Mar-09,6.00,6.00,6.00,6.00,1014
27-Feb-09,6.15,6.20,6.03,6.10,14823
26-Feb-09,6.15,6.15,6.10,6.10,5663
25-Feb-09,-,-,-,6.15,0
24-Feb-09,6.42,6.42,6.15,6.15,16300
23-Feb-09,6.24,6.24,6.20,6.20,1430
20-Feb-09,6.38,6.38,6.20,6.20,6745
19-Feb-09,6.32,6.32,6.20,6.20,10000
18-Feb-09,6.38,6.38,6.38,6.38,200
17-Feb-09,6.38,6.38,6.38,6.38,200
13-Feb-09,6.36,6.36,6.36,6.36,200
12-Feb-09,-,-,-,6.25,0
11-Feb-09,-,-,-,6.25,0
10-Feb-09,-,-,-,6.25,0
9-Feb-09,-,-,-,6.25,0
6-Feb-09,-,-,-,6.25,0
5-Feb-09,-,-,-,6.25,0
4-Feb-09,-,-,-,6.25,0
3-Feb-09,-,-,-,6.25,0
2-Feb-09,-,-,-,6.25,0
30-Jan-09,-,-,-,6.25,0
29-Jan-09,6.25,6.25,6.25,6.25,150
28-Jan-09,6.35,6.40,6.25,6.40,1600
27-Jan-09,6.25,6.25,6.25,6.25,500
26-Jan-09,-,-,-,6.25,0
23-Jan-09,6.76,6.76,6.25,6.25,4855
22-Jan-09,7.00,7.00,7.00,7.00,498
21-Jan-09,7.22,7.25,7.00,7.00,1067
20-Jan-09,-,-,-,6.75,0
16-Jan-09,-,-,-,6.75,0
15-Jan-09,-,-,-,6.75,0
14-Jan-09,-,-,-,6.75,0
13-Jan-09,-,-,-,6.75,0
12-Jan-09,6.75,6.75,6.75,6.75,500
9-Jan-09,6.25,6.25,6.25,6.25,100
8-Jan-09,-,-,-,6.20,0
7-Jan-09,-,-,-,6.20,0
6-Jan-09,6.20,6.20,6.20,6.20,200
5-Jan-09,6.22,6.73,5.96,6.73,6015
2-Jan-09,-,-,-,6.10,0
31-Dec-08,-,-,-,6.10,0
30-Dec-08,-,-,-,6.10,0
29-Dec-08,-,-,-,6.10,0
26-Dec-08,6.10,6.30,6.10,6.10,7300
24-Dec-08,-,-,-,6.10,0
23-Dec-08,-,-,-,6.10,0
22-Dec-08,6.10,6.10,6.10,6.10,1000
19-Dec-08,-,-,-,6.25,0
18-Dec-08,-,-,-,6.25,0
17-Dec-08,-,-,-,6.25,0
16-Dec-08,6.25,6.25,6.25,6.25,500
15-Dec-08,-,-,-,6.25,0
12-Dec-08,6.74,6.74,6.25,6.25,250
11-Dec-08,-,-,-,6.40,0
10-Dec-08,6.40,6.40,6.40,6.40,100
9-Dec-08,-,-,-,6.25,0
8-Dec-08,-,-,-,6.25,0
5-Dec-08,-,-,-,6.25,0
4-Dec-08,6.64,6.64,6.25,6.25,1000
3-Dec-08,6.60,6.60,6.50,6.50,1200
2-Dec-08,6.25,6.25,6.25,6.25,1000
1-Dec-08,6.40,6.40,6.25,6.25,2100
28-Nov-08,-,-,-,6.20,0
26-Nov-08,-,-,-,6.20,0
25-Nov-08,-,-,-,6.20,0
24-Nov-08,-,-,-,6.20,0
21-Nov-08,6.10,6.20,6.10,6.20,4620
20-Nov-08,6.20,6.20,5.95,5.95,720
19-Nov-08,6.20,6.20,6.20,6.20,1000
18-Nov-08,6.30,6.30,6.20,6.20,9200
17-Nov-08,-,-,-,6.70,0
14-Nov-08,-,-,-,6.70,0
13-Nov-08,-,-,-,6.70,0
12-Nov-08,6.70,6.70,6.70,6.70,200
11-Nov-08,7.00,7.00,7.00,7.00,3385
10-Nov-08,7.36,7.80,6.10,6.10,7400
7-Nov-08,-,-,-,6.90,0
6-Nov-08,-,-,-,6.90,0
5-Nov-08,7.00,7.00,6.90,6.90,900
4-Nov-08,6.45,6.90,6.45,6.54,5300
3-Nov-08,6.04,6.31,6.04,6.26,600
31-Oct-08,6.15,6.40,6.15,6.40,1600
30-Oct-08,6.00,6.65,6.00,6.05,4400
29-Oct-08,5.75,5.75,5.75,5.75,3800
28-Oct-08,5.43,5.55,5.43,5.55,700
27-Oct-08,5.55,5.60,5.45,5.60,2200
24-Oct-08,5.60,5.65,5.45,5.65,5300
23-Oct-08,6.30,6.30,6.30,6.30,400
22-Oct-08,6.24,6.40,6.24,6.40,200
21-Oct-08,8.00,8.00,6.75,6.80,2900
20-Oct-08,4.48,8.95,4.48,8.00,132100
17-Oct-08,4.10,4.10,4.10,4.10,300
16-Oct-08,4.48,4.50,4.48,4.50,1100
15-Oct-08,-,-,-,4.10,0
14-Oct-08,4.50,4.70,4.10,4.10,2200
13-Oct-08,4.50,4.50,3.65,4.00,4200
10-Oct-08,4.00,4.00,3.75,4.00,1300
9-Oct-08,4.80,5.00,4.75,5.00,1700
8-Oct-08,4.80,4.80,4.80,4.80,500
7-Oct-08,4.81,4.81,4.81,4.81,800
6-Oct-08,5.51,5.51,4.80,4.80,10100
3-Oct-08,6.05,6.05,6.00,6.00,700
2-Oct-08,5.90,6.05,5.50,6.05,2000
1-Oct-08,6.27,6.27,5.90,5.90,200
30-Sep-08,5.25,5.77,5.25,5.77,5900
29-Sep-08,5.00,5.00,5.00,5.00,1200
26-Sep-08,5.23,5.76,5.10,5.26,6800
25-Sep-08,5.55,5.55,5.50,5.50,500
24-Sep-08,6.00,6.00,5.65,5.65,18500
23-Sep-08,7.47,7.47,6.04,6.04,3200
22-Sep-08,6.50,6.75,6.05,6.69,11200
19-Sep-08,6.77,6.77,4.85,6.25,11400
18-Sep-08,6.74,6.74,4.85,5.05,10800
17-Sep-08,4.55,6.40,4.55,5.05,54200
16-Sep-08,7.25,7.25,2.55,2.75,98100
15-Sep-08,8.66,8.66,7.18,7.32,72000
12-Sep-08,8.66,8.66,8.66,8.66,1400
11-Sep-08,8.64,8.65,8.64,8.64,9500
10-Sep-08,8.66,8.66,8.66,8.66,200
9-Sep-08,8.73,8.73,8.73,8.73,1500
8-Sep-08,9.48,9.48,8.75,8.84,700
5-Sep-08,-,-,-,8.73,0
4-Sep-08,-,-,-,8.73,0
3-Sep-08,8.73,8.73,8.73,8.73,100
2-Sep-08,8.80,8.80,8.80,8.80,1100
29-Aug-08,-,-,-,8.78,0
28-Aug-08,8.58,8.78,8.58,8.78,12100
27-Aug-08,-,-,-,8.78,0
26-Aug-08,8.81,8.81,8.78,8.78,4400
25-Aug-08,-,-,-,8.88,0
22-Aug-08,-,-,-,8.88,0
21-Aug-08,8.71,8.88,8.70,8.88,4900
20-Aug-08,8.73,8.80,8.68,8.68,1000
19-Aug-08,8.51,8.74,8.51,8.67,23900
18-Aug-08,-,-,-,8.80,0
15-Aug-08,8.76,8.80,8.76,8.80,1100
14-Aug-08,-,-,-,8.88,0
13-Aug-08,8.81,9.20,8.75,8.88,29400
12-Aug-08,9.15,9.15,9.00,9.00,400
11-Aug-08,-,-,-,8.95,0
8-Aug-08,-,-,-,8.95,0
7-Aug-08,9.10,9.10,8.95,8.95,1900
6-Aug-08,8.86,9.20,8.86,9.20,1600
5-Aug-08,-,-,-,9.45,0
4-Aug-08,9.20,9.50,9.20,9.45,7500
1-Aug-08,8.95,8.95,8.95,8.95,200
31-Jul-08,-,-,-,8.87,0
30-Jul-08,-,-,-,8.87,0
29-Jul-08,8.75,8.87,8.72,8.87,23900
28-Jul-08,9.00,9.00,8.95,9.00,200
25-Jul-08,-,-,-,8.91,0
24-Jul-08,9.00,9.00,8.81,8.91,3600
23-Jul-08,-,-,-,9.20,0
22-Jul-08,-,-,-,9.20,0
21-Jul-08,-,-,-,9.20,0
18-Jul-08,-,-,-,9.20,0
17-Jul-08,-,-,-,9.20,0
16-Jul-08,9.69,9.69,9.20,9.20,200
15-Jul-08,-,-,-,9.01,0
14-Jul-08,9.01,9.10,9.01,9.01,1300
11-Jul-08,9.01,9.01,9.01,9.01,100
10-Jul-08,-,-,-,9.05,0
9-Jul-08,9.10,9.10,9.05,9.05,2200
8-Jul-08,9.05,9.06,9.02,9.02,2300
7-Jul-08,9.25,9.25,9.25,9.25,1000
3-Jul-08,-,-,-,9.20,0
2-Jul-08,-,-,-,9.20,0
1-Jul-08,9.20,9.30,9.20,9.20,400
30-Jun-08,-,-,-,9.06,0
27-Jun-08,9.06,9.06,9.06,9.06,200
26-Jun-08,9.05,9.05,9.03,9.03,500
25-Jun-08,-,-,-,9.02,0
24-Jun-08,-,-,-,9.02,0
23-Jun-08,-,-,-,9.02,0
20-Jun-08,-,-,-,9.02,0
19-Jun-08,-,-,-,9.02,0
18-Jun-08,-,-,-,9.02,0
17-Jun-08,9.02,9.02,9.02,9.02,200
16-Jun-08,-,-,-,9.22,0
13-Jun-08,-,-,-,9.22,0
12-Jun-08,-,-,-,9.22,0
11-Jun-08,-,-,-,9.22,0
10-Jun-08,-,-,-,9.22,0
9-Jun-08,-,-,-,9.22,0
6-Jun-08,-,-,-,9.22,0
5-Jun-08,9.22,9.22,9.22,9.22,100
4-Jun-08,-,-,-,9.22,0
3-Jun-08,9.22,9.23,9.22,9.22,1600
2-Jun-08,9.22,9.25,9.22,9.25,500
30-May-08,-,-,-,9.22,0
29-May-08,9.34,9.34,9.22,9.22,600
28-May-08,-,-,-,9.50,0
27-May-08,9.35,9.50,9.35,9.50,700
23-May-08,9.22,9.22,9.22,9.22,5100
22-May-08,9.10,9.22,9.10,9.22,1100
21-May-08,9.24,9.24,9.22,9.24,500
20-May-08,9.25,9.25,9.24,9.24,2800
19-May-08,-,-,-,9.35,0
16-May-08,9.35,9.35,9.35,9.35,100
15-May-08,9.35,9.35,9.28,9.28,1200
14-May-08,-,-,-,9.44,0
13-May-08,-,-,-,9.44,0
12-May-08,9.44,9.44,9.44,9.44,1200
9-May-08,9.98,9.98,9.25,9.25,2100
8-May-08,9.24,9.24,9.24,9.24,8500
7-May-08,9.41,9.45,9.32,9.32,13000
6-May-08,-,-,-,9.41,0
5-May-08,9.41,9.41,9.41,9.41,100
2-May-08,-,-,-,9.41,0
1-May-08,9.42,9.42,9.41,9.41,1200
30-Apr-08,-,-,-,9.34,0
29-Apr-08,9.42,9.42,9.34,9.34,200
28-Apr-08,10.00,10.00,9.42,9.42,400
25-Apr-08,-,-,-,9.33,0
24-Apr-08,-,-,-,9.33,0
23-Apr-08,-,-,-,9.33,0
22-Apr-08,9.38,9.38,9.33,9.33,5000
21-Apr-08,-,-,-,9.32,0
18-Apr-08,9.32,9.32,9.32,9.32,100
17-Apr-08,-,-,-,9.36,0
16-Apr-08,9.36,9.36,9.36,9.36,5600
15-Apr-08,9.11,9.36,9.11,9.36,2800
14-Apr-08,9.29,9.43,9.29,9.43,2400
11-Apr-08,9.55,9.55,9.55,9.55,100
10-Apr-08,9.36,9.37,9.35,9.35,800
9-Apr-08,9.42,9.42,9.40,9.40,4500
8-Apr-08,-,-,-,9.55,0
7-Apr-08,9.55,9.55,9.55,9.55,300
4-Apr-08,9.44,9.44,9.44,9.44,12100
3-Apr-08,9.38,9.38,9.38,9.38,1300
2-Apr-08,-,-,-,9.36,0
1-Apr-08,-,-,-,9.36,0
31-Mar-08,-,-,-,9.36,0
28-Mar-08,9.36,9.36,9.36,9.36,400
27-Mar-08,9.35,9.35,9.35,9.35,100
26-Mar-08,9.38,9.38,9.38,9.38,100
25-Mar-08,9.49,9.49,9.49,9.49,1400
24-Mar-08,9.80,9.86,9.45,9.46,9000
20-Mar-08,9.48,9.48,9.37,9.37,500
19-Mar-08,-,-,-,9.48,0
18-Mar-08,9.18,9.62,9.18,9.48,6400
17-Mar-08,9.01,9.17,8.90,9.17,18200
14-Mar-08,-,-,-,9.30,0
13-Mar-08,9.38,9.47,9.30,9.30,6800
12-Mar-08,9.98,9.98,9.60,9.60,3700
11-Mar-08,9.98,9.98,9.98,9.98,300
10-Mar-08,10.00,10.00,10.00,10.00,300
7-Mar-08,9.75,9.75,9.60,9.75,1500
6-Mar-08,9.41,9.50,9.41,9.50,500
5-Mar-08,9.38,9.44,9.38,9.44,1400
4-Mar-08,9.38,9.38,9.37,9.37,3000
3-Mar-08,9.99,9.99,9.38,9.38,1100
29-Feb-08,9.51,9.80,9.00,9.41,1900
28-Feb-08,9.71,9.81,9.56,9.81,1000
27-Feb-08,-,-,-,9.74,0
26-Feb-08,9.95,9.95,9.74,9.74,4500
25-Feb-08,9.74,10.00,9.74,10.00,1600
22-Feb-08,10.00,10.25,9.90,10.00,6300
21-Feb-08,9.90,9.90,9.90,9.90,400
20-Feb-08,10.00,10.00,10.00,10.00,600
19-Feb-08,10.00,10.00,10.00,10.00,100
15-Feb-08,10.00,10.00,10.00,10.00,500
14-Feb-08,9.90,9.90,9.90,9.90,200
13-Feb-08,9.77,9.77,9.77,9.77,100
12-Feb-08,9.79,9.80,9.66,9.80,3700
11-Feb-08,9.79,9.79,9.65,9.65,600
8-Feb-08,9.47,9.65,9.38,9.65,1300
7-Feb-08,9.47,9.90,9.47,9.90,2900
6-Feb-08,9.75,9.75,9.38,9.50,9100
5-Feb-08,9.78,9.79,9.65,9.65,3700
4-Feb-08,9.65,9.75,9.65,9.75,3400
1-Feb-08,9.49,9.49,9.49,9.49,200
31-Jan-08,9.37,9.37,9.37,9.37,200
30-Jan-08,9.45,9.47,9.45,9.47,900
29-Jan-08,9.99,9.99,8.83,9.45,7900
28-Jan-08,9.76,9.76,9.76,9.76,500
25-Jan-08,10.39,10.40,10.00,10.00,2200
24-Jan-08,-,-,-,10.00,0
23-Jan-08,10.10,10.35,10.00,10.00,16500
22-Jan-08,11.00,11.00,10.10,10.40,14300
18-Jan-08,10.10,10.10,10.10,10.10,5000
17-Jan-08,10.75,10.75,10.11,10.11,10000
16-Jan-08,10.65,10.65,10.65,10.65,100
15-Jan-08,-,-,-,10.10,0
14-Jan-08,-,-,-,10.10,0
11-Jan-08,-,-,-,10.10,0
10-Jan-08,10.10,10.10,10.10,10.10,500
9-Jan-08,10.10,10.10,10.10,10.10,200
8-Jan-08,10.01,10.30,9.77,10.30,4700
7-Jan-08,-,-,-,10.00,0
4-Jan-08,10.28,10.28,10.00,10.00,6000
3-Jan-08,10.27,10.28,10.27,10.28,1000
2-Jan-08,-,-,-,10.29,0
31-Dec-07,10.29,10.29,10.29,10.29,1200
28-Dec-07,10.29,10.29,10.29,10.29,100
27-Dec-07,-,-,-,10.15,0
26-Dec-07,10.15,10.15,10.15,10.15,300
24-Dec-07,-,-,-,10.15,0
21-Dec-07,10.15,10.15,10.15,10.15,1900
20-Dec-07,-,-,-,10.15,0
19-Dec-07,10.16,10.16,10.15,10.15,600
18-Dec-07,10.20,10.30,10.20,10.30,1500
17-Dec-07,10.03,10.03,10.01,10.01,500
14-Dec-07,10.10,10.10,10.10,10.10,700
13-Dec-07,10.30,10.30,10.00,10.00,2300
12-Dec-07,10.10,10.30,10.10,10.30,2400
11-Dec-07,9.85,10.10,9.85,10.10,5100
10-Dec-07,9.69,9.76,9.69,9.75,5100
7-Dec-07,9.69,9.69,9.69,9.69,1000
6-Dec-07,9.55,9.55,9.50,9.55,2400
5-Dec-07,-,-,-,9.55,0
4-Dec-07,9.50,9.55,9.50,9.55,400
3-Dec-07,9.92,9.92,9.40,9.45,5800
30-Nov-07,9.30,9.30,9.20,9.20,1400
29-Nov-07,8.41,8.41,8.41,8.41,400
28-Nov-07,9.30,9.40,9.30,9.40,1100
27-Nov-07,8.75,9.98,8.75,9.34,26700
26-Nov-07,-,-,-,9.15,0
23-Nov-07,9.20,9.20,9.15,9.15,200
21-Nov-07,-,-,-,9.20,0
20-Nov-07,9.20,9.20,9.20,9.20,500
19-Nov-07,-,-,-,9.20,0
16-Nov-07,-,-,-,9.20,0
15-Nov-07,-,-,-,9.20,0
14-Nov-07,-,-,-,9.20,0
13-Nov-07,-,-,-,9.20,0
12-Nov-07,-,-,-,9.20,0
9-Nov-07,9.20,9.20,9.20,9.20,1000
8-Nov-07,-,-,-,9.44,0
7-Nov-07,-,-,-,9.44,0
6-Nov-07,9.44,9.44,9.44,9.44,800
5-Nov-07,-,-,-,9.44,0
2-Nov-07,-,-,-,9.44,0
1-Nov-07,-,-,-,9.44,0
31-Oct-07,9.44,9.44,9.44,9.44,200
30-Oct-07,-,-,-,9.33,0
29-Oct-07,-,-,-,9.33,0
26-Oct-07,9.33,9.33,9.33,9.33,300
25-Oct-07,-,-,-,9.44,0
24-Oct-07,-,-,-,9.44,0
23-Oct-07,-,-,-,9.44,0
22-Oct-07,9.44,9.44,9.44,9.44,100
19-Oct-07,9.52,9.52,9.52,9.52,7100
18-Oct-07,-,-,-,9.62,0
17-Oct-07,-,-,-,9.62,0
16-Oct-07,-,-,-,9.62,0
15-Oct-07,9.62,9.62,9.62,9.62,100
12-Oct-07,-,-,-,9.54,0
11-Oct-07,-,-,-,9.54,0
10-Oct-07,-,-,-,9.54,0
9-Oct-07,9.54,9.54,9.54,9.54,3700
8-Oct-07,9.52,9.53,9.52,9.53,600
5-Oct-07,9.38,9.52,9.38,9.52,5100
4-Oct-07,9.47,9.48,9.47,9.48,4400
3-Oct-07,9.35,9.42,9.25,9.42,9400
2-Oct-07,-,-,-,9.45,0
1-Oct-07,9.35,9.45,9.35,9.45,400
28-Sep-07,9.30,9.30,8.90,9.25,2700
27-Sep-07,9.20,9.41,9.20,9.40,4500
26-Sep-07,9.30,9.30,9.00,9.10,3400
25-Sep-07,9.55,9.55,8.77,9.40,5200
24-Sep-07,-,-,-,9.60,0
21-Sep-07,-,-,-,9.60,0
20-Sep-07,-,-,-,9.60,0
19-Sep-07,-,-,-,9.60,0
18-Sep-07,-,-,-,9.60,0
17-Sep-07,9.65,9.65,9.60,9.60,700
14-Sep-07,-,-,-,9.75,0
13-Sep-07,9.75,9.75,9.75,9.75,200
12-Sep-07,9.95,9.95,9.80,9.80,2000
11-Sep-07,-,-,-,9.90,0
10-Sep-07,-,-,-,9.90,0
7-Sep-07,9.90,9.90,9.90,9.90,200
6-Sep-07,-,-,-,9.80,0
5-Sep-07,9.80,9.80,9.80,9.80,500
4-Sep-07,-,-,-,9.80,0
31-Aug-07,-,-,-,9.80,0
30-Aug-07,-,-,-,9.80,0
29-Aug-07,-,-,-,9.80,0
28-Aug-07,-,-,-,9.80,0
27-Aug-07,-,-,-,9.80,0
24-Aug-07,-,-,-,9.80,0
23-Aug-07,-,-,-,9.80,0
22-Aug-07,-,-,-,9.80,0
21-Aug-07,-,-,-,9.80,0
20-Aug-07,-,-,-,9.80,0
17-Aug-07,9.80,9.80,9.80,9.80,2900
16-Aug-07,10.15,10.56,9.85,9.85,4600
15-Aug-07,-,-,-,10.05,0
14-Aug-07,-,-,-,10.05,0
13-Aug-07,-,-,-,10.05,0
10-Aug-07,-,-,-,10.05,0
9-Aug-07,-,-,-,10.05,0
8-Aug-07,9.95,10.05,9.95,10.05,2000
7-Aug-07,-,-,-,9.85,0
6-Aug-07,-,-,-,9.85,0
3-Aug-07,-,-,-,9.85,0
2-Aug-07,9.85,9.85,9.85,9.85,1000
1-Aug-07,-,-,-,9.95,0
31-Jul-07,-,-,-,9.95,0
30-Jul-07,-,-,-,9.95,0
27-Jul-07,-,-,-,9.95,0
26-Jul-07,-,-,-,9.95,0
25-Jul-07,-,-,-,9.95,0
24-Jul-07,-,-,-,9.95,0
23-Jul-07,-,-,-,9.95,0
20-Jul-07,-,-,-,9.95,0
19-Jul-07,-,-,-,9.95,0
18-Jul-07,10.10,10.10,9.95,9.95,3000
17-Jul-07,-,-,-,10.20,0
16-Jul-07,10.20,10.20,10.20,10.20,1900
13-Jul-07,10.20,10.20,10.20,10.20,1900
12-Jul-07,10.10,10.10,10.10,10.10,200
11-Jul-07,-,-,-,10.00,0
10-Jul-07,10.00,10.00,10.00,10.00,1400
