﻿Date,Open,High,Low,Close,Volume
20-Jun-17,15.90,15.98,15.69,15.73,359433
19-Jun-17,16.25,16.31,15.96,15.97,446196
16-Jun-17,16.22,16.26,16.12,16.20,1170429
15-Jun-17,16.23,16.42,16.22,16.30,437705
14-Jun-17,16.17,16.37,16.04,16.32,637312
13-Jun-17,16.31,16.42,16.21,16.30,513199
12-Jun-17,16.23,16.51,16.06,16.27,532787
9-Jun-17,15.63,16.27,15.60,16.22,646052
8-Jun-17,15.25,15.74,15.11,15.53,386437
7-Jun-17,15.17,15.32,15.06,15.22,393202
6-Jun-17,15.14,15.22,14.95,15.13,646791
5-Jun-17,15.32,15.42,15.26,15.28,507408
2-Jun-17,15.36,15.53,15.30,15.33,516685
1-Jun-17,15.45,15.47,15.31,15.44,668275
31-May-17,15.35,15.44,15.18,15.39,422821
30-May-17,15.26,15.37,15.25,15.34,404990
26-May-17,15.37,15.45,15.30,15.37,463256
25-May-17,15.30,15.42,15.21,15.38,391475
24-May-17,15.48,15.53,15.21,15.27,515330
23-May-17,15.35,15.44,15.24,15.43,639681
22-May-17,15.40,15.42,15.24,15.28,401449
19-May-17,15.34,15.56,15.32,15.37,710096
18-May-17,15.26,15.45,15.14,15.36,714423
17-May-17,15.29,15.41,15.14,15.24,656300
16-May-17,15.72,15.74,15.54,15.57,469858
15-May-17,15.63,15.77,15.57,15.70,345654
12-May-17,15.58,15.66,15.47,15.57,296416
11-May-17,15.88,15.90,15.67,15.69,293353
10-May-17,15.86,15.97,15.81,15.94,305530
9-May-17,16.04,16.11,15.84,15.89,380879
8-May-17,16.07,16.14,15.95,16.04,434316
5-May-17,16.11,16.12,15.99,16.08,414283
4-May-17,16.14,16.27,15.96,16.06,395934
3-May-17,15.83,16.07,15.67,16.07,417255
2-May-17,16.00,16.03,15.83,15.95,480710
1-May-17,16.16,16.25,15.94,16.10,563999
28-Apr-17,16.43,16.46,16.13,16.14,655646
27-Apr-17,16.55,16.61,16.34,16.44,710222
26-Apr-17,16.70,16.88,16.50,16.54,1108764
25-Apr-17,16.96,16.97,16.53,16.80,1404392
24-Apr-17,17.27,17.39,17.14,17.24,545354
21-Apr-17,16.94,17.07,16.73,16.94,576902
20-Apr-17,16.73,16.96,16.73,16.95,433008
19-Apr-17,16.57,16.84,16.57,16.65,427776
18-Apr-17,16.44,16.59,16.36,16.53,332650
17-Apr-17,16.25,16.53,16.24,16.53,331113
13-Apr-17,16.49,16.50,16.24,16.25,434700
12-Apr-17,16.71,16.72,16.49,16.52,310522
11-Apr-17,16.38,16.74,16.38,16.72,577524
10-Apr-17,16.50,16.64,16.38,16.48,324400
7-Apr-17,16.39,16.55,16.36,16.50,571968
6-Apr-17,16.37,16.52,16.28,16.45,595390
5-Apr-17,16.78,16.80,16.39,16.39,554633
4-Apr-17,16.57,16.80,16.57,16.67,744189
3-Apr-17,16.90,16.90,16.52,16.65,559614
31-Mar-17,16.92,17.02,16.82,16.84,576084
30-Mar-17,16.62,17.04,16.60,16.94,555182
29-Mar-17,16.76,16.76,16.54,16.59,662791
28-Mar-17,16.55,16.80,16.52,16.78,541423
27-Mar-17,16.39,16.58,16.21,16.57,628578
24-Mar-17,16.80,16.91,16.56,16.66,841549
23-Mar-17,16.60,16.86,16.60,16.77,429756
22-Mar-17,16.68,16.78,16.50,16.57,730451
21-Mar-17,17.58,17.58,16.78,16.78,427824
20-Mar-17,17.69,17.69,17.44,17.46,343591
17-Mar-17,17.45,17.76,17.37,17.70,1071231
16-Mar-17,17.48,17.59,17.46,17.54,300395
15-Mar-17,17.42,17.60,17.39,17.42,481307
14-Mar-17,17.41,17.54,17.24,17.40,429350
13-Mar-17,17.43,17.58,17.39,17.47,236290
10-Mar-17,17.55,17.64,17.40,17.46,456715
9-Mar-17,17.49,17.67,17.47,17.50,382852
8-Mar-17,17.76,17.91,17.47,17.48,475857
7-Mar-17,17.89,17.98,17.77,17.79,428780
6-Mar-17,17.95,18.08,17.86,17.93,373857
3-Mar-17,18.08,18.23,17.71,18.04,442649
2-Mar-17,18.52,18.52,18.07,18.08,430851
1-Mar-17,18.53,18.62,18.38,18.56,713576
28-Feb-17,18.25,18.29,18.07,18.14,456602
27-Feb-17,18.54,18.60,18.30,18.33,668063
24-Feb-17,18.28,18.63,17.99,18.59,1194781
23-Feb-17,18.25,18.45,18.18,18.45,1027882
22-Feb-17,18.04,18.29,17.98,18.28,689860
21-Feb-17,17.98,18.11,17.97,18.10,654211
17-Feb-17,17.84,17.97,17.40,17.96,913593
16-Feb-17,17.74,17.87,17.64,17.86,590495
15-Feb-17,17.61,17.75,17.58,17.70,409920
14-Feb-17,17.44,17.66,17.35,17.59,365944
13-Feb-17,17.45,17.58,17.43,17.48,372840
10-Feb-17,17.22,17.33,17.13,17.31,504741
9-Feb-17,16.94,17.19,16.94,17.19,527588
8-Feb-17,16.79,16.94,16.73,16.93,482446
7-Feb-17,16.91,16.97,16.82,16.91,517012
6-Feb-17,16.92,17.08,16.82,16.87,424841
3-Feb-17,16.87,17.19,16.87,17.04,520316
2-Feb-17,16.89,16.95,16.70,16.75,690147
1-Feb-17,17.17,17.27,16.93,16.98,767623
31-Jan-17,16.99,17.08,16.88,17.07,870553
30-Jan-17,17.16,17.18,16.86,17.16,732022
27-Jan-17,17.41,17.42,17.20,17.23,468100
26-Jan-17,17.54,17.64,17.40,17.43,426877
25-Jan-17,17.68,17.73,17.49,17.55,766946
24-Jan-17,17.58,17.72,17.32,17.60,758429
23-Jan-17,17.46,17.50,17.28,17.40,571006
20-Jan-17,17.47,17.62,17.45,17.50,433043
19-Jan-17,17.63,17.66,17.41,17.47,311260
18-Jan-17,17.50,17.71,17.41,17.61,392739
17-Jan-17,17.71,17.71,17.39,17.43,435931
13-Jan-17,17.88,18.04,17.72,17.85,505123
12-Jan-17,18.03,18.03,17.58,17.76,485915
11-Jan-17,18.06,18.19,17.91,18.13,397281
10-Jan-17,17.90,18.07,17.76,18.06,375146
9-Jan-17,18.00,18.16,17.80,17.88,473457
6-Jan-17,18.13,18.18,18.00,18.06,479394
5-Jan-17,18.35,18.36,18.10,18.18,418137
4-Jan-17,18.23,18.44,18.22,18.38,526653
3-Jan-17,18.21,18.36,18.05,18.20,628797
30-Dec-16,18.06,18.13,17.97,18.03,362172
29-Dec-16,18.19,18.30,17.98,18.10,355183
28-Dec-16,18.27,18.34,18.12,18.19,339646
27-Dec-16,18.07,18.26,18.02,18.25,260551
23-Dec-16,18.10,18.34,18.02,18.05,292653
22-Dec-16,18.13,18.20,18.01,18.15,370954
21-Dec-16,18.19,18.22,18.06,18.08,654113
20-Dec-16,18.19,18.36,18.02,18.12,1469487
19-Dec-16,18.14,18.35,17.76,18.28,1301454
16-Dec-16,18.70,18.80,18.44,18.49,2975599
15-Dec-16,18.54,18.71,18.38,18.65,828871
14-Dec-16,18.41,18.62,18.29,18.45,1029881
13-Dec-16,18.61,18.69,18.30,18.51,1301129
12-Dec-16,19.00,19.02,18.57,18.64,562893
9-Dec-16,19.10,19.10,18.92,19.08,514193
8-Dec-16,18.69,19.01,18.58,19.00,590801
7-Dec-16,18.52,18.74,18.39,18.68,479760
6-Dec-16,18.17,18.52,18.07,18.49,634236
5-Dec-16,18.12,18.39,17.92,18.14,1154249
2-Dec-16,18.21,18.26,18.11,18.14,395827
1-Dec-16,18.27,18.37,18.15,18.22,653844
30-Nov-16,18.36,18.44,18.11,18.17,509022
29-Nov-16,18.25,18.38,18.15,18.18,530396
28-Nov-16,18.28,18.32,18.10,18.16,580966
25-Nov-16,18.24,18.38,18.23,18.37,222437
23-Nov-16,18.25,18.29,18.07,18.25,523678
22-Nov-16,17.89,18.22,17.83,18.20,473844
21-Nov-16,18.00,18.01,17.77,17.85,609454
18-Nov-16,17.96,18.10,17.90,18.04,685070
17-Nov-16,17.92,17.98,17.80,17.96,594170
16-Nov-16,17.89,17.97,17.73,17.79,568545
15-Nov-16,17.80,17.96,17.55,17.89,634222
14-Nov-16,17.62,18.15,17.15,17.86,894449
11-Nov-16,17.08,17.65,17.08,17.61,932181
10-Nov-16,16.66,17.15,16.58,17.08,1026067
9-Nov-16,15.86,16.62,15.82,16.57,786620
8-Nov-16,15.78,15.88,15.75,15.81,288270
7-Nov-16,15.80,15.86,15.71,15.85,414424
4-Nov-16,15.48,15.68,15.44,15.57,492290
3-Nov-16,15.46,15.54,15.40,15.51,413032
2-Nov-16,15.46,15.49,15.35,15.39,312204
1-Nov-16,15.58,15.60,15.41,15.52,614120
31-Oct-16,15.60,15.79,15.45,15.74,891676
28-Oct-16,15.67,15.74,15.44,15.51,391644
27-Oct-16,15.79,15.86,15.66,15.71,526626
26-Oct-16,15.63,15.75,15.59,15.75,556472
25-Oct-16,15.50,15.64,15.50,15.62,448172
24-Oct-16,15.70,15.89,15.50,15.58,792251
21-Oct-16,15.66,15.72,15.58,15.58,405012
20-Oct-16,15.79,15.85,15.65,15.76,295176
19-Oct-16,15.59,15.95,15.56,15.78,481633
18-Oct-16,15.64,15.64,15.55,15.60,407366
17-Oct-16,15.50,15.66,15.48,15.50,577172
14-Oct-16,15.43,15.51,15.37,15.44,469314
13-Oct-16,15.50,15.52,15.26,15.34,490551
12-Oct-16,15.51,15.63,15.51,15.54,256194
11-Oct-16,15.72,15.79,15.51,15.53,407113
10-Oct-16,15.60,15.80,15.60,15.71,359215
7-Oct-16,15.70,15.70,15.50,15.63,492001
6-Oct-16,15.72,15.75,15.56,15.70,325010
5-Oct-16,15.67,15.79,15.65,15.69,532504
4-Oct-16,15.67,15.70,15.47,15.59,451231
3-Oct-16,15.63,15.74,15.59,15.67,424483
30-Sep-16,15.50,15.75,15.50,15.71,535309
29-Sep-16,15.72,15.74,15.46,15.47,488679
28-Sep-16,15.69,15.72,15.54,15.68,481856
27-Sep-16,15.55,15.64,15.46,15.63,698464
26-Sep-16,15.63,15.74,15.56,15.56,1033486
23-Sep-16,15.69,15.73,15.62,15.64,302474
22-Sep-16,15.55,15.70,15.54,15.69,566827
21-Sep-16,15.47,15.52,15.41,15.51,378131
20-Sep-16,15.43,15.49,15.40,15.40,226146
19-Sep-16,15.33,15.46,15.31,15.38,268203
16-Sep-16,15.32,15.39,15.14,15.32,783087
15-Sep-16,15.22,15.30,15.15,15.28,233108
14-Sep-16,15.44,15.49,15.19,15.20,348241
13-Sep-16,15.46,15.54,15.37,15.47,635097
12-Sep-16,15.33,15.50,15.24,15.50,329070
9-Sep-16,15.55,15.60,15.41,15.42,299327
8-Sep-16,15.67,15.69,15.55,15.58,309997
7-Sep-16,15.52,15.65,15.48,15.64,336044
6-Sep-16,15.50,15.58,15.43,15.50,406202
2-Sep-16,15.52,15.60,15.40,15.56,355196
1-Sep-16,15.55,15.55,15.34,15.47,340822
31-Aug-16,15.50,15.54,15.39,15.52,443588
30-Aug-16,15.40,15.50,15.38,15.50,251132
29-Aug-16,15.31,15.41,15.25,15.37,245358
26-Aug-16,15.39,15.45,15.29,15.34,519287
25-Aug-16,15.25,15.36,15.21,15.36,572522
24-Aug-16,15.27,15.32,15.23,15.31,270071
23-Aug-16,15.28,15.35,15.25,15.28,198897
22-Aug-16,15.19,15.30,15.07,15.28,319995
19-Aug-16,15.18,15.29,15.14,15.26,584987
18-Aug-16,15.13,15.20,15.06,15.19,491003
17-Aug-16,15.05,15.09,14.95,15.08,307186
16-Aug-16,15.03,15.19,14.98,15.05,276988
15-Aug-16,15.12,15.19,14.95,15.12,331598
12-Aug-16,15.10,15.10,14.97,15.06,259497
11-Aug-16,15.11,15.21,15.08,15.14,354417
10-Aug-16,15.15,15.20,15.05,15.09,402796
9-Aug-16,15.12,15.19,15.10,15.14,283772
8-Aug-16,15.10,15.12,15.02,15.08,389479
5-Aug-16,14.89,15.18,14.85,15.10,677202
4-Aug-16,14.78,14.89,14.78,14.84,400426
3-Aug-16,14.72,14.83,14.65,14.81,407493
2-Aug-16,14.73,14.84,14.65,14.68,370157
1-Aug-16,15.00,15.09,14.85,14.90,465974
29-Jul-16,14.87,15.03,14.86,14.91,520849
28-Jul-16,14.83,14.98,14.77,14.93,354216
27-Jul-16,14.94,14.94,14.80,14.87,606839
26-Jul-16,15.10,15.10,14.88,14.99,422416
25-Jul-16,15.02,15.08,14.93,14.97,459944
22-Jul-16,14.92,15.10,14.82,15.08,261827
21-Jul-16,14.90,14.96,14.82,14.89,260741
20-Jul-16,15.06,15.11,14.91,14.97,402147
19-Jul-16,15.00,15.14,14.97,15.03,278591
18-Jul-16,15.08,15.16,15.06,15.07,230958
15-Jul-16,15.12,15.16,15.02,15.12,381775
14-Jul-16,15.15,15.22,15.00,15.02,437293
13-Jul-16,15.10,15.14,15.02,15.09,392052
12-Jul-16,15.00,15.15,15.00,15.10,766057
11-Jul-16,14.82,14.98,14.80,14.96,559750
8-Jul-16,14.80,14.88,14.77,14.81,466763
7-Jul-16,14.68,14.82,14.58,14.69,373876
6-Jul-16,14.53,14.69,14.47,14.64,415577
5-Jul-16,14.58,14.64,14.48,14.57,920177
1-Jul-16,14.78,14.81,14.62,14.69,781365
30-Jun-16,14.34,14.83,14.31,14.83,806784
29-Jun-16,14.31,14.33,14.16,14.32,452381
28-Jun-16,14.14,14.36,13.99,14.18,603262
27-Jun-16,14.08,14.10,13.91,13.96,809057
24-Jun-16,14.05,14.52,14.05,14.21,1153079
23-Jun-16,14.65,14.78,14.63,14.78,438950
22-Jun-16,14.46,14.62,14.46,14.49,384388
21-Jun-16,14.36,14.49,14.25,14.43,404542
20-Jun-16,14.26,14.49,14.26,14.36,352027
17-Jun-16,14.24,14.33,14.06,14.12,1190310
16-Jun-16,14.21,14.27,14.12,14.22,359288
15-Jun-16,14.34,14.44,14.28,14.29,319688
14-Jun-16,14.42,14.53,14.28,14.32,374631
13-Jun-16,14.62,14.66,14.43,14.49,496989
10-Jun-16,14.68,14.72,14.56,14.70,434174
9-Jun-16,14.78,14.79,14.64,14.74,457033
8-Jun-16,14.77,14.86,14.69,14.83,353549
7-Jun-16,14.81,14.84,14.68,14.77,370796
6-Jun-16,14.67,14.82,14.67,14.77,399353
3-Jun-16,14.73,14.73,14.42,14.66,507243
2-Jun-16,14.77,14.82,14.57,14.82,612685
1-Jun-16,14.76,14.89,14.65,14.87,609407
31-May-16,14.79,14.84,14.71,14.81,741551
27-May-16,14.71,14.79,14.67,14.79,442909
26-May-16,14.80,14.88,14.69,14.71,477722
25-May-16,14.73,14.87,14.70,14.77,488638
24-May-16,14.51,14.75,14.36,14.74,668355
23-May-16,14.51,14.53,14.44,14.50,326619
20-May-16,14.39,14.54,14.39,14.50,503094
19-May-16,14.43,14.52,14.28,14.38,409394
18-May-16,14.10,14.52,14.07,14.51,514722
17-May-16,14.46,14.48,14.09,14.15,653013
16-May-16,14.24,14.53,14.10,14.48,945430
13-May-16,14.26,14.39,14.11,14.17,380419
12-May-16,14.26,14.36,14.16,14.28,527372
11-May-16,14.27,14.40,14.18,14.20,602017
10-May-16,14.05,14.30,14.02,14.26,604553
9-May-16,14.00,14.09,13.92,14.00,435753
6-May-16,13.83,14.04,13.83,14.03,591776
5-May-16,14.00,14.11,13.94,13.96,597909
4-May-16,13.84,14.02,13.76,13.95,614401
3-May-16,13.77,13.99,13.67,13.97,883164
2-May-16,14.13,14.18,13.98,14.10,733185
29-Apr-16,13.85,14.07,13.63,14.02,1231559
28-Apr-16,13.41,13.67,13.40,13.59,656188
27-Apr-16,13.82,13.86,13.52,13.66,556745
26-Apr-16,13.75,13.87,13.68,13.83,434848
25-Apr-16,13.56,13.80,13.50,13.67,537611
22-Apr-16,13.57,13.72,13.57,13.63,507283
21-Apr-16,13.71,13.81,13.52,13.55,536999
20-Apr-16,13.69,13.74,13.63,13.72,440111
19-Apr-16,13.78,13.78,13.64,13.72,406640
18-Apr-16,13.67,13.75,13.58,13.69,538298
15-Apr-16,13.68,13.81,13.65,13.73,392188
14-Apr-16,13.68,13.86,13.51,13.72,422103
13-Apr-16,13.50,13.75,13.48,13.75,578698
12-Apr-16,13.37,13.46,13.32,13.42,400848
11-Apr-16,13.16,13.46,13.16,13.37,475188
8-Apr-16,13.20,13.36,13.18,13.26,359166
7-Apr-16,13.37,13.38,13.09,13.15,514893
6-Apr-16,13.43,13.51,13.33,13.48,343813
5-Apr-16,13.55,13.62,13.41,13.41,490317
4-Apr-16,13.66,13.68,13.54,13.63,457108
1-Apr-16,13.53,13.67,13.42,13.62,507156
31-Mar-16,13.60,13.69,13.51,13.51,643234
30-Mar-16,13.60,13.71,13.58,13.64,458384
29-Mar-16,13.33,13.59,13.20,13.59,533718
28-Mar-16,13.38,13.48,13.33,13.39,585647
24-Mar-16,13.26,13.38,13.17,13.38,417332
23-Mar-16,13.39,13.49,13.31,13.31,555502
22-Mar-16,13.34,13.47,13.29,13.41,357243
21-Mar-16,13.57,13.66,13.27,13.43,660905
18-Mar-16,13.51,13.65,13.40,13.57,1133763
17-Mar-16,13.15,13.50,13.06,13.46,668810
16-Mar-16,13.16,13.30,13.14,13.22,347665
15-Mar-16,13.13,13.30,13.07,13.21,359871
14-Mar-16,13.27,13.33,13.19,13.24,366721
11-Mar-16,13.14,13.29,13.12,13.28,288182
10-Mar-16,13.12,13.20,12.93,13.08,489643
9-Mar-16,13.21,13.24,13.04,13.10,282098
8-Mar-16,13.11,13.30,13.09,13.15,444527
7-Mar-16,13.10,13.26,13.06,13.22,473386
4-Mar-16,13.06,13.19,12.76,13.14,468486
3-Mar-16,12.89,13.05,12.86,13.04,599915
2-Mar-16,12.90,12.94,12.76,12.94,407811
1-Mar-16,12.63,12.94,12.59,12.91,593654
29-Feb-16,12.73,12.76,12.58,12.59,457033
26-Feb-16,12.70,12.78,12.62,12.73,433512
25-Feb-16,12.44,12.69,12.44,12.67,321320
24-Feb-16,12.27,12.48,12.23,12.44,415953
23-Feb-16,12.44,12.61,12.38,12.40,372430
22-Feb-16,12.59,12.67,12.46,12.49,516355
19-Feb-16,12.39,12.59,12.36,12.47,565639
18-Feb-16,12.40,12.48,12.30,12.39,631228
17-Feb-16,12.41,12.56,12.32,12.34,531442
16-Feb-16,12.21,12.39,12.09,12.30,511949
12-Feb-16,11.96,12.13,11.93,12.10,851933
11-Feb-16,11.93,12.00,11.78,11.87,478994
10-Feb-16,12.15,12.29,12.06,12.07,584612
9-Feb-16,12.08,12.21,12.06,12.10,458018
8-Feb-16,12.00,12.24,11.86,12.18,647087
5-Feb-16,12.13,12.28,12.05,12.05,722750
4-Feb-16,12.10,12.29,11.90,12.06,436494
3-Feb-16,12.17,12.24,11.92,12.11,739808
2-Feb-16,12.16,12.25,11.96,12.05,478176
1-Feb-16,12.53,12.56,12.35,12.43,681441
29-Jan-16,12.59,12.59,12.43,12.57,1043208
28-Jan-16,12.57,12.65,12.51,12.56,679999
27-Jan-16,12.36,12.60,12.35,12.47,1368639
26-Jan-16,11.87,12.42,11.87,12.42,1269206
25-Jan-16,12.16,12.16,11.82,11.84,628806
22-Jan-16,12.14,12.22,12.00,12.18,550473
21-Jan-16,12.26,12.27,12.02,12.03,509173
20-Jan-16,12.06,12.35,11.99,12.26,640532
19-Jan-16,12.40,12.50,12.19,12.28,536637
15-Jan-16,12.05,12.29,12.01,12.29,801469
14-Jan-16,12.39,12.52,12.33,12.34,648992
13-Jan-16,12.73,12.97,12.32,12.38,545768
12-Jan-16,12.78,12.97,12.58,12.72,495819
11-Jan-16,12.67,12.80,12.61,12.71,412832
8-Jan-16,12.96,13.09,12.65,12.66,585370
7-Jan-16,12.93,13.04,12.86,12.90,593643
6-Jan-16,13.03,13.17,13.03,13.08,504915
5-Jan-16,13.11,13.24,13.10,13.17,525179
4-Jan-16,13.23,13.33,13.05,13.10,694093
31-Dec-15,13.56,13.62,13.39,13.39,383354
30-Dec-15,13.76,13.76,13.48,13.64,319104
29-Dec-15,13.61,13.76,13.52,13.76,352049
28-Dec-15,13.51,13.61,13.42,13.55,286872
24-Dec-15,13.55,13.61,13.44,13.55,186110
23-Dec-15,13.36,13.54,13.30,13.52,430088
22-Dec-15,13.34,13.37,13.13,13.33,366021
21-Dec-15,13.24,13.32,13.15,13.29,449663
18-Dec-15,13.18,13.51,13.13,13.15,1942888
17-Dec-15,13.68,13.80,13.50,13.52,524036
16-Dec-15,13.62,13.71,13.46,13.66,488819
15-Dec-15,13.43,13.68,13.31,13.59,545464
14-Dec-15,13.29,13.42,13.20,13.31,560575
11-Dec-15,13.30,13.51,13.26,13.32,562381
10-Dec-15,13.41,13.53,13.37,13.48,396012
9-Dec-15,13.55,13.61,13.37,13.42,460017
8-Dec-15,13.70,13.77,13.52,13.55,478341
7-Dec-15,13.89,13.89,13.68,13.76,510729
4-Dec-15,13.73,13.92,13.69,13.87,460599
3-Dec-15,13.95,13.99,13.71,13.73,408992
2-Dec-15,13.99,14.06,13.85,13.86,482038
1-Dec-15,14.04,14.11,13.87,13.98,482840
30-Nov-15,13.94,14.06,13.86,13.94,480539
27-Nov-15,13.90,13.96,13.85,13.92,119589
25-Nov-15,13.83,13.92,13.78,13.90,395164
24-Nov-15,13.80,13.85,13.69,13.84,507785
23-Nov-15,13.78,13.96,13.67,13.91,645924
20-Nov-15,13.66,13.79,13.63,13.75,786539
19-Nov-15,13.65,13.71,13.54,13.65,653968
18-Nov-15,13.53,13.65,13.37,13.62,741034
17-Nov-15,13.42,13.55,13.32,13.47,454663
16-Nov-15,13.35,13.42,13.22,13.41,359045
13-Nov-15,13.41,13.59,13.31,13.34,468202
12-Nov-15,13.66,13.74,13.44,13.46,472062
11-Nov-15,13.82,13.94,13.73,13.77,527626
10-Nov-15,13.70,13.85,13.64,13.77,599112
9-Nov-15,13.79,13.80,13.61,13.67,520607
6-Nov-15,13.58,13.84,13.56,13.80,529788
5-Nov-15,13.43,13.58,13.38,13.52,580203
4-Nov-15,13.40,13.41,13.26,13.40,431091
3-Nov-15,13.28,13.42,13.21,13.35,502442
2-Nov-15,13.50,13.54,13.33,13.47,589473
30-Oct-15,13.69,13.73,13.34,13.46,734595
29-Oct-15,14.02,14.02,13.69,13.74,776370
28-Oct-15,13.71,14.06,13.68,14.04,977260
27-Oct-15,13.61,13.83,13.48,13.64,705909
26-Oct-15,13.68,13.68,13.48,13.59,411207
23-Oct-15,13.56,13.64,13.44,13.64,478957
22-Oct-15,13.20,13.53,13.20,13.49,546660
21-Oct-15,13.31,13.43,13.16,13.20,489686
20-Oct-15,13.20,13.34,13.15,13.32,374020
19-Oct-15,13.11,13.25,13.11,13.17,289639
16-Oct-15,13.19,13.28,12.96,13.16,378313
15-Oct-15,12.94,13.19,12.82,13.19,765268
14-Oct-15,13.16,13.29,12.83,12.85,502475
13-Oct-15,13.18,13.30,13.12,13.19,318167
12-Oct-15,13.07,13.28,13.02,13.26,580568
9-Oct-15,13.23,13.23,13.01,13.05,449964
8-Oct-15,13.03,13.20,13.00,13.17,978801
7-Oct-15,13.02,13.10,12.92,13.09,707028
6-Oct-15,13.01,13.04,12.88,12.96,487160
5-Oct-15,12.86,13.02,12.60,13.01,531974
2-Oct-15,12.82,12.92,12.55,12.85,604187
1-Oct-15,13.00,13.02,12.79,12.97,998480
30-Sep-15,13.00,13.04,12.90,13.00,785635
29-Sep-15,12.98,13.00,12.86,12.94,768993
28-Sep-15,12.94,13.05,12.89,12.93,622919
25-Sep-15,12.97,13.10,12.94,13.00,677524
24-Sep-15,12.71,12.87,12.69,12.86,565289
23-Sep-15,12.72,12.83,12.69,12.78,395088
22-Sep-15,12.68,12.81,12.64,12.69,493450
21-Sep-15,12.65,12.83,12.63,12.80,565156
18-Sep-15,12.56,12.64,12.53,12.61,1748032
17-Sep-15,12.94,13.08,12.69,12.70,754281
16-Sep-15,12.92,13.00,12.87,12.99,410193
15-Sep-15,12.84,12.96,12.84,12.95,456667
14-Sep-15,12.73,12.86,12.72,12.82,312952
11-Sep-15,12.66,12.77,12.62,12.74,443048
10-Sep-15,12.62,12.79,12.58,12.73,541851
9-Sep-15,12.77,12.86,12.61,12.65,575531
8-Sep-15,12.56,12.67,12.50,12.66,671518
4-Sep-15,12.41,12.49,12.34,12.46,493825
3-Sep-15,12.46,12.57,12.42,12.53,546907
2-Sep-15,12.54,12.58,12.38,12.44,879170
1-Sep-15,12.66,12.70,12.41,12.43,944204
31-Aug-15,12.70,12.86,12.67,12.84,571007
28-Aug-15,12.64,12.80,12.60,12.77,671389
27-Aug-15,12.65,12.80,12.54,12.71,944376
26-Aug-15,12.52,12.61,12.36,12.60,932019
25-Aug-15,12.59,12.82,12.32,12.33,1065795
24-Aug-15,12.44,12.70,12.36,12.41,1614918
21-Aug-15,12.54,12.84,12.54,12.75,1387262
20-Aug-15,12.72,12.91,12.66,12.74,973251
19-Aug-15,12.82,12.98,12.75,12.83,667764
18-Aug-15,12.80,12.92,12.77,12.84,600311
17-Aug-15,12.88,12.93,12.71,12.86,737628
14-Aug-15,12.58,12.86,12.55,12.84,1802580
13-Aug-15,12.50,12.72,12.41,12.58,1322134
12-Aug-15,12.67,12.67,12.36,12.47,636179
11-Aug-15,12.73,12.82,12.59,12.68,472600
10-Aug-15,12.76,12.83,12.70,12.76,694444
7-Aug-15,12.63,12.74,12.57,12.68,564573
6-Aug-15,12.72,12.77,12.62,12.72,575059
5-Aug-15,12.70,12.80,12.63,12.70,403735
4-Aug-15,12.68,12.85,12.63,12.65,476370
3-Aug-15,12.70,12.75,12.58,12.67,496542
31-Jul-15,12.65,12.75,12.59,12.69,585093
30-Jul-15,12.50,12.66,12.50,12.63,487676
29-Jul-15,12.57,12.64,12.49,12.54,389519
28-Jul-15,12.52,12.57,12.43,12.55,683359
27-Jul-15,12.68,12.76,12.54,12.62,479297
24-Jul-15,12.77,12.80,12.65,12.66,456526
23-Jul-15,13.02,13.04,12.77,12.77,612045
22-Jul-15,12.88,13.03,12.88,12.98,538840
21-Jul-15,12.82,12.98,12.81,12.87,624898
20-Jul-15,12.96,13.01,12.79,12.85,508104
17-Jul-15,13.11,13.20,12.85,12.92,681494
16-Jul-15,13.21,13.21,13.03,13.05,593253
15-Jul-15,13.13,13.15,13.08,13.11,376230
14-Jul-15,13.10,13.15,13.01,13.11,506848
13-Jul-15,13.05,13.10,13.00,13.08,455924
10-Jul-15,12.99,13.07,12.96,12.98,814452
9-Jul-15,12.91,12.99,12.79,12.88,966573
8-Jul-15,12.57,12.80,12.55,12.73,1324866
7-Jul-15,12.75,12.75,12.58,12.64,610687
6-Jul-15,12.69,12.79,12.59,12.77,463186
2-Jul-15,12.98,12.99,12.74,12.75,632859
1-Jul-15,12.93,13.04,12.84,13.03,763779
30-Jun-15,12.84,12.90,12.74,12.82,713236
29-Jun-15,13.00,13.03,12.73,12.75,740505
26-Jun-15,12.90,13.00,12.82,12.99,1070368
25-Jun-15,12.91,12.95,12.80,12.90,578977
24-Jun-15,12.78,12.93,12.75,12.84,936668
23-Jun-15,12.69,12.82,12.61,12.81,596358
22-Jun-15,12.68,12.77,12.58,12.69,776671
19-Jun-15,12.62,12.67,12.56,12.65,708436
18-Jun-15,12.56,12.65,12.50,12.61,447446
17-Jun-15,12.65,12.65,12.45,12.51,508113
16-Jun-15,12.53,12.65,12.39,12.62,455441
15-Jun-15,12.52,12.59,12.42,12.53,474019
12-Jun-15,12.47,12.53,12.40,12.52,361678
11-Jun-15,12.56,12.56,12.43,12.49,432784
10-Jun-15,12.44,12.59,12.40,12.50,467101
9-Jun-15,12.36,12.46,12.29,12.39,402338
8-Jun-15,12.39,12.40,12.30,12.37,410674
5-Jun-15,12.25,12.41,12.22,12.38,434675
4-Jun-15,12.31,12.35,12.16,12.23,509163
3-Jun-15,12.34,12.39,12.13,12.34,388529
2-Jun-15,12.13,12.32,12.01,12.27,523321
1-Jun-15,12.19,12.20,12.03,12.13,547084
29-May-15,12.20,12.25,12.06,12.10,859925
28-May-15,12.04,12.21,12.04,12.19,626885
27-May-15,12.08,12.13,11.98,12.04,1895365
26-May-15,12.14,12.19,11.95,12.03,1372397
22-May-15,12.21,12.24,12.12,12.19,503005
21-May-15,12.33,12.33,12.19,12.21,876435
20-May-15,12.39,12.39,12.25,12.31,466488
19-May-15,12.40,12.41,12.30,12.37,604010
18-May-15,12.18,12.38,12.16,12.36,403194
15-May-15,12.40,12.40,12.16,12.21,347402
14-May-15,12.35,12.43,12.24,12.39,562495
13-May-15,12.36,12.43,12.22,12.35,359506
12-May-15,12.19,12.36,12.13,12.35,440389
11-May-15,12.28,12.38,12.19,12.23,672619
8-May-15,12.27,12.34,12.15,12.24,289488
7-May-15,12.28,12.34,12.13,12.18,305969
6-May-15,12.25,12.36,12.11,12.28,552900
5-May-15,12.21,12.36,12.11,12.18,602165
4-May-15,12.27,12.37,12.22,12.27,384840
1-May-15,12.32,12.41,12.20,12.26,477372
30-Apr-15,12.37,12.44,12.26,12.31,819313
29-Apr-15,12.48,12.56,12.40,12.42,492426
28-Apr-15,12.40,12.50,12.37,12.48,663337
27-Apr-15,12.49,12.55,12.36,12.49,810603
24-Apr-15,12.42,12.48,12.35,12.45,522664
23-Apr-15,12.41,12.50,12.32,12.45,443016
22-Apr-15,12.48,12.50,12.32,12.42,521027
21-Apr-15,12.33,12.54,12.24,12.47,958395
20-Apr-15,12.08,12.31,12.05,12.25,1029683
17-Apr-15,12.15,12.25,12.01,12.05,563034
16-Apr-15,12.22,12.25,12.11,12.22,440971
15-Apr-15,12.11,12.24,12.02,12.21,554934
14-Apr-15,12.12,12.18,11.99,12.07,703579
13-Apr-15,11.99,12.11,11.91,12.11,455782
10-Apr-15,11.95,12.02,11.84,11.98,575214
9-Apr-15,11.87,11.95,11.77,11.87,571460
8-Apr-15,11.89,11.98,11.78,11.83,461561
7-Apr-15,11.90,11.99,11.85,11.86,379973
6-Apr-15,11.91,11.98,11.78,11.86,446883
2-Apr-15,11.85,11.98,11.79,11.95,542709
1-Apr-15,11.80,11.88,11.71,11.83,432764
31-Mar-15,11.88,11.89,11.75,11.85,566256
30-Mar-15,11.83,11.97,11.75,11.91,588313
27-Mar-15,11.70,11.74,11.55,11.72,483262
26-Mar-15,11.72,11.76,11.62,11.69,376186
25-Mar-15,11.86,11.92,11.67,11.69,529688
24-Mar-15,11.98,11.99,11.84,11.86,420730
23-Mar-15,11.96,12.03,11.92,11.97,367567
20-Mar-15,11.84,11.99,11.75,11.97,928986
19-Mar-15,11.86,11.96,11.72,11.81,296376
18-Mar-15,12.00,12.01,11.82,11.86,462062
17-Mar-15,11.85,12.03,11.79,12.00,679560
16-Mar-15,11.91,11.95,11.79,11.85,359995
13-Mar-15,11.89,11.89,11.70,11.88,415016
12-Mar-15,11.75,11.90,11.68,11.90,447480
11-Mar-15,11.73,11.73,11.56,11.66,513662
10-Mar-15,11.76,11.78,11.68,11.70,452394
9-Mar-15,11.75,11.89,11.72,11.83,511187
6-Mar-15,11.70,11.87,11.69,11.71,580922
5-Mar-15,11.76,11.83,11.62,11.70,342187
4-Mar-15,11.78,11.80,11.72,11.73,342159
3-Mar-15,11.84,11.87,11.80,11.80,442510
2-Mar-15,11.85,11.91,11.80,11.84,460480
27-Feb-15,11.78,11.88,11.73,11.82,997323
26-Feb-15,11.79,11.84,11.74,11.77,572638
25-Feb-15,11.78,11.93,11.72,11.77,400178
24-Feb-15,11.83,11.87,11.78,11.79,1050880
23-Feb-15,11.76,11.85,11.70,11.79,1554716
20-Feb-15,11.71,11.77,11.52,11.76,703818
19-Feb-15,11.74,11.80,11.67,11.68,1198203
18-Feb-15,11.81,11.82,11.71,11.76,669847
17-Feb-15,11.91,11.94,11.77,11.81,1197856
13-Feb-15,11.90,11.95,11.84,11.91,1071843
12-Feb-15,11.86,11.86,11.75,11.83,1272068
11-Feb-15,11.82,11.90,11.73,11.74,756116
10-Feb-15,11.94,11.97,11.77,11.82,1042520
9-Feb-15,11.86,11.89,11.78,11.83,1070823
6-Feb-15,11.86,11.91,11.84,11.85,3015677
5-Feb-15,11.79,11.86,11.78,11.85,774036
4-Feb-15,11.85,11.93,11.75,11.77,904067
3-Feb-15,11.88,12.03,11.82,11.85,1275435
2-Feb-15,11.87,12.02,11.76,11.99,573012
30-Jan-15,12.02,12.18,11.80,11.80,653929
29-Jan-15,11.82,12.11,11.76,12.10,725250
28-Jan-15,12.13,12.19,11.81,11.83,530050
27-Jan-15,12.10,12.12,11.95,12.02,597535
26-Jan-15,11.95,12.18,11.80,12.17,623013
23-Jan-15,12.09,12.14,11.96,11.99,301838
22-Jan-15,11.88,12.12,11.78,12.09,750316
21-Jan-15,11.91,12.00,11.73,11.78,455775
20-Jan-15,12.05,12.09,11.87,11.91,567726
16-Jan-15,11.83,12.05,11.80,12.00,848129
15-Jan-15,11.94,11.96,11.78,11.87,644707
14-Jan-15,11.93,11.99,11.82,11.96,440680
13-Jan-15,12.12,12.24,11.91,12.06,648037
12-Jan-15,12.04,12.10,11.94,12.01,500415
9-Jan-15,12.30,12.30,12.02,12.04,338620
8-Jan-15,12.20,12.40,12.08,12.30,534261
7-Jan-15,12.12,12.38,12.02,12.10,618095
6-Jan-15,12.32,12.44,12.00,12.09,707468
5-Jan-15,12.47,12.50,12.29,12.32,602599
2-Jan-15,12.62,12.62,12.30,12.49,463496
31-Dec-14,12.65,12.72,12.52,12.53,362941
30-Dec-14,12.60,12.74,12.56,12.64,261750
29-Dec-14,12.57,12.72,12.55,12.66,407777
26-Dec-14,12.55,12.62,12.51,12.54,253039
24-Dec-14,12.51,12.58,12.46,12.53,173768
23-Dec-14,12.52,12.58,12.45,12.47,370816
22-Dec-14,12.25,12.46,12.19,12.45,492760
19-Dec-14,12.22,12.34,12.16,12.26,2435252
18-Dec-14,12.29,12.31,12.09,12.22,809468
17-Dec-14,11.88,12.13,11.87,12.13,1278147
16-Dec-14,12.31,12.34,11.88,11.91,1516489
15-Dec-14,12.43,12.56,12.25,12.35,740871
12-Dec-14,12.36,12.54,12.28,12.37,991032
11-Dec-14,12.56,12.67,12.50,12.51,585145
10-Dec-14,12.86,12.93,12.49,12.50,604649
9-Dec-14,12.57,12.87,12.54,12.87,530968
8-Dec-14,12.84,12.96,12.64,12.72,376350
5-Dec-14,12.67,12.88,12.67,12.88,319494
4-Dec-14,12.69,12.70,12.57,12.67,374376
3-Dec-14,12.58,12.74,12.55,12.69,518043
2-Dec-14,12.46,12.79,12.46,12.55,623840
1-Dec-14,12.52,12.64,12.46,12.46,502768
28-Nov-14,12.88,12.94,12.55,12.59,411268
26-Nov-14,12.86,12.90,12.72,12.89,192412
25-Nov-14,12.90,12.90,12.79,12.88,162910
24-Nov-14,12.71,12.87,12.67,12.86,255670
21-Nov-14,12.93,12.93,12.61,12.66,379053
20-Nov-14,12.67,12.81,12.61,12.80,280554
19-Nov-14,12.86,12.89,12.59,12.72,346571
18-Nov-14,12.96,13.04,12.85,12.88,252013
17-Nov-14,13.04,13.08,12.91,12.93,227405
14-Nov-14,13.10,13.19,12.97,13.04,377175
13-Nov-14,13.30,13.30,13.08,13.09,363957
12-Nov-14,12.99,13.28,12.55,13.27,651849
11-Nov-14,13.13,13.14,13.00,13.03,265217
10-Nov-14,13.01,13.14,12.84,13.13,551208
7-Nov-14,12.92,12.97,12.81,12.96,284824
6-Nov-14,12.89,12.97,12.86,12.94,210573
5-Nov-14,12.96,12.99,12.84,12.90,314504
4-Nov-14,12.81,12.87,12.71,12.86,370984
3-Nov-14,12.82,12.92,12.77,12.83,360366
31-Oct-14,12.89,12.89,12.56,12.83,473569
30-Oct-14,12.64,12.73,12.53,12.70,659731
29-Oct-14,12.63,12.71,12.50,12.71,410956
28-Oct-14,12.38,12.63,12.38,12.63,413200
27-Oct-14,12.24,12.35,12.24,12.34,417923
24-Oct-14,12.34,12.34,12.20,12.32,472523
23-Oct-14,12.38,12.46,12.30,12.32,669001
22-Oct-14,12.47,12.57,12.38,12.40,463774
21-Oct-14,12.29,12.43,12.07,12.42,931443
20-Oct-14,12.02,12.21,12.01,12.15,681717
17-Oct-14,12.41,12.47,12.02,12.03,445773
16-Oct-14,11.94,12.30,11.92,12.22,600497
15-Oct-14,12.09,12.31,11.93,12.07,686440
14-Oct-14,12.24,12.34,12.10,12.26,530314
13-Oct-14,11.98,12.23,11.95,12.12,418512
10-Oct-14,11.86,12.08,11.86,11.96,593466
9-Oct-14,12.20,12.24,11.92,11.93,479661
8-Oct-14,11.95,12.22,11.95,12.19,376543
7-Oct-14,11.98,12.10,11.96,11.96,268580
6-Oct-14,12.22,12.22,12.06,12.07,336933
3-Oct-14,12.31,12.34,12.13,12.20,236409
2-Oct-14,12.07,12.25,12.05,12.18,323161
1-Oct-14,12.10,12.30,12.05,12.10,649586
30-Sep-14,12.26,12.33,12.05,12.10,877290
29-Sep-14,12.00,12.10,11.99,12.03,278901
26-Sep-14,12.09,12.18,12.02,12.08,412111
25-Sep-14,12.12,12.21,11.99,12.09,615268
24-Sep-14,12.12,12.20,12.07,12.17,332244
23-Sep-14,12.29,12.33,12.12,12.12,269362
22-Sep-14,12.37,12.52,12.29,12.29,263255
19-Sep-14,12.50,12.64,12.38,12.40,673207
18-Sep-14,12.47,12.57,12.43,12.49,299049
17-Sep-14,12.34,12.54,12.29,12.42,415379
16-Sep-14,12.40,12.44,12.30,12.36,298303
15-Sep-14,12.49,12.56,12.41,12.42,263875
12-Sep-14,12.54,12.56,12.39,12.52,381540
11-Sep-14,12.36,12.54,12.36,12.52,188832
10-Sep-14,12.29,12.47,12.29,12.44,239248
9-Sep-14,12.40,12.40,12.26,12.30,302243
8-Sep-14,12.41,12.46,12.36,12.45,197479
5-Sep-14,12.43,12.45,12.33,12.44,222395
4-Sep-14,12.53,12.63,12.46,12.47,192098
3-Sep-14,12.63,12.66,12.48,12.52,338958
2-Sep-14,12.64,12.67,12.47,12.60,522806
29-Aug-14,12.60,12.64,12.53,12.61,185588
28-Aug-14,12.58,12.66,12.51,12.54,527909
27-Aug-14,12.65,12.69,12.57,12.65,452923
26-Aug-14,12.59,12.69,12.59,12.65,283694
25-Aug-14,12.63,12.70,12.46,12.55,386257
22-Aug-14,12.66,12.74,12.57,12.58,331875
21-Aug-14,12.47,12.68,12.42,12.65,398535
20-Aug-14,12.48,12.53,12.43,12.48,344826
19-Aug-14,12.50,12.63,12.42,12.51,462948
18-Aug-14,12.44,12.54,12.42,12.50,338166
15-Aug-14,12.59,12.59,12.29,12.36,393510
14-Aug-14,12.44,12.51,12.34,12.48,425771
13-Aug-14,12.40,12.51,12.36,12.38,268702
12-Aug-14,12.34,12.42,12.29,12.33,335614
11-Aug-14,12.38,12.53,12.34,12.39,368968
8-Aug-14,12.24,12.41,12.24,12.33,302048
7-Aug-14,12.38,12.41,12.17,12.26,347010
6-Aug-14,12.26,12.40,12.26,12.36,344605
5-Aug-14,12.29,12.43,12.26,12.28,448798
4-Aug-14,12.36,12.40,12.22,12.35,362969
1-Aug-14,12.43,12.50,12.25,12.30,423619
31-Jul-14,12.50,12.60,12.40,12.40,392890
30-Jul-14,12.60,12.75,12.55,12.60,435291
29-Jul-14,12.49,12.60,12.43,12.53,412252
28-Jul-14,12.67,12.69,12.58,12.64,340562
25-Jul-14,12.65,12.76,12.60,12.69,367268
24-Jul-14,12.68,12.86,12.64,12.75,345326
23-Jul-14,12.69,12.79,12.63,12.67,506093
22-Jul-14,13.00,13.10,12.65,12.69,790840
21-Jul-14,13.05,13.13,12.93,13.01,520931
18-Jul-14,12.95,13.18,12.95,13.14,387593
17-Jul-14,13.13,13.14,12.95,12.99,446370
16-Jul-14,13.38,13.38,13.15,13.16,280891
15-Jul-14,13.34,13.43,13.20,13.31,306307
14-Jul-14,13.40,13.44,13.28,13.30,245485
11-Jul-14,13.30,13.34,13.22,13.28,250225
10-Jul-14,13.28,13.39,13.24,13.32,261013
9-Jul-14,13.49,13.56,13.43,13.47,290242
8-Jul-14,13.50,13.64,13.43,13.48,297755
7-Jul-14,13.65,13.65,13.52,13.54,356873
3-Jul-14,13.62,13.74,13.60,13.70,261041
2-Jul-14,13.66,13.71,13.52,13.56,389273
1-Jul-14,13.56,13.86,13.56,13.68,481672
30-Jun-14,13.54,13.58,13.43,13.57,322511
27-Jun-14,13.46,13.61,13.46,13.60,644005
26-Jun-14,13.48,13.60,13.37,13.54,233626
25-Jun-14,13.32,13.53,13.27,13.52,299231
24-Jun-14,13.37,13.59,13.37,13.41,403725
23-Jun-14,13.46,13.47,13.35,13.44,281262
20-Jun-14,13.44,13.54,13.32,13.49,882697
19-Jun-14,13.50,13.54,13.37,13.37,285264
18-Jun-14,13.43,13.53,13.34,13.49,320169
17-Jun-14,13.26,13.50,13.16,13.46,523156
16-Jun-14,13.29,13.32,13.18,13.27,350414
13-Jun-14,13.42,13.43,13.26,13.33,375785
12-Jun-14,13.45,13.46,13.33,13.36,459515
11-Jun-14,13.52,13.57,13.42,13.50,474334
10-Jun-14,13.61,13.63,13.43,13.59,462636
9-Jun-14,13.57,13.67,13.45,13.62,444299
6-Jun-14,13.62,13.66,13.52,13.59,455294
5-Jun-14,13.38,13.60,13.20,13.54,540370
4-Jun-14,13.20,13.32,13.16,13.27,316030
3-Jun-14,13.28,13.43,13.23,13.27,284493
2-Jun-14,13.31,13.36,13.15,13.30,458549
30-May-14,13.44,13.48,13.28,13.31,391005
29-May-14,13.36,13.42,13.18,13.42,419529
28-May-14,13.43,13.43,13.30,13.33,364523
27-May-14,13.45,13.50,13.30,13.47,317936
23-May-14,13.30,13.37,13.23,13.35,258895
22-May-14,13.25,13.29,13.20,13.26,274146
21-May-14,13.20,13.32,13.01,13.22,475549
20-May-14,13.29,13.48,13.12,13.15,789138
19-May-14,13.25,13.45,13.23,13.34,504516
16-May-14,13.20,13.28,13.13,13.26,693291
15-May-14,13.02,13.23,12.77,13.20,1031786
14-May-14,13.13,13.13,12.93,12.96,483363
13-May-14,13.36,13.43,13.16,13.17,517115
12-May-14,13.28,13.44,13.19,13.36,576901
9-May-14,12.95,13.20,12.93,13.19,353328
8-May-14,13.15,13.20,12.99,13.02,452741
7-May-14,13.05,13.14,12.96,13.14,711280
6-May-14,13.15,13.20,13.00,13.00,575534
5-May-14,13.22,13.26,13.10,13.15,762075
2-May-14,13.38,13.48,13.20,13.28,741534
1-May-14,13.25,13.38,13.00,13.33,1059775
30-Apr-14,13.25,13.32,13.05,13.29,715271
29-Apr-14,13.24,13.43,13.19,13.30,1078112
28-Apr-14,14.45,14.45,14.22,14.34,1424612
25-Apr-14,14.47,14.59,14.37,14.44,726628
24-Apr-14,14.70,14.70,14.49,14.56,495588
23-Apr-14,14.72,14.82,14.51,14.63,676171
22-Apr-14,14.51,14.81,14.51,14.71,961865
21-Apr-14,14.97,15.01,14.38,14.58,1020175
17-Apr-14,14.85,15.11,14.80,14.94,626092
16-Apr-14,14.89,14.89,14.69,14.86,581897
15-Apr-14,14.68,14.83,14.55,14.82,1009060
14-Apr-14,14.42,14.64,14.41,14.60,781837
11-Apr-14,14.17,14.36,14.16,14.23,442227
10-Apr-14,14.55,14.62,14.26,14.29,503605
9-Apr-14,14.67,14.67,14.48,14.57,267874
8-Apr-14,14.52,14.73,14.43,14.63,526507
7-Apr-14,14.44,14.58,14.27,14.52,484930
4-Apr-14,14.83,14.83,14.39,14.50,525829
3-Apr-14,14.69,14.79,14.65,14.73,241581
2-Apr-14,14.80,14.81,14.67,14.73,330081
1-Apr-14,14.64,14.79,14.51,14.79,438225
31-Mar-14,14.47,14.63,14.42,14.60,506884
28-Mar-14,14.43,14.64,14.36,14.40,382497
27-Mar-14,14.48,14.63,14.33,14.36,524134
26-Mar-14,14.83,14.86,14.52,14.52,455516
25-Mar-14,14.77,14.82,14.57,14.71,564559
24-Mar-14,14.73,14.85,14.59,14.69,446731
21-Mar-14,15.00,15.07,14.70,14.70,915866
20-Mar-14,14.60,14.99,14.60,14.93,682965
19-Mar-14,14.69,14.76,14.55,14.65,405163
18-Mar-14,14.50,14.70,14.40,14.70,638928
17-Mar-14,14.41,14.52,14.38,14.51,418028
14-Mar-14,14.04,14.38,14.01,14.31,544707
13-Mar-14,14.26,14.34,14.15,14.19,444064
12-Mar-14,14.35,14.39,14.14,14.26,478125
11-Mar-14,14.50,14.51,14.34,14.38,356659
10-Mar-14,14.47,14.55,14.40,14.51,390733
7-Mar-14,14.59,14.62,14.47,14.48,470591
6-Mar-14,14.48,14.59,14.43,14.56,496814
5-Mar-14,14.39,14.52,14.33,14.45,390016
4-Mar-14,14.35,14.64,14.23,14.43,1813101
3-Mar-14,14.23,14.29,14.14,14.20,370010
28-Feb-14,14.32,14.46,14.26,14.35,743727
27-Feb-14,14.21,14.31,14.14,14.28,480068
26-Feb-14,14.18,14.41,14.14,14.25,514005
25-Feb-14,14.33,14.37,14.18,14.23,502104
24-Feb-14,14.19,14.51,14.19,14.32,962146
21-Feb-14,14.09,14.18,13.99,14.15,409286
20-Feb-14,13.97,14.10,13.86,14.02,517443
19-Feb-14,14.23,14.31,13.93,13.98,542195
18-Feb-14,14.29,14.40,14.19,14.30,237830
14-Feb-14,14.25,14.36,14.09,14.27,396652
13-Feb-14,14.05,14.25,13.90,14.22,442377
12-Feb-14,14.15,14.27,14.04,14.09,308753
11-Feb-14,13.91,14.19,13.88,14.12,464670
10-Feb-14,13.89,13.95,13.76,13.93,649038
7-Feb-14,13.96,14.04,13.84,13.88,421253
6-Feb-14,13.92,14.10,13.86,13.92,535528
5-Feb-14,13.86,13.97,13.82,13.88,613803
4-Feb-14,13.80,14.10,13.66,13.89,758690
3-Feb-14,14.00,14.22,13.72,13.76,962053
31-Jan-14,14.08,14.49,14.03,14.06,695031
30-Jan-14,14.39,14.63,14.17,14.32,470375
29-Jan-14,14.67,14.87,14.46,14.47,591716
28-Jan-14,14.73,14.85,14.61,14.81,613579
27-Jan-14,14.75,14.85,14.66,14.66,697907
24-Jan-14,14.70,14.94,14.55,14.66,737694
23-Jan-14,14.78,14.84,14.71,14.81,430279
22-Jan-14,14.90,14.90,14.79,14.87,195971
21-Jan-14,14.75,14.89,14.73,14.89,353714
17-Jan-14,14.67,14.72,14.56,14.63,271318
16-Jan-14,14.76,14.81,14.58,14.65,256280
15-Jan-14,14.68,14.85,14.64,14.75,401557
14-Jan-14,14.67,14.83,14.61,14.69,339009
13-Jan-14,14.71,14.74,14.52,14.65,368343
10-Jan-14,14.87,14.87,14.69,14.77,336539
9-Jan-14,14.86,14.99,14.80,14.84,357733
8-Jan-14,14.72,14.86,14.66,14.85,877939
7-Jan-14,14.62,14.76,14.60,14.72,345842
6-Jan-14,14.76,14.76,14.46,14.55,533017
3-Jan-14,14.70,14.75,14.60,14.74,359997
2-Jan-14,14.71,14.79,14.57,14.71,504272
31-Dec-13,14.79,14.94,14.73,14.78,376563
30-Dec-13,14.82,14.84,14.74,14.77,292986
27-Dec-13,14.94,14.94,14.78,14.83,237987
26-Dec-13,14.99,15.00,14.86,14.87,193209
24-Dec-13,14.85,15.00,14.81,14.94,228641
23-Dec-13,14.83,14.93,14.80,14.88,412236
20-Dec-13,14.58,14.79,14.54,14.74,894625
19-Dec-13,14.73,14.73,14.52,14.52,296654
18-Dec-13,14.62,14.74,14.48,14.73,411845
17-Dec-13,14.71,14.71,14.56,14.58,443055
16-Dec-13,14.63,14.69,14.50,14.69,466737
13-Dec-13,14.58,14.64,14.47,14.59,305638
12-Dec-13,14.46,14.63,14.44,14.55,315719
11-Dec-13,14.66,14.68,14.43,14.48,512343
10-Dec-13,14.76,14.83,14.60,14.67,412251
9-Dec-13,14.94,14.99,14.75,14.83,493212
6-Dec-13,14.86,15.00,14.73,14.97,415356
5-Dec-13,14.75,14.75,14.65,14.73,230927
4-Dec-13,14.84,14.95,14.69,14.79,508243
3-Dec-13,14.97,15.05,14.75,14.88,1166639
2-Dec-13,14.90,15.03,14.79,14.95,1285498
29-Nov-13,15.02,15.03,14.85,14.94,326726
27-Nov-13,14.80,14.97,14.78,14.94,578313
26-Nov-13,14.77,14.86,14.70,14.82,1485787
25-Nov-13,14.37,14.90,14.37,14.71,1795907
22-Nov-13,14.23,14.41,14.10,14.39,522121
21-Nov-13,13.96,14.24,13.91,14.20,550836
20-Nov-13,13.96,13.98,13.85,13.89,323697
19-Nov-13,13.91,14.01,13.87,13.88,332865
18-Nov-13,13.98,14.07,13.86,13.88,443681
15-Nov-13,13.95,14.02,13.83,13.98,540184
14-Nov-13,14.04,14.04,13.92,13.98,289506
13-Nov-13,13.79,13.99,13.76,13.99,352583
12-Nov-13,13.92,13.97,13.79,13.84,350531
11-Nov-13,14.11,14.16,13.92,13.92,357850
8-Nov-13,13.61,14.14,13.56,14.10,987944
7-Nov-13,13.92,14.00,13.46,13.59,4772233
6-Nov-13,13.85,13.98,13.68,13.85,510119
5-Nov-13,13.72,13.83,13.69,13.75,536021
4-Nov-13,13.86,13.91,13.71,13.79,702202
1-Nov-13,13.96,13.98,13.72,13.79,992165
31-Oct-13,14.15,14.16,13.98,13.99,574369
30-Oct-13,14.29,14.35,14.16,14.18,517198
29-Oct-13,14.42,14.43,14.17,14.36,412581
28-Oct-13,14.60,14.61,14.44,14.49,673555
25-Oct-13,14.51,14.58,14.43,14.57,702500
24-Oct-13,14.41,14.49,14.37,14.46,476232
23-Oct-13,14.37,14.49,14.24,14.41,699800
22-Oct-13,14.10,14.44,14.05,14.41,734152
21-Oct-13,14.02,14.13,13.90,14.08,522742
18-Oct-13,14.00,14.05,13.79,13.97,686069
17-Oct-13,13.78,13.95,13.73,13.95,584003
16-Oct-13,13.82,13.91,13.75,13.82,469069
15-Oct-13,13.75,13.80,13.70,13.76,772290
14-Oct-13,13.56,13.78,13.50,13.78,591929
11-Oct-13,13.44,13.66,13.37,13.66,369706
10-Oct-13,13.34,13.47,13.31,13.47,398940
9-Oct-13,13.29,13.31,13.15,13.19,648238
8-Oct-13,13.23,13.31,13.19,13.21,515720
7-Oct-13,13.38,13.42,13.24,13.24,470708
4-Oct-13,13.25,13.46,13.25,13.45,474413
3-Oct-13,13.27,13.36,13.16,13.28,825394
2-Oct-13,13.30,13.39,13.22,13.31,642942
1-Oct-13,13.18,13.39,13.18,13.39,741176
30-Sep-13,13.08,13.24,13.00,13.21,637530
27-Sep-13,13.15,13.26,13.13,13.15,461285
26-Sep-13,13.03,13.34,12.88,13.21,1797712
25-Sep-13,13.18,13.28,12.96,13.03,959992
24-Sep-13,13.14,13.22,13.10,13.14,880938
23-Sep-13,13.31,13.32,13.11,13.14,945242
20-Sep-13,13.26,13.36,13.15,13.28,1231232
19-Sep-13,13.60,13.62,13.10,13.26,1558890
18-Sep-13,13.63,13.80,13.53,13.60,535242
17-Sep-13,13.50,13.66,13.46,13.66,420019
16-Sep-13,13.65,13.74,13.47,13.53,766464
13-Sep-13,13.55,13.72,13.43,13.49,278784
12-Sep-13,13.59,13.65,13.46,13.48,388877
11-Sep-13,13.62,13.70,13.56,13.60,391883
10-Sep-13,13.63,13.67,13.52,13.67,384000
9-Sep-13,13.44,13.56,13.40,13.55,363245
6-Sep-13,13.52,13.52,13.30,13.42,466542
5-Sep-13,13.49,13.57,13.41,13.51,333552
4-Sep-13,13.40,13.60,13.40,13.45,364578
3-Sep-13,13.49,13.63,13.34,13.43,961519
30-Aug-13,13.45,13.49,13.26,13.34,576811
29-Aug-13,13.38,13.52,13.38,13.50,358598
28-Aug-13,13.34,13.48,13.30,13.41,408683
27-Aug-13,13.59,13.66,13.30,13.31,502661
26-Aug-13,13.81,13.87,13.70,13.75,274914
23-Aug-13,13.80,13.86,13.73,13.81,333490
22-Aug-13,13.63,13.82,13.61,13.81,363680
21-Aug-13,13.70,13.74,13.60,13.61,457278
20-Aug-13,13.60,13.81,13.51,13.77,383751
19-Aug-13,13.61,13.66,13.53,13.58,634250
16-Aug-13,13.59,13.75,13.58,13.67,455811
15-Aug-13,13.71,13.80,13.64,13.65,857796
14-Aug-13,13.80,13.92,13.70,13.77,809163
13-Aug-13,13.86,13.94,13.75,13.81,516859
12-Aug-13,13.67,13.85,13.64,13.83,670823
9-Aug-13,13.75,14.01,13.72,13.76,456574
8-Aug-13,13.80,13.86,13.75,13.80,546436
7-Aug-13,13.96,13.99,13.76,13.78,517900
6-Aug-13,14.01,14.10,13.91,13.98,338915
5-Aug-13,13.99,14.11,13.87,14.07,411728
2-Aug-13,13.99,14.00,13.89,14.00,362416
1-Aug-13,13.94,14.01,13.90,13.99,579137
31-Jul-13,13.91,14.00,13.82,13.82,428901
30-Jul-13,13.97,14.04,13.87,13.91,468018
29-Jul-13,14.16,14.21,14.01,14.04,530829
26-Jul-13,14.21,14.43,14.11,14.18,348311
25-Jul-13,14.16,14.43,14.10,14.31,489655
24-Jul-13,14.22,14.37,14.15,14.19,699623
23-Jul-13,13.58,14.28,13.25,14.22,1095339
22-Jul-13,14.29,14.45,14.25,14.37,396548
19-Jul-13,14.33,14.42,14.28,14.39,385906
18-Jul-13,14.27,14.42,14.27,14.37,413206
17-Jul-13,14.32,14.57,14.22,14.27,343695
16-Jul-13,14.32,14.53,14.18,14.23,505007
15-Jul-13,14.18,14.32,14.16,14.29,373996
12-Jul-13,14.05,14.21,14.05,14.19,564416
11-Jul-13,14.35,14.37,13.99,14.09,1054742
10-Jul-13,14.34,14.34,14.20,14.26,550781
9-Jul-13,14.33,14.43,14.18,14.33,891951
8-Jul-13,14.24,14.44,14.23,14.29,448958
5-Jul-13,14.06,14.27,13.97,14.26,521853
3-Jul-13,13.83,14.00,13.78,13.99,329156
2-Jul-13,13.73,13.92,13.73,13.91,706601
1-Jul-13,13.60,13.85,13.55,13.80,650428
28-Jun-13,13.30,13.58,13.15,13.51,1916746
27-Jun-13,13.21,13.32,13.21,13.23,563394
26-Jun-13,13.42,13.45,13.17,13.18,923141
25-Jun-13,13.02,13.34,13.00,13.29,1038246
24-Jun-13,12.86,13.09,12.77,12.98,1011937
21-Jun-13,12.56,12.97,12.54,12.92,2612607
20-Jun-13,12.43,12.63,12.43,12.50,667963
19-Jun-13,12.65,12.65,12.51,12.56,472801
18-Jun-13,12.51,12.69,12.47,12.64,581411
17-Jun-13,12.45,12.58,12.41,12.53,466536
14-Jun-13,12.52,12.59,12.34,12.39,502903
13-Jun-13,12.31,12.56,12.30,12.50,353188
12-Jun-13,12.45,12.49,12.28,12.33,495968
11-Jun-13,12.49,12.61,12.39,12.41,417040
10-Jun-13,12.55,12.66,12.50,12.57,333653
7-Jun-13,12.58,12.58,12.42,12.54,332313
6-Jun-13,12.39,12.50,12.28,12.50,420860
5-Jun-13,12.44,12.58,12.37,12.42,478669
4-Jun-13,12.55,12.63,12.39,12.49,450090
3-Jun-13,12.38,12.54,12.28,12.52,792007
31-May-13,12.51,12.54,12.39,12.40,398984
30-May-13,12.47,12.56,12.45,12.54,330459
29-May-13,12.53,12.60,12.42,12.46,382768
28-May-13,12.70,12.90,12.59,12.63,524522
24-May-13,12.53,12.64,12.49,12.64,279931
23-May-13,12.59,12.73,12.51,12.63,397095
22-May-13,12.78,12.95,12.56,12.64,632554
21-May-13,12.78,12.84,12.68,12.80,395611
20-May-13,12.68,12.80,12.63,12.75,362934
17-May-13,12.68,12.73,12.62,12.72,493145
16-May-13,12.58,12.71,12.50,12.62,703139
15-May-13,12.44,12.56,12.38,12.55,719914
14-May-13,12.23,12.45,12.23,12.44,760505
13-May-13,12.27,12.28,12.21,12.24,493621
10-May-13,12.28,12.28,12.22,12.25,339942
9-May-13,12.32,12.34,12.22,12.24,875736
8-May-13,12.42,12.42,12.29,12.37,358952
7-May-13,12.30,12.42,12.26,12.41,457602
6-May-13,12.24,12.32,12.19,12.30,536784
3-May-13,12.24,12.35,12.15,12.27,629908
2-May-13,12.05,12.26,11.98,12.10,903149
1-May-13,12.20,12.27,11.98,11.99,1189123
30-Apr-13,12.34,12.35,12.23,12.25,676716
29-Apr-13,12.52,12.59,12.42,12.53,522804
26-Apr-13,12.51,12.54,12.38,12.50,634693
25-Apr-13,12.54,12.60,12.49,12.51,743509
24-Apr-13,12.44,12.54,12.42,12.53,460894
23-Apr-13,12.58,12.59,12.38,12.47,607807
22-Apr-13,12.55,12.61,12.26,12.56,870769
19-Apr-13,12.20,12.36,12.16,12.33,439478
18-Apr-13,12.24,12.25,12.10,12.21,507624
17-Apr-13,12.07,12.26,11.98,12.25,1435919
16-Apr-13,12.14,12.16,12.03,12.10,892064
15-Apr-13,12.29,12.33,12.00,12.01,847464
12-Apr-13,12.43,12.47,12.35,12.37,324049
11-Apr-13,12.55,12.57,12.44,12.46,374228
10-Apr-13,12.35,12.59,12.35,12.57,369307
9-Apr-13,12.45,12.52,12.33,12.34,385993
8-Apr-13,12.41,12.47,12.30,12.47,249856
5-Apr-13,12.27,12.42,12.27,12.42,280096
4-Apr-13,12.30,12.45,12.30,12.44,356749
3-Apr-13,12.49,12.49,12.29,12.30,430718
2-Apr-13,12.61,12.62,12.41,12.42,279322
1-Apr-13,12.72,12.72,12.48,12.53,440735
28-Mar-13,12.75,12.75,12.65,12.68,304073
27-Mar-13,12.60,12.73,12.50,12.70,416708
26-Mar-13,12.56,12.65,12.50,12.63,393857
25-Mar-13,12.65,12.65,12.46,12.48,1184699
22-Mar-13,12.58,12.59,12.49,12.53,813777
21-Mar-13,12.65,12.79,12.50,12.51,989444
20-Mar-13,12.69,12.77,12.66,12.72,316064
19-Mar-13,12.75,12.81,12.59,12.60,643622
18-Mar-13,12.64,12.75,12.60,12.69,285460
15-Mar-13,12.64,12.79,12.59,12.71,1532489
14-Mar-13,12.54,12.65,12.43,12.61,440352
13-Mar-13,12.45,12.54,12.37,12.52,313214
12-Mar-13,12.51,12.54,12.38,12.41,483818
11-Mar-13,12.53,12.60,12.43,12.51,446494
8-Mar-13,12.69,12.70,12.56,12.57,368413
7-Mar-13,12.50,12.60,12.49,12.55,249924
6-Mar-13,12.57,12.69,12.46,12.52,286664
5-Mar-13,12.63,12.76,12.47,12.57,362794
4-Mar-13,12.49,12.68,12.46,12.60,487276
1-Mar-13,12.39,12.58,12.31,12.55,366593
28-Feb-13,12.54,12.60,12.44,12.50,367463
27-Feb-13,12.49,12.60,12.41,12.53,428484
26-Feb-13,12.50,12.53,12.40,12.47,288228
25-Feb-13,12.76,12.79,12.43,12.43,419592
22-Feb-13,12.69,12.71,12.61,12.70,263498
21-Feb-13,12.69,12.73,12.56,12.61,378198
20-Feb-13,12.90,12.90,12.66,12.68,515489
19-Feb-13,12.63,12.95,12.59,12.90,915701
15-Feb-13,12.55,12.62,12.47,12.58,526142
14-Feb-13,12.44,12.56,12.25,12.48,336954
13-Feb-13,12.39,12.50,12.31,12.49,314821
12-Feb-13,12.38,12.44,12.26,12.40,458428
11-Feb-13,12.38,12.40,12.35,12.38,250653
8-Feb-13,12.35,12.40,12.32,12.35,358624
7-Feb-13,12.37,12.38,12.28,12.31,411454
6-Feb-13,12.19,12.35,12.19,12.35,494322
5-Feb-13,12.11,12.27,12.08,12.25,1203444
4-Feb-13,12.16,12.20,12.05,12.07,497249
1-Feb-13,12.23,12.27,12.17,12.19,1070978
31-Jan-13,12.11,12.21,12.06,12.20,1063303
30-Jan-13,12.26,12.28,12.04,12.10,787152
29-Jan-13,12.26,12.34,12.22,12.24,465915
28-Jan-13,12.33,12.35,12.21,12.28,519877
25-Jan-13,12.36,12.40,12.30,12.31,590133
24-Jan-13,12.30,12.41,12.22,12.31,860822
23-Jan-13,12.40,12.40,12.25,12.31,397604
22-Jan-13,12.21,12.39,12.19,12.37,737256
18-Jan-13,12.25,12.33,12.18,12.18,600741
17-Jan-13,12.25,12.31,12.22,12.29,757166
16-Jan-13,12.29,12.31,12.22,12.23,388350
15-Jan-13,12.33,12.35,12.27,12.30,492960
14-Jan-13,12.37,12.40,12.31,12.37,359955
11-Jan-13,12.45,12.45,12.29,12.40,276382
10-Jan-13,12.44,12.44,12.36,12.42,142819
9-Jan-13,12.38,12.45,12.35,12.41,339444
8-Jan-13,12.36,12.42,12.26,12.37,270518
7-Jan-13,12.35,12.40,12.32,12.38,269467
4-Jan-13,12.45,12.48,12.35,12.42,308913
3-Jan-13,12.46,12.46,12.35,12.39,405891
2-Jan-13,12.25,12.47,12.20,12.44,836463
31-Dec-12,12.02,12.15,11.99,12.14,386727
28-Dec-12,12.05,12.13,11.99,12.04,465841
27-Dec-12,12.07,12.20,11.94,12.12,664109
26-Dec-12,12.12,12.23,12.00,12.03,331381
24-Dec-12,12.20,12.20,11.91,12.08,299253
21-Dec-12,12.02,12.16,11.99,12.15,1343344
20-Dec-12,12.11,12.12,12.00,12.09,451750
19-Dec-12,12.12,12.20,12.07,12.07,470874
18-Dec-12,12.04,12.12,12.00,12.12,415038
17-Dec-12,11.93,12.22,11.88,12.05,1360304
14-Dec-12,11.91,11.97,11.83,11.88,191902
13-Dec-12,11.78,12.00,11.78,11.93,454378
12-Dec-12,12.03,12.09,11.93,11.96,432292
11-Dec-12,12.00,12.04,11.91,12.04,513184
10-Dec-12,11.95,11.97,11.90,11.95,376846
7-Dec-12,11.99,11.99,11.81,11.93,373171
6-Dec-12,11.92,11.99,11.88,11.92,432554
5-Dec-12,11.96,11.98,11.86,11.95,396580
4-Dec-12,11.91,11.96,11.80,11.96,488590
3-Dec-12,11.99,11.99,11.87,11.94,212647
30-Nov-12,11.94,11.98,11.79,11.93,507245
29-Nov-12,11.82,11.94,11.74,11.90,303396
28-Nov-12,11.76,11.79,11.61,11.78,459023
27-Nov-12,11.85,11.90,11.67,11.82,397767
26-Nov-12,11.77,11.86,11.60,11.83,316550
23-Nov-12,11.57,11.80,11.57,11.78,232413
21-Nov-12,11.50,11.57,11.41,11.55,271570
20-Nov-12,11.38,11.55,11.32,11.50,379922
19-Nov-12,11.46,11.58,11.38,11.43,470787
16-Nov-12,11.24,11.42,11.11,11.38,466602
15-Nov-12,11.32,11.41,11.18,11.28,462177
14-Nov-12,11.33,11.44,11.25,11.28,328247
13-Nov-12,11.32,11.45,11.27,11.35,257286
12-Nov-12,11.44,11.48,11.28,11.40,206767
9-Nov-12,11.27,11.48,11.15,11.38,310138
8-Nov-12,11.46,11.53,11.33,11.35,362694
7-Nov-12,11.75,11.77,11.46,11.46,446390
6-Nov-12,11.82,12.00,11.81,11.85,415990
5-Nov-12,11.73,11.85,11.62,11.75,298496
2-Nov-12,11.94,11.94,11.69,11.71,403308
1-Nov-12,11.92,12.04,11.87,11.91,450353
31-Oct-12,11.78,11.99,11.78,11.90,351417
26-Oct-12,11.95,11.97,11.82,11.91,424446
25-Oct-12,11.85,11.94,11.77,11.92,391477
24-Oct-12,11.80,11.81,11.63,11.76,538168
23-Oct-12,11.89,11.99,11.58,11.78,758438
22-Oct-12,12.20,12.24,12.09,12.22,267010
19-Oct-12,12.11,12.23,12.05,12.19,498350
18-Oct-12,12.30,12.38,12.14,12.14,319651
17-Oct-12,12.18,12.34,12.18,12.34,195955
16-Oct-12,12.29,12.35,12.15,12.18,210227
15-Oct-12,12.20,12.29,12.16,12.22,224684
12-Oct-12,12.34,12.34,12.12,12.16,234428
11-Oct-12,12.39,12.41,12.34,12.37,187385
10-Oct-12,12.26,12.34,12.21,12.33,246466
9-Oct-12,12.33,12.46,12.20,12.25,258395
8-Oct-12,12.26,12.38,12.26,12.31,342319
5-Oct-12,12.42,12.47,12.18,12.33,568849
4-Oct-12,12.33,12.40,12.20,12.38,335542
3-Oct-12,12.38,12.38,12.24,12.27,250076
2-Oct-12,12.31,12.42,12.20,12.34,311102
1-Oct-12,12.28,12.50,12.20,12.22,294655
28-Sep-12,12.26,12.31,12.21,12.23,267965
27-Sep-12,12.35,12.49,12.17,12.33,268191
26-Sep-12,12.38,12.51,12.26,12.31,225293
25-Sep-12,12.63,12.70,12.37,12.39,391738
24-Sep-12,12.56,12.63,12.32,12.59,254779
21-Sep-12,12.63,12.63,12.45,12.46,624561
20-Sep-12,12.31,12.52,12.23,12.48,476082
19-Sep-12,12.28,12.43,12.28,12.40,394536
18-Sep-12,12.21,12.34,12.21,12.29,234918
17-Sep-12,12.38,12.44,12.24,12.26,329075
14-Sep-12,12.44,12.53,12.38,12.45,448829
13-Sep-12,12.19,12.45,12.15,12.36,410294
12-Sep-12,12.23,12.26,12.17,12.22,193034
11-Sep-12,12.18,12.23,12.13,12.19,318718
10-Sep-12,12.18,12.25,12.13,12.14,338441
7-Sep-12,12.45,12.46,12.04,12.18,1177089
6-Sep-12,12.29,12.48,12.17,12.39,437538
5-Sep-12,12.28,12.29,12.15,12.25,337386
4-Sep-12,12.08,12.24,12.01,12.21,280255
31-Aug-12,12.07,12.12,12.02,12.08,415424
30-Aug-12,12.04,12.05,11.95,12.03,303163
29-Aug-12,12.00,12.09,11.99,12.08,163626
28-Aug-12,11.97,12.10,11.92,12.00,278905
27-Aug-12,11.97,12.12,11.95,11.99,180837
24-Aug-12,11.87,12.02,11.77,11.96,245701
23-Aug-12,11.92,12.03,11.81,11.93,342063
22-Aug-12,12.00,12.06,11.93,11.97,231223
21-Aug-12,12.05,12.24,12.03,12.04,334331
20-Aug-12,11.89,12.03,11.89,12.02,238781
17-Aug-12,11.78,11.95,11.77,11.93,280365
16-Aug-12,11.79,11.84,11.62,11.83,696814
15-Aug-12,11.67,11.80,11.65,11.74,430496
14-Aug-12,11.83,11.86,11.65,11.68,446259
13-Aug-12,11.87,11.92,11.67,11.76,269303
10-Aug-12,11.86,11.91,11.79,11.85,173796
9-Aug-12,11.90,11.95,11.87,11.88,151692
8-Aug-12,11.91,11.95,11.84,11.93,302034
7-Aug-12,11.89,12.02,11.77,11.93,299021
6-Aug-12,11.82,11.93,11.78,11.86,432808
3-Aug-12,11.67,11.94,11.67,11.85,622640
2-Aug-12,11.58,11.63,11.52,11.58,370922
1-Aug-12,11.67,11.72,11.56,11.63,452004
31-Jul-12,11.60,11.71,11.54,11.65,327538
30-Jul-12,11.66,11.76,11.58,11.74,400597
27-Jul-12,11.46,11.77,11.29,11.65,575901
26-Jul-12,11.66,11.66,11.36,11.44,804797
25-Jul-12,11.49,11.60,11.45,11.53,414080
24-Jul-12,11.36,11.45,11.26,11.43,538335
23-Jul-12,11.31,11.43,11.22,11.31,316252
20-Jul-12,11.60,11.63,11.45,11.46,554222
19-Jul-12,11.86,11.89,11.66,11.69,452141
18-Jul-12,11.87,11.97,11.83,11.86,654476
17-Jul-12,11.89,11.94,11.68,11.89,386040
16-Jul-12,11.84,11.90,11.71,11.81,546758
13-Jul-12,11.78,11.93,11.65,11.91,639700
12-Jul-12,11.78,11.84,11.66,11.78,250803
11-Jul-12,11.82,11.87,11.78,11.84,344743
10-Jul-12,11.99,11.99,11.64,11.83,688340
9-Jul-12,12.02,12.02,11.87,11.89,412642
6-Jul-12,11.76,11.96,11.76,11.93,231098
5-Jul-12,11.87,11.95,11.84,11.89,535224
3-Jul-12,11.91,11.97,11.86,11.94,191328
2-Jul-12,11.70,11.87,11.67,11.87,306974
29-Jun-12,11.66,11.71,11.52,11.71,410174
28-Jun-12,11.44,11.50,11.26,11.44,283598
27-Jun-12,11.39,11.56,11.35,11.52,267903
26-Jun-12,11.36,11.46,11.34,11.39,284876
25-Jun-12,11.40,11.44,11.33,11.37,323073
22-Jun-12,11.41,11.54,11.34,11.51,554677
21-Jun-12,11.36,11.37,11.20,11.33,580924
20-Jun-12,11.21,11.44,11.21,11.31,379011
19-Jun-12,11.14,11.33,11.10,11.25,441262
18-Jun-12,11.08,11.18,11.08,11.11,411019
15-Jun-12,11.28,11.33,11.12,11.14,1090133
14-Jun-12,11.19,11.33,11.19,11.31,239824
13-Jun-12,11.23,11.40,11.08,11.20,319309
12-Jun-12,11.14,11.31,11.12,11.28,321215
11-Jun-12,11.70,11.72,11.07,11.09,1039397
8-Jun-12,11.40,11.64,11.36,11.58,217036
7-Jun-12,11.59,11.59,11.42,11.44,368057
6-Jun-12,11.33,11.47,11.29,11.46,379301
5-Jun-12,11.23,11.37,11.15,11.30,657881
4-Jun-12,11.14,11.22,11.03,11.21,463010
1-Jun-12,11.27,11.37,11.13,11.14,327722
31-May-12,11.53,11.54,11.44,11.47,422901
30-May-12,11.68,11.71,11.54,11.54,252282
29-May-12,11.85,11.86,11.69,11.78,167424
25-May-12,11.75,11.79,11.67,11.74,292689
24-May-12,11.65,11.73,11.48,11.73,383495
23-May-12,11.63,11.69,11.43,11.64,633093
22-May-12,11.84,11.90,11.63,11.70,331066
21-May-12,11.80,11.94,11.76,11.82,524917
18-May-12,11.87,11.97,11.76,11.78,394786
17-May-12,12.01,12.10,11.88,11.90,416315
16-May-12,12.03,12.11,11.94,11.94,262601
15-May-12,11.85,12.06,11.85,12.02,632470
14-May-12,11.92,12.00,11.86,11.87,540509
11-May-12,12.00,12.10,11.95,12.00,451267
10-May-12,12.05,12.19,12.00,12.12,300324
9-May-12,12.02,12.12,11.95,11.99,453627
8-May-12,12.06,12.20,12.02,12.11,560628
7-May-12,12.03,12.18,12.00,12.12,525016
4-May-12,11.97,12.11,11.88,12.03,586877
3-May-12,12.13,12.22,11.89,12.02,1014863
2-May-12,12.11,12.22,12.04,12.17,347965
1-May-12,12.16,12.35,12.12,12.15,436231
30-Apr-12,12.50,12.54,12.29,12.32,321670
27-Apr-12,12.34,12.50,12.30,12.46,236387
26-Apr-12,12.29,12.38,12.24,12.37,242036
25-Apr-12,12.46,12.49,12.30,12.36,460809
24-Apr-12,12.33,12.40,12.19,12.34,504821
23-Apr-12,12.34,12.45,12.25,12.30,311295
20-Apr-12,12.69,12.69,12.32,12.53,297694
19-Apr-12,12.44,12.51,12.29,12.44,441031
18-Apr-12,12.57,12.60,12.38,12.48,201736
17-Apr-12,12.54,12.72,12.46,12.65,361601
16-Apr-12,12.28,12.49,12.24,12.43,223842
13-Apr-12,12.51,12.51,12.25,12.26,287184
12-Apr-12,12.51,12.63,12.46,12.59,222197
11-Apr-12,12.40,12.53,12.31,12.53,375432
10-Apr-12,12.48,12.56,12.25,12.27,384005
9-Apr-12,12.51,12.61,12.43,12.48,266149
5-Apr-12,12.65,12.67,12.60,12.63,282107
4-Apr-12,12.80,12.83,12.65,12.72,259898
3-Apr-12,12.89,13.00,12.76,12.94,346238
2-Apr-12,12.69,12.96,12.60,12.93,430240
30-Mar-12,12.90,13.08,12.70,12.70,442815
29-Mar-12,12.91,13.00,12.70,12.79,446623
28-Mar-12,12.84,13.03,12.83,13.02,273181
27-Mar-12,12.96,12.98,12.84,12.84,232733
26-Mar-12,12.88,13.00,12.83,12.94,308279
23-Mar-12,12.67,12.81,12.63,12.80,460076
22-Mar-12,12.71,12.76,12.59,12.71,225077
21-Mar-12,12.81,12.93,12.79,12.83,219916
20-Mar-12,12.82,12.94,12.76,12.91,330132
19-Mar-12,12.72,12.93,12.64,12.90,645733
16-Mar-12,12.79,12.80,12.66,12.75,643402
15-Mar-12,12.58,12.78,12.51,12.75,236293
14-Mar-12,12.60,12.66,12.47,12.55,269346
13-Mar-12,12.46,12.62,12.36,12.61,693906
12-Mar-12,12.55,12.55,12.30,12.35,392034
9-Mar-12,12.33,12.59,12.30,12.53,241622
8-Mar-12,12.38,12.44,12.17,12.31,213671
7-Mar-12,12.34,12.38,12.25,12.33,183798
6-Mar-12,12.36,12.45,12.24,12.26,290796
5-Mar-12,12.30,12.52,12.30,12.48,416603
2-Mar-12,12.53,12.59,12.30,12.34,475697
1-Mar-12,12.67,12.74,12.50,12.50,456624
29-Feb-12,12.74,12.87,12.57,12.62,818410
28-Feb-12,12.75,12.88,12.70,12.72,413587
27-Feb-12,12.56,12.88,12.48,12.75,274161
24-Feb-12,12.76,12.80,12.63,12.64,151763
23-Feb-12,12.51,12.78,12.48,12.77,273312
22-Feb-12,12.63,12.71,12.14,12.50,273187
21-Feb-12,12.64,12.75,12.54,12.68,441137
17-Feb-12,12.67,12.78,12.54,12.66,268348
16-Feb-12,12.50,12.61,12.40,12.59,768704
15-Feb-12,12.55,12.70,12.40,12.45,368695
14-Feb-12,12.59,12.62,12.42,12.54,217992
13-Feb-12,12.68,12.71,12.56,12.64,242594
10-Feb-12,12.51,12.66,12.51,12.53,361153
9-Feb-12,12.76,12.83,12.62,12.64,239380
8-Feb-12,12.61,12.78,12.56,12.74,306081
7-Feb-12,12.59,12.73,12.56,12.57,242434
6-Feb-12,12.80,12.80,12.59,12.62,270667
3-Feb-12,12.78,12.92,12.66,12.82,424694
2-Feb-12,12.45,12.63,12.40,12.57,412504
1-Feb-12,12.39,12.54,12.28,12.48,657543
31-Jan-12,12.40,12.44,12.27,12.32,415735
30-Jan-12,12.48,12.54,12.40,12.43,467994
27-Jan-12,12.43,12.66,12.43,12.58,736456
26-Jan-12,12.60,12.60,12.37,12.43,589957
25-Jan-12,12.53,12.63,12.38,12.56,640573
24-Jan-12,12.57,12.62,12.48,12.56,388452
23-Jan-12,12.76,12.80,12.56,12.64,213317
20-Jan-12,12.47,12.79,12.46,12.74,437681
19-Jan-12,12.69,12.84,12.43,12.50,766895
18-Jan-12,12.56,12.67,12.42,12.67,538984
17-Jan-12,12.80,12.80,12.53,12.55,514718
13-Jan-12,12.65,12.77,12.62,12.71,253080
12-Jan-12,12.77,12.80,12.56,12.80,312456
11-Jan-12,12.74,12.80,12.57,12.78,343935
10-Jan-12,12.79,12.82,12.69,12.75,335509
9-Jan-12,12.75,12.75,12.57,12.68,297542
6-Jan-12,12.73,12.75,12.55,12.69,119927
5-Jan-12,12.60,12.75,12.47,12.71,518716
4-Jan-12,12.53,12.69,12.46,12.68,451456
3-Jan-12,12.66,12.69,12.55,12.63,524395
30-Dec-11,12.58,12.75,12.44,12.44,334653
29-Dec-11,12.44,12.64,12.39,12.64,341836
28-Dec-11,12.62,12.62,12.41,12.42,333159
27-Dec-11,12.52,12.66,12.42,12.61,341508
23-Dec-11,12.64,12.66,12.52,12.58,199960
22-Dec-11,12.53,12.67,12.42,12.58,533430
21-Dec-11,12.44,12.57,12.23,12.54,808918
20-Dec-11,12.23,12.46,12.22,12.44,507996
19-Dec-11,12.25,12.38,12.00,12.01,968760
16-Dec-11,12.24,12.44,12.11,12.17,1962652
15-Dec-11,12.16,12.26,12.07,12.15,452804
14-Dec-11,12.02,12.22,11.98,12.00,456456
13-Dec-11,12.48,12.58,12.08,12.14,596764
12-Dec-11,12.28,12.38,12.12,12.36,419718
9-Dec-11,12.06,12.47,12.02,12.42,369926
8-Dec-11,12.33,12.33,12.00,12.00,371355
7-Dec-11,12.41,12.43,12.09,12.39,443606
6-Dec-11,12.39,12.51,12.31,12.44,382076
5-Dec-11,12.47,12.50,12.30,12.40,703213
2-Dec-11,12.37,12.45,12.28,12.36,361537
1-Dec-11,12.35,12.45,12.17,12.22,473437
30-Nov-11,12.26,12.44,12.01,12.42,1032760
29-Nov-11,11.75,11.95,11.56,11.89,716826
28-Nov-11,11.67,11.77,11.50,11.77,679380
25-Nov-11,11.38,11.62,11.38,11.44,350404
23-Nov-11,11.58,11.60,11.35,11.38,381810
22-Nov-11,11.81,11.93,11.63,11.64,411003
21-Nov-11,11.93,11.99,11.78,11.83,382039
18-Nov-11,12.05,12.20,12.03,12.06,400417
17-Nov-11,12.07,12.24,12.00,12.07,417013
16-Nov-11,12.12,12.30,11.97,12.05,1023112
15-Nov-11,12.04,12.30,12.04,12.26,440813
14-Nov-11,12.31,12.39,12.02,12.12,458445
11-Nov-11,12.19,12.34,12.14,12.32,417091
10-Nov-11,12.07,12.11,11.90,12.06,515321
9-Nov-11,12.15,12.28,11.89,11.90,554023
8-Nov-11,12.29,12.46,12.10,12.42,433707
7-Nov-11,12.23,12.30,12.02,12.26,277639
4-Nov-11,12.22,12.31,12.11,12.25,383619
3-Nov-11,12.38,12.44,12.10,12.30,679487
2-Nov-11,12.12,12.31,12.07,12.23,502291
1-Nov-11,12.00,12.26,11.89,11.94,731960
31-Oct-11,12.57,12.75,12.44,12.47,572732
28-Oct-11,12.72,12.84,12.55,12.75,671100
27-Oct-11,12.64,12.93,12.13,12.76,1372104
26-Oct-11,12.32,12.44,12.18,12.33,860834
25-Oct-11,12.40,12.57,12.13,12.14,769513
24-Oct-11,12.48,12.64,12.33,12.58,680679
21-Oct-11,12.38,12.63,12.19,12.48,620786
20-Oct-11,12.27,12.34,11.89,12.12,863861
19-Oct-11,12.41,12.57,12.25,12.30,555749
18-Oct-11,12.04,12.55,11.87,12.44,788626
17-Oct-11,12.25,12.45,11.98,12.02,541658
14-Oct-11,12.39,12.58,12.08,12.37,591255
13-Oct-11,12.38,12.44,12.15,12.31,427274
12-Oct-11,12.47,12.59,12.42,12.47,880629
11-Oct-11,12.22,12.45,12.13,12.42,745556
10-Oct-11,12.07,12.32,12.05,12.32,641105
7-Oct-11,12.33,12.33,11.91,11.93,694522
6-Oct-11,12.02,12.35,11.99,12.33,900018
5-Oct-11,12.07,12.19,11.83,12.07,624453
4-Oct-11,11.33,12.12,11.33,12.08,1099426
3-Oct-11,11.79,12.11,11.41,11.41,784211
30-Sep-11,11.98,12.20,11.75,11.91,927385
29-Sep-11,11.86,12.42,11.67,12.12,1168591
28-Sep-11,11.89,12.14,11.62,11.63,868776
27-Sep-11,12.04,12.23,11.83,11.93,973124
26-Sep-11,11.74,11.91,11.56,11.81,1309788
23-Sep-11,11.55,11.70,11.48,11.63,813522
22-Sep-11,11.45,11.76,11.45,11.58,1161081
21-Sep-11,12.17,12.25,11.71,11.74,993351
20-Sep-11,12.30,12.48,12.12,12.15,760272
19-Sep-11,12.31,12.47,12.16,12.27,647992
16-Sep-11,12.64,12.64,12.26,12.53,1922807
15-Sep-11,12.39,12.55,12.20,12.55,677045
14-Sep-11,12.38,12.42,12.15,12.30,1189135
13-Sep-11,12.19,12.36,12.09,12.31,937474
12-Sep-11,11.68,12.19,11.67,12.17,980879
9-Sep-11,11.87,12.04,11.73,11.85,1236610
8-Sep-11,11.89,12.05,11.85,11.98,1311758
7-Sep-11,11.75,12.00,11.38,11.97,1216825
6-Sep-11,10.98,11.62,10.98,11.58,1456907
2-Sep-11,11.41,11.62,11.23,11.23,1004097
1-Sep-11,11.89,12.05,11.57,11.61,814741
31-Aug-11,11.94,12.10,11.73,11.92,1094719
30-Aug-11,11.89,12.00,11.68,11.92,728186
29-Aug-11,11.82,12.09,11.82,12.00,623422
26-Aug-11,11.41,11.78,11.28,11.73,860202
25-Aug-11,11.72,11.97,11.36,11.46,960767
24-Aug-11,11.33,11.70,11.19,11.67,885541
23-Aug-11,10.83,11.34,10.80,11.33,1083980
22-Aug-11,11.20,11.43,10.74,10.84,598476
19-Aug-11,10.90,11.31,10.76,10.95,1041786
18-Aug-11,11.32,11.34,10.99,11.02,1126899
17-Aug-11,11.56,11.64,11.40,11.50,941332
16-Aug-11,11.69,11.71,11.46,11.53,884411
15-Aug-11,11.56,11.81,11.56,11.80,553665
12-Aug-11,11.58,11.72,11.41,11.47,824031
11-Aug-11,11.08,11.64,11.01,11.52,1257725
10-Aug-11,11.36,11.56,10.91,11.02,2375129
9-Aug-11,11.22,11.60,10.88,11.59,2395244
8-Aug-11,11.61,11.94,11.01,11.01,1746288
5-Aug-11,11.98,12.19,11.69,11.85,1476008
4-Aug-11,12.14,12.24,11.91,11.92,956688
3-Aug-11,12.15,12.35,11.99,12.24,780595
2-Aug-11,12.11,12.31,11.99,12.15,1271865
1-Aug-11,12.41,12.45,12.12,12.26,1010527
29-Jul-11,12.04,12.50,12.04,12.29,825184
28-Jul-11,12.15,12.22,12.10,12.11,570416
27-Jul-11,12.25,12.25,12.08,12.10,964629
26-Jul-11,12.59,12.68,12.28,12.28,795806
25-Jul-11,12.66,12.82,12.52,12.63,825011
22-Jul-11,12.82,12.85,12.66,12.81,639089
21-Jul-11,12.77,12.86,12.68,12.80,439398
20-Jul-11,12.72,12.75,12.57,12.72,516242
19-Jul-11,12.63,12.69,12.50,12.68,712970
18-Jul-11,12.65,12.68,12.48,12.55,739479
15-Jul-11,12.86,12.93,12.69,12.74,621715
14-Jul-11,12.95,12.96,12.83,12.85,654156
13-Jul-11,12.94,13.06,12.90,12.97,627063
12-Jul-11,12.75,13.00,12.65,12.90,582256
11-Jul-11,12.89,12.91,12.78,12.82,670571
8-Jul-11,13.01,13.13,12.95,12.97,662135
7-Jul-11,13.12,13.36,13.07,13.18,1432492
6-Jul-11,12.84,13.16,12.66,13.04,1581214
5-Jul-11,12.84,12.88,12.70,12.85,1353820
1-Jul-11,12.60,12.93,12.53,12.83,12752506
30-Jun-11,12.50,12.60,12.40,12.58,1138082
29-Jun-11,12.58,12.58,12.41,12.49,1249676
28-Jun-11,12.49,12.65,12.37,12.53,3571648
27-Jun-11,12.14,12.28,12.12,12.19,375617
24-Jun-11,12.09,12.22,12.06,12.14,1827423
23-Jun-11,12.08,12.18,12.00,12.08,549630
22-Jun-11,12.25,12.29,12.18,12.18,269495
21-Jun-11,12.35,12.37,12.21,12.33,421366
20-Jun-11,12.20,12.40,12.14,12.29,368855
17-Jun-11,12.23,12.32,12.17,12.25,696054
16-Jun-11,11.99,12.24,11.98,12.18,613664
15-Jun-11,12.05,12.10,11.94,11.97,547097
14-Jun-11,12.00,12.16,11.97,12.12,511107
13-Jun-11,12.02,12.03,11.91,11.96,530024
10-Jun-11,11.99,12.08,11.90,11.95,442046
9-Jun-11,12.10,12.10,12.01,12.06,556305
8-Jun-11,11.99,12.16,11.98,12.09,533630
7-Jun-11,12.12,12.18,12.04,12.05,316321
6-Jun-11,12.00,12.15,12.00,12.02,563022
3-Jun-11,12.13,12.17,12.05,12.05,477340
2-Jun-11,12.10,12.27,12.05,12.19,512903
1-Jun-11,12.51,12.51,12.05,12.07,710133
31-May-11,12.39,12.56,12.20,12.55,835507
27-May-11,12.26,12.34,12.24,12.30,322210
26-May-11,12.16,12.30,12.07,12.23,522275
25-May-11,12.08,12.27,12.08,12.20,363031
24-May-11,12.25,12.32,12.10,12.13,550105
23-May-11,12.19,12.37,12.18,12.25,471563
20-May-11,12.31,12.40,12.27,12.29,485303
19-May-11,12.44,12.45,12.29,12.39,518445
18-May-11,12.31,12.35,12.24,12.34,445105
17-May-11,12.20,12.34,12.12,12.32,828670
16-May-11,12.10,12.30,12.10,12.21,875193
13-May-11,12.36,12.42,12.10,12.18,505205
12-May-11,12.19,12.36,12.13,12.34,365622
11-May-11,12.39,12.39,12.19,12.24,603287
10-May-11,12.33,12.41,12.26,12.38,313613
9-May-11,12.20,12.30,12.05,12.25,1193453
6-May-11,12.35,12.42,12.20,12.23,578595
5-May-11,12.30,12.45,12.17,12.24,1245530
4-May-11,12.36,12.42,12.26,12.30,601919
3-May-11,12.41,12.54,12.29,12.38,726056
2-May-11,12.61,12.61,12.42,12.48,618775
29-Apr-11,12.50,12.60,12.41,12.58,480513
28-Apr-11,12.43,12.51,12.29,12.50,368875
27-Apr-11,12.22,12.51,12.22,12.43,1773278
26-Apr-11,12.43,12.67,12.39,12.49,749816
25-Apr-11,12.30,12.45,12.30,12.38,418872
21-Apr-11,12.41,12.41,12.28,12.34,262668
20-Apr-11,12.29,12.38,12.26,12.33,457860
19-Apr-11,12.28,12.34,12.17,12.17,430606
18-Apr-11,12.25,12.28,12.15,12.23,475162
15-Apr-11,12.24,12.36,12.17,12.34,525255
14-Apr-11,12.12,12.31,12.12,12.30,479956
13-Apr-11,12.25,12.30,12.17,12.20,553778
12-Apr-11,12.25,12.32,12.22,12.22,395596
11-Apr-11,12.26,12.37,12.26,12.28,342867
8-Apr-11,12.42,12.44,12.26,12.29,562310
7-Apr-11,12.49,12.52,12.40,12.42,380020
6-Apr-11,12.39,12.48,12.29,12.46,517975
5-Apr-11,12.39,12.45,12.32,12.37,449467
4-Apr-11,12.53,12.57,12.37,12.41,550599
1-Apr-11,12.59,12.59,12.41,12.44,603337
31-Mar-11,12.43,12.59,12.33,12.54,575184
30-Mar-11,12.38,12.50,12.31,12.47,429510
29-Mar-11,12.31,12.36,12.30,12.33,306803
28-Mar-11,12.29,12.37,12.25,12.29,398885
25-Mar-11,12.33,12.48,12.24,12.29,544469
24-Mar-11,12.33,12.37,12.20,12.28,666535
23-Mar-11,12.26,12.33,12.17,12.28,561173
22-Mar-11,12.31,12.39,12.30,12.30,231009
21-Mar-11,12.34,12.39,12.26,12.35,547145
18-Mar-11,12.36,12.39,12.24,12.24,1145123
17-Mar-11,12.47,12.48,12.26,12.28,527436
16-Mar-11,12.28,12.54,12.21,12.33,1559881
15-Mar-11,11.88,12.50,11.88,12.28,1716477
14-Mar-11,12.10,12.16,12.04,12.11,298815
11-Mar-11,12.11,12.23,12.05,12.18,676154
10-Mar-11,12.31,12.36,12.08,12.12,547738
9-Mar-11,12.43,12.46,12.31,12.42,317897
8-Mar-11,12.22,12.48,12.11,12.42,578611
7-Mar-11,12.39,12.44,12.10,12.19,448266
4-Mar-11,12.45,12.45,12.20,12.30,961259
3-Mar-11,12.20,12.44,12.20,12.40,847397
2-Mar-11,12.06,12.12,11.98,12.07,760926
1-Mar-11,12.13,12.13,12.03,12.08,776111
28-Feb-11,12.25,12.27,12.11,12.14,505315
25-Feb-11,11.99,12.19,11.99,12.18,433238
24-Feb-11,12.04,12.08,11.94,11.98,799235
23-Feb-11,12.12,12.23,11.98,11.99,663697
22-Feb-11,12.30,12.37,12.03,12.09,963572
18-Feb-11,12.50,12.50,12.35,12.40,702866
17-Feb-11,12.51,12.52,12.36,12.50,454127
16-Feb-11,12.42,12.53,12.35,12.52,600244
15-Feb-11,12.40,12.47,12.39,12.42,445968
14-Feb-11,12.40,12.49,12.34,12.41,889971
11-Feb-11,12.08,12.47,12.08,12.47,935651
10-Feb-11,12.15,12.18,12.00,12.15,1255558
9-Feb-11,12.13,12.21,12.08,12.18,572304
8-Feb-11,12.10,12.20,12.04,12.20,728538
7-Feb-11,11.98,12.08,11.94,12.07,859504
4-Feb-11,12.04,12.08,11.93,12.00,632603
3-Feb-11,11.80,12.19,11.74,12.01,1491147
2-Feb-11,11.67,12.02,11.67,11.85,1401748
1-Feb-11,11.76,11.94,11.76,11.84,1310742
31-Jan-11,11.79,11.80,11.67,11.72,726003
28-Jan-11,11.85,11.89,11.69,11.71,933210
27-Jan-11,11.98,12.01,11.83,11.84,1628519
26-Jan-11,11.95,12.02,11.90,11.98,1820771
25-Jan-11,11.99,12.05,11.87,11.98,1204985
24-Jan-11,12.01,12.04,11.90,11.94,731425
21-Jan-11,12.00,12.03,11.94,11.99,1157699
20-Jan-11,11.96,12.05,11.88,11.90,1080365
19-Jan-11,12.08,12.10,11.93,11.94,905528
18-Jan-11,11.98,12.13,11.86,12.12,851072
14-Jan-11,11.95,12.08,11.81,12.04,805381
13-Jan-11,11.93,11.99,11.82,11.90,531762
12-Jan-11,11.92,11.93,11.82,11.92,872834
11-Jan-11,11.83,11.88,11.69,11.81,973371
10-Jan-11,11.86,11.89,11.66,11.76,900913
7-Jan-11,11.70,11.93,11.65,11.93,1626486
6-Jan-11,11.70,11.75,11.58,11.64,1175185
5-Jan-11,11.53,11.75,11.50,11.72,515752
4-Jan-11,11.87,11.87,11.47,11.54,1436801
3-Jan-11,11.83,11.89,11.76,11.82,607106
31-Dec-10,11.76,11.83,11.73,11.78,444651
30-Dec-10,11.73,11.83,11.73,11.78,405456
29-Dec-10,11.88,11.90,11.73,11.74,240595
28-Dec-10,11.75,11.83,11.71,11.82,420231
27-Dec-10,11.72,11.82,11.65,11.79,225561
23-Dec-10,11.76,11.78,11.67,11.73,328581
22-Dec-10,11.63,11.79,11.56,11.73,1128140
21-Dec-10,11.45,11.71,11.35,11.60,820664
20-Dec-10,11.37,11.49,11.26,11.45,709645
17-Dec-10,11.31,11.40,11.28,11.30,1273854
16-Dec-10,11.35,11.41,11.26,11.34,393667
15-Dec-10,11.18,11.38,11.17,11.31,745470
14-Dec-10,11.32,11.33,11.22,11.24,964529
13-Dec-10,11.36,11.39,11.27,11.29,663616
10-Dec-10,11.33,11.36,11.20,11.34,678901
9-Dec-10,11.19,11.31,11.12,11.28,926483
8-Dec-10,10.94,11.18,10.88,11.11,935598
7-Dec-10,10.91,10.95,10.85,10.90,899446
6-Dec-10,10.87,10.90,10.73,10.81,1168695
3-Dec-10,10.78,10.97,10.61,10.92,1778225
2-Dec-10,10.45,10.81,10.43,10.78,4868235
1-Dec-10,10.44,10.50,10.30,10.42,3327840
30-Nov-10,10.42,10.49,10.24,10.26,1478619
29-Nov-10,10.40,10.52,10.39,10.49,907156
26-Nov-10,10.43,10.54,10.43,10.44,239558
24-Nov-10,10.51,10.60,10.42,10.50,1795867
23-Nov-10,10.51,10.60,10.40,10.43,1561893
22-Nov-10,10.65,10.70,10.54,10.59,589490
19-Nov-10,10.79,10.79,10.63,10.68,1126114
18-Nov-10,10.88,10.91,10.71,10.79,1644322
17-Nov-10,10.77,10.80,10.65,10.73,490153
16-Nov-10,10.86,10.89,10.74,10.74,660412
15-Nov-10,10.93,10.97,10.88,10.90,481787
12-Nov-10,10.87,10.95,10.85,10.87,958497
11-Nov-10,10.92,11.00,10.89,10.91,709808
10-Nov-10,10.99,11.02,10.95,10.97,1196844
9-Nov-10,11.16,11.20,10.92,10.96,1130003
8-Nov-10,11.35,11.41,11.17,11.21,1164808
5-Nov-10,11.31,11.41,11.26,11.33,768911
4-Nov-10,11.39,11.48,11.25,11.32,1060664
3-Nov-10,11.29,11.30,11.13,11.25,435482
2-Nov-10,11.35,11.35,11.22,11.24,609003
1-Nov-10,11.38,11.40,11.17,11.33,581655
29-Oct-10,11.29,11.40,11.26,11.34,271617
28-Oct-10,11.37,11.40,11.24,11.34,445403
27-Oct-10,11.25,11.37,11.15,11.34,588929
26-Oct-10,11.25,11.35,11.18,11.26,319723
25-Oct-10,11.37,11.43,11.24,11.28,477670
22-Oct-10,11.35,11.41,11.23,11.33,529281
21-Oct-10,11.40,11.49,11.20,11.32,538873
20-Oct-10,11.38,11.47,11.26,11.40,700462
19-Oct-10,11.23,11.49,11.23,11.30,456965
18-Oct-10,11.21,11.40,11.16,11.40,256188
15-Oct-10,11.47,11.49,11.13,11.15,774850
14-Oct-10,11.31,11.43,11.26,11.35,538571
13-Oct-10,11.33,11.44,11.19,11.35,848180
12-Oct-10,11.23,11.38,11.15,11.31,748928
11-Oct-10,11.23,11.30,11.18,11.23,351234
8-Oct-10,11.21,11.37,11.11,11.26,566646
7-Oct-10,11.28,11.34,11.15,11.24,706502
6-Oct-10,11.05,11.23,11.05,11.18,904127
5-Oct-10,10.94,11.14,10.86,11.04,1072946
4-Oct-10,11.20,11.24,10.73,10.83,1104202
1-Oct-10,11.29,11.30,11.09,11.23,462104
30-Sep-10,11.25,11.34,11.09,11.18,672121
29-Sep-10,11.15,11.24,11.12,11.17,547768
28-Sep-10,11.15,11.25,11.01,11.21,646802
27-Sep-10,11.23,11.25,11.00,11.09,447924
24-Sep-10,11.11,11.22,10.95,11.18,536603
23-Sep-10,11.06,11.23,10.95,10.95,491059
22-Sep-10,11.05,11.36,11.05,11.12,502464
21-Sep-10,11.58,11.59,11.32,11.33,757903
20-Sep-10,11.45,11.62,11.34,11.60,658676
17-Sep-10,11.40,11.46,11.12,11.45,644176
16-Sep-10,11.43,11.57,11.22,11.26,341712
15-Sep-10,11.42,11.62,11.32,11.47,771101
14-Sep-10,11.59,11.61,11.44,11.47,331344
13-Sep-10,11.33,11.60,11.29,11.58,507204
10-Sep-10,11.29,11.32,11.22,11.24,542775
9-Sep-10,11.33,11.33,11.19,11.29,399098
8-Sep-10,11.23,11.32,11.15,11.17,256402
7-Sep-10,11.36,11.37,11.11,11.17,509183
3-Sep-10,11.25,11.38,11.24,11.37,291500
2-Sep-10,11.03,11.17,10.93,11.17,363717
1-Sep-10,10.91,11.05,10.89,11.00,594019
31-Aug-10,10.61,10.89,10.61,10.75,616505
30-Aug-10,10.96,10.96,10.55,10.56,378781
27-Aug-10,10.94,11.03,10.73,11.03,375576
26-Aug-10,10.84,10.92,10.75,10.81,334169
25-Aug-10,10.79,10.89,10.72,10.84,448528
24-Aug-10,10.68,10.92,10.68,10.84,667834
23-Aug-10,11.03,11.03,10.82,10.83,353419
20-Aug-10,10.90,11.02,10.79,10.96,308192
19-Aug-10,11.18,11.26,10.95,10.95,685802
18-Aug-10,11.24,11.30,11.01,11.22,443956
17-Aug-10,11.16,11.36,11.05,11.22,554364
16-Aug-10,10.79,11.03,10.79,11.03,391445
13-Aug-10,10.90,11.01,10.88,10.88,277689
12-Aug-10,10.94,11.09,10.91,10.94,542161
11-Aug-10,11.29,11.38,11.04,11.04,835658
10-Aug-10,11.46,11.52,11.37,11.41,654691
9-Aug-10,11.67,11.72,11.48,11.60,376896
6-Aug-10,11.64,11.77,11.40,11.57,771498
5-Aug-10,11.87,11.98,11.77,11.77,305368
4-Aug-10,11.85,12.04,11.85,11.97,768154
3-Aug-10,12.00,12.00,11.82,11.86,941717
2-Aug-10,12.21,12.30,12.00,12.10,524252
30-Jul-10,11.92,12.15,11.87,12.13,448681
29-Jul-10,12.08,12.10,11.91,12.09,365187
28-Jul-10,12.05,12.10,11.97,12.02,606423
27-Jul-10,12.10,12.10,11.97,11.99,516355
26-Jul-10,11.87,12.04,11.74,12.02,854104
23-Jul-10,11.45,11.82,11.34,11.80,799610
22-Jul-10,11.33,11.56,11.18,11.53,768071
21-Jul-10,11.48,11.56,11.15,11.19,807270
20-Jul-10,11.16,11.37,11.10,11.36,620786
19-Jul-10,11.44,11.49,11.21,11.31,621950
16-Jul-10,11.74,11.77,11.38,11.39,500728
15-Jul-10,11.84,11.86,11.60,11.82,414443
14-Jul-10,11.87,11.91,11.76,11.85,431370
13-Jul-10,11.81,11.94,11.74,11.93,736506
12-Jul-10,11.69,11.86,11.67,11.72,388330
9-Jul-10,11.62,11.71,11.60,11.69,397357
8-Jul-10,11.56,11.63,11.47,11.60,704425
7-Jul-10,11.37,11.48,11.26,11.48,807462
6-Jul-10,11.51,11.56,11.29,11.30,652064
2-Jul-10,11.61,11.68,11.35,11.41,467207
1-Jul-10,11.62,11.62,11.23,11.55,899408
30-Jun-10,11.72,11.94,11.43,11.47,708822
29-Jun-10,11.84,11.84,11.62,11.69,811505
28-Jun-10,12.02,12.04,11.80,11.91,991888
25-Jun-10,11.78,12.09,11.74,12.06,9955952
24-Jun-10,11.75,11.85,11.66,11.74,822128
23-Jun-10,11.77,11.88,11.74,11.80,494021
22-Jun-10,11.85,11.98,11.75,11.75,672239
21-Jun-10,12.00,12.00,11.71,11.78,775273
18-Jun-10,11.92,11.95,11.78,11.92,812626
17-Jun-10,11.76,11.92,11.69,11.89,779369
16-Jun-10,11.57,11.80,11.57,11.73,404833
15-Jun-10,11.56,11.72,11.53,11.69,716494
14-Jun-10,11.54,11.63,11.49,11.57,402252
11-Jun-10,11.43,11.54,11.38,11.48,213090
10-Jun-10,11.37,11.53,11.36,11.52,352214
9-Jun-10,11.55,11.55,11.26,11.31,303981
8-Jun-10,11.39,11.45,11.23,11.43,524252
7-Jun-10,11.36,11.53,11.32,11.36,623632
4-Jun-10,11.38,11.54,11.30,11.32,566012
3-Jun-10,11.63,11.63,11.47,11.60,372819
2-Jun-10,11.34,11.57,11.10,11.57,866085
1-Jun-10,11.59,11.70,11.30,11.30,766708
28-May-10,11.78,11.78,11.61,11.63,317843
27-May-10,11.82,11.82,11.68,11.80,244040
26-May-10,11.51,11.69,11.51,11.67,821349
25-May-10,11.27,11.48,11.27,11.48,591681
24-May-10,11.58,11.62,11.49,11.50,414715
21-May-10,11.33,11.68,11.26,11.67,785936
20-May-10,11.67,11.70,11.33,11.39,540074
19-May-10,12.12,12.17,11.75,11.80,673461
18-May-10,12.44,12.45,12.15,12.18,429330
17-May-10,12.37,12.44,12.12,12.34,344046
14-May-10,12.34,12.35,12.18,12.32,359107
13-May-10,12.30,12.48,12.10,12.40,511337
12-May-10,12.12,12.31,11.92,12.25,432738
11-May-10,11.92,12.15,11.85,12.11,270212
10-May-10,12.06,12.15,11.84,12.02,452867
7-May-10,12.01,12.12,11.68,11.68,784278
6-May-10,12.11,12.25,11.46,12.01,786447
5-May-10,12.35,12.39,12.10,12.18,631501
4-May-10,12.59,12.67,12.42,12.48,693317
3-May-10,12.54,12.77,12.48,12.72,666738
30-Apr-10,12.63,12.63,12.46,12.48,585706
29-Apr-10,12.33,12.65,12.21,12.63,707918
28-Apr-10,12.42,12.48,12.22,12.24,362626
27-Apr-10,12.53,12.73,12.39,12.39,903213
26-Apr-10,12.76,12.79,12.56,12.60,549330
23-Apr-10,12.60,12.79,12.51,12.76,1039317
22-Apr-10,11.91,12.55,11.79,12.50,1170082
21-Apr-10,11.79,11.91,11.75,11.91,499479
20-Apr-10,11.75,11.82,11.69,11.81,294298
19-Apr-10,11.80,11.83,11.66,11.73,433613
16-Apr-10,11.90,11.91,11.79,11.80,483645
15-Apr-10,11.88,11.94,11.82,11.91,477913
14-Apr-10,11.90,11.92,11.85,11.92,514990
13-Apr-10,11.82,11.92,11.80,11.91,324505
12-Apr-10,11.82,11.90,11.80,11.87,162185
9-Apr-10,11.87,11.87,11.76,11.85,340162
8-Apr-10,11.87,11.89,11.78,11.88,320347
7-Apr-10,11.81,11.87,11.75,11.87,567583
6-Apr-10,11.67,11.86,11.67,11.86,455044
5-Apr-10,11.85,11.86,11.70,11.77,430868
31-Mar-10,11.72,11.87,11.69,11.73,784715
30-Mar-10,11.66,11.88,11.64,11.79,1024545
29-Mar-10,11.75,11.79,11.55,11.59,555487
26-Mar-10,11.77,11.84,11.58,11.68,464947
25-Mar-10,11.80,11.90,11.77,11.79,542296
24-Mar-10,11.88,11.90,11.80,11.84,589563
23-Mar-10,11.83,11.91,11.73,11.88,639032
22-Mar-10,11.85,11.90,11.74,11.85,434771
19-Mar-10,11.85,11.91,11.73,11.91,875105
18-Mar-10,11.82,11.85,11.74,11.82,330122
17-Mar-10,11.82,11.82,11.73,11.80,337728
16-Mar-10,11.85,11.86,11.75,11.81,414237
15-Mar-10,11.86,11.88,11.72,11.79,214252
12-Mar-10,11.92,11.94,11.77,11.84,178805
11-Mar-10,11.76,11.91,11.76,11.90,278212
10-Mar-10,11.69,11.82,11.69,11.80,367870
9-Mar-10,11.79,11.86,11.70,11.78,312561
8-Mar-10,11.84,11.88,11.75,11.78,458931
5-Mar-10,11.85,11.90,11.74,11.89,337882
4-Mar-10,11.82,11.85,11.68,11.79,371959
3-Mar-10,11.90,11.90,11.73,11.76,308940
2-Mar-10,11.82,11.90,11.80,11.87,256810
1-Mar-10,11.84,11.90,11.74,11.82,473341
26-Feb-10,12.00,12.00,11.81,11.82,454942
25-Feb-10,11.91,12.04,11.91,12.00,497002
24-Feb-10,11.94,12.03,11.84,12.02,585281
23-Feb-10,11.95,12.00,11.83,11.85,531394
22-Feb-10,11.95,12.00,11.89,11.91,440569
19-Feb-10,12.00,12.03,11.88,11.89,785247
18-Feb-10,11.99,12.02,11.93,12.00,964290
17-Feb-10,11.93,11.97,11.88,11.97,684852
16-Feb-10,11.88,11.92,11.77,11.92,454123
12-Feb-10,11.81,11.81,11.73,11.81,464411
11-Feb-10,11.76,11.85,11.70,11.84,652195
10-Feb-10,11.75,11.81,11.66,11.81,718694
9-Feb-10,11.67,11.78,11.60,11.73,2113199
8-Feb-10,11.31,11.55,11.20,11.47,853949
5-Feb-10,11.31,11.49,11.16,11.36,1138373
4-Feb-10,11.35,11.51,11.15,11.31,1314794
3-Feb-10,11.58,11.69,11.39,11.41,922662
2-Feb-10,11.64,11.84,11.51,11.58,946583
1-Feb-10,11.71,11.84,11.47,11.71,770206
29-Jan-10,11.51,11.79,11.51,11.71,1606326
28-Jan-10,11.89,11.89,11.46,11.50,1732917
27-Jan-10,11.98,11.99,11.77,11.93,1330306
26-Jan-10,11.71,11.99,11.61,11.85,2479343
25-Jan-10,11.59,11.59,11.45,11.57,660775
22-Jan-10,11.44,11.58,11.42,11.54,1657428
21-Jan-10,11.50,11.50,11.35,11.44,1349870
20-Jan-10,11.44,11.50,11.35,11.47,926863
19-Jan-10,11.41,11.55,11.41,11.49,706618
15-Jan-10,11.55,11.60,11.35,11.40,882033
14-Jan-10,11.37,11.58,11.31,11.54,1415187
13-Jan-10,11.30,11.40,11.25,11.40,1024779
12-Jan-10,11.20,11.30,11.20,11.25,1140328
11-Jan-10,11.42,11.42,11.23,11.25,862748
8-Jan-10,11.41,11.44,11.31,11.39,1416268
7-Jan-10,11.30,11.43,11.21,11.43,1292969
6-Jan-10,11.39,11.40,11.18,11.30,982829
5-Jan-10,11.40,11.40,11.18,11.27,1291971
4-Jan-10,11.33,11.45,11.30,11.40,2027024
31-Dec-09,11.12,11.34,11.09,11.27,2398160
30-Dec-09,11.24,11.25,11.02,11.14,2004784
29-Dec-09,11.30,11.31,11.21,11.22,1219622
28-Dec-09,11.35,11.35,11.20,11.28,767943
24-Dec-09,11.20,11.37,10.95,11.30,779420
23-Dec-09,11.45,11.48,11.30,11.31,1485969
22-Dec-09,11.25,11.45,11.11,11.41,3077815
21-Dec-09,11.25,11.33,11.23,11.25,2110469
18-Dec-09,11.00,11.35,10.90,11.35,17007784
