﻿Date,Open,High,Low,Close,Volume
20-Jun-17,24.52,26.35,24.06,24.89,1785889
19-Jun-17,23.85,24.80,23.06,24.51,1744973
16-Jun-17,22.00,25.10,21.85,23.75,4155759
15-Jun-17,21.58,22.80,20.69,22.15,2309467
14-Jun-17,19.95,22.34,19.04,21.97,3381836
13-Jun-17,17.20,19.95,17.15,19.58,4526530
12-Jun-17,15.28,17.13,15.14,17.10,1269669
9-Jun-17,14.95,15.44,14.86,15.29,514408
8-Jun-17,15.25,15.41,14.93,15.00,355504
7-Jun-17,15.45,15.51,15.20,15.22,326683
6-Jun-17,15.42,15.50,15.30,15.48,256947
5-Jun-17,15.46,15.53,15.16,15.49,287854
2-Jun-17,15.17,15.64,15.17,15.38,389527
1-Jun-17,14.95,15.50,14.86,15.37,287883
31-May-17,15.18,15.42,14.83,15.11,277747
30-May-17,15.63,15.72,14.75,15.12,518192
26-May-17,15.80,15.96,15.40,15.70,299245
25-May-17,15.84,16.42,15.78,15.84,354479
24-May-17,15.87,16.30,15.75,16.09,406786
23-May-17,15.82,16.47,15.66,15.85,301317
22-May-17,15.91,16.13,15.56,15.81,378046
19-May-17,16.43,16.55,15.96,16.07,422024
18-May-17,16.33,16.55,16.17,16.44,504660
17-May-17,15.63,17.13,15.61,16.25,1973366
16-May-17,15.05,15.25,14.63,14.95,430225
15-May-17,14.86,15.45,14.86,15.01,495444
12-May-17,14.86,15.54,14.80,14.88,545773
11-May-17,14.78,15.49,13.56,14.80,1454389
10-May-17,15.88,16.49,15.64,16.14,662532
9-May-17,15.49,16.10,15.12,16.04,362620
8-May-17,15.30,15.51,15.11,15.43,306492
5-May-17,15.48,15.58,14.86,15.36,355710
4-May-17,15.68,15.75,15.20,15.51,346603
3-May-17,16.16,16.38,15.32,15.62,412159
2-May-17,16.85,17.15,15.92,16.15,409932
1-May-17,16.37,16.80,16.33,16.78,326062
28-Apr-17,16.45,16.57,16.08,16.32,321734
27-Apr-17,16.47,16.69,16.33,16.47,298585
26-Apr-17,15.87,16.69,15.87,16.29,465782
25-Apr-17,16.20,16.35,15.89,15.93,341909
24-Apr-17,16.25,16.47,15.87,16.08,306351
21-Apr-17,16.40,16.40,15.85,16.01,347932
20-Apr-17,15.70,16.30,15.70,16.07,466553
19-Apr-17,16.02,16.18,15.57,15.65,517366
18-Apr-17,16.00,16.34,15.61,15.95,517513
17-Apr-17,15.53,16.59,15.52,16.11,548001
13-Apr-17,15.87,15.94,15.24,15.42,585916
12-Apr-17,16.52,16.74,15.76,15.96,716107
11-Apr-17,16.98,17.12,16.41,16.53,665173
10-Apr-17,16.48,17.19,16.15,16.98,814042
7-Apr-17,16.52,16.62,16.06,16.48,633127
6-Apr-17,16.15,16.59,15.76,16.42,702403
5-Apr-17,15.60,16.55,15.57,16.18,1087894
4-Apr-17,15.82,16.27,15.53,15.61,786500
3-Apr-17,15.37,16.00,15.14,15.80,1000752
31-Mar-17,15.54,15.60,14.53,15.12,1233911
30-Mar-17,15.76,16.00,14.95,15.63,1796377
29-Mar-17,14.22,15.05,14.22,14.54,1176830
28-Mar-17,12.51,16.40,12.51,14.10,3366890
27-Mar-17,11.45,12.77,11.40,12.67,982266
24-Mar-17,11.40,11.74,11.30,11.56,344407
23-Mar-17,11.28,11.70,11.24,11.36,319854
22-Mar-17,11.11,11.45,11.02,11.28,415205
21-Mar-17,11.75,11.85,11.07,11.12,585821
20-Mar-17,10.80,11.97,10.61,11.75,1195313
17-Mar-17,11.82,12.00,10.52,10.54,1432509
16-Mar-17,11.50,11.68,11.20,11.60,461288
15-Mar-17,10.95,11.54,10.77,11.45,384270
14-Mar-17,11.00,11.10,10.60,10.98,365939
13-Mar-17,11.42,11.59,11.10,11.13,305843
10-Mar-17,11.71,11.83,11.24,11.42,498637
9-Mar-17,11.86,12.02,11.45,11.66,460025
8-Mar-17,11.92,12.30,11.80,11.90,373678
7-Mar-17,12.10,12.40,11.70,11.90,406117
6-Mar-17,11.96,12.24,11.67,12.07,362056
3-Mar-17,11.71,12.12,11.66,12.04,490820
2-Mar-17,12.12,12.29,11.56,11.67,457788
1-Mar-17,12.48,12.99,11.91,12.14,878051
28-Feb-17,12.35,12.49,11.80,12.17,538129
27-Feb-17,11.60,12.23,11.60,12.15,547980
24-Feb-17,11.45,11.67,11.25,11.55,368495
23-Feb-17,11.68,11.71,11.36,11.51,359767
22-Feb-17,11.33,12.07,11.32,11.59,432156
21-Feb-17,11.23,12.34,11.23,11.46,1060294
17-Feb-17,11.07,11.27,10.84,11.02,307881
16-Feb-17,11.61,11.61,11.06,11.09,281586
15-Feb-17,11.10,11.75,11.00,11.58,534458
14-Feb-17,10.57,11.25,10.51,11.21,252232
13-Feb-17,11.10,11.10,10.60,10.68,250228
10-Feb-17,11.36,11.36,10.84,10.93,288558
9-Feb-17,10.45,11.59,10.45,11.30,630216
8-Feb-17,10.28,10.55,10.02,10.44,242292
7-Feb-17,9.95,10.57,9.75,10.29,488048
6-Feb-17,9.71,10.00,9.57,9.90,229132
3-Feb-17,9.75,9.88,9.60,9.69,266912
2-Feb-17,9.68,9.92,9.50,9.71,206181
1-Feb-17,9.77,10.00,9.57,9.68,329593
31-Jan-17,9.25,9.76,9.07,9.69,308156
30-Jan-17,9.42,9.53,9.06,9.26,212159
27-Jan-17,9.47,9.54,9.30,9.44,139887
26-Jan-17,9.52,9.60,9.33,9.49,239925
25-Jan-17,9.25,9.54,9.11,9.52,229785
24-Jan-17,8.95,9.23,8.71,9.21,205440
23-Jan-17,9.19,9.19,8.81,8.95,228244
20-Jan-17,9.04,9.22,9.03,9.10,217893
19-Jan-17,9.20,9.28,9.04,9.05,172055
18-Jan-17,9.04,9.23,9.02,9.22,188830
17-Jan-17,9.22,9.23,8.95,9.03,336795
13-Jan-17,9.31,9.59,9.21,9.33,277786
12-Jan-17,9.27,9.47,9.00,9.31,366709
11-Jan-17,9.79,9.80,9.27,9.37,586009
10-Jan-17,10.00,10.03,9.65,9.84,354974
9-Jan-17,9.87,10.21,9.66,9.90,483946
6-Jan-17,10.55,10.55,9.93,9.95,463959
5-Jan-17,10.54,10.59,10.15,10.43,461650
4-Jan-17,10.13,10.59,10.12,10.50,403210
3-Jan-17,10.04,10.14,9.72,10.10,402850
30-Dec-16,9.87,10.07,9.78,9.92,350756
29-Dec-16,10.04,10.18,9.92,10.01,254783
28-Dec-16,10.25,10.25,10.02,10.10,195550
27-Dec-16,10.70,10.86,10.22,10.25,304989
23-Dec-16,9.80,10.60,9.78,10.55,293744
22-Dec-16,10.01,10.18,9.77,9.84,349287
21-Dec-16,10.73,10.92,10.11,10.13,393000
20-Dec-16,10.77,11.14,10.69,10.85,279500
19-Dec-16,10.99,11.24,10.70,10.82,280117
16-Dec-16,10.92,11.38,10.80,10.96,910347
15-Dec-16,10.30,10.94,10.20,10.89,511793
14-Dec-16,10.03,10.38,10.00,10.30,435595
13-Dec-16,9.65,10.34,9.61,10.15,459223
12-Dec-16,9.98,10.24,9.67,9.73,528925
9-Dec-16,10.12,10.56,9.89,10.10,685226
8-Dec-16,10.38,10.44,9.83,10.05,1222372
7-Dec-16,10.95,10.95,10.25,10.48,854310
6-Dec-16,10.75,11.15,10.45,11.11,791133
5-Dec-16,11.10,11.41,10.48,10.56,820671
2-Dec-16,11.25,11.30,10.84,10.91,673793
1-Dec-16,12.29,12.37,11.25,11.31,777032
30-Nov-16,12.43,12.59,12.02,12.29,446456
29-Nov-16,12.68,12.80,12.33,12.39,466235
28-Nov-16,13.04,13.12,12.69,12.71,320810
25-Nov-16,13.44,13.46,12.85,12.99,264814
23-Nov-16,12.18,12.77,11.75,12.75,829590
22-Nov-16,13.13,13.42,12.07,12.27,873728
21-Nov-16,13.39,13.42,12.96,13.09,431816
18-Nov-16,13.58,13.61,12.95,13.07,559935
17-Nov-16,12.86,13.40,12.51,13.24,836838
16-Nov-16,13.59,14.03,12.80,12.89,996207
15-Nov-16,13.60,14.15,13.49,13.75,1159198
14-Nov-16,12.89,13.47,12.52,13.46,1288171
11-Nov-16,11.89,12.95,11.83,12.65,1165697
10-Nov-16,11.10,12.30,11.04,11.88,2379007
9-Nov-16,9.60,10.35,9.60,10.13,1028998
8-Nov-16,9.75,10.04,9.11,9.23,859077
7-Nov-16,10.50,10.50,9.63,9.83,1233643
4-Nov-16,9.15,9.98,9.12,9.72,867096
3-Nov-16,8.95,9.34,8.81,9.06,930067
2-Nov-16,8.35,8.75,8.21,8.65,759942
1-Nov-16,8.34,8.46,8.06,8.31,637609
31-Oct-16,8.12,8.22,7.81,8.20,664715
28-Oct-16,8.01,8.04,7.80,7.85,496057
27-Oct-16,8.29,8.44,7.82,7.99,689499
26-Oct-16,8.39,8.49,8.03,8.16,479644
25-Oct-16,8.80,8.95,8.20,8.43,770119
24-Oct-16,8.86,9.60,8.70,8.72,1690101
21-Oct-16,8.71,8.97,8.17,8.52,2151362
20-Oct-16,7.65,8.28,7.61,8.01,1684484
19-Oct-16,7.53,7.75,7.32,7.61,1146606
18-Oct-16,7.61,7.70,7.20,7.50,769183
17-Oct-16,8.63,8.70,7.45,7.60,3939905
14-Oct-16,7.80,7.93,7.26,7.34,624881
13-Oct-16,7.93,7.95,7.69,7.78,505138
12-Oct-16,8.55,8.58,7.75,7.80,859136
11-Oct-16,9.10,9.11,8.55,8.61,471244
10-Oct-16,9.22,9.45,9.10,9.15,291276
7-Oct-16,9.68,9.72,9.08,9.09,485189
6-Oct-16,10.03,10.07,9.63,9.71,434208
5-Oct-16,10.50,10.51,10.04,10.07,434397
4-Oct-16,10.90,10.96,10.36,10.46,332469
3-Oct-16,11.07,11.14,10.82,10.89,229047
30-Sep-16,11.25,11.41,11.10,11.16,223175
29-Sep-16,11.57,11.60,11.20,11.22,187867
28-Sep-16,11.50,11.59,11.37,11.52,188785
27-Sep-16,11.37,11.62,11.36,11.52,150057
26-Sep-16,11.56,11.62,11.26,11.40,203533
23-Sep-16,11.75,11.94,11.63,11.64,216109
22-Sep-16,11.55,11.93,11.50,11.90,217831
21-Sep-16,11.46,11.63,11.36,11.51,226142
20-Sep-16,11.39,11.66,11.24,11.41,182738
19-Sep-16,11.25,11.42,11.04,11.34,257354
16-Sep-16,11.10,11.46,11.01,11.28,552641
15-Sep-16,10.87,11.10,10.69,11.07,279167
14-Sep-16,10.92,11.18,10.61,10.87,213998
13-Sep-16,11.16,11.16,10.60,10.92,265645
12-Sep-16,10.95,11.32,10.92,11.25,307251
9-Sep-16,11.36,11.40,10.93,10.94,303049
8-Sep-16,11.26,11.41,11.20,11.39,331921
7-Sep-16,11.05,11.34,11.04,11.23,284282
6-Sep-16,11.14,11.31,10.89,11.19,190256
2-Sep-16,10.77,11.11,10.67,11.10,182044
1-Sep-16,10.73,10.96,10.60,10.76,216437
31-Aug-16,11.08,11.08,10.70,10.74,456737
30-Aug-16,10.88,11.19,10.85,11.07,203557
29-Aug-16,10.89,11.09,10.75,10.92,178749
26-Aug-16,10.77,10.94,10.61,10.78,217109
25-Aug-16,10.73,10.99,10.51,10.74,296573
24-Aug-16,11.23,11.40,10.66,10.74,574211
23-Aug-16,11.27,11.35,11.22,11.26,208571
22-Aug-16,11.38,11.50,11.20,11.22,339765
19-Aug-16,11.55,11.56,11.25,11.34,512741
18-Aug-16,11.25,11.55,11.25,11.54,304501
17-Aug-16,11.28,11.39,11.10,11.28,342615
16-Aug-16,11.55,11.65,11.28,11.31,385908
15-Aug-16,11.58,11.66,11.48,11.51,446717
12-Aug-16,11.36,11.63,11.36,11.51,567100
11-Aug-16,11.28,11.72,11.18,11.37,1686832
10-Aug-16,12.69,13.63,12.60,12.87,575252
9-Aug-16,12.59,13.71,12.36,13.38,726458
8-Aug-16,12.51,12.59,12.28,12.50,174322
5-Aug-16,12.19,12.67,12.15,12.50,214997
4-Aug-16,12.77,12.86,12.18,12.22,363898
3-Aug-16,11.89,12.56,11.61,12.49,340230
2-Aug-16,11.83,11.96,11.42,11.88,270171
1-Aug-16,11.82,12.10,11.75,11.80,327174
29-Jul-16,11.81,12.00,11.54,11.76,291260
28-Jul-16,11.19,11.83,11.19,11.70,422467
27-Jul-16,10.99,11.23,10.98,11.19,222938
26-Jul-16,11.00,11.27,10.92,10.97,348242
25-Jul-16,10.95,11.08,10.75,10.95,241177
22-Jul-16,10.85,11.04,10.75,10.93,205802
21-Jul-16,11.00,11.41,10.80,10.90,372719
20-Jul-16,10.75,11.01,10.52,10.97,299544
19-Jul-16,11.49,11.50,10.62,10.70,480998
18-Jul-16,11.70,11.85,11.38,11.50,203641
15-Jul-16,11.24,11.73,11.11,11.68,251372
14-Jul-16,11.32,11.42,10.98,11.16,219614
13-Jul-16,12.30,12.30,11.03,11.19,502028
12-Jul-16,11.95,12.48,11.66,12.10,733609
11-Jul-16,11.67,11.82,11.39,11.74,185280
8-Jul-16,11.69,11.75,11.50,11.59,460907
7-Jul-16,11.40,11.65,11.15,11.61,237977
6-Jul-16,11.27,11.71,11.12,11.24,292491
5-Jul-16,11.32,11.90,11.27,11.40,530993
1-Jul-16,10.50,11.26,10.36,11.23,334186
30-Jun-16,10.53,10.66,9.93,10.52,670210
29-Jun-16,10.55,10.66,10.19,10.55,236981
28-Jun-16,9.63,10.31,9.55,10.24,418704
27-Jun-16,10.14,10.28,9.46,9.53,500435
24-Jun-16,10.38,10.70,10.20,10.28,685209
23-Jun-16,10.95,11.05,10.80,10.98,267080
22-Jun-16,10.87,11.32,10.67,10.86,182473
21-Jun-16,10.90,11.01,10.53,10.87,198894
20-Jun-16,10.62,11.23,10.50,10.88,225275
17-Jun-16,10.97,11.07,10.53,10.55,630609
16-Jun-16,11.37,11.37,10.53,10.98,366050
15-Jun-16,11.23,11.69,11.04,11.30,332789
14-Jun-16,11.15,11.78,10.90,11.13,514897
13-Jun-16,10.84,11.27,10.78,11.18,339046
10-Jun-16,10.85,10.97,10.54,10.75,344486
9-Jun-16,10.99,11.07,10.78,10.84,198016
8-Jun-16,10.80,11.14,10.70,11.02,251261
7-Jun-16,11.63,11.63,10.79,10.79,460266
6-Jun-16,11.78,11.89,11.50,11.73,369622
3-Jun-16,12.09,12.12,11.64,11.66,251055
2-Jun-16,11.62,12.12,11.58,11.91,259486
1-Jun-16,11.59,11.70,11.01,11.54,201298
31-May-16,11.41,11.89,11.41,11.70,234378
27-May-16,11.44,11.57,11.17,11.42,181201
26-May-16,11.49,11.55,11.12,11.30,138082
25-May-16,11.33,11.73,11.24,11.52,220251
24-May-16,11.12,11.34,10.93,11.22,165019
23-May-16,11.60,11.96,10.80,10.98,566203
20-May-16,11.35,11.83,11.25,11.50,448268
19-May-16,10.68,11.35,10.53,11.27,326564
18-May-16,10.69,10.94,10.53,10.73,271617
17-May-16,9.96,11.11,9.96,10.65,379174
16-May-16,9.99,10.22,9.83,9.94,319390
13-May-16,9.84,9.96,9.51,9.91,445128
12-May-16,10.70,10.82,9.77,9.94,721394
11-May-16,10.60,10.84,10.32,10.68,389514
10-May-16,11.25,11.49,9.94,10.51,1824717
9-May-16,12.37,12.89,12.17,12.56,267057
6-May-16,12.15,12.42,11.95,12.38,223227
5-May-16,12.35,12.60,12.04,12.25,268584
4-May-16,12.56,12.92,12.21,12.28,307057
3-May-16,13.11,13.16,12.69,12.79,368665
2-May-16,13.28,13.52,13.07,13.25,267763
29-Apr-16,13.31,13.68,13.12,13.25,204298
28-Apr-16,13.29,13.79,13.23,13.41,214797
27-Apr-16,13.79,13.83,13.25,13.39,183987
26-Apr-16,13.44,13.88,13.14,13.84,344165
25-Apr-16,13.65,13.75,13.30,13.52,210751
22-Apr-16,13.68,13.78,13.25,13.73,268328
21-Apr-16,13.48,13.88,13.41,13.69,229597
20-Apr-16,13.62,13.93,13.33,13.55,393377
19-Apr-16,14.85,14.85,13.42,13.65,756864
18-Apr-16,14.97,15.25,14.59,14.81,262838
15-Apr-16,15.21,15.31,14.99,15.07,418368
14-Apr-16,15.30,15.55,15.06,15.30,410702
13-Apr-16,15.25,15.43,14.96,15.22,484498
12-Apr-16,15.73,15.95,15.30,15.44,268279
11-Apr-16,15.78,16.00,15.51,15.79,211874
8-Apr-16,16.16,16.18,15.48,15.65,240255
7-Apr-16,16.00,16.20,15.70,15.94,377675
6-Apr-16,16.14,16.38,15.44,16.01,422682
5-Apr-16,15.80,16.33,15.80,16.09,420618
4-Apr-16,15.62,16.25,15.62,15.80,306864
1-Apr-16,15.19,15.70,15.01,15.62,214395
31-Mar-16,15.43,15.66,15.17,15.34,500630
30-Mar-16,15.10,15.67,14.66,15.27,303907
29-Mar-16,14.52,15.27,14.25,15.19,284672
28-Mar-16,15.33,15.37,14.52,14.55,215140
24-Mar-16,14.08,15.30,13.90,15.23,282583
23-Mar-16,15.55,15.80,14.19,14.26,437470
22-Mar-16,15.00,15.64,15.00,15.55,320438
21-Mar-16,14.85,15.32,14.85,15.18,261293
18-Mar-16,15.05,15.49,14.69,14.93,838263
17-Mar-16,14.20,14.86,14.04,14.70,329588
16-Mar-16,13.73,14.45,13.65,14.28,446773
15-Mar-16,15.82,16.24,13.86,13.95,930045
14-Mar-16,16.21,16.62,15.89,16.20,495465
11-Mar-16,15.87,16.37,14.93,16.37,468367
10-Mar-16,16.17,16.80,15.20,15.30,755745
9-Mar-16,15.00,16.48,14.78,16.20,1044433
8-Mar-16,14.74,16.06,14.74,15.07,2565210
7-Mar-16,12.04,13.13,12.04,12.99,503553
4-Mar-16,11.47,12.39,11.36,12.28,601163
3-Mar-16,11.32,11.55,11.08,11.49,311686
2-Mar-16,10.54,11.34,10.27,11.19,447509
1-Mar-16,10.21,10.56,9.94,10.53,625671
29-Feb-16,10.18,10.25,9.95,10.14,297086
26-Feb-16,10.21,10.60,10.03,10.10,357269
25-Feb-16,10.25,10.39,9.84,10.16,344288
24-Feb-16,9.96,10.34,9.66,10.25,586069
23-Feb-16,10.27,10.82,10.05,10.09,295967
22-Feb-16,10.35,10.67,10.35,10.48,345826
19-Feb-16,10.39,10.40,10.02,10.27,246966
18-Feb-16,11.37,11.38,10.30,10.38,435539
17-Feb-16,11.37,11.62,11.26,11.39,403101
16-Feb-16,11.10,11.48,10.94,11.20,411009
12-Feb-16,10.55,11.15,10.32,11.02,200809
11-Feb-16,10.40,10.68,9.98,10.53,247810
10-Feb-16,10.48,11.09,9.65,10.51,198173
9-Feb-16,10.19,10.60,9.80,10.14,267657
8-Feb-16,10.85,10.86,10.11,10.35,203306
5-Feb-16,11.50,11.61,10.90,11.09,218374
4-Feb-16,11.46,11.67,11.12,11.59,341186
3-Feb-16,11.18,11.50,10.54,11.48,192952
2-Feb-16,11.29,11.31,10.83,11.11,168070
1-Feb-16,10.64,11.64,10.35,11.52,216404
29-Jan-16,10.06,10.80,9.98,10.79,279571
28-Jan-16,10.90,10.90,9.93,10.00,173243
27-Jan-16,10.77,10.98,10.41,10.63,325602
26-Jan-16,10.61,10.93,10.17,10.77,219911
25-Jan-16,10.77,11.21,10.50,10.62,230823
22-Jan-16,10.82,11.17,10.46,10.77,226406
21-Jan-16,10.69,11.05,10.43,10.50,375638
20-Jan-16,9.64,10.96,9.51,10.70,520518
19-Jan-16,10.43,10.49,9.52,9.84,511107
15-Jan-16,9.70,10.00,9.50,9.94,440980
14-Jan-16,10.24,10.46,8.90,10.08,894245
13-Jan-16,11.11,11.59,10.07,10.10,489243
12-Jan-16,11.24,11.55,10.83,11.22,503087
11-Jan-16,11.63,11.63,10.72,11.08,725730
8-Jan-16,11.86,11.86,11.27,11.50,563489
7-Jan-16,12.21,12.45,11.37,11.51,552948
6-Jan-16,13.69,13.69,12.66,12.70,389339
5-Jan-16,14.92,15.05,13.73,13.83,340573
4-Jan-16,15.37,15.56,14.22,14.79,723869
31-Dec-15,15.45,15.84,15.38,15.73,663434
30-Dec-15,14.93,15.60,14.80,15.53,491108
29-Dec-15,15.19,15.38,14.69,14.92,250172
28-Dec-15,15.00,15.35,15.00,15.13,289545
24-Dec-15,15.02,15.17,14.91,15.01,87077
23-Dec-15,14.83,15.08,14.51,14.98,267733
22-Dec-15,14.84,15.12,14.53,14.80,241347
21-Dec-15,14.72,14.97,14.02,14.95,443453
18-Dec-15,13.88,15.00,13.45,14.68,2618708
17-Dec-15,14.27,14.27,13.55,13.57,431477
16-Dec-15,13.68,14.20,13.53,14.15,421851
15-Dec-15,13.70,14.08,13.33,13.60,455067
14-Dec-15,13.40,13.76,13.22,13.50,441311
11-Dec-15,13.85,14.15,13.28,13.47,504688
10-Dec-15,14.37,14.55,13.96,14.15,349840
9-Dec-15,15.64,15.87,14.26,14.32,635754
8-Dec-15,15.86,16.20,15.47,15.65,597854
7-Dec-15,16.21,16.52,15.76,16.19,553736
4-Dec-15,15.90,16.26,15.76,16.21,667510
3-Dec-15,15.80,16.12,15.27,15.80,714292
2-Dec-15,15.80,16.10,15.40,15.81,379034
1-Dec-15,15.86,15.95,15.36,15.76,344341
30-Nov-15,15.46,16.03,15.20,15.85,404575
27-Nov-15,15.51,15.62,15.06,15.37,170245
25-Nov-15,14.63,15.68,14.63,15.41,448008
24-Nov-15,14.35,14.92,14.35,14.66,168720
23-Nov-15,13.93,15.07,13.85,14.61,395227
20-Nov-15,13.84,14.15,13.60,14.03,218470
19-Nov-15,13.81,14.00,13.52,13.66,158682
18-Nov-15,13.63,14.05,13.54,13.91,274884
17-Nov-15,13.58,14.08,13.44,13.66,287913
16-Nov-15,13.81,14.05,13.28,13.72,320361
13-Nov-15,13.66,14.32,13.56,13.86,285047
12-Nov-15,13.93,14.00,13.26,13.77,433864
11-Nov-15,13.49,14.06,13.18,14.06,433785
10-Nov-15,12.10,13.80,11.25,13.58,999788
9-Nov-15,13.65,14.39,13.41,13.57,493657
6-Nov-15,13.53,13.78,13.11,13.76,244254
5-Nov-15,14.02,14.21,13.43,13.56,168427
4-Nov-15,14.00,14.23,13.78,14.05,220262
3-Nov-15,13.54,14.14,13.46,13.97,268128
2-Nov-15,12.64,14.05,12.55,13.79,404357
30-Oct-15,12.71,12.95,12.32,12.53,191293
29-Oct-15,12.79,13.35,12.67,12.76,218631
28-Oct-15,12.79,13.40,12.58,12.88,377332
27-Oct-15,12.80,13.08,12.40,12.71,263904
26-Oct-15,13.08,13.44,12.73,12.82,199775
23-Oct-15,12.60,13.24,12.50,13.16,416146
22-Oct-15,12.76,12.90,12.00,12.37,273387
21-Oct-15,13.45,13.45,12.35,12.64,359208
20-Oct-15,12.73,13.46,12.50,13.35,365289
19-Oct-15,12.88,13.37,12.45,12.76,295262
16-Oct-15,12.77,13.00,12.37,12.90,399098
15-Oct-15,11.66,12.79,11.55,12.69,391760
14-Oct-15,11.73,12.12,11.50,11.73,259675
13-Oct-15,11.90,11.90,11.48,11.67,428200
12-Oct-15,12.60,12.96,11.65,11.92,509692
9-Oct-15,12.04,12.74,11.87,12.66,372366
8-Oct-15,12.10,12.21,11.62,12.08,258570
7-Oct-15,11.79,12.53,11.51,12.15,353484
6-Oct-15,12.00,12.14,11.25,11.78,525475
5-Oct-15,12.29,12.52,11.66,12.24,419151
2-Oct-15,11.00,12.31,10.93,12.29,458690
1-Oct-15,11.05,11.38,10.69,11.17,458981
30-Sep-15,10.96,11.40,10.55,10.96,693920
29-Sep-15,11.13,11.42,10.48,10.91,1051517
28-Sep-15,11.75,11.85,10.64,10.90,1008575
25-Sep-15,12.45,12.54,11.66,11.80,799653
24-Sep-15,12.30,12.45,11.90,12.42,493741
23-Sep-15,12.78,12.89,12.25,12.44,523746
22-Sep-15,12.81,13.03,12.51,12.86,708781
21-Sep-15,13.72,13.72,12.76,13.05,880548
18-Sep-15,13.61,13.77,13.31,13.59,1491434
17-Sep-15,13.13,13.93,13.12,13.88,732079
16-Sep-15,13.15,13.39,12.80,13.22,507802
15-Sep-15,13.21,13.43,12.70,13.27,816533
14-Sep-15,14.11,14.34,13.11,13.20,941314
11-Sep-15,13.55,14.15,13.51,14.12,1063719
10-Sep-15,12.97,13.94,12.80,13.79,1326219
9-Sep-15,12.58,13.45,12.52,12.99,1407998
8-Sep-15,12.91,13.20,12.35,12.43,896967
4-Sep-15,12.48,13.30,12.29,12.71,1189725
3-Sep-15,13.45,13.74,12.53,12.60,1343543
2-Sep-15,13.85,14.03,12.95,13.47,1475826
1-Sep-15,13.41,14.30,13.25,13.59,7025898
31-Aug-15,14.88,15.39,13.64,14.09,3403791
28-Aug-15,15.57,15.89,14.92,15.50,967759
27-Aug-15,16.65,16.76,15.46,15.76,1101893
26-Aug-15,17.00,17.00,15.21,16.25,1551561
25-Aug-15,19.11,19.50,16.52,16.57,1317518
24-Aug-15,19.65,19.65,17.16,18.01,2212900
21-Aug-15,19.94,21.70,19.63,20.96,1333205
20-Aug-15,22.23,22.29,19.80,20.50,1728878
19-Aug-15,23.99,24.69,21.33,22.52,5516226
18-Aug-15,24.20,30.23,22.51,25.03,32518858
17-Aug-15,13.64,14.56,13.13,14.55,578909
14-Aug-15,13.10,13.42,11.93,12.96,1605688
13-Aug-15,14.14,14.58,13.11,13.20,961555
12-Aug-15,14.09,14.46,13.52,14.16,711295
11-Aug-15,15.60,16.25,14.00,14.43,868754
10-Aug-15,15.32,15.94,14.97,15.20,548842
7-Aug-15,14.71,14.93,14.16,14.89,390905
6-Aug-15,15.84,15.92,14.54,14.82,531633
5-Aug-15,15.76,16.29,15.66,15.77,415602
4-Aug-15,15.81,16.03,15.55,15.62,224893
3-Aug-15,16.56,16.97,15.80,15.92,354910
31-Jul-15,16.17,16.69,15.99,16.10,196366
30-Jul-15,16.09,16.27,15.50,16.16,308332
29-Jul-15,16.14,16.49,15.82,16.11,416534
28-Jul-15,16.53,16.71,16.07,16.36,664899
27-Jul-15,16.89,16.89,16.03,16.40,267288
24-Jul-15,17.45,17.85,16.75,16.90,330786
23-Jul-15,18.16,18.22,17.02,17.63,400882
22-Jul-15,17.83,18.17,17.57,17.84,193158
21-Jul-15,18.59,18.59,17.57,18.06,261754
20-Jul-15,18.30,18.86,17.91,18.52,386025
17-Jul-15,19.00,19.08,17.98,18.34,345075
16-Jul-15,18.66,19.08,18.19,18.99,278313
15-Jul-15,18.73,19.18,18.51,18.60,419999
14-Jul-15,17.87,18.99,17.87,18.80,375165
13-Jul-15,17.26,17.90,16.86,17.85,471606
10-Jul-15,17.28,17.45,16.93,17.33,338307
9-Jul-15,16.11,17.13,16.11,17.04,390147
8-Jul-15,16.84,16.94,15.90,16.02,398843
7-Jul-15,17.44,17.45,16.70,16.94,325020
6-Jul-15,17.00,18.13,16.30,17.49,617541
2-Jul-15,16.93,17.52,15.82,17.10,929578
1-Jul-15,18.18,18.43,16.90,16.98,622768
30-Jun-15,18.48,18.53,17.62,17.99,1018868
29-Jun-15,19.56,19.56,18.26,18.29,478462
26-Jun-15,20.96,21.05,19.36,19.70,830072
25-Jun-15,21.70,21.76,20.59,21.00,451426
24-Jun-15,21.53,21.77,21.35,21.67,266139
23-Jun-15,22.06,22.25,21.51,21.65,280464
22-Jun-15,21.24,22.12,20.97,22.08,404107
19-Jun-15,20.97,21.42,20.43,21.06,1228122
18-Jun-15,20.33,21.12,20.25,20.95,880842
17-Jun-15,19.88,20.31,19.87,20.10,408979
16-Jun-15,19.75,19.99,19.61,19.86,398598
15-Jun-15,19.53,19.76,19.14,19.57,389767
12-Jun-15,19.67,19.82,19.39,19.67,352351
11-Jun-15,19.67,19.88,19.56,19.82,205157
10-Jun-15,19.61,19.95,19.35,19.68,282744
9-Jun-15,20.12,20.20,19.18,19.57,527709
8-Jun-15,20.45,20.45,19.99,20.12,429205
5-Jun-15,20.25,20.61,19.82,20.38,397461
4-Jun-15,20.09,20.53,19.83,20.24,372168
3-Jun-15,20.65,20.66,19.77,20.14,620830
2-Jun-15,20.27,20.78,20.03,20.52,2037110
1-Jun-15,20.41,20.97,20.20,20.55,943887
29-May-15,20.02,20.22,19.72,19.85,463922
28-May-15,20.28,20.49,19.86,20.00,549014
27-May-15,20.88,21.06,20.10,20.28,466475
26-May-15,21.04,21.44,20.40,20.79,460642
22-May-15,21.54,22.20,21.05,21.20,330668
21-May-15,21.26,21.86,21.00,21.22,306049
20-May-15,20.67,21.48,20.61,21.37,368078
19-May-15,21.05,21.42,20.54,20.58,358430
18-May-15,20.82,21.38,20.24,20.99,859720
15-May-15,20.86,21.10,20.51,20.88,459121
14-May-15,21.00,21.37,20.27,20.89,412797
13-May-15,21.81,22.28,20.86,20.90,472823
12-May-15,21.53,22.78,20.90,21.79,763983
11-May-15,20.85,21.65,20.80,21.06,496675
8-May-15,21.50,21.84,20.47,20.80,465050
7-May-15,21.24,21.95,21.14,21.21,435939
6-May-15,20.85,21.58,20.75,21.45,710316
5-May-15,21.01,21.20,20.33,20.77,348710
4-May-15,20.39,21.46,20.39,21.06,415700
1-May-15,20.30,20.82,20.05,20.43,475410
30-Apr-15,21.14,21.47,20.00,20.12,552036
29-Apr-15,21.89,22.07,21.09,21.24,714013
28-Apr-15,23.14,23.21,21.62,21.96,634226
27-Apr-15,24.47,24.85,22.93,23.14,352216
24-Apr-15,24.58,25.39,24.28,24.32,228430
23-Apr-15,24.42,24.90,23.81,24.67,181004
22-Apr-15,24.55,25.08,23.85,24.41,173753
21-Apr-15,24.10,24.80,23.89,24.56,261796
20-Apr-15,24.30,24.40,23.53,24.02,346787
17-Apr-15,24.44,24.93,23.61,24.21,307071
16-Apr-15,24.89,25.24,24.25,24.70,202686
15-Apr-15,25.56,25.84,25.03,25.04,253765
14-Apr-15,26.00,26.64,25.04,25.43,368025
13-Apr-15,24.55,25.87,24.55,25.56,334287
10-Apr-15,24.20,24.83,24.11,24.58,232113
9-Apr-15,23.99,24.50,23.47,24.14,239839
8-Apr-15,23.37,24.48,23.37,23.90,329870
7-Apr-15,23.28,24.64,23.16,23.27,500539
6-Apr-15,23.54,23.96,22.89,23.23,507291
2-Apr-15,22.01,22.94,21.62,22.84,500633
1-Apr-15,21.87,21.98,21.05,21.95,394979
31-Mar-15,22.13,22.15,21.40,22.03,455016
30-Mar-15,22.08,22.43,21.91,22.39,318280
27-Mar-15,22.18,22.62,21.50,21.86,360616
26-Mar-15,22.36,22.72,21.50,22.21,476401
25-Mar-15,24.26,24.33,22.55,22.61,469140
24-Mar-15,24.19,25.15,23.61,24.24,383260
23-Mar-15,24.81,24.86,23.89,24.29,297522
20-Mar-15,25.34,25.97,24.55,24.94,710308
19-Mar-15,23.99,25.49,23.95,25.37,506998
18-Mar-15,24.00,24.20,23.05,24.01,339172
17-Mar-15,23.47,25.11,22.76,23.64,733914
16-Mar-15,25.32,25.33,23.80,24.13,784535
13-Mar-15,24.39,25.28,24.27,25.21,313661
12-Mar-15,24.24,24.55,23.84,24.52,359119
11-Mar-15,24.57,24.80,24.00,24.09,284314
10-Mar-15,24.74,24.80,23.64,24.52,523474
9-Mar-15,26.30,26.52,24.24,25.00,570872
6-Mar-15,26.18,26.57,25.85,26.14,660007
5-Mar-15,26.30,27.64,26.21,26.35,844493
4-Mar-15,24.93,26.47,24.50,26.20,814835
3-Mar-15,24.96,25.71,23.78,25.00,4251166
2-Mar-15,21.80,25.36,21.79,25.10,2865080
27-Feb-15,20.81,21.13,20.68,20.87,901416
26-Feb-15,20.58,20.99,20.30,20.93,344357
25-Feb-15,20.90,21.14,20.51,20.64,301609
24-Feb-15,21.14,21.20,20.54,20.81,240290
23-Feb-15,21.05,21.33,20.78,21.12,271586
20-Feb-15,21.58,21.71,20.98,21.25,436888
19-Feb-15,22.51,22.72,21.34,21.53,521075
18-Feb-15,21.99,22.00,21.17,21.91,262587
17-Feb-15,20.80,22.10,20.75,21.54,262726
13-Feb-15,20.55,20.67,20.20,20.63,147879
12-Feb-15,20.86,20.86,20.20,20.50,172921
11-Feb-15,20.70,21.41,20.08,20.54,205480
10-Feb-15,20.10,20.80,19.65,20.71,274102
9-Feb-15,19.53,20.00,19.01,19.80,198387
6-Feb-15,20.21,20.89,19.48,19.61,355517
5-Feb-15,19.58,20.26,19.05,20.17,316800
4-Feb-15,19.21,19.79,18.51,19.53,525553
3-Feb-15,20.74,20.86,19.13,19.20,674784
2-Feb-15,22.27,22.58,19.99,20.55,666329
30-Jan-15,23.11,23.70,22.15,22.24,431978
29-Jan-15,21.75,24.03,21.50,23.36,1029523
28-Jan-15,21.53,21.57,19.65,20.03,577662
27-Jan-15,22.66,23.12,21.29,21.46,375689
26-Jan-15,22.77,23.22,22.44,23.04,242345
23-Jan-15,22.85,23.14,22.60,22.86,151373
22-Jan-15,23.18,23.18,21.93,22.97,245801
21-Jan-15,23.55,24.00,22.79,22.98,185708
20-Jan-15,23.83,23.93,22.93,23.75,198200
16-Jan-15,22.57,23.85,22.36,23.78,224590
15-Jan-15,23.75,23.89,22.40,22.64,249487
14-Jan-15,23.27,24.09,22.65,23.59,189058
13-Jan-15,24.10,24.73,23.10,23.86,320588
12-Jan-15,24.21,24.31,23.55,23.88,172477
9-Jan-15,24.37,24.56,23.88,24.10,149480
8-Jan-15,24.80,24.97,24.09,24.29,197237
7-Jan-15,24.11,24.48,23.50,24.44,222141
6-Jan-15,24.61,25.08,23.06,23.85,432460
5-Jan-15,25.00,25.50,24.32,24.54,331291
2-Jan-15,25.09,25.84,24.22,25.01,359879
31-Dec-14,23.97,25.10,23.91,24.78,514453
30-Dec-14,24.47,24.94,23.36,23.88,242296
29-Dec-14,22.75,24.17,22.75,23.91,317466
26-Dec-14,22.24,22.97,22.24,22.79,159409
24-Dec-14,21.75,22.55,21.65,22.09,99593
23-Dec-14,22.70,22.82,21.25,21.61,223113
22-Dec-14,23.02,23.47,22.39,22.59,330271
19-Dec-14,22.22,23.30,21.90,23.13,1010690
18-Dec-14,21.86,22.58,21.51,22.26,263673
17-Dec-14,20.29,21.50,20.25,21.49,291415
16-Dec-14,20.95,21.62,20.48,20.51,254241
15-Dec-14,22.83,22.91,20.85,21.13,568251
12-Dec-14,22.34,23.53,22.23,22.81,284057
11-Dec-14,23.20,23.50,22.40,22.69,305736
10-Dec-14,23.39,23.57,22.89,22.94,257283
9-Dec-14,22.54,23.58,22.25,23.46,251900
8-Dec-14,23.00,23.63,22.58,23.03,287670
5-Dec-14,22.33,23.27,22.27,23.05,250784
4-Dec-14,22.67,22.75,22.22,22.30,271936
3-Dec-14,22.58,22.93,22.23,22.65,264625
2-Dec-14,21.67,22.48,21.67,22.46,243079
1-Dec-14,22.33,22.52,21.47,21.60,318449
28-Nov-14,22.40,23.28,22.31,22.33,195053
26-Nov-14,21.84,23.16,21.61,22.41,469102
25-Nov-14,20.84,21.83,20.47,21.83,569223
24-Nov-14,20.11,20.78,20.11,20.74,278956
21-Nov-14,20.99,21.17,20.01,20.12,426975
20-Nov-14,20.77,21.59,20.10,20.64,442645
19-Nov-14,21.76,22.46,20.90,20.97,652557
18-Nov-14,19.93,21.74,19.75,21.40,732837
17-Nov-14,18.85,19.86,18.85,19.74,404410
14-Nov-14,19.52,19.77,18.90,18.98,426370
13-Nov-14,19.75,20.39,19.01,19.57,713808
12-Nov-14,18.81,19.81,18.00,19.71,742011
11-Nov-14,18.39,19.14,18.00,19.05,1107313
10-Nov-14,17.49,17.54,17.00,17.49,490778
7-Nov-14,17.25,17.44,17.00,17.37,372563
6-Nov-14,17.36,18.00,16.60,17.28,428432
5-Nov-14,17.33,17.39,16.84,17.24,256018
4-Nov-14,17.06,17.36,17.00,17.12,346430
3-Nov-14,16.72,17.39,16.39,17.33,608624
31-Oct-14,16.28,16.99,15.83,16.57,968321
30-Oct-14,11.85,16.74,11.85,16.57,2733895
29-Oct-14,11.94,12.10,11.48,11.58,377737
28-Oct-14,11.98,12.15,11.86,11.95,337993
27-Oct-14,12.06,12.28,11.89,11.91,391544
24-Oct-14,12.08,12.40,11.96,12.21,135795
23-Oct-14,11.96,12.36,11.78,12.18,215317
22-Oct-14,12.14,12.38,11.75,11.76,249442
21-Oct-14,11.21,12.72,11.18,12.12,1066739
20-Oct-14,13.18,13.84,13.18,13.82,283846
17-Oct-14,13.92,13.92,13.10,13.25,321935
16-Oct-14,12.31,13.79,12.31,13.78,279350
15-Oct-14,12.12,12.74,11.80,12.70,213762
14-Oct-14,12.50,12.66,11.84,12.28,245906
13-Oct-14,12.93,13.11,12.15,12.30,311588
10-Oct-14,12.78,13.23,12.70,12.89,232253
9-Oct-14,13.40,13.45,12.74,12.87,215989
8-Oct-14,12.55,13.52,12.50,13.46,261052
7-Oct-14,12.71,13.23,12.52,12.58,278548
6-Oct-14,13.04,13.07,12.76,12.80,196427
3-Oct-14,12.64,13.22,12.37,13.03,141801
2-Oct-14,12.22,12.55,12.12,12.49,199955
1-Oct-14,12.70,12.93,12.14,12.26,339074
30-Sep-14,12.88,13.10,12.72,12.72,244508
29-Sep-14,12.88,13.20,12.65,12.95,140771
26-Sep-14,12.94,13.04,12.65,12.97,179161
25-Sep-14,13.10,13.25,12.62,12.86,193038
24-Sep-14,12.68,13.35,12.58,13.19,252429
23-Sep-14,12.70,12.99,12.52,12.68,232778
22-Sep-14,13.06,13.14,12.62,12.90,343160
19-Sep-14,13.65,13.95,12.90,13.20,1889705
18-Sep-14,13.69,13.88,13.05,13.60,407335
17-Sep-14,13.24,14.07,13.24,13.63,235512
16-Sep-14,13.51,13.73,13.15,13.28,218337
15-Sep-14,14.51,14.51,13.26,13.52,397806
12-Sep-14,14.68,14.86,14.12,14.45,299281
11-Sep-14,14.11,14.69,14.03,14.61,250294
10-Sep-14,13.81,14.30,13.68,14.26,181718
9-Sep-14,13.97,14.24,13.64,13.76,203967
8-Sep-14,13.79,14.34,13.67,14.06,227589
5-Sep-14,13.68,13.88,13.28,13.83,245701
4-Sep-14,14.82,14.82,13.70,13.79,380693
3-Sep-14,15.51,15.59,14.64,14.78,273362
2-Sep-14,15.00,15.45,14.60,15.45,334501
29-Aug-14,14.19,14.99,13.95,14.91,363443
28-Aug-14,14.11,14.32,13.84,14.19,164333
27-Aug-14,14.12,14.42,13.98,14.15,233127
26-Aug-14,13.40,14.32,13.40,14.09,366898
25-Aug-14,12.94,13.45,12.94,13.34,347943
22-Aug-14,12.30,12.94,12.12,12.85,224084
21-Aug-14,12.61,12.76,12.14,12.33,168163
20-Aug-14,12.81,13.02,12.50,12.58,376503
19-Aug-14,13.13,13.23,12.75,12.88,239989
18-Aug-14,13.20,13.40,12.88,13.11,215753
15-Aug-14,13.67,13.81,12.98,13.01,327758
14-Aug-14,13.67,14.14,13.46,13.62,267989
13-Aug-14,12.94,13.79,12.94,13.66,322332
12-Aug-14,13.76,13.90,12.54,12.90,731490
11-Aug-14,13.91,14.24,13.47,13.94,194388
8-Aug-14,13.37,13.82,13.06,13.68,183211
7-Aug-14,13.79,13.87,13.26,13.33,234474
6-Aug-14,13.67,14.50,13.67,13.77,218691
5-Aug-14,13.59,14.08,13.50,13.89,137074
4-Aug-14,13.64,13.74,13.20,13.69,140764
1-Aug-14,13.59,13.99,13.06,13.57,251758
31-Jul-14,13.71,13.85,13.51,13.61,247783
30-Jul-14,14.15,14.41,13.92,13.99,147861
29-Jul-14,13.89,14.12,13.66,14.01,171318
28-Jul-14,14.00,14.03,13.40,13.76,197142
25-Jul-14,14.00,14.14,13.65,13.98,284800
24-Jul-14,14.35,14.59,14.00,14.05,164953
23-Jul-14,13.80,14.47,13.80,14.35,227641
22-Jul-14,14.05,14.25,13.53,13.73,261448
21-Jul-14,13.89,14.10,13.62,13.92,204019
18-Jul-14,13.63,14.42,13.54,14.06,297824
17-Jul-14,13.97,14.30,13.58,13.64,371732
16-Jul-14,14.11,14.20,13.92,14.10,307084
15-Jul-14,14.55,14.64,13.95,14.05,329482
14-Jul-14,14.89,15.07,14.40,14.63,257131
11-Jul-14,14.55,14.79,14.25,14.63,234108
10-Jul-14,14.30,14.91,14.13,14.61,338938
9-Jul-14,15.00,15.22,14.50,14.75,438618
8-Jul-14,16.53,16.70,14.70,14.88,1051907
7-Jul-14,18.16,18.18,16.41,16.60,481884
3-Jul-14,18.43,18.68,18.05,18.19,175190
2-Jul-14,18.05,18.80,17.81,18.34,443611
1-Jul-14,17.41,18.39,17.41,18.09,614807
30-Jun-14,17.53,17.94,16.99,17.40,500938
27-Jun-14,17.18,17.60,16.40,17.53,632105
26-Jun-14,17.40,18.01,16.85,17.35,625663
25-Jun-14,16.26,17.72,16.20,17.47,1149268
24-Jun-14,15.49,16.80,15.43,16.04,933389
23-Jun-14,14.44,15.95,14.37,15.36,580602
20-Jun-14,14.27,14.43,14.03,14.35,326368
19-Jun-14,14.26,14.31,14.01,14.14,216554
18-Jun-14,14.08,14.34,13.85,14.20,195503
17-Jun-14,14.20,14.38,14.02,14.15,241337
16-Jun-14,13.99,14.44,13.93,14.18,256321
13-Jun-14,14.27,14.56,13.81,14.11,278879
12-Jun-14,15.86,15.87,13.87,14.26,818108
11-Jun-14,15.33,15.99,14.95,15.87,574889
10-Jun-14,13.85,15.65,13.85,15.50,913801
9-Jun-14,13.41,14.07,13.34,14.01,631470
6-Jun-14,12.40,13.34,12.03,13.33,597974
5-Jun-14,11.96,12.43,11.72,12.30,473969
4-Jun-14,11.43,11.99,11.25,11.97,398599
3-Jun-14,11.98,12.02,11.09,11.41,501053
2-Jun-14,12.33,12.69,11.08,11.83,1603252
30-May-14,11.82,12.10,11.64,11.69,478844
29-May-14,11.65,11.91,11.46,11.78,273295
28-May-14,11.75,11.84,11.33,11.55,274971
27-May-14,11.75,11.87,11.25,11.75,347278
23-May-14,10.50,11.76,10.17,11.67,518470
22-May-14,9.96,10.57,9.96,10.42,365722
21-May-14,10.10,10.23,9.76,9.94,267642
20-May-14,10.52,10.61,9.90,10.08,438799
19-May-14,10.24,10.62,10.00,10.58,292683
16-May-14,10.62,10.62,9.98,10.15,472612
15-May-14,10.86,11.06,10.15,10.63,494170
14-May-14,10.98,11.37,10.80,10.91,390598
13-May-14,11.75,11.95,10.87,11.06,767089
12-May-14,11.90,12.50,11.90,12.11,290440
9-May-14,11.93,12.04,11.50,11.88,655028
8-May-14,12.94,12.96,11.93,12.04,518067
7-May-14,12.82,13.05,12.42,13.02,393733
6-May-14,13.24,13.42,12.75,12.76,299439
5-May-14,12.22,13.25,12.15,13.25,690977
2-May-14,12.60,12.60,12.02,12.36,326751
1-May-14,12.35,13.12,11.98,12.58,439999
30-Apr-14,12.24,12.45,11.73,12.38,372095
29-Apr-14,11.34,12.40,11.29,12.35,444459
28-Apr-14,11.54,11.66,10.60,11.28,464335
25-Apr-14,11.97,11.97,11.33,11.49,259805
24-Apr-14,11.97,12.29,11.38,12.09,265463
23-Apr-14,12.25,12.27,11.80,11.85,235101
22-Apr-14,11.28,12.47,11.28,12.29,374861
21-Apr-14,11.41,11.58,11.26,11.31,272800
17-Apr-14,11.25,11.62,11.02,11.27,357484
16-Apr-14,11.41,11.59,11.17,11.33,422460
15-Apr-14,11.43,11.62,10.78,11.32,527087
14-Apr-14,11.61,11.84,11.18,11.39,393235
11-Apr-14,11.23,11.52,10.85,11.44,437728
10-Apr-14,12.05,12.09,10.94,11.32,384095
9-Apr-14,11.23,12.10,11.15,12.07,262810
8-Apr-14,10.84,11.20,10.53,11.15,322469
7-Apr-14,11.44,11.67,10.37,10.88,584140
4-Apr-14,12.13,12.14,11.22,11.44,404180
3-Apr-14,12.52,12.60,11.82,12.02,300903
2-Apr-14,12.47,12.64,12.03,12.37,246375
1-Apr-14,12.06,12.60,12.06,12.48,413065
31-Mar-14,11.38,12.12,11.33,12.07,879410
28-Mar-14,11.24,11.78,11.20,11.34,401661
27-Mar-14,11.70,11.82,11.15,11.26,549183
26-Mar-14,12.10,12.27,11.50,11.58,345820
25-Mar-14,12.48,12.69,11.65,11.99,521441
24-Mar-14,12.50,12.82,11.50,12.24,660653
21-Mar-14,13.22,13.45,12.43,12.46,496834
20-Mar-14,12.78,13.27,12.78,13.11,276965
19-Mar-14,12.79,13.47,12.57,13.07,760189
18-Mar-14,11.77,12.78,11.65,12.74,821256
17-Mar-14,11.34,11.68,11.26,11.52,656043
14-Mar-14,11.50,11.59,11.00,11.35,2279028
13-Mar-14,12.90,13.07,12.19,12.30,307852
12-Mar-14,12.46,12.86,12.38,12.85,263058
11-Mar-14,12.91,12.99,12.46,12.52,287359
10-Mar-14,13.00,13.09,12.48,12.88,348693
7-Mar-14,13.51,13.51,12.62,13.03,257222
6-Mar-14,13.65,13.74,13.02,13.14,290782
5-Mar-14,13.15,13.21,12.97,13.15,251463
4-Mar-14,13.08,13.51,12.95,13.13,464948
3-Mar-14,12.94,13.36,12.46,12.92,406928
28-Feb-14,14.44,14.69,12.60,13.36,635760
27-Feb-14,14.20,14.57,14.11,14.50,259051
26-Feb-14,14.16,14.45,14.02,14.23,214894
25-Feb-14,14.01,14.63,13.96,14.15,378395
24-Feb-14,13.87,14.16,13.78,13.94,372802
21-Feb-14,14.22,14.68,13.75,13.78,487259
20-Feb-14,13.49,14.45,13.30,14.10,556649
19-Feb-14,13.13,14.50,13.10,13.48,864060
18-Feb-14,12.06,13.40,11.99,13.26,890066
14-Feb-14,11.99,12.08,11.85,11.91,192956
13-Feb-14,11.78,12.16,11.70,12.04,296482
12-Feb-14,12.23,12.36,11.81,11.92,417518
11-Feb-14,12.34,12.48,12.01,12.16,246145
10-Feb-14,11.85,12.05,11.60,11.88,220708
7-Feb-14,11.64,12.04,11.52,11.82,250923
6-Feb-14,11.87,12.21,11.62,11.65,377652
5-Feb-14,12.45,12.91,11.62,11.80,1417666
4-Feb-14,11.42,11.68,11.09,11.25,174180
3-Feb-14,11.50,12.01,11.32,11.35,344165
31-Jan-14,11.65,11.98,11.39,11.68,308328
30-Jan-14,11.65,12.15,11.57,11.98,257485
29-Jan-14,12.13,12.29,11.40,11.52,798108
28-Jan-14,10.57,11.25,10.36,11.23,336837
27-Jan-14,11.07,11.28,10.11,10.51,642943
24-Jan-14,11.85,12.15,10.99,11.27,525617
23-Jan-14,12.23,12.29,11.81,12.09,206560
22-Jan-14,12.44,12.70,12.00,12.24,226568
21-Jan-14,12.22,12.75,12.01,12.49,292772
17-Jan-14,12.26,12.90,12.11,12.19,411234
16-Jan-14,12.14,12.29,11.94,12.26,286838
15-Jan-14,12.09,12.30,11.92,12.17,322109
14-Jan-14,12.05,12.27,11.90,12.10,289940
13-Jan-14,11.90,12.39,11.74,12.07,532238
10-Jan-14,11.82,11.98,11.43,11.89,338371
9-Jan-14,11.48,11.67,11.26,11.62,218730
8-Jan-14,10.77,11.55,10.59,11.41,411781
7-Jan-14,10.87,10.95,10.55,10.81,326901
6-Jan-14,11.79,11.79,10.75,10.87,496975
3-Jan-14,12.03,12.13,11.21,11.64,469674
2-Jan-14,11.24,12.07,11.08,12.06,426278
31-Dec-13,11.11,11.37,11.01,11.29,341170
30-Dec-13,11.09,11.26,10.96,11.16,325726
27-Dec-13,11.11,11.19,10.73,11.02,276428
26-Dec-13,11.03,11.56,10.84,11.07,361074
24-Dec-13,10.94,11.03,10.60,10.98,321313
23-Dec-13,10.58,11.33,10.45,10.96,1006311
20-Dec-13,10.16,10.59,10.10,10.50,534728
19-Dec-13,10.20,10.65,10.03,10.13,675519
18-Dec-13,9.84,10.55,9.42,10.53,2842286
17-Dec-13,9.28,9.28,8.83,8.92,630290
16-Dec-13,8.29,9.66,8.25,9.25,1452630
13-Dec-13,7.75,8.26,7.72,8.25,686913
12-Dec-13,7.20,7.87,7.13,7.77,470329
11-Dec-13,7.23,7.30,7.00,7.22,500868
10-Dec-13,7.36,7.38,7.15,7.25,321418
9-Dec-13,7.36,7.47,7.20,7.36,271139
6-Dec-13,7.47,7.55,7.20,7.31,252969
5-Dec-13,7.39,7.50,7.26,7.37,328872
4-Dec-13,7.49,7.55,7.32,7.36,226992
3-Dec-13,7.45,7.66,7.36,7.51,283499
2-Dec-13,7.93,7.94,7.33,7.45,519949
29-Nov-13,8.04,8.16,7.86,7.89,182387
27-Nov-13,7.89,8.23,7.75,8.00,402322
26-Nov-13,7.56,7.99,7.36,7.89,724964
25-Nov-13,7.20,7.67,7.14,7.56,672284
22-Nov-13,7.25,7.38,7.01,7.17,530393
21-Nov-13,7.15,7.37,6.92,7.14,955871
20-Nov-13,7.64,7.73,7.04,7.14,838890
19-Nov-13,8.10,8.10,7.44,7.49,1004520
18-Nov-13,7.88,7.95,7.44,7.48,716989
15-Nov-13,8.19,8.19,7.62,7.85,807656
14-Nov-13,8.67,8.70,8.18,8.20,505147
13-Nov-13,8.14,8.71,8.03,8.67,512225
12-Nov-13,8.45,9.00,8.04,8.19,871548
11-Nov-13,8.56,8.76,8.26,8.41,355611
8-Nov-13,8.63,8.83,8.24,8.63,464234
7-Nov-13,9.22,9.40,8.48,8.51,732085
6-Nov-13,10.29,10.42,9.10,9.14,888993
5-Nov-13,9.77,10.30,9.44,10.23,762579
4-Nov-13,9.66,9.66,9.10,9.15,966171
1-Nov-13,9.99,10.17,9.57,9.65,578005
31-Oct-13,10.04,10.24,9.60,10.00,463289
30-Oct-13,10.49,10.65,9.85,10.10,669194
29-Oct-13,10.73,10.92,10.35,10.47,301265
28-Oct-13,10.86,11.23,10.57,10.74,605711
25-Oct-13,11.46,11.64,10.82,10.89,306339
24-Oct-13,10.70,11.63,10.55,11.36,579472
23-Oct-13,11.04,11.06,10.63,10.76,267679
22-Oct-13,10.93,11.25,10.70,11.05,635443
21-Oct-13,11.41,11.75,10.29,10.87,1010762
18-Oct-13,12.18,12.21,11.28,11.41,795262
17-Oct-13,12.26,12.40,11.86,12.13,635739
16-Oct-13,11.80,11.96,11.35,11.79,678758
15-Oct-13,11.66,12.55,11.56,11.72,911997
14-Oct-13,11.57,11.85,11.19,11.53,510160
11-Oct-13,12.00,12.39,11.54,11.78,629183
10-Oct-13,11.47,12.47,11.45,12.10,956686
9-Oct-13,11.94,11.99,10.77,11.33,1277413
8-Oct-13,13.25,13.50,11.82,12.05,1874753
7-Oct-13,12.98,13.33,12.65,13.16,1268175
4-Oct-13,12.72,13.76,12.41,13.14,3151828
3-Oct-13,11.85,13.29,11.61,13.23,8674640
2-Oct-13,10.20,11.67,9.91,11.19,4016332
1-Oct-13,9.75,10.08,9.33,9.68,815742
30-Sep-13,10.02,10.70,9.50,9.75,2263801
27-Sep-13,10.00,10.60,9.79,9.86,1927231
26-Sep-13,9.59,10.02,9.42,10.01,1701867
25-Sep-13,9.08,9.90,8.87,9.37,2154983
24-Sep-13,9.17,9.65,8.83,9.06,2403421
23-Sep-13,7.24,9.78,7.15,9.18,8095031
20-Sep-13,7.80,7.82,7.11,7.16,879340
19-Sep-13,7.28,8.05,7.20,7.74,1584567
18-Sep-13,7.59,7.73,7.10,7.25,1448188
17-Sep-13,8.25,8.42,7.53,7.62,4003044
16-Sep-13,5.51,8.64,5.44,8.56,13539831
13-Sep-13,5.16,5.20,5.03,5.09,94579
12-Sep-13,5.25,5.40,5.12,5.13,104410
11-Sep-13,5.31,5.34,4.99,5.21,326383
10-Sep-13,5.31,5.41,5.16,5.34,201503
9-Sep-13,5.15,5.34,5.15,5.25,146597
6-Sep-13,5.31,5.31,5.09,5.15,120495
5-Sep-13,5.34,5.49,5.21,5.27,162360
4-Sep-13,5.17,5.32,5.07,5.32,95080
3-Sep-13,5.10,5.47,5.01,5.16,141996
30-Aug-13,5.13,5.18,4.95,5.03,145278
29-Aug-13,5.08,5.23,5.00,5.14,154514
28-Aug-13,5.11,5.27,5.04,5.09,173743
27-Aug-13,5.07,5.18,4.95,5.12,216049
26-Aug-13,4.95,5.34,4.95,5.13,303483
23-Aug-13,5.30,5.31,4.85,4.91,259864
22-Aug-13,5.06,5.50,5.06,5.31,149824
21-Aug-13,4.88,5.10,4.88,5.05,141799
20-Aug-13,4.94,4.98,4.80,4.91,105905
19-Aug-13,5.07,5.27,4.95,4.95,176728
16-Aug-13,4.76,5.12,4.76,5.07,253268
15-Aug-13,4.92,5.00,4.75,4.75,269753
14-Aug-13,5.07,5.11,4.92,4.97,141979
13-Aug-13,5.27,5.27,5.03,5.09,201712
12-Aug-13,5.53,5.64,5.21,5.25,217834
9-Aug-13,5.64,5.74,5.60,5.63,74230
8-Aug-13,5.59,5.80,5.45,5.66,142309
7-Aug-13,5.94,5.94,5.74,5.76,95373
6-Aug-13,6.04,6.10,5.86,5.99,150925
5-Aug-13,5.76,6.18,5.76,6.04,326057
2-Aug-13,5.56,5.80,5.32,5.70,692123
1-Aug-13,5.46,6.19,5.46,5.60,627310
31-Jul-13,5.40,5.47,5.35,5.37,58393
30-Jul-13,5.48,5.49,5.34,5.41,88906
29-Jul-13,5.51,5.62,5.39,5.42,65851
26-Jul-13,5.53,5.63,5.40,5.51,55170
25-Jul-13,5.54,5.65,5.47,5.58,153961
24-Jul-13,5.59,5.90,5.51,5.56,193496
23-Jul-13,5.70,5.70,5.50,5.56,60525
22-Jul-13,5.60,5.87,5.55,5.68,145455
19-Jul-13,5.85,5.92,5.72,5.72,66363
18-Jul-13,5.97,6.08,5.83,5.89,156250
17-Jul-13,5.90,6.05,5.76,5.96,161015
16-Jul-13,5.77,5.90,5.71,5.87,85786
15-Jul-13,5.84,5.98,5.75,5.78,124605
12-Jul-13,5.81,5.94,5.70,5.85,140360
11-Jul-13,5.66,5.82,5.54,5.80,80171
10-Jul-13,5.42,5.59,5.42,5.58,117519
9-Jul-13,6.00,6.00,5.37,5.41,243863
8-Jul-13,5.55,6.07,5.55,5.96,338933
5-Jul-13,5.38,5.53,5.30,5.52,112349
3-Jul-13,5.17,5.32,5.10,5.28,70350
2-Jul-13,5.04,5.43,5.04,5.31,180317
1-Jul-13,5.04,5.13,4.90,4.97,145230
28-Jun-13,4.99,5.18,4.92,5.04,320338
27-Jun-13,5.10,5.12,4.97,5.00,118856
26-Jun-13,5.09,5.14,4.99,5.07,86420
25-Jun-13,5.09,5.09,4.90,5.06,82480
24-Jun-13,4.90,5.10,4.84,5.00,157697
21-Jun-13,4.95,5.04,4.80,4.97,261867
20-Jun-13,4.99,5.05,4.86,4.91,225273
19-Jun-13,5.14,5.16,4.98,5.07,131668
18-Jun-13,4.99,5.25,4.91,5.18,244476
17-Jun-13,4.98,5.12,4.92,4.97,123707
14-Jun-13,5.00,5.08,4.85,4.96,204563
13-Jun-13,4.90,5.09,4.85,5.03,114389
12-Jun-13,5.17,5.39,4.87,4.97,238922
11-Jun-13,5.21,5.25,5.10,5.17,124938
10-Jun-13,5.07,5.40,4.94,5.31,232641
7-Jun-13,4.96,5.08,4.78,5.05,153592
6-Jun-13,4.67,4.94,4.54,4.94,318471
5-Jun-13,4.99,5.06,4.64,4.69,180677
4-Jun-13,5.54,5.54,4.90,4.99,290844
3-Jun-13,5.31,5.53,5.16,5.51,265994
31-May-13,5.68,5.70,5.21,5.30,598003
30-May-13,5.56,5.56,5.30,5.51,110578
29-May-13,5.66,5.66,5.51,5.52,232482
28-May-13,5.44,5.70,5.32,5.62,420135
24-May-13,5.10,5.34,4.98,5.30,163869
23-May-13,5.21,5.26,4.95,5.08,303442
22-May-13,5.38,5.57,4.89,4.94,322909
21-May-13,5.33,5.48,5.24,5.38,220358
20-May-13,5.13,5.48,5.10,5.34,426955
17-May-13,5.12,5.19,5.00,5.14,139428
16-May-13,4.94,5.26,4.86,5.09,297147
15-May-13,5.04,5.12,4.82,4.96,139943
14-May-13,4.87,5.13,4.84,5.02,206247
13-May-13,4.79,5.19,4.74,4.91,498314
10-May-13,4.16,4.89,4.16,4.77,626730
9-May-13,4.08,4.17,3.97,4.17,105389
8-May-13,4.01,4.08,3.92,4.06,123097
7-May-13,4.07,4.07,3.91,4.03,110694
6-May-13,4.02,4.14,3.97,4.06,168765
3-May-13,4.10,4.24,4.02,4.05,199189
2-May-13,3.82,4.13,3.77,4.03,319022
1-May-13,4.00,4.07,3.78,3.80,313407
30-Apr-13,4.20,4.30,3.98,4.03,365763
29-Apr-13,4.06,4.18,4.02,4.12,189000
26-Apr-13,4.04,4.10,4.00,4.05,203357
25-Apr-13,4.08,4.15,4.00,4.05,154541
24-Apr-13,4.03,4.14,4.00,4.08,119409
23-Apr-13,3.94,4.12,3.91,4.05,240294
22-Apr-13,3.97,4.04,3.90,3.91,160247
19-Apr-13,3.93,4.09,3.83,3.90,327286
18-Apr-13,3.85,4.00,3.76,3.94,186493
17-Apr-13,3.75,3.86,3.65,3.84,274698
16-Apr-13,3.83,3.90,3.65,3.76,306057
15-Apr-13,4.17,4.18,3.77,3.82,469791
12-Apr-13,4.09,4.14,4.00,4.03,179270
11-Apr-13,4.01,4.13,3.99,4.11,221910
10-Apr-13,4.05,4.17,3.86,3.99,434909
9-Apr-13,4.15,4.24,3.88,3.90,441531
8-Apr-13,4.03,4.15,3.93,4.14,382856
5-Apr-13,3.97,4.04,3.90,3.99,393968
4-Apr-13,4.17,4.17,4.02,4.09,160359
3-Apr-13,4.17,4.24,4.05,4.13,128388
2-Apr-13,4.13,4.27,4.13,4.17,276419
1-Apr-13,4.20,4.24,4.02,4.11,283842
28-Mar-13,4.27,4.34,4.10,4.12,450909
27-Mar-13,4.14,4.39,3.97,4.28,456276
26-Mar-13,4.50,4.66,3.90,4.09,1206442
25-Mar-13,4.79,4.84,4.49,4.50,213182
22-Mar-13,4.75,4.80,4.58,4.73,161049
21-Mar-13,4.81,4.87,4.65,4.75,205876
20-Mar-13,5.16,5.22,4.81,4.87,432174
19-Mar-13,5.45,5.55,5.11,5.16,141910
18-Mar-13,5.33,5.38,5.13,5.28,54659
15-Mar-13,5.53,5.57,5.36,5.36,170313
14-Mar-13,5.59,5.78,5.37,5.52,92002
13-Mar-13,5.55,5.71,5.51,5.59,50228
12-Mar-13,5.70,5.74,5.51,5.53,122649
11-Mar-13,5.74,5.77,5.56,5.75,98753
8-Mar-13,5.75,5.83,5.48,5.75,112334
7-Mar-13,5.88,5.88,5.60,5.73,125316
6-Mar-13,5.49,5.94,5.46,5.80,274068
5-Mar-13,5.45,5.77,5.41,5.49,96782
4-Mar-13,5.35,5.43,5.20,5.39,95823
1-Mar-13,5.35,5.53,5.24,5.38,92649
28-Feb-13,5.33,5.61,5.31,5.43,182234
27-Feb-13,5.53,5.56,5.30,5.32,204856
26-Feb-13,5.61,5.67,5.41,5.54,109918
25-Feb-13,5.65,5.84,5.57,5.61,95749
22-Feb-13,5.69,5.80,5.59,5.60,116713
21-Feb-13,5.60,5.64,5.58,5.63,57866
20-Feb-13,5.64,5.73,5.58,5.59,90649
19-Feb-13,5.62,5.81,5.61,5.64,269669
15-Feb-13,5.81,5.81,5.53,5.57,141992
14-Feb-13,5.77,5.83,5.73,5.77,63838
13-Feb-13,5.81,5.95,5.65,5.80,116989
12-Feb-13,5.73,5.99,5.73,5.79,163892
11-Feb-13,5.52,5.94,5.46,5.72,1043711
8-Feb-13,5.62,5.64,5.50,5.52,69391
7-Feb-13,5.62,5.77,5.48,5.62,66760
6-Feb-13,5.57,5.70,5.48,5.60,142496
5-Feb-13,5.50,5.60,5.48,5.57,124743
4-Feb-13,5.63,5.70,5.48,5.49,250318
1-Feb-13,5.49,5.56,5.28,5.55,152544
31-Jan-13,5.47,5.51,5.33,5.46,86096
30-Jan-13,5.70,5.70,5.42,5.49,147386
29-Jan-13,5.77,5.77,5.57,5.70,45725
28-Jan-13,5.71,5.77,5.58,5.72,128020
25-Jan-13,5.57,5.74,5.56,5.71,54742
24-Jan-13,5.70,5.88,5.51,5.57,177814
23-Jan-13,5.70,5.77,5.61,5.70,98987
22-Jan-13,5.91,5.95,5.60,5.69,264466
18-Jan-13,5.88,5.88,5.62,5.65,205871
17-Jan-13,5.93,6.05,5.80,5.89,99178
16-Jan-13,6.05,6.20,5.86,5.89,188574
15-Jan-13,6.15,6.15,5.92,6.04,212131
14-Jan-13,6.28,6.38,6.13,6.15,134931
11-Jan-13,6.35,6.35,6.07,6.13,93436
10-Jan-13,6.38,6.49,6.28,6.29,106519
9-Jan-13,6.33,6.52,6.26,6.27,136504
8-Jan-13,6.13,6.39,6.06,6.25,218962
7-Jan-13,5.86,6.18,5.86,6.07,226835
4-Jan-13,5.63,6.17,5.54,5.85,500850
3-Jan-13,5.40,5.71,5.28,5.54,188252
2-Jan-13,5.49,6.00,5.21,5.39,373230
31-Dec-12,5.34,5.39,5.08,5.19,490151
28-Dec-12,5.76,5.85,5.12,5.32,947402
27-Dec-12,5.97,6.07,5.77,5.84,92531
26-Dec-12,6.07,6.20,5.95,6.00,162998
24-Dec-12,6.16,6.19,5.88,6.08,101140
21-Dec-12,6.34,6.34,6.05,6.20,332740
20-Dec-12,6.56,6.56,6.26,6.35,153174
19-Dec-12,6.58,6.83,6.43,6.57,201410
18-Dec-12,6.69,6.69,6.51,6.60,148007
17-Dec-12,6.51,6.78,6.38,6.66,181303
14-Dec-12,6.82,6.89,6.50,6.51,297794
13-Dec-12,7.00,7.08,6.70,6.83,136273
12-Dec-12,7.27,7.27,6.92,7.02,86413
11-Dec-12,7.25,7.35,7.11,7.24,156695
10-Dec-12,6.97,7.25,6.84,7.20,88394
7-Dec-12,7.33,7.34,6.81,6.90,111743
6-Dec-12,7.34,7.68,7.17,7.33,111850
5-Dec-12,7.29,7.33,7.00,7.29,101492
4-Dec-12,7.91,7.91,7.24,7.28,170459
3-Dec-12,7.50,7.53,7.21,7.29,96335
30-Nov-12,7.39,7.52,7.21,7.48,106723
29-Nov-12,7.41,7.52,7.18,7.36,195984
28-Nov-12,7.07,7.41,6.95,7.35,171610
27-Nov-12,7.04,7.26,6.92,7.12,77656
26-Nov-12,7.36,7.72,6.74,7.06,284335
23-Nov-12,7.18,7.37,7.07,7.36,142766
21-Nov-12,7.05,7.42,6.82,7.18,181229
20-Nov-12,6.58,7.09,6.54,6.96,187383
19-Nov-12,6.48,6.86,6.41,6.61,189251
16-Nov-12,6.17,6.59,5.98,6.36,271869
15-Nov-12,6.24,6.47,5.86,6.21,280617
14-Nov-12,6.60,6.76,5.87,6.26,475769
13-Nov-12,6.65,7.00,6.60,6.62,462439
12-Nov-12,8.24,8.24,6.94,6.99,430611
9-Nov-12,8.35,8.62,8.09,8.22,234196
8-Nov-12,8.94,9.11,8.40,8.43,209928
7-Nov-12,8.96,9.12,8.66,8.95,317493
6-Nov-12,9.14,9.38,9.01,9.06,143391
5-Nov-12,9.37,9.65,8.95,9.00,226038
2-Nov-12,9.88,9.89,9.33,9.36,132221
1-Nov-12,9.39,9.95,9.28,9.84,169456
31-Oct-12,9.73,9.74,9.25,9.39,116565
26-Oct-12,9.93,10.11,9.57,9.73,94801
25-Oct-12,10.18,10.18,9.72,9.90,79268
24-Oct-12,10.13,10.67,9.70,10.13,182202
23-Oct-12,10.13,10.15,9.65,10.07,297333
22-Oct-12,10.72,10.96,9.95,10.15,149929
19-Oct-12,11.55,11.55,10.64,10.71,211323
18-Oct-12,11.40,11.71,11.36,11.54,61707
17-Oct-12,11.14,11.85,11.07,11.43,157959
16-Oct-12,10.87,11.09,10.70,11.07,107162
15-Oct-12,11.13,11.13,10.75,10.84,72786
12-Oct-12,10.61,10.80,10.51,10.76,102420
11-Oct-12,10.95,11.10,10.57,10.63,128348
10-Oct-12,10.80,10.95,10.73,10.94,91991
9-Oct-12,10.67,10.88,10.63,10.80,141663
8-Oct-12,10.29,10.91,10.20,10.69,254699
5-Oct-12,10.41,10.60,10.25,10.40,97874
4-Oct-12,9.85,10.50,9.80,10.42,490936
3-Oct-12,9.67,9.89,9.55,9.80,98310
2-Oct-12,9.50,9.70,9.37,9.68,65123
1-Oct-12,9.30,9.53,9.27,9.49,38048
28-Sep-12,9.38,9.49,9.28,9.40,32297
27-Sep-12,9.44,9.57,9.31,9.44,56093
26-Sep-12,9.75,9.98,9.39,9.44,99015
25-Sep-12,9.77,9.99,9.61,9.69,98356
24-Sep-12,9.59,9.95,9.49,9.70,107290
21-Sep-12,9.24,9.67,8.98,9.60,279772
20-Sep-12,9.56,9.63,9.40,9.44,48580
19-Sep-12,9.48,9.67,9.40,9.61,117373
18-Sep-12,9.31,9.57,9.20,9.49,96260
17-Sep-12,9.51,9.66,9.33,9.44,45017
14-Sep-12,9.63,9.71,9.44,9.55,102717
13-Sep-12,9.08,9.70,9.08,9.57,149998
12-Sep-12,8.98,9.14,8.98,9.10,37689
11-Sep-12,9.11,9.26,8.98,8.99,56765
10-Sep-12,9.21,9.25,8.92,9.13,149273
7-Sep-12,9.43,9.44,9.20,9.24,47140
6-Sep-12,9.27,9.54,9.19,9.41,73828
5-Sep-12,9.47,9.58,9.19,9.25,79421
4-Sep-12,9.39,9.60,9.27,9.50,74649
31-Aug-12,9.31,9.45,9.12,9.43,50421
30-Aug-12,9.41,9.42,9.19,9.32,60183
29-Aug-12,9.18,9.54,8.99,9.45,90667
28-Aug-12,9.08,9.36,9.02,9.20,90163
27-Aug-12,9.13,9.13,8.87,8.96,77228
24-Aug-12,9.01,9.23,8.96,9.11,62984
23-Aug-12,8.79,9.16,8.77,9.03,121210
22-Aug-12,8.35,8.90,8.35,8.82,103978
21-Aug-12,9.03,9.06,8.75,8.82,84459
20-Aug-12,8.99,9.12,8.80,9.05,64480
17-Aug-12,9.01,9.06,8.75,8.99,105024
16-Aug-12,8.97,9.12,8.93,9.04,208573
15-Aug-12,8.77,8.98,8.76,8.96,100840
14-Aug-12,8.83,9.04,8.69,8.77,100093
13-Aug-12,9.45,9.45,8.68,8.81,129273
10-Aug-12,8.55,8.55,8.17,8.46,78200
9-Aug-12,8.41,8.83,8.32,8.53,59884
8-Aug-12,8.47,8.83,8.30,8.40,89257
7-Aug-12,8.57,8.61,8.35,8.48,121784
6-Aug-12,8.84,8.90,8.56,8.59,134259
3-Aug-12,8.96,9.02,8.76,8.81,92071
2-Aug-12,8.96,9.13,8.80,8.87,89337
1-Aug-12,9.49,9.59,8.95,8.96,149173
31-Jul-12,9.07,9.64,9.07,9.45,453994
30-Jul-12,9.71,9.71,9.06,9.07,115332
27-Jul-12,9.47,9.82,9.40,9.64,220100
26-Jul-12,9.28,9.50,9.24,9.48,138673
25-Jul-12,8.89,9.26,8.89,9.19,107721
24-Jul-12,8.92,9.01,8.76,8.82,148309
23-Jul-12,9.00,9.03,8.71,8.89,148405
20-Jul-12,8.70,9.35,8.70,9.04,280741
19-Jul-12,8.74,8.89,8.44,8.74,164393
18-Jul-12,8.67,8.96,8.59,8.71,210463
17-Jul-12,9.26,9.30,8.58,8.66,429796
16-Jul-12,9.68,9.68,9.10,9.22,241678
13-Jul-12,9.51,9.76,9.47,9.65,105283
12-Jul-12,9.68,9.68,9.18,9.46,212947
11-Jul-12,10.14,10.18,9.58,9.79,175858
10-Jul-12,10.10,10.34,10.08,10.14,136462
9-Jul-12,10.10,10.19,9.87,10.09,117797
6-Jul-12,10.13,10.26,10.08,10.14,85245
5-Jul-12,10.21,10.27,10.06,10.20,83884
3-Jul-12,10.25,10.34,10.12,10.21,112854
2-Jul-12,10.29,10.29,10.09,10.22,381973
29-Jun-12,10.49,10.67,9.91,10.00,556824
28-Jun-12,10.53,10.73,10.23,10.34,468280
27-Jun-12,11.10,11.25,10.46,10.60,2642415
26-Jun-12,13.28,13.39,12.92,13.25,173341
25-Jun-12,13.21,13.45,13.05,13.24,176466
22-Jun-12,13.00,13.40,12.86,13.25,3366586
21-Jun-12,12.91,13.20,12.71,12.99,240828
20-Jun-12,13.00,13.17,12.67,12.97,165464
19-Jun-12,13.05,13.14,12.80,13.10,187460
18-Jun-12,12.88,13.11,12.83,13.00,173047
15-Jun-12,12.80,13.00,12.56,12.90,130093
14-Jun-12,12.99,13.14,12.17,12.72,267758
13-Jun-12,13.19,13.21,12.65,12.89,239792
12-Jun-12,12.19,13.19,11.89,13.05,308900
11-Jun-12,12.22,12.45,12.03,12.19,415122
8-Jun-12,10.51,11.88,10.33,11.82,313109
7-Jun-12,10.49,10.54,10.31,10.51,161334
6-Jun-12,10.10,10.49,10.06,10.45,207210
5-Jun-12,9.83,10.20,9.83,10.07,81703
4-Jun-12,10.32,10.78,9.70,10.09,186596
1-Jun-12,10.21,10.29,9.86,10.19,74427
31-May-12,10.14,10.38,9.93,10.24,91050
30-May-12,9.98,10.13,9.68,10.00,86430
29-May-12,10.01,10.16,9.88,9.99,82947
25-May-12,10.10,10.20,9.95,10.00,38558
24-May-12,10.02,10.20,9.75,10.03,89576
23-May-12,10.20,10.35,9.63,9.92,105532
22-May-12,9.72,10.21,9.70,10.13,155177
21-May-12,9.53,9.73,9.44,9.70,144988
18-May-12,9.14,9.58,9.04,9.52,440525
17-May-12,9.64,9.69,9.08,9.16,65846
16-May-12,9.88,9.88,9.60,9.70,96045
15-May-12,9.48,9.88,9.48,9.77,194933
14-May-12,9.24,9.57,9.22,9.50,46405
11-May-12,9.37,9.49,9.20,9.24,35948
10-May-12,9.35,9.50,9.22,9.39,24691
9-May-12,9.31,9.31,9.05,9.30,42765
8-May-12,10.25,10.25,9.07,9.37,149810
7-May-12,9.15,9.20,9.00,9.02,31416
4-May-12,9.24,9.33,8.96,9.10,67701
3-May-12,9.08,9.35,9.01,9.27,63940
2-May-12,9.08,9.12,8.99,9.12,25160
1-May-12,8.89,9.10,8.82,9.08,51073
30-Apr-12,8.83,8.88,8.75,8.85,116867
27-Apr-12,8.74,8.87,8.68,8.78,26918
26-Apr-12,8.56,8.88,8.56,8.71,26220
25-Apr-12,8.98,8.98,8.51,8.60,71746
24-Apr-12,9.08,9.11,8.79,8.87,78250
23-Apr-12,8.78,9.09,8.75,9.08,34976
20-Apr-12,9.03,9.15,8.80,8.94,83477
19-Apr-12,9.21,9.33,8.75,9.03,80589
18-Apr-12,9.55,9.60,9.07,9.15,74372
17-Apr-12,9.35,9.60,9.35,9.55,53924
16-Apr-12,9.30,9.40,9.02,9.36,68541
13-Apr-12,9.30,9.33,9.11,9.27,75158
12-Apr-12,9.65,9.76,9.29,9.37,72467
11-Apr-12,9.61,9.95,9.53,9.63,91087
10-Apr-12,9.69,9.75,9.54,9.56,101364
9-Apr-12,9.68,9.76,9.56,9.74,40416
5-Apr-12,9.64,9.94,9.60,9.80,92582
4-Apr-12,9.87,9.90,9.52,9.59,109286
3-Apr-12,10.00,10.39,9.89,9.97,209370
2-Apr-12,9.99,9.99,9.87,9.90,86030
30-Mar-12,10.01,10.10,9.85,9.93,56850
29-Mar-12,9.79,10.15,9.79,10.00,100179
28-Mar-12,9.72,10.01,9.71,9.90,83000
27-Mar-12,9.90,10.16,9.80,9.88,165160
26-Mar-12,9.99,9.99,9.77,9.94,88081
23-Mar-12,9.73,9.86,9.60,9.78,87355
22-Mar-12,9.97,10.24,9.36,9.66,227078
21-Mar-12,10.25,10.32,9.79,9.98,260769
20-Mar-12,9.85,10.20,9.53,10.16,318274
19-Mar-12,9.73,9.94,9.53,9.77,157930
16-Mar-12,10.20,10.21,9.62,9.77,278133
15-Mar-12,10.39,10.39,9.75,10.01,183051
14-Mar-12,10.45,10.79,9.74,10.12,1122112
13-Mar-12,9.50,10.88,8.76,10.22,1749887
12-Mar-12,7.50,8.36,7.50,7.64,124919
9-Mar-12,8.38,8.38,7.97,8.27,129576
8-Mar-12,8.66,8.71,8.35,8.45,124932
7-Mar-12,8.21,8.73,8.10,8.49,230173
6-Mar-12,7.78,8.36,7.21,8.02,160809
5-Mar-12,8.00,8.14,7.75,7.81,95539
2-Mar-12,7.28,8.03,7.22,7.89,247680
1-Mar-12,6.86,7.34,6.82,7.24,135474
29-Feb-12,7.04,7.04,6.30,6.80,137311
28-Feb-12,6.47,7.05,6.43,6.91,169087
27-Feb-12,6.18,6.44,5.93,6.43,26697
24-Feb-12,6.49,6.49,6.24,6.25,50295
23-Feb-12,6.51,6.58,6.42,6.44,122119
22-Feb-12,6.62,6.69,6.38,6.42,49981
21-Feb-12,6.65,6.93,6.60,6.70,70746
17-Feb-12,6.61,6.75,6.52,6.75,72456
16-Feb-12,6.34,6.68,6.28,6.51,74669
15-Feb-12,6.27,6.44,6.20,6.38,53123
14-Feb-12,6.12,6.27,6.03,6.27,29525
13-Feb-12,6.41,6.41,6.06,6.25,63319
10-Feb-12,6.32,6.40,6.32,6.32,41050
9-Feb-12,6.36,6.44,6.24,6.39,41251
8-Feb-12,6.34,6.50,6.23,6.41,71146
7-Feb-12,6.03,6.46,6.01,6.33,209187
6-Feb-12,5.85,5.97,5.85,5.94,53824
3-Feb-12,5.90,5.94,5.78,5.90,41981
2-Feb-12,5.75,6.06,5.75,5.89,56152
1-Feb-12,5.45,5.78,5.44,5.72,29734
31-Jan-12,5.67,5.71,5.40,5.46,37631
30-Jan-12,5.84,5.89,5.58,5.79,18559
27-Jan-12,5.56,5.92,5.56,5.82,41343
26-Jan-12,5.70,5.70,5.52,5.70,33379
25-Jan-12,5.73,5.80,5.64,5.67,17768
24-Jan-12,5.22,5.64,5.18,5.56,37702
23-Jan-12,5.59,5.59,5.06,5.21,56585
20-Jan-12,5.52,5.67,5.46,5.59,15799
19-Jan-12,5.70,5.75,5.53,5.72,19427
18-Jan-12,5.74,5.80,5.62,5.79,26992
17-Jan-12,5.50,6.22,5.50,5.69,87676
13-Jan-12,5.66,5.66,5.35,5.53,50118
12-Jan-12,5.50,5.71,5.50,5.61,25050
11-Jan-12,5.61,5.61,5.29,5.45,53988
10-Jan-12,4.69,6.00,4.54,5.49,248817
9-Jan-12,4.11,4.63,4.00,4.47,64516
6-Jan-12,4.05,4.06,4.01,4.05,2165
5-Jan-12,3.97,4.04,3.96,4.02,22661
4-Jan-12,3.99,4.04,3.97,3.99,35100
3-Jan-12,3.96,4.10,3.96,4.00,26400
30-Dec-11,3.98,4.03,3.95,3.95,23357
29-Dec-11,4.00,4.05,3.98,4.02,36400
28-Dec-11,4.00,4.05,3.98,4.05,35119
27-Dec-11,3.95,4.05,3.95,4.04,27594
23-Dec-11,3.96,4.10,3.94,4.04,24413
22-Dec-11,3.83,4.05,3.64,4.00,62815
21-Dec-11,3.96,3.96,3.66,3.75,37859
20-Dec-11,3.99,4.02,3.91,4.02,14982
19-Dec-11,4.05,4.05,3.94,3.99,4400
16-Dec-11,4.00,4.06,3.99,4.00,18740
15-Dec-11,4.10,4.10,3.90,3.98,36164
14-Dec-11,4.00,4.10,3.99,4.10,7135
13-Dec-11,4.01,4.09,4.00,4.01,14662
12-Dec-11,4.00,4.07,3.98,4.05,2985
9-Dec-11,3.97,4.06,3.97,4.04,26400
8-Dec-11,4.02,4.03,3.96,4.00,8321
7-Dec-11,4.04,4.04,3.95,4.02,10875
6-Dec-11,4.01,4.05,3.77,4.02,111985
5-Dec-11,4.00,4.15,3.95,3.99,190167
2-Dec-11,3.95,4.00,3.84,3.93,11846
1-Dec-11,3.81,4.00,3.81,3.93,40307
30-Nov-11,3.36,4.00,3.36,3.83,68372
29-Nov-11,3.41,3.41,3.24,3.29,19542
28-Nov-11,3.34,3.44,3.22,3.40,12905
25-Nov-11,3.31,3.31,3.25,3.26,799
23-Nov-11,3.30,3.44,3.21,3.34,8470
22-Nov-11,3.35,3.39,3.25,3.27,44462
21-Nov-11,3.56,3.56,3.37,3.40,16757
18-Nov-11,3.48,3.62,3.48,3.57,2645
17-Nov-11,3.60,3.62,3.52,3.57,13942
16-Nov-11,3.81,3.81,3.59,3.59,34621
15-Nov-11,3.87,3.94,3.77,3.86,20500
14-Nov-11,3.96,3.96,3.86,3.88,38683
11-Nov-11,3.91,3.93,3.90,3.93,26650
10-Nov-11,3.90,3.98,3.87,3.90,19917
9-Nov-11,3.90,3.97,3.79,3.90,50183
8-Nov-11,3.97,3.99,3.90,3.97,12842
7-Nov-11,3.91,4.00,3.90,3.99,19240
4-Nov-11,3.90,3.95,3.90,3.95,4919
3-Nov-11,3.91,3.93,3.90,3.91,35124
2-Nov-11,3.98,4.00,3.89,3.92,22702
1-Nov-11,3.90,4.03,3.90,3.95,16447
31-Oct-11,3.91,3.96,3.90,3.95,20775
28-Oct-11,3.95,3.95,3.90,3.95,7100
27-Oct-11,4.03,4.03,3.93,3.96,5527
26-Oct-11,3.93,3.98,3.93,3.95,12800
25-Oct-11,3.91,4.06,3.90,3.99,32845
24-Oct-11,3.90,3.96,3.81,3.94,21695
21-Oct-11,3.75,3.95,3.75,3.93,25870
20-Oct-11,3.81,3.86,3.71,3.82,32698
19-Oct-11,3.85,3.92,3.84,3.87,10373
18-Oct-11,3.91,3.94,3.78,3.90,19768
17-Oct-11,3.91,4.04,3.89,3.90,88366
14-Oct-11,3.97,4.03,3.88,3.91,41231
13-Oct-11,4.00,4.07,3.88,4.02,16170
12-Oct-11,4.11,4.11,3.91,4.06,46383
11-Oct-11,4.09,4.15,3.88,4.11,55341
10-Oct-11,4.06,4.15,4.02,4.15,48596
7-Oct-11,3.91,4.05,3.90,4.05,11800
6-Oct-11,3.93,4.04,3.93,4.01,12400
5-Oct-11,3.84,4.00,3.80,3.95,31772
4-Oct-11,4.04,4.04,3.71,3.95,47900
3-Oct-11,3.92,4.06,3.70,3.97,61130
30-Sep-11,4.07,4.26,3.99,4.05,24600
29-Sep-11,4.09,4.09,4.00,4.01,8166
28-Sep-11,3.96,4.12,3.95,4.00,13250
27-Sep-11,3.88,4.13,3.88,4.02,20182
26-Sep-11,3.84,4.00,3.83,3.84,19221
23-Sep-11,3.87,3.90,3.75,3.77,27107
22-Sep-11,4.01,4.05,3.81,3.90,53873
21-Sep-11,4.25,4.30,4.09,4.14,22720
20-Sep-11,3.85,4.35,3.85,4.27,69163
19-Sep-11,3.66,3.88,3.66,3.85,62171
16-Sep-11,3.72,3.88,3.64,3.70,95010
15-Sep-11,3.69,3.78,3.63,3.72,48063
14-Sep-11,3.71,3.78,3.68,3.78,37686
13-Sep-11,3.66,3.78,3.60,3.70,29360
12-Sep-11,3.67,3.84,3.62,3.68,45816
9-Sep-11,3.87,3.87,3.66,3.74,25880
8-Sep-11,3.95,4.04,3.81,3.82,42256
7-Sep-11,3.68,3.92,3.62,3.92,9629
6-Sep-11,3.77,3.91,3.69,3.71,38988
2-Sep-11,3.89,3.96,3.82,3.89,31344
1-Sep-11,3.90,3.95,3.82,3.91,29201
31-Aug-11,3.99,4.00,3.87,3.91,94406
30-Aug-11,4.00,4.00,3.82,4.00,32513
29-Aug-11,3.71,4.00,3.58,3.97,61893
26-Aug-11,3.46,3.69,3.45,3.62,50273
25-Aug-11,3.59,3.66,3.47,3.48,35980
24-Aug-11,3.44,3.59,3.43,3.58,30982
23-Aug-11,3.45,3.55,3.41,3.46,43011
22-Aug-11,3.54,3.55,3.36,3.40,79114
19-Aug-11,3.70,4.00,3.32,3.48,186845
18-Aug-11,3.53,3.84,3.51,3.73,55450
17-Aug-11,3.55,3.65,3.46,3.62,71356
16-Aug-11,3.35,3.54,3.30,3.46,47886
15-Aug-11,3.22,3.49,3.22,3.36,75653
12-Aug-11,3.16,3.30,3.16,3.17,49739
11-Aug-11,3.46,3.46,3.25,3.26,32470
10-Aug-11,3.36,3.83,3.35,3.38,23562
9-Aug-11,3.35,3.69,3.35,3.46,103454
8-Aug-11,3.29,3.56,3.17,3.28,109155
5-Aug-11,3.66,3.69,3.42,3.44,62935
4-Aug-11,3.75,3.75,3.60,3.62,48480
3-Aug-11,3.83,3.90,3.75,3.77,52874
2-Aug-11,4.03,3.90,3.76,3.88,60608
1-Aug-11,4.06,4.06,3.95,4.03,33126
29-Jul-11,3.97,4.06,3.97,4.06,14467
28-Jul-11,4.01,4.04,3.96,3.98,36111
27-Jul-11,4.00,4.10,3.95,3.98,88136
26-Jul-11,4.06,4.06,3.97,4.02,51530
25-Jul-11,4.12,4.13,4.01,4.07,33689
22-Jul-11,4.14,4.20,4.11,4.16,18828
21-Jul-11,4.15,4.19,4.11,4.15,18676
20-Jul-11,4.20,4.20,4.05,4.17,33137
19-Jul-11,4.02,4.18,4.00,4.17,44584
18-Jul-11,4.10,4.10,4.00,4.03,55931
15-Jul-11,4.18,4.18,4.13,4.14,15970
14-Jul-11,4.18,4.23,4.13,4.15,23405
13-Jul-11,4.20,4.30,4.14,4.14,27640
12-Jul-11,4.05,4.29,4.00,4.17,64723
11-Jul-11,4.15,4.16,4.00,4.01,41985
8-Jul-11,4.37,4.37,4.13,4.21,38391
7-Jul-11,4.01,4.17,4.00,4.17,74519
6-Jul-11,4.37,4.37,4.07,4.08,48069
5-Jul-11,4.06,4.07,4.00,4.04,71926
1-Jul-11,4.15,4.16,4.03,4.09,67063
30-Jun-11,4.31,4.33,4.11,4.12,64067
29-Jun-11,4.28,4.32,4.20,4.32,46006
28-Jun-11,4.36,4.48,4.17,4.27,63310
27-Jun-11,4.45,4.56,4.21,4.31,85017
24-Jun-11,4.68,4.80,4.31,4.50,2569686
23-Jun-11,4.30,4.99,4.30,4.69,199556
22-Jun-11,4.05,4.30,4.00,4.28,84891
21-Jun-11,4.07,4.14,4.03,4.08,63588
20-Jun-11,4.01,4.11,3.97,4.02,66876
17-Jun-11,4.11,4.20,4.00,4.01,122505
16-Jun-11,4.02,4.15,4.02,4.08,42604
15-Jun-11,4.06,4.13,3.94,4.00,99041
14-Jun-11,4.00,4.23,3.93,4.11,123145
13-Jun-11,4.11,4.25,3.93,3.95,112835
10-Jun-11,4.21,4.27,4.08,4.11,122351
9-Jun-11,4.26,4.38,4.15,4.20,63865
8-Jun-11,4.42,4.42,4.20,4.25,70495
7-Jun-11,4.53,4.55,4.43,4.45,59368
6-Jun-11,4.35,4.64,4.29,4.50,136240
3-Jun-11,4.55,4.59,4.44,4.45,62673
2-Jun-11,4.50,4.64,4.48,4.61,42455
1-Jun-11,4.67,4.69,4.47,4.49,91719
31-May-11,4.58,4.73,4.49,4.66,107932
27-May-11,4.73,4.73,4.48,4.53,84738
26-May-11,4.60,4.71,4.55,4.69,56106
25-May-11,4.50,4.64,4.41,4.61,57050
24-May-11,4.31,4.60,4.17,4.51,124755
23-May-11,4.32,4.42,4.13,4.31,76325
20-May-11,4.65,4.68,4.31,4.33,216556
19-May-11,4.77,4.77,4.61,4.65,77881
18-May-11,4.86,4.87,4.69,4.75,76039
17-May-11,4.97,5.04,4.80,4.86,95590
16-May-11,4.97,4.98,4.90,4.93,95686
13-May-11,5.00,5.11,4.85,5.01,83794
12-May-11,4.96,5.19,4.91,5.00,28263
11-May-11,5.12,5.14,4.90,4.98,65708
10-May-11,5.05,5.18,4.95,5.13,60467
9-May-11,4.94,5.03,4.90,5.02,32334
6-May-11,4.90,4.98,4.82,4.97,46052
5-May-11,4.54,4.94,4.53,4.83,79633
4-May-11,4.75,4.82,4.55,4.56,95327
3-May-11,5.00,5.00,4.72,4.77,76575
2-May-11,5.29,5.29,4.99,4.99,51109
29-Apr-11,5.32,5.50,5.11,5.34,127864
28-Apr-11,5.26,5.39,5.18,5.34,33330
27-Apr-11,5.14,5.26,5.09,5.25,28403
26-Apr-11,5.06,5.17,5.05,5.16,58397
25-Apr-11,5.19,5.21,5.00,5.06,112133
21-Apr-11,5.46,5.46,5.16,5.21,50918
20-Apr-11,5.16,5.45,5.13,5.42,156210
19-Apr-11,5.20,5.20,5.09,5.14,125105
18-Apr-11,5.00,5.19,4.97,5.15,86384
15-Apr-11,4.99,5.09,4.91,5.07,120889
14-Apr-11,4.96,5.02,4.91,5.01,40575
13-Apr-11,4.89,5.02,4.87,5.00,137277
12-Apr-11,4.59,4.92,4.59,4.87,136431
11-Apr-11,4.73,4.75,4.53,4.60,166348
8-Apr-11,4.75,4.78,4.68,4.71,117283
7-Apr-11,4.89,4.92,4.66,4.69,158707
6-Apr-11,4.91,5.01,4.77,4.89,132741
5-Apr-11,5.03,5.03,4.81,4.91,183711
4-Apr-11,5.10,5.20,4.60,5.04,381621
1-Apr-11,4.81,5.50,4.75,5.06,1318130
31-Mar-11,7.81,8.00,7.71,8.00,272424
30-Mar-11,7.51,7.83,7.51,7.80,76258
29-Mar-11,7.39,7.55,7.28,7.44,96313
28-Mar-11,7.34,7.51,7.20,7.36,75698
25-Mar-11,6.76,7.48,6.65,7.35,188021
24-Mar-11,6.76,6.79,6.50,6.71,158843
23-Mar-11,6.15,7.20,6.15,6.69,335959
22-Mar-11,6.04,6.14,6.02,6.05,22242
21-Mar-11,6.17,6.19,5.97,6.06,53753
18-Mar-11,6.05,6.20,5.95,6.11,125643
17-Mar-11,6.15,6.26,5.93,5.98,88476
16-Mar-11,6.14,6.15,5.98,6.03,49131
15-Mar-11,6.13,6.31,5.87,6.12,100155
14-Mar-11,6.15,6.35,6.15,6.27,24098
11-Mar-11,6.40,6.40,6.15,6.21,55217
10-Mar-11,6.32,6.58,6.26,6.41,93725
9-Mar-11,6.50,6.50,6.40,6.42,44872
8-Mar-11,6.42,6.50,6.37,6.50,35114
7-Mar-11,6.56,6.61,6.36,6.42,36148
4-Mar-11,6.72,6.72,6.42,6.55,33080
3-Mar-11,6.75,6.95,6.60,6.69,93932
2-Mar-11,6.31,6.87,6.31,6.74,120757
1-Mar-11,6.50,6.50,6.13,6.30,51446
28-Feb-11,6.64,6.68,6.39,6.49,29874
25-Feb-11,6.45,6.78,6.34,6.56,71686
24-Feb-11,6.35,6.56,6.25,6.46,91490
23-Feb-11,6.52,6.52,6.29,6.37,96821
22-Feb-11,6.54,6.82,6.47,6.51,98873
18-Feb-11,6.56,6.62,6.47,6.61,73201
17-Feb-11,6.55,6.55,6.43,6.53,93940
16-Feb-11,6.75,6.75,6.50,6.52,84925
15-Feb-11,6.67,6.76,6.66,6.74,51595
14-Feb-11,6.82,6.82,6.61,6.67,38436
11-Feb-11,6.87,6.87,6.41,6.75,77758
10-Feb-11,6.81,6.95,6.74,6.88,33041
9-Feb-11,6.91,6.91,6.70,6.82,55257
8-Feb-11,7.01,7.11,6.90,6.95,115804
7-Feb-11,6.81,7.08,6.81,7.04,58861
4-Feb-11,6.55,6.94,6.55,6.78,56417
3-Feb-11,6.41,6.56,6.40,6.56,33122
2-Feb-11,6.42,6.54,6.29,6.40,39306
1-Feb-11,6.90,6.90,6.45,6.46,113895
31-Jan-11,6.14,6.29,6.01,6.26,128407
28-Jan-11,6.47,6.55,6.24,6.24,142025
27-Jan-11,7.03,7.06,6.40,6.47,124205
26-Jan-11,7.07,7.07,6.92,7.02,45802
25-Jan-11,7.08,7.10,6.95,7.03,42379
24-Jan-11,7.03,7.15,6.81,7.08,54097
21-Jan-11,7.21,7.25,7.00,7.00,135867
20-Jan-11,7.38,7.38,7.10,7.16,67636
19-Jan-11,7.63,7.63,7.34,7.38,66454
18-Jan-11,7.90,7.90,7.50,7.60,74035
14-Jan-11,7.97,8.06,7.84,7.90,59602
13-Jan-11,8.04,8.07,7.96,7.96,38507
12-Jan-11,8.08,8.10,8.00,8.01,13350
11-Jan-11,8.14,8.41,7.96,8.00,30194
10-Jan-11,8.01,8.12,8.01,8.07,27560
7-Jan-11,7.90,8.01,7.81,8.01,84103
6-Jan-11,8.29,8.35,7.78,7.81,81814
5-Jan-11,8.25,8.33,8.06,8.26,40588
4-Jan-11,8.54,8.54,8.25,8.25,57158
3-Jan-11,8.30,8.53,8.29,8.50,38598
31-Dec-10,8.37,8.39,8.24,8.24,61100
30-Dec-10,8.23,8.47,8.21,8.36,83021
29-Dec-10,8.06,8.21,7.99,8.21,58364
28-Dec-10,7.97,8.06,7.91,8.02,56344
27-Dec-10,7.89,8.08,7.87,7.99,57863
23-Dec-10,7.84,7.94,7.83,7.89,19514
22-Dec-10,7.96,7.96,7.73,7.86,41020
21-Dec-10,8.06,8.06,7.90,7.94,41035
20-Dec-10,8.08,8.10,7.87,8.00,47295
17-Dec-10,7.98,8.06,7.65,8.00,232845
16-Dec-10,8.00,8.05,7.83,8.00,113083
15-Dec-10,8.01,8.05,8.00,8.03,35425
14-Dec-10,8.00,8.01,7.87,8.00,40602
13-Dec-10,8.07,8.07,7.87,7.96,38959
10-Dec-10,8.20,8.20,8.00,8.00,56239
9-Dec-10,8.29,8.29,8.06,8.17,46189
8-Dec-10,8.16,8.28,8.11,8.23,13886
7-Dec-10,8.21,8.21,8.01,8.12,46687
6-Dec-10,8.14,8.19,7.94,8.10,43554
3-Dec-10,8.13,8.22,8.05,8.18,31809
2-Dec-10,8.30,8.33,8.15,8.19,23488
1-Dec-10,8.29,8.37,8.15,8.28,44486
30-Nov-10,8.25,8.34,8.08,8.11,170430
29-Nov-10,8.34,8.38,8.25,8.30,43456
26-Nov-10,8.24,8.34,8.24,8.31,11051
24-Nov-10,8.30,8.34,8.23,8.32,39969
23-Nov-10,8.21,8.30,8.20,8.22,20603
22-Nov-10,8.29,8.30,8.16,8.30,16069
19-Nov-10,8.24,8.31,8.19,8.29,52895
18-Nov-10,8.20,8.29,8.11,8.23,43076
17-Nov-10,8.13,8.30,8.02,8.07,47351
16-Nov-10,7.99,8.20,7.95,8.08,60860
15-Nov-10,7.95,8.38,7.76,8.04,74423
12-Nov-10,8.19,8.35,8.15,8.17,46769
11-Nov-10,7.90,8.32,7.90,8.26,67328
10-Nov-10,8.06,8.14,7.88,8.00,46556
9-Nov-10,8.10,8.22,7.81,8.03,56550
8-Nov-10,7.69,8.05,7.60,8.02,58445
5-Nov-10,8.18,8.20,7.63,7.76,134614
4-Nov-10,8.14,8.16,7.99,8.15,93299
3-Nov-10,8.07,8.18,7.86,8.02,31098
2-Nov-10,8.09,8.18,7.95,8.00,70422
1-Nov-10,8.09,8.09,7.84,8.00,57630
29-Oct-10,8.00,8.11,7.96,8.02,33024
28-Oct-10,8.07,8.07,7.81,7.93,51844
27-Oct-10,8.42,8.42,7.89,7.98,95118
26-Oct-10,8.15,8.50,7.98,8.00,191001
25-Oct-10,7.50,8.28,7.50,8.23,247808
22-Oct-10,7.18,7.39,7.18,7.30,27734
21-Oct-10,7.60,7.60,7.21,7.47,79539
20-Oct-10,7.51,7.60,7.43,7.59,22220
19-Oct-10,7.50,7.65,7.37,7.43,30121
18-Oct-10,7.43,7.65,7.38,7.64,45666
15-Oct-10,7.42,7.47,7.27,7.39,48968
14-Oct-10,7.41,7.48,7.26,7.37,42906
13-Oct-10,7.27,7.50,7.14,7.40,132863
12-Oct-10,7.21,7.27,7.15,7.25,8609
11-Oct-10,7.40,7.40,7.15,7.26,15242
8-Oct-10,7.06,7.31,7.01,7.30,39289
7-Oct-10,7.34,7.37,7.06,7.08,28595
6-Oct-10,7.35,7.37,7.21,7.26,52967
5-Oct-10,7.00,7.35,6.82,7.32,40355
4-Oct-10,7.20,7.22,6.71,6.90,81187
1-Oct-10,7.36,7.36,7.17,7.26,28591
30-Sep-10,7.39,7.39,7.20,7.29,42640
29-Sep-10,7.47,7.50,7.29,7.35,22930
28-Sep-10,7.30,7.49,7.14,7.49,27507
27-Sep-10,7.42,7.42,7.22,7.25,21991
24-Sep-10,7.21,7.47,7.15,7.47,39327
23-Sep-10,7.16,7.48,7.11,7.13,28140
22-Sep-10,7.56,7.75,7.03,7.23,22221
21-Sep-10,7.74,7.75,7.44,7.60,30004
20-Sep-10,7.32,7.85,7.19,7.72,84913
17-Sep-10,7.12,7.48,7.01,7.32,121715
16-Sep-10,7.06,7.27,6.90,7.03,44241
15-Sep-10,6.95,7.17,6.81,6.92,70584
14-Sep-10,7.18,7.32,6.90,6.95,56638
13-Sep-10,6.80,7.25,6.80,7.24,94234
10-Sep-10,6.35,6.75,6.27,6.73,48790
9-Sep-10,6.35,6.37,6.25,6.30,24694
8-Sep-10,6.16,6.39,6.08,6.28,34217
7-Sep-10,6.23,6.41,6.12,6.12,54222
3-Sep-10,6.28,6.45,5.95,6.24,39099
2-Sep-10,6.27,6.55,6.10,6.22,21499
1-Sep-10,6.19,6.29,6.10,6.27,38935
31-Aug-10,6.14,6.26,5.86,6.06,36361
30-Aug-10,6.50,6.50,6.12,6.16,45334
27-Aug-10,6.04,6.63,5.96,6.55,53217
26-Aug-10,6.09,6.21,5.95,5.95,26237
25-Aug-10,5.84,6.13,5.78,6.09,39300
24-Aug-10,6.00,6.00,5.85,5.85,60468
23-Aug-10,6.14,6.33,5.92,6.04,70587
20-Aug-10,6.25,6.50,6.00,6.08,105108
19-Aug-10,6.47,6.51,6.25,6.25,70408
18-Aug-10,6.61,6.61,6.46,6.53,35514
17-Aug-10,6.49,6.80,6.49,6.64,39058
16-Aug-10,6.31,6.47,6.31,6.40,34055
13-Aug-10,6.41,7.04,6.30,6.32,94588
12-Aug-10,6.28,6.75,6.28,6.44,74909
11-Aug-10,6.92,7.06,6.29,6.36,82215
10-Aug-10,7.18,7.27,6.98,6.99,61163
9-Aug-10,7.22,7.30,6.99,7.25,51063
6-Aug-10,7.17,7.25,7.00,7.16,26871
5-Aug-10,7.24,7.31,7.24,7.24,30933
4-Aug-10,7.25,7.44,7.24,7.29,55108
3-Aug-10,7.14,7.39,7.14,7.20,62022
2-Aug-10,7.35,7.35,7.08,7.19,29919
30-Jul-10,7.24,7.43,7.12,7.25,51994
29-Jul-10,7.66,7.66,7.05,7.37,105578
28-Jul-10,7.50,7.58,7.25,7.38,34078
27-Jul-10,7.58,7.58,7.33,7.50,39634
26-Jul-10,7.65,7.65,7.23,7.50,73262
23-Jul-10,7.45,7.67,7.33,7.50,94188
22-Jul-10,7.44,7.63,7.20,7.50,72397
21-Jul-10,8.13,8.13,7.29,7.39,112545
20-Jul-10,8.12,8.28,8.01,8.13,43546
19-Jul-10,8.31,8.31,7.90,8.18,46604
16-Jul-10,8.70,8.74,8.07,8.18,89838
15-Jul-10,8.75,8.99,8.50,8.72,109679
14-Jul-10,8.71,8.80,8.50,8.69,115656
13-Jul-10,8.01,8.92,7.89,8.77,222846
12-Jul-10,7.60,8.05,7.55,7.89,87187
9-Jul-10,7.99,7.99,7.66,7.91,34133
8-Jul-10,7.99,7.99,7.18,7.91,114160
7-Jul-10,7.14,7.58,7.14,7.56,99136
6-Jul-10,7.24,7.33,7.05,7.22,81894
2-Jul-10,7.30,7.30,7.09,7.15,50283
1-Jul-10,7.46,7.46,7.22,7.22,80583
30-Jun-10,7.58,7.59,7.31,7.42,61016
29-Jun-10,7.63,7.80,7.12,7.57,202336
28-Jun-10,7.23,7.67,7.23,7.64,137307
25-Jun-10,6.63,7.73,6.35,7.72,1628015
24-Jun-10,6.45,6.65,6.38,6.62,137470
23-Jun-10,6.19,6.38,6.10,6.38,61934
22-Jun-10,6.02,6.20,6.02,6.18,56796
21-Jun-10,6.10,6.10,5.89,6.06,39009
18-Jun-10,5.87,6.10,5.82,6.08,97824
17-Jun-10,5.77,5.89,5.77,5.83,5512
16-Jun-10,5.96,5.96,5.80,5.87,9149
15-Jun-10,5.98,6.00,5.67,6.00,64069
14-Jun-10,5.60,5.98,5.32,5.87,46046
11-Jun-10,5.58,5.59,5.47,5.56,19257
10-Jun-10,5.52,5.54,5.40,5.54,35884
9-Jun-10,5.55,5.56,5.40,5.44,16572
8-Jun-10,5.42,5.54,5.40,5.49,18736
7-Jun-10,5.49,5.52,5.40,5.44,17820
4-Jun-10,5.41,5.58,5.32,5.35,38532
3-Jun-10,5.44,5.67,5.31,5.62,29046
2-Jun-10,5.64,5.64,5.34,5.46,70728
1-Jun-10,5.84,5.84,5.52,5.52,44528
28-May-10,5.89,5.94,5.46,5.92,143249
27-May-10,5.48,5.93,5.48,5.91,32445
26-May-10,5.59,5.59,5.37,5.37,22237
25-May-10,5.23,5.78,5.02,5.57,109624
24-May-10,5.29,5.36,5.10,5.24,65922
21-May-10,5.43,5.54,5.25,5.30,159782
20-May-10,5.50,5.52,5.43,5.46,76069
19-May-10,5.50,5.62,5.50,5.50,38234
18-May-10,5.91,5.92,5.50,5.50,74769
17-May-10,6.04,6.04,5.80,5.81,48353
14-May-10,6.04,6.15,5.91,5.98,42917
13-May-10,6.13,6.13,6.05,6.10,13413
12-May-10,6.30,6.30,5.98,6.12,44499
11-May-10,6.20,6.30,6.20,6.30,17933
10-May-10,5.97,6.28,5.90,6.28,38608
7-May-10,5.94,6.00,5.76,5.78,25911
6-May-10,5.98,6.15,5.95,5.97,27566
5-May-10,6.16,6.28,5.81,6.02,40663
4-May-10,6.17,6.17,6.08,6.13,42300
3-May-10,5.91,6.10,5.82,6.10,48287
30-Apr-10,6.16,6.20,5.77,5.90,58908
29-Apr-10,5.95,6.28,5.85,6.15,78199
28-Apr-10,5.74,5.96,5.70,5.84,40548
27-Apr-10,5.93,5.95,5.67,5.67,12918
26-Apr-10,5.97,6.08,5.84,5.93,46856
23-Apr-10,5.88,6.07,5.83,6.01,40622
22-Apr-10,5.92,5.92,5.76,5.91,45422
21-Apr-10,5.89,5.95,5.89,5.95,29273
20-Apr-10,6.00,6.05,5.80,5.88,121653
19-Apr-10,5.89,5.94,5.80,5.83,17536
16-Apr-10,6.09,6.09,5.86,5.88,31429
15-Apr-10,6.01,6.08,5.85,6.08,31022
14-Apr-10,6.24,6.26,6.02,6.09,46936
13-Apr-10,6.29,6.30,6.11,6.28,18043
12-Apr-10,6.27,6.30,6.13,6.25,21053
9-Apr-10,6.21,6.37,6.11,6.31,29282
8-Apr-10,6.35,6.40,6.26,6.36,38704
7-Apr-10,6.16,6.40,6.03,6.31,75799
6-Apr-10,6.16,6.22,6.10,6.17,40549
5-Apr-10,6.41,6.50,6.16,6.19,55336
31-Mar-10,6.59,7.70,6.40,7.04,296180
30-Mar-10,6.00,6.32,5.90,6.03,20480
29-Mar-10,6.02,6.06,5.82,6.05,4356
26-Mar-10,5.98,6.18,5.90,5.98,13966
25-Mar-10,6.01,6.09,5.93,5.99,7019
24-Mar-10,6.10,6.11,5.98,5.99,15137
23-Mar-10,6.10,6.10,5.87,6.08,17966
22-Mar-10,6.24,6.29,5.76,6.08,29861
19-Mar-10,6.41,6.41,6.20,6.27,28676
18-Mar-10,6.28,6.44,6.24,6.36,11665
17-Mar-10,6.50,6.50,6.04,6.21,9430
16-Mar-10,6.38,6.38,6.24,6.30,15491
15-Mar-10,6.23,6.40,6.22,6.34,5206
12-Mar-10,6.48,6.48,6.22,6.32,15482
11-Mar-10,6.28,6.37,6.19,6.28,11130
10-Mar-10,6.27,6.31,6.17,6.30,12128
9-Mar-10,6.12,6.36,6.12,6.30,9090
8-Mar-10,6.03,6.49,6.03,6.34,12401
5-Mar-10,5.97,6.83,5.97,6.36,36377
4-Mar-10,6.03,6.06,5.96,5.98,17536
3-Mar-10,6.03,6.13,5.99,6.03,28802
2-Mar-10,6.00,6.03,5.86,6.00,18505
1-Mar-10,5.62,5.99,5.55,5.98,33993
26-Feb-10,5.52,5.61,5.52,5.61,15475
25-Feb-10,5.51,5.59,5.50,5.59,12178
24-Feb-10,5.68,5.68,5.57,5.59,11576
23-Feb-10,5.51,5.74,5.45,5.68,29902
22-Feb-10,5.55,5.70,5.50,5.50,27219
19-Feb-10,5.60,5.81,5.50,5.64,25367
18-Feb-10,5.64,5.66,5.51,5.59,26140
17-Feb-10,5.82,5.82,5.56,5.78,13713
16-Feb-10,5.79,5.93,5.60,5.78,25858
12-Feb-10,5.60,5.82,5.50,5.79,51543
11-Feb-10,5.65,6.13,5.55,5.60,60671
10-Feb-10,5.66,5.75,5.60,5.73,13348
9-Feb-10,5.86,5.86,5.65,5.69,26725
8-Feb-10,5.83,5.83,5.80,5.82,15459
5-Feb-10,5.81,5.98,5.75,5.87,19178
4-Feb-10,6.02,6.02,5.82,5.85,17999
3-Feb-10,6.06,6.38,6.05,6.05,11561
2-Feb-10,6.02,6.30,5.87,6.09,22519
1-Feb-10,6.43,6.43,5.97,6.06,17193
29-Jan-10,5.71,6.47,5.71,6.38,42235
28-Jan-10,5.94,5.94,5.66,5.69,32729
27-Jan-10,6.00,6.01,5.88,5.95,26644
26-Jan-10,6.30,6.56,6.06,6.07,36510
25-Jan-10,6.50,6.52,6.30,6.32,16520
22-Jan-10,6.55,6.61,6.35,6.39,30801
21-Jan-10,6.70,6.74,6.55,6.55,32957
20-Jan-10,6.80,6.80,6.61,6.73,22958
19-Jan-10,6.73,6.98,6.68,6.88,25005
15-Jan-10,6.73,6.75,6.66,6.69,21799
14-Jan-10,6.71,6.75,6.63,6.70,14906
13-Jan-10,6.65,6.75,6.65,6.67,10452
12-Jan-10,6.79,6.83,6.55,6.63,42910
11-Jan-10,6.80,6.82,6.75,6.78,13085
8-Jan-10,6.91,6.91,6.76,6.83,42783
7-Jan-10,6.97,6.97,6.75,6.78,38841
6-Jan-10,6.93,7.26,6.80,6.85,26185
5-Jan-10,7.25,7.25,6.90,6.96,24302
4-Jan-10,7.44,7.45,7.10,7.29,12249
31-Dec-09,7.46,7.46,7.01,7.02,53601
30-Dec-09,7.45,7.47,7.09,7.33,54839
29-Dec-09,7.26,7.50,7.21,7.32,47017
28-Dec-09,7.26,7.50,7.12,7.22,32984
24-Dec-09,7.27,7.50,7.20,7.20,9515
23-Dec-09,7.59,7.59,7.10,7.23,37884
22-Dec-09,7.71,7.75,7.52,7.52,34553
21-Dec-09,7.53,7.82,7.50,7.70,66483
18-Dec-09,7.50,8.03,7.26,7.53,602390
17-Dec-09,7.33,7.80,7.23,7.50,46446
16-Dec-09,7.52,7.92,7.09,7.48,62243
15-Dec-09,7.08,7.71,6.92,7.56,69091
14-Dec-09,6.77,7.29,6.77,7.29,38678
11-Dec-09,7.00,7.10,6.76,7.10,31747
10-Dec-09,6.75,7.21,6.71,7.09,23084
9-Dec-09,6.92,7.10,6.72,7.00,21035
8-Dec-09,7.16,7.19,6.91,7.01,29450
7-Dec-09,7.19,7.19,7.09,7.16,9041
4-Dec-09,7.10,7.14,7.00,7.07,47842
3-Dec-09,7.00,7.09,6.91,7.01,18707
2-Dec-09,6.75,7.00,6.75,6.93,17436
1-Dec-09,7.02,7.03,6.58,6.92,44876
30-Nov-09,6.63,6.91,6.55,6.81,11060
27-Nov-09,6.87,7.09,6.30,6.63,21971
25-Nov-09,7.21,7.24,6.54,7.12,20501
24-Nov-09,7.06,7.25,6.84,7.15,33682
23-Nov-09,7.60,7.60,6.94,7.05,48381
20-Nov-09,7.84,7.84,7.15,7.50,95960
19-Nov-09,7.68,7.70,7.30,7.70,62867
18-Nov-09,7.43,7.84,7.30,7.70,169133
17-Nov-09,6.98,7.63,6.87,7.33,150283
16-Nov-09,6.88,6.89,6.46,6.86,58201
13-Nov-09,6.01,6.85,6.01,6.71,37448
12-Nov-09,6.50,6.50,6.00,6.06,48195
11-Nov-09,6.52,6.52,6.25,6.44,40900
10-Nov-09,6.35,6.57,6.34,6.44,12500
9-Nov-09,6.88,6.88,6.57,6.70,25502
6-Nov-09,6.33,6.85,6.33,6.85,44263
5-Nov-09,6.61,6.73,6.52,6.70,36150
4-Nov-09,6.62,6.62,6.30,6.50,27634
3-Nov-09,5.82,6.62,5.82,6.51,81886
2-Nov-09,5.38,5.79,5.30,5.79,28990
30-Oct-09,5.75,5.75,5.27,5.40,90641
29-Oct-09,5.96,5.96,5.46,5.58,83829
28-Oct-09,6.00,6.00,5.63,5.71,90809
27-Oct-09,6.44,6.44,5.79,6.01,202659
26-Oct-09,6.52,6.90,6.42,6.45,117059
23-Oct-09,7.03,7.03,6.56,6.58,48485
22-Oct-09,7.04,7.05,6.91,6.93,16409
21-Oct-09,6.85,7.09,6.80,6.91,46641
20-Oct-09,7.06,7.19,6.82,6.82,59130
19-Oct-09,6.81,7.25,6.80,7.00,77027
16-Oct-09,7.23,7.23,6.88,6.88,57294
15-Oct-09,7.45,7.45,6.81,7.03,255783
14-Oct-09,7.50,7.68,7.16,7.44,240509
13-Oct-09,8.50,8.60,7.29,7.47,389381
12-Oct-09,8.41,8.76,8.25,8.41,70319
9-Oct-09,8.77,8.77,8.25,8.46,289769
8-Oct-09,8.80,9.49,8.13,8.73,2964360
