﻿Date,Open,High,Low,Close,Volume
20-Jun-17,12.36,12.60,12.22,12.40,1605559
19-Jun-17,12.33,12.79,12.33,12.46,2245746
16-Jun-17,12.05,12.35,11.94,12.29,2444228
15-Jun-17,12.10,12.27,11.92,12.11,1726680
14-Jun-17,12.39,12.60,12.22,12.31,1399463
13-Jun-17,12.46,12.48,12.25,12.39,1457577
12-Jun-17,12.92,12.95,12.50,12.52,2545006
9-Jun-17,12.94,13.19,12.84,12.94,1264500
8-Jun-17,12.64,12.94,12.57,12.92,889734
7-Jun-17,12.85,12.90,12.57,12.66,894283
6-Jun-17,12.65,12.92,12.50,12.87,1206957
5-Jun-17,12.60,12.85,12.58,12.72,1308614
2-Jun-17,12.78,12.78,12.55,12.61,1525345
1-Jun-17,12.51,12.80,12.40,12.78,2479804
31-May-17,12.57,12.57,12.25,12.48,1355994
30-May-17,12.57,12.65,12.47,12.60,1186833
26-May-17,12.55,12.68,12.50,12.65,1027441
25-May-17,12.97,12.98,12.51,12.59,2344676
24-May-17,13.05,13.13,12.84,12.94,1013643
23-May-17,13.34,13.38,13.05,13.05,1323009
22-May-17,13.44,13.57,13.24,13.31,1591144
19-May-17,12.96,13.44,12.95,13.43,1919320
18-May-17,13.24,13.24,12.65,12.94,3540148
17-May-17,13.30,13.50,13.22,13.38,2828397
16-May-17,13.66,13.68,13.40,13.57,2031799
15-May-17,13.50,13.77,13.50,13.66,867397
12-May-17,13.37,13.50,13.31,13.41,1031017
11-May-17,13.44,13.54,13.24,13.38,1790270
10-May-17,13.40,13.54,13.28,13.41,1908176
9-May-17,13.60,13.60,13.32,13.37,1946276
8-May-17,13.99,13.99,13.43,13.49,2165285
5-May-17,13.46,13.74,13.36,13.69,2825345
4-May-17,13.59,13.67,13.28,13.40,1970563
3-May-17,13.86,13.93,13.53,13.62,1393600
2-May-17,14.30,14.31,13.92,13.99,1109170
1-May-17,14.18,14.33,13.99,14.25,1825821
28-Apr-17,14.33,14.34,14.09,14.17,827444
27-Apr-17,14.33,14.37,14.11,14.27,1323394
26-Apr-17,14.12,14.33,14.10,14.32,1074011
25-Apr-17,13.98,14.28,13.91,14.21,1157810
24-Apr-17,13.58,14.00,13.56,13.89,1331593
21-Apr-17,13.46,13.59,13.35,13.36,1217045
20-Apr-17,13.20,13.44,13.16,13.38,1304935
19-Apr-17,13.00,13.18,12.92,13.10,1076325
18-Apr-17,12.83,12.97,12.72,12.91,1164093
17-Apr-17,12.82,12.90,12.77,12.88,1145328
13-Apr-17,12.97,13.02,12.74,12.80,1618450
12-Apr-17,13.24,13.32,12.97,13.00,1467852
11-Apr-17,13.41,13.50,13.07,13.27,1396875
10-Apr-17,13.33,13.53,13.31,13.42,1790654
7-Apr-17,12.91,13.42,12.90,13.31,3013683
6-Apr-17,12.72,12.95,12.64,12.91,1095053
5-Apr-17,13.00,13.11,12.64,12.69,2019834
4-Apr-17,12.92,13.02,12.86,12.94,1112869
3-Apr-17,13.04,13.15,12.86,12.92,1103326
31-Mar-17,13.04,13.16,12.97,13.02,1047316
30-Mar-17,13.01,13.16,13.01,13.10,941211
29-Mar-17,12.92,13.08,12.88,12.97,1093431
28-Mar-17,12.76,13.00,12.68,12.95,1029571
27-Mar-17,12.36,12.78,12.21,12.73,1267467
24-Mar-17,12.65,12.79,12.47,12.55,997289
23-Mar-17,12.47,12.66,12.36,12.62,1488173
22-Mar-17,12.17,12.54,12.14,12.47,1255975
21-Mar-17,12.94,13.04,12.24,12.24,2299690
20-Mar-17,13.09,13.10,12.93,12.93,1068333
17-Mar-17,13.00,13.13,12.93,13.09,3039615
16-Mar-17,13.12,13.20,12.98,13.03,1604111
15-Mar-17,13.08,13.19,12.95,13.04,3322523
14-Mar-17,12.78,13.00,12.54,13.00,1379457
13-Mar-17,12.95,13.05,12.86,12.99,1039311
10-Mar-17,12.88,12.96,12.72,12.85,2113725
9-Mar-17,12.88,13.09,12.65,12.75,1633733
8-Mar-17,13.06,13.15,12.89,12.91,1864118
7-Mar-17,13.15,13.18,12.90,13.04,2720102
6-Mar-17,13.19,13.34,13.07,13.23,3868215
3-Mar-17,13.20,13.37,13.15,13.28,3808344
2-Mar-17,13.42,13.58,13.16,13.18,4038556
1-Mar-17,13.67,13.92,13.39,13.47,5895108
28-Feb-17,13.75,13.96,13.02,13.19,3632372
27-Feb-17,13.02,13.33,12.94,13.30,3581474
24-Feb-17,12.87,13.10,12.78,13.05,1803968
23-Feb-17,13.21,13.30,12.93,12.98,2502380
22-Feb-17,13.24,13.43,13.06,13.07,2444905
21-Feb-17,13.48,13.57,13.17,13.30,3331181
17-Feb-17,12.94,13.91,12.80,13.35,5687512
16-Feb-17,13.03,13.16,12.94,12.96,1179233
15-Feb-17,12.89,13.20,12.89,13.01,1860623
14-Feb-17,12.82,12.96,12.71,12.94,1310467
13-Feb-17,12.86,12.94,12.76,12.84,1275905
10-Feb-17,12.84,12.87,12.66,12.80,1047603
9-Feb-17,12.65,12.81,12.58,12.73,1798188
8-Feb-17,12.54,12.66,12.33,12.61,1852033
7-Feb-17,12.56,12.68,12.39,12.55,1950634
6-Feb-17,12.70,12.86,12.54,12.67,2563653
3-Feb-17,12.41,12.52,12.22,12.40,1824636
2-Feb-17,12.36,12.38,12.16,12.32,1525387
1-Feb-17,12.20,12.39,12.02,12.39,2277692
31-Jan-17,11.93,12.19,11.82,12.14,1670634
30-Jan-17,11.97,12.02,11.52,12.00,1953785
27-Jan-17,11.92,12.11,11.86,12.11,3300641
26-Jan-17,11.97,12.05,11.82,11.96,2359165
25-Jan-17,11.54,12.09,11.41,12.00,4578305
24-Jan-17,11.23,11.84,11.19,11.73,4051050
23-Jan-17,11.13,11.19,10.90,11.12,1655212
20-Jan-17,11.18,11.25,11.00,11.07,1170219
19-Jan-17,10.97,11.04,10.83,11.01,1217377
18-Jan-17,10.85,11.02,10.78,10.96,927494
17-Jan-17,11.13,11.16,10.86,10.88,1476498
13-Jan-17,10.95,11.21,10.95,11.12,1619688
12-Jan-17,10.83,11.08,10.55,11.03,2869458
11-Jan-17,10.41,10.75,10.24,10.73,2266628
10-Jan-17,10.29,10.45,10.23,10.37,1449655
9-Jan-17,10.20,10.36,10.05,10.21,1596402
6-Jan-17,10.34,10.34,10.18,10.21,1094473
5-Jan-17,10.27,10.38,10.14,10.34,2018194
4-Jan-17,9.90,10.24,9.80,10.16,4011666
3-Jan-17,9.90,10.22,9.64,9.83,2129036
30-Dec-16,9.65,9.83,9.61,9.81,1882062
29-Dec-16,9.71,9.76,9.52,9.67,1162358
28-Dec-16,9.86,9.92,9.71,9.72,1154057
27-Dec-16,9.63,9.90,9.61,9.81,760787
23-Dec-16,9.54,9.67,9.50,9.61,591825
22-Dec-16,9.75,9.75,9.50,9.55,1197832
21-Dec-16,9.71,9.80,9.63,9.73,1083225
20-Dec-16,9.68,9.77,9.58,9.69,1717698
19-Dec-16,9.55,9.76,9.55,9.68,1205097
16-Dec-16,9.70,9.78,9.59,9.68,1924795
15-Dec-16,9.57,9.75,9.50,9.64,2416765
14-Dec-16,9.85,9.96,9.58,9.64,2198427
13-Dec-16,10.09,10.16,9.83,9.85,1909379
12-Dec-16,10.50,10.50,9.95,10.00,2362909
9-Dec-16,10.45,10.59,10.15,10.34,1891848
8-Dec-16,9.99,10.44,9.94,10.40,2231875
7-Dec-16,9.76,9.98,9.73,9.94,1806852
6-Dec-16,9.42,9.84,9.34,9.76,2214682
5-Dec-16,9.48,9.71,9.36,9.45,1938596
2-Dec-16,9.28,9.43,9.26,9.37,1549346
1-Dec-16,9.45,9.51,9.26,9.31,2126300
30-Nov-16,9.39,9.47,9.27,9.35,2195021
29-Nov-16,8.73,9.32,8.65,9.25,3900322
28-Nov-16,8.87,9.00,8.78,8.89,2275485
25-Nov-16,8.89,8.99,8.82,8.85,483480
23-Nov-16,8.66,9.04,8.66,8.92,1540128
22-Nov-16,8.89,8.90,8.69,8.79,937744
21-Nov-16,8.63,8.87,8.53,8.87,2187506
18-Nov-16,8.45,8.59,8.44,8.51,1673821
17-Nov-16,8.50,8.58,8.40,8.46,1295676
16-Nov-16,8.51,8.61,8.47,8.48,1371965
15-Nov-16,8.54,8.61,8.37,8.59,2092030
14-Nov-16,8.56,8.70,8.42,8.55,3038236
11-Nov-16,8.69,8.72,8.37,8.51,2805822
10-Nov-16,8.72,9.14,8.70,8.75,6363317
9-Nov-16,8.42,8.72,8.40,8.68,5017121
8-Nov-16,8.37,8.55,8.17,8.40,5471808
7-Nov-16,8.22,8.40,8.01,8.39,3801893
4-Nov-16,8.14,8.15,7.35,7.89,5400822
3-Nov-16,7.33,7.54,7.30,7.30,3399977
2-Nov-16,7.28,7.39,7.26,7.35,1720038
1-Nov-16,7.38,7.44,7.16,7.36,2429721
31-Oct-16,7.21,7.34,7.19,7.29,3413607
28-Oct-16,7.52,7.61,7.15,7.20,3623769
27-Oct-16,7.49,7.56,7.40,7.53,2052976
26-Oct-16,7.47,7.56,7.36,7.46,3598285
25-Oct-16,7.48,7.57,7.48,7.52,2349695
24-Oct-16,7.54,7.59,7.45,7.53,2603754
21-Oct-16,7.44,7.54,7.42,7.52,1663267
20-Oct-16,7.47,7.61,7.46,7.55,2932390
19-Oct-16,7.49,7.72,7.36,7.56,7411314
18-Oct-16,7.30,7.53,7.30,7.49,4024810
17-Oct-16,7.15,7.25,7.12,7.20,1945221
14-Oct-16,7.24,7.41,7.11,7.17,3688532
13-Oct-16,7.07,7.22,6.85,7.19,3321181
12-Oct-16,7.22,7.30,7.06,7.17,2057369
11-Oct-16,7.50,7.51,7.05,7.23,3265548
10-Oct-16,7.35,7.62,7.34,7.51,3112985
7-Oct-16,7.54,7.59,7.08,7.23,4201482
6-Oct-16,7.53,7.63,7.36,7.47,3597676
5-Oct-16,7.35,7.70,7.30,7.56,3626851
4-Oct-16,7.87,8.00,7.33,7.33,4177648
3-Oct-16,8.13,8.22,7.75,7.85,3660567
30-Sep-16,8.16,8.24,7.82,8.11,5189200
29-Sep-16,8.37,8.60,8.09,8.13,2891617
28-Sep-16,8.39,8.55,8.04,8.55,6121851
27-Sep-16,8.27,8.41,8.14,8.28,4205534
26-Sep-16,8.50,8.55,8.34,8.36,2801522
23-Sep-16,8.63,8.80,8.47,8.50,2846579
22-Sep-16,8.80,8.91,8.66,8.68,2733595
21-Sep-16,8.54,8.72,8.37,8.62,1994715
20-Sep-16,8.75,8.85,8.42,8.42,2713487
19-Sep-16,8.71,8.88,8.63,8.69,5200545
16-Sep-16,8.33,8.60,8.33,8.55,14666296
15-Sep-16,8.45,8.49,7.88,8.35,6020122
14-Sep-16,9.05,9.10,8.83,8.96,1742596
13-Sep-16,9.18,9.40,8.77,8.97,3106234
12-Sep-16,9.00,9.75,8.91,9.35,2801313
9-Sep-16,9.48,9.48,8.92,9.20,2252609
8-Sep-16,9.61,9.72,9.48,9.63,1035271
7-Sep-16,9.40,9.63,9.35,9.53,1125596
6-Sep-16,9.36,9.68,9.30,9.41,1653693
2-Sep-16,9.04,9.35,8.92,9.34,1337950
1-Sep-16,9.07,9.24,8.89,8.90,1245698
31-Aug-16,9.14,9.29,9.01,9.05,1227831
30-Aug-16,9.14,9.41,9.11,9.24,1125138
29-Aug-16,8.78,9.20,8.77,9.15,1930612
26-Aug-16,8.97,9.11,8.68,8.78,1086862
25-Aug-16,8.82,9.00,8.75,8.89,1509528
24-Aug-16,9.06,9.17,8.80,8.82,928764
23-Aug-16,9.06,9.23,9.03,9.15,1320248
22-Aug-16,8.99,9.04,8.75,8.98,2190243
19-Aug-16,8.93,9.02,8.81,8.99,1044440
18-Aug-16,9.05,9.14,8.93,9.05,1087661
17-Aug-16,8.99,9.03,8.74,8.97,939179
16-Aug-16,9.09,9.27,8.98,9.04,999495
15-Aug-16,9.02,9.24,8.92,9.06,2670972
12-Aug-16,9.14,9.20,8.87,8.90,928159
11-Aug-16,9.04,9.27,8.88,9.17,1125182
10-Aug-16,9.18,9.18,8.69,8.95,1928070
9-Aug-16,9.60,9.69,9.12,9.16,2044334
8-Aug-16,10.19,10.19,8.94,9.66,3094166
5-Aug-16,9.85,9.91,9.35,9.42,3500467
4-Aug-16,9.60,10.02,9.46,9.73,2069524
3-Aug-16,9.03,9.82,8.94,9.72,2023463
2-Aug-16,9.16,9.39,8.88,9.07,1512076
1-Aug-16,9.19,9.30,9.02,9.10,1459845
29-Jul-16,9.03,9.24,8.92,9.20,1294504
28-Jul-16,9.10,9.34,9.01,9.08,1159238
27-Jul-16,9.00,9.14,8.91,8.98,1023682
26-Jul-16,8.67,8.98,8.59,8.94,1172400
25-Jul-16,8.75,8.87,8.64,8.67,729399
22-Jul-16,9.04,9.04,8.67,8.85,1615518
21-Jul-16,9.00,9.18,8.95,9.07,1309647
20-Jul-16,8.73,9.05,8.53,8.97,1858025
19-Jul-16,9.16,9.18,8.79,8.82,1103125
18-Jul-16,9.19,9.34,9.06,9.29,942617
15-Jul-16,9.31,9.31,9.10,9.25,1206012
14-Jul-16,9.36,9.39,9.12,9.23,1259871
13-Jul-16,9.03,9.21,8.92,9.20,2241965
12-Jul-16,8.81,9.20,8.79,8.93,1949196
11-Jul-16,8.33,8.67,8.31,8.55,1232543
8-Jul-16,8.30,8.48,8.14,8.38,1456811
7-Jul-16,8.18,8.44,8.00,8.10,1071782
6-Jul-16,8.07,8.13,7.77,8.06,2133608
5-Jul-16,8.55,8.70,8.01,8.16,1977641
1-Jul-16,8.79,9.13,8.60,8.73,1799483
30-Jun-16,9.03,9.03,8.65,8.88,2390222
29-Jun-16,8.77,9.08,8.60,8.97,1430104
28-Jun-16,8.32,8.60,8.18,8.48,1927905
27-Jun-16,8.53,8.56,7.99,7.99,2110651
24-Jun-16,8.74,9.08,8.60,8.66,3901667
23-Jun-16,8.92,9.59,8.86,9.58,1923567
22-Jun-16,9.00,9.12,8.66,8.71,1367422
21-Jun-16,8.91,8.97,8.60,8.96,1419329
20-Jun-16,8.86,9.04,8.79,8.93,1659318
17-Jun-16,8.54,8.75,8.40,8.51,2965786
16-Jun-16,8.67,8.71,8.15,8.46,2220213
15-Jun-16,8.81,9.14,8.66,8.79,1640351
14-Jun-16,9.30,9.57,8.56,8.72,3116550
13-Jun-16,9.70,9.99,9.36,9.36,1837157
10-Jun-16,9.90,10.02,9.69,9.75,1298275
9-Jun-16,10.44,10.54,10.14,10.17,1370086
8-Jun-16,10.85,11.04,10.59,10.69,1627616
7-Jun-16,10.46,11.06,10.34,10.77,2997166
6-Jun-16,10.05,10.58,10.05,10.48,2000162
3-Jun-16,9.99,10.17,9.88,9.98,1311047
2-Jun-16,9.61,9.93,9.59,9.92,1068374
1-Jun-16,9.38,9.73,9.12,9.69,1462460
31-May-16,9.64,9.75,9.41,9.49,1124063
27-May-16,9.36,9.65,9.29,9.52,1290068
26-May-16,9.73,9.73,9.23,9.40,1177809
25-May-16,9.34,9.74,9.22,9.58,1729038
24-May-16,9.32,9.37,9.07,9.18,954918
23-May-16,9.13,9.47,9.05,9.24,1345148
20-May-16,9.14,9.36,9.10,9.18,1320863
19-May-16,8.84,9.20,8.81,9.06,1397545
18-May-16,9.15,9.42,8.92,8.95,2139874
17-May-16,9.33,9.70,9.19,9.31,1654769
16-May-16,9.32,9.60,9.24,9.40,1359282
13-May-16,9.62,9.67,9.15,9.17,1646188
12-May-16,10.48,10.55,9.66,9.68,3107860
11-May-16,9.64,10.36,9.58,10.25,5049316
10-May-16,9.38,10.20,9.25,9.58,6247069
9-May-16,8.80,8.90,8.38,8.53,3538760
6-May-16,8.62,9.14,8.51,8.80,2372874
5-May-16,9.19,9.19,8.73,8.76,2709575
4-May-16,9.08,9.50,8.87,9.00,3016462
3-May-16,9.79,9.80,9.22,9.22,3222462
2-May-16,10.24,10.28,9.73,9.98,1977746
29-Apr-16,10.51,10.70,10.03,10.30,2192772
28-Apr-16,10.64,10.91,10.48,10.50,1495415
27-Apr-16,10.21,10.78,10.20,10.68,1704934
26-Apr-16,9.92,10.42,9.83,10.27,1474529
25-Apr-16,10.27,10.30,9.75,9.86,1506334
22-Apr-16,10.04,10.60,10.04,10.30,1961972
21-Apr-16,9.89,10.15,9.84,10.07,2204165
20-Apr-16,9.55,10.10,9.50,9.84,2260967
19-Apr-16,9.13,9.66,9.06,9.50,2533930
18-Apr-16,8.83,9.12,8.83,9.01,1283863
15-Apr-16,9.03,9.20,8.93,9.03,1429687
14-Apr-16,8.87,9.17,8.73,9.10,1901182
13-Apr-16,8.50,8.92,8.41,8.87,2643485
12-Apr-16,8.51,8.65,8.04,8.36,2448964
11-Apr-16,8.70,8.80,8.48,8.59,2703869
8-Apr-16,8.54,8.87,8.40,8.51,1717999
7-Apr-16,8.82,8.93,8.32,8.40,1629901
6-Apr-16,8.56,8.96,8.43,8.94,2114933
5-Apr-16,8.43,8.82,8.37,8.56,2132401
4-Apr-16,8.77,9.18,8.54,8.59,1953962
1-Apr-16,8.38,8.88,8.13,8.83,2284895
31-Mar-16,8.74,8.91,8.54,8.60,2489729
30-Mar-16,8.90,9.48,8.60,8.73,3443321
29-Mar-16,8.29,8.89,8.00,8.81,2088199
28-Mar-16,8.77,8.80,8.21,8.31,1916635
24-Mar-16,8.50,8.72,8.34,8.66,1521453
23-Mar-16,9.10,9.12,8.63,8.69,3012883
22-Mar-16,8.73,9.47,8.62,9.21,2487327
21-Mar-16,8.78,8.99,8.63,8.81,2276897
18-Mar-16,8.96,9.14,8.60,8.88,3496231
17-Mar-16,8.24,8.93,8.16,8.84,3499797
16-Mar-16,7.93,8.33,7.81,8.32,2255580
15-Mar-16,8.45,8.48,7.71,7.95,4676733
14-Mar-16,8.71,8.75,8.36,8.57,2537576
11-Mar-16,8.43,8.87,8.35,8.85,3000507
10-Mar-16,8.25,8.56,7.93,8.48,4988012
9-Mar-16,7.91,8.35,7.84,8.10,4498892
8-Mar-16,8.13,8.14,7.46,7.49,3323832
7-Mar-16,7.96,8.46,7.82,8.25,2957841
4-Mar-16,8.50,8.63,7.64,7.94,4834086
3-Mar-16,7.48,8.14,7.41,7.78,3563826
2-Mar-16,6.76,7.50,6.58,7.49,4230370
1-Mar-16,7.01,7.08,6.21,6.91,5770556
29-Feb-16,7.56,7.80,6.69,7.09,4883359
26-Feb-16,6.51,7.02,6.42,7.00,3242269
25-Feb-16,6.58,6.75,6.15,6.51,1778388
24-Feb-16,6.24,6.58,5.85,6.53,3079174
23-Feb-16,6.53,6.66,6.22,6.43,2564287
22-Feb-16,6.60,6.82,6.38,6.60,2680922
19-Feb-16,6.76,6.83,6.37,6.44,3973682
18-Feb-16,7.00,7.12,6.70,6.89,5608672
17-Feb-16,6.59,7.30,6.53,7.01,4319681
16-Feb-16,6.23,6.45,5.87,6.43,6919621
12-Feb-16,5.70,6.00,5.43,5.95,5153133
11-Feb-16,5.59,5.70,5.25,5.55,7100936
10-Feb-16,6.27,6.31,5.81,5.84,6313468
9-Feb-16,5.71,6.45,5.61,6.25,7919090
8-Feb-16,7.03,7.03,5.41,5.88,8159474
5-Feb-16,7.69,7.78,7.11,7.19,3657707
4-Feb-16,7.41,8.18,7.35,7.72,5952982
3-Feb-16,7.19,7.54,6.65,7.41,6457331
2-Feb-16,7.35,7.42,6.68,7.02,5814466
1-Feb-16,7.50,7.56,7.27,7.48,4296221
29-Jan-16,7.51,7.73,7.30,7.63,2672220
28-Jan-16,7.78,7.90,7.37,7.42,2754825
27-Jan-16,7.39,8.03,7.30,7.55,4305451
26-Jan-16,7.32,7.40,7.05,7.39,3854573
25-Jan-16,7.67,7.90,7.24,7.26,3579613
22-Jan-16,7.85,8.20,7.58,7.79,4193798
21-Jan-16,7.70,7.95,7.34,7.58,4637599
20-Jan-16,7.00,7.82,6.48,7.67,6973135
19-Jan-16,8.07,8.08,7.20,7.31,5688224
15-Jan-16,7.72,8.08,7.53,7.84,5441235
14-Jan-16,8.02,9.57,7.44,8.20,6345334
13-Jan-16,8.95,9.15,7.82,7.98,6624075
12-Jan-16,9.03,9.14,8.39,8.83,6268833
11-Jan-16,9.55,9.60,8.70,8.86,5702621
8-Jan-16,10.22,10.31,9.43,9.43,4179967
7-Jan-16,10.22,10.54,9.97,10.07,4717576
6-Jan-16,11.64,11.70,10.47,10.57,3191364
5-Jan-16,12.31,12.31,11.71,11.85,2847476
4-Jan-16,12.35,12.36,11.79,12.22,3637326
31-Dec-15,12.68,12.97,12.55,12.83,2498843
30-Dec-15,12.82,13.02,12.73,12.76,2119663
29-Dec-15,13.41,13.47,12.80,12.92,2624599
28-Dec-15,13.40,13.43,13.02,13.23,2017629
24-Dec-15,13.75,13.84,13.60,13.62,904143
23-Dec-15,12.82,13.96,12.69,13.76,4617706
22-Dec-15,12.32,12.69,12.02,12.60,3369970
21-Dec-15,12.40,12.56,12.00,12.21,2476755
18-Dec-15,12.29,12.71,12.07,12.26,4313651
17-Dec-15,12.88,12.96,12.20,12.39,5330730
16-Dec-15,10.77,13.10,10.77,12.88,9866535
15-Dec-15,10.25,10.88,10.05,10.65,6553279
14-Dec-15,10.42,10.66,9.99,10.12,7041892
11-Dec-15,11.54,11.55,10.21,10.41,7138605
10-Dec-15,11.34,11.75,11.20,11.64,3660253
9-Dec-15,10.94,11.75,10.85,11.38,5430671
8-Dec-15,11.18,11.50,10.87,10.95,4766012
7-Dec-15,12.04,12.19,11.28,11.36,3663863
4-Dec-15,12.50,12.55,11.65,12.19,4769846
3-Dec-15,12.92,13.04,12.24,12.50,10294723
2-Dec-15,12.75,13.28,12.68,13.04,5037431
1-Dec-15,12.61,12.87,12.33,12.82,1874335
30-Nov-15,12.37,12.62,12.02,12.56,1641009
27-Nov-15,12.88,12.95,12.05,12.33,1235315
25-Nov-15,12.73,13.05,12.56,12.96,1486224
24-Nov-15,12.79,12.88,12.44,12.74,1775636
23-Nov-15,12.24,13.08,12.18,12.85,2956498
20-Nov-15,11.94,12.34,11.75,11.84,1853111
19-Nov-15,11.87,12.05,11.62,11.86,2288190
18-Nov-15,10.85,11.92,10.85,11.90,2802799
17-Nov-15,10.99,11.07,10.64,10.85,2458030
16-Nov-15,11.17,11.35,10.56,10.92,2545933
13-Nov-15,10.85,11.28,10.67,11.18,2716923
12-Nov-15,10.88,11.12,10.50,10.85,3054255
11-Nov-15,11.61,12.18,10.87,11.12,4998859
10-Nov-15,11.88,12.01,11.32,11.68,3793337
9-Nov-15,12.27,12.64,11.38,11.90,4922917
6-Nov-15,11.70,11.97,11.30,11.89,3348602
5-Nov-15,12.66,12.67,11.57,11.89,4227196
4-Nov-15,12.26,13.11,12.15,12.70,6117809
3-Nov-15,11.01,12.80,10.95,12.27,5358122
2-Nov-15,10.54,11.75,10.50,11.06,5710784
30-Oct-15,10.85,11.00,10.22,10.44,4993764
29-Oct-15,11.20,11.51,10.80,10.84,3269433
28-Oct-15,10.76,11.42,10.70,11.33,6106666
27-Oct-15,10.81,11.16,10.60,10.75,6501443
26-Oct-15,10.99,11.61,10.79,10.88,4976690
23-Oct-15,11.63,11.65,9.25,11.03,19970978
22-Oct-15,11.82,12.04,11.33,11.53,2838424
21-Oct-15,12.28,12.34,11.13,11.73,4811717
20-Oct-15,12.23,12.65,12.12,12.24,2693690
19-Oct-15,12.48,12.80,12.20,12.26,2097803
16-Oct-15,12.60,12.79,12.27,12.62,2335120
15-Oct-15,12.97,13.05,12.10,12.59,3309016
14-Oct-15,12.79,13.22,12.68,12.88,2994777
13-Oct-15,13.43,13.63,12.69,12.73,3660625
12-Oct-15,14.19,14.33,13.53,13.63,2999430
9-Oct-15,13.45,14.87,13.40,14.15,7330217
8-Oct-15,12.74,13.56,12.12,13.40,7566468
7-Oct-15,14.44,14.81,12.51,12.94,10597037
6-Oct-15,14.77,14.85,14.17,14.42,4524539
5-Oct-15,13.85,14.91,13.85,14.84,5315586
2-Oct-15,12.80,13.77,12.70,13.76,3371207
1-Oct-15,12.77,13.10,12.53,12.91,4688319
30-Sep-15,12.13,12.68,12.10,12.65,7487618
29-Sep-15,12.77,12.89,11.96,12.06,6115200
28-Sep-15,13.90,13.92,12.72,12.76,4541191
25-Sep-15,14.79,15.01,13.99,14.03,3290741
24-Sep-15,14.51,14.88,14.05,14.62,4987705
23-Sep-15,15.65,15.66,14.73,14.78,3291803
22-Sep-15,16.07,16.20,15.43,15.66,2759260
21-Sep-15,16.73,16.73,16.00,16.29,1946150
18-Sep-15,16.61,16.75,16.26,16.62,5179499
17-Sep-15,17.30,17.42,16.99,17.02,1907863
16-Sep-15,17.19,17.96,17.08,17.37,2010719
15-Sep-15,17.22,17.69,17.02,17.08,1725580
14-Sep-15,17.22,17.29,16.83,17.16,1258732
11-Sep-15,17.15,17.27,16.48,17.20,1961045
10-Sep-15,17.58,17.58,16.89,17.20,2523436
9-Sep-15,18.36,18.49,17.78,17.83,1368595
8-Sep-15,18.27,18.36,17.76,18.26,1689579
4-Sep-15,17.98,18.25,17.85,17.87,1369294
3-Sep-15,18.48,18.62,17.98,18.20,1576826
2-Sep-15,18.43,18.60,17.97,18.34,1866315
1-Sep-15,18.78,18.95,18.03,18.21,2024433
31-Aug-15,19.20,19.27,18.68,19.14,1732225
28-Aug-15,19.30,19.95,19.22,19.41,1646969
27-Aug-15,18.30,19.97,18.19,19.57,3248203
26-Aug-15,18.32,18.32,16.74,17.55,3911436
25-Aug-15,18.09,18.09,17.50,17.93,1859910
24-Aug-15,17.73,18.78,16.89,17.39,3590572
21-Aug-15,19.37,19.37,18.35,18.81,3874872
20-Aug-15,20.41,20.65,19.60,19.69,2591442
19-Aug-15,20.53,20.83,20.14,20.72,3647897
18-Aug-15,20.80,20.82,19.87,20.53,2743603
17-Aug-15,21.15,21.36,20.62,20.72,2442146
14-Aug-15,21.11,21.84,21.02,21.11,2042595
13-Aug-15,22.10,23.40,20.21,21.00,9771463
12-Aug-15,23.10,23.57,22.83,23.44,2490188
11-Aug-15,23.40,23.75,23.10,23.27,1867575
10-Aug-15,22.63,23.56,22.48,23.51,1771444
7-Aug-15,23.25,23.27,22.24,22.48,1369211
6-Aug-15,23.44,23.60,23.00,23.27,1400170
5-Aug-15,23.48,24.04,23.32,23.46,1744499
4-Aug-15,23.22,23.60,23.02,23.28,1235121
3-Aug-15,23.24,23.32,22.84,23.25,1635047
31-Jul-15,23.11,23.49,23.05,23.27,1408990
30-Jul-15,23.00,23.32,22.82,23.11,1279952
29-Jul-15,23.20,23.25,22.72,23.11,1446470
28-Jul-15,22.40,23.32,22.04,23.27,2304160
27-Jul-15,22.25,22.82,21.95,22.40,3025376
24-Jul-15,23.75,23.80,22.43,22.61,3201336
23-Jul-15,24.13,24.42,23.77,23.79,1560604
22-Jul-15,24.30,24.31,23.69,23.98,2017162
21-Jul-15,24.55,24.63,24.19,24.35,1332575
20-Jul-15,25.35,25.35,24.48,24.50,1254474
17-Jul-15,25.92,25.92,25.12,25.34,1067859
16-Jul-15,26.10,26.35,25.84,25.92,1628512
15-Jul-15,25.65,26.10,25.58,26.00,1921024
14-Jul-15,25.47,25.76,25.24,25.56,1264999
13-Jul-15,25.19,26.06,25.00,25.53,2657572
10-Jul-15,24.36,25.18,24.09,25.14,2007487
9-Jul-15,24.66,24.76,24.08,24.13,1122342
8-Jul-15,24.82,25.04,24.32,24.32,1273819
7-Jul-15,25.07,25.19,24.62,25.08,1477986
6-Jul-15,25.03,25.19,24.74,25.17,1391844
2-Jul-15,25.60,25.74,25.09,25.25,1384621
1-Jul-15,25.78,26.20,25.48,25.63,1958816
30-Jun-15,25.92,26.16,25.54,25.58,1753184
29-Jun-15,26.33,26.51,25.39,25.59,3452916
26-Jun-15,27.23,27.42,26.61,26.74,3872992
25-Jun-15,27.56,27.56,26.90,27.31,1655188
24-Jun-15,27.23,27.24,26.52,27.09,9832313
23-Jun-15,26.62,26.68,25.82,26.65,2131277
22-Jun-15,26.88,27.08,26.29,26.50,886761
19-Jun-15,27.55,27.73,26.50,26.65,1279681
18-Jun-15,27.80,28.16,27.48,27.57,921589
17-Jun-15,27.69,28.10,27.29,27.72,1654439
16-Jun-15,27.41,28.00,27.41,27.94,597879
15-Jun-15,27.49,27.70,27.32,27.50,603343
12-Jun-15,27.88,27.98,27.38,27.68,712504
11-Jun-15,28.01,28.12,27.79,27.99,740138
10-Jun-15,27.57,28.02,27.47,27.98,707659
9-Jun-15,27.86,28.01,27.37,27.39,638628
8-Jun-15,28.33,28.39,27.56,27.85,1023871
5-Jun-15,27.50,28.44,27.40,28.35,1034646
4-Jun-15,27.76,27.90,27.33,27.48,803820
3-Jun-15,27.73,27.90,27.58,27.75,653378
2-Jun-15,27.21,27.80,27.16,27.78,912676
1-Jun-15,26.45,27.29,26.40,27.26,1415054
29-May-15,26.81,26.89,26.10,26.17,1087813
28-May-15,26.78,26.98,26.62,26.72,574795
27-May-15,27.07,27.22,26.79,26.95,474641
26-May-15,27.37,27.48,26.97,27.02,696234
22-May-15,27.10,27.51,27.03,27.42,1191890
21-May-15,27.08,27.24,26.94,27.15,1376163
20-May-15,27.11,27.28,26.92,27.03,927521
19-May-15,27.25,27.25,26.94,27.09,1244616
18-May-15,26.65,27.39,26.60,27.21,784234
15-May-15,26.32,26.68,25.89,26.64,945660
14-May-15,25.92,26.34,25.60,26.29,966094
13-May-15,26.40,27.25,25.67,25.90,2121824
12-May-15,27.00,27.17,25.68,26.39,2650300
11-May-15,27.42,27.78,27.29,27.49,918998
8-May-15,27.64,27.75,27.19,27.38,990331
7-May-15,27.12,27.46,26.98,27.33,550478
6-May-15,27.12,27.42,27.00,27.10,1258944
5-May-15,26.95,27.41,26.82,27.01,1139688
4-May-15,27.41,27.44,26.83,26.88,807292
1-May-15,27.20,27.54,27.07,27.40,902116
30-Apr-15,26.99,27.21,26.66,26.94,711476
29-Apr-15,26.99,27.35,26.76,27.08,612280
28-Apr-15,26.99,27.22,26.53,27.14,574077
27-Apr-15,27.25,27.64,26.90,26.98,1028172
24-Apr-15,28.00,28.00,27.16,27.18,722214
23-Apr-15,27.68,28.38,27.50,27.94,949488
22-Apr-15,27.82,27.99,27.63,27.81,1280925
21-Apr-15,27.55,27.64,26.98,27.62,812778
20-Apr-15,27.69,27.69,27.15,27.45,1151274
17-Apr-15,26.85,27.09,26.39,26.71,515197
16-Apr-15,26.77,27.21,26.59,26.88,705077
15-Apr-15,26.84,27.17,26.56,26.83,744951
14-Apr-15,27.03,27.21,26.57,26.69,630821
13-Apr-15,26.97,27.97,26.90,27.02,677720
10-Apr-15,26.50,27.32,26.50,27.14,1023735
9-Apr-15,26.06,26.82,25.95,26.48,963298
8-Apr-15,26.00,26.00,25.66,25.99,677451
7-Apr-15,25.92,26.20,25.78,25.80,380993
6-Apr-15,25.52,26.22,25.41,25.89,1125889
2-Apr-15,24.84,25.39,24.75,25.27,926126
1-Apr-15,25.69,25.90,24.52,24.90,1942708
31-Mar-15,25.88,25.99,25.64,25.66,708215
30-Mar-15,25.87,26.40,25.87,26.15,865236
27-Mar-15,25.26,25.72,25.04,25.66,864287
26-Mar-15,25.26,25.50,24.84,25.27,807765
25-Mar-15,25.82,25.90,25.16,25.26,945204
24-Mar-15,25.98,26.05,25.56,25.70,792590
23-Mar-15,26.36,26.99,25.85,26.06,1193891
20-Mar-15,26.22,26.45,25.30,26.36,2499618
19-Mar-15,26.84,26.84,26.00,26.10,2544373
18-Mar-15,26.75,27.06,26.21,26.98,2370584
17-Mar-15,27.17,27.17,26.25,27.05,1576040
16-Mar-15,26.19,26.29,25.66,26.17,630771
13-Mar-15,25.74,26.18,25.53,26.14,959988
12-Mar-15,25.93,26.14,25.59,25.85,940558
11-Mar-15,25.35,25.93,25.14,25.78,973561
10-Mar-15,25.87,25.98,25.22,25.37,976873
9-Mar-15,25.80,26.20,25.74,26.13,683390
6-Mar-15,25.90,26.46,25.71,25.78,1165660
5-Mar-15,26.55,26.79,25.70,26.05,1224375
4-Mar-15,26.23,26.83,25.81,26.60,6912468
3-Mar-15,26.05,26.27,25.81,26.22,789335
2-Mar-15,25.59,26.12,25.59,26.04,438217
27-Feb-15,25.59,25.88,25.42,25.78,1278370
26-Feb-15,25.51,25.65,25.12,25.50,793426
25-Feb-15,25.22,26.05,25.22,25.61,691892
24-Feb-15,24.95,25.39,24.88,25.25,1462099
23-Feb-15,25.09,25.37,24.79,24.86,2029212
20-Feb-15,24.38,25.02,24.38,25.00,840441
19-Feb-15,24.02,24.82,23.83,24.39,585152
18-Feb-15,23.41,25.06,23.37,24.39,1431157
17-Feb-15,22.67,23.48,22.51,23.43,2147576
13-Feb-15,22.71,22.98,22.55,22.68,1240747
12-Feb-15,22.93,23.01,22.43,22.54,1132460
11-Feb-15,23.00,23.44,22.67,22.75,633797
10-Feb-15,22.75,23.24,22.69,23.03,648959
9-Feb-15,23.05,23.32,22.58,22.64,521209
6-Feb-15,22.23,23.45,22.16,23.04,1161857
5-Feb-15,21.56,22.12,21.42,22.07,1359448
4-Feb-15,21.37,21.67,21.08,21.55,587141
3-Feb-15,20.99,21.69,20.75,21.52,1134213
2-Feb-15,21.05,21.34,20.15,20.71,1605988
30-Jan-15,21.24,21.51,20.95,21.00,842126
29-Jan-15,21.50,21.54,20.73,21.24,586308
28-Jan-15,22.76,22.85,21.49,21.55,676052
27-Jan-15,22.56,22.71,22.00,22.64,859300
26-Jan-15,22.09,22.57,21.98,22.56,1210917
23-Jan-15,22.00,22.27,21.84,22.02,688216
22-Jan-15,22.53,22.60,21.82,22.10,1282036
21-Jan-15,22.74,23.07,22.35,22.42,1112777
20-Jan-15,22.77,22.96,22.13,22.89,542595
16-Jan-15,22.46,22.90,22.43,22.81,544892
15-Jan-15,23.21,23.26,22.50,22.59,864375
14-Jan-15,22.88,23.18,22.72,23.05,641827
13-Jan-15,23.14,23.71,22.88,23.15,745512
12-Jan-15,22.89,23.11,22.54,23.05,439100
9-Jan-15,23.28,23.46,22.83,22.98,925623
8-Jan-15,22.20,23.23,21.85,23.20,745332
7-Jan-15,22.16,22.39,21.61,21.93,652649
6-Jan-15,22.50,22.56,21.02,21.88,1083611
5-Jan-15,22.83,22.83,22.28,22.46,583645
2-Jan-15,23.45,23.72,23.00,23.07,396802
31-Dec-14,23.37,23.64,22.91,23.22,464924
30-Dec-14,23.47,23.69,23.34,23.41,183617
29-Dec-14,23.15,23.67,23.11,23.55,305530
26-Dec-14,23.10,23.29,22.90,23.18,173078
24-Dec-14,22.99,23.28,22.84,23.00,110339
23-Dec-14,22.96,23.71,22.96,22.99,276249
22-Dec-14,22.99,23.39,22.71,22.89,641383
19-Dec-14,22.21,23.47,21.97,22.96,2442644
18-Dec-14,21.82,22.65,21.63,22.05,2044539
17-Dec-14,21.05,21.77,20.85,21.50,1177486
16-Dec-14,20.99,21.76,20.76,20.97,1577839
15-Dec-14,22.08,22.22,21.06,21.21,1846144
12-Dec-14,22.79,22.79,22.03,22.05,636319
11-Dec-14,23.05,23.26,22.66,22.93,961983
10-Dec-14,23.53,23.83,22.83,23.05,633571
9-Dec-14,23.93,24.10,23.66,23.68,464614
8-Dec-14,24.80,25.85,23.99,24.06,786913
5-Dec-14,24.10,25.03,24.06,24.93,536159
4-Dec-14,24.20,24.50,23.99,24.18,446186
3-Dec-14,23.68,24.34,23.62,24.23,657713
2-Dec-14,23.85,24.13,23.45,23.66,375627
1-Dec-14,25.02,25.03,23.44,23.61,1145256
28-Nov-14,25.49,25.56,24.84,25.01,460981
26-Nov-14,25.52,25.78,25.36,25.42,365308
25-Nov-14,25.60,26.03,25.42,25.56,834680
24-Nov-14,26.13,26.19,25.52,25.59,876309
21-Nov-14,26.00,26.13,25.83,26.01,1152836
20-Nov-14,26.00,26.10,25.63,25.74,910469
19-Nov-14,26.55,26.55,25.85,26.03,1168734
18-Nov-14,26.03,26.67,25.99,26.49,772320
17-Nov-14,25.45,26.34,25.45,26.10,640393
14-Nov-14,24.92,25.62,24.84,25.50,499097
13-Nov-14,24.97,25.55,24.72,24.95,1191950
12-Nov-14,25.41,25.50,24.70,24.90,6712449
11-Nov-14,24.97,25.44,24.22,25.01,975613
10-Nov-14,24.64,25.88,24.64,25.40,505575
7-Nov-14,25.70,26.06,25.55,25.79,428417
6-Nov-14,25.82,25.87,25.53,25.68,346791
5-Nov-14,25.00,25.90,25.00,25.84,444230
4-Nov-14,25.80,26.15,25.13,25.30,413325
3-Nov-14,26.06,26.28,25.60,25.76,476778
31-Oct-14,25.63,26.58,25.63,26.00,329541
30-Oct-14,25.72,26.04,25.16,25.45,907639
29-Oct-14,26.35,26.35,25.33,25.77,392359
28-Oct-14,25.95,26.58,25.93,26.25,225768
27-Oct-14,25.75,25.92,25.61,25.83,1694673
24-Oct-14,26.03,26.36,25.83,25.87,813757
23-Oct-14,26.02,26.50,25.88,26.08,778301
22-Oct-14,26.11,26.44,25.69,25.87,454115
21-Oct-14,26.54,26.85,25.52,26.01,888858
20-Oct-14,24.73,26.29,24.73,25.90,1010346
17-Oct-14,25.00,25.75,24.16,24.29,157369
16-Oct-14,23.77,25.25,23.63,24.80,515554
15-Oct-14,23.60,24.40,22.79,24.12,258640
14-Oct-14,24.14,24.18,23.34,23.80,317559
13-Oct-14,25.14,25.26,23.96,24.02,346787
10-Oct-14,26.14,26.19,24.71,25.30,611949
9-Oct-14,26.94,27.03,26.21,26.24,254681
8-Oct-14,27.33,27.90,26.49,26.98,336618
7-Oct-14,27.78,27.78,26.41,27.00,374767
6-Oct-14,27.00,28.41,27.00,27.74,626714
3-Oct-14,25.64,27.61,25.16,27.01,1062626
2-Oct-14,23.17,25.74,23.16,25.59,974969
1-Oct-14,25.02,25.14,23.19,23.29,883578
30-Sep-14,25.40,25.40,24.64,25.02,314798
29-Sep-14,25.40,25.68,25.26,25.37,122736
26-Sep-14,25.53,25.56,24.98,25.49,217737
25-Sep-14,25.55,25.63,25.38,25.50,185332
24-Sep-14,25.95,26.03,25.27,25.58,237441
23-Sep-14,27.00,27.10,25.82,25.87,374065
22-Sep-14,27.29,27.48,27.00,27.12,279714
19-Sep-14,27.08,27.64,26.99,27.57,618525
18-Sep-14,26.86,27.13,26.64,27.00,187691
17-Sep-14,27.67,27.67,26.79,26.91,156009
16-Sep-14,26.79,27.91,26.55,27.52,292237
15-Sep-14,26.91,26.91,26.29,26.79,169180
12-Sep-14,26.85,27.15,26.79,26.86,537857
11-Sep-14,26.65,27.17,26.65,27.10,701926
10-Sep-14,26.78,27.07,26.69,26.74,188782
9-Sep-14,26.66,27.00,26.65,26.89,324379
8-Sep-14,27.19,27.19,26.60,26.77,327825
5-Sep-14,26.82,27.32,26.58,27.20,122733
4-Sep-14,26.83,27.03,26.54,26.69,160624
3-Sep-14,26.90,27.16,26.43,26.94,230069
2-Sep-14,27.31,27.46,26.58,27.00,208371
29-Aug-14,26.93,27.43,26.80,27.31,168843
28-Aug-14,26.11,26.96,26.06,26.90,135191
27-Aug-14,26.41,26.54,25.88,26.04,85625
26-Aug-14,26.33,26.73,26.31,26.42,144386
25-Aug-14,25.94,26.45,25.84,26.21,148208
22-Aug-14,25.95,25.98,25.74,25.75,69398
21-Aug-14,25.67,26.04,25.67,25.73,129638
20-Aug-14,26.06,26.24,25.79,25.86,106896
19-Aug-14,26.56,26.72,26.16,26.27,94083
18-Aug-14,26.24,26.54,26.08,26.42,137342
15-Aug-14,26.17,26.55,26.01,26.25,160961
14-Aug-14,25.83,26.20,25.76,26.01,101262
13-Aug-14,25.75,26.26,25.63,25.82,190031
12-Aug-14,25.91,26.01,25.57,25.76,113090
11-Aug-14,25.92,26.20,25.70,25.94,356506
8-Aug-14,25.44,25.88,25.21,25.86,170837
7-Aug-14,25.30,25.83,25.18,25.26,447164
6-Aug-14,25.44,25.49,25.15,25.26,439339
5-Aug-14,25.06,25.38,25.05,25.29,380932
4-Aug-14,25.19,25.45,24.95,25.25,287271
1-Aug-14,24.58,25.36,24.49,25.25,736447
31-Jul-14,24.51,24.86,24.34,24.71,660298
30-Jul-14,25.45,25.60,24.23,24.73,683989
29-Jul-14,25.58,25.84,25.42,25.49,209829
28-Jul-14,25.83,26.00,25.64,25.70,253512
25-Jul-14,25.87,26.03,25.62,25.88,248329
24-Jul-14,26.28,26.44,25.93,26.03,320968
23-Jul-14,26.52,26.53,26.13,26.27,308190
22-Jul-14,27.05,27.22,26.44,26.48,295016
21-Jul-14,26.74,26.90,26.44,26.65,258500
18-Jul-14,26.69,26.94,26.66,26.74,359449
17-Jul-14,27.24,27.24,26.56,26.78,254821
16-Jul-14,27.12,27.37,26.95,27.20,160519
15-Jul-14,27.24,27.40,26.85,27.10,153290
14-Jul-14,27.51,27.54,27.01,27.39,169138
11-Jul-14,26.79,27.40,26.79,27.40,269466
10-Jul-14,26.93,27.16,26.56,26.90,421854
9-Jul-14,26.60,27.14,26.60,27.14,548193
8-Jul-14,27.82,27.82,26.35,26.58,500160
7-Jul-14,27.62,27.83,27.15,27.83,321425
3-Jul-14,27.26,27.65,27.23,27.54,157501
2-Jul-14,27.72,27.88,27.08,27.40,599796
1-Jul-14,28.21,28.25,27.46,27.85,633446
30-Jun-14,27.17,28.05,26.96,28.03,782211
27-Jun-14,28.88,28.95,27.22,27.31,5420618
26-Jun-14,27.99,28.93,27.75,28.70,708658
25-Jun-14,27.30,28.07,27.28,28.01,618491
24-Jun-14,27.27,27.80,27.03,27.37,896197
23-Jun-14,27.00,28.39,27.00,27.40,1792726
20-Jun-14,26.50,27.20,26.29,26.99,7319376
19-Jun-14,27.10,27.37,25.82,26.49,1708188
18-Jun-14,27.05,27.38,26.68,27.00,863996
17-Jun-14,28.06,28.39,26.75,26.89,950056
16-Jun-14,27.72,28.89,27.72,28.05,1572555
13-Jun-14,28.22,28.74,27.42,27.76,983083
12-Jun-14,27.92,28.83,27.84,28.36,1186992
11-Jun-14,27.38,28.03,27.25,27.87,779463
10-Jun-14,27.51,27.78,26.86,27.50,1125768
9-Jun-14,25.72,27.70,25.69,27.44,1181627
6-Jun-14,25.66,26.12,25.53,25.95,526923
5-Jun-14,25.69,26.00,25.05,25.56,782693
4-Jun-14,26.58,26.62,25.61,25.73,988204
3-Jun-14,27.25,27.25,26.49,26.53,475117
2-Jun-14,27.45,27.98,27.18,27.39,411899
30-May-14,26.62,27.45,26.61,27.24,1225302
29-May-14,26.42,27.03,26.28,26.78,481276
28-May-14,26.40,26.50,25.91,26.47,539253
27-May-14,25.30,26.56,25.30,26.39,1016561
23-May-14,25.20,25.38,24.94,25.37,755577
22-May-14,24.55,25.21,24.41,25.01,905116
21-May-14,23.40,24.59,23.40,24.48,684617
20-May-14,23.22,23.79,22.86,23.40,628878
19-May-14,22.35,23.26,22.04,23.15,774872
16-May-14,21.24,22.60,21.23,22.35,779313
15-May-14,19.75,21.09,19.75,21.01,1067185
14-May-14,20.17,20.30,19.50,19.92,586150
13-May-14,19.80,20.46,19.80,20.19,410539
12-May-14,19.36,19.89,19.36,19.84,554028
9-May-14,19.57,19.67,19.32,19.38,446451
8-May-14,19.65,19.96,19.45,19.48,643281
7-May-14,19.77,19.93,19.40,19.69,884643
6-May-14,19.87,20.13,19.68,20.01,339856
5-May-14,20.20,20.20,19.63,19.83,177571
2-May-14,19.60,20.07,19.48,19.95,687805
1-May-14,19.50,19.64,19.36,19.52,341616
30-Apr-14,19.86,19.93,19.40,19.54,581330
29-Apr-14,19.92,20.03,19.53,19.84,353597
28-Apr-14,19.80,19.97,19.47,19.92,375940
25-Apr-14,19.75,19.93,19.43,19.75,394691
24-Apr-14,19.90,20.26,19.66,19.69,344896
23-Apr-14,20.08,20.26,19.63,19.89,419555
22-Apr-14,20.44,20.67,19.92,20.15,2589363
21-Apr-14,20.00,20.65,19.99,20.26,569970
17-Apr-14,20.31,20.65,19.41,19.98,1175568
16-Apr-14,19.96,20.14,19.59,19.66,173488
15-Apr-14,19.90,20.03,19.35,19.86,198171
14-Apr-14,19.92,20.11,19.73,19.90,271028
11-Apr-14,20.04,20.24,19.59,19.90,262327
10-Apr-14,20.20,20.92,19.98,20.18,464125
9-Apr-14,20.03,20.25,19.87,20.24,197787
8-Apr-14,20.70,20.91,19.51,19.92,514259
7-Apr-14,21.29,21.42,20.54,20.78,392242
4-Apr-14,21.18,21.95,20.98,21.30,1102186
3-Apr-14,20.97,21.28,20.63,20.93,395440
2-Apr-14,20.13,21.13,20.04,20.90,708100
1-Apr-14,19.08,20.29,18.96,20.00,526583
31-Mar-14,19.00,19.24,18.79,19.05,462368
28-Mar-14,19.30,19.38,18.92,19.11,796343
27-Mar-14,18.82,19.65,18.53,19.39,1238901
26-Mar-14,18.94,19.20,18.76,18.95,401016
25-Mar-14,19.09,19.48,18.96,19.01,368649
24-Mar-14,18.28,19.34,18.06,19.04,568855
21-Mar-14,20.05,20.05,18.51,18.52,2928902
20-Mar-14,20.54,20.54,19.69,20.15,760271
19-Mar-14,20.69,20.90,20.35,20.55,519709
18-Mar-14,20.58,20.99,20.50,20.70,656170
17-Mar-14,20.52,20.86,20.36,20.55,594045
14-Mar-14,20.75,20.93,20.46,20.55,1001958
13-Mar-14,20.80,21.00,20.35,20.77,1002104
12-Mar-14,20.72,20.83,20.39,20.65,885282
11-Mar-14,21.66,21.88,20.62,20.90,920778
10-Mar-14,21.75,22.35,21.44,21.45,1037782
7-Mar-14,21.28,22.09,19.75,21.69,462788
6-Mar-14,21.61,22.32,21.28,21.64,647364
5-Mar-14,21.92,22.00,21.48,21.49,824408
4-Mar-14,21.37,22.25,21.17,21.82,557653
3-Mar-14,20.55,21.70,20.55,21.11,686286
28-Feb-14,19.77,21.68,19.76,20.48,364545
27-Feb-14,19.50,19.99,19.50,19.70,730664
26-Feb-14,20.00,20.18,19.01,19.50,858152
25-Feb-14,18.40,19.34,18.35,19.20,1239608
24-Feb-14,18.45,18.54,18.15,18.37,852903
21-Feb-14,18.41,18.41,18.18,18.28,1487791
20-Feb-14,18.15,18.41,18.06,18.19,2040098
19-Feb-14,17.65,18.39,17.50,18.10,1641732
18-Feb-14,17.00,17.99,17.00,17.48,1237426
14-Feb-14,16.35,17.24,16.00,16.90,714855
13-Feb-14,16.38,16.68,15.54,16.07,269552
12-Feb-14,16.40,16.45,16.26,16.35,1482554
11-Feb-14,16.40,16.67,16.20,16.42,468262
10-Feb-14,16.44,16.74,16.23,16.39,344725
7-Feb-14,15.40,16.40,15.02,16.24,1290432
6-Feb-14,14.50,15.78,14.49,15.33,1717673
5-Feb-14,14.00,14.52,13.99,14.43,859047
4-Feb-14,14.07,14.21,13.92,14.00,318372
3-Feb-14,14.00,14.10,13.83,13.83,580230
31-Jan-14,14.04,14.08,13.91,13.94,268229
30-Jan-14,14.05,14.22,13.99,14.00,1453454
29-Jan-14,14.20,14.25,13.92,14.00,2111678
28-Jan-14,14.30,14.52,14.00,14.15,1249463
27-Jan-14,14.75,14.80,13.75,14.27,783430
24-Jan-14,14.90,14.90,14.01,14.40,1266872
23-Jan-14,15.00,15.50,14.25,14.90,4263310
