﻿Date,Open,High,Low,Close,Volume
20-Jun-17,133.70,134.10,132.25,132.33,984223
19-Jun-17,132.10,134.53,131.51,134.14,1412426
16-Jun-17,132.08,132.76,130.69,131.59,1273571
15-Jun-17,131.43,132.68,128.84,132.04,2330041
14-Jun-17,134.90,135.44,132.31,133.88,1105222
13-Jun-17,134.00,135.67,132.69,134.75,1211723
12-Jun-17,132.30,133.56,128.48,133.00,2336287
9-Jun-17,138.87,139.80,133.30,134.04,2432546
8-Jun-17,140.00,140.00,137.43,139.22,1756814
7-Jun-17,138.99,141.30,138.66,140.03,1695612
6-Jun-17,139.47,141.29,138.58,139.14,1610907
5-Jun-17,137.49,140.99,136.91,140.52,3463620
2-Jun-17,137.27,139.70,136.33,138.11,4389001
1-Jun-17,133.13,139.97,133.00,138.99,15127449
31-May-17,117.60,119.50,115.76,118.59,4953529
30-May-17,118.23,119.57,115.01,117.00,2906612
26-May-17,117.25,118.59,116.25,118.08,1029494
25-May-17,118.44,119.37,117.35,117.64,1237655
24-May-17,118.51,118.51,116.74,117.97,2023989
23-May-17,117.40,118.97,116.51,118.12,1348579
22-May-17,117.41,117.77,115.90,117.11,1388351
19-May-17,118.00,118.04,114.66,116.50,2146366
18-May-17,113.59,114.53,112.30,113.71,1568530
17-May-17,117.32,118.43,114.34,114.47,1504406
16-May-17,120.00,120.65,118.20,118.67,1327818
15-May-17,121.31,122.08,119.20,119.61,3253449
12-May-17,114.93,116.50,114.16,116.46,977117
11-May-17,115.70,115.70,114.19,115.15,1153230
10-May-17,116.61,116.76,114.76,115.83,2566399
9-May-17,116.50,118.62,116.21,118.30,1483933
8-May-17,116.21,117.22,115.63,116.83,1041249
5-May-17,115.48,117.20,114.88,116.31,1559252
4-May-17,113.33,117.67,113.33,115.64,2371791
3-May-17,111.74,113.93,111.21,113.14,1910052
2-May-17,108.42,110.06,108.40,109.91,1974854
1-May-17,108.75,109.24,108.15,108.42,961806
28-Apr-17,109.82,109.82,107.37,108.41,2423234
27-Apr-17,110.12,110.99,109.68,109.95,1098129
26-Apr-17,110.40,110.98,109.04,109.27,1048739
25-Apr-17,110.19,111.16,110.09,110.40,1319943
24-Apr-17,109.36,110.12,108.56,109.82,1658812
21-Apr-17,109.43,109.59,107.88,108.55,1481866
20-Apr-17,109.25,110.03,108.41,108.84,1243223
19-Apr-17,109.09,110.27,108.52,109.16,1625260
18-Apr-17,109.67,110.19,108.52,109.09,1256291
17-Apr-17,110.50,111.82,108.75,109.87,2990937
13-Apr-17,113.70,114.10,112.20,112.21,1729609
12-Apr-17,113.00,114.20,112.51,113.38,1494158
11-Apr-17,111.61,113.62,111.00,113.47,1659218
10-Apr-17,112.06,112.74,111.44,112.41,1809253
7-Apr-17,111.58,113.22,111.09,112.20,2505721
6-Apr-17,108.50,111.06,108.50,110.88,1772225
5-Apr-17,110.00,110.45,107.31,108.01,2339629
4-Apr-17,110.84,111.79,109.66,109.82,1216303
3-Apr-17,112.83,113.73,110.22,111.02,2613159
31-Mar-17,113.17,114.15,112.42,112.68,2609767
30-Mar-17,114.31,115.21,113.37,113.50,1421041
29-Mar-17,113.15,114.71,112.90,113.43,1382909
28-Mar-17,111.91,113.42,111.71,112.87,1395446
27-Mar-17,110.49,112.35,110.04,111.80,1306069
24-Mar-17,112.35,113.08,111.20,111.77,1192899
23-Mar-17,111.97,113.00,111.72,111.89,1312329
22-Mar-17,111.20,112.62,110.29,111.72,1705027
21-Mar-17,114.87,115.90,110.77,111.10,2852295
20-Mar-17,115.50,116.08,113.90,114.87,2892356
17-Mar-17,117.48,117.60,115.78,115.81,1614016
16-Mar-17,117.40,117.78,116.04,116.98,1371234
15-Mar-17,116.82,117.49,115.56,116.95,1274809
14-Mar-17,117.15,117.95,116.00,116.64,1124959
13-Mar-17,119.10,119.75,116.80,117.68,2118507
10-Mar-17,115.16,119.40,114.91,118.88,4708049
9-Mar-17,114.97,115.83,114.07,115.05,1567709
8-Mar-17,114.79,116.00,114.20,114.55,2368568
7-Mar-17,114.77,116.63,114.17,114.25,2016613
6-Mar-17,115.93,116.65,113.70,114.65,2752763
3-Mar-17,117.11,117.93,115.20,115.55,3257788
2-Mar-17,116.22,117.78,115.00,116.49,6758679
1-Mar-17,119.96,120.99,115.01,115.21,21786421
28-Feb-17,153.37,154.25,151.04,151.90,4794913
27-Feb-17,153.00,155.10,152.30,153.95,1411379
24-Feb-17,151.50,153.01,148.13,153.01,1477316
23-Feb-17,155.23,155.37,150.29,152.74,1971400
22-Feb-17,155.89,156.59,154.62,155.37,710430
21-Feb-17,154.80,157.51,154.25,155.80,1423204
17-Feb-17,152.59,154.83,150.02,154.76,1505620
16-Feb-17,155.39,155.74,151.40,152.93,1766422
15-Feb-17,156.91,157.65,155.07,155.35,1731001
14-Feb-17,155.19,157.10,153.36,156.91,875511
13-Feb-17,155.41,156.98,155.01,156.23,862220
10-Feb-17,155.55,156.49,154.95,155.29,966121
9-Feb-17,152.90,155.77,152.53,155.49,1739447
8-Feb-17,151.30,151.89,150.00,151.89,1241215
7-Feb-17,150.00,151.67,149.92,150.15,1066583
6-Feb-17,149.72,150.08,148.74,149.64,857692
3-Feb-17,149.51,151.60,147.79,151.02,2041774
2-Feb-17,145.21,146.85,144.90,145.57,1103199
1-Feb-17,148.00,148.25,144.61,146.09,1148021
31-Jan-17,144.62,148.38,144.12,147.56,1992620
30-Jan-17,144.97,145.14,142.27,144.88,985241
27-Jan-17,145.00,145.63,143.18,145.18,863900
26-Jan-17,147.00,148.00,144.51,145.55,1009997
25-Jan-17,145.19,148.14,145.11,146.12,1630443
24-Jan-17,141.57,144.59,140.11,143.98,1552536
23-Jan-17,142.12,142.44,139.96,140.84,1354264
20-Jan-17,141.82,142.98,141.48,142.11,1091072
19-Jan-17,141.70,143.63,140.50,141.92,2366478
18-Jan-17,137.51,138.90,135.59,138.76,1612922
17-Jan-17,138.08,139.50,136.50,138.45,1593951
13-Jan-17,136.78,139.43,136.78,138.48,1512955
12-Jan-17,137.30,137.30,133.46,136.36,1470262
11-Jan-17,135.84,138.00,135.08,137.50,2242445
10-Jan-17,134.81,135.50,133.11,134.68,1137030
9-Jan-17,135.68,135.74,133.11,133.72,1502099
6-Jan-17,132.27,136.23,131.20,135.05,2894058
5-Jan-17,128.04,135.00,127.95,131.97,3285095
4-Jan-17,127.20,128.13,126.21,128.00,1603167
3-Jan-17,125.85,127.93,125.82,126.94,1137099
30-Dec-16,125.76,126.39,124.59,125.05,952964
29-Dec-16,125.00,126.91,124.52,125.13,869958
28-Dec-16,126.86,127.32,124.80,124.97,1080814
27-Dec-16,127.02,128.15,126.55,127.09,715722
23-Dec-16,125.00,127.51,125.00,127.40,953571
22-Dec-16,126.79,127.22,123.57,125.06,1375654
21-Dec-16,125.33,127.33,125.07,126.11,1644884
20-Dec-16,129.02,129.79,125.80,126.32,1360665
19-Dec-16,129.50,130.00,128.00,128.44,1297867
16-Dec-16,129.00,129.38,127.98,129.32,1548047
15-Dec-16,129.00,130.26,128.50,129.01,911498
14-Dec-16,129.20,129.55,127.30,128.21,1058670
13-Dec-16,128.89,129.87,127.91,129.24,1150470
12-Dec-16,129.96,130.52,127.00,127.79,1551582
9-Dec-16,131.65,131.98,128.89,130.07,1014714
8-Dec-16,129.72,131.96,129.08,130.64,1254533
7-Dec-16,128.91,129.96,126.55,129.37,1496098
6-Dec-16,130.27,130.30,127.88,129.35,1377172
5-Dec-16,127.50,130.77,127.37,128.95,2436320
2-Dec-16,128.48,129.34,126.07,126.66,2605802
1-Dec-16,134.40,134.79,129.48,129.62,2203074
30-Nov-16,134.17,135.35,132.12,134.37,1650997
29-Nov-16,135.95,137.19,133.11,133.58,2641876
28-Nov-16,141.37,142.00,135.44,136.26,3227303
25-Nov-16,140.00,141.53,139.26,141.51,1027239
23-Nov-16,140.26,140.86,138.11,139.69,2264775
22-Nov-16,143.58,144.25,138.10,139.73,11781026
21-Nov-16,162.64,162.64,158.32,161.06,4570514
18-Nov-16,164.57,164.57,160.30,161.35,1615921
17-Nov-16,159.72,165.69,159.40,164.15,1688109
16-Nov-16,158.16,162.00,158.07,160.43,1103699
15-Nov-16,157.64,161.57,157.56,159.45,1187424
14-Nov-16,156.35,159.00,155.50,156.45,982335
11-Nov-16,151.00,157.40,149.58,156.01,1338596
10-Nov-16,160.00,163.32,150.69,151.91,2354831
9-Nov-16,151.38,159.10,151.38,159.02,1827183
8-Nov-16,151.81,154.97,151.27,152.93,1098284
7-Nov-16,150.84,153.45,150.50,152.43,1404939
4-Nov-16,146.38,150.50,145.90,148.00,1572830
3-Nov-16,147.05,148.85,145.20,145.60,990566
2-Nov-16,151.51,151.99,146.38,146.82,1140021
1-Nov-16,153.75,153.84,150.24,151.81,1002116
31-Oct-16,152.47,155.60,152.11,153.83,1065133
28-Oct-16,149.77,152.87,149.16,151.59,597255
27-Oct-16,152.05,153.36,149.54,149.65,662162
26-Oct-16,149.70,152.50,149.01,151.45,782792
25-Oct-16,151.13,151.80,149.49,149.82,737883
24-Oct-16,150.79,153.46,150.76,151.53,926201
21-Oct-16,148.34,150.79,147.48,150.17,1053694
20-Oct-16,148.20,149.13,146.31,148.54,876644
19-Oct-16,148.89,149.96,147.74,148.16,636799
18-Oct-16,148.06,149.65,147.66,148.46,891147
17-Oct-16,151.20,151.72,145.88,146.00,1478348
14-Oct-16,152.53,153.99,150.43,150.49,863627
13-Oct-16,153.12,153.18,150.08,151.36,1744834
12-Oct-16,148.55,155.26,147.22,154.22,2950184
11-Oct-16,159.61,159.70,155.14,155.48,1635966
10-Oct-16,160.10,160.88,159.53,159.74,1040852
7-Oct-16,160.17,160.99,158.10,159.92,760401
6-Oct-16,160.91,160.91,158.37,159.60,1340293
5-Oct-16,159.59,163.02,159.43,161.35,1248377
4-Oct-16,159.00,160.93,158.14,160.02,1084467
3-Oct-16,159.07,159.74,156.56,159.08,1093558
30-Sep-16,156.19,160.00,156.19,159.33,1745821
29-Sep-16,154.16,157.43,153.65,156.08,1855629
28-Sep-16,152.29,154.81,151.99,154.56,1274022
27-Sep-16,150.00,151.96,149.56,151.90,890057
26-Sep-16,149.96,150.71,148.86,149.84,1072042
23-Sep-16,153.25,154.17,150.95,151.22,1090696
22-Sep-16,150.67,153.24,150.44,152.58,1243696
21-Sep-16,149.84,150.00,148.12,149.62,1313576
20-Sep-16,151.00,151.98,150.03,150.07,948547
19-Sep-16,150.00,151.99,149.44,150.74,1080026
16-Sep-16,147.15,149.84,146.99,149.10,1932559
15-Sep-16,148.72,150.87,148.22,148.49,1424826
14-Sep-16,146.67,150.47,146.39,148.33,2064425
13-Sep-16,147.05,148.84,144.97,147.06,1536921
12-Sep-16,143.89,147.49,142.53,147.15,1585683
9-Sep-16,146.07,148.46,144.34,144.41,1426669
8-Sep-16,147.00,148.40,146.51,146.98,1586890
7-Sep-16,145.00,148.77,145.00,147.33,1831267
6-Sep-16,145.16,147.71,144.38,144.97,1621662
2-Sep-16,140.89,146.06,139.62,145.18,2822830
1-Sep-16,133.27,141.34,133.27,140.66,4910932
31-Aug-16,134.92,135.75,130.15,133.17,8267038
30-Aug-16,141.64,144.25,141.00,143.45,3464214
29-Aug-16,141.22,142.44,139.47,141.49,1139469
26-Aug-16,140.12,141.36,138.60,140.68,1185551
25-Aug-16,140.85,142.40,139.66,140.39,1314608
24-Aug-16,142.02,143.25,140.01,140.37,1614198
23-Aug-16,139.70,143.32,138.80,142.11,2043464
22-Aug-16,137.62,138.38,135.86,137.54,977320
19-Aug-16,136.19,137.11,134.03,136.74,1013111
18-Aug-16,136.06,137.70,133.80,137.09,980228
17-Aug-16,137.31,139.10,133.63,136.10,1778595
16-Aug-16,131.26,137.30,131.26,135.60,2315775
15-Aug-16,127.17,131.18,126.52,131.00,1392679
12-Aug-16,125.46,128.09,125.09,127.18,1064831
11-Aug-16,125.48,126.57,125.00,125.47,953351
10-Aug-16,127.97,128.33,124.74,125.07,2080573
9-Aug-16,128.27,131.05,128.03,130.84,1196965
8-Aug-16,132.00,132.00,128.33,128.40,785341
5-Aug-16,130.33,131.91,128.63,131.78,1179984
4-Aug-16,130.00,132.11,129.86,131.44,1191905
3-Aug-16,128.42,129.92,127.76,129.61,673415
2-Aug-16,128.39,129.26,125.47,128.39,1254392
1-Aug-16,130.86,131.49,127.63,128.48,1055306
29-Jul-16,130.23,132.09,128.90,130.89,1643565
28-Jul-16,132.24,133.43,130.63,132.67,923551
27-Jul-16,133.74,134.70,130.69,131.07,964772
26-Jul-16,130.24,133.40,129.65,132.96,1755367
25-Jul-16,129.52,132.96,129.04,131.52,1275920
22-Jul-16,129.29,130.13,127.22,129.49,981870
21-Jul-16,129.20,130.20,125.75,126.60,1275832
20-Jul-16,126.62,130.68,126.19,129.51,1559638
19-Jul-16,125.03,127.11,124.06,125.46,1048278
18-Jul-16,123.99,124.97,123.41,124.03,861364
15-Jul-16,124.91,125.53,123.10,123.67,914169
14-Jul-16,128.56,129.61,124.00,124.63,1359433
13-Jul-16,126.97,128.45,126.83,127.34,899337
12-Jul-16,127.40,128.49,124.75,126.89,1574962
11-Jul-16,126.21,128.70,126.13,128.02,1690419
8-Jul-16,122.31,126.60,121.53,125.94,1526566
7-Jul-16,120.22,122.57,119.71,121.63,965205
6-Jul-16,118.01,120.96,117.02,119.97,966002
5-Jul-16,120.05,120.61,117.80,118.88,1248964
1-Jul-16,122.67,124.07,120.65,121.07,1102834
30-Jun-16,123.47,125.78,121.34,122.64,1495870
29-Jun-16,119.95,124.50,119.95,123.20,1925551
28-Jun-16,119.05,120.41,116.81,118.42,1319589
27-Jun-16,120.94,121.10,114.64,116.76,2943977
24-Jun-16,122.16,124.59,121.01,121.78,2846700
23-Jun-16,126.22,127.04,125.11,126.65,1422739
22-Jun-16,127.11,127.46,124.24,124.55,1215883
21-Jun-16,127.57,128.46,125.94,126.87,1736378
20-Jun-16,130.09,130.57,127.98,128.16,1218137
17-Jun-16,129.94,130.39,126.91,128.30,1959067
16-Jun-16,129.82,130.45,127.66,129.96,2030127
15-Jun-16,131.14,133.12,130.58,131.07,2000639
14-Jun-16,132.04,133.24,129.75,130.24,1235323
13-Jun-16,130.30,134.44,130.10,131.71,1171585
10-Jun-16,133.65,133.71,130.72,131.26,1308288
9-Jun-16,136.44,136.63,134.77,134.84,1533310
8-Jun-16,137.64,137.74,136.43,136.97,1250526
7-Jun-16,139.16,139.50,136.64,137.26,1845889
6-Jun-16,139.64,140.75,138.66,139.60,1369193
3-Jun-16,139.74,140.35,137.30,139.64,2127455
2-Jun-16,134.25,140.83,133.57,140.73,3177840
1-Jun-16,129.21,134.87,128.47,134.47,2680595
31-May-16,130.10,130.98,128.25,130.46,3901825
27-May-16,133.75,135.25,128.25,129.86,11719457
26-May-16,144.71,148.30,144.45,148.18,2557187
25-May-16,146.37,147.42,143.39,145.69,1525831
24-May-16,144.58,146.48,143.65,146.11,1137308
23-May-16,142.26,145.39,141.50,143.97,1252016
20-May-16,140.41,142.48,138.54,141.76,1326764
19-May-16,139.53,142.20,137.59,139.21,2113939
18-May-16,133.83,137.34,133.04,136.75,1185880
17-May-16,134.77,135.91,133.53,134.07,1228271
16-May-16,131.45,135.88,131.24,134.74,1443989
13-May-16,129.16,131.81,128.51,130.97,1580814
12-May-16,137.95,137.95,129.08,129.53,4839329
11-May-16,140.64,143.07,139.45,139.49,1101538
10-May-16,139.72,142.00,137.76,140.44,1295511
9-May-16,137.38,140.17,136.57,139.25,1378853
6-May-16,138.16,139.44,131.49,136.14,3090444
5-May-16,142.47,143.46,140.29,140.69,1268945
4-May-16,145.56,146.23,140.95,142.07,1791039
3-May-16,150.22,150.48,146.62,147.01,998775
2-May-16,151.65,151.99,149.16,151.88,810419
29-Apr-16,151.34,152.37,146.92,150.87,1112244
28-Apr-16,155.00,157.28,151.10,151.44,1538489
27-Apr-16,151.95,156.01,150.99,156.01,1860832
26-Apr-16,151.59,153.27,149.62,150.80,1504285
25-Apr-16,147.57,151.44,147.40,150.51,1582056
22-Apr-16,145.59,149.83,145.50,148.52,1754383
21-Apr-16,142.24,146.99,141.73,146.45,2130028
20-Apr-16,137.78,141.34,135.83,140.31,1577059
19-Apr-16,141.65,141.97,138.55,140.28,1272937
18-Apr-16,140.42,143.61,140.42,141.54,904249
15-Apr-16,140.02,141.51,139.65,140.66,863574
14-Apr-16,142.00,142.49,138.63,140.71,1311317
13-Apr-16,140.44,142.15,139.74,142.08,1248346
12-Apr-16,140.00,140.78,134.76,139.04,2553340
11-Apr-16,148.15,149.09,139.68,140.44,2317706
8-Apr-16,151.70,151.70,144.88,147.85,2879981
7-Apr-16,152.85,155.00,149.05,149.60,3309649
6-Apr-16,153.29,158.38,153.02,158.22,1543915
5-Apr-16,157.00,157.00,151.03,151.92,3362241
4-Apr-16,161.29,163.75,160.26,161.59,1343633
1-Apr-16,161.17,162.05,159.01,161.12,1474293
31-Mar-16,161.08,165.29,160.52,163.14,1421504
30-Mar-16,161.23,164.21,161.20,161.99,1401071
29-Mar-16,156.51,160.30,155.57,159.30,1222297
28-Mar-16,156.70,157.48,153.20,156.19,806830
24-Mar-16,154.75,156.32,153.00,155.73,1164505
23-Mar-16,158.41,159.60,154.96,154.99,1016118
22-Mar-16,153.95,159.59,153.95,158.43,1277540
21-Mar-16,155.88,156.68,153.00,154.90,1129557
18-Mar-16,155.01,158.08,154.63,155.73,1416263
17-Mar-16,153.68,155.99,151.08,153.69,1682834
16-Mar-16,152.45,155.63,151.10,154.71,1252343
15-Mar-16,154.72,156.12,152.09,153.33,1006880
14-Mar-16,156.55,157.00,153.57,154.97,1481351
11-Mar-16,154.00,158.78,153.50,157.82,1646925
10-Mar-16,154.14,154.94,148.21,150.75,1647791
9-Mar-16,153.15,154.32,151.70,153.15,977147
8-Mar-16,152.67,153.80,151.33,152.63,1130504
7-Mar-16,150.58,154.83,149.54,154.44,1936881
4-Mar-16,152.35,154.32,150.45,150.97,1844656
3-Mar-16,148.83,152.37,147.13,152.02,2401194
2-Mar-16,147.78,149.86,145.52,148.12,1981029
1-Mar-16,146.74,148.83,143.74,148.64,2305854
29-Feb-16,147.00,147.94,143.36,144.79,3184462
26-Feb-16,149.85,153.93,141.42,147.59,8594434
25-Feb-16,131.75,143.38,123.14,140.29,5669633
24-Feb-16,125.95,128.83,122.70,127.94,2514813
23-Feb-16,130.11,131.44,126.49,127.51,2062911
22-Feb-16,129.35,135.75,127.27,130.14,2545331
19-Feb-16,123.13,127.70,121.70,127.16,2220327
18-Feb-16,129.40,129.90,118.88,123.06,4468097
17-Feb-16,129.39,133.73,127.50,132.67,3279408
16-Feb-16,127.37,129.90,124.80,127.74,2278735
12-Feb-16,122.92,124.49,117.30,123.74,3411019
11-Feb-16,118.83,125.93,117.61,124.37,2518641
10-Feb-16,122.40,126.14,119.09,120.42,2888190
9-Feb-16,113.22,125.25,113.00,118.06,3721473
8-Feb-16,124.00,124.00,111.09,115.69,5093502
5-Feb-16,137.74,139.89,123.75,127.51,7566427
4-Feb-16,142.04,146.63,138.00,145.29,2406402
3-Feb-16,146.29,147.29,141.19,144.75,1733837
2-Feb-16,149.54,149.66,143.75,146.03,1480694
1-Feb-16,147.88,151.17,146.37,150.55,1464429
29-Jan-16,142.63,153.87,142.63,149.49,2889815
28-Jan-16,146.52,147.70,136.83,139.78,2990629
27-Jan-16,147.38,148.99,145.50,146.35,1852692
26-Jan-16,146.66,151.21,145.04,148.27,2424594
25-Jan-16,148.45,149.87,146.09,146.57,1474823
22-Jan-16,146.20,149.66,146.17,148.50,1401734
21-Jan-16,148.79,151.24,143.05,144.60,1892863
20-Jan-16,145.82,148.31,135.89,146.90,3649858
19-Jan-16,156.25,157.32,145.74,149.24,1863702
15-Jan-16,153.19,156.86,152.10,154.82,2041076
14-Jan-16,153.85,162.74,150.06,159.12,2620610
13-Jan-16,163.08,163.23,153.04,154.00,1659018
12-Jan-16,163.43,165.86,157.73,161.39,1353726
11-Jan-16,163.02,164.23,159.65,162.02,1292012
8-Jan-16,165.65,167.31,162.60,162.74,1443854
7-Jan-16,163.05,169.26,162.00,164.08,1903716
6-Jan-16,167.71,170.38,165.96,167.31,1529118
5-Jan-16,172.54,173.73,170.07,170.56,1065744
4-Jan-16,172.95,173.76,169.20,171.52,1971819
31-Dec-15,176.40,177.60,175.53,176.14,977201
30-Dec-15,177.77,180.10,176.00,176.79,973727
29-Dec-15,177.76,178.79,175.64,177.77,1105426
28-Dec-15,178.08,179.61,173.66,176.64,1382007
24-Dec-15,181.26,181.76,178.27,178.73,522774
23-Dec-15,181.47,183.00,179.00,181.30,917110
22-Dec-15,182.32,182.68,178.89,181.65,906907
21-Dec-15,183.79,184.41,178.26,182.11,1549688
18-Dec-15,186.41,188.07,182.54,182.89,1915755
17-Dec-15,188.99,189.85,184.75,186.57,1073377
16-Dec-15,187.22,187.80,182.44,187.28,1122570
15-Dec-15,186.00,188.61,184.04,185.75,1325284
14-Dec-15,183.32,184.14,176.39,183.69,2129987
11-Dec-15,188.39,188.39,183.92,185.03,1272316
10-Dec-15,190.46,192.27,188.77,189.99,1298158
9-Dec-15,193.36,193.36,188.19,190.08,1108982
8-Dec-15,189.06,194.63,188.59,193.54,933595
7-Dec-15,191.18,192.44,188.35,192.05,922435
4-Dec-15,187.55,192.80,186.42,191.67,1108429
3-Dec-15,193.11,194.73,187.09,187.62,1957515
2-Dec-15,188.87,193.69,188.37,190.79,1486419
1-Dec-15,187.50,190.00,184.59,188.94,1471496
30-Nov-15,186.00,188.30,185.05,187.34,1795442
27-Nov-15,183.01,186.10,182.26,185.91,900498
25-Nov-15,183.43,183.89,181.14,182.21,1634926
24-Nov-15,179.50,185.10,178.47,182.85,6406721
23-Nov-15,170.62,172.70,167.00,172.02,3400088
20-Nov-15,167.45,171.46,166.19,170.97,1595104
19-Nov-15,164.00,168.49,163.28,167.39,1602523
18-Nov-15,163.96,164.71,160.76,163.67,1303294
17-Nov-15,160.00,163.98,159.59,163.17,1461976
16-Nov-15,156.11,159.29,156.01,158.75,1058627
13-Nov-15,156.27,157.90,155.90,156.64,1263938
12-Nov-15,154.83,156.83,153.01,156.70,1477792
11-Nov-15,156.80,158.29,152.88,155.78,1500658
10-Nov-15,160.44,161.16,156.87,157.29,1501912
9-Nov-15,161.56,162.64,160.29,161.21,1290322
6-Nov-15,160.84,162.08,159.10,161.82,1243868
5-Nov-15,161.29,163.28,155.79,159.93,2716357
4-Nov-15,167.16,169.00,165.12,166.41,942195
3-Nov-15,163.77,168.31,163.23,167.28,1268171
2-Nov-15,161.80,165.57,159.71,164.13,1497076
30-Oct-15,160.50,163.37,158.76,161.00,1105485
29-Oct-15,162.38,163.05,157.06,157.90,1242496
28-Oct-15,159.13,164.78,156.20,163.85,2176073
27-Oct-15,152.36,158.99,150.21,158.60,2705864
26-Oct-15,158.19,159.14,153.51,154.11,2360099
23-Oct-15,161.10,163.60,155.10,159.20,3677038
22-Oct-15,162.00,166.50,161.53,166.14,1559295
21-Oct-15,167.26,167.53,157.42,159.81,2310948
20-Oct-15,168.16,169.10,164.52,166.06,1188644
19-Oct-15,171.25,173.98,166.20,167.96,1445217
16-Oct-15,170.32,172.09,169.05,171.78,1020353
15-Oct-15,165.04,171.31,165.00,170.66,1384469
14-Oct-15,167.60,167.60,162.44,164.32,1206331
13-Oct-15,166.70,171.00,165.50,167.13,1278384
12-Oct-15,170.23,171.00,166.35,167.81,1556588
9-Oct-15,169.00,172.60,167.25,171.88,1057051
8-Oct-15,174.75,174.75,167.64,169.59,1393052
7-Oct-15,175.58,177.79,171.23,174.98,1282841
6-Oct-15,177.50,178.74,171.02,174.12,1026962
5-Oct-15,177.20,178.76,174.01,177.24,1275228
2-Oct-15,169.20,175.70,168.11,175.21,1767869
1-Oct-15,170.53,173.67,167.62,171.66,1250500
30-Sep-15,170.00,172.99,165.94,172.00,1663920
29-Sep-15,175.52,176.00,166.11,167.81,2094268
28-Sep-15,179.60,181.60,173.79,175.70,2023480
25-Sep-15,183.24,184.88,179.75,180.81,1315525
24-Sep-15,178.39,181.10,176.79,180.77,1085665
23-Sep-15,180.03,180.65,177.12,179.30,1339395
22-Sep-15,182.07,184.43,177.78,180.09,2174318
21-Sep-15,185.12,189.72,181.82,185.40,1590122
18-Sep-15,181.90,186.16,181.38,184.98,1846492
17-Sep-15,183.17,186.63,181.31,184.28,1111960
16-Sep-15,183.40,183.69,180.66,182.55,1061894
15-Sep-15,179.99,183.98,179.67,183.19,1630703
14-Sep-15,176.50,179.74,175.05,179.54,1473618
11-Sep-15,177.68,179.46,174.42,177.39,1931335
10-Sep-15,174.78,179.68,170.00,177.40,4861395
9-Sep-15,168.87,169.50,165.05,165.17,2865096
8-Sep-15,165.64,166.74,162.23,166.47,1214318
4-Sep-15,160.04,164.81,158.60,162.39,1525859
3-Sep-15,165.57,165.77,161.37,162.04,1823478
2-Sep-15,165.05,165.05,158.61,163.59,1126009
1-Sep-15,160.29,166.52,160.23,161.85,1408945
31-Aug-15,167.44,169.47,163.11,164.22,1352432
28-Aug-15,167.20,169.73,165.86,168.00,971713
27-Aug-15,170.00,171.07,164.65,167.78,1867011
26-Aug-15,162.68,169.00,160.95,167.95,2023592
25-Aug-15,160.81,164.74,158.12,158.40,1871578
24-Aug-15,146.13,159.24,140.39,155.01,3423151
21-Aug-15,153.95,164.32,151.07,158.99,3466376
20-Aug-15,170.38,172.32,159.50,160.62,2683453
19-Aug-15,172.87,175.94,171.41,174.12,867544
18-Aug-15,175.77,177.48,173.15,173.65,502312
17-Aug-15,172.86,176.40,171.17,175.77,598869
14-Aug-15,171.76,174.06,170.87,173.54,706405
13-Aug-15,171.36,175.25,171.36,172.76,985393
12-Aug-15,170.50,174.30,162.64,171.00,2728574
11-Aug-15,174.98,177.46,171.51,173.93,1368891
10-Aug-15,177.45,180.36,174.21,176.96,1234568
7-Aug-15,175.81,176.30,168.12,175.52,2454223
6-Aug-15,190.68,191.00,173.85,174.49,3071005
5-Aug-15,186.38,190.80,186.38,190.27,1097246
4-Aug-15,184.64,187.72,183.36,185.50,1283056
3-Aug-15,186.35,187.91,183.08,184.91,798318
31-Jul-15,185.00,187.96,183.68,185.83,1107815
30-Jul-15,183.65,186.54,181.00,185.19,1321638
29-Jul-15,186.32,186.94,181.71,183.65,1650707
28-Jul-15,188.83,188.83,183.75,186.83,1242397
27-Jul-15,194.31,194.80,184.52,186.29,2296902
24-Jul-15,198.90,200.55,195.39,196.88,1154390
23-Jul-15,194.90,200.10,194.80,197.09,1432077
22-Jul-15,190.65,193.78,189.83,192.40,1018166
21-Jul-15,190.03,192.47,189.11,192.07,1112417
20-Jul-15,190.50,191.55,188.32,190.03,1157381
17-Jul-15,191.50,192.70,190.11,191.25,1113586
16-Jul-15,186.69,191.75,185.50,190.06,1410013
15-Jul-15,185.00,185.93,183.32,185.14,1161064
14-Jul-15,181.90,186.36,181.72,184.25,1355073
13-Jul-15,182.90,183.94,179.20,181.13,1528193
10-Jul-15,176.61,181.15,174.15,180.80,1708214
9-Jul-15,175.00,176.21,173.79,174.81,1143440
8-Jul-15,169.82,174.58,169.54,172.48,1568289
7-Jul-15,175.00,175.00,167.82,171.51,2148464
6-Jul-15,173.63,177.16,172.38,175.32,1390112
2-Jul-15,176.80,177.11,172.15,173.90,1123609
1-Jul-15,176.59,178.28,175.80,176.14,1120372
30-Jun-15,173.39,176.24,173.39,174.70,1337935
29-Jun-15,169.63,174.69,168.32,171.85,1801995
26-Jun-15,179.78,179.84,174.00,175.26,2905856
25-Jun-15,179.87,180.72,178.14,178.82,1526007
24-Jun-15,180.26,181.56,178.76,179.14,1391924
23-Jun-15,183.90,184.56,180.38,181.93,1384285
22-Jun-15,184.93,185.00,181.55,184.04,1317490
19-Jun-15,182.88,184.80,181.40,184.08,1767791
18-Jun-15,181.58,183.96,181.50,182.88,1194560
17-Jun-15,177.48,181.74,177.01,180.64,1459801
16-Jun-15,176.75,178.80,175.82,176.70,997959
15-Jun-15,174.70,177.40,173.30,176.84,962763
12-Jun-15,173.14,176.47,173.09,175.85,795857
11-Jun-15,175.19,176.82,172.80,174.63,1020762
10-Jun-15,172.00,175.14,170.82,174.67,1262804
9-Jun-15,172.63,173.33,167.67,171.98,1287708
8-Jun-15,174.59,176.50,171.65,172.82,1482970
5-Jun-15,170.69,173.98,168.55,173.59,2426819
4-Jun-15,168.77,169.84,168.07,168.75,1247557
3-Jun-15,169.63,170.54,167.40,169.19,1496167
2-Jun-15,170.70,171.49,168.16,168.50,1551984
1-Jun-15,169.93,172.00,169.18,170.50,1914382
29-May-15,165.99,169.84,165.31,169.49,2101258
28-May-15,164.84,169.84,162.30,166.37,4033191
27-May-15,164.00,164.00,160.36,160.65,4095160
26-May-15,164.86,165.09,162.00,163.84,1931909
22-May-15,160.15,163.21,159.50,162.87,1316733
21-May-15,158.43,160.58,157.70,160.14,1055380
20-May-15,157.63,160.00,156.50,158.52,942143
19-May-15,158.50,159.98,158.11,158.33,1036375
18-May-15,154.24,158.15,153.50,157.73,856008
15-May-15,154.19,154.75,152.11,154.72,731573
14-May-15,153.16,154.00,151.70,153.71,1025146
13-May-15,152.77,152.77,150.83,151.48,887418
12-May-15,150.98,152.41,149.31,151.67,832025
11-May-15,151.24,153.00,151.12,151.82,515843
8-May-15,152.08,152.99,150.23,151.10,817254
7-May-15,146.19,150.42,146.09,149.41,1024061
6-May-15,146.80,147.51,144.42,145.80,1215851
5-May-15,151.65,151.67,146.10,147.03,1562266
4-May-15,151.84,154.30,151.30,152.77,776309
1-May-15,150.07,151.50,148.17,150.82,1198606
30-Apr-15,151.50,153.18,147.12,147.72,1115251
29-Apr-15,153.00,153.88,150.87,152.02,830756
28-Apr-15,155.00,155.34,150.76,153.28,904576
27-Apr-15,155.27,158.24,153.32,153.83,1223722
24-Apr-15,156.24,156.24,152.87,153.84,612593
23-Apr-15,152.87,156.39,151.57,154.78,1113226
22-Apr-15,154.70,154.90,152.00,153.87,1067309
21-Apr-15,148.08,154.45,147.54,154.37,3309187
20-Apr-15,143.80,146.62,143.45,146.51,903028
17-Apr-15,145.22,145.67,142.00,142.50,1271393
16-Apr-15,144.58,147.62,144.22,146.79,743196
15-Apr-15,145.00,145.55,143.83,144.71,724542
14-Apr-15,145.24,145.70,143.33,144.54,553713
13-Apr-15,147.27,147.89,144.85,145.15,930125
10-Apr-15,145.68,148.18,145.00,147.97,904224
9-Apr-15,147.19,147.50,144.31,146.05,829740
8-Apr-15,145.30,148.14,145.02,147.27,1316754
7-Apr-15,141.94,146.79,141.94,144.83,1633153
6-Apr-15,141.02,142.84,140.62,141.64,736925
2-Apr-15,142.11,142.89,140.29,141.81,1013903
1-Apr-15,146.44,146.44,139.54,141.53,2468058
31-Mar-15,148.39,148.39,145.19,146.08,1707031
30-Mar-15,147.69,150.44,147.32,148.61,1751812
27-Mar-15,141.79,147.13,141.71,146.44,1934087
26-Mar-15,136.52,141.70,134.33,141.45,1303194
25-Mar-15,140.27,141.16,136.94,138.62,1566267
24-Mar-15,141.45,143.40,139.96,140.28,1019271
23-Mar-15,144.11,144.24,141.15,141.32,1257940
20-Mar-15,146.41,146.89,143.81,144.08,2460531
19-Mar-15,145.07,146.78,144.87,146.19,961246
18-Mar-15,144.00,146.06,142.80,145.16,1222993
17-Mar-15,142.96,145.65,142.26,144.92,1070294
16-Mar-15,141.76,144.16,141.38,144.13,1170629
13-Mar-15,140.86,142.97,139.68,141.34,958853
12-Mar-15,141.47,141.95,139.52,141.34,1049340
11-Mar-15,138.55,141.23,137.81,140.56,1395896
10-Mar-15,136.94,138.66,135.15,138.55,1573835
9-Mar-15,140.57,140.95,134.07,138.73,2655035
6-Mar-15,143.18,144.00,140.22,140.73,1378617
5-Mar-15,143.96,144.73,142.38,143.14,1771602
4-Mar-15,148.57,148.57,142.43,143.51,2913176
3-Mar-15,142.17,149.35,139.99,148.90,5195500
2-Mar-15,144.00,146.40,142.27,145.98,3189142
27-Feb-15,144.50,144.53,141.59,142.22,1657495
26-Feb-15,142.84,146.28,142.73,143.05,1706517
25-Feb-15,139.00,142.35,138.92,142.06,1179101
24-Feb-15,138.52,140.21,137.94,138.61,936499
23-Feb-15,142.54,143.50,136.64,138.20,1687884
20-Feb-15,138.07,142.49,137.76,141.61,1116626
19-Feb-15,137.89,139.18,136.82,137.91,801947
18-Feb-15,136.93,137.25,134.90,136.88,728892
17-Feb-15,136.59,138.32,134.86,136.89,1295534
13-Feb-15,135.15,135.97,132.63,135.27,1238686
12-Feb-15,134.52,134.96,132.23,133.01,1166596
11-Feb-15,129.41,132.18,129.15,131.72,1220952
10-Feb-15,126.36,128.94,125.80,128.43,651412
9-Feb-15,125.59,126.10,123.58,125.03,647256
6-Feb-15,127.61,128.15,124.71,125.62,707956
5-Feb-15,126.85,127.40,125.81,127.11,799784
4-Feb-15,122.15,126.22,122.15,125.68,906320
3-Feb-15,125.60,125.60,121.31,123.53,1390449
2-Feb-15,126.16,126.72,122.64,125.11,1441867
30-Jan-15,128.53,129.57,125.67,126.39,1175831
29-Jan-15,125.69,130.00,125.03,129.29,1211557
28-Jan-15,127.17,128.82,124.60,125.45,866073
27-Jan-15,124.50,127.55,123.75,126.00,638612
26-Jan-15,126.62,127.33,124.56,126.93,1135139
23-Jan-15,122.28,128.18,121.77,126.81,1187108
22-Jan-15,125.50,125.63,121.11,123.68,1041447
21-Jan-15,124.67,126.19,123.06,125.35,758368
20-Jan-15,125.01,125.97,122.26,124.46,776830
16-Jan-15,121.67,125.18,121.58,125.01,845955
15-Jan-15,127.06,127.19,121.30,122.08,1162584
14-Jan-15,123.79,126.48,123.20,126.30,817133
13-Jan-15,127.40,128.59,123.18,124.75,1138421
12-Jan-15,125.99,128.03,124.00,127.28,875723
9-Jan-15,127.19,129.42,125.78,125.82,927510
8-Jan-15,126.56,127.62,125.80,127.21,714809
7-Jan-15,124.36,126.97,123.63,125.53,1263830
6-Jan-15,124.00,125.19,118.09,121.85,1351297
5-Jan-15,120.73,124.19,120.18,123.73,1351009
2-Jan-15,122.60,122.96,117.60,121.42,1650443
31-Dec-14,121.92,124.53,121.92,122.57,717807
30-Dec-14,122.09,122.96,121.17,121.80,606682
29-Dec-14,127.14,127.18,120.78,122.89,1655873
26-Dec-14,126.00,128.20,126.00,127.43,728693
24-Dec-14,125.22,127.56,124.98,125.99,358688
23-Dec-14,126.00,126.90,124.05,125.22,847212
22-Dec-14,125.22,128.00,124.92,125.72,1592145
19-Dec-14,123.66,125.65,122.98,124.36,2829298
18-Dec-14,122.62,124.95,122.11,123.44,1857872
17-Dec-14,117.26,120.27,116.70,120.03,995677
16-Dec-14,117.34,118.00,114.96,116.64,1191335
15-Dec-14,118.88,121.41,117.53,118.08,1360143
12-Dec-14,117.80,119.75,117.16,118.07,797922
11-Dec-14,118.32,120.41,117.46,118.91,1126746
10-Dec-14,118.84,119.50,116.47,117.14,1155183
9-Dec-14,114.96,119.45,112.22,118.84,1364824
8-Dec-14,118.88,120.84,115.74,116.86,1216108
5-Dec-14,118.61,119.27,117.69,118.88,1012376
4-Dec-14,118.59,120.38,117.94,118.29,910307
3-Dec-14,118.13,119.50,117.35,118.58,1169482
2-Dec-14,119.98,120.61,117.37,117.70,1767402
1-Dec-14,123.00,123.07,118.76,119.71,2381804
28-Nov-14,120.67,123.22,120.23,123.00,967109
26-Nov-14,119.34,120.70,118.01,120.60,2072694
25-Nov-14,114.84,120.25,114.28,120.19,7551906
24-Nov-14,111.75,113.38,110.53,113.26,3326173
21-Nov-14,110.77,111.39,108.10,108.93,1493482
20-Nov-14,107.38,109.27,106.83,109.04,1551101
19-Nov-14,109.00,109.53,106.50,107.33,1061502
18-Nov-14,109.44,110.74,108.64,109.00,846351
17-Nov-14,110.85,112.11,108.83,109.35,1216924
14-Nov-14,109.77,110.91,108.00,110.78,1125001
13-Nov-14,109.36,111.45,109.14,109.60,1324820
12-Nov-14,107.90,109.39,107.80,108.89,735513
11-Nov-14,109.78,109.84,107.60,108.30,1016342
10-Nov-14,106.97,110.16,105.90,109.02,1739108
7-Nov-14,106.11,107.35,105.66,107.02,1019284
6-Nov-14,104.00,106.11,103.70,106.11,1115752
5-Nov-14,106.17,107.25,102.02,102.52,1700389
4-Nov-14,105.82,106.98,104.31,106.71,1002236
3-Nov-14,105.72,106.78,104.59,105.96,1322892
31-Oct-14,106.31,107.40,105.17,105.70,1181842
30-Oct-14,104.07,105.39,102.82,104.93,1170088
29-Oct-14,105.16,105.32,100.40,103.56,2034306
28-Oct-14,104.50,107.00,103.98,105.41,1801892
27-Oct-14,101.00,103.90,100.10,103.67,3165241
24-Oct-14,106.67,108.50,106.29,108.06,1266837
23-Oct-14,104.50,108.21,103.90,107.45,2414182
22-Oct-14,104.60,105.61,102.14,102.58,1807318
21-Oct-14,102.57,104.88,101.32,104.68,2170838
20-Oct-14,99.41,102.00,99.08,100.88,2095363
17-Oct-14,99.63,102.49,98.62,99.33,1903916
16-Oct-14,95.07,100.16,95.00,97.88,2332993
15-Oct-14,91.22,98.65,91.00,97.43,2930599
14-Oct-14,90.72,94.50,88.51,94.25,2607316
13-Oct-14,94.65,95.08,87.83,89.41,3838447
10-Oct-14,102.25,102.99,93.99,94.36,4276924
9-Oct-14,102.17,103.93,100.77,102.73,2293418
8-Oct-14,100.57,102.52,97.11,102.24,2255595
7-Oct-14,101.12,103.75,99.50,99.79,1921109
6-Oct-14,104.67,104.67,100.42,102.25,2425838
3-Oct-14,102.02,106.79,101.22,104.70,4988322
2-Oct-14,95.39,99.90,95.07,98.18,2542747
1-Oct-14,97.79,97.79,93.00,95.39,2513565
30-Sep-14,99.25,100.93,96.65,98.10,1648526
29-Sep-14,96.60,99.67,96.34,99.28,1468831
26-Sep-14,96.66,98.15,96.37,97.95,1053176
25-Sep-14,98.66,99.35,95.82,96.30,1206718
24-Sep-14,98.58,99.75,97.91,99.14,1094766
23-Sep-14,97.05,98.49,96.08,97.43,1417525
22-Sep-14,99.51,101.21,96.67,97.93,2319286
19-Sep-14,99.43,99.46,97.80,99.28,2104824
18-Sep-14,99.46,99.57,97.82,98.95,1127745
17-Sep-14,98.20,100.75,98.20,98.61,1795829
16-Sep-14,97.00,98.79,95.10,98.33,2579712
15-Sep-14,99.73,99.77,96.71,97.47,2603697
12-Sep-14,100.85,100.85,98.76,99.98,2587981
11-Sep-14,98.22,102.45,97.30,100.49,5295304
10-Sep-14,93.25,99.90,92.52,98.75,8592767
9-Sep-14,90.50,91.28,88.69,89.28,2452850
8-Sep-14,89.98,91.84,89.02,89.98,2449649
5-Sep-14,87.23,89.16,87.11,89.04,1083192
4-Sep-14,89.77,90.28,86.85,87.26,1719748
3-Sep-14,91.91,92.70,88.18,89.37,2185427
2-Sep-14,85.40,90.00,85.36,89.74,4513379
29-Aug-14,83.09,85.63,82.71,84.99,1326345
28-Aug-14,82.00,83.22,79.71,82.26,1750458
27-Aug-14,85.53,85.53,82.33,82.41,1581110
26-Aug-14,84.98,85.93,84.29,85.59,876368
25-Aug-14,85.78,85.97,84.12,84.57,522305
22-Aug-14,84.70,85.98,83.25,85.01,1083663
21-Aug-14,84.91,85.45,84.17,84.94,588387
20-Aug-14,84.72,85.39,84.22,84.97,548677
19-Aug-14,87.68,87.70,84.64,85.39,1032574
18-Aug-14,85.49,86.45,84.32,85.58,1137719
15-Aug-14,87.22,87.50,83.10,84.63,1595340
14-Aug-14,86.36,87.79,84.80,85.49,1942225
13-Aug-14,82.65,86.51,82.15,84.79,2705809
12-Aug-14,81.82,82.10,80.54,81.26,621285
11-Aug-14,81.19,83.28,80.94,81.92,779125
8-Aug-14,79.95,80.86,78.65,80.19,672156
7-Aug-14,80.04,81.60,79.50,79.96,665717
6-Aug-14,78.78,80.10,78.62,79.33,493071
5-Aug-14,79.76,80.97,78.66,79.76,746354
4-Aug-14,79.25,80.50,78.77,80.24,910257
1-Aug-14,80.37,80.39,76.86,78.67,1411946
31-Jul-14,83.13,83.40,80.10,80.86,911346
30-Jul-14,82.68,84.23,82.36,84.21,907159
29-Jul-14,82.68,82.76,82.00,82.10,657753
28-Jul-14,83.16,83.48,80.64,82.11,939239
25-Jul-14,83.99,84.04,82.12,83.04,1750432
24-Jul-14,81.61,84.32,81.46,84.13,2068045
23-Jul-14,81.60,82.15,80.91,81.49,820054
22-Jul-14,80.18,82.50,79.96,81.75,1425243
21-Jul-14,78.70,80.10,78.08,80.03,929963
18-Jul-14,77.31,79.63,77.31,79.21,1351335
17-Jul-14,77.40,78.92,76.51,77.26,1557390
16-Jul-14,78.04,79.63,76.90,77.59,1520458
15-Jul-14,76.49,77.06,75.03,75.98,796098
14-Jul-14,77.46,77.58,75.40,76.22,1017028
11-Jul-14,76.38,78.18,75.57,76.92,1364939
10-Jul-14,74.14,76.86,73.12,76.71,1596210
9-Jul-14,75.60,76.74,74.77,76.16,1285359
8-Jul-14,79.51,79.56,73.71,75.36,3598489
7-Jul-14,81.96,82.00,79.15,79.57,1353203
3-Jul-14,82.04,82.40,80.45,82.22,772856
2-Jul-14,83.37,83.37,81.64,81.87,1447587
1-Jul-14,84.23,85.60,81.67,82.26,3570815
30-Jun-14,83.15,85.78,82.82,83.85,3076332
27-Jun-14,80.83,81.86,80.19,81.21,1863197
26-Jun-14,80.94,82.19,79.45,80.88,2185157
25-Jun-14,78.71,80.00,77.93,79.75,2431433
24-Jun-14,79.74,80.39,78.25,78.77,1976201
23-Jun-14,80.04,81.78,79.63,80.17,1232663
20-Jun-14,80.08,80.79,78.81,80.24,1334628
19-Jun-14,80.91,81.79,79.52,80.20,1012082
18-Jun-14,81.11,81.36,79.43,80.50,1267204
17-Jun-14,80.84,82.27,80.06,80.66,1577041
16-Jun-14,78.56,81.24,77.85,80.63,1783388
13-Jun-14,78.24,79.50,76.27,78.80,1099179
12-Jun-14,77.77,82.00,77.61,78.51,3246631
11-Jun-14,77.28,78.66,77.00,78.20,978396
10-Jun-14,77.23,78.50,76.61,78.14,886054
9-Jun-14,77.98,78.64,76.71,77.40,1239148
6-Jun-14,77.80,78.78,76.72,77.98,1625996
5-Jun-14,76.11,78.65,74.12,77.00,2916685
4-Jun-14,73.90,76.49,73.50,75.34,1847377
3-Jun-14,73.29,74.93,72.61,74.26,1540621
2-Jun-14,75.12,75.19,72.00,73.69,2037592
30-May-14,73.40,76.85,73.00,74.91,3462035
29-May-14,77.54,78.00,72.86,73.17,8888447
28-May-14,69.83,70.56,68.03,69.51,2568918
27-May-14,68.45,70.07,66.77,69.61,2102865
23-May-14,66.66,67.25,64.00,66.99,1052983
22-May-14,63.46,66.93,63.36,66.64,1585383
21-May-14,62.99,64.21,62.38,63.52,914905
20-May-14,63.00,64.56,61.38,63.02,1245157
19-May-14,60.82,62.85,60.54,62.68,934798
16-May-14,59.97,61.48,58.64,61.32,987150
15-May-14,60.43,60.58,57.47,59.61,1590755
14-May-14,61.64,62.44,60.09,60.13,1076257
13-May-14,62.25,64.60,61.60,61.88,1190417
12-May-14,59.33,63.00,58.37,62.22,1505256
9-May-14,59.34,60.27,57.90,58.51,2501314
8-May-14,59.50,62.70,58.60,59.61,1462123
7-May-14,64.05,64.42,58.28,59.99,3502676
6-May-14,66.52,67.86,65.26,65.71,1594460
5-May-14,64.22,67.12,64.04,67.02,891985
2-May-14,65.37,67.01,63.62,65.08,1093859
1-May-14,63.90,68.72,63.88,65.27,1611856
30-Apr-14,64.28,64.40,63.01,63.58,1049045
29-Apr-14,64.03,65.45,63.00,64.36,1555977
28-Apr-14,66.60,67.17,61.96,64.32,2006313
25-Apr-14,67.86,69.07,65.88,66.16,1242534
24-Apr-14,70.49,70.49,64.70,68.01,1473504
23-Apr-14,70.91,70.91,67.90,69.05,1006708
22-Apr-14,67.84,72.50,67.00,71.19,1822225
21-Apr-14,70.05,70.63,67.77,68.38,1187789
17-Apr-14,69.80,70.73,68.76,69.96,1372931
16-Apr-14,69.00,70.11,67.30,69.84,1878199
15-Apr-14,66.28,68.85,64.47,68.36,2603646
14-Apr-14,66.00,68.74,64.46,65.94,2660124
11-Apr-14,62.34,65.47,61.77,64.30,2524831
10-Apr-14,68.30,69.95,62.82,63.80,3289949
9-Apr-14,63.79,68.42,63.79,68.13,3052322
8-Apr-14,61.04,64.66,60.70,63.49,2485349
7-Apr-14,62.56,63.88,59.20,60.23,2670849
4-Apr-14,65.84,66.00,60.80,63.06,3426297
3-Apr-14,70.53,71.24,65.09,65.28,3139182
2-Apr-14,71.31,72.43,70.08,71.04,1451318
1-Apr-14,70.50,71.54,69.83,70.96,1983926
31-Mar-14,70.65,71.30,68.41,68.60,1409861
28-Mar-14,70.72,70.72,67.00,69.76,2611845
27-Mar-14,69.59,72.36,67.87,71.25,1199743
26-Mar-14,73.76,74.22,69.34,69.38,1962844
25-Mar-14,75.00,75.77,72.10,72.69,1729295
24-Mar-14,77.40,77.99,71.27,73.13,2168226
21-Mar-14,79.31,79.31,75.76,76.56,1892792
20-Mar-14,78.66,80.10,77.00,78.52,757537
19-Mar-14,79.79,80.80,78.00,78.66,936191
18-Mar-14,78.25,80.84,77.50,79.82,1192783
17-Mar-14,77.56,80.44,76.63,78.51,2271799
14-Mar-14,76.21,78.24,75.59,76.79,1265925
13-Mar-14,77.88,78.98,75.81,76.44,1374438
12-Mar-14,76.20,77.95,73.38,77.92,1334709
11-Mar-14,78.37,79.56,76.66,77.16,1669789
10-Mar-14,76.81,78.58,76.20,78.26,3417980
7-Mar-14,70.14,78.59,68.10,77.12,7568654
6-Mar-14,69.31,70.65,68.27,69.45,2491312
5-Mar-14,68.74,71.49,68.67,69.40,1732463
4-Mar-14,69.42,71.10,69.26,70.63,1972732
3-Mar-14,69.79,69.85,66.38,67.80,2829839
28-Feb-14,72.70,73.35,70.08,71.15,2344493
27-Feb-14,75.31,75.47,72.29,72.49,2337948
26-Feb-14,73.65,76.87,73.55,76.06,2491635
25-Feb-14,76.68,77.07,74.81,74.95,1516836
24-Feb-14,78.50,79.99,76.56,76.78,3813981
21-Feb-14,73.40,74.28,72.45,73.62,1725082
20-Feb-14,72.35,73.28,71.32,73.14,1227569
19-Feb-14,73.33,74.06,71.39,71.90,1773831
18-Feb-14,73.00,73.93,72.55,73.66,1180436
14-Feb-14,72.69,73.94,71.66,72.80,997777
13-Feb-14,68.80,72.99,68.56,72.47,2661316
12-Feb-14,67.41,69.69,67.29,68.77,823218
11-Feb-14,68.00,69.32,67.13,68.89,1120946
10-Feb-14,65.75,67.95,65.59,67.76,1282457
7-Feb-14,67.13,69.97,63.33,65.76,3022165
6-Feb-14,60.10,67.62,59.28,66.94,5025141
5-Feb-14,60.47,60.47,58.41,59.95,998290
4-Feb-14,58.60,60.87,58.43,60.19,2168000
3-Feb-14,61.08,61.16,57.02,57.71,1223874
31-Jan-14,61.63,61.63,58.82,59.45,1501160
30-Jan-14,59.64,63.32,59.64,62.12,1626853
29-Jan-14,61.20,61.23,59.63,59.68,662870
28-Jan-14,60.10,61.82,59.61,61.44,676991
27-Jan-14,60.27,60.82,57.71,59.70,1003325
24-Jan-14,61.72,61.96,60.03,60.40,1256283
23-Jan-14,63.09,63.09,61.11,61.78,995040
22-Jan-14,61.80,62.35,61.12,62.02,1124880
21-Jan-14,62.81,62.99,61.22,61.47,910304
17-Jan-14,63.80,64.92,62.64,62.88,970003
16-Jan-14,62.92,64.34,62.58,63.67,927360
15-Jan-14,60.73,63.83,60.54,62.90,2391979
14-Jan-14,59.20,60.67,59.20,60.62,950405
13-Jan-14,60.25,60.25,56.96,59.07,1899866
10-Jan-14,60.65,61.25,59.76,60.65,931158
9-Jan-14,60.06,60.74,59.66,60.64,915846
8-Jan-14,59.64,60.26,58.68,60.05,1147845
7-Jan-14,59.63,60.47,58.36,59.99,2302895
6-Jan-14,57.28,58.47,57.27,57.84,1401541
3-Jan-14,56.17,57.86,56.06,57.44,1471592
2-Jan-14,56.71,56.96,54.70,55.66,1259500
31-Dec-13,57.37,57.60,57.14,57.47,426713
30-Dec-13,57.61,57.90,57.38,57.49,528854
27-Dec-13,56.00,57.81,55.65,57.80,772934
26-Dec-13,57.12,57.12,55.90,56.20,680123
24-Dec-13,56.66,57.06,56.09,56.85,366863
23-Dec-13,56.44,57.35,55.79,56.54,987645
20-Dec-13,56.61,57.60,55.84,56.46,2111005
19-Dec-13,56.29,57.57,56.01,57.50,1251365
18-Dec-13,55.61,56.89,55.43,56.68,1217074
17-Dec-13,54.67,55.99,54.12,55.84,1470110
16-Dec-13,53.78,54.78,53.19,54.73,1549187
13-Dec-13,52.00,54.11,51.99,53.94,1900511
12-Dec-13,51.69,52.69,51.60,52.09,1011080
11-Dec-13,51.88,52.39,51.25,51.63,1038203
10-Dec-13,52.13,52.36,51.57,52.00,1035726
9-Dec-13,51.77,52.50,51.49,52.19,1815120
6-Dec-13,50.00,51.90,49.84,51.77,1552029
5-Dec-13,49.71,50.47,49.57,49.86,1144946
4-Dec-13,48.80,50.00,48.34,49.98,764166
3-Dec-13,48.94,49.68,48.55,48.85,727138
2-Dec-13,49.13,50.34,48.09,49.49,2069126
29-Nov-13,50.25,50.25,49.19,49.95,456247
27-Nov-13,49.42,50.34,49.03,49.87,1458097
26-Nov-13,50.23,50.43,48.04,49.49,3880015
25-Nov-13,45.61,46.24,45.36,46.10,1974386
22-Nov-13,44.96,45.35,44.81,45.30,525696
21-Nov-13,43.96,45.04,43.96,44.92,688342
20-Nov-13,44.34,44.63,43.54,43.98,457408
19-Nov-13,44.25,44.25,43.20,43.91,707732
18-Nov-13,45.73,45.73,44.25,44.45,2136470
15-Nov-13,42.16,45.97,41.89,45.71,2597701
14-Nov-13,41.32,42.21,40.80,42.20,1217077
13-Nov-13,41.00,41.51,40.36,41.45,1193410
12-Nov-13,41.87,42.02,41.24,41.28,433730
11-Nov-13,40.85,42.00,40.85,41.87,796605
8-Nov-13,41.56,41.61,40.49,40.99,1026280
7-Nov-13,42.07,42.32,41.00,41.29,819091
6-Nov-13,41.84,42.39,41.35,41.81,641803
5-Nov-13,42.49,42.50,41.48,41.53,520600
4-Nov-13,42.00,42.48,41.51,42.44,488795
1-Nov-13,42.12,42.59,41.77,41.93,534105
31-Oct-13,42.91,43.16,42.04,42.16,763596
30-Oct-13,43.62,43.74,42.68,43.05,770688
29-Oct-13,43.19,43.52,42.75,43.50,660463
28-Oct-13,43.97,43.97,42.68,42.72,525217
25-Oct-13,44.87,44.95,43.50,43.85,569046
24-Oct-13,44.35,44.91,43.93,44.70,768940
23-Oct-13,43.00,44.56,42.96,43.92,768237
22-Oct-13,43.97,44.09,42.68,43.37,947907
21-Oct-13,43.48,43.96,43.25,43.95,834819
18-Oct-13,43.60,44.15,43.16,43.25,827345
17-Oct-13,43.14,43.39,42.37,43.27,853736
16-Oct-13,43.95,44.10,42.34,43.17,1493192
15-Oct-13,45.42,45.86,43.75,43.93,737048
14-Oct-13,45.13,46.16,44.66,45.50,644700
11-Oct-13,45.06,45.60,44.86,45.56,897726
10-Oct-13,46.05,46.13,44.73,45.33,1271223
9-Oct-13,46.35,46.40,45.48,45.67,752000
8-Oct-13,47.89,47.89,46.19,46.32,1006654
7-Oct-13,47.48,48.04,47.19,47.83,772493
4-Oct-13,46.59,48.02,46.48,47.92,1206620
3-Oct-13,46.52,46.81,46.15,46.67,1031157
2-Oct-13,45.00,46.79,45.00,46.53,1219571
1-Oct-13,45.67,45.91,44.78,45.06,1461628
30-Sep-13,46.03,46.15,45.26,45.82,965463
27-Sep-13,46.55,46.82,46.15,46.56,727343
26-Sep-13,46.47,47.03,46.27,46.61,693536
25-Sep-13,46.52,46.93,46.25,46.29,484033
24-Sep-13,47.23,47.25,45.75,46.59,1330214
23-Sep-13,48.77,48.80,47.21,47.46,1332900
20-Sep-13,47.98,50.50,47.86,48.99,3555314
19-Sep-13,47.72,48.69,47.56,47.98,1552012
18-Sep-13,47.70,48.20,46.03,47.54,2042155
17-Sep-13,47.07,48.12,47.07,48.06,993004
16-Sep-13,48.00,48.00,47.46,47.48,1004811
13-Sep-13,47.32,47.74,46.40,47.71,1325531
12-Sep-13,46.46,47.42,46.25,47.27,1068473
11-Sep-13,47.77,47.88,46.39,46.48,1595945
10-Sep-13,49.69,49.70,47.04,47.94,4231346
9-Sep-13,44.81,47.43,44.67,46.84,2982471
6-Sep-13,45.57,46.09,44.58,44.80,1302433
5-Sep-13,45.80,46.36,45.47,45.52,1124608
4-Sep-13,46.41,47.25,45.90,46.01,1111012
3-Sep-13,47.73,47.73,45.74,46.51,1138953
30-Aug-13,48.02,48.37,47.27,48.02,301739
29-Aug-13,47.50,48.57,47.50,47.73,349397
28-Aug-13,47.46,47.57,47.04,47.30,261189
27-Aug-13,48.11,48.16,47.27,47.35,662186
26-Aug-13,47.86,48.12,47.16,47.61,205866
23-Aug-13,47.75,48.10,47.47,47.70,218896
22-Aug-13,47.70,48.05,47.15,47.76,279474
21-Aug-13,47.80,48.16,47.33,47.67,389687
20-Aug-13,47.81,48.14,47.42,47.87,367319
19-Aug-13,47.84,48.56,47.63,47.94,561757
16-Aug-13,48.54,49.12,47.76,47.82,392899
15-Aug-13,49.00,49.64,48.40,48.77,384873
14-Aug-13,49.30,49.84,48.84,49.83,399361
13-Aug-13,49.20,49.62,48.58,49.11,264161
12-Aug-13,49.05,49.74,48.86,49.23,273118
9-Aug-13,49.26,49.95,48.80,49.15,531273
8-Aug-13,48.42,49.78,48.30,49.51,665734
7-Aug-13,49.39,49.47,47.86,48.06,484611
6-Aug-13,49.80,50.09,49.03,49.39,284828
5-Aug-13,49.67,50.12,48.73,50.04,392399
2-Aug-13,49.17,49.67,48.95,49.31,430298
1-Aug-13,49.26,49.35,48.06,49.16,528460
31-Jul-13,48.70,49.43,47.98,48.94,619258
30-Jul-13,49.41,49.42,48.33,48.77,550915
29-Jul-13,48.87,49.52,48.66,48.74,381651
26-Jul-13,49.50,49.61,48.37,49.29,474456
25-Jul-13,48.80,49.89,48.77,49.86,461622
24-Jul-13,48.91,49.30,47.77,48.54,787879
23-Jul-13,50.85,50.91,48.38,48.54,1894505
22-Jul-13,49.78,49.92,49.13,49.55,897758
19-Jul-13,49.00,50.00,48.64,49.81,1421503
18-Jul-13,47.84,48.82,47.31,48.69,756277
17-Jul-13,46.67,47.99,46.51,47.34,1021198
16-Jul-13,46.73,46.90,46.01,46.51,599606
15-Jul-13,46.84,46.93,46.30,46.81,336249
12-Jul-13,46.67,46.90,46.26,46.43,479403
11-Jul-13,45.06,47.00,45.06,46.77,1611068
10-Jul-13,43.30,44.35,43.29,44.22,894083
9-Jul-13,42.96,43.53,42.40,43.09,584850
8-Jul-13,42.12,43.43,42.02,42.84,703993
5-Jul-13,42.86,42.88,42.02,42.29,463396
3-Jul-13,41.04,43.19,40.90,42.90,583783
2-Jul-13,42.08,42.50,41.02,41.15,823737
1-Jul-13,42.23,43.64,41.91,42.22,826561
28-Jun-13,43.99,44.00,41.67,42.16,2700733
27-Jun-13,42.51,44.55,42.42,44.38,1396841
26-Jun-13,41.45,42.75,41.37,42.08,1085285
25-Jun-13,39.60,41.95,39.55,41.57,1220679
24-Jun-13,40.22,40.66,39.08,39.56,1132673
21-Jun-13,42.14,42.49,40.51,41.05,1242678
20-Jun-13,41.36,42.34,41.07,41.86,1359316
19-Jun-13,41.53,42.74,41.01,42.06,1324925
18-Jun-13,42.11,42.96,41.51,41.60,1458824
17-Jun-13,43.60,44.26,43.00,43.15,1392469
14-Jun-13,45.03,45.04,43.05,43.12,1606661
13-Jun-13,45.29,45.75,45.00,45.21,457707
12-Jun-13,46.99,47.30,45.16,45.59,822247
11-Jun-13,45.61,47.25,45.53,46.78,1155771
10-Jun-13,46.10,46.49,45.13,46.46,1174219
7-Jun-13,45.21,46.27,44.57,46.20,1433376
6-Jun-13,44.21,45.83,44.18,45.00,1132986
5-Jun-13,43.70,44.83,43.51,44.41,1655380
4-Jun-13,45.82,46.37,43.50,44.06,1915714
3-Jun-13,48.70,48.70,45.37,45.83,2307149
31-May-13,47.60,50.46,47.00,48.52,5552800
30-May-13,55.00,55.24,54.26,54.39,2344701
29-May-13,54.85,55.24,53.28,54.76,1149369
28-May-13,53.14,53.91,53.00,53.78,365702
24-May-13,52.11,52.74,51.79,52.38,346113
23-May-13,51.50,52.78,51.50,52.11,485317
22-May-13,52.98,52.98,51.45,52.21,953475
21-May-13,54.07,54.23,52.54,52.63,693592
20-May-13,56.50,56.60,54.08,54.27,645017
17-May-13,54.73,56.59,54.48,56.43,984268
16-May-13,55.00,56.23,53.43,54.09,1511696
15-May-13,51.86,52.92,51.86,52.63,717543
14-May-13,50.40,52.29,50.33,52.26,770426
13-May-13,49.47,50.68,49.47,50.28,469960
10-May-13,49.83,50.55,49.58,49.73,811299
9-May-13,51.37,51.93,49.57,49.71,1329808
8-May-13,52.85,52.85,49.40,49.66,2463220
7-May-13,53.86,54.10,52.32,52.72,855559
6-May-13,54.32,54.77,53.57,53.88,821212
3-May-13,53.20,54.40,53.20,54.39,583134
2-May-13,52.08,53.14,51.55,52.80,904727
1-May-13,53.89,54.07,51.68,51.68,1462899
30-Apr-13,54.00,54.45,53.79,54.10,505747
29-Apr-13,53.74,54.50,53.74,54.07,329916
26-Apr-13,53.83,53.83,53.17,53.61,789100
25-Apr-13,53.99,54.80,53.66,54.16,737765
24-Apr-13,52.75,54.36,52.75,54.01,905912
23-Apr-13,51.49,53.68,51.49,53.11,664948
22-Apr-13,51.14,51.74,50.65,51.38,526274
19-Apr-13,51.62,51.62,50.64,50.71,887721
18-Apr-13,51.90,52.26,50.29,51.50,658570
17-Apr-13,51.89,52.32,51.53,51.94,790879
16-Apr-13,52.02,52.66,51.41,52.55,647328
15-Apr-13,52.87,52.88,51.22,51.71,781529
12-Apr-13,53.77,54.01,52.57,53.15,515848
11-Apr-13,53.18,54.50,52.45,54.16,1088135
10-Apr-13,53.60,55.00,53.03,54.71,850658
9-Apr-13,52.18,53.55,51.75,52.95,647847
8-Apr-13,52.09,53.14,51.58,51.80,1059004
5-Apr-13,51.75,53.64,51.75,53.01,878644
4-Apr-13,53.63,53.63,52.06,53.03,824636
3-Apr-13,54.75,54.75,53.02,53.65,699954
2-Apr-13,55.25,55.51,54.40,54.88,432418
1-Apr-13,56.50,56.50,54.20,55.34,842866
28-Mar-13,56.44,57.17,56.07,56.60,1357295
27-Mar-13,53.68,57.10,53.30,56.52,1939988
26-Mar-13,54.73,54.73,53.59,53.98,1145061
25-Mar-13,54.69,55.04,53.55,54.54,1131466
22-Mar-13,55.73,56.43,54.10,54.52,1531683
21-Mar-13,55.80,57.20,55.30,55.64,1394572
20-Mar-13,55.81,56.50,55.52,55.93,470854
19-Mar-13,56.03,56.57,54.17,55.98,1186205
18-Mar-13,56.26,57.10,55.58,56.11,850297
15-Mar-13,56.25,56.49,55.56,56.29,922373
14-Mar-13,57.35,57.35,56.11,56.58,1190407
13-Mar-13,56.33,56.63,55.65,56.40,1220101
12-Mar-13,55.34,56.48,55.10,56.06,1616894
11-Mar-13,55.77,56.20,55.00,55.75,1001956
8-Mar-13,56.44,56.49,55.27,55.95,1177790
7-Mar-13,57.10,57.20,55.89,56.39,1172377
6-Mar-13,56.96,57.36,56.10,56.38,1093310
5-Mar-13,56.11,57.05,55.62,56.84,1692873
4-Mar-13,56.26,57.45,54.86,56.00,4837576
1-Mar-13,58.55,62.19,57.42,58.55,3217105
28-Feb-13,57.96,61.15,57.00,61.13,2426260
27-Feb-13,57.29,59.80,55.85,57.92,1613308
26-Feb-13,57.00,57.42,56.02,56.99,785418
25-Feb-13,57.87,58.15,56.04,57.23,602445
22-Feb-13,55.54,57.47,54.95,57.29,1167156
21-Feb-13,54.90,55.14,53.78,54.62,566518
20-Feb-13,55.65,55.94,54.59,54.80,443170
19-Feb-13,55.59,56.45,55.32,55.50,318910
15-Feb-13,56.08,56.39,55.01,55.20,277829
14-Feb-13,55.00,56.00,54.80,55.73,362002
13-Feb-13,56.50,56.66,54.84,55.16,651605
12-Feb-13,55.00,56.94,54.69,56.71,758485
11-Feb-13,55.05,55.45,54.74,54.97,268968
8-Feb-13,54.06,55.07,53.87,55.06,529703
7-Feb-13,54.03,54.37,53.40,54.16,438299
6-Feb-13,53.80,54.41,53.04,54.14,426059
5-Feb-13,53.41,54.21,52.85,53.83,438816
4-Feb-13,55.22,55.22,53.03,53.35,357392
1-Feb-13,55.69,56.10,53.91,54.41,1164696
31-Jan-13,55.23,55.78,53.55,55.36,886363
30-Jan-13,56.75,56.75,53.50,53.93,1102010
29-Jan-13,57.22,57.27,55.78,56.82,537303
28-Jan-13,56.61,57.65,54.92,57.44,1104413
25-Jan-13,56.02,56.90,55.50,56.72,842910
24-Jan-13,55.72,56.25,55.30,56.02,553506
23-Jan-13,54.40,56.21,54.29,55.90,740954
22-Jan-13,55.39,55.78,54.37,55.25,458411
18-Jan-13,56.12,56.69,55.00,55.36,1362838
17-Jan-13,54.96,54.96,53.51,54.49,655098
16-Jan-13,54.42,55.80,53.14,54.75,1224167
15-Jan-13,51.98,54.23,51.86,54.07,932654
14-Jan-13,52.53,53.50,52.00,52.35,1262802
11-Jan-13,50.66,53.11,50.66,52.81,1270941
10-Jan-13,50.18,51.67,49.33,50.60,792444
9-Jan-13,48.28,50.30,48.28,49.98,900998
8-Jan-13,47.60,48.85,47.00,47.63,851705
7-Jan-13,48.11,49.00,47.00,47.23,1188903
4-Jan-13,49.84,50.15,48.01,48.25,1296902
3-Jan-13,51.82,51.82,48.85,49.35,1334674
2-Jan-13,54.52,55.90,50.49,51.23,1391909
31-Dec-12,52.87,53.69,51.98,53.52,347001
28-Dec-12,52.26,53.95,52.00,52.63,317431
27-Dec-12,53.14,53.55,50.72,52.87,520430
26-Dec-12,54.66,54.92,53.17,53.29,449941
24-Dec-12,53.89,55.00,53.89,54.78,246341
21-Dec-12,51.27,54.69,50.13,54.66,1244906
20-Dec-12,52.49,52.91,51.20,51.78,253985
19-Dec-12,52.00,52.56,51.32,52.09,482770
18-Dec-12,50.50,53.98,50.09,51.96,979828
17-Dec-12,49.84,50.96,49.57,50.01,677043
14-Dec-12,48.90,49.94,48.56,49.79,437248
13-Dec-12,48.84,49.18,48.05,48.96,656307
12-Dec-12,49.26,50.33,48.39,49.25,679390
11-Dec-12,49.81,49.81,47.95,48.89,941170
10-Dec-12,51.20,51.48,48.50,48.82,625497
7-Dec-12,50.00,52.11,47.63,51.31,2194483
6-Dec-12,52.43,54.56,50.55,51.30,1122497
5-Dec-12,53.40,54.05,51.64,52.10,323443
4-Dec-12,52.54,53.71,51.60,53.65,691477
3-Dec-12,54.42,54.42,51.37,51.66,580141
30-Nov-12,56.05,56.05,53.16,54.42,1472989
29-Nov-12,54.68,56.24,54.11,55.87,345913
28-Nov-12,55.34,55.58,52.91,54.58,318973
27-Nov-12,55.20,57.34,55.10,56.04,229955
26-Nov-12,55.11,56.00,53.93,55.88,338449
23-Nov-12,55.97,56.26,55.22,55.41,64825
21-Nov-12,54.18,55.53,53.96,55.45,397095
20-Nov-12,55.73,56.01,54.00,54.42,304417
19-Nov-12,53.77,56.01,53.77,56.01,529751
16-Nov-12,50.71,53.69,50.01,53.25,673197
15-Nov-12,53.98,53.98,50.55,51.40,226163
14-Nov-12,54.00,54.18,51.50,52.39,370133
13-Nov-12,52.75,53.69,52.57,53.19,478203
12-Nov-12,52.02,52.86,51.75,52.30,226719
9-Nov-12,51.70,53.34,51.52,52.00,324361
8-Nov-12,53.86,54.86,51.63,51.96,602223
7-Nov-12,54.84,55.29,53.85,53.90,151445
6-Nov-12,55.80,56.62,54.50,55.42,360278
5-Nov-12,55.00,56.71,54.34,55.80,647499
2-Nov-12,56.45,56.75,54.27,54.60,492142
1-Nov-12,55.75,57.03,54.45,56.19,804778
31-Oct-12,56.40,57.19,54.00,54.98,1132805
26-Oct-12,58.65,58.65,56.20,56.30,866683
25-Oct-12,60.12,60.12,57.70,58.05,444116
24-Oct-12,60.50,60.54,58.89,59.75,334009
23-Oct-12,60.00,60.15,57.53,59.75,887167
22-Oct-12,60.12,61.10,60.00,60.00,515603
19-Oct-12,61.84,62.79,59.00,60.02,860744
18-Oct-12,64.08,64.08,61.69,61.90,4070702
17-Oct-12,65.23,67.00,64.51,65.50,745780
16-Oct-12,65.89,65.96,64.30,65.57,260867
15-Oct-12,63.11,65.80,62.92,65.55,295060
12-Oct-12,62.50,63.15,61.08,62.96,320398
11-Oct-12,62.06,62.46,60.75,60.96,295723
10-Oct-12,61.60,63.50,61.40,61.44,545846
9-Oct-12,61.17,62.89,60.98,61.96,246997
8-Oct-12,62.36,62.84,61.45,62.07,196958
5-Oct-12,65.25,65.62,60.88,62.00,763832
4-Oct-12,65.82,65.97,64.55,65.76,176203
3-Oct-12,62.85,66.22,62.15,65.86,831025
2-Oct-12,61.65,62.40,59.98,62.00,368991
1-Oct-12,61.61,63.19,60.24,60.60,397427
28-Sep-12,65.00,65.31,61.27,61.57,1064946
27-Sep-12,64.00,65.23,63.37,65.07,376095
26-Sep-12,63.97,63.97,62.55,63.25,392689
25-Sep-12,65.40,66.55,64.14,64.17,378588
24-Sep-12,63.98,64.85,62.41,64.66,304626
21-Sep-12,65.45,65.50,62.24,64.02,525375
20-Sep-12,66.69,67.41,64.64,65.05,258601
19-Sep-12,68.96,68.98,67.50,68.00,391406
18-Sep-12,67.01,70.33,67.01,69.18,432497
17-Sep-12,66.72,67.98,66.58,67.91,148371
14-Sep-12,68.59,68.97,66.88,66.99,424663
13-Sep-12,64.75,68.23,64.75,67.98,767769
12-Sep-12,67.68,68.25,64.75,64.86,689044
11-Sep-12,66.75,69.74,64.33,66.60,3025834
10-Sep-12,71.51,72.60,71.13,71.75,1384888
7-Sep-12,72.16,72.22,69.36,70.74,590170
6-Sep-12,70.71,72.00,70.38,71.41,224733
5-Sep-12,72.61,72.61,69.12,70.00,472975
4-Sep-12,65.20,70.28,63.90,70.21,767801
31-Aug-12,64.48,64.58,63.10,64.38,92236
30-Aug-12,64.71,66.67,63.27,63.43,229854
29-Aug-12,64.22,65.10,63.10,64.73,161989
28-Aug-12,63.70,64.41,62.91,63.90,104152
27-Aug-12,65.05,65.84,62.62,63.69,176942
24-Aug-12,63.45,65.77,63.25,64.77,202875
23-Aug-12,63.20,64.88,62.50,64.14,215203
22-Aug-12,65.06,65.17,63.12,63.25,124652
21-Aug-12,65.48,66.43,63.28,64.32,247566
20-Aug-12,66.78,67.15,64.97,65.47,269987
17-Aug-12,67.10,68.50,64.84,67.29,384557
16-Aug-12,63.50,66.91,61.87,66.50,371863
15-Aug-12,59.60,62.90,57.70,62.73,253736
14-Aug-12,64.13,64.36,59.33,59.80,473650
13-Aug-12,61.10,63.08,60.00,62.72,221997
10-Aug-12,61.00,63.97,60.49,61.32,285027
9-Aug-12,61.00,62.46,59.86,61.33,293130
8-Aug-12,56.20,61.00,55.87,60.93,503938
7-Aug-12,55.00,57.44,54.52,56.80,365732
6-Aug-12,55.70,55.92,53.68,54.78,156224
3-Aug-12,56.65,56.90,54.25,54.79,290843
2-Aug-12,55.68,60.00,53.27,55.10,165971
1-Aug-12,58.72,58.72,55.14,56.18,110809
31-Jul-12,55.00,57.14,52.21,57.14,285401
30-Jul-12,56.86,56.86,53.92,55.00,276393
27-Jul-12,60.88,60.88,57.00,57.00,153352
26-Jul-12,59.78,61.85,58.08,59.88,427801
25-Jul-12,56.50,59.00,55.30,58.95,599608
24-Jul-12,52.00,56.00,51.52,55.50,716703
23-Jul-12,52.60,54.00,51.10,51.51,788384
20-Jul-12,55.15,62.07,53.10,53.13,7016057
