﻿Date,Open,High,Low,Close,Volume
20-Jun-17,70.84,72.80,70.08,70.35,959684
19-Jun-17,70.06,71.08,69.38,70.84,982016
16-Jun-17,67.76,69.74,67.67,69.36,1214549
15-Jun-17,65.52,68.07,64.80,68.04,644959
14-Jun-17,67.83,68.27,65.67,66.58,427788
13-Jun-17,67.48,67.78,66.01,67.50,518500
12-Jun-17,64.99,66.89,62.16,66.57,1049299
9-Jun-17,69.18,69.65,64.14,65.56,1123976
8-Jun-17,68.68,69.18,68.02,69.01,425782
7-Jun-17,68.30,68.94,68.01,68.64,430688
6-Jun-17,68.18,68.96,67.98,68.15,583564
5-Jun-17,67.87,68.49,67.62,68.32,397501
2-Jun-17,67.27,68.12,66.47,67.87,493538
1-Jun-17,65.66,67.11,65.04,67.11,531369
31-May-17,66.18,66.40,64.92,65.44,464034
30-May-17,66.00,66.65,65.69,66.08,320986
26-May-17,65.78,66.37,65.57,65.96,314056
25-May-17,65.48,66.88,65.18,65.91,521618
24-May-17,64.84,65.19,64.58,65.09,390180
23-May-17,65.36,65.64,64.33,64.60,420998
22-May-17,65.07,65.39,64.64,65.00,524137
19-May-17,64.71,65.20,64.29,64.89,673177
18-May-17,62.77,64.60,62.21,64.22,708953
17-May-17,64.80,64.90,62.87,63.20,853045
16-May-17,65.76,65.76,64.78,65.57,659696
15-May-17,65.29,65.72,64.95,65.41,671105
12-May-17,64.35,65.08,64.13,65.01,777387
11-May-17,64.28,64.45,63.73,64.08,541743
10-May-17,64.40,65.28,64.40,64.45,850873
9-May-17,65.19,65.39,64.46,64.47,651583
8-May-17,64.72,65.30,64.41,65.12,743901
5-May-17,63.69,64.95,63.69,64.72,835608
4-May-17,63.56,64.67,63.50,63.58,1221209
3-May-17,63.11,63.50,60.83,63.30,1879597
2-May-17,60.95,61.05,60.06,60.52,806549
1-May-17,60.59,60.93,59.88,60.76,518179
28-Apr-17,60.50,60.75,59.85,60.25,471362
27-Apr-17,60.18,60.59,59.90,60.45,348188
26-Apr-17,60.77,60.94,59.92,59.97,415140
25-Apr-17,60.34,61.20,60.28,60.50,566573
24-Apr-17,60.48,60.48,59.89,60.02,535033
21-Apr-17,59.46,59.56,58.92,59.28,650906
20-Apr-17,59.82,59.90,58.90,59.49,682650
19-Apr-17,59.27,60.11,59.00,59.44,514824
18-Apr-17,58.05,59.10,58.01,59.04,305580
17-Apr-17,57.85,58.38,57.71,58.33,277222
13-Apr-17,57.80,58.86,57.67,57.74,286855
12-Apr-17,57.96,58.35,57.59,57.87,325921
11-Apr-17,57.40,58.31,57.40,57.96,336889
10-Apr-17,57.92,58.16,57.24,57.40,352597
7-Apr-17,57.93,58.50,57.71,57.85,524412
6-Apr-17,57.36,58.03,57.11,57.90,537723
5-Apr-17,58.12,58.81,57.09,57.24,680204
4-Apr-17,57.66,58.21,57.44,58.02,512756
3-Apr-17,57.76,58.35,57.35,57.79,452587
31-Mar-17,57.07,57.72,56.84,57.51,517762
30-Mar-17,56.84,57.46,56.45,57.19,431048
29-Mar-17,56.65,57.27,56.48,56.97,347553
28-Mar-17,56.19,56.78,55.75,56.48,463738
27-Mar-17,54.42,56.06,53.73,55.87,470403
24-Mar-17,54.50,55.29,54.21,54.94,388274
23-Mar-17,55.23,55.23,53.70,54.09,679442
22-Mar-17,54.86,55.39,54.14,55.28,660690
21-Mar-17,56.74,56.95,54.78,54.87,526142
20-Mar-17,57.00,57.12,56.02,56.44,484556
17-Mar-17,56.78,56.80,56.06,56.47,734595
16-Mar-17,56.54,56.71,56.01,56.59,362475
15-Mar-17,56.34,56.39,55.78,56.31,450097
14-Mar-17,56.29,56.29,55.26,56.06,372906
13-Mar-17,56.37,56.50,55.60,56.46,527316
10-Mar-17,56.25,56.61,55.48,56.18,501633
9-Mar-17,55.91,56.14,55.28,55.85,301521
8-Mar-17,56.97,57.22,55.79,56.03,410919
7-Mar-17,56.40,57.31,56.36,56.75,670937
6-Mar-17,55.99,56.84,55.79,56.67,561455
3-Mar-17,55.58,56.56,55.48,56.50,1095066
2-Mar-17,55.54,55.88,54.71,55.20,490255
1-Mar-17,54.50,56.11,54.40,55.71,866402
28-Feb-17,54.41,54.85,53.68,53.83,726269
27-Feb-17,55.29,55.41,54.13,54.71,746030
24-Feb-17,53.35,55.31,53.00,55.30,1150903
23-Feb-17,53.84,54.08,53.31,54.06,650277
22-Feb-17,53.00,53.68,52.66,53.55,421971
21-Feb-17,53.15,53.41,52.82,53.11,577269
17-Feb-17,52.19,53.46,52.07,53.38,652848
16-Feb-17,52.91,52.92,51.80,52.42,623881
15-Feb-17,51.94,52.92,51.87,52.79,548666
14-Feb-17,51.57,52.31,50.80,52.20,699816
13-Feb-17,52.46,52.89,51.84,51.84,844588
10-Feb-17,51.43,52.40,50.68,52.33,1016180
9-Feb-17,48.85,52.03,47.90,51.32,3786773
8-Feb-17,45.33,45.34,44.25,45.26,1690780
7-Feb-17,44.93,45.58,44.58,45.40,669052
6-Feb-17,47.73,47.73,44.54,44.60,1053505
3-Feb-17,45.22,47.45,44.87,45.99,2075098
2-Feb-17,43.61,44.53,42.88,44.32,1222550
1-Feb-17,46.15,46.28,42.52,43.93,2551589
31-Jan-17,47.00,47.00,45.54,46.24,1353715
30-Jan-17,48.60,48.60,46.00,47.06,1033758
27-Jan-17,48.88,49.23,48.07,49.21,636061
26-Jan-17,50.19,50.28,48.46,48.62,576934
25-Jan-17,50.81,50.97,49.77,50.01,375321
24-Jan-17,50.08,50.81,49.85,50.32,561745
23-Jan-17,48.95,50.06,48.80,49.89,792812
20-Jan-17,47.89,49.21,47.83,49.19,472089
19-Jan-17,48.36,48.40,47.45,47.88,377221
18-Jan-17,48.25,48.78,47.80,48.07,370591
17-Jan-17,48.48,48.48,47.40,47.90,492842
13-Jan-17,48.30,49.29,48.30,48.72,505681
12-Jan-17,48.77,48.77,47.35,48.09,439135
11-Jan-17,48.34,48.96,48.08,48.79,460640
10-Jan-17,48.18,48.69,47.74,48.21,680618
9-Jan-17,47.70,48.96,47.66,48.40,580315
6-Jan-17,47.11,47.58,46.88,47.49,252889
5-Jan-17,47.31,47.40,46.59,47.00,460740
4-Jan-17,46.69,47.59,46.48,47.34,771907
3-Jan-17,46.20,46.85,45.62,46.47,697823
30-Dec-16,46.44,46.44,45.29,45.49,516606
29-Dec-16,46.33,46.51,45.60,46.13,577811
28-Dec-16,47.01,47.01,45.56,46.11,1032593
27-Dec-16,45.75,47.06,45.54,46.90,648292
23-Dec-16,44.64,45.70,44.64,45.70,345801
22-Dec-16,45.57,45.61,44.00,44.58,434208
21-Dec-16,46.41,46.50,45.39,45.74,502142
20-Dec-16,46.51,46.59,46.12,46.30,408162
19-Dec-16,46.21,46.61,45.77,46.44,555494
16-Dec-16,45.22,46.24,45.01,45.92,1111871
15-Dec-16,45.36,45.60,44.31,44.69,926098
14-Dec-16,45.40,46.00,45.00,45.36,496634
13-Dec-16,46.20,46.72,45.23,45.50,719022
12-Dec-16,46.96,47.33,45.68,46.03,557493
9-Dec-16,46.99,47.57,46.75,46.92,715579
8-Dec-16,46.77,47.60,46.43,46.84,777200
7-Dec-16,45.98,47.04,45.06,46.71,960794
6-Dec-16,44.50,46.17,43.89,45.94,831602
5-Dec-16,43.54,44.71,43.37,44.40,1134680
2-Dec-16,42.49,43.67,42.07,43.54,722817
1-Dec-16,45.05,45.42,41.98,42.61,1553244
30-Nov-16,43.94,45.46,43.69,44.87,1308177
29-Nov-16,42.61,44.58,42.61,43.72,729019
28-Nov-16,43.18,43.47,42.62,42.77,271785
25-Nov-16,43.45,43.50,42.87,43.32,140694
23-Nov-16,42.88,43.30,42.06,43.28,746387
22-Nov-16,43.84,43.84,42.95,43.14,875488
21-Nov-16,44.24,44.50,43.32,43.71,624352
18-Nov-16,43.82,44.30,43.51,43.79,476629
17-Nov-16,43.25,43.98,42.83,43.39,558298
16-Nov-16,41.81,43.40,41.55,43.22,800165
15-Nov-16,41.77,42.08,41.24,41.58,657807
14-Nov-16,41.91,43.00,40.67,41.77,1670829
11-Nov-16,39.24,41.77,39.19,41.52,1859868
10-Nov-16,42.56,43.09,39.15,39.36,2830049
9-Nov-16,44.02,44.83,41.53,42.31,4376558
8-Nov-16,44.50,45.98,44.21,45.68,1002626
7-Nov-16,44.05,44.66,43.80,44.61,1031302
4-Nov-16,42.94,43.96,42.37,42.98,1677004
3-Nov-16,43.72,44.09,42.87,43.13,1763836
2-Nov-16,42.48,45.44,40.82,43.70,8198705
1-Nov-16,51.95,52.52,51.54,52.00,1311236
31-Oct-16,51.64,51.85,51.20,51.73,653149
28-Oct-16,50.37,52.02,49.56,51.64,669272
27-Oct-16,51.74,52.15,50.18,50.65,929876
26-Oct-16,51.77,52.42,51.47,51.73,407281
25-Oct-16,52.45,52.80,51.12,51.96,947841
24-Oct-16,50.37,52.58,50.06,52.44,1444855
21-Oct-16,48.50,50.04,48.46,49.97,792479
20-Oct-16,49.00,49.12,48.11,48.75,493548
19-Oct-16,50.10,50.46,49.09,49.14,568623
18-Oct-16,50.43,50.50,49.62,50.01,975774
17-Oct-16,49.64,50.15,49.40,49.82,439034
14-Oct-16,50.00,50.58,49.61,49.70,318558
13-Oct-16,49.06,50.19,48.46,49.93,540900
12-Oct-16,49.37,49.90,49.18,49.65,457194
11-Oct-16,50.37,50.41,48.93,49.33,501022
10-Oct-16,49.71,50.61,49.63,50.51,377894
7-Oct-16,49.58,49.97,48.79,49.64,480679
6-Oct-16,49.12,50.04,48.42,49.91,378418
5-Oct-16,49.43,49.71,48.73,48.83,324247
4-Oct-16,50.20,50.20,49.01,49.34,276060
3-Oct-16,49.87,50.18,49.45,49.91,331273
30-Sep-16,49.71,50.45,49.65,50.13,532431
29-Sep-16,50.47,50.47,49.62,49.99,317554
28-Sep-16,51.00,51.11,50.01,50.47,463477
27-Sep-16,50.28,51.46,50.28,51.08,529953
26-Sep-16,49.81,50.68,49.75,50.43,369522
23-Sep-16,50.31,50.91,49.91,49.99,479085
22-Sep-16,48.28,50.34,48.06,50.24,738858
21-Sep-16,46.71,48.01,46.50,47.92,562313
20-Sep-16,47.25,47.54,46.48,46.52,676625
19-Sep-16,48.75,48.81,47.06,47.16,734180
16-Sep-16,48.81,48.92,48.38,48.56,682219
15-Sep-16,48.08,49.18,47.78,48.84,653917
14-Sep-16,48.38,48.71,47.78,48.07,362950
13-Sep-16,49.89,50.55,47.18,48.13,724895
12-Sep-16,49.02,50.19,48.11,50.07,1042075
9-Sep-16,51.61,51.92,49.31,49.50,901153
8-Sep-16,52.34,52.44,51.92,52.03,339609
7-Sep-16,51.87,52.43,51.75,52.42,526932
6-Sep-16,52.20,52.93,51.65,52.00,487689
2-Sep-16,51.39,52.25,51.10,52.10,827088
1-Sep-16,51.11,51.52,50.96,51.35,436037
31-Aug-16,51.42,51.55,51.04,51.34,307327
30-Aug-16,51.00,51.48,50.93,51.46,480983
29-Aug-16,51.24,51.49,50.97,51.18,352073
26-Aug-16,51.02,51.53,50.89,51.28,368465
25-Aug-16,50.51,51.41,50.19,51.11,395205
24-Aug-16,49.91,51.50,49.83,50.47,667378
23-Aug-16,49.40,50.30,49.28,49.97,557075
22-Aug-16,48.94,49.32,48.53,49.15,390896
19-Aug-16,49.14,49.49,48.77,48.98,516735
18-Aug-16,49.35,49.44,48.86,49.43,396746
17-Aug-16,50.37,50.37,48.56,49.39,1343098
16-Aug-16,51.13,51.44,50.50,50.71,413541
15-Aug-16,51.10,51.72,50.95,51.22,584945
12-Aug-16,50.38,50.84,49.75,50.78,402115
11-Aug-16,50.20,50.71,50.03,50.38,339049
10-Aug-16,50.55,50.69,49.70,50.11,693721
9-Aug-16,50.86,51.21,49.61,50.41,818162
8-Aug-16,51.76,51.85,50.57,50.74,726176
5-Aug-16,50.70,52.06,50.45,51.50,1209630
4-Aug-16,51.13,51.39,49.84,51.29,1026269
3-Aug-16,48.89,51.07,47.46,50.99,4019752
2-Aug-16,48.04,48.04,46.85,47.34,1727781
1-Aug-16,48.00,48.50,47.16,47.82,901904
29-Jul-16,47.73,47.74,46.50,47.21,952987
28-Jul-16,47.22,47.77,46.58,47.68,417470
27-Jul-16,47.50,47.71,46.92,47.28,403340
26-Jul-16,46.93,47.31,46.43,47.30,446371
25-Jul-16,46.54,47.07,46.41,47.05,556233
22-Jul-16,45.36,46.84,45.36,46.81,437382
21-Jul-16,47.30,47.30,45.15,45.33,610383
20-Jul-16,46.73,47.74,46.70,47.39,419313
19-Jul-16,46.65,46.92,45.84,46.29,287932
18-Jul-16,46.34,46.96,46.06,46.71,340337
15-Jul-16,46.50,46.63,46.01,46.20,285970
14-Jul-16,46.31,46.99,46.07,46.25,451915
13-Jul-16,46.56,46.83,45.64,45.65,751538
12-Jul-16,46.71,47.16,46.03,46.49,528568
11-Jul-16,45.90,46.49,45.80,46.05,611398
8-Jul-16,45.10,45.93,44.90,45.48,760931
7-Jul-16,44.24,45.03,44.06,44.85,563413
6-Jul-16,43.18,44.31,43.10,44.04,698767
5-Jul-16,43.19,43.74,42.73,43.40,775174
1-Jul-16,43.09,43.96,43.09,43.58,452658
30-Jun-16,42.04,43.25,41.67,43.21,872036
29-Jun-16,40.84,41.76,40.58,41.65,469926
28-Jun-16,39.89,40.49,39.61,40.39,535825
27-Jun-16,40.41,40.49,38.94,39.32,885470
24-Jun-16,40.96,41.62,40.45,40.87,2376747
23-Jun-16,42.22,43.18,41.74,43.16,563318
22-Jun-16,42.40,42.73,41.66,41.75,407770
21-Jun-16,42.58,42.95,42.15,42.60,488058
20-Jun-16,42.25,42.90,42.06,42.43,536703
17-Jun-16,42.27,42.27,41.01,41.86,621333
16-Jun-16,42.12,42.33,41.59,41.98,528026
15-Jun-16,41.61,42.20,41.24,42.11,613343
14-Jun-16,40.83,41.63,40.81,41.40,498493
13-Jun-16,41.00,42.00,40.97,41.18,753425
10-Jun-16,40.88,41.48,40.78,41.07,485075
9-Jun-16,41.50,41.65,41.25,41.41,340740
8-Jun-16,41.37,41.73,41.07,41.61,459917
7-Jun-16,40.80,41.39,40.78,41.32,524860
6-Jun-16,41.03,41.20,40.55,40.80,539346
3-Jun-16,40.99,41.17,39.97,40.95,710775
2-Jun-16,41.19,41.19,40.52,41.10,736631
1-Jun-16,40.57,41.21,40.10,41.07,1483963
31-May-16,40.89,40.98,40.21,40.44,736951
27-May-16,40.88,41.25,39.89,40.84,967767
26-May-16,40.75,42.60,40.55,41.25,1250917
25-May-16,41.29,41.90,38.32,39.81,2561627
24-May-16,41.23,42.01,40.86,41.65,496659
23-May-16,40.77,41.25,40.49,40.79,319469
20-May-16,40.32,41.10,40.02,40.88,606964
19-May-16,40.73,41.25,39.83,40.11,609368
18-May-16,39.32,40.84,39.18,40.74,669758
17-May-16,39.96,40.66,39.31,39.40,724776
16-May-16,39.59,40.23,39.23,39.96,437901
13-May-16,38.82,39.76,38.74,39.28,306212
12-May-16,39.87,40.34,38.24,38.84,432806
11-May-16,39.50,40.50,39.00,39.57,819710
10-May-16,38.64,39.88,38.33,39.65,690209
9-May-16,37.51,38.93,37.15,38.54,609567
6-May-16,37.73,38.03,36.38,37.46,1315203
5-May-16,40.04,40.38,38.41,38.69,619447
4-May-16,40.26,41.09,38.69,40.05,2031790
3-May-16,38.50,38.99,37.86,38.28,883336
2-May-16,38.60,38.99,37.79,38.95,705004
29-Apr-16,38.02,38.59,37.66,38.21,550856
28-Apr-16,37.85,38.56,37.70,38.26,585893
27-Apr-16,37.14,38.36,36.75,37.95,438839
26-Apr-16,36.72,37.33,36.29,37.11,669911
25-Apr-16,37.41,37.60,36.25,36.59,450249
22-Apr-16,37.36,37.93,37.01,37.41,292990
21-Apr-16,37.20,37.83,36.57,37.47,651699
20-Apr-16,36.66,37.29,36.24,36.86,357714
19-Apr-16,35.89,38.18,35.85,36.66,726526
18-Apr-16,34.45,35.76,34.39,35.53,423729
15-Apr-16,35.02,35.02,33.91,34.70,388694
14-Apr-16,34.89,35.22,34.29,35.05,271135
13-Apr-16,33.72,34.93,33.69,34.82,296357
12-Apr-16,33.13,33.71,32.42,33.56,496087
11-Apr-16,34.44,34.85,33.13,33.14,327686
8-Apr-16,34.48,34.60,33.72,34.30,263760
7-Apr-16,35.13,35.49,33.96,34.15,449246
6-Apr-16,34.51,35.65,34.35,35.52,514871
5-Apr-16,35.45,35.56,34.37,34.43,493641
4-Apr-16,35.38,36.31,35.02,35.80,302297
1-Apr-16,35.29,35.79,34.93,35.43,389092
31-Mar-16,35.18,35.89,34.95,35.60,349906
30-Mar-16,35.30,35.80,34.99,35.24,388623
29-Mar-16,33.99,35.18,33.66,35.02,283094
28-Mar-16,33.74,34.50,33.06,34.08,403367
24-Mar-16,33.31,33.76,32.85,33.70,533715
23-Mar-16,33.90,33.98,33.44,33.59,602432
22-Mar-16,33.73,34.20,33.63,33.94,193767
21-Mar-16,33.89,34.41,33.49,34.05,434085
18-Mar-16,33.69,34.55,33.36,33.90,729308
17-Mar-16,32.37,33.70,32.32,33.47,419720
16-Mar-16,31.34,32.66,31.16,32.38,234766
15-Mar-16,32.45,32.58,31.34,31.63,348354
14-Mar-16,31.97,32.87,31.91,32.74,247552
11-Mar-16,31.84,32.48,31.61,32.05,352773
10-Mar-16,32.42,32.65,31.10,31.58,383695
9-Mar-16,32.01,32.43,31.70,32.31,556866
8-Mar-16,32.84,33.09,31.72,31.88,971823
7-Mar-16,32.57,33.57,32.09,33.06,634680
4-Mar-16,32.71,33.19,31.94,32.71,462274
3-Mar-16,33.12,33.43,32.41,32.63,693752
2-Mar-16,33.00,33.31,32.40,33.26,466202
1-Mar-16,32.34,33.15,32.04,33.14,746750
29-Feb-16,31.72,32.59,31.53,31.88,565265
26-Feb-16,30.60,32.29,30.29,31.84,759369
25-Feb-16,30.53,31.45,29.97,30.26,729482
24-Feb-16,29.08,30.39,28.60,30.21,843549
23-Feb-16,29.16,29.78,28.90,29.31,804881
22-Feb-16,28.15,29.45,28.15,29.27,864969
19-Feb-16,27.72,28.51,27.45,27.95,1039822
18-Feb-16,27.76,28.14,27.21,27.81,1184918
17-Feb-16,26.18,27.62,26.11,27.26,1007054
16-Feb-16,24.56,26.22,24.32,26.04,988634
12-Feb-16,24.78,25.06,23.83,24.33,936006
11-Feb-16,23.06,24.45,22.84,24.36,1348440
10-Feb-16,27.33,27.33,22.51,23.58,3211489
9-Feb-16,23.66,24.78,22.42,22.50,2178124
8-Feb-16,25.79,25.80,22.46,24.24,2697767
5-Feb-16,30.49,30.95,26.18,26.51,1629955
4-Feb-16,30.11,31.14,29.33,30.97,704921
3-Feb-16,31.20,31.36,29.98,30.27,592218
2-Feb-16,30.91,31.64,30.75,30.90,934478
1-Feb-16,29.91,31.50,29.68,31.34,755603
29-Jan-16,29.46,30.65,29.35,30.15,630535
28-Jan-16,28.88,29.62,28.40,29.22,826588
27-Jan-16,30.42,30.73,28.60,28.78,999904
26-Jan-16,31.25,31.56,30.12,30.50,553473
25-Jan-16,32.20,32.96,31.09,31.24,745576
22-Jan-16,31.98,33.05,31.70,32.30,779825
21-Jan-16,30.58,32.42,30.41,31.42,786176
20-Jan-16,30.42,31.30,28.33,30.82,941425
19-Jan-16,32.34,32.97,30.73,31.04,657313
15-Jan-16,31.01,32.08,30.61,32.02,775193
14-Jan-16,30.97,32.54,30.17,31.81,852020
13-Jan-16,33.59,33.79,30.76,30.90,878009
12-Jan-16,33.26,34.18,32.50,33.23,546241
11-Jan-16,33.57,33.94,31.88,32.96,983763
8-Jan-16,35.69,35.73,32.98,33.26,1251609
7-Jan-16,34.59,35.94,34.32,35.54,1035839
6-Jan-16,34.99,35.43,34.23,34.99,1011134
5-Jan-16,36.00,36.02,34.28,34.87,949297
4-Jan-16,37.11,37.74,35.30,35.97,780266
31-Dec-15,38.17,38.20,37.62,37.63,399004
30-Dec-15,38.50,38.81,38.10,38.32,327647
29-Dec-15,38.80,38.99,38.23,38.72,379223
28-Dec-15,38.61,38.74,37.63,38.50,278525
24-Dec-15,39.03,39.10,38.34,38.50,179628
23-Dec-15,38.94,39.84,38.55,39.25,884685
22-Dec-15,38.60,38.72,37.78,38.50,582961
21-Dec-15,38.13,38.81,37.67,38.53,797472
18-Dec-15,37.88,38.26,37.61,37.77,520747
17-Dec-15,38.50,39.02,37.87,37.91,257628
16-Dec-15,38.69,38.99,37.77,38.65,475284
15-Dec-15,37.74,39.07,37.47,38.66,560433
14-Dec-15,37.55,38.29,37.16,37.46,513570
11-Dec-15,38.08,38.77,37.55,37.72,554945
10-Dec-15,37.99,39.02,37.96,38.68,664769
9-Dec-15,38.92,39.21,37.84,37.87,758377
8-Dec-15,38.93,39.60,38.31,39.00,598337
7-Dec-15,39.92,40.15,39.02,39.48,646456
4-Dec-15,40.16,40.66,39.32,40.16,1028950
3-Dec-15,41.60,41.97,39.54,40.11,1442415
2-Dec-15,44.02,44.02,40.79,41.42,2420579
1-Dec-15,43.57,44.17,43.17,44.14,630693
30-Nov-15,44.01,44.38,43.38,43.60,526664
27-Nov-15,43.22,44.25,43.02,43.68,307629
25-Nov-15,42.60,43.49,42.41,43.22,500281
24-Nov-15,41.90,42.88,41.59,42.76,570144
23-Nov-15,42.19,42.36,41.60,41.73,525327
20-Nov-15,42.94,42.99,41.78,42.19,672028
19-Nov-15,42.00,42.86,41.75,42.63,794195
18-Nov-15,41.84,42.01,41.09,42.00,609952
17-Nov-15,41.35,42.10,41.22,41.58,897881
16-Nov-15,41.03,42.27,40.68,41.22,1618771
13-Nov-15,42.58,42.95,40.96,41.04,3875919
12-Nov-15,43.38,44.65,43.13,44.35,593941
11-Nov-15,43.33,44.59,42.97,43.53,637068
10-Nov-15,43.15,44.47,42.70,43.12,771572
9-Nov-15,44.94,45.12,43.08,43.46,962343
6-Nov-15,44.38,46.02,44.35,44.88,986777
5-Nov-15,45.88,46.35,44.05,44.30,1196267
4-Nov-15,44.25,46.20,43.53,45.73,4495692
3-Nov-15,38.97,39.74,38.69,39.15,942102
2-Nov-15,38.10,39.38,38.01,38.98,628561
30-Oct-15,38.91,39.13,37.73,38.01,654762
29-Oct-15,38.61,39.00,38.17,38.89,396592
28-Oct-15,36.43,39.15,35.93,38.96,1091050
27-Oct-15,37.28,37.39,36.03,36.16,868521
26-Oct-15,37.42,37.94,35.83,37.42,1041832
23-Oct-15,38.97,39.00,37.14,37.68,843226
22-Oct-15,38.59,39.15,38.23,38.63,440178
21-Oct-15,38.66,39.16,37.80,38.29,683015
20-Oct-15,40.84,42.66,37.63,38.57,2079697
19-Oct-15,42.15,42.44,40.18,40.84,680375
16-Oct-15,40.57,42.50,40.39,41.86,1327949
15-Oct-15,39.85,40.77,39.48,40.39,493940
14-Oct-15,39.27,40.58,39.12,39.75,389604
13-Oct-15,40.08,40.90,39.30,39.38,414597
12-Oct-15,40.33,41.15,40.10,40.50,656811
9-Oct-15,39.65,40.50,39.17,40.33,664856
8-Oct-15,39.27,39.42,38.64,39.36,426646
7-Oct-15,38.43,39.45,37.76,39.40,387708
6-Oct-15,38.34,38.83,37.39,38.17,334186
5-Oct-15,37.54,38.39,37.20,38.34,750008
2-Oct-15,35.48,37.09,35.11,37.05,394081
1-Oct-15,35.81,36.14,34.85,35.98,470452
30-Sep-15,34.94,36.01,34.70,35.91,820874
29-Sep-15,33.95,34.67,33.00,34.55,791352
28-Sep-15,34.07,35.24,33.68,34.02,700952
25-Sep-15,36.50,36.64,34.21,34.31,1079082
24-Sep-15,37.87,37.98,34.62,36.03,1113333
23-Sep-15,37.84,38.58,37.53,38.05,499747
22-Sep-15,37.96,38.14,37.45,37.75,680163
21-Sep-15,38.00,38.57,37.72,38.03,627899
18-Sep-15,37.34,38.16,37.10,37.83,905604
17-Sep-15,37.91,38.50,37.67,37.94,711411
16-Sep-15,38.45,38.88,37.31,38.00,3202319
15-Sep-15,38.72,40.98,38.35,40.60,1341889
14-Sep-15,38.41,38.80,38.08,38.76,288835
11-Sep-15,37.50,38.50,37.19,38.41,317139
10-Sep-15,37.55,38.72,37.55,37.75,271956
9-Sep-15,38.48,38.78,37.76,37.86,413345
8-Sep-15,37.21,38.22,36.98,37.99,250467
4-Sep-15,37.03,37.53,36.34,36.75,265440
3-Sep-15,38.10,38.44,37.27,37.59,345611
2-Sep-15,37.50,38.40,37.20,38.03,346373
1-Sep-15,37.73,38.53,37.04,37.25,608082
31-Aug-15,38.27,39.45,37.82,38.54,527615
28-Aug-15,38.36,38.79,37.81,38.31,451961
27-Aug-15,38.63,39.57,37.69,38.43,648346
26-Aug-15,37.82,38.53,36.79,38.20,593696
25-Aug-15,38.53,39.03,36.91,36.92,678694
24-Aug-15,34.23,38.97,32.96,37.46,901781
21-Aug-15,36.81,38.43,36.15,37.93,1149057
20-Aug-15,39.66,39.93,38.10,38.41,737195
19-Aug-15,40.00,40.79,39.35,40.07,614653
18-Aug-15,41.15,41.58,39.53,40.00,897235
17-Aug-15,38.32,41.36,37.66,40.91,1885258
14-Aug-15,37.96,38.40,37.62,38.35,273412
13-Aug-15,37.61,39.00,37.34,37.88,499526
12-Aug-15,37.80,38.32,36.50,37.54,729184
11-Aug-15,37.58,39.00,37.26,38.01,738263
10-Aug-15,37.50,38.23,37.30,37.75,593864
7-Aug-15,37.07,37.45,36.46,37.41,524614
6-Aug-15,37.85,38.14,35.96,36.96,986084
5-Aug-15,34.00,38.45,33.95,37.85,2104340
4-Aug-15,31.48,32.25,31.27,32.05,586950
3-Aug-15,32.01,32.98,31.39,31.44,529816
31-Jul-15,32.13,32.43,31.64,32.00,309314
30-Jul-15,31.85,32.50,31.13,32.22,346971
29-Jul-15,31.27,32.05,29.80,31.96,885076
28-Jul-15,31.84,31.93,30.25,31.27,920261
27-Jul-15,33.47,33.47,31.32,31.60,672726
24-Jul-15,35.92,36.32,33.65,33.75,614929
23-Jul-15,35.89,36.98,35.89,35.95,502655
22-Jul-15,35.40,36.05,35.23,35.72,347248
21-Jul-15,35.73,36.18,35.12,35.56,366153
20-Jul-15,35.25,35.73,34.73,35.73,470908
17-Jul-15,35.12,35.37,34.70,35.07,440143
16-Jul-15,35.02,35.18,34.43,35.12,328703
15-Jul-15,35.10,35.27,34.41,34.82,271622
14-Jul-15,34.37,35.42,34.37,35.10,332197
13-Jul-15,34.56,34.88,34.22,34.56,251718
10-Jul-15,34.59,34.76,34.29,34.46,254343
9-Jul-15,33.81,34.63,33.58,34.20,233418
8-Jul-15,33.06,33.91,32.81,33.33,267976
7-Jul-15,34.41,34.75,32.92,33.52,511029
6-Jul-15,33.40,34.50,32.69,34.47,409898
2-Jul-15,34.63,34.63,33.54,34.03,327101
1-Jul-15,34.57,34.95,34.30,34.48,284658
30-Jun-15,34.79,35.03,33.30,34.15,547277
29-Jun-15,34.88,35.35,34.13,34.38,772839
26-Jun-15,37.37,37.66,35.18,35.75,2523002
25-Jun-15,36.80,37.42,36.72,37.37,460615
24-Jun-15,38.09,38.18,36.47,36.75,751423
23-Jun-15,38.55,38.61,37.85,38.09,580784
22-Jun-15,38.28,39.17,37.80,38.35,608248
19-Jun-15,38.36,38.41,37.38,37.71,576294
18-Jun-15,38.15,38.52,37.92,38.36,439407
17-Jun-15,38.47,38.64,37.76,38.15,644829
16-Jun-15,36.34,38.30,36.34,38.24,1441888
15-Jun-15,35.71,36.58,35.25,36.49,500264
12-Jun-15,35.55,36.02,35.29,35.92,293036
11-Jun-15,36.00,36.09,35.48,35.76,189938
10-Jun-15,36.18,36.22,35.81,36.03,404590
9-Jun-15,36.39,36.57,34.22,36.06,752265
8-Jun-15,36.00,36.84,35.93,36.30,768596
5-Jun-15,35.29,35.62,34.59,35.40,491988
4-Jun-15,35.00,36.00,34.92,35.23,318217
3-Jun-15,35.38,35.54,34.80,35.33,338313
2-Jun-15,34.50,36.23,34.27,35.38,684016
1-Jun-15,34.99,35.56,34.18,34.75,639331
29-May-15,34.63,34.99,33.85,34.76,662856
28-May-15,35.22,35.35,34.16,34.71,369548
27-May-15,35.22,35.36,34.63,35.19,436770
26-May-15,35.68,35.72,34.28,35.17,620349
22-May-15,36.24,36.45,35.58,35.67,570141
21-May-15,35.86,36.66,35.86,36.21,530128
20-May-15,35.60,36.30,35.39,35.80,680419
19-May-15,35.52,35.84,34.55,35.67,759674
18-May-15,35.47,35.86,35.33,35.35,895157
15-May-15,36.64,36.65,35.03,35.29,3555368
14-May-15,38.63,39.75,38.03,39.24,435540
13-May-15,39.01,39.66,37.95,38.15,382379
12-May-15,38.41,39.21,37.12,38.95,550052
11-May-15,36.06,38.41,35.98,38.29,867621
8-May-15,35.72,37.70,35.00,35.70,1439988
7-May-15,33.56,35.58,31.53,35.33,2059677
6-May-15,31.30,33.99,30.85,33.05,835426
5-May-15,32.74,32.74,30.84,31.33,319804
4-May-15,32.06,33.44,32.04,32.96,525399
1-May-15,31.92,32.53,31.07,31.93,272979
30-Apr-15,32.32,32.64,31.21,31.61,188638
29-Apr-15,32.80,33.16,32.10,32.38,161672
28-Apr-15,32.25,33.48,31.60,32.91,230328
27-Apr-15,33.39,33.59,32.15,32.21,247863
24-Apr-15,33.33,33.33,32.32,32.91,157921
23-Apr-15,33.08,33.36,32.54,33.05,166943
22-Apr-15,33.42,33.98,32.83,32.95,293512
21-Apr-15,32.62,33.33,32.40,33.11,299371
20-Apr-15,30.54,32.60,30.20,32.20,378003
17-Apr-15,30.43,30.62,29.36,30.11,305892
16-Apr-15,30.90,31.17,30.52,30.82,158412
15-Apr-15,30.74,31.22,30.52,31.10,158307
14-Apr-15,31.53,31.69,30.09,30.49,267752
13-Apr-15,31.79,31.96,31.40,31.47,141894
10-Apr-15,32.00,32.26,31.55,31.77,178693
9-Apr-15,32.10,32.28,31.18,31.97,249503
8-Apr-15,32.49,32.88,32.06,32.28,128996
7-Apr-15,32.06,32.75,31.96,32.36,220205
6-Apr-15,31.40,32.32,31.33,31.97,162567
2-Apr-15,31.75,32.12,31.30,31.50,156473
1-Apr-15,32.12,32.12,31.08,31.66,185013
31-Mar-15,31.81,32.39,31.76,32.06,255990
30-Mar-15,32.01,32.48,32.01,32.09,174321
27-Mar-15,31.77,32.06,31.36,31.84,206952
26-Mar-15,30.23,32.21,29.52,31.83,379362
25-Mar-15,31.62,31.90,30.30,30.47,352659
24-Mar-15,32.75,33.06,31.56,31.62,513273
23-Mar-15,33.77,34.10,32.55,33.19,408713
20-Mar-15,35.34,35.73,33.70,33.77,958212
19-Mar-15,34.56,35.86,34.41,35.11,537055
18-Mar-15,32.71,34.65,32.63,34.22,550988
17-Mar-15,32.14,33.47,31.87,32.67,744003
16-Mar-15,31.74,32.10,31.45,31.95,428755
13-Mar-15,31.83,31.98,31.26,31.40,364679
12-Mar-15,31.64,31.98,31.50,31.87,213025
11-Mar-15,30.72,31.89,30.56,31.49,539551
10-Mar-15,30.21,31.17,29.77,30.88,629851
9-Mar-15,31.88,31.88,29.14,30.65,952786
6-Mar-15,32.10,33.75,31.97,32.16,601288
5-Mar-15,31.59,32.79,31.41,32.35,265335
4-Mar-15,32.00,32.26,31.58,31.64,287874
3-Mar-15,31.81,32.88,31.63,31.92,489685
2-Mar-15,31.86,32.54,31.24,31.87,420171
27-Feb-15,32.72,33.95,31.56,31.88,729226
26-Feb-15,32.98,33.09,32.14,32.84,440568
25-Feb-15,33.05,33.29,32.32,32.94,238962
24-Feb-15,33.01,33.62,32.39,33.19,345765
23-Feb-15,33.78,34.06,32.20,32.91,418329
20-Feb-15,33.20,34.03,32.80,33.77,337569
19-Feb-15,32.60,35.12,32.60,33.39,713607
18-Feb-15,33.60,33.69,32.20,32.63,376168
17-Feb-15,32.37,33.98,31.43,33.56,683372
13-Feb-15,32.78,34.07,31.73,32.37,468474
12-Feb-15,31.80,33.70,31.05,33.08,777036
11-Feb-15,34.13,34.70,28.81,31.45,1902653
10-Feb-15,30.30,32.39,28.41,31.70,1182977
9-Feb-15,27.79,30.32,27.66,29.76,1272040
6-Feb-15,28.01,28.60,27.42,28.05,280063
5-Feb-15,27.09,28.41,27.09,28.00,465828
4-Feb-15,27.21,27.94,26.83,27.08,197553
3-Feb-15,26.10,27.81,26.00,27.58,463376
2-Feb-15,26.07,27.10,25.28,26.09,567567
30-Jan-15,27.27,27.78,25.13,26.17,851873
29-Jan-15,28.94,29.37,26.24,27.40,797902
28-Jan-15,28.47,30.20,27.81,28.76,1546190
27-Jan-15,27.36,28.72,26.78,28.12,588545
26-Jan-15,27.22,28.13,26.60,27.41,506706
23-Jan-15,26.12,28.23,26.12,27.04,697709
22-Jan-15,25.35,26.38,24.57,26.28,415695
21-Jan-15,23.89,25.84,23.40,25.26,429769
20-Jan-15,23.50,23.60,22.58,23.24,215796
16-Jan-15,23.50,23.90,23.06,23.49,254603
15-Jan-15,23.92,24.50,23.25,23.61,2855747
14-Jan-15,23.15,24.37,22.76,23.18,544599
13-Jan-15,24.52,24.69,23.16,23.61,431578
12-Jan-15,24.85,25.27,24.07,24.68,239100
9-Jan-15,26.72,26.95,25.18,25.43,111800
8-Jan-15,25.81,27.00,25.67,26.42,173184
7-Jan-15,24.62,25.48,24.50,25.34,77333
6-Jan-15,25.28,25.55,24.30,24.56,89889
5-Jan-15,25.95,25.95,25.08,25.18,58706
2-Jan-15,26.29,26.47,25.62,26.06,87588
31-Dec-14,26.18,26.98,26.00,26.33,62045
30-Dec-14,26.10,26.59,25.84,26.07,37843
29-Dec-14,26.60,26.81,25.59,26.24,63208
26-Dec-14,26.58,27.11,26.33,26.68,105022
24-Dec-14,27.21,27.21,26.01,26.49,57302
23-Dec-14,28.50,28.50,26.75,27.37,69086
22-Dec-14,27.35,28.84,27.18,28.43,101525
19-Dec-14,27.58,27.58,27.07,27.21,80192
18-Dec-14,27.50,28.14,26.87,27.58,128029
17-Dec-14,26.63,27.40,26.11,27.31,107564
16-Dec-14,23.99,26.88,23.88,26.59,174034
15-Dec-14,24.44,24.75,23.48,24.24,111909
12-Dec-14,25.19,25.37,23.80,24.46,149371
11-Dec-14,26.50,27.21,25.39,25.64,109021
10-Dec-14,27.24,27.45,26.17,26.59,72735
9-Dec-14,26.00,27.44,25.25,27.39,114047
8-Dec-14,27.35,27.51,26.29,26.42,86494
5-Dec-14,27.11,27.59,27.11,27.33,63044
4-Dec-14,26.81,27.96,26.11,27.27,131098
3-Dec-14,26.81,27.00,25.76,26.92,226684
2-Dec-14,28.86,29.26,26.93,27.60,296405
1-Dec-14,28.83,29.13,28.00,28.38,115677
28-Nov-14,28.45,29.42,28.31,28.75,114485
26-Nov-14,27.94,28.73,27.54,28.29,188922
25-Nov-14,27.58,27.79,26.50,27.68,320571
24-Nov-14,27.17,28.41,27.17,27.47,250673
21-Nov-14,26.56,27.72,26.07,26.93,202157
20-Nov-14,25.65,26.29,25.54,26.10,121791
19-Nov-14,24.96,26.33,24.61,25.69,154297
18-Nov-14,25.10,25.10,24.71,24.84,246271
17-Nov-14,23.84,25.46,23.55,24.85,421024
14-Nov-14,22.73,23.78,22.31,23.69,174461
13-Nov-14,22.35,23.33,22.22,22.60,92129
12-Nov-14,22.19,22.78,22.13,22.35,93966
11-Nov-14,22.22,23.37,22.18,22.50,248601
10-Nov-14,21.44,22.08,21.16,22.07,222725
7-Nov-14,21.52,21.65,21.09,21.42,133337
6-Nov-14,21.26,22.49,21.00,21.59,252987
5-Nov-14,18.62,22.11,18.62,21.15,677786
4-Nov-14,17.68,18.08,17.58,17.73,145539
3-Nov-14,17.82,17.92,17.60,17.68,49846
31-Oct-14,17.80,17.88,17.54,17.75,55632
30-Oct-14,16.79,17.47,16.74,17.43,94199
29-Oct-14,16.95,17.13,16.68,16.77,65922
28-Oct-14,16.60,17.32,16.60,16.91,97736
27-Oct-14,16.47,16.80,16.34,16.57,46934
24-Oct-14,16.60,16.65,16.32,16.51,39602
23-Oct-14,16.55,16.89,16.38,16.53,68720
22-Oct-14,16.67,16.74,16.38,16.48,71408
21-Oct-14,16.22,16.82,16.22,16.67,118375
20-Oct-14,16.33,16.44,16.17,16.34,37097
17-Oct-14,17.02,17.02,16.39,16.43,48594
16-Oct-14,16.05,16.79,16.00,16.76,100572
15-Oct-14,15.05,16.35,14.85,16.26,258169
14-Oct-14,15.08,15.40,14.87,15.04,216442
13-Oct-14,14.95,15.22,14.79,14.98,283914
10-Oct-14,14.75,15.59,14.68,14.88,194516
9-Oct-14,15.64,15.68,14.32,14.88,238387
8-Oct-14,15.70,15.93,15.59,15.68,112418
7-Oct-14,16.00,16.11,15.47,15.76,171634
6-Oct-14,16.63,16.64,16.01,16.15,62564
3-Oct-14,16.48,16.83,16.40,16.57,91635
2-Oct-14,16.02,16.33,15.74,16.30,140882
1-Oct-14,16.21,16.62,16.00,16.10,149154
30-Sep-14,16.95,17.03,16.31,16.56,188687
29-Sep-14,17.10,17.22,16.80,16.91,150366
26-Sep-14,17.00,17.51,17.00,17.22,68877
25-Sep-14,18.31,18.31,16.82,16.99,109512
24-Sep-14,18.50,18.59,17.67,18.42,187222
23-Sep-14,18.29,18.77,17.90,18.30,307895
22-Sep-14,18.85,19.14,17.54,18.28,398772
19-Sep-14,18.08,19.24,17.46,18.99,561559
18-Sep-14,17.80,18.19,17.03,18.05,188759
17-Sep-14,17.98,18.04,17.53,17.73,95221
16-Sep-14,17.16,18.13,16.85,17.89,252481
15-Sep-14,17.83,17.92,16.50,17.16,195957
12-Sep-14,16.80,18.03,16.80,17.74,278591
11-Sep-14,16.22,17.03,16.06,16.70,174608
10-Sep-14,16.16,16.45,15.86,16.36,85482
9-Sep-14,16.39,16.39,15.81,16.11,147290
8-Sep-14,16.38,16.58,15.99,16.39,134018
5-Sep-14,16.48,16.58,16.04,16.43,118834
4-Sep-14,17.50,17.57,16.21,16.65,335663
3-Sep-14,18.22,18.22,17.11,17.35,451738
2-Sep-14,18.14,18.32,17.93,18.08,135868
29-Aug-14,17.86,18.10,17.61,17.92,84179
28-Aug-14,17.87,18.02,17.53,17.88,49491
27-Aug-14,18.34,18.34,17.79,17.98,97521
26-Aug-14,17.26,18.06,17.16,18.05,158224
25-Aug-14,17.55,17.55,16.84,17.25,74209
22-Aug-14,16.59,17.69,16.37,17.45,451444
21-Aug-14,15.68,16.65,15.51,16.54,64140
20-Aug-14,16.11,16.33,15.42,15.77,105348
19-Aug-14,16.50,16.50,16.12,16.19,47765
18-Aug-14,17.00,17.00,16.06,16.45,191237
15-Aug-14,15.46,17.08,15.26,16.84,133407
14-Aug-14,14.83,15.66,14.83,15.26,135433
13-Aug-14,13.98,14.78,13.92,14.75,378540
12-Aug-14,13.83,13.98,13.81,13.89,40873
11-Aug-14,13.70,13.92,13.65,13.91,41396
8-Aug-14,13.86,13.97,13.26,13.58,114223
7-Aug-14,13.94,14.02,13.75,13.82,53975
6-Aug-14,13.07,14.08,12.90,13.83,208329
5-Aug-14,12.61,12.65,12.48,12.49,57736
4-Aug-14,12.77,12.77,12.50,12.69,48925
1-Aug-14,12.84,12.90,12.35,12.65,61443
31-Jul-14,12.91,13.00,12.65,12.78,41646
30-Jul-14,13.10,13.10,12.84,13.00,56476
29-Jul-14,13.06,13.09,12.79,12.88,34719
28-Jul-14,12.95,13.04,12.75,12.96,53960
25-Jul-14,13.23,13.46,12.91,13.00,142533
24-Jul-14,12.92,13.12,12.92,13.00,95662
23-Jul-14,12.69,12.98,12.59,12.84,17723
22-Jul-14,12.87,12.87,12.55,12.62,19853
21-Jul-14,12.45,12.87,12.28,12.78,37767
18-Jul-14,12.34,12.62,12.28,12.48,24084
17-Jul-14,12.79,13.04,12.32,12.41,79164
16-Jul-14,13.00,13.06,12.80,12.85,91305
15-Jul-14,13.23,13.25,12.64,12.97,87015
14-Jul-14,13.05,13.75,13.02,13.29,130052
11-Jul-14,13.25,13.33,13.02,13.03,62691
10-Jul-14,13.25,13.44,13.25,13.30,83568
9-Jul-14,13.44,13.61,13.28,13.42,53598
8-Jul-14,14.00,14.13,13.38,13.43,113912
7-Jul-14,14.55,14.66,14.01,14.02,65783
3-Jul-14,14.27,14.72,14.27,14.68,23265
2-Jul-14,14.54,14.57,14.20,14.25,52423
1-Jul-14,14.62,14.74,14.16,14.60,56091
30-Jun-14,14.27,14.66,13.91,14.59,169491
27-Jun-14,14.84,15.22,13.98,13.98,767332
26-Jun-14,14.68,15.16,14.56,14.72,91885
25-Jun-14,14.65,14.74,14.17,14.72,59155
24-Jun-14,14.56,15.00,14.50,14.70,130306
23-Jun-14,14.20,14.65,14.09,14.64,58636
20-Jun-14,14.36,14.71,14.12,14.12,186908
19-Jun-14,14.13,14.30,14.12,14.29,55054
18-Jun-14,13.79,14.39,13.72,14.17,78427
17-Jun-14,14.34,14.38,13.45,14.00,98196
16-Jun-14,14.57,14.61,14.25,14.44,106841
13-Jun-14,14.07,14.07,13.40,14.00,65097
12-Jun-14,14.46,14.47,13.91,13.97,120452
11-Jun-14,14.35,14.54,14.25,14.46,24913
10-Jun-14,14.65,14.67,14.35,14.43,59673
9-Jun-14,14.45,14.67,14.19,14.64,104535
6-Jun-14,14.33,14.50,13.89,14.45,42504
5-Jun-14,13.01,14.43,13.01,14.17,67643
4-Jun-14,14.00,14.44,13.59,14.30,73733
3-Jun-14,13.74,14.11,13.43,14.03,84773
2-Jun-14,13.49,13.83,13.18,13.54,47627
30-May-14,13.41,13.52,13.24,13.35,76145
29-May-14,13.45,13.82,13.43,13.48,64597
28-May-14,14.08,14.08,13.12,13.25,244016
27-May-14,14.57,14.81,13.76,14.03,68065
23-May-14,15.35,15.35,14.31,14.53,352733
22-May-14,13.91,15.61,13.84,15.38,85255
21-May-14,14.25,14.25,13.87,14.00,47355
20-May-14,13.50,14.30,13.37,14.00,141141
19-May-14,13.85,13.85,13.10,13.24,202525
16-May-14,14.29,14.68,13.57,13.81,119712
15-May-14,14.00,14.31,13.61,14.29,110498
14-May-14,14.15,14.29,13.91,14.07,105628
13-May-14,14.57,14.87,13.68,13.87,90794
12-May-14,14.73,14.87,14.09,14.09,111201
9-May-14,15.12,15.17,14.12,14.51,76003
8-May-14,15.25,15.33,15.18,15.18,18606
7-May-14,15.26,15.29,14.95,15.05,92607
6-May-14,15.63,15.63,15.25,15.31,31911
5-May-14,15.69,15.99,15.68,15.68,13252
2-May-14,15.69,16.06,15.69,15.80,22281
1-May-14,15.29,15.90,15.29,15.67,39866
30-Apr-14,15.17,15.51,15.06,15.41,53562
29-Apr-14,15.01,15.45,15.01,15.28,68530
28-Apr-14,15.43,15.66,14.51,14.97,197460
25-Apr-14,15.75,15.75,15.25,15.30,71590
24-Apr-14,16.28,16.30,15.75,15.75,42799
23-Apr-14,15.82,16.18,15.80,16.07,56538
22-Apr-14,16.20,16.69,15.76,15.98,96099
21-Apr-14,16.59,16.59,16.01,16.10,77904
17-Apr-14,15.95,16.55,15.71,16.25,262050
16-Apr-14,15.35,16.09,15.21,15.62,266491
15-Apr-14,17.90,17.92,15.15,15.35,3531656
