﻿Date,Open,High,Low,Close,Volume
20-Jun-17,64.00,67.53,62.90,63.38,418300
19-Jun-17,62.78,65.07,62.41,63.87,362300
16-Jun-17,61.16,63.04,60.60,62.48,929929
15-Jun-17,61.21,63.68,60.18,61.85,378635
14-Jun-17,58.76,63.04,57.92,61.73,664080
13-Jun-17,54.97,58.70,54.39,58.67,617318
12-Jun-17,57.37,57.92,54.15,54.77,727040
9-Jun-17,57.09,59.76,56.14,57.31,562144
8-Jun-17,55.41,57.00,55.23,56.93,301503
7-Jun-17,57.66,58.12,55.45,55.78,371674
6-Jun-17,55.49,58.60,55.31,57.27,602577
5-Jun-17,57.30,57.90,55.10,56.23,319019
2-Jun-17,56.64,57.87,56.22,56.84,432573
1-Jun-17,54.21,57.71,54.02,56.61,412076
31-May-17,53.42,54.54,51.67,53.85,278495
30-May-17,55.75,56.00,52.96,53.01,325320
26-May-17,57.45,58.61,55.55,55.91,304845
25-May-17,60.27,60.61,57.98,58.52,313639
24-May-17,57.54,61.04,56.75,60.01,442314
23-May-17,57.64,57.75,56.30,57.55,262084
22-May-17,57.60,57.71,56.43,57.38,234765
19-May-17,59.10,59.54,57.39,57.47,286129
18-May-17,58.29,59.80,58.23,59.01,255019
17-May-17,58.08,59.49,57.68,58.31,367818
16-May-17,58.17,59.59,58.17,59.38,170954
15-May-17,58.18,59.24,57.66,58.86,203925
12-May-17,57.64,58.66,57.14,57.95,350683
11-May-17,58.90,59.52,57.06,57.69,457650
10-May-17,60.98,61.44,59.06,59.39,270914
9-May-17,60.62,62.08,59.83,61.38,305644
8-May-17,60.69,61.00,59.42,60.09,356307
5-May-17,62.25,62.75,59.33,61.08,586933
4-May-17,60.32,61.54,60.05,61.22,529722
3-May-17,60.72,61.28,58.35,59.91,665946
2-May-17,63.38,64.15,59.90,61.00,730070
1-May-17,64.64,64.65,62.50,63.42,452370
28-Apr-17,64.76,65.01,63.45,64.39,233253
27-Apr-17,65.80,66.13,64.51,64.54,303463
26-Apr-17,65.09,66.33,64.69,65.68,353656
25-Apr-17,62.34,65.16,62.05,65.02,752903
24-Apr-17,61.42,62.16,61.03,61.31,327281
21-Apr-17,61.74,62.40,59.95,60.57,669457
20-Apr-17,60.85,62.53,59.62,62.04,887963
19-Apr-17,65.05,66.17,60.10,60.89,4408257
18-Apr-17,60.92,63.94,59.45,60.08,700243
17-Apr-17,59.69,61.46,59.60,61.45,425323
13-Apr-17,57.40,60.41,57.05,60.28,534302
12-Apr-17,57.89,58.71,57.20,57.66,364294
11-Apr-17,57.34,58.96,56.17,57.69,459616
10-Apr-17,58.94,59.36,57.37,57.51,301578
7-Apr-17,58.44,60.11,58.06,58.83,422308
6-Apr-17,61.15,63.26,58.32,58.59,947930
5-Apr-17,65.29,65.74,61.22,61.71,639888
4-Apr-17,64.63,66.13,64.41,64.97,511708
3-Apr-17,67.42,68.46,64.64,64.70,699128
31-Mar-17,67.30,68.45,66.68,67.78,667394
30-Mar-17,66.59,67.44,65.55,67.30,543441
29-Mar-17,66.98,67.96,66.60,66.72,516066
28-Mar-17,69.87,70.79,66.85,67.66,596265
27-Mar-17,69.00,71.41,68.47,69.98,585539
24-Mar-17,72.38,72.38,67.91,70.32,1376799
23-Mar-17,73.11,73.88,70.51,71.99,2164045
22-Mar-17,77.73,79.92,77.25,78.36,591403
21-Mar-17,85.74,85.78,77.45,77.72,463475
20-Mar-17,84.73,85.74,83.40,85.07,290287
17-Mar-17,84.48,86.14,84.01,84.61,944044
16-Mar-17,87.67,88.95,85.13,85.56,362146
15-Mar-17,84.73,88.59,82.53,88.11,482937
14-Mar-17,83.38,85.18,82.56,84.39,318461
13-Mar-17,85.63,85.68,84.14,84.22,269361
10-Mar-17,87.16,87.16,84.79,85.97,263409
9-Mar-17,85.97,87.32,85.20,86.28,228836
8-Mar-17,85.31,87.28,84.26,85.78,303106
7-Mar-17,86.50,88.64,84.86,85.15,449896
6-Mar-17,87.57,88.67,86.43,87.71,255117
3-Mar-17,85.68,88.28,85.56,88.25,412107
2-Mar-17,89.00,91.34,85.22,85.46,533299
1-Mar-17,86.93,89.27,85.21,88.80,790714
28-Feb-17,84.65,87.22,83.09,85.08,728383
27-Feb-17,77.55,85.58,77.31,85.16,1120337
24-Feb-17,75.90,77.57,73.69,77.47,280005
23-Feb-17,78.29,78.47,75.03,76.88,468934
22-Feb-17,77.00,78.82,76.53,78.18,362662
21-Feb-17,77.23,78.71,76.39,76.92,453213
17-Feb-17,78.25,78.25,72.88,76.91,708333
16-Feb-17,77.58,77.58,74.94,76.82,432478
15-Feb-17,76.12,77.20,74.98,76.76,347308
14-Feb-17,74.68,76.34,73.91,76.24,284327
13-Feb-17,74.50,75.50,74.15,74.77,359716
10-Feb-17,73.87,74.50,72.26,73.90,371858
9-Feb-17,71.52,73.89,71.52,73.66,1054966
8-Feb-17,72.37,72.84,71.03,71.38,425702
7-Feb-17,73.99,75.00,72.54,72.91,423782
6-Feb-17,73.89,74.48,72.60,73.99,397826
3-Feb-17,74.49,74.75,73.72,74.11,485622
2-Feb-17,74.45,76.19,73.54,73.88,378735
1-Feb-17,75.57,76.02,73.68,75.00,508658
31-Jan-17,67.03,75.10,66.56,75.01,539939
30-Jan-17,68.65,68.84,66.06,67.80,241696
27-Jan-17,68.72,69.98,68.52,69.15,184061
26-Jan-17,69.89,70.81,68.21,68.66,219064
25-Jan-17,70.95,71.38,69.14,69.86,213878
24-Jan-17,68.63,70.24,66.66,70.04,358223
23-Jan-17,68.65,69.14,67.23,68.39,350990
20-Jan-17,70.02,70.50,68.30,68.70,389875
19-Jan-17,70.59,71.25,69.30,69.86,298983
18-Jan-17,69.60,70.89,68.30,70.75,383012
17-Jan-17,72.19,72.19,69.03,69.19,544897
13-Jan-17,72.93,75.40,72.42,73.01,371415
12-Jan-17,70.00,74.18,69.49,72.97,315225
11-Jan-17,73.60,74.34,69.77,71.10,574377
10-Jan-17,75.23,75.94,72.36,73.85,364643
9-Jan-17,77.21,77.76,74.21,74.77,603297
6-Jan-17,76.25,78.60,75.79,76.97,408665
5-Jan-17,75.60,77.05,73.61,76.37,390271
4-Jan-17,70.31,76.21,70.31,75.45,465564
3-Jan-17,71.38,72.57,69.39,69.97,320061
30-Dec-16,70.28,71.16,69.66,70.31,241166
29-Dec-16,71.36,72.34,69.45,70.16,253319
28-Dec-16,74.02,74.05,71.10,71.22,343726
27-Dec-16,74.27,75.90,73.44,73.86,341313
23-Dec-16,71.22,74.03,70.76,73.79,497493
22-Dec-16,72.48,72.98,70.42,71.28,288919
21-Dec-16,73.11,74.87,71.19,72.22,346583
20-Dec-16,72.08,73.48,71.67,72.95,305334
19-Dec-16,71.91,73.50,71.17,71.34,418110
16-Dec-16,72.25,74.79,71.36,72.25,1267456
15-Dec-16,70.92,72.53,69.32,72.34,548127
14-Dec-16,69.60,71.25,69.21,70.48,386211
13-Dec-16,71.48,72.26,69.14,69.51,562228
12-Dec-16,70.21,71.70,69.31,70.59,524506
9-Dec-16,72.66,75.01,70.03,70.74,539833
8-Dec-16,70.99,72.50,68.47,71.96,770580
7-Dec-16,75.58,76.46,71.22,71.33,664815
6-Dec-16,77.06,77.64,73.76,76.92,585835
5-Dec-16,76.03,79.78,75.48,76.83,531429
2-Dec-16,74.37,77.46,74.32,74.55,518474
1-Dec-16,79.29,79.76,74.59,74.69,751197
30-Nov-16,85.00,85.29,77.55,78.29,898067
29-Nov-16,82.09,84.88,79.31,84.19,574741
28-Nov-16,86.27,86.27,80.45,81.67,711209
25-Nov-16,85.30,86.77,83.00,86.74,247843
23-Nov-16,78.57,86.10,76.94,85.81,572702
22-Nov-16,84.97,85.52,80.11,80.75,610655
21-Nov-16,82.81,84.84,80.94,84.66,438314
18-Nov-16,81.18,83.00,79.67,82.72,469384
17-Nov-16,78.47,81.69,76.12,81.42,499553
16-Nov-16,81.21,83.69,77.03,77.84,589657
15-Nov-16,80.87,83.11,78.49,81.43,702209
14-Nov-16,79.69,83.67,76.35,81.74,1132139
11-Nov-16,74.36,82.48,73.51,82.06,1333903
10-Nov-16,72.45,80.96,72.45,78.72,1639655
9-Nov-16,67.27,76.31,64.13,71.72,1323122
8-Nov-16,57.54,61.76,56.32,61.17,951500
7-Nov-16,56.55,59.36,55.25,58.54,856688
4-Nov-16,53.25,56.34,53.25,55.25,791949
3-Nov-16,58.09,58.09,52.60,52.70,868752
2-Nov-16,59.83,59.99,57.68,58.04,535463
1-Nov-16,59.47,61.12,58.10,60.22,573699
31-Oct-16,62.73,63.22,58.88,58.99,423198
28-Oct-16,62.44,64.39,59.29,62.62,600217
27-Oct-16,64.13,64.77,62.42,62.77,489404
26-Oct-16,62.82,64.43,61.98,63.13,507928
25-Oct-16,66.02,66.72,62.98,63.05,345730
24-Oct-16,66.91,68.36,65.59,65.97,381274
21-Oct-16,66.47,67.10,65.11,66.40,1233503
20-Oct-16,62.22,66.84,61.71,66.61,854586
19-Oct-16,62.28,62.81,60.28,61.55,390180
18-Oct-16,61.73,62.86,61.43,62.14,310383
17-Oct-16,61.78,62.08,59.96,60.75,424007
14-Oct-16,66.75,67.29,61.54,61.57,598673
13-Oct-16,64.56,67.20,64.26,66.18,611395
12-Oct-16,70.05,70.96,64.88,65.51,696565
11-Oct-16,72.07,73.27,69.50,70.04,558382
10-Oct-16,71.88,73.55,71.21,72.92,365835
7-Oct-16,69.66,71.85,68.51,70.84,583793
6-Oct-16,71.82,72.48,69.20,69.76,690138
5-Oct-16,70.71,75.48,70.15,72.85,652722
4-Oct-16,71.06,71.93,69.76,70.03,291822
3-Oct-16,70.50,71.92,68.86,70.85,478058
30-Sep-16,68.66,72.42,68.15,70.94,460886
29-Sep-16,71.26,71.84,68.46,68.58,685645
28-Sep-16,72.71,73.83,70.27,71.56,449679
27-Sep-16,71.09,72.82,70.51,72.74,428754
26-Sep-16,72.13,73.08,70.76,71.25,342069
23-Sep-16,74.34,75.31,72.50,72.60,511138
22-Sep-16,74.61,75.19,72.85,74.05,398898
21-Sep-16,76.56,76.90,71.13,73.79,1345190
20-Sep-16,77.62,78.62,75.16,75.95,851531
19-Sep-16,78.32,81.40,75.86,76.58,1159582
16-Sep-16,73.81,77.27,72.92,77.12,846423
15-Sep-16,72.30,74.73,71.71,74.19,522112
14-Sep-16,70.23,72.36,69.53,72.13,546702
13-Sep-16,70.57,71.21,67.56,69.88,568537
12-Sep-16,65.67,71.59,65.67,71.39,561643
9-Sep-16,68.52,69.60,66.32,66.41,493590
8-Sep-16,68.12,69.78,67.28,69.65,411959
7-Sep-16,67.64,69.95,67.26,68.03,401409
6-Sep-16,65.66,69.30,65.29,67.38,594279
2-Sep-16,66.62,67.16,64.57,65.13,353003
1-Sep-16,66.26,66.72,64.99,66.28,280763
31-Aug-16,66.67,66.81,65.39,65.92,514484
30-Aug-16,64.89,67.50,64.73,66.81,544671
29-Aug-16,65.65,66.33,64.10,65.02,353069
26-Aug-16,62.91,67.75,62.91,65.50,703934
25-Aug-16,64.15,65.38,62.01,63.20,547743
24-Aug-16,69.07,70.00,63.32,64.10,905180
23-Aug-16,68.53,70.60,67.94,69.36,856126
22-Aug-16,66.99,68.27,66.00,68.10,776411
19-Aug-16,65.67,67.25,65.17,66.00,338647
18-Aug-16,65.14,66.07,64.18,65.84,346457
17-Aug-16,65.69,65.79,64.57,65.07,411519
16-Aug-16,67.55,67.55,64.87,65.66,448032
15-Aug-16,66.86,68.72,66.55,67.59,433912
12-Aug-16,68.00,68.29,64.52,66.54,645250
11-Aug-16,63.72,69.36,63.50,68.35,1028111
10-Aug-16,64.72,64.99,62.75,63.28,420686
9-Aug-16,66.01,66.24,62.47,64.97,456142
8-Aug-16,66.41,67.01,64.04,65.35,396056
5-Aug-16,64.59,66.62,64.05,66.40,267744
4-Aug-16,65.40,67.59,63.88,64.24,331239
3-Aug-16,63.14,65.11,62.65,65.04,300267
2-Aug-16,63.22,64.92,61.87,63.33,420305
1-Aug-16,63.44,65.12,62.69,63.53,557303
29-Jul-16,61.09,63.50,60.85,63.28,631547
28-Jul-16,61.27,63.17,60.33,61.01,581444
27-Jul-16,57.49,61.67,57.49,61.43,1211660
26-Jul-16,53.95,58.17,53.65,57.19,935240
25-Jul-16,53.93,54.58,53.00,54.22,375222
22-Jul-16,52.71,53.96,51.89,53.73,593143
21-Jul-16,53.00,53.99,51.50,52.32,443590
20-Jul-16,50.80,53.78,50.58,52.77,679465
19-Jul-16,53.35,53.75,50.25,50.55,771558
18-Jul-16,53.46,54.39,51.87,53.53,700260
15-Jul-16,51.14,53.78,49.97,53.17,1060029
14-Jul-16,52.19,52.92,48.33,49.54,1054531
13-Jul-16,54.60,55.52,50.64,50.85,871718
12-Jul-16,54.43,57.08,53.32,54.40,1042849
11-Jul-16,53.73,55.37,52.68,52.88,691253
8-Jul-16,52.55,54.15,51.75,53.35,513556
7-Jul-16,52.97,53.88,52.16,52.50,846917
6-Jul-16,49.54,51.95,49.25,51.76,488671
5-Jul-16,51.00,51.00,49.06,49.99,673933
1-Jul-16,49.19,52.20,49.04,51.71,547514
30-Jun-16,49.68,50.60,48.21,48.91,692033
29-Jun-16,52.16,52.18,48.88,49.75,887249
28-Jun-16,48.49,50.97,48.38,50.73,1158129
27-Jun-16,48.18,49.65,46.52,47.26,985744
24-Jun-16,48.83,50.24,48.52,49.17,1024677
23-Jun-16,52.99,53.53,50.81,51.95,816359
22-Jun-16,51.94,54.99,50.27,52.40,895655
21-Jun-16,54.86,54.86,51.14,52.03,1099151
20-Jun-16,56.28,57.15,54.09,54.50,978756
17-Jun-16,58.74,58.82,54.72,54.99,1346577
16-Jun-16,62.16,62.16,59.16,59.76,666519
15-Jun-16,61.59,63.86,61.02,62.64,843930
14-Jun-16,59.89,61.92,59.74,61.00,804568
13-Jun-16,61.29,62.20,59.16,60.01,765689
10-Jun-16,65.44,65.48,61.50,61.58,980754
9-Jun-16,70.33,71.93,65.69,65.85,733794
8-Jun-16,70.80,71.58,69.12,71.28,643510
7-Jun-16,71.67,71.86,68.62,70.17,687480
6-Jun-16,69.26,73.16,66.32,72.95,641167
3-Jun-16,73.05,73.05,67.55,69.53,722519
2-Jun-16,70.48,74.97,70.25,73.69,934096
1-Jun-16,72.40,73.70,70.26,70.57,685680
31-May-16,69.72,74.68,69.72,73.10,1335001
27-May-16,69.12,69.55,67.23,68.57,536978
26-May-16,68.39,70.86,67.27,69.53,476188
25-May-16,68.54,71.10,67.76,68.59,642420
24-May-16,65.95,69.19,64.65,68.28,692599
23-May-16,64.09,67.09,63.70,65.19,417546
20-May-16,61.35,64.24,60.44,64.01,550482
19-May-16,62.87,64.59,60.29,61.46,557351
18-May-16,58.44,63.30,58.44,63.18,413045
17-May-16,59.17,61.20,57.85,58.88,619892
16-May-16,59.38,62.12,58.71,59.49,552075
13-May-16,58.20,60.61,57.41,59.26,327553
12-May-16,59.99,60.60,56.25,58.56,563032
11-May-16,63.68,64.53,59.20,59.43,668880
10-May-16,62.44,65.46,59.85,63.55,666079
9-May-16,63.51,66.06,61.91,64.36,518965
6-May-16,61.61,64.85,60.40,63.16,478372
5-May-16,63.60,63.60,59.88,62.45,412427
4-May-16,65.46,66.37,62.51,63.09,585161
3-May-16,68.77,69.71,65.37,65.56,573470
2-May-16,67.75,69.58,65.54,69.46,403960
29-Apr-16,67.77,69.22,65.05,67.62,460910
28-Apr-16,69.33,70.72,67.56,68.00,372587
27-Apr-16,71.02,71.02,67.65,69.58,425777
26-Apr-16,72.57,72.62,70.45,70.88,402550
25-Apr-16,76.31,76.97,72.97,73.19,427518
22-Apr-16,75.73,76.41,72.44,76.02,454567
21-Apr-16,71.52,75.48,70.06,75.41,526920
20-Apr-16,70.39,71.42,68.71,70.51,385920
19-Apr-16,73.45,73.73,69.59,69.86,587730
18-Apr-16,70.36,73.83,69.44,73.70,439654
15-Apr-16,70.74,71.50,68.80,70.85,281800
14-Apr-16,71.65,71.91,68.40,70.94,367835
13-Apr-16,69.48,71.72,67.95,71.34,344597
12-Apr-16,66.80,69.59,65.08,69.25,462428
11-Apr-16,71.07,71.07,66.80,66.98,456731
8-Apr-16,71.58,72.00,66.75,70.65,583806
7-Apr-16,72.62,78.13,69.74,70.14,606926
6-Apr-16,67.80,74.96,67.46,73.51,650258
5-Apr-16,66.96,70.78,66.40,67.62,546045
4-Apr-16,66.93,70.48,66.14,67.62,758224
1-Apr-16,63.15,66.96,62.28,66.46,509588
31-Mar-16,57.80,64.36,57.06,63.31,612345
30-Mar-16,59.89,62.20,57.17,57.30,793961
29-Mar-16,56.82,59.36,54.30,59.13,556120
28-Mar-16,59.60,60.72,56.64,56.81,475225
24-Mar-16,58.40,61.97,56.20,59.02,554846
23-Mar-16,62.09,63.72,58.49,58.80,1011554
22-Mar-16,57.27,63.88,57.27,62.42,937433
21-Mar-16,55.79,58.61,55.43,57.69,928210
18-Mar-16,54.63,57.62,51.02,56.32,1221505
17-Mar-16,53.44,54.78,50.22,54.28,671812
16-Mar-16,54.22,55.68,52.10,53.43,556067
15-Mar-16,57.77,58.17,53.59,54.73,529434
14-Mar-16,59.93,61.90,58.03,58.70,646143
11-Mar-16,56.01,60.60,55.00,60.00,838499
10-Mar-16,59.09,61.03,53.25,54.95,964473
9-Mar-16,62.35,62.93,58.00,58.61,920710
8-Mar-16,66.50,67.00,61.52,61.90,807447
7-Mar-16,62.24,66.38,60.53,65.82,643316
4-Mar-16,64.17,65.19,62.00,62.74,660174
3-Mar-16,67.70,68.65,62.60,63.38,617659
2-Mar-16,64.00,70.00,63.52,67.78,976741
1-Mar-16,61.63,64.85,59.46,64.70,811643
29-Feb-16,62.56,64.77,60.04,60.99,866606
26-Feb-16,60.52,63.87,59.11,62.30,589735
25-Feb-16,62.70,64.97,60.03,60.85,638270
24-Feb-16,60.02,62.99,58.24,62.74,494238
23-Feb-16,62.74,64.19,60.65,60.83,741709
22-Feb-16,64.11,65.95,62.39,63.72,657720
19-Feb-16,60.47,64.84,59.09,63.27,485101
18-Feb-16,61.86,63.67,59.06,60.52,778938
17-Feb-16,59.08,63.46,57.50,61.50,725488
16-Feb-16,55.80,58.90,55.09,57.89,673826
12-Feb-16,54.33,55.18,51.05,54.77,731631
11-Feb-16,51.48,54.44,50.01,53.44,515376
10-Feb-16,52.19,56.98,50.36,53.24,1073617
9-Feb-16,49.70,54.63,49.00,51.64,1211220
8-Feb-16,52.28,53.85,49.23,50.72,881987
5-Feb-16,54.15,56.16,53.11,53.85,662246
4-Feb-16,57.89,59.34,52.02,54.26,1255380
3-Feb-16,60.96,61.11,51.52,58.46,1167450
2-Feb-16,60.81,63.25,59.42,60.78,1118097
1-Feb-16,56.57,62.33,54.86,62.01,957417
29-Jan-16,60.82,63.78,54.00,56.15,1540216
28-Jan-16,65.88,66.71,58.47,61.07,993241
27-Jan-16,73.65,75.21,64.17,64.83,1199216
26-Jan-16,77.36,78.41,70.00,73.67,592641
25-Jan-16,75.18,80.38,74.69,76.89,567162
22-Jan-16,76.86,77.90,73.37,75.39,477329
21-Jan-16,78.96,82.94,73.53,74.71,566671
20-Jan-16,70.05,78.57,65.75,77.96,770917
19-Jan-16,81.16,82.62,69.26,71.52,666846
15-Jan-16,78.13,80.83,76.29,79.63,696072
14-Jan-16,78.17,82.39,70.49,82.30,666287
13-Jan-16,87.32,88.85,75.55,76.82,898093
12-Jan-16,82.85,92.16,79.47,86.51,955778
11-Jan-16,87.16,87.64,76.88,80.15,719024
8-Jan-16,93.14,94.40,86.20,86.44,499905
7-Jan-16,90.97,94.14,89.16,93.03,665091
6-Jan-16,95.69,96.27,91.78,94.03,420631
5-Jan-16,102.00,102.75,97.03,98.93,350492
4-Jan-16,108.80,110.06,101.54,101.86,544307
31-Dec-15,112.64,116.10,111.73,112.18,317178
30-Dec-15,116.35,117.12,112.72,113.03,276673
29-Dec-15,114.45,116.48,113.48,116.20,288450
28-Dec-15,112.66,114.62,109.80,113.26,200035
24-Dec-15,114.33,114.89,112.24,113.84,138488
23-Dec-15,114.01,116.56,112.37,114.31,220625
22-Dec-15,115.79,115.88,110.02,113.10,258409
21-Dec-15,110.97,116.37,110.00,113.16,398697
18-Dec-15,109.72,112.10,108.45,109.87,1025863
17-Dec-15,112.00,113.15,107.99,110.37,281710
16-Dec-15,106.61,111.68,106.61,111.43,365164
15-Dec-15,102.91,106.29,102.07,105.40,282773
14-Dec-15,98.60,102.66,97.58,101.91,245414
11-Dec-15,98.06,101.43,96.52,98.18,335723
10-Dec-15,102.25,103.00,96.32,100.79,529613
9-Dec-15,103.68,104.22,101.11,102.69,518198
8-Dec-15,96.22,104.65,94.38,104.34,486638
7-Dec-15,100.22,101.70,96.06,97.87,573776
4-Dec-15,94.89,100.84,92.73,100.28,687681
3-Dec-15,98.90,101.50,95.37,95.89,573176
2-Dec-15,102.00,102.00,96.83,98.45,471432
1-Dec-15,101.02,103.88,98.40,102.35,331395
30-Nov-15,100.91,100.91,95.77,98.32,226129
27-Nov-15,95.84,101.65,95.50,100.82,135218
25-Nov-15,93.85,96.47,93.78,94.93,312512
24-Nov-15,97.75,98.18,91.88,94.46,418243
23-Nov-15,93.62,101.46,93.25,98.75,322271
20-Nov-15,98.40,98.99,93.57,93.92,471912
19-Nov-15,103.26,105.19,96.26,97.71,243856
18-Nov-15,99.90,104.96,98.55,103.76,255438
17-Nov-15,97.08,103.76,95.52,99.94,356628
16-Nov-15,95.50,97.89,94.01,96.39,211840
13-Nov-15,94.36,98.42,93.47,95.70,276122
12-Nov-15,95.58,99.54,93.02,94.71,324396
11-Nov-15,97.51,102.54,96.02,96.34,224538
10-Nov-15,100.91,100.91,92.03,97.43,601342
9-Nov-15,103.33,105.91,101.87,102.33,419683
6-Nov-15,102.50,105.88,99.12,103.74,415788
5-Nov-15,108.82,109.56,100.68,103.04,551065
4-Nov-15,110.19,112.70,108.34,108.57,331963
3-Nov-15,108.81,111.73,106.08,109.66,416515
2-Nov-15,100.02,110.35,99.28,109.63,462676
30-Oct-15,100.36,101.64,98.02,99.35,317403
29-Oct-15,106.67,108.92,96.55,100.12,361596
28-Oct-15,101.32,106.53,98.53,106.20,433760
27-Oct-15,97.03,102.39,96.25,101.25,401054
26-Oct-15,96.28,100.73,93.33,97.28,356264
23-Oct-15,92.62,101.54,92.29,96.95,576235
22-Oct-15,87.31,93.68,84.76,90.72,592556
21-Oct-15,86.58,88.57,81.54,87.02,323379
20-Oct-15,88.54,89.09,85.19,85.74,474308
19-Oct-15,87.01,91.49,83.82,88.94,539742
16-Oct-15,85.27,89.38,84.49,86.81,455573
15-Oct-15,81.09,86.16,80.59,84.85,842684
14-Oct-15,83.30,86.59,79.34,81.13,530995
13-Oct-15,89.84,89.85,82.11,82.49,695690
12-Oct-15,91.56,93.00,88.82,89.89,330500
9-Oct-15,88.05,93.27,85.78,90.70,471569
8-Oct-15,94.56,99.93,81.81,87.87,700844
7-Oct-15,94.99,95.90,90.32,95.27,374756
6-Oct-15,99.47,101.72,89.00,94.12,559416
5-Oct-15,106.51,107.64,98.14,100.00,407874
2-Oct-15,96.66,108.00,94.22,104.69,651148
1-Oct-15,95.32,99.44,90.24,98.98,537700
30-Sep-15,88.39,96.79,86.44,96.31,645385
29-Sep-15,88.27,94.87,83.40,86.61,547889
28-Sep-15,93.02,97.01,84.72,87.89,824408
25-Sep-15,103.61,103.61,92.13,94.11,604538
24-Sep-15,105.43,106.29,97.61,101.68,490585
23-Sep-15,107.65,111.00,105.01,106.41,369981
22-Sep-15,109.79,111.08,103.01,107.63,730800
21-Sep-15,130.05,130.83,110.00,111.80,805304
18-Sep-15,129.11,131.31,128.47,129.91,828846
17-Sep-15,124.45,133.40,123.62,131.47,346876
16-Sep-15,124.22,127.58,121.15,124.71,396755
15-Sep-15,122.88,125.89,121.64,123.75,286997
14-Sep-15,122.32,124.16,119.25,122.83,261211
11-Sep-15,119.57,121.98,119.27,121.71,302498
10-Sep-15,120.74,122.99,119.07,120.58,397394
9-Sep-15,126.00,127.58,120.00,121.03,273644
8-Sep-15,118.80,125.17,116.83,124.83,364279
4-Sep-15,114.86,119.00,113.76,116.29,339853
3-Sep-15,115.51,119.43,114.00,116.25,518849
2-Sep-15,112.92,121.76,109.85,121.69,491200
1-Sep-15,110.00,113.92,108.14,111.08,705859
31-Aug-15,112.50,115.06,110.56,111.62,361110
28-Aug-15,107.03,114.83,106.24,113.43,451442
27-Aug-15,109.78,113.79,104.31,108.10,597306
26-Aug-15,101.89,107.84,97.15,107.40,691178
25-Aug-15,97.53,102.71,94.01,99.29,649094
24-Aug-15,97.98,103.15,91.80,93.51,770212
21-Aug-15,103.40,108.58,101.93,102.87,923279
20-Aug-15,115.77,116.40,106.83,108.11,822583
19-Aug-15,110.66,119.50,109.94,116.99,741443
18-Aug-15,114.27,117.01,111.14,111.61,476926
17-Aug-15,109.85,114.98,109.33,114.67,275830
14-Aug-15,110.18,113.74,106.24,110.51,474676
13-Aug-15,115.92,119.44,111.89,112.30,304726
12-Aug-15,109.70,116.80,106.02,114.92,418894
11-Aug-15,112.62,115.48,110.33,111.90,262286
10-Aug-15,111.04,116.84,110.76,113.89,340950
7-Aug-15,112.10,112.47,105.69,109.64,350391
6-Aug-15,120.89,121.82,110.68,112.47,487816
5-Aug-15,118.18,122.70,116.57,120.27,290423
4-Aug-15,118.29,119.17,115.27,116.45,343905
3-Aug-15,120.44,122.79,116.20,117.76,278012
31-Jul-15,115.09,121.38,115.09,120.93,709171
30-Jul-15,116.37,116.54,110.91,115.82,484559
29-Jul-15,120.04,121.64,110.28,116.44,490261
28-Jul-15,118.64,122.31,115.07,120.60,426735
27-Jul-15,125.76,126.54,116.60,117.06,756010
24-Jul-15,132.06,135.43,130.04,131.36,658504
23-Jul-15,131.85,134.67,131.01,133.38,473573
22-Jul-15,127.00,133.32,127.00,131.91,417416
21-Jul-15,133.00,136.74,125.61,128.20,499980
20-Jul-15,134.78,137.05,130.97,134.09,662748
17-Jul-15,125.06,133.28,123.62,132.80,756510
16-Jul-15,124.49,126.50,121.91,124.87,2269906
15-Jul-15,123.50,133.96,122.59,126.20,686857
14-Jul-15,119.31,127.55,119.01,126.77,498501
13-Jul-15,118.09,119.85,117.02,118.97,516293
10-Jul-15,114.45,118.13,111.64,116.94,690188
9-Jul-15,103.44,113.42,103.44,112.65,754750
8-Jul-15,102.95,104.40,98.68,99.02,340656
7-Jul-15,103.22,105.56,100.42,104.38,326166
6-Jul-15,102.48,104.45,100.05,102.70,274757
2-Jul-15,104.02,104.77,100.16,102.71,231468
1-Jul-15,103.61,105.39,102.06,103.86,274470
30-Jun-15,99.84,102.53,98.19,102.39,306287
29-Jun-15,102.26,105.97,98.22,98.44,447215
26-Jun-15,100.00,103.46,100.00,103.16,4144479
25-Jun-15,100.41,101.40,96.02,99.83,434408
24-Jun-15,103.73,104.05,99.79,100.30,381788
23-Jun-15,102.82,104.25,99.22,103.71,469297
22-Jun-15,100.99,104.30,99.28,102.97,417684
19-Jun-15,97.88,100.94,96.23,100.59,610188
18-Jun-15,95.67,100.72,95.67,97.85,494752
17-Jun-15,92.62,97.00,92.12,95.00,352249
16-Jun-15,88.27,92.43,87.94,92.11,351561
15-Jun-15,87.31,89.67,85.94,88.66,306916
12-Jun-15,87.45,88.50,85.75,88.27,211313
11-Jun-15,90.28,90.95,85.61,87.72,332917
10-Jun-15,88.19,90.97,86.79,89.62,282426
9-Jun-15,88.23,90.19,86.53,89.05,210494
8-Jun-15,90.23,91.00,87.02,88.77,234378
5-Jun-15,87.42,91.00,87.42,89.24,398770
4-Jun-15,91.03,93.00,86.13,87.03,480946
3-Jun-15,91.65,95.64,90.76,91.62,448327
2-Jun-15,89.00,93.48,88.20,92.56,628472
1-Jun-15,87.43,87.89,84.53,86.65,300340
29-May-15,88.09,89.69,86.65,87.00,346808
28-May-15,86.10,88.27,84.28,88.06,300795
27-May-15,83.23,88.23,83.20,86.74,581868
26-May-15,82.83,83.25,81.23,82.64,410098
22-May-15,84.99,85.79,82.55,83.13,364273
21-May-15,84.56,85.73,83.81,84.89,176211
20-May-15,82.90,84.90,80.25,84.52,319022
19-May-15,81.79,85.93,81.14,83.34,588789
18-May-15,79.67,82.77,78.42,81.41,419916
15-May-15,75.50,79.99,74.37,79.34,481109
14-May-15,73.70,76.16,70.50,75.50,426826
13-May-15,72.04,74.00,70.88,73.76,544572
12-May-15,67.30,75.47,63.49,72.27,883579
11-May-15,63.57,67.69,62.89,67.22,279727
8-May-15,63.20,64.68,61.70,63.00,382330
7-May-15,62.35,64.83,61.63,61.90,740882
6-May-15,66.65,70.25,63.44,64.50,1136692
5-May-15,61.06,63.54,60.01,62.63,455027
4-May-15,60.22,63.39,60.12,61.67,559821
1-May-15,57.26,60.91,56.95,59.82,380031
30-Apr-15,59.11,60.12,56.11,56.43,314112
29-Apr-15,58.99,61.08,58.44,59.52,310310
28-Apr-15,63.99,65.43,58.00,59.50,499091
27-Apr-15,69.86,70.69,63.56,63.89,465336
24-Apr-15,68.90,70.47,68.30,69.65,191130
23-Apr-15,67.37,69.86,67.02,68.90,290495
22-Apr-15,64.00,69.67,63.88,66.96,418503
21-Apr-15,63.28,64.36,61.03,64.22,254711
20-Apr-15,63.35,63.35,60.50,62.59,96560
17-Apr-15,64.70,65.07,62.00,62.95,276772
16-Apr-15,64.64,65.42,64.14,65.00,315731
15-Apr-15,63.44,64.49,62.09,64.27,195110
14-Apr-15,63.17,64.68,62.34,63.05,180698
13-Apr-15,62.00,63.75,62.00,62.90,289417
10-Apr-15,60.33,62.29,59.61,62.14,165066
9-Apr-15,60.14,60.76,57.74,60.07,148901
8-Apr-15,58.02,60.99,58.02,59.95,189314
7-Apr-15,58.74,60.73,58.37,58.48,310544
6-Apr-15,61.61,62.35,57.82,58.80,272728
2-Apr-15,61.63,62.38,60.25,62.20,303147
1-Apr-15,63.00,63.66,59.23,61.39,430415
31-Mar-15,61.87,65.35,60.33,62.09,929132
30-Mar-15,56.68,61.05,56.16,60.95,338523
27-Mar-15,54.03,57.36,53.73,56.56,310032
26-Mar-15,56.21,56.48,52.03,54.17,498652
25-Mar-15,64.45,64.45,55.86,56.63,639925
24-Mar-15,60.46,61.25,58.06,58.37,233211
23-Mar-15,61.53,61.53,56.88,59.96,296014
20-Mar-15,63.45,64.19,60.49,62.06,585405
19-Mar-15,60.43,64.99,60.24,62.89,466035
18-Mar-15,61.45,62.71,59.05,60.92,433216
17-Mar-15,58.74,62.68,58.71,62.21,499593
16-Mar-15,58.30,59.31,57.80,58.94,399429
13-Mar-15,56.79,58.18,55.03,57.23,253354
12-Mar-15,56.89,57.45,55.54,56.83,285850
11-Mar-15,56.30,58.00,55.91,56.58,199664
10-Mar-15,56.41,58.17,55.45,56.62,185597
9-Mar-15,59.73,60.00,55.39,57.19,252442
6-Mar-15,59.28,61.69,58.51,59.25,594613
5-Mar-15,57.76,60.00,56.48,59.22,304073
4-Mar-15,55.13,57.49,54.08,56.77,120103
3-Mar-15,57.04,57.04,54.90,55.73,167321
2-Mar-15,54.46,58.27,54.46,57.39,295911
27-Feb-15,56.11,56.46,53.58,54.27,273542
26-Feb-15,55.84,56.58,53.83,56.42,153047
25-Feb-15,53.59,55.98,52.69,55.75,269702
24-Feb-15,55.71,56.38,52.64,53.59,198244
23-Feb-15,55.58,56.54,55.00,55.69,172310
20-Feb-15,55.42,56.09,54.97,55.57,199040
19-Feb-15,55.46,55.54,54.67,55.38,226942
18-Feb-15,54.10,55.70,53.61,55.45,342994
17-Feb-15,54.20,55.00,53.42,54.48,134746
13-Feb-15,54.25,54.74,53.55,54.10,208564
12-Feb-15,53.43,54.39,52.13,53.98,202684
11-Feb-15,54.37,54.99,52.73,53.01,333780
10-Feb-15,53.20,54.45,52.23,53.65,265700
9-Feb-15,53.40,54.09,52.25,52.51,337865
6-Feb-15,55.17,55.50,53.21,53.40,691385
5-Feb-15,54.44,55.05,52.80,54.99,1570075
4-Feb-15,55.83,56.19,49.08,55.23,609058
3-Feb-15,57.33,57.97,55.55,57.58,179237
2-Feb-15,58.18,58.77,55.64,56.74,202055
30-Jan-15,57.55,59.00,57.25,58.10,243825
29-Jan-15,56.03,58.96,55.16,58.00,152948
28-Jan-15,57.73,57.85,54.76,56.11,157360
27-Jan-15,57.42,58.80,56.50,57.51,155836
26-Jan-15,51.10,58.98,50.83,58.21,383133
23-Jan-15,51.56,52.93,51.15,52.21,238875
22-Jan-15,50.44,52.58,48.96,51.87,607708
21-Jan-15,51.66,51.66,49.41,50.29,617136
20-Jan-15,54.02,54.02,50.71,52.92,143328
16-Jan-15,50.95,54.33,50.95,53.26,238740
15-Jan-15,53.08,53.94,50.34,50.77,169982
14-Jan-15,51.51,54.88,51.50,53.99,173082
13-Jan-15,56.68,56.68,51.77,53.32,498102
12-Jan-15,54.90,56.19,52.35,55.81,581112
9-Jan-15,52.50,54.89,50.62,54.06,562123
8-Jan-15,50.55,53.86,50.02,51.90,355966
7-Jan-15,47.52,49.73,47.07,48.65,165354
6-Jan-15,47.85,49.79,46.41,47.10,251098
5-Jan-15,46.21,47.72,45.37,47.50,169721
2-Jan-15,44.42,46.90,44.27,46.40,148253
31-Dec-14,44.11,44.40,43.13,43.88,170394
30-Dec-14,43.81,44.46,43.35,44.04,156138
29-Dec-14,44.04,44.40,43.29,43.60,281273
26-Dec-14,45.46,45.46,43.36,44.06,250284
24-Dec-14,45.80,46.26,43.67,45.17,182222
23-Dec-14,49.17,49.17,45.17,45.73,224513
22-Dec-14,48.67,49.74,47.56,49.27,244415
19-Dec-14,47.60,48.79,45.26,48.38,1488019
18-Dec-14,44.91,47.36,44.36,46.65,410665
17-Dec-14,40.69,44.66,40.69,44.27,248663
16-Dec-14,39.47,41.55,39.46,40.65,258013
15-Dec-14,42.15,42.25,39.13,39.76,277997
12-Dec-14,38.52,41.58,38.51,41.48,241626
11-Dec-14,39.60,40.00,38.01,39.09,254763
10-Dec-14,40.22,42.15,39.50,39.55,293681
9-Dec-14,39.97,42.20,39.97,40.90,324273
8-Dec-14,40.18,42.44,40.00,40.52,291243
5-Dec-14,40.32,42.93,39.50,40.35,456292
4-Dec-14,42.60,43.54,40.14,40.35,288714
3-Dec-14,42.77,43.61,41.53,43.07,125757
2-Dec-14,42.38,43.36,41.58,42.55,127147
1-Dec-14,43.26,43.58,41.07,41.38,204155
28-Nov-14,44.95,45.49,43.37,43.59,95524
26-Nov-14,43.26,45.36,43.26,45.04,171530
25-Nov-14,44.89,45.72,42.77,43.33,279928
24-Nov-14,44.72,45.56,43.90,44.91,229896
21-Nov-14,45.51,45.51,43.85,44.09,124320
20-Nov-14,44.07,44.93,43.32,44.67,113350
19-Nov-14,44.50,44.91,44.00,44.50,159946
18-Nov-14,42.17,44.74,41.80,44.56,178979
17-Nov-14,41.57,42.33,41.04,41.67,160991
14-Nov-14,43.78,43.96,41.20,41.91,243455
13-Nov-14,44.30,44.30,43.29,43.63,235615
12-Nov-14,41.85,44.61,41.37,44.26,160282
11-Nov-14,40.93,42.93,40.62,42.84,243844
10-Nov-14,45.11,46.45,40.58,41.16,388815
7-Nov-14,44.77,45.70,44.14,44.71,244115
6-Nov-14,44.52,45.18,43.19,44.86,245034
5-Nov-14,45.10,45.17,43.45,44.59,192506
4-Nov-14,44.53,44.98,44.00,44.58,149786
3-Nov-14,46.95,47.42,44.67,44.80,213170
31-Oct-14,50.42,51.64,46.23,47.01,264480
30-Oct-14,49.59,50.46,48.18,49.33,153499
29-Oct-14,49.94,50.66,49.44,49.90,139619
28-Oct-14,49.60,50.68,48.70,50.00,173238
27-Oct-14,49.91,50.88,48.78,49.29,84088
24-Oct-14,49.55,51.35,49.05,50.22,99867
23-Oct-14,46.34,50.19,45.09,49.73,150878
22-Oct-14,47.07,47.82,45.00,45.44,221399
21-Oct-14,46.23,48.00,46.22,47.20,219788
20-Oct-14,46.21,46.89,44.50,45.92,214455
17-Oct-14,49.50,50.42,46.63,46.86,303189
16-Oct-14,48.35,50.16,47.48,48.52,186432
15-Oct-14,43.63,48.51,42.19,48.28,435370
14-Oct-14,47.81,48.56,43.98,44.51,342662
13-Oct-14,50.03,50.52,46.64,47.22,224736
10-Oct-14,51.27,52.47,49.67,49.90,181830
9-Oct-14,53.32,54.03,51.13,51.32,274697
8-Oct-14,53.26,53.90,50.82,53.30,294877
7-Oct-14,57.55,57.74,53.66,53.73,296868
6-Oct-14,57.51,58.33,56.75,58.02,408815
3-Oct-14,56.78,57.42,55.14,57.28,94818
2-Oct-14,54.76,56.56,54.39,56.06,303275
1-Oct-14,56.87,57.74,54.13,54.93,839899
30-Sep-14,59.92,59.92,56.52,56.60,283269
29-Sep-14,56.41,60.04,56.39,59.77,464134
26-Sep-14,56.48,57.42,55.63,57.20,238751
25-Sep-14,56.61,56.76,54.62,56.10,403425
24-Sep-14,55.71,57.24,55.50,56.66,309911
23-Sep-14,54.68,56.27,54.39,55.47,317047
22-Sep-14,54.29,54.66,51.73,54.19,758981
19-Sep-14,55.86,56.07,54.17,54.72,1549769
18-Sep-14,56.39,56.39,55.35,55.69,196923
17-Sep-14,56.43,57.35,55.43,55.96,281295
16-Sep-14,56.23,56.74,55.56,56.34,675927
15-Sep-14,57.56,57.81,55.54,56.62,484631
12-Sep-14,57.45,58.99,56.54,57.72,473876
11-Sep-14,57.88,57.96,56.34,57.67,263236
10-Sep-14,54.82,58.42,54.25,58.06,300303
9-Sep-14,54.19,57.00,53.82,55.07,359817
8-Sep-14,54.14,55.76,53.99,54.74,189647
5-Sep-14,55.84,55.93,53.47,54.26,1016578
4-Sep-14,56.34,56.61,54.20,56.06,921294
3-Sep-14,54.51,59.14,53.46,55.70,561555
2-Sep-14,52.82,53.76,51.96,53.41,191668
29-Aug-14,54.40,54.69,52.60,53.36,473841
28-Aug-14,52.40,54.14,52.40,53.87,358799
27-Aug-14,52.63,53.81,52.43,52.93,184703
26-Aug-14,53.26,54.29,52.32,52.73,1308853
25-Aug-14,53.12,55.22,52.05,53.33,972806
22-Aug-14,52.16,53.24,51.82,52.32,737412
21-Aug-14,56.01,56.15,52.31,53.15,953993
20-Aug-14,55.46,56.52,54.92,56.03,811087
19-Aug-14,55.48,57.24,54.31,55.88,608816
18-Aug-14,54.66,56.24,53.57,56.01,202765
15-Aug-14,54.14,54.98,52.46,54.01,143222
14-Aug-14,53.45,54.47,52.09,53.90,131487
13-Aug-14,50.54,54.48,50.49,53.45,343069
12-Aug-14,49.21,51.79,48.74,50.44,350394
11-Aug-14,49.84,50.00,48.27,49.15,1373324
8-Aug-14,49.17,50.00,47.87,49.49,669038
7-Aug-14,49.78,49.98,48.50,49.15,936366
6-Aug-14,49.24,50.35,47.43,50.00,727174
5-Aug-14,44.97,48.99,44.26,48.50,402214
4-Aug-14,43.17,46.08,42.16,45.65,477474
1-Aug-14,43.60,43.97,41.11,42.74,1289850
31-Jul-14,43.38,44.00,42.33,43.70,195948
30-Jul-14,41.78,44.05,39.80,43.76,395735
29-Jul-14,40.60,41.98,40.21,41.52,110749
28-Jul-14,43.02,43.09,40.13,40.67,133776
25-Jul-14,42.87,43.65,42.55,43.11,164840
24-Jul-14,43.41,43.87,42.73,43.27,108967
23-Jul-14,43.40,44.30,42.80,43.05,213333
22-Jul-14,43.37,43.73,42.58,42.97,141666
21-Jul-14,43.29,43.73,42.38,43.24,248412
18-Jul-14,39.74,43.44,39.34,43.00,674622
17-Jul-14,42.62,44.34,39.21,39.89,365640
16-Jul-14,43.25,44.59,41.61,42.93,278538
15-Jul-14,43.62,43.83,41.02,41.99,332814
14-Jul-14,43.10,44.48,41.63,43.85,280884
11-Jul-14,40.37,43.77,39.77,42.97,270667
10-Jul-14,38.99,41.17,37.99,40.37,453745
9-Jul-14,40.50,40.99,37.77,40.00,1887626
8-Jul-14,45.98,45.98,40.57,41.40,511764
7-Jul-14,50.35,50.35,46.74,46.86,148826
3-Jul-14,49.98,50.91,49.88,50.31,39979
2-Jul-14,47.99,49.74,47.52,49.57,75470
1-Jul-14,45.35,48.48,45.35,47.90,142060
30-Jun-14,44.76,46.00,44.29,44.89,70753
27-Jun-14,44.78,45.39,43.50,44.75,144355
26-Jun-14,45.27,46.26,44.20,44.69,117918
25-Jun-14,44.84,47.30,43.02,45.48,199869
24-Jun-14,44.95,49.52,44.95,45.44,185160
23-Jun-14,47.11,48.76,44.62,44.77,125856
20-Jun-14,44.87,47.96,42.92,47.49,268863
19-Jun-14,48.72,49.70,44.05,44.60,178058
18-Jun-14,42.63,50.93,42.63,48.67,435645
17-Jun-14,40.63,42.95,39.35,42.58,149282
16-Jun-14,36.77,40.98,36.55,40.81,142162
13-Jun-14,37.17,37.85,35.30,36.91,123745
12-Jun-14,36.08,37.22,35.94,36.98,87742
11-Jun-14,36.44,36.72,35.12,35.91,119247
10-Jun-14,37.60,37.99,36.01,36.78,66964
9-Jun-14,35.61,37.91,35.54,37.85,63629
6-Jun-14,34.51,35.99,34.51,35.51,62465
5-Jun-14,33.48,34.36,33.19,34.28,142446
4-Jun-14,35.55,36.00,32.36,33.55,155855
3-Jun-14,37.46,37.46,35.52,35.62,111586
2-Jun-14,37.56,37.99,35.69,37.42,69041
30-May-14,38.09,38.36,37.17,37.56,105084
29-May-14,36.19,38.01,36.00,37.92,45712
28-May-14,37.10,37.25,36.02,36.16,67791
27-May-14,34.65,37.13,34.52,37.10,102272
23-May-14,34.47,35.25,34.00,35.21,51365
22-May-14,33.60,34.72,33.06,34.50,92642
21-May-14,33.43,34.36,32.02,33.74,119560
20-May-14,33.75,34.29,32.38,33.36,182080
19-May-14,34.19,36.02,32.60,33.80,109349
16-May-14,36.30,37.37,34.29,34.48,95268
15-May-14,35.00,37.32,35.00,36.36,148431
14-May-14,33.13,35.49,32.62,35.26,192701
13-May-14,33.86,34.22,33.02,33.44,147403
12-May-14,36.60,37.83,33.70,34.04,248634
9-May-14,34.86,36.67,34.70,36.55,68546
8-May-14,35.04,37.37,34.72,34.93,119092
7-May-14,36.39,37.98,34.44,35.14,166592
6-May-14,38.56,38.56,35.92,36.24,103849
5-May-14,38.24,39.33,38.20,38.54,110129
2-May-14,39.06,39.21,37.97,38.56,72554
1-May-14,38.56,39.88,37.07,38.85,123349
30-Apr-14,38.49,38.98,36.94,38.78,313491
29-Apr-14,36.84,38.79,36.69,38.52,149507
28-Apr-14,35.49,37.86,34.12,36.84,143222
25-Apr-14,37.56,37.56,35.01,35.25,183989
24-Apr-14,38.50,38.56,36.22,37.83,165001
23-Apr-14,41.15,41.50,37.89,38.24,151045
22-Apr-14,41.19,43.49,39.80,41.43,354073
21-Apr-14,42.56,43.00,39.39,41.04,276982
17-Apr-14,44.87,44.87,42.00,42.56,410142
16-Apr-14,49.91,49.91,44.17,45.22,251885
15-Apr-14,55.44,55.52,46.57,49.89,638108
14-Apr-14,59.75,59.75,54.95,55.06,265394
11-Apr-14,57.55,60.00,56.31,58.99,378333
10-Apr-14,58.48,58.84,55.00,57.94,148283
9-Apr-14,53.30,60.00,51.37,58.80,167964
8-Apr-14,51.00,53.12,49.10,52.80,245024
7-Apr-14,50.60,52.20,49.39,51.17,90280
4-Apr-14,51.88,52.22,47.01,50.67,122551
3-Apr-14,52.83,52.83,48.55,51.74,195695
2-Apr-14,51.37,53.36,51.32,53.03,125556
1-Apr-14,49.16,51.91,48.16,51.32,160679
31-Mar-14,47.00,48.96,44.62,48.89,978544
28-Mar-14,50.22,51.24,45.00,45.69,212043
27-Mar-14,51.05,53.25,49.09,49.79,112426
26-Mar-14,50.50,51.44,49.98,50.69,118974
25-Mar-14,51.90,54.20,49.37,50.40,189232
24-Mar-14,55.34,57.96,50.05,51.41,241508
21-Mar-14,60.58,61.25,55.05,55.05,426128
20-Mar-14,62.07,62.85,59.19,60.35,91160
19-Mar-14,60.79,64.72,60.12,62.75,104929
18-Mar-14,60.00,61.24,59.74,60.44,81025
17-Mar-14,60.51,61.24,58.91,60.06,83184
14-Mar-14,57.58,61.68,57.58,60.00,84079
13-Mar-14,67.18,69.77,56.89,60.48,275908
12-Mar-14,61.18,66.50,60.50,66.18,77829
11-Mar-14,64.41,64.89,59.50,62.38,231560
10-Mar-14,59.06,62.61,55.01,61.97,217951
7-Mar-14,54.98,58.96,50.05,56.62,146984
6-Mar-14,58.50,59.29,52.25,54.38,163644
5-Mar-14,62.34,62.34,58.50,58.75,103834
4-Mar-14,56.59,59.99,54.63,58.22,98309
3-Mar-14,51.87,59.31,50.06,55.53,131888
28-Feb-14,54.00,57.25,53.15,55.76,109955
27-Feb-14,56.47,57.65,53.74,54.00,95841
26-Feb-14,58.50,60.52,54.15,56.07,93019
25-Feb-14,60.00,63.86,58.00,59.00,244399
24-Feb-14,58.53,59.81,54.16,58.01,165516
21-Feb-14,51.86,62.48,49.62,59.10,227454
20-Feb-14,43.64,51.87,43.64,51.35,182032
19-Feb-14,43.71,44.89,41.43,43.85,104213
18-Feb-14,44.00,45.00,42.77,43.57,44971
14-Feb-14,45.11,45.18,42.66,44.00,37927
13-Feb-14,44.27,44.95,40.51,43.96,169943
12-Feb-14,40.05,46.00,40.05,44.78,291587
11-Feb-14,39.83,40.59,38.52,40.13,83468
10-Feb-14,37.60,39.92,37.60,38.45,90179
7-Feb-14,36.46,38.29,36.46,37.65,62521
6-Feb-14,36.84,38.68,35.81,37.24,188523
5-Feb-14,38.51,38.51,35.15,36.08,296466
4-Feb-14,38.80,40.25,36.18,36.26,352333
3-Feb-14,43.95,43.95,38.52,39.00,498216
31-Jan-14,45.80,47.99,41.85,42.25,4392791
