﻿Date,Open,High,Low,Close,Volume
20-Jun-17,11.70,11.75,11.45,11.60,365762
19-Jun-17,11.25,11.85,11.20,11.70,912448
16-Jun-17,11.10,11.35,11.02,11.25,1059994
15-Jun-17,10.90,11.30,10.75,11.25,683726
14-Jun-17,10.95,11.20,10.85,11.00,397836
13-Jun-17,11.00,11.10,10.80,10.90,345127
12-Jun-17,10.80,10.95,10.70,10.90,435003
9-Jun-17,10.95,11.00,10.55,10.85,649125
8-Jun-17,10.75,11.05,10.65,10.85,502260
7-Jun-17,10.80,10.85,10.55,10.65,271434
6-Jun-17,10.70,10.95,10.65,10.80,346121
5-Jun-17,10.70,10.80,10.60,10.75,547811
2-Jun-17,10.65,10.85,10.62,10.65,373596
1-Jun-17,10.45,10.80,10.25,10.65,617359
31-May-17,10.45,10.70,10.35,10.45,898060
30-May-17,10.55,10.70,10.40,10.40,376101
26-May-17,10.60,10.78,10.55,10.65,270722
25-May-17,10.65,10.85,10.55,10.55,297152
24-May-17,11.10,11.15,10.60,10.65,333105
23-May-17,10.75,11.20,10.60,11.10,524519
22-May-17,10.60,10.85,10.55,10.75,392179
19-May-17,10.15,10.65,10.15,10.55,598853
18-May-17,10.15,10.50,10.00,10.15,375384
17-May-17,10.70,10.70,10.05,10.20,446236
16-May-17,11.05,11.15,10.75,10.85,393954
15-May-17,10.60,11.00,10.60,11.00,591789
12-May-17,10.65,10.70,10.50,10.55,229239
11-May-17,10.70,10.80,10.50,10.70,256946
10-May-17,10.60,10.82,10.50,10.75,354156
9-May-17,10.95,10.95,10.55,10.65,415749
8-May-17,11.20,11.20,10.60,10.95,589509
5-May-17,10.75,11.95,10.75,11.15,1006656
4-May-17,10.45,10.62,10.35,10.55,312646
3-May-17,10.55,10.60,10.25,10.40,262389
2-May-17,10.65,10.75,10.50,10.55,233656
1-May-17,10.60,10.85,10.50,10.55,482519
28-Apr-17,10.85,10.85,10.52,10.60,463392
27-Apr-17,10.65,11.00,10.55,10.80,440239
26-Apr-17,10.25,10.65,10.20,10.60,393634
25-Apr-17,10.25,10.25,10.08,10.25,412102
24-Apr-17,10.10,10.25,10.05,10.15,256236
21-Apr-17,9.85,10.10,9.80,9.95,265317
20-Apr-17,10.05,10.10,9.85,9.90,199101
19-Apr-17,9.65,10.15,9.65,10.00,359738
18-Apr-17,9.70,9.70,9.45,9.65,241194
17-Apr-17,9.70,9.75,9.52,9.70,423053
13-Apr-17,9.65,9.75,9.55,9.70,277081
12-Apr-17,9.80,9.80,9.65,9.70,260895
11-Apr-17,9.65,9.85,9.60,9.80,217261
10-Apr-17,9.60,9.80,9.45,9.70,358746
7-Apr-17,9.60,9.65,9.45,9.55,278699
6-Apr-17,9.75,9.78,9.55,9.60,222784
5-Apr-17,9.95,10.15,9.70,9.75,532366
4-Apr-17,9.85,9.95,9.75,9.95,612453
3-Apr-17,9.65,9.90,9.58,9.90,1415426
31-Mar-17,9.75,9.90,9.55,9.65,562191
30-Mar-17,9.60,9.85,9.60,9.80,306142
29-Mar-17,9.45,9.75,9.45,9.60,317213
28-Mar-17,9.50,9.60,9.40,9.50,545527
27-Mar-17,9.45,9.60,9.30,9.50,924081
24-Mar-17,9.65,9.75,9.38,9.60,553441
23-Mar-17,9.50,9.70,9.40,9.65,778320
22-Mar-17,9.55,9.55,9.20,9.50,500874
21-Mar-17,10.00,10.00,9.50,9.55,489168
20-Mar-17,10.20,10.20,9.85,9.95,310722
17-Mar-17,10.05,10.30,9.92,10.20,635846
16-Mar-17,10.00,10.20,9.90,10.20,307132
15-Mar-17,10.10,10.15,9.95,10.00,512663
14-Mar-17,10.10,10.15,9.95,10.05,403040
13-Mar-17,10.35,10.50,10.10,10.15,333905
10-Mar-17,10.05,10.50,10.05,10.40,613273
9-Mar-17,9.90,10.50,9.90,10.00,950062
8-Mar-17,10.85,11.05,10.70,10.95,539302
7-Mar-17,10.90,11.10,10.72,10.80,322278
6-Mar-17,10.90,11.00,10.80,11.00,460802
3-Mar-17,11.05,11.10,10.75,11.05,252560
2-Mar-17,11.40,11.40,10.95,11.00,213532
1-Mar-17,11.05,11.58,10.95,11.45,441721
28-Feb-17,11.20,11.25,10.80,10.90,1245982
27-Feb-17,11.15,11.35,11.05,11.20,390054
24-Feb-17,11.40,11.40,11.00,11.15,312789
23-Feb-17,11.70,11.80,11.45,11.60,367072
22-Feb-17,11.50,11.75,11.30,11.70,280239
21-Feb-17,11.35,11.65,11.25,11.50,265880
17-Feb-17,11.60,11.60,11.10,11.25,395251
16-Feb-17,11.40,11.60,11.25,11.55,322142
15-Feb-17,11.20,11.55,11.10,11.45,313007
14-Feb-17,11.05,11.60,11.00,11.25,584614
13-Feb-17,11.15,11.25,10.85,11.10,392550
10-Feb-17,10.80,11.25,10.80,11.15,284309
9-Feb-17,11.05,11.20,10.75,10.75,444537
8-Feb-17,10.70,11.40,10.55,11.10,686135
7-Feb-17,10.60,10.75,10.45,10.60,314452
6-Feb-17,11.20,11.20,10.65,10.65,258946
3-Feb-17,10.90,11.20,10.80,11.15,387497
2-Feb-17,10.85,11.05,10.65,10.80,229334
1-Feb-17,10.95,11.20,10.75,10.85,441832
31-Jan-17,10.85,11.02,10.70,10.90,420691
30-Jan-17,11.15,11.15,10.76,10.95,245740
27-Jan-17,11.25,11.40,11.18,11.25,311422
26-Jan-17,11.35,11.40,11.00,11.20,279672
25-Jan-17,11.35,11.50,11.10,11.40,289440
24-Jan-17,11.25,11.50,11.10,11.25,314663
23-Jan-17,11.05,11.40,11.00,11.25,206091
20-Jan-17,11.55,11.60,11.00,11.10,300579
19-Jan-17,11.45,11.70,11.25,11.55,511582
18-Jan-17,11.20,11.80,11.10,11.45,631131
17-Jan-17,11.20,11.35,10.98,11.25,268923
13-Jan-17,11.15,11.45,11.10,11.20,306286
12-Jan-17,11.35,11.45,10.95,11.10,248450
11-Jan-17,11.55,11.90,11.35,11.45,444216
10-Jan-17,11.10,11.60,11.05,11.55,492012
9-Jan-17,11.20,11.30,11.05,11.20,220798
6-Jan-17,11.40,11.40,11.10,11.25,281586
5-Jan-17,11.40,11.62,11.20,11.40,249336
4-Jan-17,11.50,11.68,11.45,11.50,306640
3-Jan-17,11.20,11.60,11.05,11.50,420548
30-Dec-16,11.40,11.40,11.05,11.05,353423
29-Dec-16,11.15,11.60,11.15,11.35,414248
28-Dec-16,11.30,11.40,11.00,11.20,428632
27-Dec-16,11.30,11.45,11.15,11.35,288979
23-Dec-16,11.20,11.35,11.15,11.20,234255
22-Dec-16,11.30,11.35,11.05,11.20,512155
21-Dec-16,11.05,11.40,10.90,11.35,496794
20-Dec-16,10.55,11.15,10.55,11.10,631625
19-Dec-16,10.45,10.80,10.30,10.55,290136
16-Dec-16,10.00,10.50,9.95,10.35,811759
15-Dec-16,10.10,10.25,9.95,9.95,367050
14-Dec-16,10.45,10.50,9.95,10.00,361742
13-Dec-16,10.25,10.50,10.17,10.40,351672
12-Dec-16,10.40,10.45,10.10,10.30,381280
9-Dec-16,10.85,10.85,10.30,10.35,445115
8-Dec-16,10.65,10.92,10.30,10.90,370770
7-Dec-16,10.65,10.85,10.55,10.60,320653
6-Dec-16,10.75,10.80,10.45,10.65,353535
5-Dec-16,10.90,11.05,10.55,10.65,480351
2-Dec-16,10.60,10.90,10.35,10.85,524839
1-Dec-16,10.30,10.58,10.25,10.50,406211
30-Nov-16,10.65,10.90,10.20,10.25,465580
29-Nov-16,10.70,10.80,10.45,10.50,385650
28-Nov-16,10.50,10.95,10.46,10.65,404262
25-Nov-16,10.95,10.95,10.45,10.65,250585
23-Nov-16,10.90,11.15,10.70,11.00,674553
22-Nov-16,10.75,10.88,10.65,10.80,553682
21-Nov-16,10.55,10.70,10.35,10.65,386238
18-Nov-16,10.20,10.62,10.15,10.55,317135
17-Nov-16,10.40,10.55,10.12,10.20,446061
16-Nov-16,10.35,10.55,10.20,10.30,416722
15-Nov-16,10.35,10.50,10.08,10.45,609476
14-Nov-16,10.10,10.35,9.80,10.35,673809
11-Nov-16,9.10,10.00,9.00,9.90,842136
10-Nov-16,9.00,9.35,8.85,9.10,875117
9-Nov-16,8.85,8.95,8.55,8.80,854893
8-Nov-16,9.05,9.25,8.70,8.85,615950
7-Nov-16,8.70,9.20,8.65,9.15,1005460
4-Nov-16,9.25,9.90,7.90,8.40,2382856
3-Nov-16,7.30,7.35,7.10,7.20,385397
2-Nov-16,7.70,7.75,7.30,7.35,344846
1-Nov-16,7.85,7.88,7.50,7.65,418903
31-Oct-16,7.85,8.15,7.75,7.80,538083
28-Oct-16,7.75,8.25,7.65,7.80,469979
27-Oct-16,7.95,8.20,7.65,7.65,396611
26-Oct-16,8.00,8.15,7.90,8.05,234265
25-Oct-16,7.95,8.10,7.88,8.10,276189
24-Oct-16,7.75,8.00,7.75,8.00,223671
21-Oct-16,7.60,7.85,7.55,7.65,185896
20-Oct-16,7.70,7.80,7.60,7.70,218377
19-Oct-16,7.80,7.80,7.65,7.80,229009
18-Oct-16,7.70,7.90,7.65,7.75,304423
17-Oct-16,7.70,7.85,7.60,7.60,240516
14-Oct-16,7.75,7.90,7.60,7.70,479528
13-Oct-16,7.80,7.80,7.60,7.70,341539
12-Oct-16,7.95,7.95,7.65,7.80,278448
11-Oct-16,8.10,8.10,7.70,7.80,401463
10-Oct-16,8.15,8.25,8.00,8.10,213953
7-Oct-16,8.25,8.40,8.00,8.10,493262
6-Oct-16,8.45,8.55,8.05,8.30,339044
5-Oct-16,8.80,8.80,8.45,8.50,373974
4-Oct-16,8.65,8.95,8.65,8.85,603315
3-Oct-16,8.35,8.75,8.35,8.75,521901
30-Sep-16,8.21,8.52,8.14,8.48,459260
29-Sep-16,8.21,8.28,8.10,8.19,427922
28-Sep-16,8.23,8.35,8.23,8.30,245105
27-Sep-16,8.15,8.26,8.05,8.24,299173
26-Sep-16,8.24,8.27,8.02,8.10,629980
23-Sep-16,8.22,8.32,8.05,8.31,490628
22-Sep-16,7.84,8.27,7.84,8.27,471471
21-Sep-16,7.62,7.83,7.55,7.82,479892
20-Sep-16,7.74,7.74,7.56,7.57,295514
19-Sep-16,7.55,7.76,7.55,7.66,689481
16-Sep-16,7.67,7.69,7.35,7.53,1030424
15-Sep-16,7.73,7.79,7.67,7.68,271585
14-Sep-16,7.83,7.92,7.75,7.77,333806
13-Sep-16,7.99,7.99,7.81,7.86,433812
12-Sep-16,8.08,8.08,7.89,8.06,349313
9-Sep-16,8.10,8.30,8.07,8.08,448149
8-Sep-16,8.13,8.22,8.03,8.21,411981
7-Sep-16,7.98,8.31,7.98,8.20,613236
6-Sep-16,7.94,7.99,7.88,7.98,454705
2-Sep-16,7.82,7.98,7.77,7.92,337665
1-Sep-16,7.86,7.93,7.71,7.79,474349
31-Aug-16,7.81,7.87,7.70,7.84,485177
30-Aug-16,7.73,7.91,7.73,7.80,347233
29-Aug-16,7.68,7.79,7.62,7.76,181033
26-Aug-16,7.73,7.83,7.61,7.69,248398
25-Aug-16,7.71,7.80,7.67,7.69,241420
24-Aug-16,7.85,7.86,7.69,7.70,257571
23-Aug-16,7.72,7.89,7.68,7.83,275905
22-Aug-16,7.66,7.70,7.56,7.66,304578
19-Aug-16,7.74,7.79,7.65,7.66,257262
18-Aug-16,7.88,7.90,7.75,7.78,213448
17-Aug-16,7.97,7.97,7.73,7.85,444957
16-Aug-16,8.13,8.15,7.97,8.00,349644
15-Aug-16,8.25,8.33,8.16,8.16,284828
12-Aug-16,8.17,8.22,8.06,8.22,384191
11-Aug-16,8.21,8.30,8.08,8.17,409960
10-Aug-16,8.52,8.57,8.23,8.26,509363
9-Aug-16,8.58,8.58,8.32,8.51,829856
8-Aug-16,7.86,8.67,7.82,8.59,1487690
5-Aug-16,8.40,8.40,6.91,7.85,1551626
4-Aug-16,7.76,7.77,7.47,7.63,565938
3-Aug-16,7.60,7.76,7.59,7.74,502258
2-Aug-16,7.89,7.90,7.59,7.61,312882
1-Aug-16,7.98,7.98,7.85,7.86,315918
29-Jul-16,8.05,8.09,7.93,7.97,390162
28-Jul-16,8.05,8.13,7.95,8.05,473118
27-Jul-16,8.16,8.20,8.02,8.05,363647
26-Jul-16,8.05,8.23,8.00,8.14,301751
25-Jul-16,8.13,8.15,8.05,8.05,295963
22-Jul-16,8.40,8.40,8.12,8.13,374072
21-Jul-16,8.24,8.73,8.22,8.47,1248604
20-Jul-16,8.26,8.36,8.23,8.23,504107
19-Jul-16,8.15,8.37,8.15,8.25,593853
18-Jul-16,7.85,8.23,7.85,8.14,676405
15-Jul-16,8.09,8.09,7.73,7.83,513646
14-Jul-16,7.92,8.12,7.92,8.03,1023978
13-Jul-16,7.93,7.97,7.81,7.83,300009
12-Jul-16,7.94,8.02,7.88,7.90,312310
11-Jul-16,7.83,7.87,7.78,7.84,362890
8-Jul-16,7.70,7.81,7.65,7.75,315277
7-Jul-16,7.63,7.66,7.50,7.59,627283
6-Jul-16,7.48,7.61,7.37,7.56,607041
5-Jul-16,7.70,7.72,7.44,7.50,348505
1-Jul-16,7.51,7.76,7.51,7.74,417504
30-Jun-16,7.64,7.67,7.41,7.48,421839
29-Jun-16,7.40,7.75,7.32,7.63,561914
28-Jun-16,7.27,7.38,7.25,7.31,439498
27-Jun-16,7.61,7.61,7.11,7.17,803101
24-Jun-16,7.59,7.68,7.54,7.61,1516210
23-Jun-16,7.89,7.95,7.79,7.90,489622
22-Jun-16,7.97,7.97,7.77,7.78,308154
21-Jun-16,8.07,8.07,7.82,7.92,311877
20-Jun-16,8.07,8.29,7.99,8.02,679084
17-Jun-16,7.97,8.00,7.86,7.94,961294
16-Jun-16,7.89,7.95,7.71,7.93,469038
15-Jun-16,8.03,8.08,7.93,7.94,446202
14-Jun-16,8.00,8.11,7.84,7.98,560497
13-Jun-16,8.28,8.28,7.98,8.00,519817
10-Jun-16,8.47,8.50,8.24,8.25,565849
9-Jun-16,8.76,8.80,8.41,8.58,565074
8-Jun-16,8.67,8.87,8.62,8.83,384548
7-Jun-16,8.83,8.84,8.60,8.65,523000
6-Jun-16,8.87,8.95,8.80,8.86,349544
3-Jun-16,8.95,8.96,8.76,8.84,342683
2-Jun-16,9.04,9.23,8.88,8.94,627363
1-Jun-16,9.05,9.16,8.92,9.11,1049530
31-May-16,8.85,9.20,8.78,9.09,924905
27-May-16,8.68,8.88,8.59,8.81,1410993
26-May-16,8.62,8.71,8.58,8.69,904056
25-May-16,8.65,8.75,8.54,8.55,851799
24-May-16,8.68,8.70,8.53,8.60,590827
23-May-16,8.60,8.72,8.53,8.61,461370
20-May-16,8.39,8.63,8.39,8.61,497641
19-May-16,8.52,8.62,8.27,8.37,396681
18-May-16,8.48,8.64,8.43,8.59,537645
17-May-16,8.68,8.79,8.50,8.52,772287
16-May-16,8.73,8.80,8.63,8.72,481403
13-May-16,8.62,8.77,8.50,8.70,352231
12-May-16,8.90,8.90,8.56,8.66,455908
11-May-16,9.00,9.07,8.88,8.90,571565
10-May-16,8.89,9.11,8.84,9.05,729307
9-May-16,9.29,9.33,8.82,8.86,855531
6-May-16,9.30,9.37,8.60,9.22,2518041
5-May-16,8.62,8.79,8.55,8.67,1120539
4-May-16,8.74,8.81,8.34,8.58,955901
3-May-16,8.96,9.00,8.71,8.77,475203
2-May-16,9.18,9.18,8.90,9.03,726624
29-Apr-16,9.28,9.33,9.03,9.14,394771
28-Apr-16,9.26,9.41,9.22,9.23,575864
27-Apr-16,9.12,9.30,9.10,9.26,720270
26-Apr-16,9.37,9.46,9.10,9.13,924095
25-Apr-16,9.35,9.50,9.27,9.32,558207
22-Apr-16,9.47,9.53,9.30,9.38,477914
21-Apr-16,9.50,9.65,9.48,9.49,647877
20-Apr-16,9.49,9.67,9.47,9.49,524517
19-Apr-16,9.49,9.60,9.37,9.51,462265
18-Apr-16,9.47,9.55,9.34,9.49,455391
15-Apr-16,9.10,9.71,9.10,9.49,1070676
14-Apr-16,9.14,9.29,9.02,9.19,1042046
13-Apr-16,8.80,9.17,8.80,9.13,3570142
12-Apr-16,8.73,8.91,8.71,8.80,1744666
11-Apr-16,8.69,8.85,8.69,8.73,1745069
8-Apr-16,8.71,8.80,8.59,8.72,1295728
7-Apr-16,8.94,9.01,8.63,8.65,1236629
6-Apr-16,8.97,9.05,8.85,8.97,835881
5-Apr-16,8.76,9.10,8.74,8.97,1239919
4-Apr-16,9.15,9.19,8.80,8.86,2606747
1-Apr-16,9.12,9.27,9.02,9.14,1667376
31-Mar-16,9.26,9.29,9.12,9.17,1652685
30-Mar-16,9.26,9.40,9.19,9.28,851933
29-Mar-16,8.76,9.30,8.76,9.23,1236589
28-Mar-16,9.00,9.09,8.91,8.99,661676
24-Mar-16,8.86,9.11,8.67,9.03,915292
23-Mar-16,9.04,9.16,8.79,8.91,872196
22-Mar-16,8.99,9.17,8.94,9.11,852620
21-Mar-16,9.06,9.19,8.98,9.04,766777
18-Mar-16,9.10,9.28,9.05,9.09,1901523
17-Mar-16,8.95,9.16,8.93,9.04,1082226
16-Mar-16,8.57,9.03,8.55,8.94,1089108
15-Mar-16,8.95,9.04,8.55,8.56,534234
14-Mar-16,8.56,9.02,8.52,8.96,1082781
11-Mar-16,8.40,8.82,8.32,8.60,1517646
10-Mar-16,8.19,8.42,8.09,8.33,1221180
9-Mar-16,8.38,8.38,8.03,8.14,722751
8-Mar-16,8.67,8.73,8.34,8.36,619932
7-Mar-16,8.58,8.77,8.54,8.69,1089190
4-Mar-16,8.40,8.80,8.33,8.64,1895484
3-Mar-16,8.34,8.54,8.25,8.41,1206216
2-Mar-16,7.93,8.37,7.83,8.33,1228367
1-Mar-16,7.68,7.96,7.54,7.93,1652613
29-Feb-16,7.50,7.88,7.44,7.66,1996756
26-Feb-16,7.65,8.04,7.39,7.40,3938907
25-Feb-16,6.86,7.29,6.59,7.28,8652324
24-Feb-16,12.30,12.70,11.89,12.68,1070268
23-Feb-16,12.86,12.93,12.26,12.37,458626
22-Feb-16,12.44,12.59,12.39,12.51,408765
19-Feb-16,12.33,12.61,12.31,12.48,531925
18-Feb-16,12.86,12.88,12.40,12.41,434315
17-Feb-16,12.64,12.92,12.51,12.80,860235
16-Feb-16,12.22,12.59,12.00,12.52,1043519
12-Feb-16,11.45,12.07,11.31,12.05,1179132
11-Feb-16,10.97,11.41,10.88,11.33,792637
10-Feb-16,10.90,11.22,10.80,11.17,819709
9-Feb-16,10.86,11.25,10.75,10.83,555061
8-Feb-16,11.23,11.45,10.92,10.95,1022886
5-Feb-16,11.46,11.50,11.03,11.10,1226102
4-Feb-16,11.47,11.66,11.30,11.54,433208
3-Feb-16,11.44,11.57,11.23,11.49,590992
2-Feb-16,11.42,11.60,11.31,11.38,548815
1-Feb-16,11.38,11.62,11.28,11.51,565495
29-Jan-16,11.24,11.46,11.12,11.44,1333166
28-Jan-16,11.27,11.33,11.01,11.20,372329
27-Jan-16,11.31,11.48,11.08,11.13,361542
26-Jan-16,11.12,11.51,11.00,11.37,564719
25-Jan-16,11.20,11.27,10.98,11.10,495115
22-Jan-16,11.04,11.32,11.01,11.25,443022
21-Jan-16,10.97,11.16,10.78,10.91,302999
20-Jan-16,10.68,11.06,10.40,10.97,821375
19-Jan-16,11.29,11.34,10.65,10.85,807500
15-Jan-16,10.97,11.33,10.97,11.15,1120432
14-Jan-16,11.47,11.71,11.11,11.29,1716197
13-Jan-16,11.80,12.21,11.48,11.48,768740
12-Jan-16,12.02,12.02,11.53,11.76,622097
11-Jan-16,12.03,12.04,11.70,11.86,546257
8-Jan-16,12.19,12.29,11.92,11.99,656885
7-Jan-16,12.26,12.54,11.99,12.12,1473886
6-Jan-16,12.56,12.70,12.42,12.51,762261
5-Jan-16,13.01,13.02,12.60,12.72,688418
4-Jan-16,13.08,13.12,12.92,13.02,1023421
31-Dec-15,13.15,13.38,12.97,13.30,718679
30-Dec-15,13.43,13.47,13.18,13.20,537274
29-Dec-15,13.57,13.62,13.27,13.49,626549
28-Dec-15,13.64,13.72,13.27,13.51,265638
24-Dec-15,13.64,13.82,13.62,13.71,153118
23-Dec-15,13.60,13.68,13.49,13.65,452617
22-Dec-15,13.33,13.55,13.21,13.52,351381
21-Dec-15,13.52,13.62,13.26,13.30,268008
18-Dec-15,13.78,13.91,13.41,13.46,662108
17-Dec-15,14.08,14.19,13.75,13.89,563077
16-Dec-15,13.95,14.07,13.75,14.06,579418
15-Dec-15,13.73,13.97,13.68,13.85,511529
14-Dec-15,13.70,13.81,13.56,13.65,493478
11-Dec-15,13.69,13.91,13.68,13.70,454669
10-Dec-15,13.91,14.17,13.91,13.94,390835
9-Dec-15,13.96,14.06,13.84,13.87,495230
8-Dec-15,13.96,14.19,13.84,14.02,386893
7-Dec-15,14.40,14.42,14.01,14.04,548581
4-Dec-15,14.15,14.47,14.06,14.46,524224
3-Dec-15,14.62,14.67,14.10,14.15,355142
2-Dec-15,14.59,14.75,14.56,14.63,463970
1-Dec-15,14.63,14.68,14.45,14.59,1361015
30-Nov-15,14.85,15.03,14.54,14.58,666792
27-Nov-15,14.69,14.86,14.57,14.71,127823
25-Nov-15,14.73,14.81,14.54,14.72,310639
24-Nov-15,14.78,14.85,14.51,14.73,581501
23-Nov-15,15.07,15.22,14.68,14.85,718233
20-Nov-15,14.96,15.09,14.80,14.96,470075
19-Nov-15,15.19,15.36,14.88,14.95,304774
18-Nov-15,15.17,15.24,15.06,15.20,486864
17-Nov-15,15.01,15.25,14.91,14.95,458501
16-Nov-15,15.07,15.18,14.68,14.97,517836
13-Nov-15,15.08,15.25,14.84,15.10,834997
12-Nov-15,15.17,15.29,14.97,15.17,967559
11-Nov-15,15.15,15.25,15.05,15.22,600311
10-Nov-15,15.00,15.16,14.65,15.13,1215913
9-Nov-15,14.92,15.21,14.69,15.10,1718535
6-Nov-15,14.47,15.80,14.06,14.47,3495631
5-Nov-15,12.35,12.68,12.30,12.36,454467
4-Nov-15,12.25,12.50,12.23,12.34,426724
3-Nov-15,12.02,12.32,12.02,12.24,361456
2-Nov-15,11.85,12.11,11.75,12.06,498536
30-Oct-15,12.02,12.08,11.80,11.87,418479
29-Oct-15,12.04,12.16,11.88,11.97,371194
28-Oct-15,11.77,12.15,11.66,12.11,581871
27-Oct-15,12.11,12.11,11.64,11.75,381961
26-Oct-15,11.98,12.16,11.91,12.09,369630
23-Oct-15,11.69,12.01,11.64,11.96,409530
22-Oct-15,11.67,11.81,11.38,11.55,940532
21-Oct-15,11.81,11.87,11.56,11.57,628379
20-Oct-15,11.80,11.89,11.72,11.79,403237
19-Oct-15,11.78,11.91,11.70,11.84,343909
16-Oct-15,11.78,11.97,11.78,11.80,701905
15-Oct-15,11.39,11.80,11.39,11.73,563070
14-Oct-15,11.68,11.78,11.37,11.38,458749
13-Oct-15,11.44,11.81,11.44,11.67,503014
12-Oct-15,11.37,11.55,11.19,11.51,536976
9-Oct-15,11.52,11.74,11.34,11.37,850560
8-Oct-15,11.26,11.46,11.16,11.46,543252
7-Oct-15,11.14,11.33,11.02,11.27,681353
6-Oct-15,10.76,11.12,10.68,11.08,623248
5-Oct-15,10.58,10.91,10.58,10.74,716743
2-Oct-15,10.26,10.62,10.22,10.53,599619
1-Oct-15,10.38,10.43,10.20,10.34,464868
30-Sep-15,10.29,10.44,10.25,10.35,601486
29-Sep-15,10.19,10.24,10.06,10.17,403619
28-Sep-15,10.22,10.30,10.06,10.17,486542
25-Sep-15,10.51,10.62,10.27,10.28,473876
24-Sep-15,10.23,10.46,10.09,10.40,630186
23-Sep-15,10.63,10.69,10.19,10.30,394688
22-Sep-15,10.58,10.70,10.53,10.59,360850
21-Sep-15,10.76,10.95,10.67,10.72,470066
18-Sep-15,10.75,10.93,10.68,10.69,612426
17-Sep-15,10.96,11.21,10.89,10.92,585350
16-Sep-15,10.75,11.15,10.71,10.96,473622
15-Sep-15,10.35,10.78,10.35,10.72,738758
14-Sep-15,10.45,10.45,10.25,10.34,211651
11-Sep-15,10.34,10.45,10.22,10.45,337130
10-Sep-15,10.45,10.69,10.27,10.38,557956
9-Sep-15,10.65,10.74,10.31,10.33,414970
8-Sep-15,10.45,10.86,10.18,10.56,1037489
4-Sep-15,10.33,10.50,10.24,10.27,328311
3-Sep-15,9.77,10.56,9.77,10.43,1391248
2-Sep-15,9.60,9.64,9.44,9.61,302933
1-Sep-15,9.71,9.87,9.48,9.50,509529
31-Aug-15,9.70,9.89,9.65,9.86,452936
28-Aug-15,9.62,9.74,9.60,9.73,443845
27-Aug-15,9.19,9.66,9.19,9.65,565914
26-Aug-15,9.16,9.19,8.87,9.12,703119
25-Aug-15,9.46,9.48,8.98,8.99,768887
24-Aug-15,9.40,9.68,9.15,9.25,677778
21-Aug-15,9.91,10.12,9.68,9.71,645822
20-Aug-15,10.22,10.32,10.07,10.08,405769
19-Aug-15,10.51,10.51,10.09,10.29,486668
18-Aug-15,10.71,10.81,10.37,10.44,868688
17-Aug-15,10.78,10.91,10.65,10.91,383846
14-Aug-15,10.51,10.78,10.42,10.78,723266
13-Aug-15,10.50,10.62,10.30,10.54,627253
12-Aug-15,10.33,10.55,10.22,10.50,424498
11-Aug-15,10.46,10.54,10.30,10.38,346818
10-Aug-15,10.38,10.54,10.33,10.53,443106
7-Aug-15,10.26,10.37,10.18,10.32,598511
6-Aug-15,10.18,10.54,9.98,10.34,757604
5-Aug-15,11.52,11.52,10.07,10.16,3060150
4-Aug-15,9.09,9.20,8.91,8.97,849682
3-Aug-15,9.13,9.18,8.97,9.06,778707
31-Jul-15,9.09,9.26,9.08,9.12,1018951
30-Jul-15,9.15,9.23,9.07,9.07,663421
29-Jul-15,9.20,9.33,9.12,9.21,843766
28-Jul-15,9.21,9.32,9.02,9.20,670917
27-Jul-15,9.33,9.36,9.18,9.18,668714
24-Jul-15,9.64,9.66,9.43,9.43,532421
23-Jul-15,9.73,9.87,9.60,9.65,768934
22-Jul-15,9.74,9.79,9.66,9.71,465727
21-Jul-15,9.69,9.99,9.69,9.79,860049
20-Jul-15,9.77,9.78,9.65,9.71,671207
17-Jul-15,9.80,9.91,9.73,9.77,829406
16-Jul-15,9.85,9.91,9.70,9.78,753443
15-Jul-15,10.03,10.08,9.80,9.81,967974
14-Jul-15,10.09,10.15,10.04,10.04,508153
13-Jul-15,10.07,10.20,10.07,10.09,507641
10-Jul-15,10.10,10.17,10.00,10.03,532848
9-Jul-15,10.13,10.30,10.01,10.01,729755
8-Jul-15,9.93,10.01,9.93,10.00,498835
7-Jul-15,10.02,10.12,9.80,9.99,769154
6-Jul-15,10.14,10.18,10.01,10.03,674712
2-Jul-15,10.29,10.32,10.17,10.19,517379
1-Jul-15,10.60,10.61,10.23,10.26,647453
30-Jun-15,10.60,10.67,10.48,10.49,852334
29-Jun-15,10.68,10.77,10.48,10.56,912105
26-Jun-15,10.98,10.98,10.75,10.84,843385
25-Jun-15,11.09,11.09,10.94,10.96,912207
24-Jun-15,11.01,11.05,10.85,10.95,666546
23-Jun-15,10.96,11.15,10.92,11.00,1198771
22-Jun-15,11.18,11.30,10.76,10.97,1366181
19-Jun-15,11.20,11.40,11.11,11.19,2754807
18-Jun-15,10.70,11.85,10.70,11.25,4634842
17-Jun-15,13.41,13.92,13.41,13.85,816889
16-Jun-15,12.84,13.44,12.83,13.40,940925
15-Jun-15,12.49,12.89,12.39,12.87,352460
12-Jun-15,12.43,12.62,12.43,12.62,166581
11-Jun-15,12.40,12.53,12.36,12.44,166672
10-Jun-15,12.22,12.49,12.22,12.40,468754
9-Jun-15,12.23,12.28,12.13,12.19,267251
8-Jun-15,12.30,12.56,12.24,12.25,358640
5-Jun-15,12.27,12.43,12.19,12.30,262368
4-Jun-15,12.51,12.54,12.25,12.27,236999
3-Jun-15,12.29,12.70,12.29,12.59,699212
2-Jun-15,12.09,12.32,12.09,12.23,458337
1-Jun-15,12.25,12.29,12.03,12.15,243742
29-May-15,12.26,12.26,12.13,12.20,260348
28-May-15,12.20,12.34,12.14,12.26,335382
27-May-15,12.16,12.28,12.06,12.19,926294
26-May-15,12.35,12.35,12.05,12.19,451710
22-May-15,12.47,12.59,12.34,12.42,394636
21-May-15,12.51,12.59,12.41,12.47,411850
20-May-15,12.59,12.59,12.45,12.48,238114
19-May-15,12.57,12.72,12.53,12.55,249541
18-May-15,12.54,12.60,12.48,12.56,199656
15-May-15,12.65,12.66,12.48,12.58,265052
14-May-15,12.59,12.71,12.54,12.64,241076
13-May-15,12.45,12.63,12.40,12.55,355879
12-May-15,12.43,12.50,12.22,12.40,376764
11-May-15,12.28,12.64,12.16,12.43,457591
8-May-15,12.39,12.39,12.14,12.27,432733
7-May-15,12.00,12.27,11.86,12.27,270239
6-May-15,12.26,12.26,11.96,12.02,224617
5-May-15,12.19,12.35,12.10,12.19,369347
4-May-15,12.48,12.48,12.11,12.22,338321
1-May-15,12.41,12.52,12.19,12.45,911398
30-Apr-15,12.39,12.54,12.27,12.40,370358
29-Apr-15,12.57,12.65,12.46,12.50,206524
28-Apr-15,12.49,12.70,12.39,12.66,193018
27-Apr-15,12.60,12.73,12.48,12.50,240284
24-Apr-15,12.42,12.60,12.29,12.60,277807
23-Apr-15,12.25,12.44,12.20,12.43,275445
22-Apr-15,12.24,12.34,12.14,12.30,196470
21-Apr-15,12.42,12.42,12.21,12.23,197240
20-Apr-15,12.19,12.41,12.09,12.36,214520
17-Apr-15,12.27,12.34,11.96,12.09,533979
16-Apr-15,12.32,12.48,12.24,12.37,333873
15-Apr-15,12.22,12.46,12.15,12.36,356241
14-Apr-15,11.93,12.19,11.74,12.18,306555
13-Apr-15,11.59,12.12,11.59,11.95,507202
10-Apr-15,11.69,11.82,11.45,11.57,2276086
9-Apr-15,11.76,11.88,11.58,11.62,183405
8-Apr-15,11.50,11.89,11.29,11.76,608129
7-Apr-15,11.44,11.53,11.37,11.51,321631
6-Apr-15,11.15,11.48,11.12,11.45,390356
2-Apr-15,11.28,11.44,11.17,11.23,544344
1-Apr-15,11.30,11.38,11.05,11.27,300859
31-Mar-15,11.32,11.56,11.13,11.34,285070
30-Mar-15,11.40,11.43,11.20,11.36,169473
27-Mar-15,11.18,11.33,11.16,11.33,358019
26-Mar-15,11.25,11.31,11.09,11.13,882213
25-Mar-15,11.54,11.56,11.22,11.28,589394
24-Mar-15,11.70,11.84,11.52,11.54,678735
23-Mar-15,11.73,11.78,11.64,11.69,390390
20-Mar-15,11.70,11.75,11.64,11.73,426657
19-Mar-15,11.66,11.92,11.44,11.60,469208
18-Mar-15,11.62,11.78,11.51,11.66,545945
17-Mar-15,12.01,12.09,11.10,11.66,2018500
16-Mar-15,12.56,12.56,12.33,12.40,358598
13-Mar-15,12.51,12.64,12.40,12.49,742338
12-Mar-15,12.54,12.65,12.35,12.50,599487
11-Mar-15,12.46,12.66,12.42,12.47,560583
10-Mar-15,12.55,12.61,12.44,12.48,1058044
9-Mar-15,12.77,12.78,12.58,12.67,1135857
6-Mar-15,12.68,12.97,12.68,12.72,423274
5-Mar-15,12.81,13.00,12.63,12.78,833686
4-Mar-15,12.54,12.78,12.54,12.77,774669
3-Mar-15,12.59,12.91,12.54,12.82,1078616
2-Mar-15,12.78,12.95,12.58,12.65,383540
27-Feb-15,12.87,13.00,12.76,12.76,500435
26-Feb-15,12.62,12.90,12.62,12.86,447434
25-Feb-15,12.49,12.62,12.45,12.61,523219
24-Feb-15,12.34,12.59,12.29,12.47,639205
23-Feb-15,12.27,12.36,12.13,12.36,238040
20-Feb-15,12.20,12.38,12.14,12.28,828270
19-Feb-15,12.24,12.56,12.15,12.21,1421683
18-Feb-15,12.20,12.46,12.18,12.24,1670253
17-Feb-15,12.49,12.61,12.20,12.26,553409
13-Feb-15,12.12,12.54,11.99,12.49,1043580
12-Feb-15,12.87,12.87,12.20,12.22,1821585
11-Feb-15,12.72,13.03,12.71,12.80,228619
10-Feb-15,12.92,12.94,12.42,12.78,355240
9-Feb-15,13.03,13.13,12.74,12.81,181610
6-Feb-15,12.82,13.07,12.73,13.06,214603
5-Feb-15,13.00,13.07,12.67,12.85,279426
4-Feb-15,12.87,13.10,12.78,12.94,314530
3-Feb-15,12.85,13.06,12.77,12.97,392726
2-Feb-15,12.49,12.79,12.27,12.77,314854
30-Jan-15,12.87,12.95,12.46,12.48,452164
29-Jan-15,12.87,13.02,12.61,13.00,265172
28-Jan-15,13.26,13.26,12.67,12.86,760560
27-Jan-15,13.00,13.23,12.91,13.19,246783
26-Jan-15,13.24,13.25,13.04,13.20,340881
23-Jan-15,13.23,13.54,13.15,13.29,291858
22-Jan-15,13.42,13.44,13.09,13.27,398874
21-Jan-15,13.47,13.57,13.09,13.32,271921
20-Jan-15,13.15,13.55,12.91,13.53,499061
16-Jan-15,12.29,13.24,12.24,13.14,1206605
15-Jan-15,12.54,12.54,12.11,12.30,367078
14-Jan-15,12.19,12.51,12.13,12.47,154916
13-Jan-15,12.36,12.74,12.09,12.36,379510
12-Jan-15,12.21,12.31,11.90,12.25,303034
9-Jan-15,12.45,12.45,12.14,12.25,292110
8-Jan-15,12.13,12.55,11.96,12.43,212745
7-Jan-15,12.04,12.10,11.74,12.05,271549
6-Jan-15,12.18,12.32,11.79,11.96,370228
5-Jan-15,12.24,12.41,12.01,12.12,263140
2-Jan-15,12.47,12.50,11.95,12.35,303108
31-Dec-14,12.57,12.60,12.37,12.43,191755
30-Dec-14,12.38,12.57,12.33,12.57,142017
29-Dec-14,12.60,12.66,12.24,12.44,307453
26-Dec-14,12.71,12.71,12.33,12.60,202910
24-Dec-14,12.69,12.74,12.59,12.63,160128
23-Dec-14,12.69,12.79,12.53,12.64,298256
22-Dec-14,12.55,12.64,12.39,12.64,204412
19-Dec-14,12.04,12.63,12.04,12.51,1102828
18-Dec-14,11.70,12.18,11.69,12.02,764416
17-Dec-14,11.23,11.54,11.23,11.53,622228
16-Dec-14,11.15,11.40,11.06,11.23,400172
15-Dec-14,11.30,11.41,11.16,11.19,266685
12-Dec-14,11.18,11.50,11.18,11.22,281598
11-Dec-14,11.49,11.63,11.29,11.33,209360
10-Dec-14,11.66,11.75,11.37,11.41,473140
9-Dec-14,11.22,11.70,11.14,11.70,260920
8-Dec-14,11.68,11.78,11.22,11.36,463076
5-Dec-14,11.74,11.93,11.65,11.84,280809
4-Dec-14,11.84,11.87,11.60,11.70,215317
3-Dec-14,11.98,12.19,11.92,11.93,259623
2-Dec-14,11.90,12.23,11.90,11.96,403014
1-Dec-14,11.64,12.02,11.49,11.91,336434
28-Nov-14,11.83,11.87,11.69,11.69,120686
26-Nov-14,11.91,11.92,11.77,11.83,268396
25-Nov-14,12.04,12.11,11.85,11.93,206741
24-Nov-14,12.12,12.16,11.88,12.00,364025
21-Nov-14,12.08,12.17,11.95,12.08,381723
20-Nov-14,11.64,12.07,11.63,11.87,242369
19-Nov-14,11.90,11.98,11.59,11.70,454135
18-Nov-14,12.09,12.22,11.93,11.95,438715
17-Nov-14,12.15,12.41,11.95,12.05,941713
14-Nov-14,12.03,12.59,11.95,12.15,1091132
13-Nov-14,12.13,12.21,11.84,12.04,499877
12-Nov-14,11.82,12.17,11.75,12.15,509041
11-Nov-14,11.52,11.91,11.40,11.90,743427
10-Nov-14,10.65,11.51,10.65,11.51,513300
7-Nov-14,10.76,10.92,10.40,10.80,615648
6-Nov-14,10.81,10.97,10.75,10.83,354826
5-Nov-14,10.82,10.90,10.73,10.81,397149
4-Nov-14,10.70,10.85,10.59,10.74,333922
3-Nov-14,10.84,11.19,10.65,10.75,498285
31-Oct-14,10.85,10.90,10.60,10.86,373405
30-Oct-14,10.30,10.72,10.09,10.59,1088838
29-Oct-14,10.64,10.66,10.21,10.35,461547
28-Oct-14,10.27,10.74,10.21,10.63,1509330
27-Oct-14,10.09,10.36,9.97,10.28,1528367
24-Oct-14,10.19,10.19,9.97,10.13,241243
23-Oct-14,9.99,10.26,9.86,10.15,761231
22-Oct-14,10.32,10.37,9.80,9.83,290292
21-Oct-14,10.15,10.41,10.05,10.33,758895
20-Oct-14,9.97,10.15,9.93,10.10,426065
17-Oct-14,10.28,10.33,9.94,9.96,466834
16-Oct-14,9.90,10.35,9.88,10.15,676160
15-Oct-14,9.81,10.19,9.69,10.04,936849
14-Oct-14,9.77,10.03,9.66,9.89,1028309
13-Oct-14,9.51,9.89,9.39,9.66,661060
10-Oct-14,10.89,10.96,9.74,9.75,2284034
9-Oct-14,11.18,11.20,10.77,10.98,914697
8-Oct-14,10.88,11.27,10.72,11.22,444953
7-Oct-14,11.16,11.20,10.86,10.87,313787
6-Oct-14,11.27,11.42,11.12,11.23,357064
3-Oct-14,11.56,11.60,11.24,11.25,314885
2-Oct-14,11.22,11.52,11.13,11.42,761820
1-Oct-14,11.34,11.36,10.98,11.21,1546197
30-Sep-14,11.57,11.74,11.36,11.36,433545
29-Sep-14,11.59,11.76,11.48,11.55,679105
26-Sep-14,11.62,11.84,11.55,11.73,221463
25-Sep-14,11.91,11.96,11.47,11.58,437960
24-Sep-14,11.89,12.03,11.78,11.89,352144
23-Sep-14,11.86,12.07,11.79,11.88,694091
22-Sep-14,11.99,12.03,11.72,11.89,406549
19-Sep-14,12.11,12.33,11.90,12.07,639264
18-Sep-14,11.91,12.14,11.78,12.09,481952
17-Sep-14,11.66,11.98,11.52,11.89,1725034
16-Sep-14,11.36,11.91,11.11,11.70,3760957
15-Sep-14,13.36,13.36,10.66,11.92,3924207
12-Sep-14,13.80,13.97,13.65,13.82,459167
11-Sep-14,13.62,13.85,13.50,13.80,290493
10-Sep-14,13.63,13.78,13.50,13.70,426901
9-Sep-14,13.97,14.06,13.57,13.60,504264
8-Sep-14,13.62,14.05,13.55,14.02,815706
5-Sep-14,13.47,13.75,13.20,13.60,1055316
4-Sep-14,13.77,13.91,13.41,13.52,890851
3-Sep-14,14.12,14.20,13.74,13.76,676821
2-Sep-14,13.99,14.13,13.95,14.03,493860
29-Aug-14,14.03,14.21,13.99,14.04,1208729
28-Aug-14,14.26,14.26,14.03,14.04,496890
27-Aug-14,14.54,14.54,14.25,14.31,613109
26-Aug-14,14.55,14.71,14.42,14.53,869784
25-Aug-14,14.90,14.98,14.52,14.54,613499
22-Aug-14,15.05,15.15,14.67,14.79,1015142
21-Aug-14,15.08,15.24,14.93,15.06,474795
20-Aug-14,15.13,15.30,15.06,15.09,470426
19-Aug-14,15.51,15.55,15.16,15.21,722185
18-Aug-14,15.31,15.63,15.28,15.47,1151245
15-Aug-14,15.15,15.38,14.96,15.21,1191646
14-Aug-14,14.72,15.04,14.72,15.03,646524
13-Aug-14,14.32,14.87,14.23,14.68,1016264
12-Aug-14,14.25,14.48,14.09,14.20,1806693
11-Aug-14,14.10,14.37,13.96,14.31,944386
8-Aug-14,13.68,14.74,13.45,14.12,4896042
7-Aug-14,16.58,16.84,16.31,16.49,593147
6-Aug-14,16.29,16.98,16.20,16.54,733268
5-Aug-14,16.56,16.62,16.24,16.38,420665
4-Aug-14,16.70,16.87,16.45,16.67,350612
1-Aug-14,16.88,16.97,16.31,16.63,432673
31-Jul-14,17.14,17.28,16.86,16.86,337024
30-Jul-14,17.46,17.53,17.18,17.39,433960
29-Jul-14,17.19,17.32,17.14,17.21,223386
28-Jul-14,17.50,17.50,16.98,17.14,258827
25-Jul-14,17.02,17.58,16.93,17.43,435884
24-Jul-14,17.37,17.44,17.07,17.21,364277
23-Jul-14,17.51,17.51,17.22,17.31,222210
22-Jul-14,17.50,17.67,17.44,17.49,237919
21-Jul-14,17.61,17.64,17.34,17.42,318650
18-Jul-14,17.58,17.89,17.51,17.71,525113
17-Jul-14,17.89,18.00,17.47,17.57,322331
16-Jul-14,17.79,18.11,17.71,17.95,421559
15-Jul-14,17.73,17.80,17.41,17.64,658124
14-Jul-14,17.92,18.09,17.72,17.75,212417
11-Jul-14,17.53,17.86,17.52,17.76,227211
10-Jul-14,17.35,17.83,17.22,17.58,297413
9-Jul-14,17.72,17.96,17.46,17.81,537787
8-Jul-14,18.02,18.02,17.54,17.72,584892
7-Jul-14,18.13,18.15,17.87,18.00,477472
3-Jul-14,17.69,18.19,17.65,18.17,555542
2-Jul-14,17.77,17.93,17.56,17.62,406865
1-Jul-14,17.61,18.07,17.61,17.82,562486
30-Jun-14,17.61,17.83,17.47,17.54,591210
27-Jun-14,17.60,17.88,17.34,17.62,2327738
26-Jun-14,17.91,17.94,17.35,17.64,596488
25-Jun-14,17.43,17.97,17.04,17.92,1037295
24-Jun-14,17.16,17.86,17.05,17.48,795203
23-Jun-14,17.12,17.26,16.88,17.16,628086
20-Jun-14,16.95,17.20,16.68,17.12,1004987
19-Jun-14,17.20,17.32,16.75,16.99,662867
18-Jun-14,17.11,17.25,16.87,17.14,1087512
17-Jun-14,17.07,17.66,16.98,17.09,1012152
16-Jun-14,17.09,17.47,17.05,17.46,419197
13-Jun-14,16.93,17.34,16.78,17.16,507285
12-Jun-14,16.42,16.92,16.30,16.84,663060
11-Jun-14,16.28,16.52,16.23,16.33,395021
10-Jun-14,16.40,16.68,16.31,16.36,488404
9-Jun-14,16.12,16.49,16.08,16.41,475915
6-Jun-14,15.73,16.19,15.61,16.15,637704
5-Jun-14,15.58,16.25,15.48,15.66,820645
4-Jun-14,14.66,15.09,14.44,14.94,603171
3-Jun-14,14.84,14.96,14.73,14.73,271419
2-Jun-14,15.24,15.24,14.80,14.87,253304
30-May-14,15.56,15.56,14.90,15.15,519482
29-May-14,15.45,15.75,15.30,15.54,397015
28-May-14,15.45,15.55,15.30,15.45,353315
27-May-14,15.04,15.59,15.04,15.45,444756
23-May-14,14.63,15.09,14.55,15.02,440895
22-May-14,14.83,14.85,14.64,14.70,441610
21-May-14,14.79,14.90,14.64,14.80,342118
20-May-14,15.02,15.11,14.69,14.74,364901
19-May-14,14.69,15.25,14.69,15.10,358224
16-May-14,14.80,14.97,14.64,14.79,543097
15-May-14,15.08,15.30,14.76,14.83,785593
14-May-14,15.30,15.32,14.77,14.77,423769
13-May-14,15.33,15.57,15.10,15.30,506442
12-May-14,15.20,15.58,15.17,15.32,928017
9-May-14,15.67,15.76,14.86,15.16,1651189
8-May-14,16.55,16.55,15.11,15.77,2044302
7-May-14,16.89,16.89,15.44,15.65,1641764
6-May-14,17.16,17.22,16.58,16.81,497156
5-May-14,16.76,17.31,16.69,17.24,307604
2-May-14,16.75,16.93,16.58,16.88,393454
1-May-14,17.60,17.60,16.51,16.70,472376
30-Apr-14,16.69,17.54,16.40,17.52,505866
29-Apr-14,16.62,16.97,16.43,16.83,312979
28-Apr-14,16.82,16.98,16.19,16.55,533003
25-Apr-14,17.14,17.16,16.64,16.76,356203
24-Apr-14,17.63,17.63,17.00,17.27,283270
23-Apr-14,17.71,17.73,17.29,17.47,243777
22-Apr-14,17.36,17.95,17.20,17.76,495724
21-Apr-14,17.28,17.48,16.88,17.30,280677
17-Apr-14,17.10,17.48,16.86,17.27,351002
16-Apr-14,17.05,17.46,16.80,17.15,504577
15-Apr-14,16.62,17.00,16.12,16.89,595960
14-Apr-14,16.18,16.73,16.04,16.56,597673
11-Apr-14,16.12,16.44,15.91,16.03,429539
10-Apr-14,16.93,16.94,16.25,16.32,331506
9-Apr-14,16.82,17.00,16.59,16.99,418448
8-Apr-14,16.53,16.85,16.40,16.71,457889
7-Apr-14,16.43,16.74,16.27,16.51,1094189
4-Apr-14,16.97,16.97,16.43,16.47,672359
3-Apr-14,17.33,17.36,16.66,16.82,418701
2-Apr-14,17.07,17.47,17.05,17.35,362585
1-Apr-14,16.95,17.11,16.80,17.04,712316
31-Mar-14,17.07,17.28,16.84,16.94,765076
28-Mar-14,16.97,17.38,16.88,17.01,523927
27-Mar-14,16.97,17.04,16.51,16.88,820617
26-Mar-14,17.02,17.15,16.89,17.00,832039
25-Mar-14,16.98,17.22,16.65,16.85,734152
24-Mar-14,17.20,17.20,16.52,16.91,544192
21-Mar-14,17.29,17.38,16.92,17.11,944407
20-Mar-14,17.36,17.43,17.00,17.21,438851
19-Mar-14,17.69,17.76,17.32,17.42,688564
18-Mar-14,16.95,18.04,16.92,17.75,1564505
17-Mar-14,17.10,17.20,16.71,16.98,816438
14-Mar-14,16.40,17.31,16.34,16.93,1231129
13-Mar-14,17.40,17.41,15.81,16.40,2259363
12-Mar-14,17.39,17.57,17.04,17.31,1344844
11-Mar-14,18.52,18.55,17.30,17.50,1838326
10-Mar-14,19.06,19.07,18.35,18.53,673482
7-Mar-14,18.86,19.16,18.35,19.14,1104181
6-Mar-14,19.12,19.22,18.63,18.71,1319475
5-Mar-14,18.03,19.24,18.02,19.11,11852791
4-Mar-14,19.64,19.64,18.63,18.96,1903298
3-Mar-14,19.85,19.85,19.23,19.48,533442
28-Feb-14,20.80,21.49,20.11,20.13,932890
27-Feb-14,20.47,20.90,20.37,20.82,340822
26-Feb-14,19.94,20.53,19.94,20.45,349409
25-Feb-14,19.51,19.88,19.39,19.86,522582
24-Feb-14,19.86,19.96,19.49,19.52,414345
21-Feb-14,20.07,20.08,19.85,19.86,416899
20-Feb-14,19.86,20.12,19.57,19.98,834357
19-Feb-14,20.78,20.87,19.54,19.84,1646942
18-Feb-14,20.80,21.25,20.56,21.15,1221464
14-Feb-14,18.50,21.07,18.50,20.80,3811959
13-Feb-14,17.43,17.45,17.25,17.40,920414
12-Feb-14,17.34,17.56,17.13,17.56,685435
11-Feb-14,16.29,17.36,16.29,17.28,609560
10-Feb-14,16.05,16.28,15.78,16.23,216294
7-Feb-14,16.28,16.37,15.96,16.00,335517
6-Feb-14,16.03,16.56,16.03,16.22,405769
5-Feb-14,16.50,16.61,15.80,16.05,442880
4-Feb-14,16.10,16.74,15.90,16.58,376544
3-Feb-14,16.58,16.76,15.90,16.06,565626
31-Jan-14,16.30,16.86,16.24,16.59,270516
30-Jan-14,16.36,16.71,16.31,16.60,434105
29-Jan-14,15.97,16.21,15.76,16.00,243200
28-Jan-14,16.06,16.26,15.95,16.11,231648
27-Jan-14,16.14,16.27,15.85,16.06,378728
24-Jan-14,16.06,16.14,15.68,16.06,379652
23-Jan-14,15.89,16.17,15.68,16.17,406190
22-Jan-14,15.87,16.09,15.78,15.93,447570
21-Jan-14,16.12,16.20,15.73,15.80,1182519
17-Jan-14,16.73,16.75,16.03,16.06,366796
16-Jan-14,16.95,17.12,16.70,16.76,249330
15-Jan-14,16.87,17.18,16.87,17.00,240665
14-Jan-14,16.68,16.90,16.64,16.81,257706
13-Jan-14,16.99,17.09,16.41,16.61,723864
10-Jan-14,16.23,17.08,16.12,16.98,837830
9-Jan-14,16.48,16.54,15.90,16.20,569864
8-Jan-14,16.60,16.68,16.41,16.48,362543
7-Jan-14,16.61,17.06,16.49,16.60,1644464
6-Jan-14,17.43,17.50,16.61,16.64,638345
3-Jan-14,17.43,17.52,17.18,17.33,363364
2-Jan-14,17.83,17.92,17.35,17.44,377509
31-Dec-13,18.08,18.12,17.83,17.94,225079
30-Dec-13,18.57,18.57,17.93,17.99,999369
27-Dec-13,18.32,18.67,18.22,18.53,449574
26-Dec-13,18.10,18.48,18.08,18.23,248076
24-Dec-13,18.33,18.43,17.96,18.06,62093
23-Dec-13,18.07,18.21,17.92,18.12,366108
20-Dec-13,17.45,18.03,17.36,17.94,498309
19-Dec-13,17.64,17.79,17.38,17.50,305182
18-Dec-13,17.32,17.76,17.07,17.70,480401
17-Dec-13,17.14,17.52,16.96,17.32,516654
16-Dec-13,17.16,17.63,16.81,17.09,839937
13-Dec-13,17.07,17.37,16.98,17.03,457025
12-Dec-13,17.20,17.35,16.82,16.95,553889
11-Dec-13,17.97,17.97,17.03,17.14,410704
10-Dec-13,18.06,18.22,17.84,17.92,249435
9-Dec-13,18.22,18.26,17.76,18.00,223049
6-Dec-13,18.42,18.48,18.02,18.19,209528
5-Dec-13,18.17,18.44,18.01,18.20,207718
4-Dec-13,17.89,18.22,17.70,18.16,320479
3-Dec-13,18.08,18.26,17.93,17.99,290583
2-Dec-13,18.78,18.78,17.92,18.08,721035
29-Nov-13,18.90,18.90,18.73,18.74,196279
27-Nov-13,19.07,19.12,18.85,18.90,150018
26-Nov-13,18.66,19.16,18.57,19.02,264236
25-Nov-13,18.86,19.08,18.16,18.69,990318
22-Nov-13,19.00,19.07,18.79,18.87,401753
21-Nov-13,18.90,19.18,18.90,18.94,381134
20-Nov-13,19.14,19.23,18.80,18.87,517964
19-Nov-13,18.57,19.09,18.41,19.07,675655
18-Nov-13,18.88,19.16,18.48,18.52,457352
15-Nov-13,18.86,18.92,18.58,18.80,513623
14-Nov-13,18.39,18.98,18.35,18.78,539579
13-Nov-13,18.22,18.61,18.22,18.42,765547
12-Nov-13,17.96,18.39,17.90,18.28,389901
11-Nov-13,18.13,18.28,17.97,18.00,338905
8-Nov-13,17.40,18.27,17.40,18.20,799823
7-Nov-13,17.61,17.65,17.24,17.43,843899
6-Nov-13,17.51,17.65,17.31,17.56,856024
5-Nov-13,17.07,17.54,16.95,17.45,967382
4-Nov-13,16.96,17.16,16.63,17.12,1746825
1-Nov-13,16.82,17.17,16.40,16.90,1234935
31-Oct-13,17.75,18.38,16.20,16.84,4983023
30-Oct-13,21.58,21.58,20.88,20.94,665939
29-Oct-13,22.29,22.36,21.43,21.61,733599
28-Oct-13,21.92,22.60,21.71,22.29,616977
25-Oct-13,22.75,22.85,21.56,21.87,838611
24-Oct-13,22.41,23.14,22.09,22.69,348932
23-Oct-13,22.28,22.74,21.94,22.41,250358
22-Oct-13,22.83,22.84,22.04,22.42,187021
21-Oct-13,22.44,23.03,22.44,22.70,278448
18-Oct-13,22.65,22.68,22.05,22.45,634409
17-Oct-13,22.10,22.34,21.95,22.34,328366
16-Oct-13,21.84,22.23,21.72,22.15,359537
15-Oct-13,22.32,22.32,21.58,21.81,480272
14-Oct-13,21.87,22.42,21.63,22.42,264494
11-Oct-13,21.13,22.02,21.13,22.02,256111
10-Oct-13,20.70,21.22,20.70,21.21,374350
9-Oct-13,20.76,20.88,20.20,20.45,439529
8-Oct-13,21.12,21.15,20.55,20.75,1149033
7-Oct-13,21.05,21.24,20.79,21.03,263216
4-Oct-13,21.06,21.27,20.99,21.13,305785
3-Oct-13,20.94,21.05,20.55,20.99,258030
2-Oct-13,20.78,21.09,20.51,20.98,604932
1-Oct-13,20.63,20.81,20.44,20.77,653915
30-Sep-13,20.02,20.72,19.97,20.57,348049
27-Sep-13,19.91,20.05,19.66,19.99,360244
26-Sep-13,19.53,20.12,19.15,19.94,324760
25-Sep-13,19.63,19.77,19.25,19.44,232086
24-Sep-13,19.12,19.57,18.60,19.55,354556
23-Sep-13,19.34,19.35,18.70,19.06,284545
20-Sep-13,19.01,19.44,18.72,19.42,589906
19-Sep-13,18.80,19.08,18.80,19.00,376384
18-Sep-13,18.43,18.84,18.40,18.78,245245
17-Sep-13,18.15,18.50,18.15,18.46,237596
16-Sep-13,18.05,18.24,17.94,18.22,296720
13-Sep-13,17.88,17.97,17.62,17.85,130135
12-Sep-13,17.99,18.16,17.75,17.78,250891
11-Sep-13,17.65,18.18,17.65,18.02,506405
10-Sep-13,17.77,17.95,17.51,17.72,191080
9-Sep-13,17.61,17.72,17.38,17.71,245712
6-Sep-13,17.32,17.61,17.05,17.60,300724
5-Sep-13,17.46,17.53,17.09,17.26,133123
4-Sep-13,16.93,17.16,16.84,17.12,305996
3-Sep-13,17.37,17.54,16.60,16.86,364094
30-Aug-13,17.37,17.37,16.97,17.20,366848
29-Aug-13,16.99,17.53,16.99,17.39,319374
28-Aug-13,17.06,17.08,16.82,17.00,292908
27-Aug-13,17.23,17.23,16.94,17.02,473295
26-Aug-13,17.58,17.64,17.30,17.38,206822
23-Aug-13,17.51,17.71,17.35,17.58,164815
22-Aug-13,17.41,17.64,17.28,17.53,209833
21-Aug-13,17.28,17.48,17.14,17.31,319678
20-Aug-13,17.16,17.50,17.03,17.34,441472
19-Aug-13,17.28,17.28,17.00,17.10,1255335
16-Aug-13,17.28,17.36,17.04,17.33,574817
15-Aug-13,17.48,17.60,17.25,17.34,461715
14-Aug-13,17.18,17.69,17.05,17.61,641796
13-Aug-13,17.18,17.24,16.95,17.20,254282
12-Aug-13,16.94,17.31,16.87,17.11,466993
9-Aug-13,17.14,17.29,16.90,17.02,455391
8-Aug-13,17.74,17.87,17.06,17.22,601029
7-Aug-13,17.64,17.78,17.21,17.68,477617
6-Aug-13,18.00,18.00,17.49,17.72,534314
5-Aug-13,18.15,18.22,17.87,17.98,502656
2-Aug-13,18.09,18.31,17.92,18.20,702066
1-Aug-13,18.09,18.24,17.61,18.12,827079
31-Jul-13,18.58,18.63,17.59,17.93,1839629
30-Jul-13,18.26,19.75,17.57,18.49,3902897
29-Jul-13,15.65,15.94,15.43,15.78,560095
26-Jul-13,15.82,15.83,15.51,15.72,212110
25-Jul-13,15.57,16.01,15.47,15.89,467823
24-Jul-13,16.05,16.20,15.68,15.91,354300
23-Jul-13,16.31,16.31,15.91,16.04,354531
22-Jul-13,16.16,16.32,16.10,16.22,519059
19-Jul-13,16.08,16.23,15.98,16.09,397423
18-Jul-13,15.70,16.23,15.66,16.08,363103
17-Jul-13,15.44,15.72,15.35,15.71,261959
16-Jul-13,16.43,16.50,15.14,15.44,646882
15-Jul-13,15.35,16.56,15.31,16.45,614151
12-Jul-13,15.23,15.40,15.14,15.35,137348
11-Jul-13,14.94,15.20,14.92,15.19,231257
10-Jul-13,14.74,14.85,14.60,14.77,100180
9-Jul-13,14.55,14.73,14.45,14.72,162371
8-Jul-13,14.56,14.59,14.33,14.50,193324
5-Jul-13,14.63,14.63,14.34,14.53,106469
3-Jul-13,14.36,14.57,14.36,14.45,53811
2-Jul-13,14.31,14.55,14.23,14.44,525916
1-Jul-13,14.49,14.49,14.11,14.35,575315
28-Jun-13,14.55,14.58,14.31,14.36,1427028
27-Jun-13,14.98,15.14,14.55,14.55,519633
26-Jun-13,14.67,15.16,14.53,14.90,545272
25-Jun-13,14.58,14.70,14.42,14.59,437041
24-Jun-13,14.66,14.79,14.25,14.50,360556
21-Jun-13,14.01,15.05,13.98,14.81,712553
20-Jun-13,14.07,14.32,13.81,13.88,267173
19-Jun-13,14.34,14.44,14.07,14.24,246261
18-Jun-13,13.84,14.48,13.82,14.32,342474
17-Jun-13,13.86,14.05,13.44,13.81,571693
14-Jun-13,14.10,14.15,13.70,13.78,299595
13-Jun-13,14.00,14.13,13.82,14.08,343709
12-Jun-13,14.14,14.24,14.00,14.03,186030
11-Jun-13,14.00,14.45,14.00,14.05,293013
10-Jun-13,14.02,14.18,13.95,14.15,388740
7-Jun-13,13.96,14.15,13.72,14.01,698117
6-Jun-13,14.00,14.09,13.60,13.91,273067
5-Jun-13,13.82,14.10,13.70,13.88,455282
4-Jun-13,13.89,14.00,13.58,13.80,326478
3-Jun-13,14.31,14.44,13.68,13.91,491509
31-May-13,13.42,14.36,13.34,14.31,936481
30-May-13,13.24,13.57,13.08,13.44,232042
29-May-13,13.31,13.33,13.08,13.17,243610
28-May-13,13.42,13.55,13.05,13.29,556750
24-May-13,13.82,13.85,13.24,13.33,515705
23-May-13,13.82,14.03,13.67,13.85,432370
22-May-13,14.16,14.23,13.78,13.97,990007
21-May-13,13.78,14.25,13.53,14.12,1204362
20-May-13,14.03,14.03,13.72,13.80,556290
17-May-13,14.09,14.22,13.82,14.02,620083
16-May-13,14.46,14.46,14.03,14.06,931512
15-May-13,14.84,14.91,14.43,14.46,714215
14-May-13,14.66,15.06,14.41,14.77,1440775
13-May-13,15.76,15.90,15.24,15.35,397031
10-May-13,15.73,15.84,15.63,15.83,375923
9-May-13,15.80,15.85,15.56,15.74,338076
8-May-13,15.89,15.91,15.72,15.85,448213
7-May-13,16.02,16.05,15.79,15.92,558597
6-May-13,15.90,16.07,15.82,15.95,406379
3-May-13,15.92,16.05,15.85,15.85,627174
2-May-13,15.37,15.81,15.37,15.79,793851
1-May-13,16.13,16.15,14.98,15.40,1919041
30-Apr-13,13.48,13.53,13.29,13.48,919778
29-Apr-13,13.59,13.72,13.24,13.52,366515
26-Apr-13,13.38,13.71,13.35,13.58,527917
25-Apr-13,13.06,13.77,13.06,13.37,597580
24-Apr-13,13.39,13.42,12.85,13.07,608446
23-Apr-13,12.41,13.62,12.41,13.45,935940
22-Apr-13,13.25,13.32,13.01,13.30,445808
19-Apr-13,13.02,13.30,12.99,13.25,487501
18-Apr-13,13.13,13.17,12.92,13.01,267829
17-Apr-13,13.17,13.23,12.96,13.06,466885
16-Apr-13,13.02,13.34,12.90,13.30,468170
15-Apr-13,13.42,13.64,12.82,12.91,450117
12-Apr-13,12.88,13.50,12.43,13.47,1644029
11-Apr-13,12.07,12.14,11.89,11.96,206760
10-Apr-13,11.79,12.16,11.79,12.05,209681
9-Apr-13,11.74,11.96,11.74,11.75,243804
8-Apr-13,11.75,11.80,11.56,11.69,339171
5-Apr-13,11.76,11.80,11.62,11.72,207571
4-Apr-13,11.69,12.00,11.58,11.93,224158
3-Apr-13,11.95,11.99,11.61,11.69,214130
2-Apr-13,11.99,12.03,11.81,11.92,243913
1-Apr-13,11.90,12.03,11.71,11.91,399123
28-Mar-13,11.64,12.03,11.52,11.94,665965
27-Mar-13,12.07,12.07,11.82,11.88,285945
26-Mar-13,12.40,12.40,11.99,12.10,356668
25-Mar-13,12.63,12.65,12.18,12.31,464214
22-Mar-13,12.65,12.76,12.50,12.62,374285
21-Mar-13,12.88,12.96,12.56,12.63,430114
20-Mar-13,12.44,12.93,12.40,12.71,622658
19-Mar-13,12.27,12.40,12.21,12.40,837182
18-Mar-13,12.19,12.36,12.13,12.25,281671
15-Mar-13,12.19,12.39,12.14,12.33,701462
14-Mar-13,12.14,12.20,12.00,12.17,257187
13-Mar-13,11.94,12.21,11.94,12.09,338016
12-Mar-13,11.90,11.99,11.79,11.95,249153
11-Mar-13,12.00,12.16,11.88,11.91,439130
8-Mar-13,12.12,12.18,11.97,12.06,289283
7-Mar-13,11.59,12.15,11.51,12.02,504205
6-Mar-13,11.20,11.58,11.06,11.55,766287
5-Mar-13,11.10,11.32,11.05,11.15,201629
4-Mar-13,11.02,11.32,10.91,11.01,707837
1-Mar-13,11.16,11.17,10.94,11.05,434625
28-Feb-13,11.26,11.32,11.16,11.25,350607
27-Feb-13,10.91,11.41,10.91,11.30,715781
26-Feb-13,10.86,10.98,10.73,10.78,302368
25-Feb-13,11.22,11.50,10.64,10.83,965236
22-Feb-13,10.80,11.21,10.74,11.19,679278
21-Feb-13,10.74,10.80,10.44,10.71,447706
20-Feb-13,10.51,10.76,10.39,10.71,790696
19-Feb-13,10.34,10.55,10.30,10.48,274361
15-Feb-13,10.33,10.60,10.25,10.30,982091
14-Feb-13,10.39,10.51,10.20,10.41,722813
13-Feb-13,10.10,10.67,9.90,10.45,5520284
12-Feb-13,12.38,12.43,12.25,12.38,863995
11-Feb-13,11.99,12.35,11.94,12.34,324279
8-Feb-13,12.24,12.39,11.84,11.96,302998
7-Feb-13,12.21,12.37,12.07,12.19,193664
6-Feb-13,11.93,12.30,11.78,12.20,389519
5-Feb-13,12.08,12.13,11.97,12.00,202317
4-Feb-13,12.46,12.51,11.99,12.02,307514
1-Feb-13,12.46,12.89,12.41,12.55,364548
31-Jan-13,12.34,12.51,12.25,12.37,206036
30-Jan-13,12.57,12.63,12.20,12.39,358266
29-Jan-13,12.64,12.72,12.44,12.55,314676
28-Jan-13,12.81,12.82,12.63,12.69,359215
25-Jan-13,12.73,12.82,12.62,12.77,201480
24-Jan-13,12.73,12.80,12.56,12.69,381456
23-Jan-13,12.79,12.93,12.58,12.75,250761
22-Jan-13,12.81,12.82,12.64,12.77,206915
18-Jan-13,12.55,12.85,12.45,12.77,467779
17-Jan-13,12.69,12.71,12.43,12.57,402818
16-Jan-13,12.75,12.76,12.56,12.58,233512
15-Jan-13,12.77,12.81,12.61,12.75,202466
14-Jan-13,13.26,13.26,12.76,12.86,238232
11-Jan-13,13.37,13.37,13.13,13.26,111843
10-Jan-13,13.25,13.37,13.10,13.35,129584
9-Jan-13,13.08,13.23,13.00,13.17,111540
8-Jan-13,13.25,13.25,12.83,13.05,194809
7-Jan-13,13.33,13.54,13.24,13.24,230685
4-Jan-13,12.95,13.57,12.95,13.43,279762
3-Jan-13,12.82,13.19,12.82,12.87,151521
2-Jan-13,12.62,13.03,12.61,12.81,349436
31-Dec-12,12.46,12.49,12.24,12.45,173468
28-Dec-12,12.11,12.48,12.11,12.48,136429
27-Dec-12,12.35,12.35,11.93,12.18,385183
26-Dec-12,12.85,12.87,12.22,12.32,383235
24-Dec-12,12.70,12.79,12.56,12.79,34270
21-Dec-12,12.82,12.82,12.20,12.75,575373
20-Dec-12,13.21,13.28,12.73,12.90,375983
19-Dec-12,13.05,13.39,13.03,13.16,236561
18-Dec-12,12.81,13.15,12.81,13.01,230991
17-Dec-12,12.75,12.97,12.69,12.76,288908
14-Dec-12,12.49,12.76,12.38,12.72,249015
13-Dec-12,12.45,12.75,12.27,12.55,284542
12-Dec-12,12.41,12.52,12.27,12.41,454027
11-Dec-12,11.93,12.36,11.82,12.35,444513
10-Dec-12,11.64,11.90,11.62,11.85,215573
7-Dec-12,11.55,11.69,11.43,11.64,364386
6-Dec-12,11.30,11.53,11.28,11.51,423346
5-Dec-12,11.25,11.48,10.98,11.39,689079
4-Dec-12,11.15,11.27,10.93,11.09,605198
3-Dec-12,11.30,11.56,10.85,11.17,1221276
30-Nov-12,11.82,12.08,11.78,12.03,530577
29-Nov-12,11.79,12.00,11.68,11.79,321634
28-Nov-12,11.80,11.88,11.55,11.69,495223
27-Nov-12,11.93,11.99,11.71,11.87,545065
26-Nov-12,11.42,12.07,11.41,11.96,531112
23-Nov-12,11.24,11.33,11.12,11.33,126433
21-Nov-12,11.24,11.34,11.00,11.20,319675
20-Nov-12,11.79,11.79,11.23,11.23,336096
19-Nov-12,11.27,11.95,11.16,11.79,802599
16-Nov-12,10.83,11.27,10.74,11.15,906483
15-Nov-12,10.72,10.90,10.57,10.88,502685
14-Nov-12,10.51,10.99,10.51,10.77,490591
13-Nov-12,10.25,10.42,10.17,10.26,224473
12-Nov-12,10.59,10.74,10.17,10.25,394413
9-Nov-12,10.11,10.59,10.02,10.55,417126
8-Nov-12,10.27,10.37,10.01,10.17,497727
7-Nov-12,10.75,10.75,10.37,10.52,417137
6-Nov-12,11.03,11.05,10.80,10.83,503076
5-Nov-12,11.00,11.08,10.83,10.93,404278
2-Nov-12,11.33,11.49,10.94,11.03,524790
1-Nov-12,10.75,11.05,10.73,11.05,474201
31-Oct-12,10.70,10.89,10.57,10.73,549225
26-Oct-12,10.72,10.79,10.59,10.70,1216354
25-Oct-12,10.83,10.88,10.56,10.70,648247
24-Oct-12,10.78,10.87,10.62,10.72,539850
23-Oct-12,10.77,10.88,10.70,10.74,868656
22-Oct-12,10.93,11.06,10.85,10.88,194883
19-Oct-12,11.12,11.13,10.83,10.97,504307
18-Oct-12,11.22,11.28,11.01,11.14,643379
17-Oct-12,11.18,11.32,10.95,11.24,955313
16-Oct-12,10.58,11.26,10.27,11.26,10952211
15-Oct-12,14.70,14.74,13.93,14.50,2585790
12-Oct-12,15.09,15.25,14.62,14.67,578620
11-Oct-12,15.54,15.54,15.06,15.11,760945
10-Oct-12,15.75,15.77,15.28,15.49,266111
9-Oct-12,16.13,16.18,15.63,15.73,286205
8-Oct-12,15.91,16.35,15.82,16.14,420473
5-Oct-12,16.47,16.50,15.93,15.93,271144
4-Oct-12,16.49,16.52,16.23,16.46,389259
3-Oct-12,16.50,16.53,16.37,16.45,540592
2-Oct-12,16.43,16.61,16.28,16.52,384954
1-Oct-12,15.68,16.41,15.54,16.39,606668
28-Sep-12,16.00,16.16,15.58,15.58,321313
27-Sep-12,15.76,16.33,15.54,16.10,611503
26-Sep-12,16.19,16.24,15.54,15.59,314491
25-Sep-12,16.49,16.66,16.12,16.17,855190
24-Sep-12,16.05,16.46,15.99,16.45,338164
21-Sep-12,16.00,16.13,15.89,16.05,978988
20-Sep-12,15.89,15.99,15.65,15.95,418711
19-Sep-12,16.06,16.16,15.82,15.96,600321
18-Sep-12,15.97,16.20,15.88,15.98,640404
17-Sep-12,16.61,16.62,15.63,16.03,535404
14-Sep-12,17.05,17.15,16.62,16.66,460395
13-Sep-12,17.10,17.15,16.63,16.94,221826
12-Sep-12,17.49,17.61,17.10,17.13,117283
11-Sep-12,17.67,17.78,17.31,17.38,116005
10-Sep-12,17.71,17.84,17.50,17.67,239605
7-Sep-12,18.59,18.78,17.61,17.76,227645
6-Sep-12,18.28,18.66,18.10,18.49,542905
5-Sep-12,17.78,18.25,17.68,18.19,287140
4-Sep-12,17.27,17.90,17.10,17.81,338536
31-Aug-12,17.34,17.38,17.09,17.18,143033
30-Aug-12,17.74,17.90,16.95,17.25,278279
29-Aug-12,17.64,17.90,17.46,17.79,196034
28-Aug-12,17.56,17.71,17.39,17.63,176479
27-Aug-12,17.76,17.98,17.47,17.55,144085
24-Aug-12,17.58,17.89,17.51,17.72,260484
23-Aug-12,17.93,18.02,17.34,17.60,336711
22-Aug-12,18.25,18.25,17.69,17.88,378746
21-Aug-12,18.58,18.86,18.22,18.34,202575
20-Aug-12,18.70,18.72,18.25,18.45,328418
17-Aug-12,19.03,19.24,18.64,18.79,560371
16-Aug-12,18.83,19.24,18.72,19.11,278966
15-Aug-12,18.87,19.22,18.65,18.89,222239
14-Aug-12,19.29,19.33,18.70,18.77,331375
13-Aug-12,19.04,19.45,18.75,19.25,343615
10-Aug-12,19.28,19.66,18.93,19.10,312598
9-Aug-12,19.19,19.58,18.92,19.38,500241
8-Aug-12,19.36,19.48,18.93,19.24,578844
7-Aug-12,18.34,19.68,18.22,19.53,897784
6-Aug-12,17.94,18.40,17.80,18.26,950782
3-Aug-12,17.62,18.00,17.36,17.97,524164
2-Aug-12,17.17,17.93,16.98,17.53,765091
1-Aug-12,16.92,18.78,15.83,17.57,2816844
31-Jul-12,17.29,17.50,15.72,15.95,1685156
30-Jul-12,17.62,17.84,17.10,17.28,538257
27-Jul-12,16.86,17.80,16.60,17.66,261801
26-Jul-12,16.62,16.91,16.57,16.83,296551
25-Jul-12,16.57,16.70,16.30,16.43,527480
24-Jul-12,16.09,16.80,15.97,16.46,637764
23-Jul-12,15.85,16.09,15.41,16.00,386722
20-Jul-12,16.49,16.50,15.80,16.00,981080
19-Jul-12,17.22,17.47,16.44,16.61,613241
18-Jul-12,17.07,17.48,16.95,17.20,450847
17-Jul-12,17.14,17.14,16.65,17.05,323216
16-Jul-12,16.87,17.09,16.53,17.02,386659
13-Jul-12,17.04,17.16,16.86,16.95,190522
12-Jul-12,17.05,17.19,16.72,16.97,241077
11-Jul-12,17.45,17.70,17.09,17.15,384017
10-Jul-12,17.93,18.05,17.26,17.35,901788
9-Jul-12,17.78,18.14,17.66,17.90,517943
6-Jul-12,18.12,18.25,17.73,17.76,687194
5-Jul-12,18.43,18.78,18.20,18.29,266142
3-Jul-12,18.55,18.61,18.38,18.52,107019
2-Jul-12,18.24,18.73,18.18,18.50,479762
29-Jun-12,17.99,18.51,17.58,18.39,1041541
28-Jun-12,18.01,18.38,17.56,17.70,527761
27-Jun-12,17.85,18.34,17.68,18.09,831464
26-Jun-12,17.66,18.02,17.56,17.79,903887
25-Jun-12,17.96,18.10,17.43,17.44,666133
22-Jun-12,18.35,18.35,17.96,18.19,3482183
21-Jun-12,18.70,18.83,18.09,18.24,489373
20-Jun-12,19.92,20.00,18.62,18.70,1014067
19-Jun-12,20.36,20.65,19.84,20.08,676182
18-Jun-12,19.67,20.46,19.60,20.32,525704
15-Jun-12,19.28,19.89,18.87,19.84,602288
14-Jun-12,18.73,19.49,18.63,19.42,549594
13-Jun-12,18.84,19.17,18.60,18.80,537192
12-Jun-12,18.37,18.99,18.14,18.93,441332
11-Jun-12,18.46,18.71,18.01,18.31,525828
8-Jun-12,17.87,18.36,17.73,18.30,252321
7-Jun-12,18.15,18.23,17.85,18.00,379417
6-Jun-12,16.86,18.00,16.75,17.87,522274
5-Jun-12,16.73,16.97,16.60,16.73,839621
4-Jun-12,16.74,17.02,16.63,16.76,580050
1-Jun-12,17.12,17.44,16.57,16.72,1494645
31-May-12,17.41,17.65,17.10,17.38,733550
30-May-12,17.73,17.73,17.10,17.30,554020
29-May-12,18.13,18.16,17.57,17.80,598530
25-May-12,18.07,18.34,18.00,18.09,264000
24-May-12,18.48,18.54,17.92,18.05,276456
23-May-12,18.10,18.45,18.00,18.45,577390
22-May-12,18.41,18.70,18.02,18.19,405207
21-May-12,18.52,18.69,18.15,18.47,402933
18-May-12,18.64,19.21,18.36,18.52,1200912
17-May-12,18.95,19.50,18.75,19.34,571514
16-May-12,18.42,19.31,18.41,18.95,785082
15-May-12,19.07,19.07,18.30,18.39,313136
14-May-12,18.37,18.49,18.00,18.33,464614
11-May-12,18.62,18.95,18.49,18.51,536619
10-May-12,19.07,19.30,18.66,18.73,385270
9-May-12,19.29,19.31,18.86,18.96,271242
8-May-12,19.26,19.52,18.70,19.45,478278
7-May-12,19.94,20.19,19.17,19.38,480342
4-May-12,19.80,20.35,19.55,20.07,1283502
3-May-12,20.22,20.22,19.16,19.82,1061360
2-May-12,20.80,22.47,17.25,20.19,4515839
1-May-12,23.44,23.93,22.82,23.71,1490225
30-Apr-12,23.55,23.91,23.22,23.42,376813
27-Apr-12,23.56,23.93,23.34,23.56,205417
26-Apr-12,23.30,23.83,23.30,23.56,103499
25-Apr-12,23.23,23.55,23.10,23.36,272083
24-Apr-12,22.87,23.08,22.87,23.02,231884
23-Apr-12,23.13,23.17,22.76,22.94,389436
20-Apr-12,24.21,24.29,23.24,23.36,599678
19-Apr-12,23.54,23.95,22.99,23.81,326919
18-Apr-12,23.86,24.03,23.42,23.54,332851
17-Apr-12,23.29,23.67,23.06,23.51,270175
16-Apr-12,23.41,23.41,22.57,23.19,463480
13-Apr-12,22.89,23.35,22.89,23.29,242803
12-Apr-12,22.63,23.24,22.60,22.99,189702
11-Apr-12,22.52,22.68,22.12,22.66,342620
10-Apr-12,22.95,23.02,22.23,22.37,187260
9-Apr-12,22.97,23.16,22.67,22.90,214728
5-Apr-12,24.25,24.33,22.83,23.25,1029711
4-Apr-12,24.34,24.54,23.97,24.33,211106
3-Apr-12,24.80,24.90,24.17,24.54,166043
2-Apr-12,24.68,24.94,24.25,24.92,319810
30-Mar-12,24.98,25.10,24.57,24.75,387633
29-Mar-12,24.95,25.33,24.71,24.90,453670
28-Mar-12,24.70,25.49,24.48,25.05,1213744
27-Mar-12,23.52,24.79,23.26,24.72,668047
26-Mar-12,23.62,23.69,23.40,23.53,410980
23-Mar-12,23.39,23.58,23.26,23.43,243773
22-Mar-12,23.34,23.65,23.18,23.41,266457
21-Mar-12,23.04,23.54,22.98,23.44,168025
20-Mar-12,23.08,23.09,22.80,22.92,321048
19-Mar-12,23.02,23.30,22.79,23.19,193273
16-Mar-12,22.64,23.95,22.64,22.96,505676
15-Mar-12,23.05,23.15,22.53,22.55,365687
14-Mar-12,23.38,23.38,22.09,23.09,530397
13-Mar-12,23.30,23.47,23.15,23.40,304276
12-Mar-12,23.38,23.38,22.97,23.16,134948
9-Mar-12,22.83,23.60,22.83,23.33,149976
8-Mar-12,23.71,23.71,22.44,22.78,629977
7-Mar-12,23.78,24.06,23.42,23.62,357753
6-Mar-12,23.59,23.77,23.22,23.76,354229
5-Mar-12,23.66,24.18,23.66,23.82,228869
2-Mar-12,24.25,24.31,23.26,23.73,522559
1-Mar-12,23.86,24.41,23.69,24.25,173181
29-Feb-12,24.44,24.65,23.42,23.84,318832
28-Feb-12,25.19,25.32,24.18,24.33,802802
27-Feb-12,24.98,25.95,24.93,25.24,593659
24-Feb-12,24.23,25.03,23.96,25.00,356486
23-Feb-12,24.30,24.35,23.99,24.20,239015
22-Feb-12,24.55,24.73,23.92,24.20,306847
21-Feb-12,24.18,24.76,23.87,24.61,208141
17-Feb-12,23.56,24.38,23.56,24.19,457662
16-Feb-12,23.19,23.66,23.04,23.49,160796
15-Feb-12,23.96,23.96,23.00,23.22,276730
14-Feb-12,24.04,24.08,23.55,23.78,220840
13-Feb-12,24.50,24.50,24.03,24.20,247616
10-Feb-12,23.95,24.33,23.85,24.31,292679
9-Feb-12,24.11,24.63,23.98,24.10,390041
8-Feb-12,23.93,24.40,23.77,24.08,1280453
7-Feb-12,23.20,25.65,23.20,23.98,1100987
6-Feb-12,24.52,24.93,23.89,24.39,417097
3-Feb-12,24.82,25.49,24.29,24.76,464953
2-Feb-12,23.86,24.50,23.78,24.49,376895
1-Feb-12,23.52,23.84,23.14,23.79,492061
31-Jan-12,23.94,24.05,23.07,23.39,221614
30-Jan-12,23.82,24.16,23.41,23.77,367211
27-Jan-12,23.40,24.10,23.21,23.89,325109
26-Jan-12,23.73,23.90,23.12,23.38,349882
25-Jan-12,23.70,23.70,23.25,23.53,366885
24-Jan-12,22.65,23.91,22.51,23.47,495548
23-Jan-12,23.02,23.08,22.50,22.66,176171
20-Jan-12,23.22,23.50,22.73,22.99,410941
19-Jan-12,23.23,23.49,23.06,23.27,253142
18-Jan-12,23.19,23.29,22.93,23.29,209227
17-Jan-12,23.09,23.48,23.01,23.22,352740
13-Jan-12,23.24,23.24,22.74,22.85,518596
12-Jan-12,22.65,23.62,22.59,23.41,372879
11-Jan-12,22.43,22.61,22.09,22.57,119896
10-Jan-12,21.75,22.64,21.69,22.46,432770
9-Jan-12,21.67,21.73,21.33,21.56,377714
6-Jan-12,22.08,22.08,21.58,21.58,376079
5-Jan-12,22.30,22.74,22.00,22.09,532652
4-Jan-12,22.46,22.52,22.03,22.34,393085
3-Jan-12,21.87,23.08,21.76,22.39,473852
30-Dec-11,21.00,21.61,21.00,21.50,343635
29-Dec-11,20.57,21.31,20.33,21.24,407524
28-Dec-11,20.20,20.69,19.73,20.48,520821
27-Dec-11,19.97,20.36,19.59,20.32,159406
23-Dec-11,19.41,20.08,19.17,20.05,363884
22-Dec-11,19.42,19.66,19.25,19.37,298497
21-Dec-11,19.72,19.72,19.07,19.35,512792
20-Dec-11,19.54,19.98,19.36,19.83,431261
19-Dec-11,19.34,19.65,19.14,19.22,287043
16-Dec-11,18.97,19.52,18.48,19.39,713674
15-Dec-11,17.85,19.25,17.85,18.96,345316
14-Dec-11,18.47,19.44,18.42,18.84,532737
13-Dec-11,18.89,19.05,18.45,18.55,493118
12-Dec-11,19.19,19.32,18.58,18.83,433802
9-Dec-11,19.43,19.82,19.06,19.43,626763
8-Dec-11,18.83,19.95,18.73,19.54,1033154
7-Dec-11,18.00,19.38,18.00,19.21,5075406
6-Dec-11,17.40,17.84,17.11,17.69,393669
5-Dec-11,17.45,17.74,16.79,17.43,367755
2-Dec-11,17.88,17.95,17.20,17.25,215605
1-Dec-11,18.00,18.35,17.14,17.55,380675
30-Nov-11,19.06,19.06,17.91,18.13,1409639
29-Nov-11,18.78,18.78,18.08,18.35,311289
28-Nov-11,18.75,19.05,18.44,18.79,438339
25-Nov-11,17.89,18.54,17.89,18.31,89860
23-Nov-11,19.52,19.52,17.83,17.97,961209
22-Nov-11,18.92,20.17,18.92,19.87,288183
21-Nov-11,19.64,19.71,18.79,18.89,325062
18-Nov-11,20.04,20.26,19.54,19.97,754637
17-Nov-11,21.05,21.05,19.88,19.99,486785
16-Nov-11,19.91,21.35,19.82,21.08,810581
15-Nov-11,19.75,20.22,19.43,20.10,274128
14-Nov-11,19.82,19.99,19.54,19.88,601534
11-Nov-11,19.43,19.96,19.30,19.81,325509
10-Nov-11,21.94,21.94,18.93,19.25,262742
9-Nov-11,19.46,19.46,18.51,18.56,307904
8-Nov-11,20.14,20.14,19.41,19.88,196190
7-Nov-11,20.63,20.88,19.87,19.94,357124
4-Nov-11,20.38,20.88,20.32,20.58,336788
3-Nov-11,20.56,20.99,20.35,20.58,381645
2-Nov-11,20.10,20.48,19.78,20.27,308618
1-Nov-11,18.74,19.81,18.74,19.79,218238
31-Oct-11,17.97,20.12,17.82,19.47,470141
28-Oct-11,18.25,19.17,17.43,18.20,1471335
27-Oct-11,17.15,17.30,16.69,16.86,188822
26-Oct-11,16.80,16.80,16.26,16.58,77712
25-Oct-11,16.74,16.83,16.29,16.55,139745
24-Oct-11,16.62,16.90,16.62,16.82,178878
21-Oct-11,16.49,16.73,16.38,16.59,172976
20-Oct-11,16.66,16.66,15.92,16.20,112807
19-Oct-11,16.95,17.00,16.51,16.61,55720
18-Oct-11,16.63,17.26,16.35,17.00,196266
17-Oct-11,16.85,17.07,16.32,16.57,104639
14-Oct-11,16.74,17.19,16.60,17.00,312224
13-Oct-11,16.00,16.87,15.90,16.60,65660
12-Oct-11,16.20,16.34,15.85,16.11,134830
11-Oct-11,15.71,16.43,15.63,16.20,115158
10-Oct-11,15.52,16.00,15.38,15.81,124235
7-Oct-11,15.93,16.08,15.12,15.20,76360
6-Oct-11,15.16,15.90,15.12,15.86,129709
5-Oct-11,15.50,15.63,15.05,15.26,103373
4-Oct-11,14.17,15.66,13.78,15.49,160703
3-Oct-11,15.06,15.54,14.31,14.32,366713
30-Sep-11,15.51,15.68,14.70,15.21,2398450
29-Sep-11,16.20,16.38,15.14,15.60,165417
28-Sep-11,15.99,16.12,15.25,15.95,113500
27-Sep-11,16.48,16.48,15.69,16.01,131190
26-Sep-11,16.47,16.47,15.78,16.02,145424
23-Sep-11,16.01,16.49,15.71,16.27,70779
22-Sep-11,15.57,16.50,14.99,16.11,152379
21-Sep-11,17.41,17.46,15.76,15.99,127606
20-Sep-11,16.45,17.60,16.45,17.27,356838
19-Sep-11,15.98,16.68,15.97,16.44,95975
16-Sep-11,16.08,16.37,15.80,16.28,115144
15-Sep-11,15.60,15.99,15.19,15.99,172988
14-Sep-11,15.61,15.92,15.05,15.70,65189
13-Sep-11,15.74,15.82,15.19,15.63,174824
12-Sep-11,15.67,16.01,15.49,15.71,144029
9-Sep-11,15.73,15.86,15.26,15.83,124454
8-Sep-11,17.01,17.01,15.74,15.78,205305
7-Sep-11,16.85,17.15,16.55,17.00,134190
6-Sep-11,15.64,16.66,15.45,16.59,137357
2-Sep-11,15.96,16.15,15.48,16.00,18858
1-Sep-11,16.61,16.61,15.92,16.22,129126
31-Aug-11,16.90,17.00,16.38,16.65,51319
30-Aug-11,16.30,17.18,16.00,16.83,48616
29-Aug-11,15.84,16.68,15.18,16.25,177715
26-Aug-11,14.55,16.41,14.41,15.61,60675
25-Aug-11,13.94,14.87,13.94,14.55,86395
24-Aug-11,13.91,14.15,13.86,13.99,22647
23-Aug-11,13.88,14.15,13.86,13.98,50467
22-Aug-11,15.20,15.38,13.38,13.97,197758
19-Aug-11,14.82,14.95,14.73,14.85,39522
18-Aug-11,14.90,15.37,14.53,14.94,200943
17-Aug-11,15.39,15.40,15.22,15.38,18680
16-Aug-11,15.46,15.56,15.03,15.40,92303
15-Aug-11,15.43,15.69,15.13,15.67,37113
12-Aug-11,16.13,16.21,15.23,15.40,192285
11-Aug-11,16.47,16.48,15.36,16.00,81375
10-Aug-11,15.57,16.04,14.88,15.48,358670
9-Aug-11,15.39,16.00,15.01,15.90,217814
8-Aug-11,15.21,15.58,14.61,15.26,337963
5-Aug-11,16.11,16.27,15.00,15.56,187046
4-Aug-11,16.48,16.48,15.74,15.96,111459
3-Aug-11,17.64,17.64,16.58,16.74,192014
2-Aug-11,18.23,18.36,17.45,17.67,83649
1-Aug-11,18.53,18.53,18.19,18.29,58575
29-Jul-11,18.17,18.32,17.98,18.29,55038
28-Jul-11,18.38,18.76,18.03,18.39,64576
27-Jul-11,18.31,18.84,18.08,18.44,99758
26-Jul-11,18.14,18.70,18.14,18.60,112450
25-Jul-11,18.15,18.31,18.05,18.21,99243
22-Jul-11,18.04,18.50,17.94,18.34,95089
21-Jul-11,18.09,18.18,17.82,18.08,117957
20-Jul-11,17.91,18.44,17.83,17.96,120269
19-Jul-11,17.61,18.13,17.44,17.82,193376
18-Jul-11,18.24,18.24,17.13,17.63,276576
15-Jul-11,17.38,18.89,17.38,17.94,730046
14-Jul-11,17.14,17.81,17.14,17.37,145109
13-Jul-11,16.80,17.15,16.72,17.09,55799
12-Jul-11,16.77,17.00,16.34,16.76,90438
11-Jul-11,16.80,17.25,16.70,16.94,84317
8-Jul-11,17.06,17.25,16.60,16.64,71359
7-Jul-11,17.27,17.66,17.03,17.21,92016
6-Jul-11,17.02,17.45,16.85,17.16,145963
5-Jul-11,17.33,17.53,16.68,17.04,116505
1-Jul-11,16.48,17.89,16.46,17.13,240499
30-Jun-11,16.24,17.00,15.66,16.58,169949
29-Jun-11,16.00,16.11,15.45,16.11,303305
28-Jun-11,15.59,16.50,15.44,16.00,197565
27-Jun-11,15.50,15.79,15.36,15.60,287915
24-Jun-11,15.38,15.50,15.21,15.30,261953
23-Jun-11,15.32,15.50,15.00,15.40,246596
22-Jun-11,15.35,15.45,15.12,15.25,303115
21-Jun-11,15.41,15.49,15.02,15.35,1399029
20-Jun-11,15.10,15.52,15.10,15.35,917301
17-Jun-11,14.00,15.34,13.81,15.34,9348220
