﻿Date,Open,High,Low,Close,Volume
20-Jun-17,27.69,27.69,27.17,27.41,447291
19-Jun-17,27.50,27.65,27.13,27.65,448507
16-Jun-17,27.64,27.83,27.40,27.54,1620003
15-Jun-17,27.47,27.85,27.41,27.82,426467
14-Jun-17,28.19,28.37,27.51,27.65,659159
13-Jun-17,27.81,28.10,27.57,27.96,508076
12-Jun-17,27.88,28.08,27.69,27.88,742889
9-Jun-17,27.48,27.90,27.33,27.89,736886
8-Jun-17,27.64,27.69,27.27,27.48,604585
7-Jun-17,27.51,27.79,27.42,27.57,491058
6-Jun-17,27.73,27.87,27.48,27.53,556135
5-Jun-17,28.05,28.11,27.60,27.74,660943
2-Jun-17,27.62,28.25,27.62,28.08,1217533
1-Jun-17,27.24,27.53,27.09,27.47,549913
31-May-17,27.21,27.36,27.05,27.25,610377
30-May-17,27.36,27.54,27.16,27.17,433332
26-May-17,27.42,27.68,27.22,27.35,388342
25-May-17,27.06,27.44,26.89,27.35,513235
24-May-17,26.59,27.05,26.30,26.95,2653858
23-May-17,26.43,26.67,26.29,26.55,497833
22-May-17,26.30,26.41,26.07,26.33,465354
19-May-17,25.70,26.40,25.60,26.24,1110532
18-May-17,25.70,26.03,25.53,25.72,403213
17-May-17,25.37,25.96,25.34,25.72,660233
16-May-17,25.41,25.52,25.28,25.44,293590
15-May-17,25.48,25.59,25.28,25.37,305532
12-May-17,25.33,25.55,25.21,25.37,305848
11-May-17,25.21,25.45,25.07,25.32,346425
10-May-17,25.18,25.47,25.14,25.31,330064
9-May-17,25.47,25.48,25.04,25.19,313202
8-May-17,25.62,25.66,25.27,25.41,370897
5-May-17,25.33,25.75,25.27,25.57,413443
4-May-17,24.85,25.44,24.65,25.29,575191
3-May-17,25.03,25.08,24.73,24.83,446515
2-May-17,25.20,25.31,24.93,25.01,476890
1-May-17,25.01,25.25,24.88,25.19,182476
28-Apr-17,25.27,25.27,24.80,24.94,244192
27-Apr-17,25.19,25.35,25.13,25.27,383260
26-Apr-17,24.84,25.25,24.71,25.13,431985
25-Apr-17,24.64,25.05,24.60,24.91,266181
24-Apr-17,24.97,24.97,24.49,24.60,303214
21-Apr-17,24.63,24.87,24.55,24.80,227220
20-Apr-17,24.55,24.70,24.39,24.67,226798
19-Apr-17,24.53,24.76,24.49,24.59,518802
18-Apr-17,24.68,24.84,24.57,24.60,276770
17-Apr-17,24.40,24.68,24.37,24.67,203595
13-Apr-17,24.36,24.53,24.28,24.34,418536
12-Apr-17,24.22,24.41,24.18,24.38,294527
11-Apr-17,23.77,24.28,23.70,24.24,461903
10-Apr-17,23.54,23.86,23.31,23.81,379367
7-Apr-17,23.37,23.60,23.32,23.54,338302
6-Apr-17,22.96,23.41,22.89,23.30,438176
5-Apr-17,22.74,23.06,22.74,22.94,337807
4-Apr-17,22.56,22.82,22.56,22.77,245629
3-Apr-17,22.50,22.69,22.34,22.60,241921
31-Mar-17,22.15,22.58,22.10,22.52,582358
30-Mar-17,22.14,22.22,21.92,22.20,175297
29-Mar-17,21.96,22.16,21.93,22.16,167495
28-Mar-17,22.01,22.15,21.81,22.14,242847
27-Mar-17,22.24,22.39,21.88,22.05,414632
24-Mar-17,22.27,22.54,22.21,22.37,459817
23-Mar-17,21.84,22.42,21.83,22.18,488715
22-Mar-17,22.04,22.08,21.61,21.88,493153
21-Mar-17,22.08,22.13,21.91,22.00,471820
20-Mar-17,22.10,22.15,21.91,22.02,610639
17-Mar-17,21.85,22.19,21.82,22.11,853859
16-Mar-17,21.88,22.10,21.80,21.98,300959
15-Mar-17,21.66,22.19,21.62,21.96,306048
14-Mar-17,21.56,21.66,21.34,21.54,323952
13-Mar-17,21.61,21.83,21.56,21.66,166577
10-Mar-17,21.91,21.97,21.52,21.65,277707
9-Mar-17,22.09,22.24,21.71,21.72,244788
8-Mar-17,22.33,22.44,22.08,22.08,182733
7-Mar-17,22.45,22.59,22.38,22.45,194711
6-Mar-17,22.66,22.76,22.44,22.51,256630
3-Mar-17,22.94,22.99,22.53,22.79,345836
2-Mar-17,23.01,23.01,22.71,22.97,292497
1-Mar-17,23.01,23.09,22.85,23.04,388056
28-Feb-17,23.17,23.28,22.84,22.98,396234
27-Feb-17,23.19,23.35,23.08,23.26,347108
24-Feb-17,23.02,23.34,22.94,23.20,328673
23-Feb-17,23.10,23.23,22.83,23.03,526695
22-Feb-17,23.24,23.30,22.95,23.10,286776
21-Feb-17,22.98,23.43,22.86,23.28,593471
17-Feb-17,22.88,23.16,22.69,22.92,880414
16-Feb-17,22.55,22.71,22.41,22.68,186713
15-Feb-17,22.47,22.52,22.19,22.48,138299
14-Feb-17,22.61,22.74,22.41,22.67,412260
13-Feb-17,22.83,22.93,22.51,22.68,585443
10-Feb-17,22.51,22.80,22.51,22.75,121853
9-Feb-17,22.39,22.53,22.35,22.48,324173
8-Feb-17,22.19,22.44,22.09,22.37,251679
7-Feb-17,22.54,22.55,22.06,22.16,366932
6-Feb-17,22.93,22.94,22.45,22.52,268000
3-Feb-17,22.68,23.03,22.61,22.95,330869
2-Feb-17,22.49,22.60,22.40,22.52,338484
1-Feb-17,22.71,22.94,22.35,22.40,226209
31-Jan-17,22.51,23.08,22.50,22.71,290744
30-Jan-17,22.85,22.87,22.42,22.51,270403
27-Jan-17,23.60,23.60,22.72,22.84,228101
26-Jan-17,23.91,24.07,23.55,23.61,184704
25-Jan-17,24.08,24.09,23.81,23.94,262177
24-Jan-17,24.03,24.21,23.75,24.06,499057
23-Jan-17,23.74,24.03,23.64,23.99,168985
20-Jan-17,23.43,23.81,23.43,23.78,322670
19-Jan-17,23.74,23.78,23.45,23.48,196202
18-Jan-17,23.73,24.02,23.66,23.85,221747
17-Jan-17,23.59,23.89,23.45,23.70,217406
13-Jan-17,23.71,23.80,23.44,23.49,167197
12-Jan-17,23.66,23.71,23.28,23.70,134540
11-Jan-17,23.86,24.02,23.64,23.66,222681
10-Jan-17,23.98,24.02,23.80,23.88,294505
9-Jan-17,24.35,24.39,23.93,23.94,383624
6-Jan-17,23.91,24.32,23.87,24.15,332248
5-Jan-17,23.74,24.10,23.47,23.97,333073
4-Jan-17,23.40,23.93,23.26,23.88,288663
3-Jan-17,23.36,23.50,23.12,23.28,239214
30-Dec-16,23.04,23.32,23.00,23.19,451270
29-Dec-16,22.70,23.12,22.70,23.07,196048
28-Dec-16,23.00,23.00,22.60,22.71,153281
27-Dec-16,23.23,23.27,23.01,23.14,250147
23-Dec-16,23.13,23.25,22.84,23.15,535141
22-Dec-16,23.09,23.17,22.88,23.02,296447
21-Dec-16,23.25,23.60,23.09,23.09,256349
20-Dec-16,23.17,23.39,23.08,23.27,555227
19-Dec-16,23.39,23.41,23.03,23.16,406584
16-Dec-16,22.83,23.51,22.83,23.16,714580
15-Dec-16,22.48,23.09,22.38,22.76,500562
14-Dec-16,23.25,23.50,22.57,22.59,198987
13-Dec-16,23.18,23.41,22.96,23.24,298725
12-Dec-16,22.98,23.24,22.86,23.14,382864
9-Dec-16,22.89,23.27,22.89,23.01,252654
8-Dec-16,22.43,23.01,22.29,22.96,296370
7-Dec-16,22.10,22.44,22.01,22.41,294130
6-Dec-16,22.04,22.16,21.86,22.00,439002
5-Dec-16,21.82,22.07,21.71,21.97,260783
2-Dec-16,21.87,22.30,21.64,21.74,244406
1-Dec-16,21.98,22.14,21.56,21.77,286671
30-Nov-16,22.33,22.36,22.00,22.09,337477
29-Nov-16,22.25,22.72,22.22,22.45,287099
28-Nov-16,22.25,22.44,22.16,22.23,211297
25-Nov-16,22.15,22.38,22.13,22.22,118923
23-Nov-16,22.30,22.38,22.12,22.19,172791
22-Nov-16,21.97,22.55,21.79,22.53,299006
21-Nov-16,22.15,22.28,21.80,21.85,534179
18-Nov-16,21.34,22.02,21.34,22.01,508358
17-Nov-16,21.20,21.48,21.20,21.33,292548
16-Nov-16,20.93,21.22,20.77,21.20,199533
15-Nov-16,21.17,21.25,20.78,20.95,249807
14-Nov-16,20.28,21.10,20.16,21.03,530461
11-Nov-16,20.50,21.02,20.21,20.27,1008921
10-Nov-16,20.68,20.77,20.05,20.47,539970
9-Nov-16,20.56,20.84,20.18,20.68,528431
8-Nov-16,20.98,21.17,20.85,21.06,375280
7-Nov-16,20.97,21.18,20.93,21.02,341855
4-Nov-16,20.59,20.75,20.43,20.67,369299
3-Nov-16,20.61,20.85,20.46,20.57,618555
2-Nov-16,20.63,20.79,20.54,20.57,406288
1-Nov-16,21.05,21.15,20.57,20.68,510010
31-Oct-16,21.00,21.07,20.86,21.06,779735
28-Oct-16,21.00,21.12,20.85,20.93,325089
27-Oct-16,21.41,21.45,20.95,21.06,679151
26-Oct-16,21.69,21.69,21.32,21.41,296598
25-Oct-16,21.87,21.91,21.61,21.76,352364
24-Oct-16,22.12,22.36,21.88,21.95,321712
21-Oct-16,21.97,22.17,21.93,21.99,127549
20-Oct-16,22.16,22.27,21.96,22.15,207712
19-Oct-16,22.15,22.43,22.07,22.23,312674
18-Oct-16,22.19,22.37,22.04,22.20,236298
17-Oct-16,21.96,22.12,21.91,21.99,175294
14-Oct-16,21.97,22.12,21.63,21.87,169199
13-Oct-16,21.71,22.07,21.50,21.95,218177
12-Oct-16,21.27,21.76,21.27,21.68,146076
11-Oct-16,21.57,21.67,21.27,21.30,412923
10-Oct-16,21.41,21.81,21.36,21.78,279963
7-Oct-16,21.59,21.74,21.27,21.33,426492
6-Oct-16,21.50,21.60,21.13,21.49,251599
5-Oct-16,22.00,22.06,21.50,21.50,267765
4-Oct-16,22.35,22.36,21.87,22.01,252067
3-Oct-16,22.88,22.88,22.28,22.34,184285
30-Sep-16,23.13,23.18,22.62,22.89,459862
29-Sep-16,22.90,23.04,22.64,22.90,134265
28-Sep-16,23.00,23.10,22.86,23.05,174719
27-Sep-16,23.25,23.29,23.05,23.07,233355
26-Sep-16,23.08,23.38,22.96,23.17,650738
23-Sep-16,22.76,23.12,22.42,23.09,390529
22-Sep-16,22.48,22.83,22.40,22.81,174783
21-Sep-16,22.06,22.27,21.58,22.25,257397
20-Sep-16,22.10,22.19,21.92,21.99,772851
19-Sep-16,21.62,21.96,21.46,21.96,214842
16-Sep-16,21.30,21.57,21.04,21.46,701415
15-Sep-16,21.44,21.60,21.32,21.38,208139
14-Sep-16,21.53,21.67,21.43,21.48,243433
13-Sep-16,21.80,21.80,21.38,21.44,284457
12-Sep-16,21.65,21.99,21.40,21.93,347298
9-Sep-16,22.39,22.39,21.66,21.67,302159
8-Sep-16,22.94,22.94,22.54,22.66,151199
7-Sep-16,22.73,23.00,22.60,22.98,250700
6-Sep-16,22.90,23.02,22.67,22.79,276113
2-Sep-16,22.57,22.98,22.57,22.82,191410
1-Sep-16,22.39,22.54,22.17,22.49,514128
31-Aug-16,22.28,22.41,22.06,22.33,439157
30-Aug-16,22.32,22.32,22.08,22.27,129404
29-Aug-16,22.16,22.36,21.88,22.30,198698
26-Aug-16,22.19,22.35,21.82,21.97,239967
25-Aug-16,21.99,22.18,21.83,22.06,197515
24-Aug-16,22.20,22.20,21.76,21.96,194895
23-Aug-16,22.10,22.34,22.01,22.14,311594
22-Aug-16,22.02,22.12,21.90,22.07,180015
19-Aug-16,22.16,22.16,21.92,21.94,249937
18-Aug-16,22.06,22.21,22.01,22.21,318931
17-Aug-16,22.11,22.11,21.84,22.00,294428
16-Aug-16,22.24,22.26,21.82,22.03,266456
15-Aug-16,22.55,22.55,22.26,22.41,314221
12-Aug-16,22.50,22.77,22.39,22.47,281095
11-Aug-16,22.34,22.52,22.17,22.47,403766
10-Aug-16,22.23,22.46,22.22,22.34,401140
9-Aug-16,22.01,22.31,21.94,22.25,251820
8-Aug-16,22.13,22.26,21.99,21.99,247635
5-Aug-16,22.35,22.38,22.10,22.15,483694
4-Aug-16,22.23,22.62,22.08,22.21,589712
3-Aug-16,22.42,22.47,22.14,22.19,458443
2-Aug-16,22.90,22.95,22.40,22.45,560678
1-Aug-16,22.89,22.97,22.69,22.97,271420
29-Jul-16,22.34,22.90,22.34,22.86,614565
28-Jul-16,22.09,22.47,22.02,22.42,209938
27-Jul-16,22.14,22.22,21.97,22.13,259176
26-Jul-16,22.18,22.27,22.01,22.15,273145
25-Jul-16,22.16,22.26,22.03,22.16,252946
22-Jul-16,22.05,22.26,21.92,22.05,417181
21-Jul-16,22.23,22.25,21.92,22.07,221453
20-Jul-16,22.12,22.36,22.05,22.29,445671
19-Jul-16,21.80,22.15,21.72,22.12,390660
18-Jul-16,21.58,21.81,21.55,21.74,500680
15-Jul-16,21.43,21.61,21.26,21.59,424972
14-Jul-16,21.61,21.74,21.34,21.40,241370
13-Jul-16,21.54,21.74,21.45,21.69,368660
12-Jul-16,21.58,21.69,21.45,21.57,383086
11-Jul-16,21.44,21.76,21.27,21.67,428729
8-Jul-16,21.09,21.44,20.98,21.39,419159
7-Jul-16,21.17,21.23,20.77,20.91,450533
6-Jul-16,21.29,21.36,21.08,21.19,369057
5-Jul-16,21.08,21.29,21.04,21.29,500707
1-Jul-16,21.20,21.30,21.05,21.08,560499
30-Jun-16,21.19,21.42,20.96,21.09,1027963
29-Jun-16,20.73,21.16,20.73,21.10,955704
28-Jun-16,20.59,20.72,20.36,20.56,451837
27-Jun-16,20.92,21.00,20.27,20.43,517751
24-Jun-16,20.58,21.02,20.33,20.90,1923681
23-Jun-16,21.12,21.17,20.85,20.99,248786
22-Jun-16,21.05,21.06,20.86,21.01,298619
21-Jun-16,20.86,21.09,20.76,20.98,347702
20-Jun-16,21.20,21.32,20.80,20.84,456333
17-Jun-16,20.93,21.12,20.67,21.07,1222372
16-Jun-16,20.66,20.88,20.53,20.87,320312
15-Jun-16,20.66,21.00,20.59,20.77,541661
14-Jun-16,20.75,20.75,20.44,20.57,424954
13-Jun-16,20.87,21.07,20.66,20.75,455797
10-Jun-16,20.62,20.87,20.59,20.84,347063
9-Jun-16,20.35,20.76,20.31,20.72,488766
8-Jun-16,20.11,20.35,20.07,20.35,393767
7-Jun-16,20.10,20.24,19.93,20.10,392856
6-Jun-16,20.06,20.27,19.95,20.04,343666
3-Jun-16,20.08,20.23,19.93,20.09,274275
2-Jun-16,19.95,20.06,19.84,19.96,210222
1-Jun-16,19.87,20.03,19.82,19.98,308424
31-May-16,19.96,19.96,19.67,19.90,407208
27-May-16,19.89,20.02,19.81,19.89,203290
26-May-16,19.70,19.90,19.62,19.83,187377
25-May-16,19.93,19.94,19.63,19.67,300451
24-May-16,19.56,19.94,19.56,19.91,431861
23-May-16,19.44,19.49,19.32,19.43,183534
20-May-16,19.36,19.58,19.26,19.40,323036
19-May-16,19.34,19.42,19.11,19.27,230473
18-May-16,19.58,19.72,19.29,19.49,313548
17-May-16,19.88,19.90,19.43,19.59,369392
16-May-16,19.80,20.01,19.70,19.91,336152
13-May-16,19.63,19.85,19.46,19.74,464449
12-May-16,19.51,19.69,19.31,19.64,288525
11-May-16,19.96,19.96,19.27,19.45,387274
10-May-16,19.72,20.11,19.60,19.99,570804
9-May-16,19.67,19.81,19.54,19.69,444367
6-May-16,19.48,19.71,19.24,19.69,244977
5-May-16,19.37,19.77,19.26,19.46,410385
4-May-16,18.96,19.43,18.82,19.37,550296
3-May-16,19.20,19.31,18.92,19.04,411412
2-May-16,18.89,19.21,18.89,19.21,510009
29-Apr-16,18.87,18.91,18.53,18.77,1884826
28-Apr-16,19.08,19.24,18.84,18.94,454154
27-Apr-16,19.21,19.25,18.89,19.16,707291
26-Apr-16,18.95,19.13,18.82,19.12,766138
25-Apr-16,18.79,18.93,18.72,18.92,491150
22-Apr-16,18.45,18.85,18.45,18.79,1040679
21-Apr-16,18.68,18.85,18.44,18.44,484768
20-Apr-16,18.75,18.99,18.44,18.64,853180
19-Apr-16,18.84,18.90,18.72,18.78,1023203
18-Apr-16,18.50,18.77,18.33,18.75,630113
15-Apr-16,18.27,18.58,18.15,18.55,605389
14-Apr-16,18.40,18.42,18.20,18.24,487658
13-Apr-16,18.09,18.44,17.96,18.43,800999
12-Apr-16,18.22,18.30,18.03,18.05,5441293
11-Apr-16,17.91,18.09,17.74,18.01,110611
8-Apr-16,17.98,18.11,17.75,17.85,249145
7-Apr-16,17.78,17.93,17.60,17.90,348990
6-Apr-16,17.83,17.91,17.70,17.86,200987
5-Apr-16,17.95,18.00,17.76,17.85,191326
4-Apr-16,18.21,18.21,17.95,18.00,137496
1-Apr-16,18.05,18.21,17.98,18.20,190639
31-Mar-16,18.18,18.24,17.97,18.16,254295
30-Mar-16,18.22,18.22,18.09,18.13,189898
29-Mar-16,17.59,18.23,17.59,18.17,304012
28-Mar-16,17.67,17.83,17.60,17.71,141777
24-Mar-16,17.70,17.70,17.37,17.60,330738
23-Mar-16,17.95,18.00,17.69,17.71,340066
22-Mar-16,17.80,18.06,17.63,18.02,257645
21-Mar-16,18.29,18.44,17.77,17.81,354904
18-Mar-16,18.25,18.44,18.06,18.36,1302860
17-Mar-16,17.74,18.21,17.66,18.15,528639
16-Mar-16,17.42,17.85,17.41,17.74,163543
15-Mar-16,17.27,17.58,17.19,17.50,206789
14-Mar-16,17.61,17.72,17.27,17.29,137351
11-Mar-16,17.42,17.62,17.34,17.62,217045
10-Mar-16,17.46,17.58,17.15,17.29,164407
9-Mar-16,17.20,17.47,17.20,17.31,169034
8-Mar-16,17.24,17.49,17.08,17.21,228769
7-Mar-16,17.06,17.34,17.01,17.24,238547
4-Mar-16,17.12,17.17,16.89,17.10,261570
3-Mar-16,17.16,17.21,16.94,17.13,270730
2-Mar-16,17.06,17.20,17.01,17.19,276351
1-Mar-16,16.91,17.16,16.80,17.13,253811
29-Feb-16,17.04,17.22,16.80,16.85,369296
26-Feb-16,17.30,17.43,16.92,17.04,397527
25-Feb-16,17.04,17.32,17.04,17.30,309638
24-Feb-16,16.95,17.03,16.50,16.99,449847
23-Feb-16,17.20,17.34,17.03,17.15,346832
22-Feb-16,17.34,17.45,17.08,17.20,702106
19-Feb-16,17.44,17.64,17.13,17.34,825400
18-Feb-16,16.87,17.05,16.65,17.02,1012492
17-Feb-16,16.77,16.89,16.61,16.84,362695
16-Feb-16,16.55,16.81,16.20,16.75,460255
12-Feb-16,16.18,16.39,16.04,16.39,357308
11-Feb-16,16.13,16.43,15.81,16.09,372754
10-Feb-16,16.35,16.46,16.26,16.36,412645
9-Feb-16,16.37,16.45,16.21,16.28,338647
8-Feb-16,16.63,16.68,16.29,16.46,507311
5-Feb-16,16.90,16.90,16.59,16.74,523317
4-Feb-16,16.79,16.98,16.71,16.90,601061
3-Feb-16,16.66,16.85,16.53,16.83,412901
2-Feb-16,16.44,16.64,16.33,16.59,408564
1-Feb-16,16.26,16.68,16.04,16.55,248055
29-Jan-16,15.90,16.31,15.90,16.29,490999
28-Jan-16,15.82,16.08,15.81,15.86,307916
27-Jan-16,16.17,16.17,15.69,15.76,604608
26-Jan-16,15.92,16.25,15.92,16.18,300360
25-Jan-16,15.82,15.97,15.64,15.88,385200
22-Jan-16,15.62,15.88,15.37,15.82,245535
21-Jan-16,15.52,15.63,15.29,15.43,268138
20-Jan-16,15.66,15.66,15.14,15.47,339504
19-Jan-16,15.76,15.92,15.65,15.79,331446
15-Jan-16,15.47,15.72,15.38,15.70,460391
14-Jan-16,15.65,15.83,15.49,15.75,316781
13-Jan-16,15.97,16.14,15.54,15.63,232428
12-Jan-16,15.94,15.94,15.70,15.91,322787
11-Jan-16,15.61,15.91,15.61,15.85,245818
8-Jan-16,16.03,16.05,15.56,15.59,234774
7-Jan-16,16.12,16.32,15.94,15.97,194007
6-Jan-16,16.12,16.36,16.10,16.34,197948
5-Jan-16,16.10,16.33,16.02,16.29,231780
4-Jan-16,16.16,16.19,15.89,16.06,363638
31-Dec-15,16.55,16.72,16.36,16.36,448302
30-Dec-15,16.58,16.65,16.50,16.52,200510
29-Dec-15,16.52,16.76,16.50,16.57,228425
28-Dec-15,16.47,16.66,16.42,16.63,258820
24-Dec-15,16.61,16.66,16.47,16.53,179100
23-Dec-15,16.44,16.88,16.39,16.61,683389
22-Dec-15,16.09,16.39,16.05,16.39,376682
21-Dec-15,16.18,16.20,15.96,16.06,276206
18-Dec-15,16.22,16.29,16.02,16.10,1191563
17-Dec-15,16.39,16.49,16.22,16.35,591670
16-Dec-15,16.12,16.37,15.76,16.35,766556
15-Dec-15,15.65,16.02,15.28,15.90,633780
14-Dec-15,15.73,15.93,15.68,15.85,341115
11-Dec-15,15.75,16.13,15.75,15.82,542532
10-Dec-15,15.88,16.11,15.86,15.90,316156
9-Dec-15,15.80,15.93,15.72,15.89,400953
8-Dec-15,15.64,15.88,15.60,15.83,324086
7-Dec-15,15.77,15.82,15.61,15.72,336332
4-Dec-15,15.56,15.91,15.56,15.78,324327
3-Dec-15,15.83,15.86,15.46,15.55,387900
2-Dec-15,16.14,16.20,15.76,15.83,505158
1-Dec-15,16.07,16.41,16.05,16.11,645554
30-Nov-15,16.68,16.75,16.11,16.11,4277296
27-Nov-15,16.40,16.73,16.40,16.66,232253
25-Nov-15,16.37,16.49,16.33,16.43,290581
24-Nov-15,16.38,16.51,16.28,16.38,320546
23-Nov-15,16.38,16.73,16.38,16.50,474488
20-Nov-15,16.17,16.45,16.15,16.41,510257
19-Nov-15,15.95,16.25,15.95,16.09,373872
18-Nov-15,15.59,16.04,15.50,15.97,452935
17-Nov-15,15.42,15.57,15.40,15.56,682827
16-Nov-15,15.29,15.56,15.18,15.40,908583
13-Nov-15,15.22,15.43,15.17,15.30,636069
12-Nov-15,15.33,15.43,15.24,15.28,381855
11-Nov-15,15.21,15.40,15.14,15.34,1332073
10-Nov-15,15.09,15.22,15.08,15.18,536969
9-Nov-15,14.96,15.10,14.81,15.07,386179
6-Nov-15,15.03,15.22,14.78,15.01,403575
5-Nov-15,15.35,15.50,15.01,15.17,480586
4-Nov-15,15.34,15.39,15.12,15.24,213068
3-Nov-15,15.33,15.40,15.12,15.32,462968
2-Nov-15,15.23,15.44,15.15,15.36,438001
30-Oct-15,15.26,15.29,15.07,15.15,220178
29-Oct-15,15.31,15.41,15.18,15.28,126965
28-Oct-15,15.32,15.49,15.08,15.32,327523
27-Oct-15,15.26,15.36,15.11,15.34,406975
26-Oct-15,15.25,15.33,15.08,15.25,376141
23-Oct-15,15.34,15.36,15.12,15.28,498217
22-Oct-15,15.01,15.40,15.00,15.24,1168176
21-Oct-15,15.00,15.10,14.91,14.95,306630
20-Oct-15,14.89,15.04,14.83,14.98,1395461
19-Oct-15,14.64,15.00,14.64,14.90,356601
16-Oct-15,14.63,14.69,14.55,14.69,535159
15-Oct-15,14.61,14.76,14.56,14.61,491913
14-Oct-15,14.73,14.90,14.51,14.54,148271
13-Oct-15,14.66,14.86,14.52,14.72,157448
12-Oct-15,14.77,14.95,14.64,14.70,124239
9-Oct-15,14.71,14.78,14.59,14.74,136276
8-Oct-15,14.34,14.63,14.32,14.63,152084
7-Oct-15,14.33,14.50,14.30,14.39,364506
6-Oct-15,14.31,14.43,14.16,14.30,178428
5-Oct-15,13.95,14.35,13.93,14.33,197363
2-Oct-15,13.87,13.98,13.74,13.92,203090
1-Oct-15,13.81,13.97,13.65,13.95,353384
30-Sep-15,13.76,13.83,13.60,13.79,347137
29-Sep-15,13.49,13.71,13.43,13.66,337124
28-Sep-15,13.60,13.60,13.40,13.45,387398
25-Sep-15,13.55,13.85,13.40,13.76,322401
24-Sep-15,13.55,13.56,13.34,13.51,173611
23-Sep-15,13.48,13.67,13.39,13.58,185512
22-Sep-15,13.49,13.63,13.33,13.45,136381
21-Sep-15,13.31,13.65,13.31,13.59,208796
18-Sep-15,13.45,13.66,13.23,13.62,578157
17-Sep-15,13.18,13.60,13.11,13.43,167974
16-Sep-15,13.08,13.28,13.08,13.17,104554
15-Sep-15,12.99,13.15,12.88,13.09,139340
14-Sep-15,13.00,13.02,12.84,12.92,101860
11-Sep-15,12.77,13.07,12.77,13.00,194187
10-Sep-15,12.65,12.94,12.65,12.77,230363
9-Sep-15,13.00,13.05,12.66,12.69,126728
8-Sep-15,13.82,13.82,12.70,12.94,154542
4-Sep-15,12.92,13.02,12.76,12.82,88292
3-Sep-15,13.03,13.23,12.90,13.03,116796
2-Sep-15,12.97,13.06,12.85,13.01,241717
1-Sep-15,12.74,12.93,12.69,12.86,339317
31-Aug-15,13.00,13.16,12.91,12.92,200361
28-Aug-15,13.00,13.18,12.84,13.01,204725
27-Aug-15,13.14,13.31,12.89,13.02,138418
26-Aug-15,13.02,13.03,12.57,12.99,373466
25-Aug-15,13.47,13.47,12.80,12.81,265750
24-Aug-15,13.30,13.63,13.10,13.17,259558
21-Aug-15,13.87,14.14,13.55,13.76,296951
20-Aug-15,14.03,14.15,13.86,14.09,157952
19-Aug-15,14.08,14.19,13.84,14.11,260093
18-Aug-15,14.12,14.31,14.04,14.16,158005
17-Aug-15,13.99,14.18,13.96,14.18,81133
14-Aug-15,13.84,14.05,13.72,14.04,103764
13-Aug-15,13.90,14.02,13.65,13.88,369536
12-Aug-15,13.80,14.09,13.80,13.92,278814
11-Aug-15,13.81,13.99,13.81,13.88,176983
10-Aug-15,14.08,14.08,13.78,13.90,398760
7-Aug-15,14.09,14.09,13.89,14.00,232015
6-Aug-15,14.39,14.43,14.03,14.17,169571
5-Aug-15,14.51,14.60,14.27,14.43,243145
4-Aug-15,14.67,14.80,14.45,14.48,218216
3-Aug-15,14.58,14.68,14.50,14.63,246355
31-Jul-15,14.55,14.67,14.50,14.57,183949
30-Jul-15,14.49,14.53,14.41,14.49,109035
29-Jul-15,14.37,14.60,14.30,14.53,149568
28-Jul-15,14.31,14.50,14.17,14.38,307305
27-Jul-15,14.30,14.42,14.25,14.26,181039
24-Jul-15,14.43,14.55,14.28,14.32,380644
23-Jul-15,14.79,14.87,14.43,14.46,393219
22-Jul-15,14.83,14.95,14.76,14.76,219955
21-Jul-15,14.95,15.02,14.83,14.84,227726
20-Jul-15,15.02,15.07,14.90,14.97,158927
17-Jul-15,15.09,15.16,14.97,14.99,533780
16-Jul-15,15.07,15.14,15.01,15.10,115998
15-Jul-15,15.06,15.07,14.94,15.01,212664
14-Jul-15,14.99,15.18,14.89,15.07,208567
13-Jul-15,15.02,15.20,14.93,14.97,174104
10-Jul-15,14.77,15.04,14.62,14.94,643707
9-Jul-15,14.84,14.87,14.67,14.68,217150
8-Jul-15,14.71,14.91,14.65,14.76,195531
7-Jul-15,14.73,15.01,14.66,14.89,320197
6-Jul-15,14.60,14.82,14.54,14.72,390679
2-Jul-15,14.76,14.83,14.60,14.65,315015
1-Jul-15,14.58,14.78,14.47,14.70,775657
30-Jun-15,14.58,14.73,14.43,14.58,438653
29-Jun-15,14.72,15.03,14.50,14.53,536923
26-Jun-15,14.65,14.90,14.57,14.75,876687
25-Jun-15,14.89,14.97,14.70,14.75,1338506
24-Jun-15,14.98,15.07,14.80,14.89,651784
23-Jun-15,15.02,15.03,14.84,15.01,1202640
22-Jun-15,15.08,15.13,14.98,15.04,1006142
19-Jun-15,14.95,15.10,14.83,15.08,1204079
18-Jun-15,14.63,14.97,14.63,14.95,477482
17-Jun-15,14.67,14.67,14.46,14.67,376190
16-Jun-15,14.54,14.67,14.50,14.63,298105
15-Jun-15,14.59,14.70,14.47,14.58,453808
12-Jun-15,14.79,14.80,14.64,14.70,500746
11-Jun-15,14.82,14.82,14.75,14.79,183837
10-Jun-15,14.70,14.89,14.55,14.77,373538
9-Jun-15,14.70,14.72,14.55,14.65,538537
8-Jun-15,14.61,14.74,14.54,14.69,437657
5-Jun-15,14.61,14.73,14.50,14.66,642103
4-Jun-15,14.59,14.72,14.52,14.69,228333
3-Jun-15,14.80,14.87,14.64,14.68,332104
2-Jun-15,14.71,14.92,14.66,14.79,699054
1-Jun-15,14.67,14.81,14.57,14.77,342615
29-May-15,14.64,14.83,14.53,14.59,248255
28-May-15,14.77,14.77,14.63,14.66,226832
27-May-15,14.69,14.86,14.65,14.76,171515
26-May-15,14.72,14.79,14.62,14.69,273535
22-May-15,14.74,14.92,14.72,14.78,260716
21-May-15,14.90,14.95,14.68,14.78,207644
20-May-15,14.93,14.97,14.84,14.88,140343
19-May-15,14.87,14.97,14.80,14.90,256174
18-May-15,14.83,15.00,14.66,14.90,384322
15-May-15,14.75,14.97,14.65,14.82,312629
14-May-15,14.58,14.71,14.53,14.70,679440
13-May-15,14.60,14.77,14.44,14.48,584371
12-May-15,14.51,14.66,14.28,14.60,315774
11-May-15,14.72,14.82,14.51,14.56,484744
8-May-15,14.62,15.01,14.62,14.77,379531
7-May-15,14.57,14.72,14.25,14.63,2180381
6-May-15,14.65,14.74,14.38,14.60,1060235
5-May-15,15.01,15.01,14.61,14.64,389908
4-May-15,14.99,15.19,14.97,15.05,200439
1-May-15,14.87,15.08,14.75,14.94,663560
30-Apr-15,15.30,15.30,14.78,14.86,358401
29-Apr-15,15.65,15.72,15.36,15.36,178045
28-Apr-15,15.80,15.85,15.66,15.72,205356
27-Apr-15,15.87,16.21,15.71,15.76,223120
24-Apr-15,15.82,15.97,15.77,15.88,222167
23-Apr-15,15.84,15.97,15.79,15.82,430824
22-Apr-15,15.89,16.00,15.85,15.88,252165
21-Apr-15,15.76,15.96,15.68,15.88,353742
20-Apr-15,15.50,15.80,15.35,15.75,208937
17-Apr-15,15.55,15.66,15.35,15.46,215779
16-Apr-15,15.69,15.76,15.44,15.60,168798
15-Apr-15,15.98,15.98,15.69,15.72,178216
14-Apr-15,15.93,16.29,15.84,15.87,424950
13-Apr-15,15.89,16.02,15.84,15.89,221922
10-Apr-15,16.04,16.15,15.87,15.91,192781
9-Apr-15,16.07,16.15,15.69,15.79,180089
8-Apr-15,16.04,16.28,16.00,16.05,199779
7-Apr-15,16.08,16.19,15.94,16.01,371986
6-Apr-15,15.71,16.09,15.71,16.08,200545
2-Apr-15,15.72,15.82,15.61,15.73,486645
1-Apr-15,15.76,15.88,15.53,15.67,196314
31-Mar-15,15.63,15.83,15.54,15.81,281606
30-Mar-15,15.62,15.81,15.54,15.71,158171
27-Mar-15,15.74,15.84,15.55,15.60,287416
26-Mar-15,15.92,16.14,15.80,15.81,273598
25-Mar-15,16.50,16.61,15.99,16.00,366879
24-Mar-15,16.64,16.68,16.51,16.52,154272
23-Mar-15,16.46,16.71,16.46,16.63,262682
20-Mar-15,16.29,16.55,16.21,16.51,1300434
19-Mar-15,16.11,16.38,16.07,16.26,235264
18-Mar-15,16.01,16.26,15.83,16.17,192049
17-Mar-15,15.96,16.05,15.81,16.01,203338
16-Mar-15,15.95,16.17,15.92,15.97,305932
13-Mar-15,16.01,16.09,15.90,15.95,463924
12-Mar-15,16.01,16.11,15.70,16.00,298951
11-Mar-15,15.82,15.98,15.75,15.88,267516
10-Mar-15,15.77,15.90,15.62,15.83,343802
9-Mar-15,15.90,16.02,15.75,15.83,421120
6-Mar-15,15.97,16.12,15.77,15.82,553357
5-Mar-15,16.16,16.26,16.05,16.16,186123
4-Mar-15,16.12,16.28,16.02,16.16,264618
3-Mar-15,16.31,16.38,16.01,16.19,239486
2-Mar-15,16.09,16.43,16.06,16.37,320850
27-Feb-15,15.77,16.19,15.68,16.04,1634353
26-Feb-15,15.54,15.67,15.45,15.60,434686
25-Feb-15,15.49,15.82,15.45,15.57,351970
24-Feb-15,15.79,15.90,15.38,15.52,279763
23-Feb-15,15.64,15.82,15.54,15.82,136462
20-Feb-15,15.62,15.80,15.52,15.68,237117
19-Feb-15,15.80,15.82,15.57,15.64,113048
18-Feb-15,15.76,15.91,15.58,15.86,156999
17-Feb-15,15.65,15.95,15.57,15.80,276094
13-Feb-15,15.64,15.77,15.47,15.68,395004
12-Feb-15,15.63,15.78,15.54,15.61,301824
11-Feb-15,15.74,15.89,15.54,15.58,267426
10-Feb-15,15.77,15.92,15.57,15.77,368934
9-Feb-15,15.82,16.05,15.75,15.75,208145
6-Feb-15,16.12,16.15,15.76,15.84,822674
5-Feb-15,15.90,16.18,15.83,16.11,428562
4-Feb-15,15.81,15.95,15.65,15.86,557964
3-Feb-15,15.87,15.95,15.60,15.87,755292
2-Feb-15,16.05,16.10,15.74,15.86,895293
30-Jan-15,16.10,16.17,15.93,16.02,800823
29-Jan-15,16.14,16.29,16.05,16.18,3602583
28-Jan-15,16.56,16.65,16.32,16.46,827287
27-Jan-15,16.61,16.79,16.41,16.59,346239
26-Jan-15,16.61,16.75,16.40,16.69,308673
23-Jan-15,16.39,16.69,16.22,16.65,282316
22-Jan-15,15.97,16.44,15.86,16.44,168268
21-Jan-15,16.01,16.06,15.86,15.91,83296
20-Jan-15,16.15,16.20,15.96,16.04,327677
16-Jan-15,16.04,16.35,16.04,16.13,180047
15-Jan-15,16.46,16.46,16.03,16.08,140538
14-Jan-15,16.00,16.42,15.95,16.38,133535
13-Jan-15,16.26,16.42,15.93,16.14,126801
12-Jan-15,16.23,16.24,16.00,16.19,267826
9-Jan-15,16.27,16.27,16.02,16.17,74125
8-Jan-15,16.15,16.32,16.07,16.21,70252
7-Jan-15,15.90,16.15,15.81,16.15,207764
6-Jan-15,15.96,16.13,15.79,15.85,174408
5-Jan-15,15.78,16.19,15.78,15.89,102971
2-Jan-15,15.80,15.94,15.63,15.84,71668
31-Dec-14,15.94,16.11,15.60,15.71,104757
30-Dec-14,15.83,16.01,15.78,15.97,136007
29-Dec-14,15.91,16.02,15.80,15.91,136237
26-Dec-14,15.94,16.05,15.86,16.00,86548
24-Dec-14,16.00,16.00,15.83,15.95,52594
23-Dec-14,16.02,16.09,15.85,15.98,108636
22-Dec-14,15.85,15.96,15.75,15.93,81947
19-Dec-14,15.75,15.89,15.51,15.86,361333
18-Dec-14,15.86,15.86,15.59,15.71,114595
17-Dec-14,15.27,15.80,15.22,15.77,156908
16-Dec-14,15.22,15.50,15.22,15.28,148670
15-Dec-14,15.52,15.53,15.02,15.20,119508
12-Dec-14,15.53,15.70,15.42,15.43,100391
11-Dec-14,15.50,15.86,15.47,15.65,138010
10-Dec-14,15.32,15.60,15.24,15.44,110246
9-Dec-14,15.22,15.37,15.15,15.33,141450
8-Dec-14,15.31,15.62,15.29,15.35,84820
5-Dec-14,15.30,15.45,15.22,15.32,73948
4-Dec-14,15.25,15.35,15.20,15.33,89871
3-Dec-14,15.27,15.36,15.13,15.30,93913
2-Dec-14,15.00,15.34,14.95,15.24,119330
1-Dec-14,15.14,15.40,14.98,15.00,163161
28-Nov-14,15.21,15.37,15.12,15.19,101387
26-Nov-14,15.09,15.21,15.05,15.20,85085
25-Nov-14,15.11,15.19,14.99,15.10,79585
24-Nov-14,15.01,15.23,14.92,15.08,145009
21-Nov-14,15.20,15.26,15.00,15.01,226609
20-Nov-14,14.89,15.06,14.82,15.05,130347
19-Nov-14,15.06,15.06,14.88,14.90,311061
18-Nov-14,15.07,15.19,14.90,15.09,182163
17-Nov-14,15.05,15.18,14.99,15.06,184124
14-Nov-14,15.27,15.38,14.99,15.03,252718
13-Nov-14,15.18,15.44,15.16,15.29,240038
12-Nov-14,15.16,15.30,15.09,15.22,292953
11-Nov-14,15.28,15.34,15.18,15.22,186799
10-Nov-14,15.26,15.40,15.23,15.34,214940
7-Nov-14,15.32,15.44,15.07,15.22,549341
6-Nov-14,15.52,15.68,15.40,15.54,756682
5-Nov-14,15.62,15.62,15.42,15.50,205833
4-Nov-14,15.51,15.82,15.48,15.55,299322
3-Nov-14,15.50,15.73,15.42,15.54,342779
31-Oct-14,15.43,15.55,15.36,15.45,255834
30-Oct-14,15.03,15.31,14.99,15.23,253424
29-Oct-14,15.10,15.19,14.92,15.10,293190
28-Oct-14,15.05,15.12,14.92,15.10,478055
27-Oct-14,14.70,15.18,14.66,15.00,512952
24-Oct-14,14.81,14.85,14.57,14.79,164116
23-Oct-14,14.61,14.93,14.59,14.76,600333
22-Oct-14,14.55,14.71,14.50,14.54,191969
21-Oct-14,14.43,14.60,14.32,14.58,216873
20-Oct-14,14.32,14.44,14.24,14.30,174594
17-Oct-14,14.55,14.58,14.30,14.35,298181
16-Oct-14,14.08,14.46,14.05,14.40,352176
15-Oct-14,14.01,14.43,13.97,14.19,360667
14-Oct-14,14.11,14.35,14.03,14.20,227057
13-Oct-14,13.83,14.19,13.83,14.00,173159
10-Oct-14,13.86,14.14,13.81,13.82,128933
9-Oct-14,14.13,14.24,13.93,13.93,185973
8-Oct-14,13.84,14.35,13.84,14.15,329100
7-Oct-14,13.93,14.05,13.82,13.83,129159
6-Oct-14,13.99,14.11,13.96,14.00,113585
3-Oct-14,13.97,14.10,13.83,13.96,347229
2-Oct-14,13.64,13.94,13.62,13.85,319039
1-Oct-14,13.81,13.92,13.58,13.66,209660
30-Sep-14,14.01,14.05,13.78,13.84,553546
29-Sep-14,13.92,14.05,13.90,14.04,361793
26-Sep-14,13.93,14.01,13.63,14.01,487378
25-Sep-14,13.99,14.00,13.76,13.99,408310
24-Sep-14,13.98,14.14,13.87,14.00,464255
23-Sep-14,14.00,14.04,13.94,14.00,261719
22-Sep-14,14.09,14.09,13.90,13.99,396121
19-Sep-14,14.17,14.43,13.99,14.15,1800946
18-Sep-14,14.06,14.21,14.03,14.14,512351
17-Sep-14,13.95,14.11,13.90,14.03,327307
16-Sep-14,13.99,14.05,13.86,13.97,245635
15-Sep-14,14.22,14.34,13.87,13.99,360348
12-Sep-14,14.60,14.62,14.19,14.19,300284
11-Sep-14,14.48,14.64,14.45,14.58,109378
10-Sep-14,14.65,14.65,14.50,14.57,774334
9-Sep-14,14.82,14.82,14.57,14.65,212031
8-Sep-14,14.66,14.96,14.65,14.80,301285
5-Sep-14,14.50,14.67,14.29,14.65,349166
4-Sep-14,14.69,14.77,14.51,14.55,353385
3-Sep-14,14.87,14.87,14.60,14.67,215695
2-Sep-14,14.70,14.98,14.63,14.87,358389
29-Aug-14,14.72,14.84,14.54,14.74,2663451
28-Aug-14,14.56,14.82,14.52,14.74,597495
27-Aug-14,14.67,14.83,14.54,14.65,425177
26-Aug-14,14.66,14.71,14.60,14.65,367057
25-Aug-14,14.60,14.71,14.48,14.59,192508
22-Aug-14,14.67,14.79,14.52,14.57,687813
21-Aug-14,14.60,14.73,14.49,14.64,265469
20-Aug-14,14.51,14.70,13.99,14.59,343260
19-Aug-14,14.38,14.69,14.34,14.62,361944
18-Aug-14,14.14,14.58,14.14,14.44,619087
15-Aug-14,13.99,14.15,13.95,14.12,737776
14-Aug-14,13.90,14.08,13.85,13.90,7722851
13-Aug-14,13.50,13.81,13.09,13.59,1210290
12-Aug-14,13.91,14.04,13.81,13.88,35404
11-Aug-14,14.05,14.16,13.91,13.95,80307
8-Aug-14,13.87,14.01,13.68,13.98,61615
7-Aug-14,13.94,14.00,13.83,13.88,77417
6-Aug-14,13.97,14.07,13.85,13.95,146812
5-Aug-14,13.81,14.00,13.79,13.85,86455
4-Aug-14,13.91,13.91,13.71,13.88,76672
1-Aug-14,13.87,13.90,13.72,13.84,103568
31-Jul-14,13.88,14.01,13.71,13.83,168716
30-Jul-14,14.00,14.22,13.83,13.98,154983
29-Jul-14,13.99,14.08,13.78,13.91,109948
28-Jul-14,13.88,14.01,13.80,14.00,88616
25-Jul-14,14.00,14.00,13.76,13.90,103981
24-Jul-14,14.29,14.40,14.02,14.11,215700
23-Jul-14,13.94,14.31,13.93,14.25,464877
22-Jul-14,13.93,13.97,13.87,13.95,122197
21-Jul-14,13.95,14.00,13.88,13.92,30653
18-Jul-14,13.85,14.07,13.85,14.03,166932
17-Jul-14,14.08,14.11,13.85,13.90,137543
16-Jul-14,14.22,14.22,14.06,14.11,54762
15-Jul-14,14.15,14.20,14.05,14.12,96320
14-Jul-14,14.18,14.18,14.08,14.12,203690
11-Jul-14,14.09,14.15,14.08,14.12,74098
10-Jul-14,13.99,14.15,13.88,14.15,79393
9-Jul-14,14.10,14.17,14.08,14.16,69396
8-Jul-14,14.25,14.34,14.09,14.14,62826
7-Jul-14,14.26,14.30,14.20,14.23,62711
3-Jul-14,14.28,14.33,14.18,14.27,110362
2-Jul-14,14.28,14.30,14.16,14.26,52355
1-Jul-14,14.31,14.49,14.27,14.29,108542
30-Jun-14,14.25,14.27,14.12,14.24,145672
27-Jun-14,14.22,14.47,14.12,14.21,1017916
26-Jun-14,14.17,14.34,14.12,14.30,124937
25-Jun-14,14.21,14.42,14.21,14.30,95449
24-Jun-14,14.24,14.45,14.17,14.30,89938
23-Jun-14,14.35,14.49,14.26,14.30,117611
20-Jun-14,14.38,14.41,14.23,14.30,372691
19-Jun-14,14.42,14.66,14.27,14.33,140514
18-Jun-14,14.53,14.58,14.28,14.36,261997
17-Jun-14,14.25,14.52,14.25,14.41,57759
16-Jun-14,14.25,14.59,14.25,14.34,90847
13-Jun-14,14.17,14.19,14.08,14.13,85859
12-Jun-14,14.08,14.12,14.05,14.08,57122
11-Jun-14,14.11,14.24,14.06,14.12,130689
10-Jun-14,14.35,14.36,14.23,14.34,28630
9-Jun-14,14.54,14.59,14.38,14.44,38307
6-Jun-14,14.50,14.55,14.39,14.50,96039
5-Jun-14,14.22,14.50,14.03,14.45,86380
4-Jun-14,14.15,14.34,14.15,14.25,44683
3-Jun-14,14.08,14.25,14.03,14.24,40462
2-Jun-14,14.01,14.19,13.94,14.15,59237
30-May-14,14.01,14.03,13.93,13.98,106515
29-May-14,14.19,14.19,13.91,13.98,30634
28-May-14,14.30,14.32,14.03,14.14,40325
27-May-14,14.34,14.38,14.08,14.37,60145
23-May-14,14.07,14.25,13.98,14.24,41710
22-May-14,14.00,14.07,13.97,14.01,24231
21-May-14,14.05,14.05,13.86,14.01,50528
20-May-14,14.13,14.13,13.98,14.03,48368
19-May-14,14.04,14.23,14.04,14.21,32359
16-May-14,13.94,14.19,13.90,14.12,30395
15-May-14,13.95,14.05,13.80,13.98,157264
14-May-14,14.18,14.27,13.96,14.00,88849
13-May-14,14.31,14.62,14.25,14.25,76724
12-May-14,14.43,14.65,14.26,14.46,74491
9-May-14,14.16,14.44,14.16,14.34,44109
8-May-14,14.25,14.54,14.19,14.28,134103
7-May-14,14.21,14.38,14.17,14.32,48185
6-May-14,14.23,14.51,14.09,14.24,179925
5-May-14,14.27,14.36,14.18,14.28,61976
2-May-14,14.36,14.75,14.27,14.37,177424
1-May-14,14.15,14.35,14.04,14.33,91185
30-Apr-14,14.02,14.26,13.98,14.22,72228
29-Apr-14,14.36,14.36,14.05,14.12,34328
28-Apr-14,14.39,14.47,14.16,14.27,18062
25-Apr-14,14.38,14.48,14.04,14.34,45764
24-Apr-14,14.47,14.54,14.31,14.39,23882
23-Apr-14,14.37,14.51,14.25,14.42,62360
22-Apr-14,14.26,14.45,14.22,14.43,47856
21-Apr-14,14.16,14.36,14.14,14.28,34646
17-Apr-14,14.03,14.19,14.03,14.16,29342
16-Apr-14,14.10,14.18,14.00,14.08,33909
15-Apr-14,14.12,14.17,13.96,14.03,29179
14-Apr-14,14.15,14.15,13.98,14.07,27066
11-Apr-14,14.02,14.20,14.00,14.02,36702
10-Apr-14,14.22,14.34,14.00,14.16,64478
9-Apr-14,14.22,14.49,13.97,14.21,63229
8-Apr-14,14.06,14.28,14.06,14.24,31454
7-Apr-14,14.10,14.25,14.06,14.09,47563
4-Apr-14,14.41,14.46,14.06,14.14,61319
3-Apr-14,14.38,14.40,14.02,14.26,108971
2-Apr-14,14.11,14.39,14.08,14.35,33865
1-Apr-14,14.14,14.25,13.89,14.12,80830
31-Mar-14,14.11,14.29,14.10,14.18,46395
28-Mar-14,14.11,14.30,14.00,14.07,63154
27-Mar-14,14.00,14.19,13.96,14.15,169451
26-Mar-14,14.20,14.32,14.05,14.05,77138
25-Mar-14,14.25,14.37,14.09,14.17,173543
24-Mar-14,14.09,14.33,14.09,14.22,89268
21-Mar-14,14.14,14.30,14.00,14.07,124028
20-Mar-14,14.11,14.44,14.06,14.09,30313
19-Mar-14,14.27,14.49,14.12,14.19,279661
18-Mar-14,14.34,14.37,14.18,14.30,300423
17-Mar-14,14.32,14.36,14.21,14.29,21468
14-Mar-14,14.22,14.45,14.21,14.27,67820
13-Mar-14,14.45,14.45,14.21,14.24,101522
12-Mar-14,14.50,14.56,14.27,14.40,48144
11-Mar-14,14.54,14.92,14.30,14.59,51743
10-Mar-14,14.46,14.58,14.21,14.48,80092
7-Mar-14,14.64,14.71,14.24,14.44,29345
6-Mar-14,14.74,14.83,14.24,14.62,116359
5-Mar-14,14.64,14.84,14.35,14.75,141497
4-Mar-14,14.23,15.50,14.20,14.62,183156
3-Mar-14,14.15,14.18,13.79,14.05,39940
28-Feb-14,14.27,14.40,14.12,14.19,54719
27-Feb-14,13.81,14.33,13.42,14.32,50653
26-Feb-14,13.55,13.88,13.39,13.85,87298
25-Feb-14,13.57,13.57,13.26,13.50,66086
24-Feb-14,13.52,13.79,13.22,13.60,73567
21-Feb-14,13.76,13.76,13.22,13.45,103340
20-Feb-14,13.63,13.76,13.54,13.74,153299
19-Feb-14,13.69,13.77,13.42,13.60,28302
18-Feb-14,13.55,13.76,13.48,13.74,55421
14-Feb-14,13.77,13.99,13.36,13.59,47414
13-Feb-14,13.33,13.70,13.33,13.70,29835
12-Feb-14,13.42,13.59,13.30,13.40,63210
11-Feb-14,13.42,13.55,13.35,13.46,23974
10-Feb-14,13.36,13.46,13.19,13.46,61688
7-Feb-14,13.20,13.35,13.12,13.31,62968
6-Feb-14,13.30,13.32,13.10,13.17,41963
5-Feb-14,13.49,13.49,13.01,13.20,40260
4-Feb-14,13.44,13.56,13.11,13.49,47866
3-Feb-14,13.59,13.70,13.29,13.34,67507
31-Jan-14,13.15,13.77,13.15,13.65,89367
30-Jan-14,13.15,13.50,13.06,13.31,51996
29-Jan-14,12.95,13.25,12.73,13.06,272244
28-Jan-14,12.97,13.32,12.93,13.03,145930
27-Jan-14,13.42,13.44,12.85,13.00,71424
24-Jan-14,13.18,13.78,13.18,13.38,89857
23-Jan-14,13.03,13.34,13.03,13.29,50422
22-Jan-14,13.12,13.20,13.00,13.12,74172
21-Jan-14,13.15,13.15,12.93,13.11,491034
17-Jan-14,13.12,13.26,12.92,13.13,35670
16-Jan-14,13.11,13.24,13.03,13.17,78064
15-Jan-14,13.17,13.25,13.06,13.17,61159
14-Jan-14,13.28,13.51,13.04,13.21,122264
13-Jan-14,13.31,13.45,13.04,13.19,148782
10-Jan-14,13.19,13.50,13.15,13.29,130373
9-Jan-14,13.13,13.23,13.00,13.15,128641
8-Jan-14,13.20,13.30,12.92,13.13,26950
7-Jan-14,13.42,13.48,13.16,13.17,102071
6-Jan-14,13.31,13.41,13.25,13.31,61187
3-Jan-14,12.82,13.41,12.82,13.33,370722
2-Jan-14,13.13,13.13,12.80,12.83,147984
31-Dec-13,13.27,13.28,12.98,13.20,85637
30-Dec-13,13.22,13.36,13.09,13.29,49532
27-Dec-13,13.11,13.26,12.95,13.19,156971
26-Dec-13,13.32,13.49,13.04,13.06,48649
24-Dec-13,13.48,13.61,13.30,13.43,12716
23-Dec-13,13.20,13.73,13.20,13.39,42141
20-Dec-13,13.20,13.42,13.09,13.20,330198
19-Dec-13,13.16,13.30,13.07,13.15,68869
18-Dec-13,13.10,13.28,13.09,13.21,204962
17-Dec-13,13.15,13.19,12.97,13.10,453847
16-Dec-13,13.23,13.45,13.10,13.14,167017
13-Dec-13,13.24,13.38,13.15,13.22,89358
12-Dec-13,13.45,13.57,13.08,13.17,25944
11-Dec-13,13.86,13.86,13.30,13.46,32813
10-Dec-13,13.87,13.91,13.57,13.80,227538
9-Dec-13,14.00,14.02,13.72,13.86,35867
6-Dec-13,13.98,14.08,13.89,13.98,48596
5-Dec-13,13.87,13.97,13.70,13.88,28694
4-Dec-13,13.78,13.89,13.63,13.85,40992
3-Dec-13,13.91,13.92,13.58,13.79,31762
2-Dec-13,13.88,13.99,13.57,13.96,63934
29-Nov-13,14.00,14.00,13.76,13.93,16749
27-Nov-13,13.83,13.99,13.74,13.92,41562
26-Nov-13,13.70,13.97,13.70,13.86,42575
25-Nov-13,13.80,13.93,13.66,13.76,40020
22-Nov-13,13.88,13.99,13.73,13.80,72437
21-Nov-13,13.87,14.00,13.80,13.86,85335
20-Nov-13,13.73,13.98,13.66,13.79,43336
19-Nov-13,13.90,14.00,13.30,13.72,107310
18-Nov-13,13.62,13.87,13.56,13.86,87754
15-Nov-13,13.42,13.75,13.41,13.55,70507
14-Nov-13,13.24,13.50,13.24,13.45,55491
13-Nov-13,13.07,13.25,13.04,13.22,30254
12-Nov-13,13.03,13.24,12.93,13.11,57522
11-Nov-13,13.00,13.25,13.00,13.07,389412
8-Nov-13,13.54,13.58,13.00,13.07,232495
7-Nov-13,13.57,13.66,13.49,13.50,142289
6-Nov-13,13.57,13.66,13.50,13.56,32355
5-Nov-13,13.58,13.63,13.50,13.53,34174
4-Nov-13,13.74,13.74,13.48,13.60,183137
1-Nov-13,13.57,13.69,13.40,13.65,90471
31-Oct-13,14.00,14.05,13.56,13.62,267364
30-Oct-13,14.03,14.13,13.86,14.00,168862
29-Oct-13,14.04,14.04,13.92,14.01,212341
28-Oct-13,14.07,14.09,13.94,14.05,78014
25-Oct-13,13.87,14.19,13.75,14.15,273644
24-Oct-13,13.69,13.87,13.63,13.82,80675
23-Oct-13,13.58,13.74,13.55,13.69,42616
22-Oct-13,13.57,13.70,13.50,13.67,265334
21-Oct-13,13.66,13.69,13.48,13.57,41931
18-Oct-13,13.72,13.72,13.28,13.68,210701
17-Oct-13,13.47,13.88,13.41,13.59,95387
16-Oct-13,13.61,13.74,13.44,13.54,80807
15-Oct-13,13.55,13.63,13.17,13.56,206845
14-Oct-13,13.40,13.61,13.20,13.60,62135
11-Oct-13,13.30,13.51,13.17,13.44,194441
10-Oct-13,13.30,13.52,13.23,13.38,87841
9-Oct-13,13.19,13.69,13.10,13.22,135304
8-Oct-13,13.33,13.46,13.00,13.15,181383
7-Oct-13,13.36,13.58,13.23,13.39,45932
4-Oct-13,13.59,13.81,13.41,13.52,65446
3-Oct-13,13.57,13.65,13.29,13.65,91058
2-Oct-13,13.67,13.82,13.40,13.63,125300
1-Oct-13,13.55,13.95,13.45,13.69,187891
30-Sep-13,13.33,13.72,13.33,13.51,1014433
27-Sep-13,13.90,13.90,13.48,13.72,122711
26-Sep-13,14.00,14.01,13.81,13.94,182791
25-Sep-13,13.71,14.06,13.63,13.97,139339
24-Sep-13,13.85,14.00,13.67,13.79,112665
23-Sep-13,13.51,14.01,13.36,13.88,222836
20-Sep-13,13.94,14.05,13.44,13.45,336405
19-Sep-13,14.15,14.26,13.84,13.95,117509
18-Sep-13,13.92,14.10,13.80,14.09,119690
17-Sep-13,13.97,14.06,13.92,13.97,350229
16-Sep-13,13.67,14.24,13.43,13.96,124294
13-Sep-13,13.59,13.98,13.47,13.67,153502
12-Sep-13,13.49,13.71,13.37,13.58,105388
11-Sep-13,13.53,13.53,13.16,13.42,52148
10-Sep-13,13.63,13.63,13.15,13.53,68116
9-Sep-13,13.41,13.53,13.27,13.45,126946
6-Sep-13,13.25,13.51,13.00,13.19,132356
5-Sep-13,13.42,13.62,13.05,13.25,64668
4-Sep-13,13.46,13.95,13.12,13.53,301614
3-Sep-13,13.36,13.55,13.00,13.55,85730
30-Aug-13,13.22,13.39,13.05,13.18,36997
29-Aug-13,13.05,13.35,13.00,13.27,46414
28-Aug-13,13.57,13.76,13.07,13.28,55943
27-Aug-13,13.26,13.72,13.26,13.66,16455
26-Aug-13,13.52,13.81,13.36,13.54,131664
23-Aug-13,13.29,13.68,13.15,13.60,138733
22-Aug-13,13.15,13.31,12.14,13.29,191629
21-Aug-13,13.52,13.61,13.17,13.18,63018
20-Aug-13,13.46,13.69,13.44,13.60,124772
19-Aug-13,13.90,13.90,13.38,13.42,31315
16-Aug-13,13.70,13.97,13.70,13.87,577522
15-Aug-13,13.50,13.97,13.50,13.59,68005
14-Aug-13,13.55,14.02,13.55,13.99,143195
13-Aug-13,13.48,14.00,13.48,13.90,150210
12-Aug-13,13.46,13.72,13.46,13.60,61726
9-Aug-13,13.56,13.56,13.11,13.46,159220
8-Aug-13,13.75,13.88,13.57,13.63,52063
7-Aug-13,13.99,13.99,13.75,13.82,114428
6-Aug-13,14.00,14.01,13.90,13.95,219550
5-Aug-13,14.00,14.03,14.00,14.01,78880
2-Aug-13,14.00,14.01,13.92,14.00,419258
1-Aug-13,14.04,14.05,14.00,14.01,141632
31-Jul-13,14.00,14.04,14.00,14.03,309815
30-Jul-13,14.12,14.14,14.01,14.01,48305
29-Jul-13,14.09,14.16,14.00,14.04,128014
26-Jul-13,13.99,14.19,13.96,14.13,281909
25-Jul-13,14.00,14.03,13.68,14.03,609239
24-Jul-13,14.07,14.14,14.01,14.02,105534
23-Jul-13,14.01,14.11,13.95,14.09,608337
22-Jul-13,14.00,14.05,13.95,14.00,872587
19-Jul-13,14.75,14.80,14.00,14.04,10649577
