﻿Date,Open,High,Low,Close,Volume
20-Jun-17,36.45,36.80,35.85,36.20,595995
19-Jun-17,35.95,36.90,35.87,36.60,1013796
16-Jun-17,35.00,35.70,35.00,35.50,872739
15-Jun-17,34.90,35.60,34.65,35.35,445482
14-Jun-17,35.85,36.85,35.50,35.60,614097
13-Jun-17,35.50,35.96,34.72,35.75,613819
12-Jun-17,35.05,35.72,32.70,35.30,973357
9-Jun-17,38.25,38.35,34.85,35.40,1565209
8-Jun-17,37.30,38.50,37.10,38.30,1030301
7-Jun-17,36.70,37.30,36.68,37.20,905823
6-Jun-17,35.70,37.30,35.35,36.70,1533839
5-Jun-17,35.25,36.10,35.00,36.00,894596
2-Jun-17,34.75,35.30,34.30,35.30,602649
1-Jun-17,34.25,34.70,33.80,34.70,408596
31-May-17,34.20,34.30,33.40,34.10,544936
30-May-17,34.00,34.35,33.75,34.20,463504
26-May-17,34.50,34.65,33.95,34.00,559570
25-May-17,34.50,34.80,34.15,34.65,583871
24-May-17,34.35,34.50,33.95,34.15,645920
23-May-17,33.90,34.30,33.75,34.25,1091987
22-May-17,33.85,34.55,33.70,34.45,924127
19-May-17,32.70,33.95,32.70,33.80,923388
18-May-17,32.10,32.80,31.85,32.55,974328
17-May-17,32.90,32.90,32.05,32.05,690492
16-May-17,33.05,33.65,33.00,33.50,631068
15-May-17,32.40,33.10,32.15,33.05,824536
12-May-17,32.35,32.60,31.90,32.25,641388
11-May-17,31.65,32.55,31.05,32.40,957279
10-May-17,31.75,32.05,31.50,31.80,577059
9-May-17,31.70,32.10,31.25,31.85,1289008
8-May-17,32.90,32.90,31.50,31.75,1159121
5-May-17,32.90,33.35,32.35,32.90,627351
4-May-17,32.75,33.08,32.60,32.95,774066
3-May-17,33.35,33.35,32.35,32.75,663125
2-May-17,32.50,33.25,32.50,32.70,1160057
1-May-17,32.00,32.60,31.60,32.50,1138110
28-Apr-17,31.90,32.25,31.65,31.95,1101955
27-Apr-17,30.75,32.20,30.60,32.05,1478232
26-Apr-17,30.75,31.40,29.45,30.45,1757034
25-Apr-17,30.45,31.20,30.05,30.50,1368719
24-Apr-17,29.80,30.45,29.30,30.20,1595091
21-Apr-17,29.45,29.75,29.15,29.35,485465
20-Apr-17,29.70,29.95,29.20,29.60,616165
19-Apr-17,29.10,29.65,29.10,29.45,475466
18-Apr-17,28.70,29.02,28.45,28.85,309186
17-Apr-17,28.65,29.08,28.60,29.00,264537
13-Apr-17,28.65,29.00,28.45,28.55,370450
12-Apr-17,28.70,28.80,28.35,28.60,389634
11-Apr-17,28.80,29.00,28.40,28.70,653405
10-Apr-17,27.40,27.75,27.35,27.70,272722
7-Apr-17,27.25,27.48,27.15,27.35,607494
6-Apr-17,27.25,27.50,26.98,27.30,364465
5-Apr-17,27.90,28.12,27.00,27.30,540275
4-Apr-17,27.80,28.00,27.55,27.70,540494
3-Apr-17,28.35,28.45,27.45,27.75,539883
31-Mar-17,27.65,28.45,27.50,28.30,804000
30-Mar-17,27.65,27.80,27.30,27.65,618955
29-Mar-17,27.25,27.75,27.10,27.65,410298
28-Mar-17,26.85,27.50,26.65,27.25,502307
27-Mar-17,26.50,27.05,26.15,26.95,377900
24-Mar-17,27.00,27.40,26.75,26.95,493941
23-Mar-17,26.85,27.00,26.50,26.95,432390
22-Mar-17,26.80,27.05,26.50,26.80,342886
21-Mar-17,28.05,28.05,26.75,26.85,673262
20-Mar-17,27.45,28.18,27.35,27.90,569669
17-Mar-17,27.60,28.00,27.30,27.45,592557
16-Mar-17,27.25,27.75,26.98,27.50,650558
15-Mar-17,26.50,27.25,26.30,27.10,556883
14-Mar-17,26.50,26.70,25.92,26.35,699629
13-Mar-17,26.55,26.80,26.29,26.60,517721
10-Mar-17,27.00,27.35,26.05,26.55,803163
9-Mar-17,26.30,26.80,25.90,26.75,532992
8-Mar-17,26.45,26.70,26.20,26.40,424756
7-Mar-17,26.30,26.65,26.20,26.40,554760
6-Mar-17,26.40,26.80,26.25,26.50,428541
3-Mar-17,26.35,26.60,25.90,26.55,539051
2-Mar-17,26.70,26.79,26.30,26.55,610057
1-Mar-17,27.10,27.10,26.25,26.75,845149
28-Feb-17,27.05,27.05,26.35,26.70,985473
27-Feb-17,26.40,27.85,26.15,27.30,1596374
24-Feb-17,25.35,26.30,25.15,26.25,931912
23-Feb-17,25.95,26.25,25.40,25.90,948513
22-Feb-17,24.95,25.95,24.80,25.80,1047115
21-Feb-17,25.15,25.80,25.10,25.65,1263488
17-Feb-17,24.40,25.30,24.30,25.20,788198
16-Feb-17,24.90,25.20,24.25,24.50,1061311
15-Feb-17,23.95,25.45,23.90,25.15,1478003
14-Feb-17,23.55,24.50,22.55,23.90,2633871
13-Feb-17,23.50,24.15,23.22,23.80,1323998
10-Feb-17,22.95,23.55,22.35,23.50,1570943
9-Feb-17,22.40,23.15,22.40,22.75,741087
8-Feb-17,22.35,22.40,21.90,22.30,589859
7-Feb-17,22.65,23.05,22.45,22.60,337408
6-Feb-17,23.05,23.30,22.40,22.60,417538
3-Feb-17,23.35,23.45,22.90,23.20,750575
2-Feb-17,22.85,23.60,22.85,23.30,918941
1-Feb-17,23.45,23.50,22.85,23.00,395580
31-Jan-17,23.15,23.45,22.70,23.35,659758
30-Jan-17,23.95,24.20,23.05,23.35,1008301
27-Jan-17,23.30,24.50,22.90,24.35,1118954
26-Jan-17,23.80,23.80,23.00,23.25,445640
25-Jan-17,23.85,23.90,23.20,23.65,593541
24-Jan-17,23.65,23.95,23.35,23.65,516559
23-Jan-17,22.75,23.65,22.70,23.50,496886
20-Jan-17,22.05,22.90,21.92,22.85,349815
19-Jan-17,21.95,22.40,21.65,21.95,194368
18-Jan-17,21.80,22.40,21.50,21.85,427149
17-Jan-17,22.40,22.50,21.55,21.70,355182
13-Jan-17,22.10,22.55,21.95,22.50,566011
12-Jan-17,21.95,22.05,21.35,22.00,286195
11-Jan-17,21.60,22.25,21.55,21.95,630556
10-Jan-17,21.70,21.88,21.40,21.65,329667
9-Jan-17,21.80,22.05,21.50,21.65,453602
6-Jan-17,21.40,21.80,21.00,21.80,325941
5-Jan-17,21.50,21.55,21.12,21.25,345289
4-Jan-17,21.45,21.75,21.25,21.55,372539
3-Jan-17,21.00,21.38,20.75,21.35,471604
30-Dec-16,20.95,21.20,20.55,20.60,462794
29-Dec-16,20.90,21.30,20.65,20.95,401658
28-Dec-16,21.75,21.80,20.90,20.90,526859
27-Dec-16,21.20,21.65,21.18,21.60,209533
23-Dec-16,20.90,21.25,20.70,21.20,145388
22-Dec-16,21.10,21.25,20.78,20.85,202914
21-Dec-16,21.70,21.70,20.90,21.10,296951
20-Dec-16,22.00,22.20,21.60,21.65,343567
19-Dec-16,21.80,21.95,21.50,21.80,310066
16-Dec-16,21.90,22.05,21.50,21.65,690344
15-Dec-16,21.85,22.45,21.80,22.00,670078
14-Dec-16,22.45,22.80,21.75,21.95,517946
13-Dec-16,22.85,23.55,22.45,22.50,507412
12-Dec-16,23.35,23.50,22.35,22.85,690622
9-Dec-16,23.35,23.80,22.55,22.75,785284
8-Dec-16,22.50,23.40,22.25,23.35,600128
7-Dec-16,21.75,22.55,21.50,22.50,382424
6-Dec-16,21.75,21.95,21.20,21.70,412527
5-Dec-16,20.70,22.00,20.70,21.85,756891
2-Dec-16,20.90,21.05,19.95,20.55,842277
1-Dec-16,21.45,22.50,20.75,21.10,956916
30-Nov-16,21.15,21.65,20.95,21.55,885694
29-Nov-16,22.15,22.15,20.80,20.95,848127
28-Nov-16,22.95,23.20,22.00,22.05,485814
25-Nov-16,22.80,23.15,22.50,23.00,186533
23-Nov-16,22.00,22.85,22.00,22.85,331632
22-Nov-16,22.15,22.70,21.90,22.10,820812
21-Nov-16,23.30,23.30,22.60,22.70,519030
18-Nov-16,23.05,23.30,22.55,22.75,740242
17-Nov-16,24.10,24.20,22.85,22.95,773931
16-Nov-16,23.20,24.10,23.10,23.85,497911
15-Nov-16,22.80,23.80,22.80,23.30,547960
14-Nov-16,22.70,23.85,22.55,22.75,685381
11-Nov-16,21.70,22.60,21.65,22.55,768386
10-Nov-16,21.25,21.95,21.05,21.70,511032
9-Nov-16,20.40,21.15,20.15,21.05,453060
8-Nov-16,20.55,21.20,20.40,20.80,507323
7-Nov-16,20.35,20.75,20.15,20.60,405052
4-Nov-16,19.85,20.22,19.60,20.05,429908
3-Nov-16,19.90,20.20,19.60,19.80,528294
2-Nov-16,19.60,20.20,19.35,19.95,550933
1-Nov-16,20.85,21.00,19.80,20.10,697090
31-Oct-16,20.25,20.85,20.10,20.70,521489
28-Oct-16,20.75,21.10,20.15,20.20,690604
27-Oct-16,21.55,21.90,20.60,20.65,930946
26-Oct-16,22.05,22.60,21.55,21.55,1444812
25-Oct-16,23.00,23.25,22.75,23.15,408240
24-Oct-16,22.35,23.20,22.20,23.10,542255
21-Oct-16,21.95,22.20,21.85,22.15,245243
20-Oct-16,21.95,22.25,21.95,22.15,288267
19-Oct-16,21.60,22.20,21.60,22.00,235897
18-Oct-16,21.50,21.80,21.35,21.65,211268
17-Oct-16,21.60,21.60,21.15,21.30,196729
14-Oct-16,21.61,21.75,21.47,21.52,201197
13-Oct-16,21.95,22.02,21.47,21.52,412300
12-Oct-16,21.81,22.30,21.62,22.15,355915
11-Oct-16,22.37,22.37,21.79,21.86,442849
10-Oct-16,22.65,22.68,22.25,22.36,758442
7-Oct-16,22.86,22.94,22.44,22.49,516126
6-Oct-16,23.13,23.36,22.82,22.90,414380
5-Oct-16,24.27,24.28,23.10,23.14,481926
4-Oct-16,23.91,24.54,23.91,24.15,316340
3-Oct-16,23.56,23.92,23.41,23.90,417194
30-Sep-16,23.67,23.73,23.32,23.66,328653
29-Sep-16,23.80,23.80,23.40,23.56,171099
28-Sep-16,23.75,23.81,23.49,23.79,209551
27-Sep-16,23.48,23.77,23.47,23.74,318068
26-Sep-16,23.60,23.71,23.28,23.51,177793
23-Sep-16,23.77,23.84,23.49,23.66,239249
22-Sep-16,23.65,24.00,23.61,23.82,378891
21-Sep-16,23.29,23.65,23.16,23.60,279301
20-Sep-16,23.51,23.51,23.01,23.09,303851
19-Sep-16,23.54,23.87,23.14,23.36,306582
16-Sep-16,23.10,23.37,22.91,23.36,396357
15-Sep-16,22.30,23.06,22.17,23.05,508427
14-Sep-16,21.93,22.26,21.88,22.23,577902
13-Sep-16,21.99,22.12,21.62,21.96,532992
12-Sep-16,21.46,22.13,21.41,22.00,328362
9-Sep-16,22.21,22.35,21.49,21.65,424972
8-Sep-16,22.31,22.66,22.24,22.34,413539
7-Sep-16,22.08,22.46,22.02,22.37,559554
6-Sep-16,22.62,22.62,22.30,22.36,190506
2-Sep-16,22.25,22.48,22.12,22.48,282049
1-Sep-16,21.80,22.21,21.62,22.15,306931
31-Aug-16,22.25,22.25,21.72,21.95,560223
30-Aug-16,22.30,22.77,22.08,22.24,202480
29-Aug-16,22.33,22.42,22.12,22.29,207398
26-Aug-16,22.32,22.74,22.21,22.36,282484
25-Aug-16,22.28,22.57,22.10,22.44,189958
24-Aug-16,22.86,23.16,22.26,22.31,416013
23-Aug-16,22.26,23.03,22.18,22.92,526902
22-Aug-16,22.92,23.04,22.60,22.90,219764
19-Aug-16,22.94,23.32,22.60,23.09,330045
18-Aug-16,22.90,23.19,22.81,22.96,157528
17-Aug-16,22.78,22.95,22.45,22.93,310422
16-Aug-16,23.37,23.37,22.83,22.84,547287
15-Aug-16,23.33,23.51,23.13,23.38,280600
12-Aug-16,23.46,23.59,23.12,23.20,144371
11-Aug-16,23.48,23.62,23.24,23.53,310698
10-Aug-16,23.14,23.39,22.90,23.30,356539
9-Aug-16,23.09,23.28,22.94,23.20,326252
8-Aug-16,23.99,23.99,23.02,23.13,423203
5-Aug-16,24.24,24.30,23.80,24.02,537247
4-Aug-16,24.66,25.00,22.88,24.14,1915749
3-Aug-16,22.83,23.30,22.44,23.22,676891
2-Aug-16,23.23,23.23,22.45,22.88,478263
1-Aug-16,22.90,23.58,22.80,23.20,574509
29-Jul-16,23.18,23.20,22.88,23.03,375357
28-Jul-16,23.01,23.25,22.93,23.18,244771
27-Jul-16,22.95,23.11,22.78,22.96,218794
26-Jul-16,22.65,23.04,22.65,22.84,279096
25-Jul-16,22.71,22.99,22.64,22.75,274719
22-Jul-16,22.15,22.76,22.15,22.71,569721
21-Jul-16,22.55,22.72,22.05,22.09,517158
20-Jul-16,22.30,22.49,22.02,22.48,393863
19-Jul-16,22.11,22.61,22.03,22.12,410609
18-Jul-16,22.15,22.36,22.02,22.08,287672
15-Jul-16,22.18,22.25,21.95,22.12,205479
14-Jul-16,22.19,22.31,21.96,22.06,332091
13-Jul-16,22.01,22.25,21.80,22.00,383460
12-Jul-16,21.90,22.05,21.61,21.91,306706
11-Jul-16,21.76,21.95,21.47,21.75,367607
8-Jul-16,20.65,21.91,20.59,21.64,836997
7-Jul-16,20.43,20.51,19.90,20.38,496027
6-Jul-16,19.20,19.59,19.18,19.50,243437
5-Jul-16,19.62,19.75,19.15,19.37,316441
1-Jul-16,19.63,19.82,19.48,19.67,597972
30-Jun-16,19.80,19.86,19.50,19.72,941418
29-Jun-16,19.64,19.88,19.39,19.69,477915
28-Jun-16,19.49,19.62,19.12,19.40,511325
27-Jun-16,19.83,19.88,18.54,19.21,777637
24-Jun-16,19.87,20.50,19.63,20.02,1038851
23-Jun-16,20.54,20.85,20.24,20.85,268473
22-Jun-16,20.58,20.71,20.20,20.25,418071
21-Jun-16,20.70,20.83,20.38,20.56,300445
20-Jun-16,20.88,21.08,20.52,20.66,509398
17-Jun-16,20.86,20.96,20.50,20.58,725011
16-Jun-16,20.58,20.84,20.39,20.79,555646
15-Jun-16,20.81,21.06,20.77,20.82,315429
14-Jun-16,20.22,20.68,20.10,20.67,388685
13-Jun-16,20.34,20.94,20.32,20.35,349494
10-Jun-16,20.36,20.41,19.82,20.36,661868
9-Jun-16,20.75,21.00,20.46,20.58,559378
8-Jun-16,20.67,20.91,20.48,20.79,487282
7-Jun-16,20.19,20.81,20.07,20.68,425116
6-Jun-16,19.85,20.32,19.79,20.21,381651
3-Jun-16,20.02,20.15,19.55,19.85,509895
2-Jun-16,19.76,20.16,19.56,20.13,471736
1-Jun-16,19.82,20.00,19.52,19.82,732971
31-May-16,19.82,19.96,19.57,19.74,579394
27-May-16,19.56,19.93,19.33,19.77,418703
26-May-16,19.23,19.86,19.04,19.62,558609
25-May-16,18.70,19.31,18.60,19.18,874355
24-May-16,18.60,18.80,18.47,18.58,1699682
23-May-16,18.33,18.80,18.11,18.52,883002
20-May-16,18.76,19.19,18.69,18.94,693608
19-May-16,19.00,19.31,18.55,18.69,543457
18-May-16,18.29,19.31,17.98,19.05,782444
17-May-16,18.57,18.82,18.26,18.31,405184
16-May-16,18.50,19.10,18.42,18.67,551701
13-May-16,18.43,18.50,18.20,18.45,624229
12-May-16,18.71,18.80,18.23,18.45,273391
11-May-16,18.62,18.87,18.54,18.55,233654
10-May-16,18.62,18.74,18.26,18.62,350584
9-May-16,18.23,19.10,18.05,18.61,442399
6-May-16,18.17,18.29,17.92,18.22,497516
5-May-16,18.39,18.46,18.05,18.33,356068
4-May-16,18.70,18.91,17.92,18.32,556966
3-May-16,19.28,19.49,18.77,18.78,457309
2-May-16,19.13,19.60,19.04,19.51,646690
29-Apr-16,19.85,20.04,18.87,19.08,666400
28-Apr-16,20.00,20.74,19.62,19.86,1484068
27-Apr-16,18.68,19.18,18.33,18.83,1167703
26-Apr-16,18.21,18.58,18.13,18.54,476537
25-Apr-16,18.72,19.06,18.14,18.17,488616
22-Apr-16,18.40,18.83,18.28,18.83,387640
21-Apr-16,18.09,18.63,17.82,18.42,367880
20-Apr-16,18.10,18.25,17.73,17.88,360179
19-Apr-16,18.25,18.35,17.65,18.05,417725
18-Apr-16,17.46,18.43,17.46,18.20,776087
15-Apr-16,17.84,18.07,17.43,17.55,517107
14-Apr-16,16.91,18.47,16.91,17.81,1408841
13-Apr-16,16.38,16.91,16.11,16.90,788291
12-Apr-16,16.08,16.36,15.93,16.22,341877
11-Apr-16,16.90,16.90,16.09,16.09,341835
8-Apr-16,16.90,16.90,16.45,16.83,522316
7-Apr-16,16.70,16.88,16.55,16.71,534719
6-Apr-16,16.72,16.95,16.70,16.85,446082
5-Apr-16,16.50,16.98,16.40,16.70,943450
4-Apr-16,15.94,16.81,15.85,16.68,977226
1-Apr-16,15.62,15.97,15.18,15.94,531655
31-Mar-16,15.25,16.00,15.13,15.75,1273749
30-Mar-16,15.20,15.38,15.14,15.22,525468
29-Mar-16,14.35,15.12,14.13,15.11,820338
28-Mar-16,14.51,14.64,13.88,14.38,753931
24-Mar-16,14.93,14.98,14.49,14.55,890014
23-Mar-16,15.02,15.30,14.86,15.00,853138
22-Mar-16,15.00,15.27,14.96,15.04,802504
21-Mar-16,15.85,15.85,15.05,15.08,656834
18-Mar-16,15.65,15.98,15.48,15.89,914474
17-Mar-16,15.19,15.54,14.91,15.51,646740
16-Mar-16,15.32,15.34,14.98,15.19,1179991
15-Mar-16,15.70,15.94,14.96,15.44,1362949
14-Mar-16,15.81,15.81,14.83,15.70,1842552
11-Mar-16,15.36,16.08,15.32,15.92,1624794
10-Mar-16,16.26,16.34,14.28,15.11,3462508
9-Mar-16,18.38,18.45,16.00,16.14,2406790
8-Mar-16,19.02,19.17,18.15,18.25,345840
7-Mar-16,19.00,19.26,18.61,19.13,467354
4-Mar-16,19.13,19.36,18.63,19.07,436276
3-Mar-16,18.99,19.11,18.65,19.05,247966
2-Mar-16,18.67,19.12,18.64,19.05,413742
1-Mar-16,18.72,19.05,18.56,18.84,481733
29-Feb-16,18.33,18.87,18.33,18.50,412169
26-Feb-16,18.00,18.36,17.70,18.33,553403
25-Feb-16,18.04,18.21,17.35,17.99,335118
24-Feb-16,17.34,18.05,17.15,17.90,436117
23-Feb-16,18.50,18.62,17.54,17.56,838926
22-Feb-16,18.59,18.89,18.49,18.74,461539
19-Feb-16,17.99,18.32,17.60,18.31,402228
18-Feb-16,18.21,18.35,17.85,18.05,589345
17-Feb-16,17.51,18.35,17.51,18.07,836944
16-Feb-16,16.61,17.51,16.51,17.44,663273
12-Feb-16,16.93,16.99,16.21,16.31,565595
11-Feb-16,16.36,16.90,16.15,16.56,985888
10-Feb-16,16.50,17.27,16.35,16.72,1128088
9-Feb-16,16.53,17.34,15.35,15.98,1770756
8-Feb-16,18.21,18.21,16.56,17.26,1707835
5-Feb-16,20.70,21.05,19.06,19.15,2859913
4-Feb-16,21.27,21.63,20.74,21.34,988337
3-Feb-16,21.92,21.99,21.09,21.33,863723
2-Feb-16,22.11,22.12,21.49,21.71,536786
1-Feb-16,21.60,22.60,21.32,22.37,689526
29-Jan-16,21.25,21.89,20.93,21.82,657655
28-Jan-16,21.94,22.76,20.86,21.01,754351
27-Jan-16,22.58,22.66,21.56,21.76,469104
26-Jan-16,22.46,23.04,22.10,22.78,456948
25-Jan-16,23.16,23.31,22.07,22.32,423386
22-Jan-16,22.22,23.50,22.19,23.36,1141704
21-Jan-16,21.58,22.25,21.18,21.62,557606
20-Jan-16,21.29,21.98,20.50,21.53,1035301
19-Jan-16,21.20,21.87,21.01,21.78,778026
15-Jan-16,20.66,21.18,20.12,20.92,472815
14-Jan-16,21.04,22.13,20.50,21.31,654607
13-Jan-16,22.35,22.43,20.58,21.00,791691
12-Jan-16,21.19,22.40,21.12,22.31,777773
11-Jan-16,21.26,21.37,20.67,20.96,296865
8-Jan-16,21.20,21.44,20.79,21.09,675787
7-Jan-16,21.35,21.62,21.00,21.05,477586
6-Jan-16,21.85,22.21,21.46,21.78,1014467
5-Jan-16,22.78,22.80,21.94,22.21,618918
4-Jan-16,23.11,23.11,22.42,22.76,629194
31-Dec-15,23.93,24.01,23.54,23.58,551363
30-Dec-15,24.26,24.35,23.95,23.99,328344
29-Dec-15,24.19,24.42,23.84,24.33,485497
28-Dec-15,24.21,24.35,23.71,23.99,566437
24-Dec-15,24.25,24.50,24.08,24.30,257878
23-Dec-15,24.25,24.25,23.89,24.14,285007
22-Dec-15,24.25,24.32,23.91,24.15,299737
21-Dec-15,23.54,24.25,23.29,24.24,451367
18-Dec-15,23.53,24.00,23.32,23.43,1079259
17-Dec-15,25.00,25.02,23.41,23.67,1810197
16-Dec-15,25.00,25.67,25.00,25.47,568984
15-Dec-15,24.50,24.79,24.34,24.55,321417
14-Dec-15,24.46,24.85,24.01,24.33,532884
11-Dec-15,24.39,24.99,24.21,24.50,781710
10-Dec-15,24.94,25.16,24.51,24.85,1128165
9-Dec-15,24.28,25.33,24.10,24.97,1656908
8-Dec-15,23.32,24.37,23.21,24.29,634881
7-Dec-15,23.72,23.80,23.07,23.51,432684
4-Dec-15,23.04,23.86,22.77,23.80,428917
3-Dec-15,23.31,23.59,22.84,22.99,452286
2-Dec-15,22.87,23.74,22.84,23.20,555285
1-Dec-15,22.87,23.04,22.28,22.64,1037752
30-Nov-15,23.32,23.99,22.72,22.91,856116
27-Nov-15,22.89,23.35,22.71,23.03,191956
25-Nov-15,22.83,23.12,22.75,22.91,248564
24-Nov-15,22.46,22.88,22.37,22.86,359061
23-Nov-15,22.17,22.92,21.95,22.59,371763
20-Nov-15,22.64,22.97,22.43,22.50,294208
19-Nov-15,22.68,23.23,22.41,22.51,594064
18-Nov-15,22.40,22.71,22.33,22.65,550166
17-Nov-15,21.43,22.53,21.05,22.42,1422779
16-Nov-15,20.90,21.43,20.85,21.36,492532
13-Nov-15,21.07,21.28,20.38,20.85,487379
12-Nov-15,20.80,21.53,20.68,21.23,1092940
11-Nov-15,20.81,21.10,20.59,20.94,480071
10-Nov-15,20.85,20.89,20.37,20.75,700311
9-Nov-15,20.44,21.01,20.34,20.96,783553
6-Nov-15,21.22,21.29,20.36,20.46,1422922
5-Nov-15,22.15,22.15,21.06,21.23,1163061
4-Nov-15,21.48,22.33,21.43,22.17,1737637
3-Nov-15,21.17,21.95,20.11,21.38,4208177
2-Nov-15,18.60,19.50,18.50,19.35,1150061
30-Oct-15,18.52,18.90,18.03,18.50,781447
29-Oct-15,19.69,19.81,18.45,18.52,1002659
28-Oct-15,18.99,19.87,18.73,19.86,418560
27-Oct-15,18.96,19.19,18.79,18.96,275512
26-Oct-15,18.76,19.06,18.53,19.02,228714
23-Oct-15,19.33,19.40,18.73,18.83,480270
22-Oct-15,18.24,19.15,18.18,19.10,442920
21-Oct-15,18.87,18.96,18.03,18.15,410765
20-Oct-15,19.18,19.33,18.63,18.77,365359
19-Oct-15,19.45,19.66,18.90,19.23,394755
16-Oct-15,19.78,19.88,19.28,19.58,416006
15-Oct-15,18.90,19.73,18.90,19.71,625739
14-Oct-15,18.65,18.89,18.43,18.85,724141
13-Oct-15,18.52,18.99,18.52,18.67,460812
12-Oct-15,18.55,18.65,18.28,18.60,342962
9-Oct-15,18.89,19.00,18.43,18.55,327687
8-Oct-15,18.61,18.91,18.25,18.83,515744
7-Oct-15,18.48,18.64,18.07,18.64,329337
6-Oct-15,19.00,19.00,17.99,18.37,711464
5-Oct-15,18.31,18.75,18.24,18.75,332400
2-Oct-15,17.55,18.20,17.46,18.17,661204
1-Oct-15,18.09,18.20,17.49,17.80,468069
30-Sep-15,17.54,18.19,17.28,18.15,840403
29-Sep-15,17.89,17.99,17.28,17.48,573915
28-Sep-15,18.42,18.66,17.78,17.85,500146
25-Sep-15,19.05,19.05,18.38,18.46,472930
24-Sep-15,18.75,18.94,18.66,18.85,475689
23-Sep-15,18.87,19.15,18.78,18.91,342467
22-Sep-15,18.70,19.07,18.65,18.78,609181
21-Sep-15,19.15,19.63,18.84,18.94,467955
18-Sep-15,18.61,19.20,18.37,18.93,1556761
17-Sep-15,18.86,19.11,18.55,18.83,391537
16-Sep-15,18.90,18.92,18.56,18.91,342620
15-Sep-15,18.30,18.95,18.05,18.88,490971
14-Sep-15,18.45,18.66,18.24,18.28,372010
11-Sep-15,18.22,18.51,18.00,18.45,364017
10-Sep-15,18.01,18.42,17.95,18.30,730072
9-Sep-15,18.15,18.48,18.04,18.07,763583
8-Sep-15,17.43,18.11,17.31,17.95,773802
4-Sep-15,17.13,17.36,17.05,17.09,672448
3-Sep-15,17.30,17.72,17.26,17.40,788951
2-Sep-15,17.09,17.24,16.84,17.23,866015
1-Sep-15,16.83,17.28,16.80,16.88,827874
31-Aug-15,17.34,17.72,17.17,17.21,1407922
28-Aug-15,17.45,17.58,16.87,17.37,970746
27-Aug-15,17.15,17.78,17.01,17.49,1452605
26-Aug-15,17.24,17.39,16.65,17.12,2027244
25-Aug-15,18.56,18.67,16.75,16.86,1544441
24-Aug-15,18.52,18.98,17.94,18.00,1412534
21-Aug-15,19.06,19.52,18.63,19.41,1215998
20-Aug-15,20.41,20.49,19.80,19.83,490527
19-Aug-15,20.47,20.87,20.17,20.70,619747
18-Aug-15,20.14,20.94,20.08,20.53,949894
17-Aug-15,19.28,20.31,19.28,20.21,1057312
14-Aug-15,19.24,19.44,18.94,19.32,331979
13-Aug-15,19.59,19.69,19.24,19.30,702568
12-Aug-15,19.31,19.68,18.78,19.52,623477
11-Aug-15,19.54,19.81,19.33,19.47,388959
10-Aug-15,19.17,20.00,18.97,19.66,819853
7-Aug-15,18.88,19.37,18.64,18.80,470382
6-Aug-15,19.50,19.61,18.97,19.02,804033
5-Aug-15,19.50,19.67,19.26,19.44,1020259
4-Aug-15,19.86,20.20,19.26,19.39,1239821
3-Aug-15,19.74,20.11,19.53,20.06,1316341
31-Jul-15,19.25,20.40,19.10,19.70,3455997
30-Jul-15,17.49,18.08,17.22,17.90,747174
29-Jul-15,17.76,17.81,17.54,17.58,423981
28-Jul-15,17.80,17.95,17.35,17.74,395855
27-Jul-15,17.53,17.88,17.28,17.73,491427
24-Jul-15,17.95,18.08,17.26,17.66,558035
23-Jul-15,17.41,18.39,17.41,17.97,693516
22-Jul-15,17.28,17.35,16.99,17.08,304945
21-Jul-15,16.75,17.73,16.65,17.28,882659
20-Jul-15,16.39,16.85,16.13,16.71,653811
17-Jul-15,17.56,17.59,16.30,16.40,1758889
16-Jul-15,17.54,17.66,17.30,17.53,438228
15-Jul-15,17.54,17.69,17.17,17.38,470092
14-Jul-15,17.53,17.71,17.46,17.51,652505
13-Jul-15,17.81,17.88,17.46,17.52,596285
10-Jul-15,17.27,17.92,17.27,17.70,578773
9-Jul-15,16.94,17.32,16.87,17.08,506281
8-Jul-15,16.88,17.03,16.53,16.72,437007
7-Jul-15,17.59,17.59,16.66,17.05,689526
6-Jul-15,17.53,17.72,17.33,17.51,822317
2-Jul-15,18.15,18.19,17.39,17.62,508606
1-Jul-15,18.60,18.67,17.99,18.12,663836
30-Jun-15,18.12,18.53,17.89,18.49,479831
29-Jun-15,18.86,19.00,17.84,17.96,572193
26-Jun-15,19.45,19.50,18.73,19.03,2526299
25-Jun-15,19.34,19.60,19.25,19.41,818265
24-Jun-15,19.28,19.36,18.95,19.09,530728
23-Jun-15,19.26,19.40,19.06,19.28,570712
22-Jun-15,19.34,19.43,18.90,19.26,638701
19-Jun-15,19.50,19.51,18.83,19.27,1155782
18-Jun-15,19.29,19.51,19.05,19.35,651689
17-Jun-15,19.13,19.21,18.91,19.20,545282
16-Jun-15,18.83,19.09,18.44,19.05,737076
15-Jun-15,18.40,18.97,17.92,18.85,745151
12-Jun-15,17.74,18.30,17.74,18.03,524130
11-Jun-15,18.08,18.28,17.71,17.76,447636
10-Jun-15,17.85,18.12,17.72,17.99,604838
9-Jun-15,17.75,17.87,17.60,17.82,495731
8-Jun-15,17.61,17.90,17.60,17.78,497558
5-Jun-15,17.69,17.92,17.38,17.86,279616
4-Jun-15,17.79,17.85,17.46,17.67,261501
3-Jun-15,17.37,17.93,17.25,17.81,469950
2-Jun-15,17.28,17.50,17.16,17.35,226532
1-Jun-15,17.19,17.60,16.91,17.31,539314
29-May-15,17.00,17.23,16.76,17.09,617054
28-May-15,16.93,17.07,16.83,17.04,267773
27-May-15,16.98,17.05,16.80,17.00,272606
26-May-15,16.88,17.01,16.77,16.97,280335
22-May-15,16.88,16.96,16.74,16.91,307448
21-May-15,16.99,17.20,16.91,16.92,498426
20-May-15,17.19,17.32,17.11,17.21,283967
19-May-15,17.12,17.22,17.06,17.19,384938
18-May-15,16.94,17.23,16.94,17.13,467544
15-May-15,16.94,17.07,16.76,16.93,201107
14-May-15,17.00,17.11,16.88,16.91,373336
13-May-15,17.12,17.20,16.79,16.97,358115
12-May-15,17.00,17.19,16.91,17.18,316412
11-May-15,17.05,17.19,16.98,17.09,159563
8-May-15,17.13,17.20,16.94,17.04,283763
7-May-15,16.66,17.17,16.65,16.98,391273
6-May-15,17.13,17.20,16.43,16.71,822166
5-May-15,17.25,17.42,17.01,17.14,893066
4-May-15,17.18,17.42,17.13,17.31,553389
1-May-15,17.30,17.58,17.00,17.13,692594
30-Apr-15,17.53,17.65,16.90,17.23,660450
29-Apr-15,16.96,17.95,16.29,17.64,1393689
28-Apr-15,16.63,17.10,16.59,17.09,444036
27-Apr-15,17.12,17.22,16.48,16.60,514635
24-Apr-15,17.23,17.27,17.01,17.03,298629
23-Apr-15,16.81,17.35,16.74,17.19,254682
22-Apr-15,16.93,17.03,16.57,16.81,161827
21-Apr-15,16.92,17.09,16.81,16.95,279807
20-Apr-15,16.67,17.01,16.62,16.90,240284
17-Apr-15,16.89,16.89,16.25,16.61,465948
16-Apr-15,17.03,17.30,17.00,17.07,418675
15-Apr-15,17.08,17.09,16.98,17.05,394488
14-Apr-15,16.94,17.12,16.74,16.99,343864
13-Apr-15,16.63,16.99,16.61,16.98,388411
10-Apr-15,16.52,16.74,16.50,16.61,201335
9-Apr-15,16.02,16.67,16.02,16.49,969544
8-Apr-15,15.93,16.03,15.76,15.97,277865
7-Apr-15,15.91,16.49,15.80,15.92,1043612
6-Apr-15,15.76,16.08,15.61,15.89,341850
2-Apr-15,15.32,15.96,15.28,15.87,571233
1-Apr-15,15.34,15.42,15.02,15.35,299757
31-Mar-15,15.32,15.52,15.17,15.33,245473
30-Mar-15,15.50,15.53,14.87,15.43,314995
27-Mar-15,15.04,15.44,14.90,15.43,274218
26-Mar-15,15.14,15.24,14.86,15.06,266414
25-Mar-15,15.60,15.60,15.13,15.18,376024
24-Mar-15,15.52,15.64,15.43,15.53,739591
23-Mar-15,15.65,15.73,15.45,15.53,160166
20-Mar-15,15.74,15.78,15.39,15.68,971143
19-Mar-15,15.49,15.75,15.48,15.69,214219
18-Mar-15,15.57,15.66,15.29,15.60,202568
17-Mar-15,15.48,15.83,15.48,15.64,269390
16-Mar-15,15.81,15.81,15.16,15.58,314276
13-Mar-15,15.82,16.00,15.52,15.75,364739
12-Mar-15,15.65,15.86,15.49,15.83,449327
11-Mar-15,15.02,15.65,15.02,15.57,605314
10-Mar-15,14.51,14.98,14.42,14.97,412186
9-Mar-15,15.13,15.30,14.63,14.72,340661
6-Mar-15,15.44,15.74,15.08,15.09,356151
5-Mar-15,15.79,15.82,15.16,15.59,618271
4-Mar-15,15.98,15.98,15.75,15.79,248989
3-Mar-15,15.92,16.05,15.84,15.98,560490
2-Mar-15,15.72,16.00,15.61,15.95,509210
27-Feb-15,15.65,15.97,15.60,15.77,763722
26-Feb-15,15.31,15.73,15.29,15.71,371032
25-Feb-15,15.55,15.75,15.16,15.32,504859
24-Feb-15,15.67,15.72,15.38,15.56,489415
23-Feb-15,16.04,16.12,15.54,15.67,582204
20-Feb-15,16.29,16.34,16.00,16.29,463470
19-Feb-15,16.00,16.34,15.95,16.32,656572
18-Feb-15,15.70,16.04,15.70,16.02,289652
17-Feb-15,16.01,16.03,15.62,15.71,289288
13-Feb-15,16.02,16.07,15.64,16.04,517692
12-Feb-15,16.17,16.30,15.97,16.04,588832
11-Feb-15,16.20,16.50,15.60,16.00,797010
10-Feb-15,15.10,16.24,15.01,16.17,1710768
9-Feb-15,14.96,15.24,14.76,15.03,406043
6-Feb-15,15.14,15.23,14.85,15.01,752171
5-Feb-15,15.28,15.47,14.50,15.17,893989
4-Feb-15,14.40,15.25,13.92,15.21,1783735
3-Feb-15,14.07,14.55,13.51,14.05,1002695
2-Feb-15,13.55,14.14,13.52,14.04,509024
30-Jan-15,13.70,13.88,13.32,13.50,389659
29-Jan-15,13.57,13.89,13.43,13.77,256754
28-Jan-15,13.81,13.94,13.42,13.57,325581
27-Jan-15,13.38,13.80,13.31,13.71,198807
26-Jan-15,13.78,13.99,13.47,13.56,235451
23-Jan-15,13.85,14.08,13.63,13.80,408398
22-Jan-15,13.59,13.91,13.30,13.84,734225
21-Jan-15,13.70,13.92,13.49,13.50,263129
20-Jan-15,14.34,14.37,13.74,13.80,458444
16-Jan-15,14.36,14.73,14.26,14.30,714924
15-Jan-15,14.94,14.94,14.21,14.41,262355
14-Jan-15,14.59,14.91,14.42,14.86,275397
13-Jan-15,14.79,15.02,14.49,14.80,506581
12-Jan-15,14.74,14.82,14.63,14.75,409902
9-Jan-15,14.44,14.73,14.30,14.71,334394
8-Jan-15,14.41,14.50,14.16,14.43,170225
7-Jan-15,14.11,14.27,14.02,14.25,237868
6-Jan-15,14.35,14.45,13.78,14.02,376138
5-Jan-15,14.62,14.62,14.19,14.32,440379
2-Jan-15,14.99,14.99,14.30,14.73,244594
31-Dec-14,14.92,14.95,14.63,14.92,212133
30-Dec-14,14.78,15.06,14.72,14.83,273101
29-Dec-14,14.65,14.90,14.60,14.90,506621
26-Dec-14,14.70,14.70,14.46,14.65,169975
24-Dec-14,14.48,14.65,14.36,14.63,63600
23-Dec-14,14.58,14.65,14.40,14.43,329536
22-Dec-14,14.29,14.50,14.28,14.49,212842
19-Dec-14,14.35,14.42,14.15,14.27,653027
18-Dec-14,14.00,14.39,13.92,14.35,802940
17-Dec-14,13.45,13.94,13.39,13.81,594404
16-Dec-14,13.44,13.65,13.32,13.43,397750
15-Dec-14,13.47,13.77,13.30,13.52,381522
12-Dec-14,13.23,13.62,13.21,13.43,239241
11-Dec-14,13.42,13.75,13.23,13.44,633156
10-Dec-14,13.30,13.56,13.29,13.34,412713
9-Dec-14,12.59,13.48,12.32,13.35,423740
8-Dec-14,12.88,13.25,12.71,12.78,412536
5-Dec-14,12.81,13.09,12.70,12.91,429498
4-Dec-14,12.52,12.90,12.38,12.77,735205
3-Dec-14,12.28,12.58,12.16,12.54,371751
2-Dec-14,12.18,12.27,11.93,12.25,426521
1-Dec-14,12.54,12.54,11.98,12.20,532836
28-Nov-14,12.72,12.75,12.19,12.58,232059
26-Nov-14,12.94,12.94,12.63,12.75,480916
25-Nov-14,12.28,12.92,12.15,12.89,1324355
24-Nov-14,12.05,12.38,12.00,12.30,436142
21-Nov-14,11.85,12.33,11.85,12.00,669116
20-Nov-14,11.32,11.62,11.28,11.58,240278
19-Nov-14,11.54,11.72,11.19,11.40,431078
18-Nov-14,11.80,11.97,11.32,11.55,603650
17-Nov-14,12.54,12.54,11.63,11.79,437450
14-Nov-14,12.18,12.64,12.00,12.60,455765
13-Nov-14,12.39,12.52,12.07,12.18,831238
12-Nov-14,12.26,12.48,12.20,12.39,358722
11-Nov-14,12.54,12.66,12.10,12.35,606158
10-Nov-14,12.41,12.53,12.36,12.40,276601
7-Nov-14,12.32,12.59,12.22,12.41,386001
6-Nov-14,12.58,12.76,12.33,12.37,249716
5-Nov-14,12.76,12.90,12.48,12.55,314434
4-Nov-14,12.32,12.70,12.25,12.59,565695
3-Nov-14,13.00,13.00,12.25,12.34,765798
31-Oct-14,12.63,13.19,12.32,13.14,777045
30-Oct-14,12.45,12.50,11.50,12.31,1100440
29-Oct-14,12.30,12.42,11.82,12.37,697179
28-Oct-14,11.88,12.40,11.62,12.29,471001
27-Oct-14,11.11,11.82,10.87,11.77,483889
24-Oct-14,11.56,11.71,11.05,11.25,450908
23-Oct-14,11.12,11.78,11.00,11.50,825028
22-Oct-14,11.31,11.35,10.84,10.95,273356
21-Oct-14,11.57,11.57,11.07,11.30,410103
20-Oct-14,11.30,11.55,11.20,11.50,226742
17-Oct-14,11.82,11.84,11.26,11.31,380256
16-Oct-14,11.09,11.96,10.91,11.67,592570
15-Oct-14,10.35,11.31,10.25,11.29,473042
14-Oct-14,10.26,10.67,10.25,10.51,379837
13-Oct-14,10.70,10.77,10.02,10.17,535541
10-Oct-14,11.15,11.49,10.64,10.70,567519
9-Oct-14,11.70,11.74,10.39,11.25,1729358
8-Oct-14,11.88,12.24,11.60,12.10,514734
7-Oct-14,11.90,12.33,11.70,11.87,476830
6-Oct-14,12.69,12.72,11.91,11.96,346812
3-Oct-14,12.91,13.02,12.63,12.66,243627
2-Oct-14,12.58,12.84,11.97,12.72,410204
1-Oct-14,12.69,12.78,12.48,12.60,625227
30-Sep-14,12.62,12.80,12.51,12.71,451587
29-Sep-14,11.92,12.67,11.88,12.65,495710
26-Sep-14,12.01,12.17,11.53,12.12,744624
25-Sep-14,12.12,12.17,11.55,11.97,555339
24-Sep-14,12.19,12.39,12.05,12.18,260204
23-Sep-14,12.24,12.49,11.94,12.17,512428
22-Sep-14,13.17,13.20,12.34,12.37,582042
19-Sep-14,13.71,14.00,13.23,13.29,877949
18-Sep-14,13.50,13.71,13.46,13.61,264862
17-Sep-14,13.32,13.60,13.32,13.44,210639
16-Sep-14,13.24,13.46,13.04,13.35,255086
15-Sep-14,13.50,13.57,13.14,13.29,360103
12-Sep-14,14.18,14.20,13.38,13.54,464714
11-Sep-14,13.66,14.25,13.61,14.18,464385
10-Sep-14,13.50,13.93,13.43,13.81,340831
9-Sep-14,13.85,13.85,13.28,13.45,259922
8-Sep-14,13.13,13.96,13.13,13.90,654337
5-Sep-14,13.17,13.40,12.77,13.23,668641
4-Sep-14,13.26,13.55,13.01,13.15,562194
3-Sep-14,13.55,13.88,13.08,13.17,431819
2-Sep-14,13.49,13.70,13.16,13.44,325773
29-Aug-14,13.09,13.49,13.08,13.43,337071
28-Aug-14,13.00,13.27,12.96,13.11,179691
27-Aug-14,13.13,13.30,12.85,13.08,400809
26-Aug-14,13.20,13.48,12.75,13.45,413964
25-Aug-14,13.37,13.64,13.15,13.23,256132
22-Aug-14,13.22,13.38,13.00,13.25,315644
21-Aug-14,13.40,13.50,13.21,13.31,330939
20-Aug-14,13.68,13.83,13.37,13.49,198447
19-Aug-14,13.60,13.84,13.54,13.77,210707
18-Aug-14,13.72,13.74,13.39,13.61,228211
15-Aug-14,13.79,13.79,13.30,13.54,390439
14-Aug-14,13.63,13.79,13.42,13.65,266235
13-Aug-14,14.24,14.32,13.30,13.61,881351
12-Aug-14,14.26,14.26,13.98,14.14,301403
11-Aug-14,14.17,14.36,14.08,14.32,352618
8-Aug-14,14.14,14.24,13.78,14.03,671168
7-Aug-14,14.75,14.75,14.15,14.25,357275
6-Aug-14,14.66,14.66,14.13,14.48,747608
5-Aug-14,13.75,15.28,13.58,14.66,2743436
4-Aug-14,14.45,14.45,13.42,13.79,857634
1-Aug-14,14.85,14.87,14.05,14.43,610414
31-Jul-14,15.06,15.49,14.90,14.93,433978
30-Jul-14,14.90,15.80,14.69,15.10,1899064
29-Jul-14,12.89,12.94,12.64,12.70,690130
28-Jul-14,13.65,13.65,12.45,12.80,557685
25-Jul-14,14.46,14.55,13.51,13.61,409507
24-Jul-14,13.99,15.13,13.99,14.63,454274
23-Jul-14,14.08,14.17,13.84,13.94,201877
22-Jul-14,13.59,14.11,13.52,13.98,441050
21-Jul-14,13.58,14.05,13.44,13.49,389301
18-Jul-14,13.98,14.22,13.60,13.66,630878
17-Jul-14,14.61,14.82,13.88,13.98,473639
16-Jul-14,15.03,15.03,14.71,14.74,484521
15-Jul-14,15.06,15.07,14.75,14.87,370518
14-Jul-14,14.89,15.12,14.81,15.09,280347
11-Jul-14,14.44,14.83,14.44,14.75,279167
10-Jul-14,14.28,14.93,14.19,14.50,265512
9-Jul-14,14.51,14.99,14.42,14.83,461309
8-Jul-14,14.87,14.95,14.19,14.51,571851
7-Jul-14,15.44,15.54,14.87,14.91,297113
3-Jul-14,15.44,15.57,15.33,15.47,226618
2-Jul-14,15.62,15.75,15.13,15.32,475656
1-Jul-14,15.11,15.78,15.08,15.56,621174
30-Jun-14,15.04,15.32,14.53,15.13,404550
27-Jun-14,14.91,15.33,14.81,15.05,1830582
26-Jun-14,14.85,15.00,14.66,14.99,336901
25-Jun-14,14.42,14.87,14.35,14.81,261850
24-Jun-14,14.42,14.75,14.28,14.57,386850
23-Jun-14,14.63,14.73,14.13,14.50,527702
20-Jun-14,14.60,14.75,14.22,14.66,937983
19-Jun-14,14.48,14.60,14.22,14.54,484922
18-Jun-14,14.43,14.53,14.02,14.43,394885
17-Jun-14,13.50,14.60,13.49,14.50,720951
16-Jun-14,13.24,13.77,13.17,13.54,529348
13-Jun-14,13.51,13.51,13.08,13.30,279578
12-Jun-14,13.28,13.88,13.05,13.48,547738
11-Jun-14,13.01,13.57,12.86,13.29,585384
10-Jun-14,12.69,13.18,12.63,13.08,844226
9-Jun-14,12.36,12.80,12.28,12.71,951235
6-Jun-14,12.20,12.97,12.02,12.74,932804
5-Jun-14,11.89,12.19,11.34,12.13,1183595
4-Jun-14,11.60,12.55,11.46,12.16,889241
3-Jun-14,11.79,12.05,11.60,11.72,354475
2-Jun-14,12.17,12.17,11.33,11.94,610114
30-May-14,12.48,12.48,11.81,12.17,444249
29-May-14,12.48,12.62,12.21,12.54,263502
28-May-14,12.37,12.53,12.03,12.39,386630
27-May-14,12.38,12.88,12.17,12.59,521771
23-May-14,12.25,12.45,12.06,12.23,743443
22-May-14,12.51,12.74,12.20,12.21,639159
21-May-14,12.58,12.91,12.44,12.51,449178
20-May-14,12.51,12.60,12.25,12.58,414497
19-May-14,12.34,13.18,12.18,12.54,524657
16-May-14,12.49,12.69,12.13,12.30,426011
15-May-14,12.43,12.69,11.98,12.52,646217
14-May-14,12.99,12.99,12.41,12.50,547840
13-May-14,13.68,14.00,12.87,13.00,859085
12-May-14,13.46,14.08,13.40,13.79,417984
9-May-14,14.01,14.15,13.38,13.43,540591
8-May-14,15.04,15.20,13.98,14.01,799824
7-May-14,15.59,15.84,14.72,15.07,1097788
6-May-14,15.96,16.24,15.37,15.61,559365
5-May-14,15.58,16.73,15.52,16.00,748038
2-May-14,16.06,16.33,15.57,16.14,877999
1-May-14,15.07,16.69,15.07,16.22,1664293
30-Apr-14,15.00,15.71,12.90,15.16,2166022
29-Apr-14,14.26,14.72,14.01,14.52,615671
28-Apr-14,14.75,15.10,14.06,14.11,418769
25-Apr-14,15.43,15.43,13.89,14.59,621844
24-Apr-14,16.48,16.49,15.51,15.65,144545
23-Apr-14,16.68,16.71,16.13,16.22,170123
22-Apr-14,16.09,16.88,15.77,16.67,283178
21-Apr-14,16.42,16.60,16.00,16.21,153971
17-Apr-14,16.49,16.65,16.02,16.36,224045
16-Apr-14,16.22,16.88,16.00,16.52,306232
15-Apr-14,15.81,16.09,14.95,16.05,430762
14-Apr-14,15.86,16.02,15.02,15.77,361149
11-Apr-14,16.03,16.27,15.42,15.65,429264
10-Apr-14,17.75,17.75,16.15,16.22,449098
9-Apr-14,16.97,18.25,16.53,17.79,472999
8-Apr-14,17.00,17.40,16.31,16.88,340724
7-Apr-14,17.33,17.33,15.79,16.44,718049
4-Apr-14,18.25,18.30,17.20,17.53,326929
3-Apr-14,18.38,18.54,17.86,18.00,236757
2-Apr-14,18.52,18.61,17.99,18.41,191174
1-Apr-14,18.26,18.87,17.95,18.41,292764
31-Mar-14,18.08,18.50,17.80,18.10,446307
28-Mar-14,17.93,18.37,17.54,17.91,419842
27-Mar-14,19.23,19.81,17.88,17.91,664618
26-Mar-14,21.09,21.18,18.86,19.03,540437
25-Mar-14,21.23,21.83,20.77,20.91,314917
24-Mar-14,21.49,21.49,19.94,21.09,320589
21-Mar-14,21.78,21.92,21.26,21.48,175141
20-Mar-14,21.73,21.79,21.22,21.57,148665
19-Mar-14,21.91,22.10,21.19,21.83,200506
18-Mar-14,20.34,21.80,20.34,21.79,184859
17-Mar-14,21.75,21.75,21.01,21.13,130605
14-Mar-14,20.27,20.87,20.14,20.60,233838
13-Mar-14,21.06,21.06,19.80,20.49,416258
12-Mar-14,21.00,21.31,20.45,20.90,322993
11-Mar-14,22.12,22.13,21.19,21.29,526900
10-Mar-14,21.51,22.22,21.50,22.11,191066
7-Mar-14,21.94,22.29,21.50,21.53,438670
6-Mar-14,21.85,23.05,21.50,21.85,3399963
5-Mar-14,21.85,23.41,21.84,22.05,381369
4-Mar-14,22.18,22.29,20.97,21.68,155681
3-Mar-14,21.43,22.23,20.15,22.08,168666
28-Feb-14,23.58,23.61,21.38,21.65,235083
27-Feb-14,22.05,23.65,21.90,23.52,144969
26-Feb-14,21.95,22.19,21.35,22.12,48248
25-Feb-14,21.97,22.15,21.50,21.86,44963
24-Feb-14,22.66,22.66,21.75,21.91,96598
21-Feb-14,22.95,22.95,22.36,22.56,106158
20-Feb-14,21.97,23.52,21.63,22.80,148605
19-Feb-14,22.17,22.26,21.76,21.88,77050
18-Feb-14,21.79,22.41,21.47,22.29,119244
14-Feb-14,21.92,21.92,20.71,21.74,155721
13-Feb-14,21.29,22.38,21.23,21.90,361261
12-Feb-14,20.98,21.50,20.51,21.35,185004
11-Feb-14,21.24,21.59,20.49,20.88,195712
10-Feb-14,20.26,21.39,20.21,21.11,344264
7-Feb-14,17.75,20.50,17.75,20.26,435484
6-Feb-14,17.64,18.21,17.42,18.12,191266
5-Feb-14,17.66,18.40,17.39,17.64,160360
4-Feb-14,17.70,18.18,17.53,17.79,116402
3-Feb-14,18.16,18.29,17.43,17.81,92683
31-Jan-14,18.22,18.43,18.03,18.25,271742
30-Jan-14,18.05,18.83,18.03,18.52,137109
29-Jan-14,18.26,18.35,17.78,18.01,149652
28-Jan-14,17.87,18.62,17.86,18.38,102126
27-Jan-14,18.07,18.19,17.50,17.92,98994
24-Jan-14,18.93,18.93,17.45,18.04,361473
23-Jan-14,19.14,19.50,18.68,19.03,236026
22-Jan-14,18.97,19.37,18.85,19.19,188604
21-Jan-14,18.75,19.02,18.38,18.90,168386
17-Jan-14,18.95,19.25,18.48,18.66,145731
16-Jan-14,19.25,19.73,18.65,19.03,149512
15-Jan-14,18.67,19.25,18.67,19.22,185250
14-Jan-14,18.57,18.94,18.28,18.73,119711
13-Jan-14,18.88,19.00,18.34,18.42,80509
10-Jan-14,18.74,18.90,18.32,18.84,121952
9-Jan-14,18.94,19.00,18.15,18.80,157834
8-Jan-14,18.18,18.96,17.77,18.94,177898
7-Jan-14,17.45,18.16,17.26,18.12,230985
6-Jan-14,18.00,18.00,17.25,17.45,150216
3-Jan-14,17.73,18.00,17.52,17.98,67640
2-Jan-14,18.27,18.27,17.61,17.84,195947
31-Dec-13,18.40,18.57,18.20,18.37,57519
30-Dec-13,18.51,18.53,18.15,18.31,88450
27-Dec-13,18.00,18.52,17.66,18.42,109110
26-Dec-13,18.18,18.41,17.70,18.03,104029
24-Dec-13,18.21,18.42,17.83,18.18,46041
23-Dec-13,17.53,18.35,17.51,18.25,153290
20-Dec-13,17.78,17.82,17.12,17.63,1051177
19-Dec-13,17.60,17.90,17.60,17.78,137532
18-Dec-13,17.21,17.87,17.07,17.78,203711
17-Dec-13,17.43,17.43,16.70,17.27,272085
16-Dec-13,17.45,17.60,17.29,17.32,197200
13-Dec-13,17.29,17.44,17.22,17.43,112750
12-Dec-13,17.28,17.34,17.20,17.29,113038
11-Dec-13,17.12,17.35,16.96,17.28,152631
10-Dec-13,17.31,17.50,17.02,17.16,130640
9-Dec-13,17.19,17.54,16.91,17.27,74643
6-Dec-13,17.00,17.27,16.68,17.04,94572
5-Dec-13,15.91,17.07,15.75,16.85,290396
4-Dec-13,16.09,16.43,15.86,15.86,104777
3-Dec-13,15.80,16.50,15.75,16.14,175144
2-Dec-13,15.82,15.91,15.75,15.83,89834
29-Nov-13,16.06,16.06,15.85,15.87,23702
27-Nov-13,16.00,16.00,15.83,15.97,77305
26-Nov-13,16.12,16.24,15.75,15.94,160800
25-Nov-13,16.49,16.50,16.00,16.10,39910
22-Nov-13,16.50,16.60,16.30,16.46,66869
21-Nov-13,16.58,16.72,16.46,16.47,76462
20-Nov-13,16.48,17.11,16.27,16.57,90066
19-Nov-13,16.38,16.60,16.27,16.35,190846
18-Nov-13,16.41,16.65,16.00,16.43,124192
15-Nov-13,16.82,16.82,16.34,16.47,153281
14-Nov-13,16.98,17.20,16.63,16.64,123955
13-Nov-13,17.30,17.53,16.87,16.98,56400
12-Nov-13,17.68,17.68,17.12,17.29,37063
11-Nov-13,17.60,17.60,17.15,17.52,85408
8-Nov-13,17.89,17.95,16.64,17.51,331818
7-Nov-13,18.73,18.84,17.62,18.04,95219
6-Nov-13,19.25,19.80,18.37,18.71,152922
5-Nov-13,18.69,19.34,18.58,19.10,172978
4-Nov-13,19.03,19.03,18.63,18.72,59985
1-Nov-13,18.97,19.29,18.62,18.83,79973
31-Oct-13,18.48,19.37,18.25,19.26,131891
30-Oct-13,18.75,18.75,18.41,18.60,53400
29-Oct-13,18.91,18.91,18.52,18.64,101074
28-Oct-13,18.52,18.98,18.43,18.89,147724
25-Oct-13,19.00,19.00,18.53,18.55,58494
24-Oct-13,18.26,19.20,17.93,18.87,86335
23-Oct-13,18.76,18.76,18.20,18.41,102335
22-Oct-13,19.37,19.37,18.39,18.60,203276
21-Oct-13,18.25,19.05,18.10,19.00,96953
18-Oct-13,17.46,18.54,17.46,18.54,104969
17-Oct-13,17.95,17.95,17.41,17.59,49315
16-Oct-13,18.12,18.25,17.50,17.72,72393
15-Oct-13,17.99,18.01,17.60,17.90,161397
14-Oct-13,17.08,17.74,16.72,17.46,81916
11-Oct-13,16.64,17.18,16.53,16.98,113755
10-Oct-13,16.83,17.20,16.65,16.90,129112
9-Oct-13,17.65,17.65,16.11,16.51,219536
8-Oct-13,18.40,18.42,17.10,17.11,202944
7-Oct-13,17.83,18.37,17.81,18.30,131366
4-Oct-13,17.16,17.75,16.90,17.69,215939
3-Oct-13,16.82,17.54,16.52,16.91,146735
2-Oct-13,17.19,17.28,16.30,17.00,840828
1-Oct-13,18.29,18.29,16.70,17.08,610496
30-Sep-13,17.98,18.44,17.57,18.02,774915
27-Sep-13,17.25,19.40,17.10,18.20,8160819
