﻿Date,Open,High,Low,Close,Volume
20-Jun-17,18.93,19.46,18.76,19.30,673092
19-Jun-17,18.23,18.92,17.90,18.86,299312
16-Jun-17,18.14,18.15,17.52,18.10,436183
15-Jun-17,18.13,18.13,17.44,17.76,378010
14-Jun-17,17.97,18.35,17.72,18.27,250646
13-Jun-17,17.59,18.02,17.36,17.95,178496
12-Jun-17,17.43,17.64,17.02,17.58,275668
9-Jun-17,17.60,17.91,17.32,17.48,222042
8-Jun-17,17.58,17.74,17.40,17.65,153880
7-Jun-17,17.51,17.74,17.37,17.56,192143
6-Jun-17,17.22,17.69,16.96,17.48,225621
5-Jun-17,17.50,17.50,16.79,17.27,278933
2-Jun-17,16.83,17.46,16.53,17.41,241451
1-Jun-17,15.94,16.85,15.91,16.78,264889
31-May-17,16.16,16.16,15.55,15.85,366823
30-May-17,16.48,16.57,15.92,16.08,259571
26-May-17,16.93,17.08,16.41,16.51,174499
25-May-17,17.04,17.23,16.84,16.98,406286
24-May-17,16.91,17.10,16.69,16.96,264670
23-May-17,16.98,17.12,16.55,16.89,211047
22-May-17,17.12,17.16,16.64,16.90,359129
19-May-17,17.64,17.72,17.01,17.03,182413
18-May-17,17.48,17.75,17.36,17.63,197608
17-May-17,17.67,17.84,17.36,17.44,233073
16-May-17,17.79,17.97,17.55,17.91,193475
15-May-17,17.63,17.92,17.48,17.71,213011
12-May-17,17.22,17.72,16.98,17.66,184835
11-May-17,17.42,17.49,16.79,17.34,366338
10-May-17,17.46,17.79,17.23,17.52,185920
9-May-17,17.37,17.81,17.16,17.52,405101
8-May-17,17.86,18.05,17.09,17.26,383339
5-May-17,19.35,19.45,17.31,17.92,533742
4-May-17,18.78,18.93,18.53,18.72,295343
3-May-17,18.95,19.10,18.65,18.74,185688
2-May-17,19.53,19.53,18.89,19.05,204169
1-May-17,19.61,19.76,19.43,19.45,222071
28-Apr-17,19.61,19.71,19.12,19.59,264312
27-Apr-17,19.66,19.77,19.32,19.55,307966
26-Apr-17,19.37,19.75,19.17,19.64,253242
25-Apr-17,18.88,19.47,18.88,19.39,219431
24-Apr-17,18.70,18.87,18.42,18.82,191112
21-Apr-17,18.83,19.05,18.44,18.47,245183
20-Apr-17,18.43,18.89,18.39,18.84,187589
19-Apr-17,18.21,18.72,18.16,18.39,261849
18-Apr-17,18.04,18.14,17.78,18.10,215528
17-Apr-17,18.17,18.35,17.94,18.10,170779
13-Apr-17,17.98,18.34,17.98,18.19,253695
12-Apr-17,18.08,18.34,17.89,17.98,207914
11-Apr-17,18.06,18.37,17.72,18.06,262546
10-Apr-17,18.68,18.77,18.05,18.07,234474
7-Apr-17,18.00,18.69,17.97,18.67,396384
6-Apr-17,18.41,18.41,17.61,18.04,534811
5-Apr-17,18.03,18.16,17.52,17.75,341092
4-Apr-17,17.91,18.31,17.80,17.99,230901
3-Apr-17,18.50,18.78,17.93,18.00,587951
31-Mar-17,18.03,18.49,17.82,18.46,343434
30-Mar-17,18.09,18.29,17.79,18.04,330957
29-Mar-17,17.65,18.41,17.65,18.14,411646
28-Mar-17,17.88,18.17,17.57,17.64,313588
27-Mar-17,17.28,17.94,17.27,17.92,364998
24-Mar-17,17.55,17.71,17.28,17.39,225526
23-Mar-17,17.40,17.71,17.23,17.53,307373
22-Mar-17,17.39,17.72,17.00,17.44,584802
21-Mar-17,18.35,19.23,17.33,17.43,603933
20-Mar-17,18.67,18.68,18.10,18.27,554045
17-Mar-17,18.83,19.17,18.63,18.71,581220
16-Mar-17,19.23,19.49,18.79,18.97,249192
15-Mar-17,18.94,19.29,18.83,19.25,250864
14-Mar-17,19.37,19.68,18.88,18.91,257884
13-Mar-17,19.71,19.80,19.11,19.46,310631
10-Mar-17,19.60,19.74,19.25,19.68,412598
9-Mar-17,19.55,19.99,18.97,19.48,634420
8-Mar-17,20.22,21.24,19.35,19.42,536485
7-Mar-17,21.10,21.24,20.04,20.12,580944
6-Mar-17,20.77,21.24,20.50,21.14,443655
3-Mar-17,21.55,21.77,20.79,21.01,570748
2-Mar-17,20.45,22.36,20.25,21.59,1770588
1-Mar-17,21.27,22.02,20.74,21.50,1035534
28-Feb-17,21.18,22.22,20.92,21.27,776963
27-Feb-17,20.26,21.32,20.26,21.13,619765
24-Feb-17,20.60,20.77,20.20,20.36,196772
23-Feb-17,20.66,20.90,20.38,20.82,323465
22-Feb-17,20.16,21.15,20.14,20.63,485511
21-Feb-17,20.72,20.89,20.16,20.41,479474
17-Feb-17,20.55,20.80,20.20,20.67,262175
16-Feb-17,20.92,21.09,20.17,20.57,332060
15-Feb-17,20.50,21.05,20.27,20.93,337048
14-Feb-17,20.61,20.70,20.25,20.51,238197
13-Feb-17,21.05,21.05,20.52,20.61,203289
10-Feb-17,21.55,21.75,20.66,21.00,429672
9-Feb-17,20.44,21.19,20.13,21.19,1153528
8-Feb-17,20.20,20.58,19.97,20.44,225006
7-Feb-17,20.10,20.58,19.89,20.31,427888
6-Feb-17,20.45,20.57,20.00,20.07,217617
3-Feb-17,20.31,20.66,20.03,20.51,301205
2-Feb-17,19.55,20.12,19.40,20.10,347968
1-Feb-17,19.66,19.75,19.33,19.52,306124
31-Jan-17,18.62,19.70,18.27,19.62,364744
30-Jan-17,19.13,19.13,18.29,18.59,242689
27-Jan-17,18.94,19.14,18.76,19.10,314672
26-Jan-17,19.25,19.49,18.73,18.91,366059
25-Jan-17,19.08,19.31,18.97,19.19,216039
24-Jan-17,19.59,19.60,18.80,19.03,534419
23-Jan-17,19.46,19.71,19.36,19.56,241928
20-Jan-17,19.26,19.56,19.06,19.51,342959
19-Jan-17,19.55,19.72,19.19,19.31,357288
18-Jan-17,18.88,19.83,18.72,19.54,384116
17-Jan-17,19.95,20.00,18.66,18.75,539878
13-Jan-17,19.35,20.28,19.35,19.53,798828
12-Jan-17,18.79,19.54,18.73,19.21,534322
11-Jan-17,19.75,19.75,18.70,18.94,605797
10-Jan-17,19.68,19.77,19.28,19.62,410076
9-Jan-17,19.76,20.14,19.59,19.65,596766
6-Jan-17,19.38,19.87,19.26,19.32,566276
5-Jan-17,19.12,19.42,19.00,19.34,381714
4-Jan-17,18.54,19.35,18.47,19.08,484523
3-Jan-17,19.16,19.16,18.20,18.45,428821
30-Dec-16,19.19,19.42,18.56,18.93,482675
29-Dec-16,19.10,19.45,19.03,19.20,362629
28-Dec-16,19.22,19.29,18.87,19.08,271199
27-Dec-16,19.40,19.60,19.13,19.17,200885
23-Dec-16,18.65,19.46,18.49,19.36,261308
22-Dec-16,18.75,18.93,18.58,18.69,220578
21-Dec-16,19.12,19.26,18.62,18.74,297370
20-Dec-16,19.65,20.00,19.00,19.15,290763
19-Dec-16,20.06,20.24,19.43,19.50,328468
16-Dec-16,20.45,20.50,20.01,20.16,675140
15-Dec-16,20.02,20.50,19.71,20.39,318606
14-Dec-16,20.21,20.32,19.79,20.06,227520
13-Dec-16,20.70,20.87,20.17,20.21,196875
12-Dec-16,20.68,20.79,20.43,20.64,220739
9-Dec-16,20.87,21.51,20.74,20.89,256054
8-Dec-16,20.42,20.75,20.25,20.75,266911
7-Dec-16,20.83,21.02,20.10,20.51,416533
6-Dec-16,20.62,21.21,20.47,21.14,365975
5-Dec-16,19.94,20.84,19.77,20.54,349564
2-Dec-16,19.55,20.41,19.46,19.97,313075
1-Dec-16,20.44,20.75,19.32,19.54,503859
30-Nov-16,21.08,21.36,20.16,20.47,251373
29-Nov-16,21.34,21.62,21.24,21.32,280915
28-Nov-16,21.50,21.92,20.93,21.32,414173
25-Nov-16,21.46,21.70,21.04,21.64,94770
23-Nov-16,20.80,21.72,20.52,21.49,465580
22-Nov-16,21.43,21.52,20.90,21.12,461334
21-Nov-16,21.71,22.00,20.78,21.22,1012352
18-Nov-16,21.94,21.94,19.56,20.08,621016
17-Nov-16,21.31,22.25,20.93,21.39,780571
16-Nov-16,20.72,21.78,20.44,21.41,708090
15-Nov-16,20.84,21.48,20.43,20.91,749619
14-Nov-16,21.51,21.74,20.40,20.99,390247
11-Nov-16,21.17,21.75,20.86,21.16,693966
10-Nov-16,20.53,21.36,20.36,21.07,661760
9-Nov-16,18.93,20.31,18.61,20.19,1090652
8-Nov-16,18.37,19.20,18.04,18.19,325500
7-Nov-16,17.79,18.66,17.47,18.32,497697
4-Nov-16,16.07,18.22,16.07,17.62,927018
3-Nov-16,18.40,18.73,18.09,18.60,686001
2-Nov-16,18.74,19.10,18.39,18.41,349690
1-Nov-16,18.80,18.95,18.09,18.78,399169
31-Oct-16,19.04,19.37,18.78,18.85,297939
28-Oct-16,18.93,19.21,18.48,19.01,310948
27-Oct-16,20.04,20.21,19.02,19.04,296838
26-Oct-16,20.37,20.48,19.72,19.91,223398
25-Oct-16,20.46,20.95,20.31,20.36,190578
24-Oct-16,20.82,20.88,20.36,20.51,194785
21-Oct-16,20.31,20.82,20.24,20.58,289198
20-Oct-16,20.35,20.64,20.22,20.41,206348
19-Oct-16,20.61,20.70,20.05,20.31,405252
18-Oct-16,20.98,21.23,20.58,20.65,321842
17-Oct-16,21.38,21.41,20.64,20.72,387892
14-Oct-16,22.29,22.29,21.31,21.34,369480
13-Oct-16,21.90,22.49,21.78,22.18,163830
12-Oct-16,22.51,22.99,22.03,22.04,359075
11-Oct-16,22.77,22.93,22.20,22.45,350423
10-Oct-16,22.90,23.29,22.67,23.02,238557
7-Oct-16,22.85,23.02,22.48,22.67,302932
6-Oct-16,22.89,23.50,22.76,23.05,339245
5-Oct-16,22.76,23.12,22.56,23.12,338299
4-Oct-16,24.16,24.20,22.60,22.78,517557
3-Oct-16,22.25,23.20,21.92,23.12,413795
30-Sep-16,22.07,22.60,21.75,22.38,357480
29-Sep-16,22.11,22.35,21.77,21.88,714448
28-Sep-16,22.24,22.25,21.74,22.10,613171
27-Sep-16,22.31,22.55,22.16,22.24,619572
26-Sep-16,22.39,22.64,22.07,22.36,402318
23-Sep-16,23.27,23.74,22.54,22.57,517685
22-Sep-16,23.80,23.94,22.98,23.27,650556
21-Sep-16,23.41,23.79,22.66,23.75,389423
20-Sep-16,23.41,23.66,22.87,23.42,471199
19-Sep-16,24.31,24.57,23.02,23.24,1191718
16-Sep-16,24.16,24.57,23.96,24.25,739874
15-Sep-16,23.27,24.32,23.15,24.23,605771
14-Sep-16,23.48,23.81,23.08,23.26,668030
13-Sep-16,21.96,23.47,21.89,23.19,1395707
12-Sep-16,21.17,22.06,20.64,22.03,991065
9-Sep-16,21.21,21.96,21.07,21.30,940023
8-Sep-16,20.92,21.50,20.36,21.37,1634604
7-Sep-16,20.90,23.51,20.30,20.81,15172041
6-Sep-16,16.17,16.38,15.88,16.32,775838
2-Sep-16,16.35,16.53,15.93,16.10,313004
1-Sep-16,16.09,16.75,15.95,16.35,410672
31-Aug-16,16.10,16.30,15.93,16.02,297733
30-Aug-16,16.14,16.35,15.94,16.17,234253
29-Aug-16,16.47,16.47,16.10,16.19,192287
26-Aug-16,16.22,16.59,16.08,16.38,349144
25-Aug-16,16.45,16.96,15.94,16.22,585622
24-Aug-16,17.01,17.14,16.27,16.42,624889
23-Aug-16,17.13,17.25,16.97,16.98,281477
22-Aug-16,16.85,17.47,16.83,17.08,449142
19-Aug-16,16.95,16.95,16.49,16.79,422798
18-Aug-16,17.10,17.23,16.92,17.03,434688
17-Aug-16,17.25,17.33,17.10,17.22,302935
16-Aug-16,17.62,17.96,17.18,17.31,339619
15-Aug-16,17.36,17.90,17.31,17.62,332227
12-Aug-16,17.33,17.50,17.04,17.33,508629
11-Aug-16,17.58,18.10,17.08,17.45,397329
10-Aug-16,18.29,18.58,17.47,17.55,476935
9-Aug-16,18.68,18.89,18.02,18.28,464913
8-Aug-16,19.00,19.28,18.51,18.66,332956
5-Aug-16,19.00,19.41,18.25,18.91,1010964
4-Aug-16,18.61,19.14,18.52,18.77,687422
3-Aug-16,18.25,18.73,18.03,18.64,459823
2-Aug-16,18.20,18.52,17.93,18.31,481046
1-Aug-16,18.07,18.53,17.95,18.17,805740
29-Jul-16,17.50,18.11,17.42,17.93,818494
28-Jul-16,18.33,18.48,17.45,17.53,623322
27-Jul-16,18.10,18.45,17.87,18.40,474837
26-Jul-16,17.63,18.16,17.50,18.01,566753
25-Jul-16,18.24,18.37,17.68,17.75,527166
22-Jul-16,17.87,18.47,17.70,18.12,495820
21-Jul-16,18.00,18.32,17.61,17.77,462439
20-Jul-16,17.55,18.86,17.48,17.85,534952
19-Jul-16,17.69,17.99,17.19,17.50,511917
18-Jul-16,18.53,18.53,17.40,17.60,573082
15-Jul-16,18.25,18.90,18.05,18.48,274374
14-Jul-16,18.32,18.63,18.03,18.09,285338
13-Jul-16,18.79,18.91,17.84,18.09,393388
12-Jul-16,18.69,18.86,18.47,18.57,457100
11-Jul-16,18.76,18.78,18.41,18.47,263058
8-Jul-16,18.29,18.84,18.17,18.65,352462
7-Jul-16,18.59,18.59,17.80,18.30,255046
6-Jul-16,18.14,18.65,18.06,18.49,433338
5-Jul-16,18.41,18.54,17.95,18.29,297903
1-Jul-16,17.73,18.46,17.71,18.46,366227
30-Jun-16,17.96,18.06,17.60,17.81,346500
29-Jun-16,17.97,18.12,17.66,17.95,456810
28-Jun-16,17.41,18.02,17.40,17.81,419044
27-Jun-16,17.53,17.86,16.96,17.24,536394
24-Jun-16,17.62,18.24,17.50,17.80,1661168
23-Jun-16,18.61,18.81,18.20,18.49,591905
22-Jun-16,18.10,19.32,17.80,18.48,787460
21-Jun-16,17.77,18.24,17.51,18.09,638363
20-Jun-16,17.58,17.81,17.36,17.55,342586
17-Jun-16,17.48,17.73,17.19,17.34,854301
16-Jun-16,16.77,17.47,16.58,17.46,687372
15-Jun-16,16.68,16.96,16.46,16.81,378365
14-Jun-16,17.15,17.45,16.38,16.56,545475
13-Jun-16,17.32,17.61,17.01,17.19,266864
10-Jun-16,17.51,17.82,17.22,17.40,297642
9-Jun-16,18.12,18.18,17.66,17.70,307442
8-Jun-16,18.39,18.45,17.80,18.22,216180
7-Jun-16,17.86,18.58,17.69,18.32,444071
6-Jun-16,17.71,18.09,17.28,18.03,349047
3-Jun-16,18.12,18.18,17.29,17.68,378741
2-Jun-16,17.77,18.45,17.77,18.20,383522
1-Jun-16,17.70,17.96,17.43,17.80,429131
31-May-16,17.49,17.88,17.41,17.78,392661
27-May-16,17.40,17.50,16.99,17.47,302904
26-May-16,17.15,17.27,16.93,17.22,263995
25-May-16,17.28,17.45,17.11,17.22,452876
24-May-16,16.81,17.25,16.64,17.21,355026
23-May-16,16.77,17.16,16.65,16.80,279710
20-May-16,16.30,16.84,16.18,16.76,473906
19-May-16,16.25,16.54,15.88,16.23,319986
18-May-16,15.46,16.60,15.46,16.33,481831
17-May-16,15.55,15.89,15.40,15.55,233657
16-May-16,15.43,15.88,15.39,15.59,619327
13-May-16,15.05,15.63,14.92,15.41,392032
12-May-16,15.43,15.63,14.79,15.14,630024
11-May-16,15.70,16.09,15.27,15.31,553535
10-May-16,15.44,15.71,15.03,15.66,455617
9-May-16,14.70,15.68,14.69,15.29,497533
6-May-16,14.70,14.76,14.05,14.61,636034
5-May-16,15.15,15.15,14.50,14.90,742799
4-May-16,14.84,15.37,14.27,15.00,1295902
3-May-16,14.08,14.31,13.49,13.73,441864
2-May-16,13.89,14.26,13.31,14.26,581145
29-Apr-16,14.05,14.16,13.62,13.78,330933
28-Apr-16,14.39,14.53,14.06,14.14,438679
27-Apr-16,14.53,14.64,14.20,14.39,278601
26-Apr-16,15.35,15.35,13.96,14.67,586104
25-Apr-16,15.51,15.87,15.20,15.37,200316
22-Apr-16,15.38,15.78,15.29,15.61,280078
21-Apr-16,15.10,15.49,14.88,15.40,353986
20-Apr-16,15.33,15.42,14.63,15.06,271557
19-Apr-16,15.59,15.64,14.87,15.27,317801
18-Apr-16,15.38,15.82,15.30,15.58,254003
15-Apr-16,15.51,15.58,14.98,15.45,378719
14-Apr-16,15.24,15.84,15.03,15.56,479105
13-Apr-16,14.74,15.34,14.48,15.30,483840
12-Apr-16,14.54,14.72,13.80,14.66,627360
11-Apr-16,14.88,14.90,14.27,14.43,324751
8-Apr-16,15.33,15.33,14.46,14.80,361802
7-Apr-16,14.75,15.40,14.43,15.10,617665
6-Apr-16,14.39,14.86,14.39,14.84,545925
5-Apr-16,14.32,14.74,14.24,14.37,329193
4-Apr-16,14.40,14.90,14.38,14.44,506038
1-Apr-16,13.72,14.43,13.43,14.37,691894
31-Mar-16,13.48,13.80,13.15,13.66,535066
30-Mar-16,13.03,13.94,13.00,13.39,784367
29-Mar-16,12.29,12.82,11.60,12.79,762158
28-Mar-16,12.72,12.85,12.09,12.33,426908
24-Mar-16,12.96,13.24,12.16,12.52,914851
23-Mar-16,13.79,13.99,13.00,13.09,465941
22-Mar-16,13.72,14.42,13.47,13.90,567286
21-Mar-16,13.86,14.05,13.56,13.81,508690
18-Mar-16,13.92,14.37,13.48,13.89,1093413
17-Mar-16,13.90,14.10,12.83,13.82,600686
16-Mar-16,13.93,14.50,13.59,13.94,350951
15-Mar-16,14.76,14.92,13.72,14.07,570708
14-Mar-16,14.99,15.24,14.74,14.93,225870
11-Mar-16,14.58,15.17,14.39,15.01,317163
10-Mar-16,14.90,15.51,14.15,14.49,276841
9-Mar-16,15.23,15.95,14.33,14.82,630346
8-Mar-16,15.84,16.02,14.97,15.21,478380
7-Mar-16,14.90,16.06,14.50,15.78,455978
4-Mar-16,14.72,15.44,14.55,14.87,539914
3-Mar-16,15.35,15.44,14.04,14.52,721224
2-Mar-16,14.97,15.63,14.52,15.40,505654
1-Mar-16,14.26,14.94,14.13,14.92,593868
29-Feb-16,14.61,14.85,14.09,14.23,539256
26-Feb-16,14.97,15.45,14.48,14.56,522941
25-Feb-16,15.02,15.23,14.29,14.60,688155
24-Feb-16,14.27,15.04,14.04,14.98,339728
23-Feb-16,14.78,15.22,14.47,14.50,288493
22-Feb-16,14.81,15.32,14.64,14.81,262985
19-Feb-16,14.12,14.91,13.91,14.61,475375
18-Feb-16,15.03,15.03,14.08,14.19,481474
17-Feb-16,14.31,15.14,14.13,14.83,527361
16-Feb-16,14.14,14.40,13.94,14.20,343929
12-Feb-16,14.25,14.25,13.34,14.00,347155
11-Feb-16,13.24,14.49,13.12,13.97,546781
10-Feb-16,13.55,13.95,11.75,13.64,1593941
9-Feb-16,14.05,14.74,13.55,13.74,596267
8-Feb-16,14.71,14.82,13.99,14.16,612285
5-Feb-16,15.62,15.80,14.84,14.93,654721
4-Feb-16,15.55,16.18,15.05,15.76,601764
3-Feb-16,15.43,15.67,14.69,15.63,434904
2-Feb-16,15.43,15.82,15.07,15.31,422951
1-Feb-16,14.82,15.78,14.51,15.65,578830
29-Jan-16,14.97,15.38,14.22,14.97,697490
28-Jan-16,15.94,15.94,14.85,15.09,559839
27-Jan-16,16.51,16.84,15.69,15.82,488864
26-Jan-16,16.67,17.40,15.60,16.54,409789
25-Jan-16,16.61,17.22,16.41,16.57,412168
22-Jan-16,16.92,17.03,16.24,16.70,579286
21-Jan-16,16.79,17.44,16.40,16.59,450708
20-Jan-16,15.46,17.08,15.01,16.74,633979
19-Jan-16,17.00,17.29,15.51,15.73,798559
15-Jan-16,16.78,17.20,16.49,16.88,724824
14-Jan-16,17.01,17.78,16.10,17.34,497049
13-Jan-16,18.08,18.21,16.51,16.87,643863
12-Jan-16,17.54,18.25,17.20,17.95,558018
11-Jan-16,18.36,18.72,17.00,17.37,604791
8-Jan-16,17.63,18.47,17.36,18.01,592440
7-Jan-16,17.59,18.04,17.02,17.60,434714
6-Jan-16,17.88,18.24,17.64,18.00,434804
5-Jan-16,18.89,19.21,18.26,18.26,241340
4-Jan-16,18.67,19.24,18.50,18.89,391887
31-Dec-15,19.63,19.85,19.13,19.29,327852
30-Dec-15,19.96,20.28,19.57,19.68,277083
29-Dec-15,19.58,20.04,19.35,19.95,478790
28-Dec-15,19.77,20.09,19.30,19.51,270737
24-Dec-15,20.12,20.41,19.76,19.81,414823
23-Dec-15,20.32,20.64,20.08,20.19,335070
22-Dec-15,20.12,20.65,19.76,19.97,386695
21-Dec-15,20.26,20.71,19.70,20.16,482384
18-Dec-15,20.78,21.54,19.93,20.04,1422546
17-Dec-15,20.95,21.70,20.33,20.94,768270
16-Dec-15,20.49,21.39,20.30,21.35,331352
15-Dec-15,19.65,20.45,19.42,20.26,394263
14-Dec-15,20.08,20.70,19.02,19.44,428371
11-Dec-15,20.16,20.78,19.83,20.14,364941
10-Dec-15,20.65,21.24,20.45,20.72,397418
9-Dec-15,21.32,21.43,20.36,20.55,343814
8-Dec-15,20.77,21.52,20.07,21.36,363953
7-Dec-15,21.76,21.97,21.19,21.25,520979
4-Dec-15,22.08,22.28,21.67,21.90,366421
3-Dec-15,22.30,22.96,21.60,21.84,582363
2-Dec-15,22.94,23.04,22.16,22.28,347700
1-Dec-15,22.46,22.92,22.14,22.83,494342
30-Nov-15,22.28,22.56,21.49,22.35,418946
27-Nov-15,22.13,22.22,21.50,22.19,167449
25-Nov-15,21.31,22.81,19.87,22.17,662271
24-Nov-15,20.19,21.77,20.09,21.37,713336
23-Nov-15,19.51,20.25,19.29,20.19,407996
20-Nov-15,19.15,19.78,18.91,19.43,225425
19-Nov-15,19.80,20.11,18.81,19.00,233037
18-Nov-15,18.50,20.11,18.50,20.05,808811
17-Nov-15,17.99,19.70,17.95,18.52,852959
16-Nov-15,18.55,18.83,17.76,18.37,322713
13-Nov-15,18.27,18.86,17.77,18.72,315541
12-Nov-15,18.57,18.76,18.06,18.30,335819
11-Nov-15,18.79,19.10,18.53,18.63,292334
10-Nov-15,19.01,19.16,18.51,18.78,428650
9-Nov-15,18.93,19.85,18.49,19.15,565863
6-Nov-15,18.88,19.35,18.18,19.02,518704
5-Nov-15,18.67,20.21,18.34,18.92,970100
4-Nov-15,20.21,20.25,17.71,18.90,3714424
3-Nov-15,21.09,21.90,20.14,21.82,723499
2-Nov-15,19.51,21.61,19.37,21.00,1407887
30-Oct-15,19.00,19.69,18.02,19.13,449552
29-Oct-15,19.45,20.01,18.71,19.08,633965
28-Oct-15,19.10,19.83,18.62,19.68,648794
27-Oct-15,18.63,19.34,18.48,19.30,305692
26-Oct-15,18.33,19.63,17.87,18.72,410254
23-Oct-15,17.94,18.52,17.20,18.43,678832
22-Oct-15,18.54,18.92,17.53,17.84,450877
21-Oct-15,18.74,19.11,17.21,18.48,441232
20-Oct-15,19.24,19.35,18.43,18.55,411187
19-Oct-15,19.18,20.42,18.45,19.14,522722
16-Oct-15,19.85,20.28,18.90,19.31,356997
15-Oct-15,18.18,19.90,17.75,19.88,448386
14-Oct-15,18.35,19.29,17.50,18.25,909887
13-Oct-15,19.40,19.82,17.85,18.10,724175
12-Oct-15,20.25,20.25,19.27,19.74,241981
9-Oct-15,19.34,20.63,18.69,20.22,465900
8-Oct-15,19.85,20.31,18.44,19.15,768473
7-Oct-15,20.56,21.08,19.47,19.97,670126
6-Oct-15,21.90,21.99,19.05,20.45,719572
5-Oct-15,22.00,22.79,21.29,22.18,852589
2-Oct-15,20.43,21.90,19.65,21.90,814871
1-Oct-15,20.10,20.75,19.28,20.69,706897
30-Sep-15,19.19,20.61,18.82,20.26,1149034
29-Sep-15,19.71,20.12,18.34,18.81,1071452
28-Sep-15,21.75,21.90,18.57,19.94,1397416
25-Sep-15,24.16,24.19,21.15,21.81,974007
24-Sep-15,23.37,23.81,21.84,23.36,941424
23-Sep-15,22.90,24.95,22.14,23.86,1436865
22-Sep-15,24.66,24.79,21.46,22.64,2228625
21-Sep-15,28.92,28.98,23.58,25.10,1831500
18-Sep-15,28.64,29.31,27.96,28.57,660814
17-Sep-15,27.33,29.64,27.29,29.31,543128
16-Sep-15,28.94,29.26,27.10,27.58,604547
15-Sep-15,28.23,28.67,27.62,28.57,224730
14-Sep-15,28.32,28.93,27.66,28.03,296074
11-Sep-15,27.66,28.74,27.26,28.57,257586
10-Sep-15,27.27,28.25,27.27,27.80,356193
9-Sep-15,28.33,28.49,27.28,27.40,446207
8-Sep-15,27.08,28.03,26.51,27.94,497769
4-Sep-15,26.01,27.47,25.50,26.61,367188
3-Sep-15,27.91,28.12,26.10,26.27,571690
2-Sep-15,26.94,27.99,26.49,27.96,430840
1-Sep-15,26.76,27.60,26.26,26.50,488696
31-Aug-15,27.57,28.47,27.32,27.42,463881
28-Aug-15,27.21,28.31,27.21,27.84,454663
27-Aug-15,27.04,27.68,26.44,27.45,680092
26-Aug-15,25.92,27.05,24.81,26.77,981476
25-Aug-15,27.20,27.20,24.96,25.10,1561096
24-Aug-15,25.43,26.92,23.97,25.97,643253
21-Aug-15,27.00,28.56,26.71,26.98,772281
20-Aug-15,27.21,27.87,27.13,27.23,645982
19-Aug-15,28.62,29.03,26.92,27.53,546409
18-Aug-15,30.64,30.91,28.88,28.96,375396
17-Aug-15,29.68,31.06,28.45,30.78,478560
14-Aug-15,30.31,30.93,28.92,29.58,594775
13-Aug-15,31.62,32.22,30.40,30.41,345828
12-Aug-15,31.17,32.21,30.31,31.63,443121
11-Aug-15,31.96,32.78,31.32,31.38,436344
10-Aug-15,31.82,33.31,31.40,31.94,432539
7-Aug-15,34.13,34.47,31.41,32.26,565240
6-Aug-15,36.02,36.45,32.93,34.37,643961
5-Aug-15,33.17,37.04,32.70,36.10,1038762
4-Aug-15,32.07,32.71,31.60,31.74,340911
3-Aug-15,31.88,33.12,31.40,31.94,314365
31-Jul-15,32.21,32.96,31.59,31.74,226707
30-Jul-15,31.75,32.26,31.03,32.17,281406
29-Jul-15,32.75,33.04,31.45,32.01,264843
28-Jul-15,32.13,33.26,32.10,33.03,277514
27-Jul-15,32.07,32.30,31.00,31.85,271065
24-Jul-15,34.00,34.23,31.90,32.23,445784
23-Jul-15,35.06,35.21,34.09,34.18,279112
22-Jul-15,34.19,35.49,33.72,34.93,256267
21-Jul-15,35.08,35.11,33.62,34.47,269844
20-Jul-15,35.82,36.35,34.97,35.15,225365
17-Jul-15,36.14,36.35,34.90,35.82,304480
16-Jul-15,35.76,36.46,35.63,35.99,405313
15-Jul-15,35.50,36.27,35.38,35.66,479190
14-Jul-15,35.20,36.37,35.12,35.63,432918
13-Jul-15,34.01,35.43,33.36,34.95,612016
10-Jul-15,32.30,33.74,31.63,33.59,367851
9-Jul-15,32.14,32.39,31.18,31.71,718368
8-Jul-15,32.25,32.37,31.23,31.74,349770
7-Jul-15,32.24,32.55,31.39,32.55,587950
6-Jul-15,31.55,32.58,30.51,31.75,397314
2-Jul-15,32.54,32.67,31.46,31.85,316109
1-Jul-15,33.36,34.00,32.22,32.49,359233
30-Jun-15,32.09,33.20,32.04,33.15,379354
29-Jun-15,32.29,32.84,31.67,31.76,302974
26-Jun-15,33.57,33.95,32.23,32.75,1237225
25-Jun-15,33.68,34.38,32.70,33.40,279135
24-Jun-15,34.00,34.16,33.13,33.36,336877
23-Jun-15,34.07,34.68,33.34,33.90,771631
22-Jun-15,33.22,34.18,32.84,33.98,319961
19-Jun-15,34.15,34.22,32.82,32.96,1445087
18-Jun-15,33.50,34.18,33.33,33.98,474124
17-Jun-15,32.52,33.52,32.50,33.37,464843
16-Jun-15,30.90,32.55,30.82,32.40,555120
15-Jun-15,31.43,31.73,30.65,30.90,513020
12-Jun-15,31.23,31.86,30.93,31.75,241995
11-Jun-15,32.30,32.54,31.03,31.18,413073
10-Jun-15,31.79,32.46,31.32,32.07,457238
9-Jun-15,31.98,32.84,29.79,31.59,938127
8-Jun-15,32.40,33.69,32.00,32.59,513748
5-Jun-15,34.07,34.21,32.75,33.60,568597
4-Jun-15,32.65,33.64,32.39,33.49,947537
3-Jun-15,31.85,33.39,31.69,32.86,759368
2-Jun-15,31.43,32.89,31.32,31.73,538165
1-Jun-15,31.64,32.15,31.27,31.85,703822
29-May-15,29.90,31.73,29.89,31.64,1208712
28-May-15,29.75,30.53,29.08,30.03,926745
27-May-15,29.70,30.22,28.67,30.05,1950764
26-May-15,26.53,27.27,26.24,26.87,483259
22-May-15,26.67,26.96,26.05,26.61,244820
21-May-15,26.65,27.31,26.50,26.70,433301
20-May-15,26.81,27.35,26.40,26.75,382453
19-May-15,27.09,27.55,26.49,26.69,362449
18-May-15,26.35,27.35,25.90,26.98,439163
15-May-15,25.36,26.43,25.22,26.27,860191
14-May-15,24.61,24.95,23.94,24.66,396549
13-May-15,24.23,24.58,23.77,24.44,266606
12-May-15,23.67,25.45,23.34,24.20,705820
11-May-15,22.84,23.77,22.79,23.66,259496
8-May-15,22.86,23.63,22.53,22.87,175393
7-May-15,21.96,22.74,21.84,22.46,218138
6-May-15,21.75,22.40,21.40,22.00,172581
5-May-15,23.20,23.24,21.52,21.62,330388
4-May-15,22.76,23.37,22.18,23.27,430960
1-May-15,21.63,23.05,21.30,22.81,513473
30-Apr-15,22.61,22.63,21.12,21.54,387737
29-Apr-15,22.15,22.82,21.62,22.79,300399
28-Apr-15,23.57,24.29,21.25,22.31,765952
27-Apr-15,24.73,24.98,22.56,22.74,381802
24-Apr-15,24.85,25.48,24.49,24.75,405637
23-Apr-15,24.50,24.82,24.29,24.74,302537
22-Apr-15,24.44,25.54,24.13,24.45,355323
21-Apr-15,24.66,24.84,23.82,24.36,236104
20-Apr-15,24.21,24.59,23.50,24.43,267989
17-Apr-15,24.18,24.60,23.36,24.04,375292
16-Apr-15,24.13,24.81,23.80,24.36,299381
15-Apr-15,23.55,24.40,23.40,24.17,309013
14-Apr-15,23.70,23.83,23.02,23.45,416915
13-Apr-15,23.25,23.90,23.25,23.75,261195
10-Apr-15,23.65,23.83,23.13,23.20,233642
9-Apr-15,23.62,24.24,22.75,23.54,371327
8-Apr-15,23.01,23.94,23.01,23.63,319664
7-Apr-15,23.31,23.90,23.01,23.09,510419
6-Apr-15,23.43,24.33,23.10,23.42,352379
2-Apr-15,25.96,25.99,23.78,23.85,885119
1-Apr-15,24.03,24.61,23.03,23.61,492801
31-Mar-15,23.98,24.53,23.21,23.96,1077052
30-Mar-15,22.42,24.69,22.42,24.16,926173
27-Mar-15,22.24,22.89,21.70,21.87,620222
26-Mar-15,22.67,22.86,22.02,22.14,486661
25-Mar-15,23.05,23.58,21.95,22.89,781270
24-Mar-15,22.33,24.71,21.80,23.00,1106909
23-Mar-15,22.15,22.92,21.49,22.32,648565
20-Mar-15,22.21,23.44,22.16,22.34,1664030
19-Mar-15,20.01,22.45,19.91,22.17,6001152
18-Mar-15,19.81,20.20,18.40,20.17,5435005
17-Mar-15,14.29,14.98,13.04,14.76,749476
16-Mar-15,14.89,15.02,14.52,14.73,258173
13-Mar-15,15.09,15.24,14.46,14.76,164242
12-Mar-15,15.38,15.43,14.86,15.11,140721
11-Mar-15,15.20,15.48,14.68,15.20,239090
10-Mar-15,15.00,15.39,14.75,15.19,329345
9-Mar-15,15.37,15.70,14.36,14.99,269797
6-Mar-15,14.90,16.70,14.44,15.37,1031269
5-Mar-15,14.16,14.41,13.91,14.06,224662
4-Mar-15,13.84,14.56,13.84,14.04,227948
3-Mar-15,14.11,14.48,13.80,13.87,246798
2-Mar-15,14.12,14.70,13.98,14.21,174086
27-Feb-15,14.89,15.00,14.12,14.16,201906
26-Feb-15,14.35,14.90,14.04,14.90,198402
25-Feb-15,13.70,14.61,13.63,14.34,225169
24-Feb-15,14.69,14.74,13.69,13.71,321497
23-Feb-15,14.40,15.22,14.26,14.69,361349
20-Feb-15,14.15,14.84,14.15,14.50,224409
19-Feb-15,14.56,15.09,14.21,14.26,282585
18-Feb-15,14.01,14.74,13.86,14.56,323075
17-Feb-15,13.95,15.00,13.87,14.08,374865
13-Feb-15,13.66,14.04,13.32,13.92,161392
12-Feb-15,13.28,13.74,12.98,13.48,256350
11-Feb-15,13.04,13.77,12.95,13.17,353469
10-Feb-15,13.16,13.78,13.05,13.09,384735
9-Feb-15,13.10,13.54,12.90,13.05,246316
6-Feb-15,13.26,13.59,13.10,13.26,188400
5-Feb-15,12.84,13.64,12.75,13.33,256516
4-Feb-15,12.80,12.80,12.30,12.77,143157
3-Feb-15,12.84,13.19,12.57,12.91,171211
2-Feb-15,12.83,13.27,12.51,12.81,222289
30-Jan-15,13.50,13.86,12.77,12.84,167089
29-Jan-15,13.35,13.70,12.90,13.54,143385
28-Jan-15,13.74,13.74,13.02,13.36,133864
27-Jan-15,13.60,13.99,13.55,13.63,176500
26-Jan-15,13.44,14.06,13.30,14.06,234247
23-Jan-15,13.64,13.79,13.23,13.47,194683
22-Jan-15,12.72,14.68,12.04,13.61,899313
21-Jan-15,13.61,13.64,12.32,12.56,463040
20-Jan-15,13.58,13.74,13.12,13.65,343649
16-Jan-15,13.38,13.87,13.21,13.54,283274
15-Jan-15,14.19,14.50,13.41,13.44,486042
14-Jan-15,13.06,14.18,12.10,14.17,310948
13-Jan-15,13.70,14.17,12.94,13.21,457432
12-Jan-15,13.70,14.25,13.39,13.52,176644
9-Jan-15,13.98,14.20,13.39,13.61,626020
8-Jan-15,13.19,14.07,12.91,14.05,539694
7-Jan-15,12.95,13.23,12.05,13.10,561895
6-Jan-15,13.00,13.45,12.29,12.80,369810
5-Jan-15,12.57,13.34,12.19,13.02,335037
2-Jan-15,12.33,12.84,11.87,12.67,221293
31-Dec-14,12.13,12.48,11.91,12.24,266893
30-Dec-14,12.94,13.03,12.07,12.12,184804
29-Dec-14,13.01,13.29,12.82,13.00,176457
26-Dec-14,13.04,13.39,12.78,12.98,137123
24-Dec-14,12.75,12.98,12.53,12.92,197743
23-Dec-14,13.87,14.00,12.50,12.73,468943
22-Dec-14,13.75,14.36,13.50,13.83,595500
19-Dec-14,13.12,13.90,12.88,13.81,1738028
18-Dec-14,12.75,13.20,12.28,13.10,426759
17-Dec-14,11.22,12.78,11.02,12.58,731367
16-Dec-14,10.51,11.20,9.96,11.12,384516
15-Dec-14,10.20,10.62,10.11,10.56,437362
12-Dec-14,9.88,10.35,9.75,10.12,396858
11-Dec-14,9.78,10.00,9.61,9.88,335242
10-Dec-14,9.75,9.87,9.46,9.76,401187
9-Dec-14,9.28,9.85,9.13,9.81,230563
8-Dec-14,9.74,10.01,9.34,9.44,233009
5-Dec-14,9.95,10.14,9.46,9.73,390585
4-Dec-14,10.21,10.27,9.45,9.88,313821
3-Dec-14,10.46,10.46,10.01,10.20,308086
2-Dec-14,10.13,10.57,9.96,10.40,561236
1-Dec-14,9.86,10.15,9.60,10.06,394193
28-Nov-14,9.71,10.33,9.67,10.10,446570
26-Nov-14,8.95,9.88,8.81,9.71,934289
25-Nov-14,8.67,9.00,8.33,8.98,903535
24-Nov-14,8.61,8.95,8.16,8.67,692425
21-Nov-14,8.85,9.13,8.14,8.24,657132
20-Nov-14,8.10,8.85,8.00,8.74,827188
19-Nov-14,9.09,9.19,7.99,8.09,863665
18-Nov-14,9.47,10.07,8.95,9.03,671386
17-Nov-14,9.68,9.80,9.03,9.45,605348
14-Nov-14,10.13,11.45,9.68,9.90,1134035
13-Nov-14,11.58,11.95,11.41,11.62,454206
12-Nov-14,11.30,11.64,11.14,11.56,176654
11-Nov-14,10.72,11.39,10.56,11.36,287454
10-Nov-14,10.38,10.79,10.04,10.74,211489
7-Nov-14,10.02,10.45,9.96,10.38,159263
6-Nov-14,9.86,10.18,9.64,10.09,122316
5-Nov-14,10.40,10.40,9.65,9.80,166493
4-Nov-14,10.38,10.39,10.14,10.28,167381
3-Nov-14,9.66,10.44,9.50,10.38,215425
31-Oct-14,9.79,9.99,9.26,9.68,276323
30-Oct-14,9.38,9.69,9.18,9.53,178371
29-Oct-14,9.33,9.63,9.08,9.50,242988
28-Oct-14,9.53,9.53,9.12,9.34,239304
27-Oct-14,9.76,10.06,9.22,9.42,388944
24-Oct-14,9.40,9.94,9.30,9.88,262222
23-Oct-14,9.69,9.69,9.33,9.41,302793
22-Oct-14,9.49,9.60,9.31,9.55,189222
21-Oct-14,9.61,10.00,9.24,9.49,185384
20-Oct-14,9.19,9.82,9.19,9.60,218577
17-Oct-14,10.14,10.19,9.25,9.28,274095
16-Oct-14,9.82,10.24,9.62,9.98,210146
15-Oct-14,9.45,10.14,9.45,9.99,213547
14-Oct-14,9.64,10.34,9.34,9.76,346745
13-Oct-14,9.50,9.97,9.30,9.34,370748
10-Oct-14,9.93,10.00,9.25,9.54,368003
9-Oct-14,10.37,10.60,9.64,9.96,493642
8-Oct-14,10.79,10.81,9.94,10.48,350448
7-Oct-14,10.84,11.28,10.19,10.79,648351
6-Oct-14,10.88,11.29,10.48,11.00,810120
3-Oct-14,10.12,10.91,9.65,10.88,606805
2-Oct-14,8.65,10.00,8.63,9.89,908052
1-Oct-14,9.10,9.48,7.85,8.62,1821232
30-Sep-14,9.92,10.10,8.86,9.02,1369849
29-Sep-14,10.05,10.70,9.68,9.82,390463
26-Sep-14,10.64,10.93,9.99,10.19,373451
25-Sep-14,10.87,10.94,10.26,10.60,221208
24-Sep-14,10.90,11.15,10.61,10.91,207775
23-Sep-14,10.54,11.33,10.50,10.85,370809
22-Sep-14,11.16,11.36,10.58,10.66,401586
19-Sep-14,11.97,12.10,11.19,11.29,709362
18-Sep-14,11.56,12.25,11.30,11.82,652625
17-Sep-14,11.32,11.88,11.02,11.46,1481526
16-Sep-14,12.03,12.60,12.03,12.49,456286
15-Sep-14,12.83,12.84,12.05,12.07,176777
12-Sep-14,12.96,13.10,12.47,12.80,152032
11-Sep-14,13.25,13.81,12.85,12.96,238905
10-Sep-14,12.68,13.44,12.61,13.41,202116
9-Sep-14,12.91,13.31,12.45,12.72,190940
8-Sep-14,13.25,13.85,12.91,13.10,197151
5-Sep-14,13.62,13.87,13.12,13.31,113728
4-Sep-14,14.00,14.03,13.61,13.66,126494
3-Sep-14,14.43,14.49,13.69,13.95,199824
2-Sep-14,13.68,14.49,13.33,14.40,221679
29-Aug-14,13.67,13.92,13.09,13.68,114167
28-Aug-14,13.37,13.84,13.28,13.60,117730
27-Aug-14,13.12,13.80,13.10,13.51,170796
26-Aug-14,12.56,13.19,12.48,13.13,172680
25-Aug-14,12.47,12.91,12.43,12.55,226284
22-Aug-14,12.22,12.57,12.05,12.29,79525
21-Aug-14,12.10,12.35,11.97,12.22,200633
20-Aug-14,11.98,12.23,11.94,12.13,124420
19-Aug-14,12.01,12.27,11.80,12.06,126611
18-Aug-14,12.26,12.31,11.86,11.99,133569
15-Aug-14,12.35,12.45,11.73,12.09,131681
14-Aug-14,11.75,12.67,11.65,12.22,293623
13-Aug-14,11.86,12.04,11.48,11.74,253064
12-Aug-14,12.01,12.33,11.16,11.85,553434
11-Aug-14,12.35,12.72,12.05,12.51,381878
8-Aug-14,11.84,12.41,11.66,12.31,201674
7-Aug-14,11.74,11.91,11.56,11.74,110920
6-Aug-14,11.05,11.80,10.92,11.62,184040
5-Aug-14,10.65,11.33,10.65,11.31,235270
4-Aug-14,10.58,10.89,10.41,10.76,131628
1-Aug-14,10.64,11.16,10.36,10.53,159933
31-Jul-14,10.92,11.13,10.51,10.62,119130
30-Jul-14,11.12,11.30,10.87,11.10,157259
29-Jul-14,10.87,11.38,10.83,10.89,98733
28-Jul-14,11.55,11.55,10.45,10.86,187403
25-Jul-14,11.35,11.57,11.28,11.50,226833
24-Jul-14,11.32,11.91,11.24,11.51,296664
23-Jul-14,10.60,11.36,10.60,11.33,356464
22-Jul-14,10.28,10.57,9.70,10.54,437682
21-Jul-14,10.67,10.75,10.21,10.23,249384
18-Jul-14,10.67,10.91,10.36,10.69,224836
17-Jul-14,10.69,10.92,10.54,10.60,255093
16-Jul-14,10.84,11.01,10.60,10.81,160404
15-Jul-14,11.13,11.34,10.64,10.74,212486
14-Jul-14,11.16,11.23,10.87,11.10,128226
11-Jul-14,10.91,11.15,10.81,10.96,90849
10-Jul-14,10.60,11.16,10.60,10.93,129142
9-Jul-14,10.81,11.27,10.59,11.07,159619
8-Jul-14,11.70,11.96,10.77,10.79,374872
7-Jul-14,12.80,12.96,11.77,11.80,248115
3-Jul-14,12.50,12.98,12.25,12.82,174428
2-Jul-14,12.47,12.75,12.13,12.43,399765
1-Jul-14,11.79,12.41,11.75,12.31,284481
30-Jun-14,12.00,12.43,11.52,11.74,252180
27-Jun-14,10.36,12.06,10.32,12.01,1176683
26-Jun-14,11.77,11.86,11.43,11.81,182171
25-Jun-14,11.36,11.99,11.31,11.80,218598
24-Jun-14,11.66,12.32,11.41,11.46,406420
23-Jun-14,11.33,11.70,11.30,11.63,274969
20-Jun-14,11.11,11.44,10.86,11.29,320369
19-Jun-14,11.20,11.20,10.62,11.02,609129
18-Jun-14,11.04,11.20,10.90,11.16,190762
17-Jun-14,11.19,11.20,10.70,11.02,335054
16-Jun-14,11.16,11.56,10.95,11.25,191612
13-Jun-14,11.13,11.31,10.80,11.27,444852
12-Jun-14,11.28,11.50,10.78,11.15,412997
11-Jun-14,11.24,11.36,11.11,11.30,200450
10-Jun-14,11.09,11.51,11.08,11.33,421127
9-Jun-14,10.24,11.45,10.17,11.20,1021488
6-Jun-14,11.26,11.32,10.20,10.34,908261
5-Jun-14,11.78,12.10,11.08,11.17,626295
4-Jun-14,12.65,13.24,11.51,11.76,943439
3-Jun-14,14.17,14.29,13.02,13.35,538187
2-Jun-14,14.55,14.98,14.04,14.45,521904
30-May-14,16.78,16.82,14.56,14.62,3479338
29-May-14,13.38,13.65,12.57,12.88,536400
28-May-14,14.35,14.50,13.80,13.93,81019
27-May-14,13.84,14.37,13.44,14.35,178218
23-May-14,13.27,13.81,12.96,13.73,96104
22-May-14,12.73,13.42,12.73,13.26,159130
21-May-14,12.45,12.98,12.41,12.84,200675
20-May-14,13.14,13.39,12.18,12.34,348880
19-May-14,12.57,13.11,12.53,13.10,210205
16-May-14,12.78,12.79,12.26,12.63,194059
15-May-14,13.11,13.11,12.42,12.80,484632
14-May-14,11.58,13.40,11.32,13.02,507964
13-May-14,12.29,12.80,11.99,12.20,305897
12-May-14,11.47,12.29,11.20,12.20,348015
9-May-14,10.98,11.56,10.61,11.47,310174
8-May-14,11.30,11.94,10.78,10.99,369893
7-May-14,12.78,13.22,11.28,11.41,494983
6-May-14,13.51,14.08,12.65,12.70,237377
5-May-14,13.99,14.22,13.55,13.65,233364
2-May-14,14.16,14.71,14.00,14.16,222919
1-May-14,14.38,14.62,13.59,14.06,279590
30-Apr-14,13.20,14.32,13.00,14.29,221912
29-Apr-14,13.05,13.75,12.92,13.24,227570
28-Apr-14,13.22,13.81,12.66,13.01,382462
25-Apr-14,13.70,13.74,12.91,13.24,253636
24-Apr-14,13.89,14.44,12.80,13.82,291315
23-Apr-14,14.88,14.88,13.71,13.79,277238
22-Apr-14,13.82,15.00,13.65,14.83,591872
21-Apr-14,14.58,14.65,13.66,13.86,370633
17-Apr-14,12.20,15.80,12.10,14.50,1102324
16-Apr-14,11.82,12.53,11.71,12.30,491169
15-Apr-14,12.85,13.68,11.38,11.60,1172830
14-Apr-14,16.38,16.98,12.33,13.01,1206840
11-Apr-14,17.90,18.08,15.32,15.36,931480
10-Apr-14,20.36,20.83,18.05,18.25,334035
9-Apr-14,19.34,20.40,19.16,20.37,287051
8-Apr-14,18.00,19.46,17.61,19.33,474317
7-Apr-14,18.92,20.35,17.75,17.99,635680
4-Apr-14,21.11,21.18,17.64,19.03,1576739
3-Apr-14,23.35,24.25,20.89,21.11,1403285
2-Apr-14,21.50,23.75,21.11,23.36,1284375
1-Apr-14,20.72,21.65,20.43,21.46,506677
31-Mar-14,20.05,21.40,19.65,21.20,3244244
28-Mar-14,19.60,20.76,19.41,19.75,542742
27-Mar-14,20.45,20.98,19.01,19.55,430288
26-Mar-14,20.71,21.84,20.22,20.56,444547
25-Mar-14,20.01,20.97,19.20,20.40,787879
24-Mar-14,18.50,19.02,17.20,18.90,444836
21-Mar-14,19.56,19.70,18.15,18.41,579968
20-Mar-14,17.97,19.43,17.51,19.28,388097
19-Mar-14,18.72,18.90,17.97,18.05,165527
18-Mar-14,17.62,19.05,17.06,18.72,702030
17-Mar-14,17.35,18.45,17.05,17.48,383813
14-Mar-14,17.54,18.21,16.93,17.35,333549
13-Mar-14,18.81,19.54,17.53,17.74,348578
12-Mar-14,18.75,19.50,18.50,18.77,368089
11-Mar-14,19.97,21.00,18.78,19.03,425021
10-Mar-14,19.46,20.37,18.71,19.81,351497
7-Mar-14,18.71,19.57,17.60,19.29,334313
6-Mar-14,18.90,20.41,18.56,18.76,592663
5-Mar-14,18.12,18.89,18.01,18.56,195538
4-Mar-14,18.23,18.75,17.61,18.32,194532
3-Mar-14,17.18,18.49,16.71,17.86,223110
28-Feb-14,19.13,19.27,17.29,17.67,535750
27-Feb-14,19.32,19.96,18.62,19.13,256252
26-Feb-14,19.49,19.49,18.12,19.10,297255
25-Feb-14,19.09,19.37,18.20,18.97,204851
24-Feb-14,19.50,19.95,18.50,19.00,371634
21-Feb-14,17.37,19.76,17.10,19.47,699589
20-Feb-14,16.06,17.19,15.75,17.03,250293
19-Feb-14,15.56,16.29,14.95,16.00,237728
18-Feb-14,16.52,16.52,14.67,15.56,404411
14-Feb-14,15.84,15.85,14.14,14.82,1303048
13-Feb-14,14.88,17.86,14.43,16.00,3846825
12-Feb-14,10.84,10.99,10.33,10.68,214508
11-Feb-14,10.80,11.36,10.31,10.72,172689
10-Feb-14,10.24,10.95,10.00,10.66,96932
7-Feb-14,10.33,10.45,9.88,10.39,100382
6-Feb-14,9.95,10.35,9.77,10.25,64005
5-Feb-14,9.74,10.00,9.74,9.96,81099
4-Feb-14,9.76,10.35,9.09,9.79,213326
3-Feb-14,10.50,10.75,9.79,9.86,81854
31-Jan-14,10.58,11.00,10.50,10.58,64067
30-Jan-14,11.27,11.45,10.83,10.99,44390
29-Jan-14,10.51,11.46,10.51,11.07,91639
28-Jan-14,10.85,11.06,10.35,10.98,61798
27-Jan-14,10.54,11.44,10.50,10.82,89759
24-Jan-14,11.60,11.75,10.23,10.43,280276
23-Jan-14,12.30,12.52,11.95,12.30,82256
22-Jan-14,12.56,13.48,11.88,12.41,206529
21-Jan-14,13.77,13.85,12.25,12.50,201577
17-Jan-14,12.74,13.95,11.99,13.10,431288
16-Jan-14,11.99,14.00,11.82,11.98,212091
15-Jan-14,11.22,12.24,11.10,11.70,170256
14-Jan-14,11.26,11.26,10.50,11.08,278692
13-Jan-14,11.60,12.24,10.62,11.35,332893
10-Jan-14,10.24,12.00,10.02,11.49,2434345
9-Jan-14,7.91,8.58,7.62,8.50,191159
8-Jan-14,8.15,8.40,7.75,7.89,125694
7-Jan-14,8.34,8.34,8.12,8.15,67150
6-Jan-14,8.30,8.35,8.27,8.30,15800
3-Jan-14,8.00,8.49,8.00,8.40,92428
2-Jan-14,7.19,8.10,7.19,8.00,141781
31-Dec-13,7.19,7.19,6.80,7.00,58399
30-Dec-13,6.96,7.30,6.66,7.14,83219
27-Dec-13,7.00,7.00,6.90,6.91,195239
26-Dec-13,7.50,7.50,7.00,7.00,71761
24-Dec-13,7.20,7.50,7.20,7.45,55451
23-Dec-13,6.70,7.00,6.61,7.00,104839
20-Dec-13,6.80,7.00,6.51,6.60,27329
19-Dec-13,7.00,7.10,6.75,6.75,370046
18-Dec-13,7.31,7.50,6.80,6.80,1698326
17-Dec-13,7.60,7.60,6.25,7.00,40014
16-Dec-13,7.22,7.70,7.22,7.45,84314
13-Dec-13,7.00,7.15,6.90,7.15,177260
12-Dec-13,8.10,8.10,6.00,7.00,34239
11-Dec-13,7.85,7.85,5.35,7.65,35300
10-Dec-13,7.90,7.90,7.84,7.85,4500
9-Dec-13,9.00,9.00,8.10,8.10,19233
6-Dec-13,8.30,8.85,8.30,8.70,25100
5-Dec-13,8.00,8.70,7.50,8.50,23292
4-Dec-13,7.25,8.25,7.25,7.90,9450
3-Dec-13,7.25,7.25,7.00,7.10,8058
2-Dec-13,6.92,7.35,6.75,7.35,9050
29-Nov-13,6.65,7.00,6.65,7.00,1890
27-Nov-13,6.85,7.05,6.85,7.00,8657
26-Nov-13,6.60,7.00,6.55,7.00,8310
25-Nov-13,6.25,6.60,6.25,6.55,9700
22-Nov-13,6.00,6.25,5.45,6.25,4200
21-Nov-13,5.91,6.20,5.91,6.00,800
20-Nov-13,5.70,6.00,5.40,6.00,4500
19-Nov-13,5.90,6.00,5.40,5.70,4995
18-Nov-13,5.90,5.90,5.90,5.90,100
15-Nov-13,5.95,5.95,5.90,5.90,5070
14-Nov-13,5.90,6.00,5.25,5.99,24405
13-Nov-13,5.89,5.89,5.89,5.89,100
12-Nov-13,6.83,6.83,5.25,5.99,34009
11-Nov-13,7.05,7.05,7.00,7.00,700
8-Nov-13,7.30,7.30,7.25,7.25,1300
7-Nov-13,7.00,7.25,7.00,7.25,8985
6-Nov-13,6.99,7.00,6.99,7.00,2100
5-Nov-13,6.90,6.99,6.90,6.99,3221
4-Nov-13,6.90,6.90,6.90,6.90,100
1-Nov-13,7.00,7.00,6.80,6.80,900
31-Oct-13,7.00,7.00,7.00,7.00,1300
30-Oct-13,6.65,7.00,6.65,7.00,1600
29-Oct-13,6.70,6.99,6.50,6.99,3000
28-Oct-13,6.11,7.00,6.11,7.00,600
25-Oct-13,6.95,6.95,6.95,6.95,500
24-Oct-13,6.95,7.20,6.80,6.90,9474
23-Oct-13,7.00,7.20,7.00,7.20,10200
22-Oct-13,6.80,6.90,6.11,6.50,4860
21-Oct-13,6.60,7.25,6.60,6.85,13100
18-Oct-13,6.60,6.60,6.45,6.60,5139
17-Oct-13,6.50,6.60,6.50,6.60,600
16-Oct-13,6.80,6.80,6.55,6.70,800
15-Oct-13,6.56,6.85,6.50,6.85,4220
14-Oct-13,6.45,6.90,6.45,6.55,3300
11-Oct-13,6.11,6.50,5.75,6.45,4300
10-Oct-13,6.45,6.70,6.10,6.70,3360
9-Oct-13,6.10,6.50,6.10,6.50,2265
8-Oct-13,6.45,6.46,6.45,6.46,4400
7-Oct-13,6.45,6.85,6.25,6.80,12835
4-Oct-13,6.65,6.65,6.45,6.45,3200
3-Oct-13,6.50,6.70,6.50,6.55,6024
2-Oct-13,6.75,6.75,6.75,6.75,200
1-Oct-13,6.04,6.88,6.04,6.50,4200
30-Sep-13,6.90,6.90,6.30,6.50,5100
27-Sep-13,7.00,7.00,6.30,6.90,2213
26-Sep-13,6.05,7.05,6.05,7.05,1400
25-Sep-13,6.00,6.00,6.00,6.00,398
24-Sep-13,6.50,6.50,5.11,6.05,23200
23-Sep-13,6.80,7.05,6.60,6.60,6400
19-Sep-13,7.25,7.25,7.25,7.25,980
18-Sep-13,6.82,6.88,6.80,6.88,6220
17-Sep-13,6.83,6.90,6.79,6.82,20300
16-Sep-13,6.95,6.95,6.80,6.80,5330
13-Sep-13,7.00,7.20,7.00,7.20,3678
10-Sep-13,6.30,7.15,6.20,7.15,10171
9-Sep-13,5.95,6.25,5.95,6.20,9700
6-Sep-13,6.00,6.00,6.00,6.00,1140
5-Sep-13,6.02,6.02,6.00,6.00,1200
4-Sep-13,6.06,6.40,5.41,6.35,7700
3-Sep-13,5.80,6.00,5.80,6.00,5900
29-Aug-13,6.00,6.00,6.00,6.00,1000
28-Aug-13,6.00,6.00,6.00,6.00,7250
27-Aug-13,6.10,6.35,6.05,6.20,10714
26-Aug-13,6.27,6.40,6.10,6.10,8289
23-Aug-13,5.60,6.50,5.60,6.26,6860
22-Aug-13,5.90,6.50,5.10,6.50,5900
21-Aug-13,5.80,6.59,5.05,5.99,15100
20-Aug-13,5.05,5.50,5.05,5.35,4900
19-Aug-13,5.79,5.79,5.51,5.70,2400
16-Aug-13,5.55,6.75,5.50,5.84,31316
15-Aug-13,5.00,5.00,4.50,4.60,3900
13-Aug-13,5.00,5.00,5.00,5.00,1618
12-Aug-13,5.00,5.01,5.00,5.00,3400
9-Aug-13,5.05,5.49,5.00,5.49,1800
8-Aug-13,5.00,5.00,5.00,5.00,1000
7-Aug-13,5.79,5.80,5.00,5.00,5446
6-Aug-13,5.75,5.75,4.50,4.50,1560
5-Aug-13,5.75,5.75,5.75,5.75,365
1-Aug-13,5.75,5.95,5.75,5.95,1000
31-Jul-13,5.75,5.75,5.00,5.75,2900
30-Jul-13,5.50,6.00,5.50,6.00,300
29-Jul-13,5.10,5.75,5.05,5.70,2238
25-Jul-13,5.40,5.50,5.40,5.50,2120
24-Jul-13,5.50,5.50,5.11,5.50,8981
23-Jul-13,5.50,5.50,5.11,5.11,762
19-Jul-13,5.05,5.50,5.05,5.50,1614
17-Jul-13,5.50,5.50,5.50,5.50,600
16-Jul-13,5.75,5.75,5.50,5.50,1865
15-Jul-13,5.50,5.61,5.50,5.61,2370
12-Jul-13,5.50,6.10,5.50,6.10,300
10-Jul-13,5.50,5.50,5.00,5.00,1200
9-Jul-13,5.15,5.15,5.00,5.00,3500
8-Jul-13,4.75,4.90,4.75,4.90,2000
3-Jul-13,5.00,5.00,4.90,4.90,1100
2-Jul-13,5.00,5.00,4.60,4.90,5100
1-Jul-13,5.25,5.45,4.90,5.00,2799
28-Jun-13,5.45,5.55,5.45,5.55,1639
27-Jun-13,5.45,5.45,5.00,5.00,5200
26-Jun-13,5.45,5.45,5.41,5.41,1000
24-Jun-13,5.96,5.96,5.37,5.45,2687
21-Jun-13,5.65,6.09,5.40,5.85,13304
20-Jun-13,5.65,5.65,5.65,5.65,3167
19-Jun-13,5.75,6.00,5.75,5.75,55000
18-Jun-13,6.05,6.05,5.50,5.75,4873
17-Jun-13,6.00,6.00,5.75,5.75,2082
14-Jun-13,5.75,5.90,5.75,5.80,1600
13-Jun-13,5.90,6.00,5.50,6.00,4230
12-Jun-13,6.00,6.20,5.85,6.00,6926
11-Jun-13,6.65,6.65,5.65,6.48,54156
10-Jun-13,7.28,7.28,7.28,7.28,100
7-Jun-13,7.27,7.28,7.20,7.20,3595
6-Jun-13,7.30,7.30,7.30,7.30,300
5-Jun-13,7.30,7.30,7.30,7.30,111
4-Jun-13,7.45,7.45,7.45,7.45,500
3-Jun-13,7.00,7.00,7.00,7.00,500
31-May-13,6.80,6.80,6.80,6.80,1000
30-May-13,6.75,6.75,6.75,6.75,1000
29-May-13,7.30,7.50,7.00,7.00,6068
28-May-13,7.25,7.25,7.25,7.25,500
24-May-13,6.50,8.00,6.50,7.00,3100
23-May-13,5.95,6.00,5.95,6.00,2390
22-May-13,6.25,6.25,6.00,6.00,5700
21-May-13,6.29,6.40,6.29,6.40,1477
20-May-13,7.10,7.10,6.35,6.40,897
17-May-13,7.25,7.25,6.56,7.15,7910
16-May-13,7.90,7.90,7.25,7.54,2090
15-May-13,8.35,8.35,7.01,7.90,1973
14-May-13,8.65,8.85,8.30,8.30,5080
13-May-13,8.80,8.80,8.33,8.70,2200
10-May-13,8.50,9.00,8.50,8.76,4937
9-May-13,8.25,8.50,8.25,8.50,7985
8-May-13,8.50,8.50,8.40,8.40,2285
7-May-13,8.50,8.50,8.50,8.50,500
6-May-13,8.25,8.25,7.70,8.25,3150
3-May-13,7.75,9.99,7.40,8.25,10416
2-May-13,7.30,7.75,7.30,7.40,3915
1-May-13,7.30,7.40,7.30,7.30,5470
30-Apr-13,7.40,7.40,7.40,7.40,675
29-Apr-13,7.45,7.45,7.40,7.40,6980
26-Apr-13,7.40,7.70,7.40,7.45,2888
25-Apr-13,7.45,7.45,7.36,7.36,374
24-Apr-13,7.25,7.45,7.25,7.45,3354
23-Apr-13,7.40,7.50,7.25,7.45,7951
22-Apr-13,8.00,8.00,7.25,7.25,9321
19-Apr-13,6.65,7.00,6.65,7.00,6500
18-Apr-13,6.55,6.61,6.55,6.60,3521
17-Apr-13,6.50,6.60,6.50,6.60,31900
16-Apr-13,6.25,6.50,6.25,6.50,17387
15-Apr-13,6.00,6.28,6.00,6.25,27200
12-Apr-13,5.20,6.33,5.20,6.00,31188
11-Apr-13,5.65,5.65,5.50,5.50,7700
10-Apr-13,5.25,5.85,5.00,5.85,6700
9-Apr-13,5.45,5.45,5.45,5.45,800
8-Apr-13,5.50,5.75,5.50,5.50,1550
5-Apr-13,4.75,5.25,4.75,5.25,29600
4-Apr-13,5.15,5.15,5.15,5.15,100
3-Apr-13,5.00,5.15,5.00,5.15,12160
2-Apr-13,5.00,5.50,5.00,5.25,13900
1-Apr-13,5.35,5.50,5.00,5.25,9222
28-Mar-13,5.50,5.50,5.28,5.50,1650
27-Mar-13,5.10,5.75,4.75,5.60,10800
26-Mar-13,5.00,5.10,5.00,5.00,3800
25-Mar-13,5.40,5.40,5.40,5.40,400
22-Mar-13,5.65,5.75,5.65,5.75,2500
21-Mar-13,5.30,5.78,5.30,5.69,12785
20-Mar-13,5.20,5.60,5.20,5.60,3500
19-Mar-13,5.20,5.45,5.00,5.45,7878
18-Mar-13,4.75,5.30,4.65,5.30,4400
15-Mar-13,4.65,5.10,4.45,4.75,13657
14-Mar-13,5.30,5.30,4.75,4.75,4200
13-Mar-13,4.90,4.90,4.41,4.90,800
12-Mar-13,4.65,4.65,4.30,4.35,8600
11-Mar-13,5.20,5.20,4.50,4.50,6827
8-Mar-13,4.38,5.40,4.10,5.40,18600
7-Mar-13,4.38,4.38,4.38,4.38,100
6-Mar-13,4.25,4.50,4.25,4.39,6870
5-Mar-13,4.60,4.60,4.25,4.25,5500
4-Mar-13,3.55,4.60,3.55,4.60,17146
1-Mar-13,4.40,4.40,4.40,4.40,8487
28-Feb-13,4.40,4.55,4.30,4.40,15000
27-Feb-13,4.65,4.65,4.65,4.65,100
26-Feb-13,4.50,4.70,4.50,4.70,3500
25-Feb-13,4.73,4.74,4.54,4.73,4400
22-Feb-13,5.00,5.00,3.56,4.85,8450
21-Feb-13,4.20,5.50,4.20,5.25,8485
7-Apr-11,-,-,-,0.10,0
18-Mar-11,-,-,-,0.10,0
16-Mar-11,-,-,-,0.10,0
14-Dec-10,-,-,-,0.10,0
10-Dec-10,-,-,-,0.11,0
8-Dec-10,-,-,-,0.10,0
24-Nov-10,-,-,-,0.10,0
9-Nov-10,-,-,-,0.10,0
18-Oct-10,-,-,-,0.10,0
10-Sep-10,-,-,-,0.10,0
9-Sep-10,-,-,-,0.10,0
8-Sep-10,-,-,-,0.10,0
7-Sep-10,-,-,-,0.10,0
2-Sep-10,-,-,-,0.10,0
1-Sep-10,-,-,-,0.10,0
31-Aug-10,-,-,-,0.10,0
30-Aug-10,-,-,-,0.10,0
27-Aug-10,-,-,-,0.10,0
26-Aug-10,-,-,-,0.10,0
24-Aug-10,-,-,-,0.10,0
23-Aug-10,-,-,-,0.10,0
20-Aug-10,-,-,-,0.10,0
19-Aug-10,-,-,-,0.10,0
18-Aug-10,-,-,-,0.10,0
17-Aug-10,-,-,-,0.10,0
16-Aug-10,-,-,-,0.10,0
13-Aug-10,-,-,-,0.10,0
12-Aug-10,-,-,-,0.10,0
11-Aug-10,-,-,-,0.10,0
10-Aug-10,-,-,-,0.10,0
9-Aug-10,-,-,-,0.10,0
6-Aug-10,-,-,-,0.10,0
5-Aug-10,-,-,-,0.10,0
4-Aug-10,-,-,-,0.10,0
3-Aug-10,-,-,-,0.10,0
2-Aug-10,-,-,-,0.10,0
30-Jul-10,-,-,-,0.10,0
29-Jul-10,-,-,-,0.10,0
28-Jul-10,-,-,-,0.10,0
27-Jul-10,-,-,-,0.10,0
26-Jul-10,-,-,-,0.10,0
23-Jul-10,-,-,-,0.10,0
22-Jul-10,-,-,-,0.10,0
21-Jul-10,-,-,-,0.10,0
20-Jul-10,-,-,-,0.10,0
19-Jul-10,-,-,-,0.10,0
16-Jul-10,-,-,-,0.10,0
15-Jul-10,-,-,-,0.10,0
14-Jul-10,-,-,-,0.10,0
13-Jul-10,-,-,-,0.10,0
12-Jul-10,-,-,-,0.10,0
9-Jul-10,-,-,-,0.10,0
8-Jul-10,-,-,-,0.10,0
7-Jul-10,-,-,-,0.10,0
6-Jul-10,-,-,-,0.10,0
2-Jul-10,-,-,-,0.10,0
1-Jul-10,-,-,-,0.10,0
30-Jun-10,-,-,-,0.10,0
29-Jun-10,-,-,-,0.10,0
28-Jun-10,-,-,-,0.10,0
25-Jun-10,-,-,-,0.10,0
24-Jun-10,-,-,-,0.10,0
23-Jun-10,-,-,-,0.10,0
22-Jun-10,-,-,-,0.10,0
21-Jun-10,-,-,-,0.10,0
18-Jun-10,-,-,-,0.10,0
17-Jun-10,-,-,-,0.10,0
16-Jun-10,-,-,-,0.10,0
15-Jun-10,-,-,-,0.10,0
14-Jun-10,-,-,-,0.10,0
11-Jun-10,-,-,-,0.10,0
10-Jun-10,-,-,-,0.10,0
9-Jun-10,-,-,-,0.10,0
8-Jun-10,-,-,-,0.10,0
7-Jun-10,-,-,-,0.10,0
4-Jun-10,-,-,-,0.10,0
3-Jun-10,-,-,-,0.10,0
2-Jun-10,-,-,-,0.10,0
1-Jun-10,-,-,-,0.10,0
28-May-10,-,-,-,0.10,0
27-May-10,-,-,-,0.10,0
26-May-10,-,-,-,0.10,0
25-May-10,-,-,-,0.10,0
24-May-10,-,-,-,0.10,0
21-May-10,-,-,-,0.10,0
20-May-10,-,-,-,0.10,0
19-May-10,-,-,-,0.10,0
18-May-10,-,-,-,0.10,0
17-May-10,-,-,-,0.10,0
14-May-10,-,-,-,0.10,0
13-May-10,-,-,-,0.10,0
12-May-10,-,-,-,0.10,0
11-May-10,-,-,-,0.10,0
10-May-10,-,-,-,0.10,0
7-May-10,-,-,-,0.10,0
6-May-10,-,-,-,0.10,0
5-May-10,-,-,-,0.10,0
4-May-10,-,-,-,0.10,0
3-May-10,-,-,-,0.10,0
30-Apr-10,-,-,-,0.10,0
29-Apr-10,-,-,-,0.10,0
28-Apr-10,-,-,-,0.10,0
27-Apr-10,-,-,-,0.10,0
26-Apr-10,-,-,-,0.10,0
23-Apr-10,-,-,-,0.10,0
22-Apr-10,-,-,-,0.10,0
21-Apr-10,-,-,-,0.10,0
20-Apr-10,-,-,-,0.10,0
19-Apr-10,-,-,-,0.10,0
16-Apr-10,-,-,-,0.10,0
15-Apr-10,-,-,-,0.10,0
14-Apr-10,-,-,-,0.10,0
13-Apr-10,-,-,-,0.10,0
12-Apr-10,-,-,-,0.10,0
9-Apr-10,-,-,-,0.10,0
8-Apr-10,-,-,-,0.10,0
7-Apr-10,-,-,-,0.10,0
6-Apr-10,-,-,-,0.10,0
5-Apr-10,-,-,-,0.10,0
31-Mar-10,-,-,-,0.10,0
30-Mar-10,-,-,-,0.10,0
29-Mar-10,-,-,-,0.10,0
26-Mar-10,-,-,-,0.10,0
25-Mar-10,-,-,-,0.10,0
24-Mar-10,-,-,-,0.10,0
23-Mar-10,-,-,-,0.10,0
22-Mar-10,-,-,-,0.10,0
19-Mar-10,-,-,-,0.10,0
18-Mar-10,-,-,-,0.10,0
17-Mar-10,-,-,-,0.10,0
16-Mar-10,-,-,-,0.10,0
15-Mar-10,-,-,-,0.10,0
12-Mar-10,-,-,-,0.10,0
11-Mar-10,-,-,-,0.10,0
10-Mar-10,-,-,-,0.10,0
9-Mar-10,-,-,-,0.10,0
8-Mar-10,-,-,-,0.10,0
5-Mar-10,-,-,-,0.10,0
4-Mar-10,-,-,-,0.10,0
3-Mar-10,-,-,-,0.10,0
2-Mar-10,-,-,-,0.10,0
1-Mar-10,-,-,-,0.10,0
26-Feb-10,-,-,-,0.10,0
25-Feb-10,-,-,-,0.10,0
24-Feb-10,-,-,-,0.10,0
23-Feb-10,-,-,-,0.10,0
22-Feb-10,-,-,-,0.10,0
19-Feb-10,-,-,-,0.10,0
18-Feb-10,-,-,-,0.10,0
17-Feb-10,-,-,-,0.10,0
16-Feb-10,-,-,-,0.10,0
12-Feb-10,-,-,-,0.10,0
11-Feb-10,-,-,-,0.10,0
10-Feb-10,-,-,-,0.10,0
9-Feb-10,-,-,-,0.10,0
8-Feb-10,-,-,-,0.10,0
5-Feb-10,-,-,-,0.10,0
4-Feb-10,-,-,-,0.10,0
3-Feb-10,-,-,-,0.10,0
2-Feb-10,-,-,-,0.10,0
1-Feb-10,-,-,-,0.10,0
29-Jan-10,-,-,-,0.10,0
28-Jan-10,-,-,-,0.10,0
27-Jan-10,-,-,-,0.10,0
26-Jan-10,-,-,-,0.10,0
25-Jan-10,-,-,-,0.10,0
22-Jan-10,-,-,-,0.10,0
21-Jan-10,-,-,-,0.10,0
20-Jan-10,-,-,-,0.10,0
19-Jan-10,-,-,-,0.10,0
15-Jan-10,-,-,-,0.10,0
14-Jan-10,-,-,-,0.10,0
13-Jan-10,-,-,-,0.10,0
12-Jan-10,-,-,-,0.10,0
11-Jan-10,-,-,-,0.10,0
8-Jan-10,-,-,-,0.10,0
7-Jan-10,-,-,-,0.10,0
6-Jan-10,-,-,-,0.10,0
5-Jan-10,-,-,-,0.10,0
4-Jan-10,-,-,-,0.10,0
31-Dec-09,-,-,-,0.10,0
30-Dec-09,-,-,-,0.10,0
29-Dec-09,-,-,-,0.10,0
28-Dec-09,-,-,-,0.10,0
24-Dec-09,-,-,-,0.10,0
23-Dec-09,-,-,-,0.10,0
22-Dec-09,-,-,-,0.10,0
21-Dec-09,-,-,-,0.10,0
18-Dec-09,-,-,-,0.10,0
17-Dec-09,0.10,0.10,0.10,0.10,100
16-Dec-09,-,-,-,0.10,0
15-Dec-09,-,-,-,0.10,0
14-Dec-09,-,-,-,0.10,0
11-Dec-09,-,-,-,0.10,0
10-Dec-09,-,-,-,0.10,0
9-Dec-09,-,-,-,0.10,0
8-Dec-09,-,-,-,0.10,0
7-Dec-09,-,-,-,0.10,0
4-Dec-09,-,-,-,0.10,0
3-Dec-09,-,-,-,0.10,0
2-Dec-09,-,-,-,0.10,0
1-Dec-09,-,-,-,0.10,0
30-Nov-09,-,-,-,0.10,0
27-Nov-09,-,-,-,0.10,0
25-Nov-09,0.10,0.10,0.10,0.10,130
24-Nov-09,-,-,-,0.10,0
23-Nov-09,-,-,-,0.10,0
20-Nov-09,-,-,-,0.10,0
19-Nov-09,0.10,0.10,0.10,0.10,210
18-Nov-09,-,-,-,0.15,0
17-Nov-09,-,-,-,0.15,0
16-Nov-09,-,-,-,0.15,0
13-Nov-09,-,-,-,0.15,0
12-Nov-09,-,-,-,0.15,0
11-Nov-09,-,-,-,0.15,0
10-Nov-09,-,-,-,0.15,0
9-Nov-09,-,-,-,0.15,0
6-Nov-09,-,-,-,0.15,0
5-Nov-09,-,-,-,0.15,0
4-Nov-09,-,-,-,0.15,0
3-Nov-09,-,-,-,0.15,0
2-Nov-09,-,-,-,0.15,0
30-Oct-09,-,-,-,0.15,0
29-Oct-09,-,-,-,0.15,0
28-Oct-09,-,-,-,0.15,0
27-Oct-09,-,-,-,0.15,0
26-Oct-09,-,-,-,0.15,0
23-Oct-09,-,-,-,0.15,0
22-Oct-09,0.15,0.15,0.15,0.15,2381
21-Oct-09,-,-,-,0.15,0
20-Oct-09,-,-,-,0.15,0
19-Oct-09,-,-,-,0.15,0
16-Oct-09,-,-,-,0.15,0
15-Oct-09,-,-,-,0.15,0
14-Oct-09,-,-,-,0.15,0
13-Oct-09,-,-,-,0.15,0
12-Oct-09,-,-,-,0.15,0
9-Oct-09,-,-,-,0.15,0
8-Oct-09,-,-,-,0.15,0
7-Oct-09,-,-,-,0.15,0
6-Oct-09,-,-,-,0.15,0
5-Oct-09,-,-,-,0.15,0
2-Oct-09,-,-,-,0.15,0
1-Oct-09,-,-,-,0.15,0
30-Sep-09,0.15,0.15,0.15,0.15,500
29-Sep-09,-,-,-,0.15,0
28-Sep-09,-,-,-,0.15,0
25-Sep-09,-,-,-,0.15,0
24-Sep-09,0.15,0.15,0.15,0.15,1840
23-Sep-09,-,-,-,0.15,0
22-Sep-09,-,-,-,0.15,0
21-Sep-09,-,-,-,0.15,0
18-Sep-09,-,-,-,0.15,0
17-Sep-09,-,-,-,0.15,0
16-Sep-09,-,-,-,0.15,0
15-Sep-09,-,-,-,0.15,0
14-Sep-09,-,-,-,0.15,0
11-Sep-09,-,-,-,0.15,0
10-Sep-09,-,-,-,0.15,0
9-Sep-09,-,-,-,0.15,0
8-Sep-09,-,-,-,0.15,0
4-Sep-09,-,-,-,0.15,0
3-Sep-09,-,-,-,0.15,0
2-Sep-09,-,-,-,0.15,0
1-Sep-09,-,-,-,0.15,0
31-Aug-09,-,-,-,0.15,0
28-Aug-09,-,-,-,0.15,0
27-Aug-09,-,-,-,0.15,0
26-Aug-09,-,-,-,0.15,0
25-Aug-09,-,-,-,0.15,0
24-Aug-09,-,-,-,0.15,0
21-Aug-09,-,-,-,0.15,0
20-Aug-09,0.15,0.15,0.15,0.15,328
19-Aug-09,-,-,-,0.15,0
18-Aug-09,-,-,-,0.15,0
17-Aug-09,-,-,-,0.15,0
14-Aug-09,-,-,-,0.15,0
13-Aug-09,-,-,-,0.15,0
12-Aug-09,0.15,0.15,0.15,0.15,500
10-Aug-09,-,-,-,0.15,0
7-Aug-09,-,-,-,0.15,0
6-Aug-09,-,-,-,0.15,0
5-Aug-09,-,-,-,0.15,0
4-Aug-09,0.15,0.15,0.15,0.15,2230
3-Aug-09,-,-,-,0.15,0
31-Jul-09,-,-,-,0.15,0
30-Jul-09,-,-,-,0.15,0
29-Jul-09,-,-,-,0.15,0
28-Jul-09,-,-,-,0.15,0
27-Jul-09,-,-,-,0.15,0
24-Jul-09,-,-,-,0.15,0
23-Jul-09,-,-,-,0.15,0
22-Jul-09,-,-,-,0.15,0
21-Jul-09,-,-,-,0.15,0
20-Jul-09,0.15,0.15,0.15,0.15,500
17-Jul-09,-,-,-,0.15,0
16-Jul-09,-,-,-,0.15,0
15-Jul-09,-,-,-,0.15,0
14-Jul-09,-,-,-,0.15,0
13-Jul-09,0.15,0.15,0.15,0.15,100
10-Jul-09,-,-,-,0.15,0
9-Jul-09,-,-,-,0.15,0
8-Jul-09,0.15,0.15,0.15,0.15,3989
7-Jul-09,0.15,0.15,0.15,0.15,5407
6-Jul-09,0.15,0.15,0.15,0.15,3000
2-Jul-09,0.15,0.15,0.15,0.15,100
