﻿Date,Open,High,Low,Close,Volume
20-Jun-17,22.77,22.96,22.68,22.78,2100201
19-Jun-17,22.48,22.77,22.40,22.73,1651466
16-Jun-17,22.57,22.81,22.37,22.55,2168305
15-Jun-17,22.64,22.75,22.36,22.53,3028862
14-Jun-17,22.72,22.83,22.48,22.83,1560522
13-Jun-17,22.61,22.81,22.47,22.65,2867479
12-Jun-17,22.58,22.78,22.37,22.51,2467964
9-Jun-17,22.50,22.73,22.38,22.66,2268322
8-Jun-17,22.52,22.61,22.16,22.40,3309250
7-Jun-17,22.24,22.52,22.12,22.50,2258070
6-Jun-17,22.73,22.73,22.24,22.26,2788511
5-Jun-17,22.67,22.77,22.54,22.59,2478510
2-Jun-17,22.81,23.00,22.67,22.70,2909950
1-Jun-17,22.50,22.83,22.48,22.75,6175317
31-May-17,22.92,22.92,22.40,22.43,4861516
30-May-17,22.50,22.93,22.45,22.85,4342865
26-May-17,23.04,23.74,22.49,22.56,5280339
25-May-17,23.14,23.27,22.79,22.97,3739884
24-May-17,22.95,23.12,22.87,23.09,1350273
23-May-17,22.98,23.00,22.81,22.92,2623622
22-May-17,22.87,23.22,22.66,22.96,3756720
19-May-17,23.01,23.03,22.59,22.81,6892996
18-May-17,23.48,23.70,22.74,22.80,5497137
17-May-17,23.94,24.01,23.42,23.45,2498673
16-May-17,24.55,24.55,24.05,24.15,2951440
15-May-17,24.34,24.54,24.25,24.35,2177417
12-May-17,24.44,24.46,24.12,24.25,3117975
11-May-17,24.67,24.69,24.27,24.50,1909881
10-May-17,24.74,24.84,24.58,24.73,2076521
9-May-17,24.71,24.84,24.54,24.70,3731716
8-May-17,24.73,24.77,24.43,24.60,4347068
5-May-17,24.76,25.01,24.40,24.69,8063721
4-May-17,24.20,24.85,24.20,24.66,3637680
3-May-17,24.67,24.67,24.18,24.38,5496070
2-May-17,23.83,24.75,23.73,24.67,9679173
1-May-17,23.50,23.96,23.37,23.63,5477893
28-Apr-17,23.48,23.54,23.20,23.41,3484536
27-Apr-17,23.27,23.43,23.07,23.42,4097314
26-Apr-17,23.22,23.40,23.19,23.28,3551445
25-Apr-17,23.26,23.42,23.19,23.26,2698699
24-Apr-17,23.37,23.38,23.03,23.13,4951083
21-Apr-17,22.96,23.17,22.87,23.09,4211287
20-Apr-17,22.50,23.09,22.34,23.05,5121573
19-Apr-17,22.17,22.48,22.02,22.42,5730227
18-Apr-17,21.86,22.26,21.77,22.20,35030178
17-Apr-17,22.04,22.27,21.77,21.95,11783522
13-Apr-17,21.27,21.27,21.03,21.08,1675395
12-Apr-17,21.39,21.54,21.28,21.31,1816055
11-Apr-17,21.25,21.44,21.12,21.42,3327796
10-Apr-17,21.25,21.50,21.17,21.29,2716341
7-Apr-17,21.00,21.29,20.76,21.18,3736233
6-Apr-17,20.31,20.96,20.09,20.96,5680003
5-Apr-17,20.94,20.98,20.39,20.50,2780765
4-Apr-17,21.06,21.17,20.83,20.86,1380440
3-Apr-17,21.13,21.35,21.01,21.12,1770310
31-Mar-17,21.53,21.61,21.19,21.19,1580943
30-Mar-17,21.54,21.68,21.48,21.54,1289373
29-Mar-17,21.16,21.58,21.16,21.56,1656825
28-Mar-17,20.97,21.41,20.79,21.18,1453492
27-Mar-17,20.75,21.11,20.72,20.94,1987176
24-Mar-17,20.94,21.16,20.83,20.91,1673595
23-Mar-17,21.12,21.28,20.82,20.93,2402268
22-Mar-17,21.34,21.40,20.96,21.16,1494448
21-Mar-17,21.57,21.66,21.28,21.35,2828080
20-Mar-17,21.76,21.89,21.51,21.57,2612706
17-Mar-17,21.73,21.95,21.65,21.82,2052255
16-Mar-17,22.00,22.12,21.82,21.84,2559567
15-Mar-17,22.01,22.13,21.92,22.01,1784013
14-Mar-17,21.90,22.01,21.64,21.95,1820022
13-Mar-17,21.92,22.17,21.80,21.98,1072232
10-Mar-17,21.55,21.99,21.55,21.94,1828658
9-Mar-17,21.75,21.99,21.43,21.60,1436740
8-Mar-17,21.64,21.84,21.50,21.73,2137735
7-Mar-17,21.87,21.98,21.59,21.61,1980336
6-Mar-17,22.07,22.09,21.85,21.92,1492713
3-Mar-17,22.10,22.21,22.01,22.15,1491443
2-Mar-17,22.15,22.33,22.08,22.15,2442915
1-Mar-17,22.03,22.29,21.62,22.22,2602416
28-Feb-17,21.63,22.07,21.55,21.91,4793970
27-Feb-17,21.76,22.06,21.61,21.72,5126807
24-Feb-17,21.57,21.94,21.55,21.79,3151525
23-Feb-17,21.63,21.88,21.62,21.75,3255210
22-Feb-17,21.22,21.78,21.12,21.67,5836096
21-Feb-17,21.25,21.34,20.89,21.13,11149160
17-Feb-17,21.34,21.40,21.02,21.30,4735003
16-Feb-17,21.64,21.85,21.26,21.30,3994337
15-Feb-17,21.91,22.08,21.60,21.65,3884144
14-Feb-17,22.03,22.09,21.74,21.90,5208206
13-Feb-17,22.73,22.82,22.25,22.27,4616137
10-Feb-17,22.49,22.77,22.33,22.77,3551769
9-Feb-17,21.93,22.49,21.91,22.47,5696351
8-Feb-17,22.17,22.37,21.74,21.82,8708253
7-Feb-17,22.42,23.43,21.42,22.21,23530221
6-Feb-17,24.85,25.00,24.60,24.81,4224527
3-Feb-17,24.75,25.02,24.68,24.92,2548278
2-Feb-17,24.42,24.77,24.30,24.64,3851115
1-Feb-17,24.55,24.71,24.28,24.53,3948357
31-Jan-17,24.46,24.72,24.33,24.50,2284423
30-Jan-17,24.71,24.79,24.45,24.54,1409916
27-Jan-17,24.72,24.81,24.50,24.78,2216965
26-Jan-17,24.71,24.82,24.45,24.65,2089205
25-Jan-17,24.69,24.93,24.50,24.59,3138454
24-Jan-17,24.70,24.78,24.42,24.51,2985262
23-Jan-17,24.80,24.87,24.51,24.82,1298594
20-Jan-17,24.87,25.00,24.64,24.76,1109356
19-Jan-17,24.58,24.93,24.52,24.80,1219007
18-Jan-17,25.00,25.06,24.62,24.72,2572491
17-Jan-17,25.08,25.12,24.81,24.92,1661228
13-Jan-17,25.05,25.33,25.00,25.14,2449842
12-Jan-17,24.85,24.99,24.71,24.96,2009634
11-Jan-17,24.98,25.13,24.67,24.96,2340963
10-Jan-17,24.92,25.00,24.79,24.94,2037548
9-Jan-17,24.75,25.18,24.70,24.90,2865285
6-Jan-17,24.82,24.88,24.67,24.86,1585503
5-Jan-17,24.85,25.14,24.66,24.71,2035352
4-Jan-17,24.68,25.01,24.68,24.82,2997324
3-Jan-17,25.16,25.89,24.61,24.79,1569644
30-Dec-16,25.03,25.04,24.74,24.95,1081424
29-Dec-16,24.84,25.13,24.81,25.00,1501047
28-Dec-16,25.13,25.13,24.78,24.90,1266561
27-Dec-16,24.90,25.21,24.75,25.01,1459156
23-Dec-16,24.74,25.00,24.74,24.84,1337063
22-Dec-16,25.13,25.13,24.69,24.79,2090769
21-Dec-16,25.06,25.32,24.70,25.15,3495101
20-Dec-16,25.45,25.71,24.93,25.15,3569975
19-Dec-16,25.21,25.85,25.17,25.50,1670585
16-Dec-16,25.41,25.45,25.19,25.42,3147940
15-Dec-16,26.18,26.30,25.43,25.43,2759859
14-Dec-16,26.01,26.39,25.90,26.11,2268939
13-Dec-16,26.90,27.15,25.97,26.12,2742894
12-Dec-16,26.70,27.35,26.37,26.49,2762380
9-Dec-16,26.27,27.09,26.12,27.07,3172195
8-Dec-16,25.87,26.23,25.76,26.17,1341135
7-Dec-16,25.47,25.91,25.45,25.77,1696390
6-Dec-16,25.20,25.42,25.08,25.40,3224069
5-Dec-16,25.57,25.67,25.24,25.29,2623565
2-Dec-16,25.47,25.65,25.39,25.57,2155776
1-Dec-16,25.93,26.20,25.31,25.56,1974127
30-Nov-16,26.09,26.19,25.85,25.85,2647452
29-Nov-16,26.58,26.74,26.00,26.03,1800571
28-Nov-16,26.06,26.56,25.95,26.50,2911171
25-Nov-16,26.15,26.38,26.12,26.32,796950
23-Nov-16,25.68,26.12,25.65,26.02,2232699
22-Nov-16,25.79,26.12,25.53,25.81,2100258
21-Nov-16,25.87,26.01,25.50,25.78,2570690
18-Nov-16,25.11,25.91,25.11,25.70,2680035
17-Nov-16,25.09,25.72,25.09,25.61,2933797
16-Nov-16,24.77,25.36,24.76,25.30,2681155
15-Nov-16,24.85,25.02,24.56,24.77,3227345
14-Nov-16,24.99,25.05,24.48,24.69,2630930
11-Nov-16,24.54,24.96,23.98,24.94,3948766
10-Nov-16,24.43,24.90,23.99,24.55,3249200
9-Nov-16,24.15,24.55,23.88,24.30,4440166
8-Nov-16,23.51,24.80,23.46,24.62,6851690
7-Nov-16,23.85,23.91,23.14,23.56,8977827
4-Nov-16,23.37,23.70,23.18,23.18,4560315
3-Nov-16,24.00,24.12,23.31,23.46,6748620
2-Nov-16,23.00,25.00,22.90,24.08,15030958
1-Nov-16,25.69,26.45,25.68,26.38,5573820
31-Oct-16,25.71,25.86,25.47,25.83,2646514
28-Oct-16,25.55,25.82,25.34,25.67,2423244
27-Oct-16,25.54,25.75,25.30,25.52,1812926
26-Oct-16,25.64,25.76,25.47,25.51,1991405
25-Oct-16,25.83,25.88,25.56,25.81,1885817
24-Oct-16,25.92,26.02,25.72,25.76,1598935
21-Oct-16,25.38,25.88,25.31,25.78,2269595
20-Oct-16,26.00,26.20,25.38,25.39,4008597
19-Oct-16,26.18,26.45,25.90,25.99,2987667
18-Oct-16,26.20,26.48,26.07,26.11,2244242
17-Oct-16,26.18,26.37,26.05,26.16,1469877
14-Oct-16,26.18,26.34,26.01,26.16,2595731
13-Oct-16,26.40,26.40,25.95,26.18,2239230
12-Oct-16,26.36,26.61,26.30,26.56,1650086
11-Oct-16,26.96,26.96,26.32,26.43,2331311
10-Oct-16,26.91,27.10,26.68,27.06,1923195
7-Oct-16,27.46,27.46,26.58,26.75,2705773
6-Oct-16,27.42,27.68,27.09,27.35,1879602
5-Oct-16,27.61,27.98,27.20,27.36,3369623
4-Oct-16,27.93,28.00,27.29,27.50,4091260
3-Oct-16,28.02,28.22,27.66,27.99,2418696
30-Sep-16,28.20,28.37,28.11,28.18,2746827
29-Sep-16,27.62,28.42,27.49,28.18,3721368
28-Sep-16,27.57,27.57,27.15,27.54,3212717
27-Sep-16,27.26,27.65,27.19,27.57,2602092
26-Sep-16,26.98,27.23,26.86,27.20,1495366
23-Sep-16,27.64,27.64,27.01,27.16,2679499
22-Sep-16,27.19,27.76,27.10,27.65,2099420
21-Sep-16,26.73,27.08,26.55,27.07,2414421
20-Sep-16,27.00,27.14,26.64,26.71,2466774
19-Sep-16,26.96,27.13,26.68,26.92,3060888
16-Sep-16,27.39,27.50,26.90,27.00,2379348
15-Sep-16,27.28,27.77,27.21,27.57,2352639
14-Sep-16,27.82,28.32,27.19,27.33,4938003
13-Sep-16,28.37,28.84,27.79,27.91,3149595
12-Sep-16,28.07,28.49,27.89,28.39,2438263
9-Sep-16,28.76,28.78,28.17,28.18,2566886
8-Sep-16,29.01,29.45,28.86,28.96,2962458
7-Sep-16,28.91,29.08,28.63,29.04,2359779
6-Sep-16,28.78,28.91,28.41,28.86,2165351
2-Sep-16,28.49,28.83,28.49,28.69,1767779
1-Sep-16,28.19,28.46,27.96,28.45,2292221
31-Aug-16,28.02,28.19,27.91,28.15,1514393
30-Aug-16,28.00,28.20,27.91,28.13,2247085
29-Aug-16,28.00,28.16,27.98,28.00,1710487
26-Aug-16,27.98,28.23,27.81,28.02,1939834
25-Aug-16,27.99,27.99,27.75,27.90,2744509
24-Aug-16,27.68,28.09,27.61,27.94,4371231
23-Aug-16,27.29,27.83,27.23,27.80,2113712
22-Aug-16,26.96,27.44,26.91,27.29,1908342
19-Aug-16,27.00,27.13,26.79,26.99,1892358
18-Aug-16,27.68,27.68,26.97,27.09,1726843
17-Aug-16,27.51,27.56,27.00,27.02,1873466
16-Aug-16,27.31,27.64,27.12,27.50,3104210
15-Aug-16,27.28,27.46,26.51,27.33,3036178
12-Aug-16,26.93,27.30,26.78,27.30,3878425
11-Aug-16,26.64,26.88,26.53,26.84,2720117
10-Aug-16,26.64,26.86,26.44,26.66,2318948
9-Aug-16,26.72,26.98,26.52,26.65,3821895
8-Aug-16,26.83,26.94,26.50,26.63,5122876
5-Aug-16,27.29,27.29,26.94,26.95,1957269
4-Aug-16,26.66,27.30,26.66,27.25,3452411
3-Aug-16,26.73,26.88,26.51,26.66,3987691
2-Aug-16,26.50,27.83,25.90,26.86,17982937
1-Aug-16,29.19,29.58,29.15,29.29,3374319
29-Jul-16,29.39,29.63,29.01,29.15,2701362
28-Jul-16,29.23,29.31,28.90,29.27,2669113
27-Jul-16,29.20,29.34,29.10,29.20,2275688
26-Jul-16,29.09,29.30,29.00,29.13,1757880
25-Jul-16,29.14,29.25,28.85,29.19,5511958
22-Jul-16,29.23,29.41,29.02,29.20,1873013
21-Jul-16,29.34,29.57,29.02,29.23,4264019
20-Jul-16,29.56,29.56,28.98,29.34,1739239
19-Jul-16,29.00,29.12,28.93,29.07,985041
18-Jul-16,28.93,29.21,28.93,29.03,1219614
15-Jul-16,28.94,29.02,28.84,28.98,2452847
14-Jul-16,28.96,29.08,28.74,29.00,1818265
13-Jul-16,28.69,28.98,28.68,28.75,1636077
12-Jul-16,28.45,28.86,28.11,28.80,2416918
11-Jul-16,27.85,28.27,27.76,28.11,1694565
8-Jul-16,27.48,27.84,27.19,27.80,2566427
7-Jul-16,27.05,27.49,27.03,27.31,1843077
6-Jul-16,26.96,27.29,26.77,27.08,2783279
5-Jul-16,26.81,27.15,26.32,27.01,2766035
1-Jul-16,26.89,27.01,26.59,26.86,2438498
30-Jun-16,26.60,26.79,26.39,26.79,2920165
29-Jun-16,25.93,26.53,25.72,26.48,2669142
28-Jun-16,25.49,25.97,25.37,25.93,2710083
27-Jun-16,25.25,25.43,24.86,25.30,5360443
24-Jun-16,25.98,26.12,25.45,25.45,9633486
23-Jun-16,26.50,27.00,26.32,26.82,3367923
22-Jun-16,26.57,26.79,26.45,26.60,4205321
21-Jun-16,26.63,27.06,26.45,26.59,5176137
20-Jun-16,27.37,27.84,27.19,27.21,2228392
17-Jun-16,26.85,27.19,26.64,27.17,2566776
16-Jun-16,26.94,27.04,26.56,26.99,2110145
15-Jun-16,27.56,27.69,27.00,27.09,2372954
14-Jun-16,27.56,27.57,27.23,27.54,3282579
13-Jun-16,27.92,28.00,27.46,27.52,3023482
10-Jun-16,28.47,28.49,28.00,28.06,4705385
9-Jun-16,28.70,28.87,28.44,28.69,1393901
8-Jun-16,28.69,28.91,28.62,28.76,2241135
7-Jun-16,28.37,28.80,28.20,28.64,2589978
6-Jun-16,28.06,28.30,27.69,28.21,2359687
3-Jun-16,28.15,28.22,27.82,28.07,1945252
2-Jun-16,27.98,28.36,27.85,28.32,1563612
1-Jun-16,28.38,28.39,27.70,28.10,2550816
31-May-16,28.32,28.46,28.05,28.17,1795238
27-May-16,28.08,28.46,28.00,28.31,1353863
26-May-16,28.02,28.24,27.69,28.11,1151227
25-May-16,28.13,28.30,28.01,28.11,1336743
24-May-16,27.73,28.18,27.53,28.10,2266925
23-May-16,27.79,27.89,27.56,27.64,1741669
20-May-16,27.91,28.24,27.68,27.85,1868349
19-May-16,27.69,27.96,27.47,27.75,2551346
18-May-16,28.66,28.66,27.45,27.84,4364262
17-May-16,28.41,28.51,27.68,27.78,3049526
16-May-16,28.97,28.99,28.42,28.54,3231835
13-May-16,28.95,29.16,28.85,29.01,1952183
12-May-16,29.37,29.45,28.80,28.88,2528004
11-May-16,29.04,29.49,28.83,29.13,2872609
10-May-16,28.64,29.18,28.52,29.04,2532251
9-May-16,28.56,28.86,28.36,28.63,1612636
6-May-16,28.47,28.90,28.38,28.67,2659643
5-May-16,28.58,28.59,28.16,28.49,1499420
4-May-16,28.45,28.63,28.21,28.58,1653474
3-May-16,28.81,28.82,28.35,28.69,1570979
2-May-16,28.96,29.08,28.35,28.94,2387486
29-Apr-16,28.82,29.18,28.19,28.95,2925899
28-Apr-16,28.55,29.76,28.39,28.93,3325677
27-Apr-16,27.84,28.18,27.63,28.01,2905577
26-Apr-16,27.89,28.15,27.74,27.99,2551491
25-Apr-16,28.04,28.27,27.74,27.89,1992662
22-Apr-16,27.98,28.16,27.77,28.02,2077028
21-Apr-16,28.68,28.84,28.06,28.18,1072983
20-Apr-16,28.47,28.74,28.27,28.61,1908652
19-Apr-16,28.50,28.79,28.33,28.51,1923757
18-Apr-16,28.30,28.53,28.18,28.33,1742452
15-Apr-16,28.71,28.81,28.26,28.46,2175890
14-Apr-16,28.64,28.88,28.28,28.82,2730946
13-Apr-16,28.71,28.74,27.00,28.51,10599158
12-Apr-16,28.42,28.52,28.10,28.43,3484400
11-Apr-16,29.02,29.05,28.44,28.47,2565595
8-Apr-16,29.36,29.36,28.70,28.90,2136814
7-Apr-16,28.94,29.39,28.85,29.22,3784533
6-Apr-16,28.93,29.23,28.66,29.19,1066368
5-Apr-16,29.17,29.39,28.82,28.92,1694080
4-Apr-16,29.22,29.73,29.04,29.35,2698737
1-Apr-16,28.67,29.29,28.44,29.29,1992534
31-Mar-16,28.46,28.95,28.46,28.92,2136598
30-Mar-16,28.51,28.96,28.39,28.58,1924465
29-Mar-16,27.52,28.56,27.39,28.41,2334814
28-Mar-16,27.55,27.61,27.37,27.47,1239878
24-Mar-16,27.32,27.64,27.30,27.52,1282563
23-Mar-16,27.47,27.64,27.29,27.54,1043457
22-Mar-16,27.26,27.60,27.24,27.54,1473078
21-Mar-16,27.17,27.80,27.17,27.58,1751736
18-Mar-16,27.10,27.53,27.10,27.30,1939039
17-Mar-16,27.43,27.57,27.12,27.17,1793640
16-Mar-16,27.68,27.82,27.36,27.48,3133306
15-Mar-16,27.60,28.01,27.43,27.74,1397302
14-Mar-16,28.00,28.12,27.78,27.79,998226
11-Mar-16,27.64,28.15,27.51,28.05,1562115
10-Mar-16,28.01,28.25,27.05,27.31,1663915
9-Mar-16,27.90,28.22,27.51,27.99,2176426
8-Mar-16,27.98,28.23,27.69,27.79,2414311
7-Mar-16,27.97,28.42,27.78,27.85,2267537
4-Mar-16,29.04,29.04,27.67,28.12,3224383
3-Mar-16,27.81,28.10,27.47,27.99,2317918
2-Mar-16,28.00,28.23,27.38,27.92,2852946
1-Mar-16,27.40,28.13,27.25,28.00,8091818
29-Feb-16,27.25,27.53,27.08,27.15,5858284
26-Feb-16,27.45,27.45,26.93,27.23,12105772
25-Feb-16,27.26,28.00,27.10,27.83,1281883
24-Feb-16,27.04,27.60,26.63,27.26,2010718
23-Feb-16,27.64,27.90,27.20,27.25,1704775
22-Feb-16,27.92,28.47,27.56,27.68,2232221
19-Feb-16,26.93,27.59,26.90,27.55,1573350
18-Feb-16,27.55,27.55,26.83,27.08,3104223
17-Feb-16,26.41,27.52,26.03,27.32,5243848
16-Feb-16,26.17,26.46,25.81,26.17,3060050
12-Feb-16,26.09,26.09,25.48,25.91,2629292
11-Feb-16,25.56,26.42,25.43,25.86,5571634
10-Feb-16,25.17,26.53,25.01,26.02,7466782
9-Feb-16,22.50,25.44,22.03,24.91,6743163
8-Feb-16,23.93,24.56,22.41,23.18,6680043
5-Feb-16,25.09,25.12,24.17,24.29,4617894
4-Feb-16,24.77,25.22,24.58,25.13,2267717
3-Feb-16,25.35,25.61,24.38,25.00,2464625
2-Feb-16,25.47,25.53,25.04,25.25,1926127
1-Feb-16,25.46,25.76,24.89,25.46,2009593
29-Jan-16,24.65,25.66,24.65,25.61,1826789
28-Jan-16,25.45,25.74,24.25,24.61,3167610
27-Jan-16,25.72,25.93,25.02,25.16,1950903
26-Jan-16,25.49,25.98,25.12,25.82,1990423
25-Jan-16,25.81,25.85,25.14,25.31,2044177
22-Jan-16,25.39,26.04,25.29,25.98,2126518
21-Jan-16,25.86,25.86,24.62,24.99,2424754
20-Jan-16,24.98,25.96,24.91,25.76,4367246
19-Jan-16,25.33,25.93,25.06,25.52,3467587
15-Jan-16,25.07,25.50,24.68,24.93,2932305
14-Jan-16,25.66,25.96,25.38,25.85,2077031
13-Jan-16,26.10,26.39,25.50,25.66,1961657
12-Jan-16,26.29,26.48,25.22,26.07,2041437
11-Jan-16,26.09,26.14,25.50,25.96,1244634
8-Jan-16,26.41,26.82,25.76,25.87,1349027
7-Jan-16,26.46,26.78,26.05,26.25,1595591
6-Jan-16,26.78,27.25,26.78,26.97,2717742
5-Jan-16,26.75,27.34,26.51,27.24,5918297
4-Jan-16,27.42,27.48,26.85,27.44,3148629
31-Dec-15,28.00,28.33,27.76,27.97,788548
30-Dec-15,28.38,28.40,27.86,28.19,856852
29-Dec-15,28.18,28.46,28.01,28.41,1101033
28-Dec-15,27.91,28.14,27.62,27.96,1262320
24-Dec-15,28.08,28.20,27.72,28.00,335310
23-Dec-15,28.06,28.11,27.76,28.04,1384370
22-Dec-15,28.56,28.92,27.84,27.91,1700282
21-Dec-15,28.70,28.93,28.11,28.35,1191284
18-Dec-15,28.57,29.00,28.31,28.61,4837411
17-Dec-15,29.68,29.80,28.76,28.77,1427772
16-Dec-15,29.13,29.59,28.71,29.54,1900484
15-Dec-15,28.25,28.96,28.21,28.90,1451655
14-Dec-15,27.74,28.97,27.67,27.92,1548201
11-Dec-15,28.32,28.55,27.67,27.76,1670151
10-Dec-15,28.51,28.94,28.38,28.60,1206817
9-Dec-15,29.15,29.22,28.40,28.57,1554809
8-Dec-15,28.71,29.26,28.51,29.21,1371720
7-Dec-15,29.55,29.88,28.76,28.92,1869635
4-Dec-15,29.31,29.88,29.10,29.73,1229249
3-Dec-15,29.52,29.80,29.12,29.32,1982461
2-Dec-15,29.84,29.87,29.23,29.47,1220598
1-Dec-15,29.47,29.80,29.30,29.75,1718410
30-Nov-15,29.64,29.77,29.06,29.26,8898127
27-Nov-15,29.58,29.89,29.32,29.68,1291290
25-Nov-15,28.66,29.92,28.52,29.48,2393989
24-Nov-15,29.60,29.60,28.29,28.56,3108427
23-Nov-15,29.62,30.00,29.51,29.91,1864355
20-Nov-15,29.35,29.59,29.06,29.51,1337408
19-Nov-15,28.76,29.18,27.72,29.16,1608252
18-Nov-15,28.01,28.87,27.88,28.82,1866748
17-Nov-15,27.88,28.33,27.68,28.01,1805023
16-Nov-15,28.04,28.12,27.57,27.73,2326540
13-Nov-15,28.58,28.73,28.00,28.13,3412306
12-Nov-15,29.00,29.16,28.58,28.62,1979171
11-Nov-15,29.11,29.33,29.00,29.24,1657497
10-Nov-15,28.97,29.21,28.91,28.99,1902655
9-Nov-15,29.31,29.50,28.88,29.14,2243094
6-Nov-15,29.24,29.43,28.84,29.40,3270214
5-Nov-15,29.51,29.64,28.94,29.17,9785737
4-Nov-15,29.80,30.00,29.15,29.87,1624146
3-Nov-15,29.86,29.87,29.37,29.62,1420786
2-Nov-15,29.34,29.91,29.32,29.78,1468646
30-Oct-15,29.61,29.97,28.78,29.32,1567941
29-Oct-15,30.23,30.30,28.64,29.50,3789130
28-Oct-15,29.62,30.46,29.47,30.23,1721524
27-Oct-15,29.46,29.71,29.25,29.55,1590842
26-Oct-15,29.95,30.00,29.49,29.57,1089530
23-Oct-15,30.13,30.13,29.76,29.85,926024
22-Oct-15,29.59,30.05,29.43,29.80,970850
21-Oct-15,29.80,30.02,29.32,29.38,1000151
20-Oct-15,29.87,30.25,29.67,29.81,1474948
19-Oct-15,29.28,29.80,29.24,29.78,907203
16-Oct-15,29.50,29.71,29.25,29.58,938948
15-Oct-15,28.47,29.50,28.37,29.49,1189765
14-Oct-15,29.08,29.33,28.31,28.48,1521572
13-Oct-15,28.77,29.52,28.77,29.09,1427786
12-Oct-15,28.74,29.10,28.49,28.84,918882
9-Oct-15,28.87,28.94,28.43,28.76,911806
8-Oct-15,28.77,29.08,28.05,28.84,1309753
7-Oct-15,28.30,28.95,28.08,28.80,1339437
6-Oct-15,28.50,28.96,28.11,28.36,1512450
5-Oct-15,28.40,28.96,28.04,28.52,1964618
2-Oct-15,27.35,28.06,27.01,28.05,1347818
1-Oct-15,27.27,27.64,26.79,27.63,1015553
30-Sep-15,27.25,27.55,26.86,27.18,1573326
29-Sep-15,26.99,27.13,26.80,27.01,1738354
28-Sep-15,27.85,27.98,26.89,27.00,1373953
25-Sep-15,28.25,28.33,27.72,27.94,963903
24-Sep-15,28.01,28.30,27.60,27.90,936936
23-Sep-15,28.06,28.44,27.89,28.20,1217332
22-Sep-15,27.97,28.07,27.77,27.92,1367540
21-Sep-15,28.57,28.72,28.20,28.30,1194453
18-Sep-15,28.34,28.64,28.32,28.41,1272542
17-Sep-15,28.96,29.09,28.56,28.69,1568095
16-Sep-15,29.33,29.34,28.68,28.83,1921990
15-Sep-15,28.62,29.61,28.48,29.34,2715417
14-Sep-15,28.48,28.69,28.36,28.52,1883021
11-Sep-15,28.51,28.55,28.35,28.48,1277476
10-Sep-15,28.42,28.76,28.30,28.53,1811372
9-Sep-15,28.82,29.11,28.37,28.46,1447140
8-Sep-15,28.22,28.66,27.64,28.63,1382892
4-Sep-15,27.53,27.92,27.44,27.78,1028409
3-Sep-15,27.57,28.06,27.57,27.89,1413126
2-Sep-15,27.10,27.52,26.80,27.51,1426314
1-Sep-15,26.60,27.06,26.39,26.80,1639302
31-Aug-15,27.55,27.79,27.08,27.22,1526055
28-Aug-15,27.55,28.02,27.48,27.81,1425530
27-Aug-15,27.66,28.05,27.14,27.67,3337095
26-Aug-15,26.88,27.19,25.73,27.18,2742081
25-Aug-15,26.43,26.98,25.88,25.89,2600108
24-Aug-15,26.39,26.71,25.25,25.76,3189313
21-Aug-15,28.13,28.23,27.31,27.32,1295798
20-Aug-15,28.47,28.77,28.35,28.36,1219082
19-Aug-15,28.76,28.89,28.41,28.73,1189395
18-Aug-15,28.65,28.86,28.45,28.76,1277839
17-Aug-15,28.53,29.06,28.20,28.95,1650176
14-Aug-15,28.02,28.57,27.85,28.50,2877124
13-Aug-15,27.62,28.07,27.58,27.94,1254342
12-Aug-15,27.77,27.99,27.18,27.66,2068776
11-Aug-15,28.02,28.21,27.82,27.90,1443441
10-Aug-15,28.26,28.67,28.15,28.26,1635420
7-Aug-15,28.44,28.46,27.80,28.12,2331738
6-Aug-15,28.14,28.80,27.97,28.10,4095634
5-Aug-15,27.05,28.20,27.00,28.14,11741154
4-Aug-15,28.00,28.50,27.15,27.49,5383763
3-Aug-15,26.54,26.75,26.24,26.46,2709491
31-Jul-15,26.33,26.71,26.06,26.60,1650127
30-Jul-15,26.03,26.38,25.65,26.26,823008
29-Jul-15,25.40,26.17,25.28,26.15,1012906
28-Jul-15,25.46,25.73,25.08,25.31,1368624
27-Jul-15,25.43,25.45,25.10,25.29,714742
24-Jul-15,25.44,25.56,25.36,25.50,1085166
23-Jul-15,25.79,25.95,25.38,25.54,504645
22-Jul-15,25.58,25.73,25.34,25.68,944459
21-Jul-15,25.57,25.69,25.55,25.62,468194
20-Jul-15,26.07,26.14,25.55,25.64,1182230
17-Jul-15,26.26,26.39,25.88,26.00,802851
16-Jul-15,26.25,26.43,25.95,26.22,1848881
15-Jul-15,25.96,26.25,25.83,26.15,1409003
14-Jul-15,25.88,25.98,25.74,25.88,1083078
13-Jul-15,25.81,25.93,25.72,25.80,1410841
10-Jul-15,25.33,25.74,25.24,25.65,3587047
9-Jul-15,24.30,25.06,23.99,25.01,1554619
8-Jul-15,24.37,24.41,24.04,24.05,1267309
7-Jul-15,24.00,24.52,23.82,24.51,2489777
6-Jul-15,23.75,24.14,23.72,23.93,1253958
2-Jul-15,24.28,24.34,23.81,24.06,740770
1-Jul-15,23.98,24.27,23.86,24.22,1348184
30-Jun-15,23.70,23.90,23.45,23.80,1505197
29-Jun-15,24.30,24.30,23.42,23.57,1741225
26-Jun-15,24.47,24.61,24.23,24.40,6571955
25-Jun-15,24.20,24.50,24.06,24.45,1942148
24-Jun-15,24.66,24.74,24.09,24.21,2304275
23-Jun-15,24.65,24.77,24.50,24.65,1293342
22-Jun-15,24.57,24.81,24.45,24.66,1138316
19-Jun-15,24.68,24.80,24.39,24.51,1091294
18-Jun-15,24.39,24.71,24.22,24.65,1419753
17-Jun-15,24.27,24.58,24.27,24.40,2182973
16-Jun-15,24.40,24.50,24.14,24.32,1585431
15-Jun-15,23.80,24.45,23.75,24.39,2859835
12-Jun-15,24.65,24.70,24.22,24.32,1651630
11-Jun-15,24.72,24.86,24.50,24.75,865527
10-Jun-15,24.63,25.01,24.35,24.61,1854209
9-Jun-15,24.85,25.00,24.34,24.52,4466697
8-Jun-15,25.51,25.57,25.21,25.29,773266
5-Jun-15,25.88,26.01,25.51,25.56,1342000
4-Jun-15,25.40,25.90,25.36,25.85,3070492
3-Jun-15,25.50,25.83,24.55,25.45,9422071
2-Jun-15,26.49,26.61,26.02,26.05,1803751
1-Jun-15,26.25,26.55,25.97,26.47,2519238
29-May-15,26.00,26.32,25.65,26.09,3498928
28-May-15,26.13,26.30,25.94,26.00,2014710
27-May-15,26.20,26.41,26.04,26.25,2184715
26-May-15,26.16,26.30,25.92,26.24,1747170
22-May-15,26.03,26.25,25.77,26.16,1659479
21-May-15,26.07,26.41,26.04,26.13,10505367
20-May-15,26.57,26.60,26.28,26.49,849597
19-May-15,25.55,26.83,25.51,26.53,1065275
18-May-15,26.29,26.40,25.83,26.05,1031457
15-May-15,26.50,26.71,26.05,26.19,1130792
14-May-15,25.75,26.44,25.68,26.38,1368951
13-May-15,25.48,25.79,25.47,25.50,325585
12-May-15,25.09,25.63,24.87,25.50,1439246
11-May-15,25.22,25.48,24.96,25.25,789680
8-May-15,25.43,25.78,25.18,25.21,1058615
7-May-15,25.69,25.77,25.30,25.30,1164676
6-May-15,25.83,25.92,25.53,25.74,1217860
5-May-15,25.30,25.94,25.15,25.37,1048872
4-May-15,25.28,25.48,25.20,25.42,580168
1-May-15,25.06,25.28,24.94,25.23,452967
30-Apr-15,25.07,25.11,24.81,24.89,376102
29-Apr-15,25.14,25.40,25.02,25.11,414278
28-Apr-15,25.30,25.36,25.13,25.30,212404
27-Apr-15,25.61,25.76,25.22,25.28,510481
24-Apr-15,25.43,25.57,25.30,25.54,424859
23-Apr-15,25.15,25.44,25.07,25.38,605637
22-Apr-15,25.33,25.42,25.18,25.21,1208324
21-Apr-15,25.03,25.38,24.90,25.24,969845
20-Apr-15,25.03,25.25,24.79,24.90,1149250
17-Apr-15,25.30,25.41,24.93,24.95,1027318
16-Apr-15,25.80,25.90,25.38,25.42,617940
15-Apr-15,25.46,25.83,25.31,25.79,642784
14-Apr-15,25.64,26.04,25.35,25.47,1222176
13-Apr-15,25.22,25.45,25.18,25.23,611641
10-Apr-15,25.24,25.28,25.05,25.22,1089326
9-Apr-15,24.83,25.20,24.69,25.16,755330
8-Apr-15,24.53,24.97,24.40,24.87,700965
7-Apr-15,24.68,24.68,24.46,24.58,1356421
6-Apr-15,24.50,24.71,24.04,24.54,1898126
2-Apr-15,23.70,24.17,23.57,24.13,1053619
1-Apr-15,24.30,24.30,23.45,23.66,2146332
31-Mar-15,24.48,24.48,24.00,24.30,784383
30-Mar-15,23.95,24.55,23.95,24.48,938719
27-Mar-15,23.75,24.15,23.48,23.88,1049654
26-Mar-15,22.97,23.80,22.83,23.67,1068532
25-Mar-15,23.23,23.23,23.00,23.02,1341384
24-Mar-15,23.15,23.27,22.86,23.13,875166
23-Mar-15,22.78,23.26,22.76,23.12,499607
20-Mar-15,22.89,23.00,22.73,22.81,900679
19-Mar-15,22.31,23.00,22.28,22.69,2300696
18-Mar-15,22.09,22.40,21.78,22.39,3855406
17-Mar-15,22.42,22.60,22.00,22.07,617122
16-Mar-15,22.16,22.55,22.01,22.43,1074319
13-Mar-15,22.20,22.32,21.90,22.11,1209102
12-Mar-15,21.65,22.17,21.56,22.15,1206491
11-Mar-15,21.85,21.98,21.50,21.70,1049431
10-Mar-15,21.57,21.90,21.47,21.78,2110247
9-Mar-15,21.51,21.75,21.32,21.70,702782
6-Mar-15,21.55,21.70,21.25,21.44,806888
5-Mar-15,21.70,21.93,21.49,21.69,668109
4-Mar-15,21.94,21.94,21.58,21.67,896131
3-Mar-15,21.80,22.00,21.73,21.94,1165643
2-Mar-15,21.66,21.90,21.58,21.84,1252904
27-Feb-15,21.81,21.92,21.47,21.76,763702
26-Feb-15,21.88,22.05,21.59,21.71,3010517
25-Feb-15,21.64,21.86,21.44,21.82,1082430
24-Feb-15,21.35,21.63,21.00,21.63,1005006
23-Feb-15,21.15,21.57,21.15,21.34,922653
20-Feb-15,21.50,21.50,21.10,21.23,1591838
19-Feb-15,22.03,22.12,21.54,21.57,3374282
18-Feb-15,21.99,22.71,21.52,22.03,1949870
17-Feb-15,21.85,22.13,21.66,22.11,897951
13-Feb-15,21.77,22.10,21.70,21.74,2102141
12-Feb-15,21.97,22.02,21.61,21.75,1427642
11-Feb-15,21.69,21.83,21.55,21.78,824311
10-Feb-15,22.32,22.32,21.62,21.65,2179693
9-Feb-15,22.09,22.26,21.71,22.10,1163207
6-Feb-15,21.95,22.36,21.70,22.18,2289622
5-Feb-15,21.01,22.20,20.99,22.12,10600636
4-Feb-15,20.86,21.55,20.58,21.18,842073
3-Feb-15,20.25,21.03,20.16,20.85,940347
2-Feb-15,20.38,20.50,19.92,20.48,1113800
30-Jan-15,20.41,20.51,20.20,20.43,621417
29-Jan-15,20.09,20.57,19.76,20.53,627333
28-Jan-15,20.14,20.34,19.75,20.04,476847
27-Jan-15,19.64,20.07,19.44,20.06,638384
26-Jan-15,20.25,20.47,19.22,19.93,1264337
23-Jan-15,20.55,20.85,20.36,20.71,875415
22-Jan-15,20.00,20.62,19.96,20.48,1148232
21-Jan-15,19.95,20.06,19.80,19.95,530267
20-Jan-15,19.63,20.00,19.55,19.95,406020
16-Jan-15,19.65,20.00,19.58,19.70,395680
15-Jan-15,19.65,20.02,19.33,19.40,335711
14-Jan-15,19.23,19.80,19.23,19.73,504404
13-Jan-15,19.58,20.25,19.58,19.63,349951
12-Jan-15,19.79,19.82,19.46,19.53,195904
9-Jan-15,19.81,20.49,19.81,19.83,297091
8-Jan-15,19.66,20.26,19.66,20.21,647555
7-Jan-15,19.51,19.87,19.41,19.49,547716
6-Jan-15,19.91,20.01,19.28,19.50,1226392
5-Jan-15,20.18,20.22,19.56,19.78,936595
2-Jan-15,20.31,20.51,19.86,20.09,968580
31-Dec-14,20.35,20.49,20.24,20.27,118998
30-Dec-14,20.43,20.51,20.26,20.35,179526
29-Dec-14,20.45,20.50,20.23,20.40,193815
26-Dec-14,20.40,20.50,20.32,20.47,93750
24-Dec-14,20.35,20.48,20.30,20.39,97257
23-Dec-14,20.33,20.49,20.04,20.32,162773
22-Dec-14,19.94,20.49,19.83,20.32,462942
19-Dec-14,20.14,20.45,19.75,19.94,1474785
18-Dec-14,19.70,20.57,19.64,20.10,937789
17-Dec-14,19.36,19.79,19.34,19.70,683404
16-Dec-14,19.16,19.46,19.07,19.36,523677
15-Dec-14,19.42,19.45,19.09,19.21,492453
12-Dec-14,19.23,19.49,19.01,19.37,564771
11-Dec-14,19.12,19.43,18.88,19.40,624490
10-Dec-14,19.13,19.16,18.76,19.10,455865
9-Dec-14,18.81,19.28,18.63,19.10,1314600
8-Dec-14,18.87,19.00,18.83,18.93,612804
5-Dec-14,19.25,19.25,18.65,18.93,643211
4-Dec-14,18.59,19.30,18.49,19.23,3040206
3-Dec-14,18.41,18.61,18.41,18.61,688583
2-Dec-14,18.24,18.48,18.15,18.42,503425
1-Dec-14,18.72,18.72,18.17,18.24,350992
28-Nov-14,18.50,18.75,18.50,18.74,326025
26-Nov-14,18.30,18.66,18.29,18.55,682330
25-Nov-14,18.50,18.59,18.11,18.26,1911048
24-Nov-14,18.55,18.64,18.35,18.44,231823
21-Nov-14,18.62,18.66,18.44,18.56,444472
20-Nov-14,18.17,18.65,18.04,18.56,428057
19-Nov-14,18.23,18.44,17.97,18.17,445105
18-Nov-14,18.29,18.60,18.18,18.23,335269
17-Nov-14,18.54,18.60,18.14,18.32,401282
14-Nov-14,17.69,18.62,17.67,18.54,835788
13-Nov-14,17.69,17.99,17.48,17.74,481163
12-Nov-14,17.55,18.09,17.55,17.65,944145
11-Nov-14,17.80,18.00,17.61,17.99,734325
10-Nov-14,17.45,17.92,17.34,17.74,518028
7-Nov-14,17.92,18.03,17.24,17.45,1533111
6-Nov-14,17.20,18.00,16.94,17.94,1570340
5-Nov-14,17.46,17.46,16.88,17.16,787348
4-Nov-14,17.45,17.72,17.12,17.43,472943
3-Nov-14,17.25,17.58,17.17,17.55,663073
31-Oct-14,17.13,17.26,17.00,17.20,609909
30-Oct-14,17.13,17.25,16.98,17.02,397654
29-Oct-14,17.19,17.48,16.94,17.27,772473
28-Oct-14,16.98,17.24,16.75,17.17,821439
27-Oct-14,16.79,16.96,16.60,16.90,356986
24-Oct-14,16.72,17.00,16.72,16.91,392485
23-Oct-14,16.63,16.98,16.39,16.79,482217
22-Oct-14,16.45,17.00,16.17,16.55,580338
21-Oct-14,16.14,16.42,15.87,16.40,683375
20-Oct-14,16.05,16.27,15.80,16.09,679001
17-Oct-14,15.85,16.19,15.72,16.07,474499
16-Oct-14,15.18,15.75,14.99,15.69,1357054
15-Oct-14,15.48,15.69,15.22,15.35,1143161
14-Oct-14,15.00,15.99,14.86,15.60,2077305
13-Oct-14,16.18,16.18,15.65,15.69,504736
10-Oct-14,16.85,16.91,16.07,16.11,691273
9-Oct-14,17.14,17.32,16.81,16.85,964015
8-Oct-14,17.43,17.55,17.06,17.21,748417
7-Oct-14,17.74,17.74,17.31,17.40,296346
6-Oct-14,18.00,18.14,17.73,17.84,235365
3-Oct-14,17.76,18.05,17.48,17.99,321413
2-Oct-14,17.38,17.73,17.20,17.61,554428
1-Oct-14,17.90,18.00,17.14,17.33,1584826
30-Sep-14,18.05,18.19,17.88,17.92,420189
29-Sep-14,18.04,18.13,17.87,18.00,369415
26-Sep-14,18.31,18.64,17.89,18.06,655424
25-Sep-14,18.92,18.92,17.91,18.30,1242966
24-Sep-14,18.83,18.96,18.68,18.92,502390
23-Sep-14,18.80,18.98,18.64,18.82,743761
22-Sep-14,18.86,18.87,18.61,18.83,247534
19-Sep-14,18.69,18.83,18.63,18.81,293363
18-Sep-14,18.44,18.67,18.44,18.58,1633057
17-Sep-14,18.27,18.54,18.10,18.41,472741
16-Sep-14,18.49,18.52,17.97,18.19,663328
15-Sep-14,18.51,18.65,18.34,18.51,474608
12-Sep-14,18.36,18.62,18.30,18.50,430727
11-Sep-14,18.40,18.62,18.23,18.41,163148
10-Sep-14,18.55,18.55,18.34,18.51,144483
9-Sep-14,18.63,18.67,18.50,18.54,894258
8-Sep-14,18.41,18.74,18.38,18.66,1007733
5-Sep-14,18.52,18.58,18.17,18.47,642407
4-Sep-14,18.33,18.50,18.06,18.25,327603
3-Sep-14,18.01,18.52,17.92,18.38,643650
2-Sep-14,18.19,18.26,17.93,17.96,249892
29-Aug-14,18.00,18.28,17.98,18.23,466592
28-Aug-14,18.32,18.44,17.95,18.01,432191
27-Aug-14,18.33,18.41,18.10,18.36,504476
26-Aug-14,18.24,18.40,18.08,18.15,352089
25-Aug-14,18.33,18.50,18.10,18.20,328899
22-Aug-14,18.37,18.41,18.11,18.21,438067
21-Aug-14,18.61,18.61,18.30,18.31,143658
20-Aug-14,18.42,18.64,18.25,18.56,453047
19-Aug-14,18.62,18.66,18.33,18.40,199566
18-Aug-14,18.60,18.90,18.45,18.56,566441
15-Aug-14,18.33,18.56,18.32,18.50,589775
14-Aug-14,18.28,18.54,18.18,18.21,234064
13-Aug-14,18.51,18.72,18.27,18.32,795352
12-Aug-14,18.46,18.50,18.15,18.40,647122
11-Aug-14,18.43,18.95,18.31,18.50,588948
8-Aug-14,18.58,18.99,17.65,18.41,1608173
7-Aug-14,19.50,19.50,18.19,18.48,2310218
6-Aug-14,18.67,18.67,18.41,18.54,563534
5-Aug-14,18.61,18.82,18.52,18.70,398120
4-Aug-14,18.81,18.86,18.62,18.70,318621
1-Aug-14,18.90,19.07,18.40,18.75,793393
31-Jul-14,19.15,19.15,18.94,18.98,774265
30-Jul-14,19.52,19.59,19.19,19.29,280306
29-Jul-14,19.18,19.64,19.00,19.40,206956
28-Jul-14,19.56,19.56,19.10,19.18,586876
25-Jul-14,19.59,19.79,19.34,19.56,232000
24-Jul-14,19.72,19.77,19.44,19.60,126507
23-Jul-14,19.69,19.85,19.55,19.63,298798
22-Jul-14,19.57,19.82,19.41,19.66,231301
21-Jul-14,19.30,19.58,19.22,19.51,307227
18-Jul-14,19.17,19.57,19.16,19.37,313292
17-Jul-14,19.31,19.48,19.04,19.16,786692
16-Jul-14,19.64,19.73,19.17,19.29,472571
15-Jul-14,19.75,19.91,19.39,19.45,257155
14-Jul-14,19.98,19.98,19.64,19.72,590047
11-Jul-14,20.00,20.19,19.70,19.80,622810
10-Jul-14,19.89,20.11,19.65,19.95,484178
9-Jul-14,20.01,20.21,19.95,20.19,257544
8-Jul-14,19.91,20.11,19.75,20.01,829247
7-Jul-14,20.00,20.12,19.93,20.00,760034
3-Jul-14,19.88,20.13,19.76,20.09,139175
2-Jul-14,20.05,20.14,19.74,19.91,436988
1-Jul-14,20.18,20.26,19.85,20.03,523572
30-Jun-14,20.18,20.32,19.80,20.05,1078432
27-Jun-14,19.62,20.54,19.47,20.26,5176612
26-Jun-14,19.92,20.26,19.45,19.59,1457889
25-Jun-14,19.27,20.08,19.12,19.96,858208
24-Jun-14,19.71,19.88,19.10,19.29,820680
23-Jun-14,20.10,20.44,19.61,19.75,822737
20-Jun-14,20.54,20.79,19.81,20.05,3208483
19-Jun-14,20.27,20.91,20.02,20.50,954175
18-Jun-14,19.45,20.57,19.45,20.30,1253371
17-Jun-14,19.16,19.64,18.99,19.44,1153294
16-Jun-14,19.20,19.72,19.04,19.21,5274531
13-Jun-14,19.20,19.48,19.11,19.23,1102849
12-Jun-14,19.20,19.37,19.00,19.22,877497
11-Jun-14,19.20,19.50,19.16,19.22,1247793
10-Jun-14,18.91,19.28,18.70,19.21,1028769
9-Jun-14,18.83,19.55,18.75,18.99,1204043
6-Jun-14,19.22,19.38,18.68,18.80,840102
5-Jun-14,18.98,19.43,18.97,19.22,854295
4-Jun-14,18.48,19.08,18.20,19.00,847522
3-Jun-14,19.24,19.24,18.42,18.89,1425107
2-Jun-14,19.33,19.48,19.10,19.20,633570
30-May-14,18.66,19.26,18.52,19.20,976554
29-May-14,17.99,19.15,17.89,18.59,1195078
28-May-14,17.10,18.07,16.80,17.80,1094590
27-May-14,17.85,17.90,16.51,17.08,1012410
23-May-14,16.66,17.22,16.54,17.09,436277
22-May-14,16.46,16.84,16.29,16.65,1202547
21-May-14,16.34,16.81,16.31,16.50,1053049
20-May-14,16.40,16.56,16.25,16.36,153182
19-May-14,16.39,16.67,16.25,16.50,459497
16-May-14,16.09,16.32,16.05,16.29,248977
15-May-14,15.63,16.41,15.50,16.10,1667818
14-May-14,15.55,15.82,15.55,15.76,243838
13-May-14,15.56,15.95,15.56,15.76,1005669
12-May-14,15.45,16.04,15.45,15.99,473922
9-May-14,15.67,15.70,15.40,15.54,2312939
8-May-14,15.70,16.05,15.65,15.75,378780
7-May-14,16.07,16.10,15.87,15.98,808257
6-May-14,16.00,16.26,15.84,15.92,722177
5-May-14,16.00,16.30,15.00,16.02,1971545
2-May-14,16.19,16.50,16.00,16.40,726923
1-May-14,16.45,16.63,16.44,16.51,1800703
30-Apr-14,16.47,16.62,16.31,16.47,479890
29-Apr-14,16.64,16.85,16.40,16.44,355459
28-Apr-14,16.57,16.94,16.25,16.48,678029
25-Apr-14,16.72,16.92,16.50,16.65,297764
24-Apr-14,17.00,17.18,16.57,16.84,339644
23-Apr-14,17.22,17.38,16.75,16.85,974553
22-Apr-14,16.46,17.72,16.46,17.70,1391424
21-Apr-14,16.50,16.83,16.30,16.66,1509770
17-Apr-14,16.79,17.17,16.03,16.50,18382118
