﻿Date,Open,High,Low,Close,Volume
20-Jun-17,38.75,39.01,38.37,38.39,452936
19-Jun-17,38.68,38.90,38.50,38.81,452195
16-Jun-17,38.66,38.85,38.29,38.33,799601
15-Jun-17,38.07,38.70,37.76,38.64,849718
14-Jun-17,38.05,38.85,36.66,38.47,2565895
13-Jun-17,37.17,38.84,37.17,38.40,2730262
12-Jun-17,37.01,37.72,35.85,37.05,1700620
9-Jun-17,38.71,38.74,36.84,37.23,1239353
8-Jun-17,38.41,38.73,38.34,38.65,754225
7-Jun-17,38.81,38.98,38.32,38.44,1101565
6-Jun-17,38.78,39.17,38.75,38.80,1226223
5-Jun-17,38.66,39.12,38.44,38.95,1272359
2-Jun-17,38.08,38.75,38.01,38.66,1598995
1-Jun-17,37.72,38.07,37.43,38.02,1580074
31-May-17,37.49,37.76,36.99,37.58,9193455
30-May-17,37.04,37.35,36.90,37.33,1713984
26-May-17,37.77,37.85,37.00,37.18,2029701
25-May-17,37.16,37.79,37.08,37.70,1878303
24-May-17,37.22,37.30,36.91,36.99,1023860
23-May-17,37.12,37.21,36.80,37.10,2241443
22-May-17,36.98,37.19,36.94,37.02,1286182
19-May-17,36.83,37.10,36.52,36.94,1498292
18-May-17,36.83,37.01,36.43,36.52,1046971
17-May-17,37.33,37.40,36.76,36.80,1449749
16-May-17,37.41,38.18,37.27,37.71,2067514
15-May-17,36.76,37.31,36.76,37.27,760037
12-May-17,37.02,37.05,36.62,36.72,711286
11-May-17,37.75,37.79,36.89,36.96,1386920
10-May-17,37.48,37.84,37.01,37.74,616395
9-May-17,37.37,37.53,37.30,37.51,873648
8-May-17,37.22,37.50,36.86,37.44,741600
5-May-17,37.09,37.48,37.08,37.40,775608
4-May-17,36.52,37.35,36.44,37.24,1138987
3-May-17,37.02,37.23,36.37,36.53,1518903
2-May-17,37.20,37.36,36.73,37.24,1331548
1-May-17,36.85,37.49,36.80,37.36,1448346
28-Apr-17,37.97,37.97,36.60,36.74,2158643
27-Apr-17,37.53,37.97,37.34,37.65,1540930
26-Apr-17,37.52,37.74,37.10,37.31,1068185
25-Apr-17,37.47,37.61,37.27,37.44,721538
24-Apr-17,37.17,37.41,36.95,37.37,775453
21-Apr-17,36.98,37.07,36.47,36.68,1293933
20-Apr-17,36.90,36.98,36.62,36.85,1157075
19-Apr-17,36.50,36.84,36.45,36.78,1262586
18-Apr-17,35.74,36.53,35.74,36.45,1788922
17-Apr-17,35.74,36.43,35.63,35.91,500814
13-Apr-17,35.66,36.02,35.53,35.64,654422
12-Apr-17,35.09,35.60,35.01,35.57,1058725
11-Apr-17,35.08,35.37,34.99,35.16,692133
10-Apr-17,34.77,35.24,34.77,35.22,775872
7-Apr-17,35.07,35.36,34.75,34.81,1075710
6-Apr-17,35.52,35.58,34.95,35.15,1717231
5-Apr-17,35.05,35.13,34.77,34.94,1406624
4-Apr-17,35.19,35.38,34.92,34.97,568700
3-Apr-17,35.58,35.79,35.17,35.22,818902
31-Mar-17,35.46,36.03,35.23,35.40,465605
30-Mar-17,35.59,36.03,35.20,35.53,446518
29-Mar-17,35.47,35.61,35.29,35.58,652661
28-Mar-17,35.47,35.83,35.22,35.54,891823
27-Mar-17,35.31,35.83,34.83,35.51,537878
24-Mar-17,35.81,36.04,35.40,35.61,702464
23-Mar-17,35.90,36.16,35.39,35.67,849369
22-Mar-17,35.50,36.08,35.37,35.99,826602
21-Mar-17,36.08,36.43,35.58,35.59,1625037
20-Mar-17,36.11,36.29,35.84,36.00,500646
17-Mar-17,36.44,36.71,36.13,36.14,755234
16-Mar-17,36.33,36.66,36.29,36.43,520054
15-Mar-17,36.00,36.41,35.92,36.40,1050323
14-Mar-17,36.12,36.31,35.75,36.01,601571
13-Mar-17,36.49,36.50,36.18,36.30,976894
10-Mar-17,36.13,36.55,36.13,36.51,1500542
9-Mar-17,35.91,36.25,35.69,36.07,1241408
8-Mar-17,35.76,35.94,35.54,35.85,1322868
7-Mar-17,35.35,35.77,35.07,35.66,1730526
6-Mar-17,35.01,35.39,34.76,35.28,710810
3-Mar-17,35.09,35.18,34.78,35.16,1167827
2-Mar-17,35.57,35.57,35.04,35.09,774160
1-Mar-17,35.28,35.68,35.04,35.57,1399945
28-Feb-17,35.18,35.51,35.00,35.02,942907
27-Feb-17,34.64,35.63,33.06,35.46,798528
24-Feb-17,35.14,35.67,34.92,35.53,1167845
23-Feb-17,35.79,35.83,35.50,35.54,1191874
22-Feb-17,35.49,36.19,35.48,35.58,1333176
21-Feb-17,35.10,35.76,34.89,35.71,1675459
17-Feb-17,35.38,36.28,35.18,35.43,1582319
16-Feb-17,34.14,37.48,33.95,35.35,6939800
15-Feb-17,32.64,32.89,32.53,32.81,1918442
14-Feb-17,32.35,32.75,32.27,32.64,1630696
13-Feb-17,32.92,33.25,32.53,32.56,1645913
10-Feb-17,32.81,32.85,32.58,32.81,581768
9-Feb-17,32.53,32.84,32.16,32.65,799315
8-Feb-17,32.61,32.81,32.30,32.39,599081
7-Feb-17,32.55,33.48,32.29,32.60,749306
6-Feb-17,32.54,32.70,32.13,32.41,641930
3-Feb-17,32.46,32.75,32.34,32.51,625460
2-Feb-17,32.06,32.48,31.40,32.20,614688
1-Feb-17,32.13,32.28,31.64,32.21,885653
31-Jan-17,31.98,32.18,31.84,32.13,737865
30-Jan-17,32.19,32.19,31.66,31.97,756881
27-Jan-17,32.28,32.43,32.17,32.30,743850
26-Jan-17,32.20,32.37,31.85,32.16,807639
25-Jan-17,31.74,32.04,31.66,31.90,606421
24-Jan-17,31.16,31.63,31.16,31.49,427591
23-Jan-17,31.19,31.38,30.82,31.18,426444
20-Jan-17,31.15,31.32,31.05,31.29,397628
19-Jan-17,31.26,31.26,30.87,31.12,786990
18-Jan-17,31.22,31.29,31.03,31.22,513359
17-Jan-17,31.28,31.51,31.00,31.17,1271301
13-Jan-17,31.50,31.66,31.22,31.43,393993
12-Jan-17,31.33,31.53,30.81,31.43,844714
11-Jan-17,30.60,31.45,30.60,31.36,1268787
10-Jan-17,30.35,30.76,30.11,30.68,1066917
9-Jan-17,29.98,30.33,29.54,30.33,1511444
6-Jan-17,30.05,30.08,29.77,29.92,725662
5-Jan-17,29.87,30.18,29.77,30.05,1502284
4-Jan-17,28.89,30.20,28.89,29.77,2779366
3-Jan-17,28.73,29.17,28.50,28.87,1696937
30-Dec-16,29.10,29.19,28.43,28.60,1031921
29-Dec-16,28.90,29.04,28.52,28.96,870602
28-Dec-16,29.05,29.05,28.66,28.79,781408
27-Dec-16,29.09,29.26,28.82,28.99,471198
23-Dec-16,28.94,29.12,28.74,28.94,705572
22-Dec-16,29.08,29.08,28.55,28.91,1046675
21-Dec-16,29.63,29.63,29.22,29.25,725759
20-Dec-16,29.44,29.71,28.85,29.55,814866
19-Dec-16,29.37,29.64,29.20,29.29,1061886
16-Dec-16,29.03,29.46,28.63,29.44,2972791
15-Dec-16,29.09,29.14,28.74,28.89,1166411
14-Dec-16,29.17,29.19,28.85,28.91,860212
13-Dec-16,29.06,29.40,28.96,29.19,1027148
12-Dec-16,29.07,29.49,28.94,29.08,908293
9-Dec-16,29.31,29.59,29.02,29.24,1206766
8-Dec-16,29.63,29.70,29.06,29.35,1384865
7-Dec-16,29.18,29.35,28.71,29.26,1757422
6-Dec-16,28.98,29.10,28.61,28.96,2161412
5-Dec-16,29.02,29.56,28.81,28.98,1489894
2-Dec-16,29.00,29.35,28.73,28.98,1695875
1-Dec-16,30.09,30.42,28.71,29.06,4396242
30-Nov-16,30.23,30.98,29.68,30.01,1846203
29-Nov-16,30.21,30.60,29.07,30.32,4834972
28-Nov-16,31.48,31.76,31.13,31.16,1706255
25-Nov-16,31.76,32.05,31.06,31.69,502557
23-Nov-16,31.72,32.00,31.28,31.83,1409021
22-Nov-16,32.79,32.83,31.51,31.96,1328045
21-Nov-16,32.85,32.99,31.69,32.78,1074925
18-Nov-16,32.70,33.10,32.48,32.62,812418
17-Nov-16,31.98,32.70,31.95,32.61,501935
16-Nov-16,31.73,32.28,31.68,32.15,964817
15-Nov-16,31.16,32.13,31.03,31.99,1040326
14-Nov-16,31.07,31.71,30.88,31.15,1203450
11-Nov-16,30.81,31.50,30.76,31.16,1195640
10-Nov-16,32.00,32.15,30.61,30.87,1889487
9-Nov-16,31.23,32.16,30.57,31.82,970540
8-Nov-16,31.88,32.24,31.54,31.64,1460155
7-Nov-16,31.78,32.16,31.57,32.04,1076465
4-Nov-16,31.70,31.88,31.22,31.24,850826
3-Nov-16,31.80,31.97,31.31,31.75,623909
2-Nov-16,31.85,32.21,31.45,31.81,730676
1-Nov-16,32.12,32.32,31.77,32.04,995364
31-Oct-16,31.60,31.96,31.43,31.93,2067716
28-Oct-16,33.50,33.50,31.26,31.51,2737864
27-Oct-16,32.94,33.36,31.85,31.94,1982243
26-Oct-16,32.56,32.93,32.13,32.90,1337899
25-Oct-16,32.53,33.34,32.26,32.72,999250
24-Oct-16,32.27,32.85,32.27,32.66,2048535
21-Oct-16,32.12,32.34,31.94,32.18,324484
20-Oct-16,31.97,32.26,31.79,32.21,768244
19-Oct-16,31.89,32.12,31.68,31.99,519043
18-Oct-16,31.58,31.95,31.56,31.74,704038
17-Oct-16,31.88,31.96,31.18,31.40,896176
14-Oct-16,32.00,32.46,31.79,31.82,503783
13-Oct-16,32.00,32.16,31.09,31.79,643725
12-Oct-16,32.40,32.54,32.10,32.35,485336
11-Oct-16,32.83,32.83,32.29,32.34,785466
10-Oct-16,32.87,33.14,32.74,32.92,372188
7-Oct-16,32.71,32.89,32.44,32.75,963297
6-Oct-16,32.59,33.32,32.26,32.84,987015
5-Oct-16,32.75,32.75,32.46,32.54,546204
4-Oct-16,32.85,33.20,32.34,32.51,731916
3-Oct-16,32.17,32.60,32.02,32.55,876212
30-Sep-16,32.27,32.41,31.77,32.15,981649
29-Sep-16,33.10,33.30,32.03,32.18,1106189
28-Sep-16,32.72,33.20,32.53,33.16,946740
27-Sep-16,32.59,32.84,32.29,32.50,1047655
26-Sep-16,31.84,32.20,31.68,31.78,500294
23-Sep-16,32.24,32.33,31.91,32.18,758962
22-Sep-16,31.96,32.50,31.96,32.36,1195262
21-Sep-16,31.99,32.39,31.59,32.36,533146
20-Sep-16,32.35,32.55,31.70,31.76,858838
19-Sep-16,31.38,32.26,31.34,32.23,1139788
16-Sep-16,31.81,31.94,31.26,31.34,1883654
15-Sep-16,31.94,32.55,31.49,31.97,1587477
14-Sep-16,32.43,33.89,31.72,31.89,1402410
13-Sep-16,32.66,32.90,31.80,32.12,937792
12-Sep-16,32.64,33.08,32.60,32.99,1080449
9-Sep-16,33.60,33.65,32.75,32.79,1353562
8-Sep-16,33.87,34.19,33.70,33.78,1563093
7-Sep-16,33.74,34.06,33.62,34.06,838745
6-Sep-16,33.46,33.80,33.35,33.79,684784
2-Sep-16,33.45,33.74,33.32,33.51,597662
1-Sep-16,33.03,33.57,32.90,33.37,1387860
31-Aug-16,32.48,33.01,32.38,32.95,1172964
30-Aug-16,32.17,32.64,32.17,32.60,862021
29-Aug-16,32.26,32.50,32.17,32.33,512503
26-Aug-16,31.98,32.39,31.94,32.30,963539
25-Aug-16,31.84,32.07,31.64,31.99,1006181
24-Aug-16,32.00,32.10,30.78,31.77,630258
23-Aug-16,31.80,32.22,31.80,32.06,420894
22-Aug-16,31.29,31.66,31.04,31.65,495535
19-Aug-16,31.32,31.52,31.30,31.45,587176
18-Aug-16,31.64,31.87,31.46,31.49,1075722
17-Aug-16,32.00,32.23,31.40,31.57,753714
16-Aug-16,32.28,32.69,32.02,32.04,953085
15-Aug-16,32.08,32.50,31.98,32.50,978600
12-Aug-16,31.65,32.05,31.54,31.98,630023
11-Aug-16,31.59,31.70,31.29,31.69,533436
10-Aug-16,31.61,31.80,31.28,31.47,744878
9-Aug-16,31.68,31.76,31.43,31.55,678536
8-Aug-16,32.46,32.47,31.73,31.76,1161059
5-Aug-16,31.79,32.47,31.57,32.45,1469056
4-Aug-16,31.31,31.68,31.30,31.57,1029865
3-Aug-16,30.99,31.27,30.84,31.27,789005
2-Aug-16,31.24,31.38,30.64,31.05,1537118
1-Aug-16,32.19,32.25,31.21,31.24,2041179
29-Jul-16,32.76,32.97,31.94,32.22,1958503
28-Jul-16,31.80,32.81,31.13,32.79,4012890
27-Jul-16,31.80,32.06,31.23,31.34,1918117
26-Jul-16,31.92,32.06,31.50,31.80,2180695
25-Jul-16,30.87,31.96,30.77,31.76,1891702
22-Jul-16,30.49,30.92,30.29,30.85,1312357
21-Jul-16,30.54,30.64,30.31,30.43,685770
20-Jul-16,30.52,30.59,30.39,30.49,784712
19-Jul-16,30.48,30.59,30.30,30.41,815533
18-Jul-16,30.76,30.84,30.51,30.53,718126
15-Jul-16,30.83,31.20,30.48,30.60,642993
14-Jul-16,30.96,31.24,30.70,30.85,1618366
13-Jul-16,30.53,31.00,30.36,30.70,990122
12-Jul-16,30.07,30.55,29.84,30.47,1252431
11-Jul-16,29.84,30.01,29.58,29.84,533630
8-Jul-16,29.48,29.84,28.92,29.64,602152
7-Jul-16,29.58,29.63,29.10,29.23,1610870
6-Jul-16,28.40,29.62,28.34,29.56,2522262
5-Jul-16,28.33,28.52,28.16,28.51,1191410
1-Jul-16,27.91,28.83,27.91,28.51,941724
30-Jun-16,28.11,28.43,27.67,28.08,1472802
29-Jun-16,27.45,28.17,27.00,28.06,977932
28-Jun-16,26.46,27.47,26.15,27.27,1430931
27-Jun-16,27.23,29.00,26.23,26.45,1641020
24-Jun-16,28.00,28.63,27.46,27.47,2593042
23-Jun-16,29.26,29.61,29.14,29.54,601932
22-Jun-16,29.08,29.28,28.92,29.06,1725460
21-Jun-16,29.37,29.56,29.10,29.15,944332
20-Jun-16,29.14,29.74,29.02,29.33,1374310
17-Jun-16,28.82,29.18,28.74,28.88,1426166
16-Jun-16,28.98,29.18,28.69,28.98,1083976
15-Jun-16,28.94,29.19,28.78,29.09,992290
14-Jun-16,29.10,29.20,28.78,28.90,779862
13-Jun-16,29.24,29.89,29.08,29.10,790292
10-Jun-16,29.80,30.27,29.31,29.32,578638
9-Jun-16,29.98,30.20,29.91,30.00,499954
8-Jun-16,30.64,30.65,30.10,30.17,1447092
7-Jun-16,30.74,30.94,30.61,30.64,438166
6-Jun-16,30.62,30.96,30.32,30.68,1065118
3-Jun-16,30.68,30.68,30.30,30.49,647774
2-Jun-16,30.53,30.84,30.46,30.77,889018
1-Jun-16,30.52,30.86,30.20,30.78,1406954
31-May-16,30.78,31.00,30.64,30.80,1496772
27-May-16,30.50,30.92,30.46,30.77,1352832
26-May-16,30.64,30.86,30.38,30.55,595974
25-May-16,30.44,30.67,30.27,30.44,766332
24-May-16,30.01,30.54,30.01,30.38,646378
23-May-16,29.84,30.20,29.14,29.96,1154058
20-May-16,29.40,29.99,29.12,29.90,755038
19-May-16,29.60,29.98,29.08,29.22,907394
18-May-16,29.30,29.90,29.11,29.76,1184216
17-May-16,29.33,29.90,29.13,29.35,1614020
16-May-16,29.29,29.63,29.16,29.50,919408
13-May-16,29.58,29.66,29.09,29.30,1937634
12-May-16,29.82,29.96,28.84,29.49,1996996
11-May-16,29.50,30.17,29.24,29.76,1921172
10-May-16,28.94,29.66,28.58,29.61,1995080
9-May-16,28.95,29.64,28.64,28.85,2471690
6-May-16,29.71,29.71,28.12,28.93,8506028
5-May-16,30.84,30.96,30.43,30.72,1868348
4-May-16,31.02,31.10,30.35,30.64,1713300
3-May-16,31.16,31.43,30.92,31.09,1352640
2-May-16,30.78,31.48,30.50,31.34,1431582
29-Apr-16,30.88,30.96,30.45,30.58,826988
28-Apr-16,31.00,31.38,30.78,30.88,1019942
27-Apr-16,30.58,31.15,30.58,31.05,1072324
26-Apr-16,30.38,30.96,30.26,30.67,1023546
25-Apr-16,30.44,30.82,30.32,30.49,722986
22-Apr-16,30.02,30.90,30.00,30.64,1148042
21-Apr-16,30.14,30.40,30.01,30.20,812420
20-Apr-16,30.02,30.50,29.62,30.10,1524308
19-Apr-16,30.50,30.70,29.82,30.06,738102
18-Apr-16,29.93,30.66,29.72,30.48,737958
15-Apr-16,30.24,30.30,29.89,30.05,1368966
14-Apr-16,30.42,30.48,30.24,30.28,1587542
13-Apr-16,30.50,30.72,30.10,30.36,2881158
12-Apr-16,30.56,30.63,30.15,30.40,1332606
11-Apr-16,31.43,31.75,30.62,30.64,979900
8-Apr-16,31.30,31.81,31.12,31.30,933408
7-Apr-16,31.29,31.60,30.96,31.00,1103096
6-Apr-16,31.47,31.68,30.66,31.40,923932
5-Apr-16,31.67,31.81,31.24,31.34,1083478
4-Apr-16,32.02,32.24,31.66,31.98,878762
1-Apr-16,31.40,32.24,31.27,32.11,1901120
31-Mar-16,31.40,32.25,31.40,31.71,2317016
30-Mar-16,31.67,32.22,31.34,31.56,941912
29-Mar-16,30.82,31.71,30.60,31.68,701490
28-Mar-16,30.46,31.02,30.20,30.96,674494
24-Mar-16,30.65,31.03,30.19,30.48,790792
23-Mar-16,30.98,31.43,30.58,30.64,967308
22-Mar-16,30.74,31.04,30.71,30.90,552536
21-Mar-16,31.20,31.32,30.80,31.05,683374
18-Mar-16,31.10,31.74,30.58,31.18,1151798
17-Mar-16,31.26,31.38,30.68,31.01,982848
16-Mar-16,31.04,32.00,30.74,31.42,2137974
15-Mar-16,30.48,31.18,30.34,31.14,1458550
14-Mar-16,30.16,30.76,29.86,30.74,1294780
11-Mar-16,30.43,30.62,30.06,30.32,964020
10-Mar-16,30.14,30.23,29.36,30.08,1185530
9-Mar-16,30.46,30.58,29.54,30.08,1738334
8-Mar-16,30.40,30.72,30.08,30.20,1136840
7-Mar-16,30.57,30.91,29.01,30.80,1591084
4-Mar-16,31.00,31.00,30.36,30.68,1143342
3-Mar-16,30.10,31.30,29.38,31.00,2429998
2-Mar-16,30.42,30.79,30.08,30.44,1333684
1-Mar-16,29.44,30.58,29.08,30.56,1530082
29-Feb-16,29.77,29.92,29.12,29.14,1529800
26-Feb-16,29.62,29.90,29.36,29.86,1020572
25-Feb-16,29.23,29.60,29.00,29.56,706118
24-Feb-16,28.96,29.32,28.65,29.22,989696
23-Feb-16,29.50,29.73,28.28,29.34,1176830
22-Feb-16,29.70,29.99,29.35,29.66,1503866
19-Feb-16,28.54,29.24,28.44,29.14,1550262
18-Feb-16,28.81,29.01,28.38,28.61,1706900
17-Feb-16,27.96,29.20,27.80,28.92,1949652
16-Feb-16,26.83,28.30,26.80,27.86,1975580
12-Feb-16,27.64,27.64,23.62,26.52,11949800
11-Feb-16,27.51,28.04,27.14,27.66,2079926
10-Feb-16,27.52,28.23,27.40,28.02,1970036
9-Feb-16,27.38,27.93,26.70,27.40,2389174
8-Feb-16,28.24,28.52,26.95,27.35,2227674
5-Feb-16,30.50,31.64,28.04,28.77,3009128
4-Feb-16,30.71,31.00,30.05,30.54,1318678
3-Feb-16,31.50,31.68,30.42,30.83,1341486
2-Feb-16,31.92,32.24,30.83,31.27,1301176
1-Feb-16,32.10,32.38,31.58,32.19,1149160
29-Jan-16,31.68,32.16,31.42,32.14,1468938
28-Jan-16,31.47,32.06,31.21,31.50,1381964
27-Jan-16,30.22,31.86,29.78,31.20,2143260
26-Jan-16,30.08,30.40,29.78,30.17,1349544
25-Jan-16,30.72,30.72,29.83,30.02,1082062
22-Jan-16,31.12,31.23,30.52,30.80,892172
21-Jan-16,31.31,31.58,30.52,30.62,1543722
20-Jan-16,31.24,31.54,30.44,31.28,2626772
19-Jan-16,31.19,31.79,30.75,31.62,2022308
15-Jan-16,30.21,32.00,29.94,30.82,3057132
14-Jan-16,29.44,31.68,28.79,31.20,3866622
13-Jan-16,30.52,30.61,29.14,29.34,1191190
12-Jan-16,30.14,30.39,29.44,30.36,1348860
11-Jan-16,30.91,30.96,29.48,29.78,1643022
8-Jan-16,31.30,31.47,30.49,30.76,1697626
7-Jan-16,31.78,32.00,30.48,31.14,1313500
6-Jan-16,32.66,32.89,32.16,32.40,1493340
5-Jan-16,33.20,33.48,33.09,33.24,908570
4-Jan-16,33.50,33.91,32.66,33.21,1457242
31-Dec-15,34.03,34.58,33.84,34.14,700382
30-Dec-15,34.09,34.38,33.86,34.10,422440
29-Dec-15,34.12,34.58,33.83,34.22,635286
28-Dec-15,34.02,34.02,33.54,33.97,384650
24-Dec-15,34.28,34.28,33.84,34.08,344850
23-Dec-15,34.11,34.46,33.97,34.28,502600
22-Dec-15,33.30,34.16,32.88,33.89,1319178
21-Dec-15,33.54,33.67,32.70,33.18,1472238
18-Dec-15,34.00,34.18,33.34,33.40,1640342
17-Dec-15,35.06,35.06,33.96,34.38,907120
16-Dec-15,33.98,34.92,33.76,34.90,1268152
15-Dec-15,33.25,33.81,32.84,33.70,1220208
14-Dec-15,33.24,33.74,32.74,33.00,1184272
11-Dec-15,33.64,34.20,33.08,33.42,1616220
10-Dec-15,34.06,34.40,33.93,34.00,587420
9-Dec-15,34.52,34.74,33.82,33.98,808044
8-Dec-15,34.60,34.95,34.40,34.56,1322078
7-Dec-15,35.78,36.19,34.90,34.94,904432
4-Dec-15,34.96,35.93,34.95,35.90,570684
3-Dec-15,35.46,35.56,34.85,34.96,598210
2-Dec-15,36.32,36.32,35.46,35.56,640104
1-Dec-15,36.06,36.33,35.84,36.26,1069348
30-Nov-15,35.92,36.22,35.78,35.95,1524916
27-Nov-15,35.57,35.94,35.52,35.86,451748
25-Nov-15,35.62,35.78,35.50,35.58,797534
24-Nov-15,36.36,36.36,35.43,35.71,1505590
23-Nov-15,36.94,37.33,35.88,36.72,2005894
20-Nov-15,37.12,37.30,36.80,37.06,777866
19-Nov-15,36.88,37.25,36.60,36.94,1044394
18-Nov-15,35.70,36.83,35.38,36.78,1351044
17-Nov-15,35.68,36.36,35.54,35.64,1316054
16-Nov-15,34.86,35.70,34.66,35.56,1245100
13-Nov-15,34.94,35.30,34.34,34.94,1738228
12-Nov-15,35.11,35.42,34.80,35.16,768784
11-Nov-15,35.18,35.71,34.51,35.26,667898
10-Nov-15,35.10,35.30,34.68,35.11,764862
9-Nov-15,35.70,35.86,35.04,35.26,769278
6-Nov-15,35.18,35.86,35.04,35.86,857634
5-Nov-15,35.90,36.24,35.08,35.20,1137006
4-Nov-15,35.70,36.15,35.46,35.93,1475530
3-Nov-15,37.22,38.60,35.56,35.80,3801682
2-Nov-15,37.10,37.46,36.87,37.22,1825108
30-Oct-15,37.07,37.41,36.96,37.08,1063988
29-Oct-15,36.92,37.24,36.74,37.04,977262
28-Oct-15,36.42,37.02,36.28,36.92,594920
27-Oct-15,36.86,37.04,36.26,36.40,967242
26-Oct-15,36.65,37.08,36.56,36.96,587768
23-Oct-15,37.25,37.25,36.36,36.68,669076
22-Oct-15,36.28,37.10,36.17,36.98,792840
21-Oct-15,36.04,36.43,35.76,36.14,550350
20-Oct-15,36.32,36.75,35.94,36.15,451886
19-Oct-15,36.04,36.40,35.92,36.28,877444
16-Oct-15,35.94,36.12,35.77,36.04,376538
15-Oct-15,35.23,35.94,35.14,35.85,578326
14-Oct-15,35.74,36.04,35.14,35.22,782360
13-Oct-15,36.46,36.66,35.78,35.86,690418
12-Oct-15,36.80,36.92,36.27,36.74,783928
9-Oct-15,36.02,36.82,35.95,36.60,976678
8-Oct-15,36.11,36.26,35.60,35.95,688364
7-Oct-15,36.50,36.50,35.76,36.30,1353128
6-Oct-15,36.42,36.79,35.88,36.00,989034
5-Oct-15,36.18,36.68,36.02,36.64,814050
2-Oct-15,35.36,35.97,34.79,35.92,1249586
1-Oct-15,35.19,35.91,34.92,35.83,1474270
30-Sep-15,34.07,35.06,33.98,35.02,1393528
29-Sep-15,34.52,34.56,33.38,33.50,960168
28-Sep-15,35.22,35.56,34.34,34.48,1118354
25-Sep-15,36.24,36.52,35.03,35.34,822634
24-Sep-15,36.67,36.67,35.29,35.88,1571160
23-Sep-15,36.35,36.95,36.34,36.82,1250540
22-Sep-15,35.75,36.34,35.59,36.31,1526482
21-Sep-15,35.66,36.15,35.66,36.08,1571020
18-Sep-15,34.91,35.76,34.91,35.56,1534574
17-Sep-15,35.40,35.84,35.20,35.34,839302
16-Sep-15,35.34,35.60,35.05,35.34,497586
15-Sep-15,34.88,35.35,34.72,35.21,949470
14-Sep-15,34.30,35.00,34.30,34.60,811350
11-Sep-15,33.76,34.74,33.66,34.72,956172
10-Sep-15,33.54,33.96,33.44,33.90,669110
9-Sep-15,34.63,34.63,33.64,33.69,953604
8-Sep-15,33.78,34.52,33.56,34.42,740276
4-Sep-15,33.31,33.76,33.25,33.44,400298
3-Sep-15,33.87,34.21,33.49,33.68,781652
2-Sep-15,33.77,34.00,33.34,34.00,672896
1-Sep-15,33.18,33.65,33.18,33.44,1110350
31-Aug-15,34.30,34.52,33.46,33.87,1175932
28-Aug-15,33.64,34.52,33.44,34.52,931138
27-Aug-15,33.69,34.43,33.40,34.00,1033774
26-Aug-15,33.44,34.05,32.54,33.26,902116
25-Aug-15,34.00,34.30,32.21,32.56,2049000
24-Aug-15,32.50,33.68,31.68,32.64,2783274
21-Aug-15,34.85,34.88,33.86,33.88,1076482
20-Aug-15,35.64,35.66,34.72,34.77,1151366
19-Aug-15,36.07,36.07,35.52,35.64,681712
18-Aug-15,35.00,37.75,34.98,36.04,3051282
17-Aug-15,34.17,34.74,33.99,34.72,541702
14-Aug-15,34.04,34.44,33.92,34.40,166316
13-Aug-15,34.16,34.48,34.00,34.16,348360
12-Aug-15,34.34,34.54,33.24,34.20,1127668
11-Aug-15,33.78,34.54,33.78,34.51,766978
10-Aug-15,34.03,34.37,33.82,34.16,699376
7-Aug-15,33.90,34.08,33.62,33.94,676626
6-Aug-15,34.48,34.78,33.77,33.90,654340
5-Aug-15,35.00,35.24,34.53,34.54,861812
4-Aug-15,34.71,35.30,34.68,34.84,1091116
3-Aug-15,34.00,34.88,33.44,34.87,1237898
31-Jul-15,33.74,34.20,33.52,34.02,1617442
30-Jul-15,33.12,34.00,32.50,33.71,1306772
29-Jul-15,32.27,33.11,32.00,33.11,1143036
28-Jul-15,32.04,32.44,31.72,32.32,632222
27-Jul-15,32.24,32.44,31.88,31.93,1157052
24-Jul-15,32.24,32.48,31.85,31.96,359382
23-Jul-15,32.74,32.76,32.28,32.30,790102
22-Jul-15,32.45,32.78,32.45,32.60,663768
21-Jul-15,32.52,32.62,32.40,32.50,861118
20-Jul-15,32.55,32.89,31.93,32.52,1395610
17-Jul-15,32.66,32.76,32.50,32.56,842138
16-Jul-15,32.58,32.62,32.36,32.60,1482720
15-Jul-15,32.50,32.58,32.18,32.32,500342
14-Jul-15,32.54,32.62,32.32,32.56,563534
13-Jul-15,32.32,32.62,32.27,32.61,531498
10-Jul-15,32.08,32.22,31.75,32.18,586452
9-Jul-15,31.46,31.95,31.18,31.72,627056
8-Jul-15,31.10,31.26,30.76,30.88,1146002
7-Jul-15,31.71,31.71,31.04,31.40,681672
6-Jul-15,31.28,31.83,31.08,31.60,997132
2-Jul-15,31.34,31.56,31.02,31.42,667716
1-Jul-15,31.50,31.55,31.04,31.18,827648
30-Jun-15,30.60,31.28,30.59,31.25,1402096
29-Jun-15,31.60,31.92,30.62,30.62,1300906
26-Jun-15,31.92,32.21,31.68,31.76,15659714
25-Jun-15,32.34,32.40,31.98,32.00,1019980
24-Jun-15,32.04,32.29,31.88,32.12,823514
23-Jun-15,31.98,32.32,31.84,32.18,697366
22-Jun-15,32.44,32.50,31.92,32.04,1292780
19-Jun-15,32.26,32.40,31.56,32.40,14498370
18-Jun-15,30.10,31.88,29.92,31.65,1734512
17-Jun-15,30.64,30.64,30.07,30.28,527482
16-Jun-15,30.10,30.66,29.92,30.45,419862
15-Jun-15,30.40,30.46,29.96,30.23,538318
12-Jun-15,30.42,30.66,30.22,30.58,403242
11-Jun-15,30.05,30.62,29.85,30.57,568830
10-Jun-15,29.14,30.16,28.96,30.03,880186
9-Jun-15,29.61,29.61,28.94,28.98,475326
8-Jun-15,30.04,30.28,29.54,29.56,449780
5-Jun-15,29.98,30.30,29.70,30.27,384808
4-Jun-15,29.94,30.07,29.76,30.06,468728
3-Jun-15,30.00,30.62,29.80,30.20,685286
2-Jun-15,29.86,30.38,29.66,29.90,483934
1-Jun-15,29.65,30.11,29.48,30.02,1000230
29-May-15,30.11,30.23,29.37,29.46,631206
28-May-15,30.00,30.19,29.67,30.19,426104
27-May-15,29.66,30.24,29.52,30.08,461696
26-May-15,29.98,30.00,29.50,29.65,386466
22-May-15,30.25,30.55,30.02,30.04,255144
21-May-15,30.84,30.86,30.18,30.36,328542
20-May-15,30.46,30.71,30.28,30.51,195734
19-May-15,30.73,30.73,30.46,30.56,354356
18-May-15,29.80,30.71,29.72,30.66,430002
15-May-15,30.06,30.06,29.57,29.82,253854
14-May-15,29.87,30.12,29.68,30.07,321124
13-May-15,30.00,30.15,29.67,29.72,331660
12-May-15,29.70,30.38,29.56,29.90,655762
11-May-15,29.64,29.94,29.45,29.86,509414
8-May-15,29.64,30.02,29.28,29.68,638882
7-May-15,29.13,29.34,28.80,29.24,537882
6-May-15,29.33,29.33,28.78,29.20,529508
5-May-15,29.62,29.76,28.90,29.26,531226
4-May-15,30.10,30.32,29.71,29.76,472404
1-May-15,30.12,30.48,29.90,30.10,580306
30-Apr-15,29.74,30.27,29.63,30.08,1543822
29-Apr-15,29.95,30.46,29.50,30.16,801652
28-Apr-15,28.81,30.13,27.84,30.00,2405462
27-Apr-15,32.01,32.01,31.13,31.18,765050
24-Apr-15,32.40,32.60,31.64,31.81,882574
23-Apr-15,31.64,32.36,31.64,32.35,406126
22-Apr-15,31.44,31.80,31.12,31.74,282574
21-Apr-15,31.63,31.68,31.29,31.36,1381830
20-Apr-15,31.29,31.66,31.14,31.47,473498
17-Apr-15,31.64,31.66,30.90,31.10,741416
16-Apr-15,31.51,32.07,31.42,31.83,627102
15-Apr-15,31.51,31.90,31.42,31.62,856744
14-Apr-15,31.44,31.70,30.92,31.27,507316
13-Apr-15,31.49,31.77,31.32,31.43,469908
10-Apr-15,31.22,31.65,30.99,31.46,725306
9-Apr-15,31.80,32.09,30.92,31.02,857150
8-Apr-15,31.73,32.10,31.50,31.77,737886
7-Apr-15,31.25,31.80,31.22,31.62,1115862
6-Apr-15,31.10,31.48,30.84,31.25,557780
2-Apr-15,31.14,31.42,30.95,31.22,537820
1-Apr-15,31.03,31.26,30.72,31.02,1034900
31-Mar-15,31.14,31.28,30.66,31.15,863288
30-Mar-15,30.86,31.60,30.86,31.30,338754
27-Mar-15,30.76,31.18,30.61,30.74,314086
26-Mar-15,29.89,30.88,29.50,30.75,548834
25-Mar-15,31.27,31.27,30.07,30.19,588196
24-Mar-15,31.12,31.23,30.94,31.16,649646
23-Mar-15,31.28,31.43,31.02,31.10,350358
20-Mar-15,31.48,31.83,31.21,31.38,916210
19-Mar-15,31.22,31.46,31.16,31.38,434888
18-Mar-15,30.32,31.36,30.16,31.32,747238
17-Mar-15,30.37,30.67,30.25,30.36,380284
16-Mar-15,30.62,30.88,30.33,30.55,694978
13-Mar-15,31.54,31.58,30.84,31.00,447042
12-Mar-15,31.08,31.61,30.72,31.55,662770
11-Mar-15,30.76,31.00,30.46,30.84,491482
10-Mar-15,31.10,31.38,30.54,30.72,644758
9-Mar-15,31.42,31.72,31.16,31.55,319276
6-Mar-15,31.20,31.82,31.20,31.36,499992
5-Mar-15,31.49,31.90,31.16,31.52,374244
4-Mar-15,30.82,31.68,30.76,31.36,623934
3-Mar-15,30.57,30.96,30.57,30.90,626678
2-Mar-15,30.26,30.80,30.24,30.73,657664
27-Feb-15,30.67,30.92,30.33,30.34,363012
26-Feb-15,30.74,30.98,30.66,30.82,406514
25-Feb-15,30.98,31.07,30.60,30.76,303220
24-Feb-15,31.00,31.25,30.86,30.95,322312
23-Feb-15,31.28,31.28,30.90,31.00,546630
20-Feb-15,31.38,31.38,30.94,31.30,665454
19-Feb-15,31.26,31.61,31.21,31.38,544486
18-Feb-15,31.40,31.72,31.32,31.52,491224
17-Feb-15,31.50,31.79,30.98,31.56,410348
13-Feb-15,31.38,32.50,30.93,31.69,737950
12-Feb-15,30.78,31.08,30.62,30.99,728340
11-Feb-15,30.64,30.97,30.28,30.64,772130
10-Feb-15,30.76,30.85,30.46,30.76,861712
9-Feb-15,30.30,30.66,30.30,30.44,635046
6-Feb-15,30.78,30.87,30.36,30.50,792012
5-Feb-15,30.60,30.81,30.44,30.70,1065376
4-Feb-15,29.66,30.70,29.56,30.40,847754
3-Feb-15,30.25,31.42,29.56,29.82,2941716
2-Feb-15,27.62,27.74,26.96,27.28,800628
30-Jan-15,27.60,27.85,27.08,27.66,902704
29-Jan-15,27.42,27.90,27.13,27.84,1003184
28-Jan-15,26.96,28.96,26.30,27.27,2244098
27-Jan-15,26.90,27.30,26.40,26.72,498018
26-Jan-15,27.24,27.47,26.54,27.36,546626
23-Jan-15,27.14,27.56,27.12,27.26,259976
22-Jan-15,26.58,27.11,26.27,27.11,756450
21-Jan-15,27.11,27.25,26.48,26.49,934648
20-Jan-15,27.80,27.96,26.99,27.26,288652
16-Jan-15,27.08,27.82,26.76,27.75,390454
15-Jan-15,28.24,28.47,26.62,27.17,585902
14-Jan-15,27.87,28.44,27.56,28.13,373534
13-Jan-15,27.97,28.51,27.53,28.10,491250
12-Jan-15,27.25,27.68,26.84,27.62,430298
9-Jan-15,27.56,27.74,26.97,27.14,983102
8-Jan-15,27.06,27.54,26.85,27.49,608312
7-Jan-15,26.37,26.86,26.12,26.81,522586
6-Jan-15,26.86,26.86,26.10,26.26,602894
5-Jan-15,27.38,27.72,26.64,26.74,786010
2-Jan-15,28.58,29.15,26.84,27.64,983130
31-Dec-14,29.46,29.88,29.22,29.24,571524
30-Dec-14,29.66,29.79,29.38,29.42,327862
29-Dec-14,28.84,29.72,28.84,29.69,596916
26-Dec-14,28.75,28.98,28.55,28.85,308224
24-Dec-14,28.25,28.86,28.25,28.58,119406
23-Dec-14,28.44,28.49,28.10,28.24,460946
22-Dec-14,28.14,28.40,27.76,28.24,632612
19-Dec-14,28.21,28.50,28.04,28.26,1206894
18-Dec-14,27.51,28.32,27.50,28.28,527222
17-Dec-14,27.00,27.38,26.84,27.33,791576
16-Dec-14,26.58,27.25,26.52,26.93,622200
15-Dec-14,27.07,27.22,26.43,26.70,703516
12-Dec-14,26.74,27.19,26.56,26.86,539208
11-Dec-14,27.12,27.60,26.98,27.11,686298
10-Dec-14,26.72,27.02,26.62,26.90,735972
9-Dec-14,25.78,26.97,25.59,26.86,698414
8-Dec-14,26.14,26.62,25.55,25.98,687676
5-Dec-14,25.64,26.30,25.64,26.16,595810
4-Dec-14,25.50,25.74,25.24,25.64,506610
3-Dec-14,25.58,25.70,25.39,25.54,794142
2-Dec-14,25.51,25.82,25.38,25.49,528608
1-Dec-14,25.32,25.72,25.20,25.39,918672
28-Nov-14,25.59,26.00,25.20,25.28,280952
26-Nov-14,25.50,25.72,25.40,25.46,633620
25-Nov-14,25.43,25.50,25.16,25.30,322616
24-Nov-14,25.40,25.58,25.33,25.44,273302
21-Nov-14,25.50,25.70,25.11,25.34,625238
20-Nov-14,24.62,25.08,24.50,24.99,228384
19-Nov-14,24.64,24.84,24.32,24.80,603374
18-Nov-14,24.94,25.20,24.74,24.74,282038
17-Nov-14,25.08,25.44,24.85,24.86,318124
14-Nov-14,25.00,25.20,24.60,25.09,514172
13-Nov-14,25.11,25.24,24.82,24.88,280738
12-Nov-14,24.90,25.15,24.80,25.02,241000
11-Nov-14,25.00,25.12,24.73,24.98,557982
10-Nov-14,24.78,25.06,24.48,25.00,642312
7-Nov-14,24.87,25.02,24.54,25.00,395134
6-Nov-14,24.66,25.00,24.66,24.97,495474
5-Nov-14,24.87,24.95,24.56,24.71,775662
4-Nov-14,24.31,24.97,24.04,24.74,1170624
3-Nov-14,24.00,24.37,23.81,24.32,732554
31-Oct-14,23.98,24.22,23.63,24.16,768800
30-Oct-14,23.26,24.25,22.50,23.30,741648
29-Oct-14,23.50,23.78,22.99,23.34,462696
28-Oct-14,22.94,23.51,22.91,23.45,870704
27-Oct-14,22.54,22.81,22.42,22.75,291466
24-Oct-14,22.34,22.90,22.10,22.70,418022
23-Oct-14,22.14,22.70,21.70,22.30,289630
22-Oct-14,22.51,22.56,21.85,21.88,271104
21-Oct-14,21.28,22.57,20.84,22.36,693066
20-Oct-14,21.06,21.28,20.88,21.17,475924
17-Oct-14,21.28,21.46,21.00,21.20,576808
16-Oct-14,21.04,21.55,20.90,20.96,686020
15-Oct-14,21.44,21.75,20.92,21.40,764174
14-Oct-14,22.05,22.05,21.70,21.78,621516
13-Oct-14,21.41,22.42,21.11,21.76,432310
10-Oct-14,21.64,22.08,21.34,21.36,416504
9-Oct-14,22.69,22.80,21.80,21.82,532350
8-Oct-14,21.66,22.70,21.44,22.62,513652
7-Oct-14,21.86,22.04,21.70,21.73,377156
6-Oct-14,21.71,22.14,21.71,21.96,307890
3-Oct-14,21.86,22.05,21.68,21.72,232818
2-Oct-14,21.55,21.76,21.29,21.64,212508
1-Oct-14,21.84,21.91,21.26,21.50,566460
30-Sep-14,22.30,22.48,21.92,21.94,801278
29-Sep-14,21.59,22.31,21.59,22.30,377196
26-Sep-14,21.93,22.11,21.65,21.88,238642
25-Sep-14,22.08,22.26,21.64,21.90,425902
24-Sep-14,22.17,22.32,22.01,22.18,324942
23-Sep-14,22.23,22.35,22.03,22.14,550798
22-Sep-14,22.14,22.35,22.10,22.28,369250
19-Sep-14,22.55,22.60,21.96,22.35,849958
18-Sep-14,21.85,22.56,21.85,22.55,374292
17-Sep-14,21.56,21.95,21.40,21.78,287894
16-Sep-14,21.61,21.80,21.44,21.58,436092
15-Sep-14,21.93,22.08,21.51,21.60,400986
12-Sep-14,22.62,22.62,21.86,22.01,413300
11-Sep-14,22.60,22.78,22.50,22.60,264144
10-Sep-14,22.76,23.01,22.66,22.76,341178
9-Sep-14,22.81,22.81,22.35,22.72,335948
8-Sep-14,22.74,23.16,22.54,22.82,270740
5-Sep-14,22.27,22.83,22.22,22.72,266792
4-Sep-14,22.77,22.86,22.37,22.38,250234
3-Sep-14,23.25,23.29,22.72,22.76,290152
2-Sep-14,22.72,23.25,22.62,23.20,471680
29-Aug-14,22.60,22.82,22.31,22.63,189028
28-Aug-14,22.65,22.90,22.53,22.56,292830
27-Aug-14,22.80,22.94,22.61,22.84,234982
26-Aug-14,22.54,22.80,22.34,22.70,359366
25-Aug-14,22.82,22.92,22.38,22.58,217414
22-Aug-14,22.83,22.89,22.66,22.70,179282
21-Aug-14,22.56,23.00,22.40,22.94,246018
20-Aug-14,22.55,22.70,22.50,22.60,219604
19-Aug-14,22.60,22.79,22.48,22.76,256004
18-Aug-14,22.36,22.64,22.35,22.61,295162
15-Aug-14,22.44,22.44,21.82,22.14,376872
14-Aug-14,22.11,22.28,22.06,22.20,248706
13-Aug-14,21.84,22.32,21.78,22.18,272528
12-Aug-14,21.86,21.98,21.58,21.78,254708
11-Aug-14,21.86,22.12,21.63,21.96,224664
8-Aug-14,21.41,21.88,21.12,21.82,393812
7-Aug-14,21.45,21.70,21.16,21.42,432496
6-Aug-14,20.94,21.66,20.94,21.42,332816
5-Aug-14,20.81,21.32,20.81,21.10,749314
4-Aug-14,21.56,21.82,20.76,20.99,843860
1-Aug-14,21.86,22.44,21.43,21.46,695336
31-Jul-14,21.84,22.15,21.54,21.66,823280
30-Jul-14,22.22,22.39,21.95,22.14,500516
29-Jul-14,21.83,22.42,21.78,22.02,927178
28-Jul-14,21.78,22.00,21.51,21.84,689610
25-Jul-14,21.67,21.96,21.58,21.73,494030
24-Jul-14,21.56,22.08,21.56,21.87,397528
23-Jul-14,21.88,22.61,21.54,21.68,256466
22-Jul-14,21.60,21.92,21.50,21.76,287742
21-Jul-14,21.50,21.58,21.31,21.51,320784
18-Jul-14,21.13,21.76,21.13,21.72,626218
17-Jul-14,21.37,21.49,21.13,21.18,532534
16-Jul-14,21.52,21.61,21.21,21.49,415258
15-Jul-14,21.74,21.80,21.19,21.36,450944
14-Jul-14,21.92,22.08,21.65,21.72,304698
11-Jul-14,21.68,21.89,21.40,21.72,338272
10-Jul-14,21.67,22.04,21.41,21.74,340274
9-Jul-14,22.33,22.46,22.12,22.17,340908
8-Jul-14,22.58,22.58,22.05,22.20,541494
7-Jul-14,23.00,23.14,22.62,22.66,390112
3-Jul-14,22.68,23.12,22.54,23.12,361560
2-Jul-14,22.70,22.92,22.50,22.58,349802
1-Jul-14,22.20,22.82,22.18,22.67,688828
30-Jun-14,21.83,22.25,21.74,22.11,704142
27-Jun-14,21.74,22.20,21.70,21.88,2848630
26-Jun-14,21.96,21.99,21.63,21.90,378706
25-Jun-14,21.83,22.16,21.83,21.95,865204
24-Jun-14,22.17,22.40,21.88,21.94,1048564
23-Jun-14,22.39,22.76,22.26,22.26,471986
20-Jun-14,22.44,22.55,22.30,22.38,950794
19-Jun-14,22.50,22.52,22.38,22.46,408016
18-Jun-14,22.38,22.58,22.30,22.42,690064
17-Jun-14,22.38,22.54,22.29,22.38,652452
16-Jun-14,22.44,22.68,22.24,22.45,522442
13-Jun-14,22.54,22.54,22.25,22.48,717220
12-Jun-14,22.52,22.54,22.21,22.43,943508
11-Jun-14,22.86,23.01,22.56,22.64,753276
10-Jun-14,22.87,23.11,22.76,22.90,526974
9-Jun-14,22.86,23.02,22.68,23.02,425576
6-Jun-14,22.50,22.95,22.35,22.78,788348
5-Jun-14,22.18,22.48,22.18,22.40,947632
4-Jun-14,21.78,22.32,21.68,22.16,725964
3-Jun-14,21.30,22.09,21.30,21.93,878092
2-Jun-14,21.28,21.67,21.01,21.62,568584
30-May-14,21.45,21.47,21.15,21.32,525378
29-May-14,21.46,21.46,21.12,21.38,537240
28-May-14,21.43,21.85,21.32,21.34,418036
27-May-14,21.25,21.66,21.14,21.54,375568
23-May-14,20.92,21.05,20.73,21.02,442190
22-May-14,21.04,21.25,20.96,21.04,430712
21-May-14,20.84,21.22,20.69,21.11,428362
20-May-14,21.06,21.06,20.52,20.75,557914
19-May-14,20.82,21.52,20.33,21.14,590236
16-May-14,20.15,20.90,19.92,20.88,584606
15-May-14,19.74,20.28,19.62,20.18,956054
14-May-14,20.29,20.58,19.84,19.90,838510
13-May-14,20.71,20.97,20.34,20.36,1263738
12-May-14,20.10,20.96,20.02,20.84,526124
9-May-14,19.34,20.00,19.14,19.94,310736
8-May-14,19.74,20.09,19.35,19.47,379068
7-May-14,19.84,19.88,19.25,19.73,528456
6-May-14,19.98,20.00,19.68,19.84,560852
5-May-14,20.14,20.41,19.90,20.15,483060
2-May-14,19.24,20.49,18.88,20.24,734828
1-May-14,19.44,19.52,18.96,19.06,976628
30-Apr-14,19.24,19.79,19.04,19.46,1068126
29-Apr-14,19.08,19.50,19.08,19.26,624094
28-Apr-14,18.75,19.48,18.75,19.02,755752
25-Apr-14,18.79,18.83,18.48,18.65,878372
24-Apr-14,19.12,19.15,18.64,18.92,177898
23-Apr-14,19.12,19.28,18.79,19.00,554934
22-Apr-14,19.38,19.51,19.08,19.18,537710
21-Apr-14,19.34,19.52,19.06,19.34,186630
17-Apr-14,18.96,19.55,18.80,19.26,356034
16-Apr-14,18.46,19.31,18.46,19.07,452220
15-Apr-14,18.14,18.39,17.74,18.34,499788
14-Apr-14,18.20,18.32,17.81,18.12,636622
11-Apr-14,18.53,18.62,17.86,18.10,568660
10-Apr-14,19.14,19.40,18.60,18.73,480722
9-Apr-14,19.23,19.38,19.05,19.20,464336
8-Apr-14,19.10,19.36,18.86,19.12,496914
7-Apr-14,19.80,19.80,18.93,19.02,469892
4-Apr-14,20.62,20.79,19.52,19.90,401096
3-Apr-14,20.96,20.98,20.36,20.42,320520
2-Apr-14,20.74,20.94,20.45,20.90,409642
1-Apr-14,20.06,20.71,19.98,20.68,456224
31-Mar-14,19.58,20.17,19.42,20.01,494268
28-Mar-14,19.57,19.84,19.32,19.48,249448
27-Mar-14,20.00,20.13,19.49,19.61,568500
26-Mar-14,21.23,21.23,20.02,20.02,618522
25-Mar-14,20.91,21.24,20.72,21.01,396140
24-Mar-14,21.01,21.12,20.66,20.78,553742
21-Mar-14,20.90,21.18,20.75,21.00,712436
20-Mar-14,20.62,20.95,20.46,20.84,208102
19-Mar-14,21.14,21.14,20.53,20.70,371740
18-Mar-14,20.56,21.25,20.56,21.14,404362
17-Mar-14,20.50,20.84,20.27,20.60,308042
14-Mar-14,20.33,20.54,20.11,20.36,284650
13-Mar-14,20.50,20.64,20.18,20.46,800394
12-Mar-14,20.18,20.51,19.98,20.50,424258
11-Mar-14,20.38,20.50,20.10,20.28,437144
10-Mar-14,20.28,20.43,20.20,20.37,360262
7-Mar-14,20.63,20.63,20.26,20.38,402034
6-Mar-14,20.36,20.53,20.25,20.49,454024
5-Mar-14,20.15,20.43,20.15,20.34,636160
4-Mar-14,19.52,20.31,19.38,20.20,1021378
3-Mar-14,19.18,19.32,18.98,19.24,451848
28-Feb-14,19.40,19.76,19.21,19.34,490174
27-Feb-14,19.30,19.46,19.14,19.36,420248
26-Feb-14,18.93,19.54,18.84,19.38,420862
25-Feb-14,19.42,19.42,18.64,18.92,797932
24-Feb-14,19.41,19.80,19.30,19.48,352616
21-Feb-14,19.86,19.88,19.36,19.42,439312
20-Feb-14,19.64,19.84,19.46,19.76,342934
19-Feb-14,19.78,19.92,19.49,19.55,400154
18-Feb-14,19.72,20.10,19.62,19.90,453214
14-Feb-14,20.00,20.00,19.20,19.66,492824
13-Feb-14,19.74,20.25,19.52,20.06,343450
12-Feb-14,19.80,20.50,19.64,19.89,766040
11-Feb-14,19.13,19.67,18.96,19.52,995546
10-Feb-14,19.00,19.18,18.80,19.16,375586
7-Feb-14,18.80,19.13,18.58,18.98,370254
6-Feb-14,18.88,19.08,18.71,18.76,260244
5-Feb-14,19.18,19.18,18.65,18.88,415270
4-Feb-14,19.00,19.42,18.75,19.24,451296
3-Feb-14,19.29,19.49,18.64,18.92,877434
31-Jan-14,19.20,19.63,19.08,19.41,464554
30-Jan-14,19.10,19.83,18.81,19.56,1168780
29-Jan-14,20.66,20.66,19.68,19.70,1074558
28-Jan-14,21.26,21.32,20.84,20.90,666464
27-Jan-14,21.37,21.60,21.11,21.27,502296
24-Jan-14,21.55,21.64,21.26,21.34,670276
23-Jan-14,21.56,21.70,21.32,21.68,894684
22-Jan-14,21.50,21.68,21.32,21.64,930904
21-Jan-14,22.09,22.09,21.49,21.51,506586
17-Jan-14,21.60,21.70,21.51,21.61,480046
16-Jan-14,22.09,22.09,21.62,21.70,773332
15-Jan-14,22.90,23.10,22.09,22.21,780952
14-Jan-14,22.53,22.92,22.22,22.87,216270
13-Jan-14,22.92,23.01,22.30,22.48,424902
10-Jan-14,23.10,23.23,22.76,22.92,328382
9-Jan-14,23.16,23.30,22.72,23.10,382698
8-Jan-14,22.96,23.30,22.92,23.12,800000
7-Jan-14,22.48,23.05,22.33,22.94,808656
6-Jan-14,22.62,22.78,22.29,22.45,725666
3-Jan-14,22.30,22.63,22.25,22.54,573216
2-Jan-14,22.08,22.32,21.80,22.27,620750
31-Dec-13,21.94,22.13,21.84,22.13,501192
30-Dec-13,21.63,21.86,21.43,21.85,281052
27-Dec-13,21.64,21.68,21.37,21.68,251858
26-Dec-13,21.33,21.68,21.22,21.54,221132
24-Dec-13,21.22,21.50,21.12,21.24,113676
23-Dec-13,21.21,21.32,20.96,21.22,364586
20-Dec-13,20.70,21.16,20.50,21.10,832098
19-Dec-13,20.85,21.04,20.54,20.60,390448
18-Dec-13,20.14,20.85,19.98,20.82,507738
17-Dec-13,20.15,20.24,19.95,20.08,318828
16-Dec-13,19.96,20.25,19.83,20.14,706850
13-Dec-13,19.82,20.25,19.42,19.70,1023606
12-Dec-13,20.10,20.13,19.57,19.72,719312
11-Dec-13,20.60,20.60,20.04,20.13,491616
10-Dec-13,20.97,21.14,20.52,20.58,538634
9-Dec-13,21.26,21.38,20.94,21.07,358824
6-Dec-13,21.57,21.64,21.22,21.24,441618
5-Dec-13,21.00,21.64,21.00,21.30,482922
4-Dec-13,21.10,21.71,20.92,21.05,568066
3-Dec-13,21.50,21.74,20.89,21.14,934598
2-Dec-13,21.46,21.90,21.36,21.60,694208
29-Nov-13,21.81,21.81,21.44,21.56,200844
27-Nov-13,21.44,21.82,21.38,21.66,710008
26-Nov-13,20.92,21.40,20.81,21.38,484390
25-Nov-13,21.00,21.22,20.88,20.92,311810
22-Nov-13,21.02,21.27,20.95,20.99,668686
21-Nov-13,20.40,21.05,20.40,21.02,698584
20-Nov-13,19.88,20.48,19.86,20.32,595706
19-Nov-13,19.85,20.03,19.68,19.88,364042
18-Nov-13,20.18,20.24,19.86,19.90,524848
15-Nov-13,20.08,20.16,19.94,20.16,442752
14-Nov-13,20.07,20.24,19.94,20.10,334940
13-Nov-13,19.97,20.20,19.80,20.10,634364
12-Nov-13,20.08,20.20,19.87,20.10,375520
11-Nov-13,20.46,20.48,19.96,20.18,499090
8-Nov-13,20.05,20.50,20.00,20.44,379688
7-Nov-13,20.75,20.75,20.05,20.06,779040
6-Nov-13,20.80,20.85,20.56,20.68,683522
5-Nov-13,20.76,20.85,20.40,20.71,1000506
4-Nov-13,19.85,20.88,19.76,20.82,1723430
1-Nov-13,18.78,19.84,18.50,19.75,2530302
31-Oct-13,19.74,19.80,19.46,19.65,938150
30-Oct-13,19.86,19.90,19.57,19.70,432052
29-Oct-13,19.82,19.99,19.53,19.79,320528
28-Oct-13,19.60,19.79,19.50,19.75,374082
25-Oct-13,19.64,19.73,19.33,19.53,319688
24-Oct-13,19.46,19.68,19.44,19.56,305744
23-Oct-13,19.44,19.44,19.06,19.40,263158
22-Oct-13,19.49,19.72,19.38,19.58,427752
21-Oct-13,19.42,19.66,19.26,19.47,502782
18-Oct-13,19.22,19.42,19.01,19.42,716640
17-Oct-13,18.62,19.05,18.50,19.04,550870
16-Oct-13,18.50,18.81,18.38,18.76,577498
15-Oct-13,18.57,18.64,18.30,18.42,550214
14-Oct-13,18.30,18.62,18.18,18.58,375724
11-Oct-13,18.04,18.44,18.04,18.44,458858
10-Oct-13,17.62,18.16,17.59,18.12,568280
9-Oct-13,17.44,17.70,17.33,17.47,639020
8-Oct-13,18.50,18.55,17.34,17.46,1692460
7-Oct-13,18.64,18.76,18.42,18.44,382178
4-Oct-13,18.54,18.97,18.41,18.78,721168
3-Oct-13,18.98,19.07,18.33,18.60,904446
2-Oct-13,19.26,19.44,19.02,19.07,465134
1-Oct-13,18.98,19.36,18.84,19.34,556930
30-Sep-13,19.01,19.14,18.70,19.05,512610
27-Sep-13,19.12,19.34,19.06,19.25,471382
26-Sep-13,19.20,19.46,19.12,19.28,562640
25-Sep-13,19.36,19.52,19.07,19.22,672584
24-Sep-13,19.48,19.66,19.23,19.34,625506
23-Sep-13,19.82,19.84,19.24,19.40,1050364
20-Sep-13,19.44,19.73,19.32,19.70,2251304
19-Sep-13,19.15,19.44,18.90,19.34,7681058
18-Sep-13,19.62,19.97,19.50,19.72,1896078
17-Sep-13,19.07,19.84,19.02,19.48,1242076
16-Sep-13,18.96,19.14,18.83,19.10,822820
13-Sep-13,18.84,18.97,18.70,18.86,699844
12-Sep-13,18.80,19.01,18.76,18.85,589410
11-Sep-13,19.06,19.20,18.54,18.72,1013834
10-Sep-13,18.41,19.08,18.28,19.00,1637316
9-Sep-13,18.04,18.50,18.04,18.25,709026
6-Sep-13,18.11,18.12,17.66,17.98,482122
5-Sep-13,17.88,18.06,17.66,18.00,497948
4-Sep-13,17.62,17.84,17.55,17.82,682682
3-Sep-13,17.90,18.16,17.47,17.66,404906
30-Aug-13,17.93,18.06,17.66,17.70,463056
29-Aug-13,17.83,18.09,17.83,18.04,370572
28-Aug-13,17.76,17.99,17.64,17.88,379590
27-Aug-13,17.98,18.11,17.76,17.80,574490
26-Aug-13,17.92,18.28,17.79,18.16,515400
23-Aug-13,17.92,18.07,17.71,17.84,666182
22-Aug-13,17.66,17.94,17.64,17.92,215300
21-Aug-13,17.70,17.87,17.54,17.68,320474
20-Aug-13,17.45,17.82,17.40,17.72,331316
19-Aug-13,17.40,17.60,17.33,17.40,515152
16-Aug-13,17.34,17.58,17.27,17.48,513648
15-Aug-13,17.48,17.58,17.27,17.46,600374
14-Aug-13,17.77,17.88,17.64,17.65,264978
13-Aug-13,17.79,17.88,17.65,17.80,354102
12-Aug-13,17.74,18.00,17.74,17.80,521660
9-Aug-13,17.58,17.98,17.46,17.76,697216
8-Aug-13,17.64,17.92,17.49,17.57,701210
7-Aug-13,17.66,17.80,16.60,17.64,1663734
6-Aug-13,18.31,18.34,17.80,17.82,1334696
5-Aug-13,18.53,18.64,18.28,18.30,928532
2-Aug-13,19.40,19.40,18.08,18.49,1325956
1-Aug-13,18.10,18.30,18.04,18.06,690542
31-Jul-13,17.90,18.16,17.84,17.89,346404
30-Jul-13,17.86,18.00,17.78,17.88,379908
29-Jul-13,17.74,17.94,17.41,17.82,651146
26-Jul-13,18.24,18.30,17.52,17.80,1235188
25-Jul-13,18.23,18.43,18.08,18.40,673008
24-Jul-13,18.24,18.48,18.11,18.30,376640
23-Jul-13,18.57,18.68,18.10,18.16,519352
22-Jul-13,18.44,18.78,18.30,18.47,507274
19-Jul-13,18.33,18.52,18.32,18.50,342668
18-Jul-13,18.50,18.58,18.35,18.44,364474
17-Jul-13,18.32,18.50,18.08,18.43,702014
16-Jul-13,18.60,18.66,18.04,18.29,1124910
15-Jul-13,19.24,19.24,18.46,18.50,854290
12-Jul-13,18.86,18.86,18.27,18.48,1188702
11-Jul-13,17.54,18.09,17.52,18.02,2009064
10-Jul-13,17.34,17.44,17.15,17.25,1287624
9-Jul-13,17.20,17.34,17.08,17.30,979406
8-Jul-13,17.08,17.10,16.80,17.09,786540
5-Jul-13,16.82,16.96,16.54,16.88,587076
3-Jul-13,16.52,16.82,16.49,16.58,274112
2-Jul-13,16.58,16.68,16.45,16.64,719258
1-Jul-13,16.55,16.66,16.26,16.58,705026
28-Jun-13,16.58,16.58,16.36,16.45,8352116
27-Jun-13,16.59,16.68,16.42,16.64,664054
26-Jun-13,16.58,16.70,16.28,16.48,583320
25-Jun-13,16.34,16.50,16.14,16.48,466312
24-Jun-13,16.14,16.48,15.76,16.23,600914
21-Jun-13,16.22,16.33,15.66,16.33,871192
20-Jun-13,16.32,16.38,16.04,16.20,398570
19-Jun-13,16.49,16.64,16.35,16.44,540354
18-Jun-13,16.25,16.52,16.11,16.46,550364
17-Jun-13,16.12,16.24,15.94,16.22,489184
14-Jun-13,16.03,16.05,15.82,15.96,255202
13-Jun-13,15.88,16.10,15.66,15.98,489738
12-Jun-13,15.96,16.10,15.70,15.92,301052
11-Jun-13,15.70,16.02,15.52,15.94,578396
10-Jun-13,15.90,16.11,15.82,15.90,857984
7-Jun-13,15.98,16.04,15.69,15.88,544162
6-Jun-13,15.66,15.86,15.34,15.85,520114
5-Jun-13,15.65,15.82,15.54,15.61,209312
4-Jun-13,15.90,15.97,15.46,15.71,336708
3-Jun-13,15.72,15.98,15.45,15.92,507748
31-May-13,15.74,16.00,15.74,15.82,327888
30-May-13,15.92,15.95,15.68,15.85,312436
29-May-13,15.92,15.92,15.71,15.84,238846
28-May-13,16.04,16.05,15.85,15.98,302366
24-May-13,15.84,15.93,15.70,15.80,187910
23-May-13,15.66,16.00,15.57,15.98,387736
22-May-13,15.94,16.08,15.73,15.86,569364
21-May-13,16.04,16.12,15.90,15.96,496892
20-May-13,15.94,16.17,15.94,16.06,929740
17-May-13,16.04,16.05,15.90,16.00,1213342
16-May-13,15.78,16.12,15.78,15.92,1271982
15-May-13,15.83,15.94,15.78,15.93,683782
14-May-13,15.75,15.94,15.72,15.92,575062
13-May-13,15.70,15.80,15.54,15.72,682856
10-May-13,15.54,15.74,15.33,15.71,1440476
9-May-13,15.92,15.95,15.32,15.40,6529190
8-May-13,16.60,17.22,16.54,17.10,1167228
7-May-13,16.78,16.90,16.43,16.70,319976
6-May-13,16.56,16.80,16.41,16.78,934298
3-May-13,16.62,16.86,16.46,16.79,790856
2-May-13,15.52,16.63,15.52,16.42,554866
1-May-13,15.25,15.43,15.10,15.10,1028192
30-Apr-13,14.84,15.36,14.83,15.34,397594
29-Apr-13,14.77,15.08,14.77,14.90,393664
26-Apr-13,14.81,14.88,14.60,14.70,161530
25-Apr-13,14.92,15.04,14.80,14.82,301840
24-Apr-13,14.77,15.07,14.74,14.91,519766
23-Apr-13,14.42,14.86,14.34,14.82,368782
22-Apr-13,14.14,14.31,14.02,14.30,402828
19-Apr-13,14.22,14.22,13.77,14.00,937552
18-Apr-13,14.47,14.56,14.17,14.24,365008
17-Apr-13,14.63,14.78,14.19,14.40,450904
16-Apr-13,14.63,14.82,14.59,14.78,596358
15-Apr-13,14.65,14.76,14.53,14.54,594290
12-Apr-13,14.50,14.77,14.50,14.76,293670
11-Apr-13,14.52,14.66,14.38,14.59,100314
10-Apr-13,14.22,14.65,14.22,14.56,267790
9-Apr-13,14.44,14.44,14.20,14.21,391014
8-Apr-13,14.30,14.38,14.12,14.37,181070
5-Apr-13,14.14,14.32,14.07,14.30,264960
4-Apr-13,14.25,14.44,14.12,14.41,190296
3-Apr-13,14.56,14.56,14.06,14.28,559298
2-Apr-13,14.82,14.82,14.47,14.52,440622
1-Apr-13,14.97,15.05,14.60,14.78,819546
28-Mar-13,15.06,15.12,14.88,14.99,454810
27-Mar-13,14.72,15.10,14.67,14.99,555868
26-Mar-13,14.70,14.84,14.56,14.80,373252
25-Mar-13,14.83,14.84,14.58,14.61,400774
22-Mar-13,14.54,14.83,14.46,14.82,725492
21-Mar-13,14.39,14.71,14.33,14.54,419026
20-Mar-13,14.37,14.66,14.35,14.49,476908
19-Mar-13,14.48,14.64,14.16,14.30,604402
18-Mar-13,14.16,14.50,14.16,14.48,396192
15-Mar-13,14.60,14.60,14.24,14.36,1267936
14-Mar-13,13.80,14.61,13.80,14.60,3500366
13-Mar-13,13.80,14.00,13.72,13.87,499658
12-Mar-13,13.88,13.88,13.46,13.76,295918
11-Mar-13,13.84,14.06,13.82,13.90,716546
8-Mar-13,13.66,13.98,13.62,13.84,1034360
7-Mar-13,13.60,13.62,13.50,13.62,324172
6-Mar-13,13.75,13.75,13.46,13.56,487160
5-Mar-13,12.96,13.81,12.96,13.72,990408
4-Mar-13,12.62,12.98,12.62,12.96,301616
1-Mar-13,12.50,12.72,12.44,12.68,227768
28-Feb-13,12.59,12.68,12.50,12.66,356832
27-Feb-13,12.52,12.68,12.38,12.54,543556
26-Feb-13,12.44,12.60,12.25,12.53,506726
25-Feb-13,12.74,12.74,12.40,12.42,397210
22-Feb-13,12.60,12.72,12.56,12.71,350006
21-Feb-13,12.43,12.63,12.40,12.52,542402
20-Feb-13,12.68,12.68,12.48,12.52,579438
19-Feb-13,12.25,12.74,12.24,12.71,678744
15-Feb-13,11.75,12.38,11.57,12.24,2106752
14-Feb-13,11.34,11.46,11.34,11.39,377644
13-Feb-13,11.50,11.50,11.38,11.40,131088
12-Feb-13,11.44,11.50,11.29,11.46,160998
11-Feb-13,11.42,11.46,11.38,11.42,92096
8-Feb-13,11.41,11.50,11.34,11.46,78624
7-Feb-13,11.34,11.40,11.27,11.37,106586
6-Feb-13,11.30,11.43,11.28,11.37,122750
5-Feb-13,11.33,11.42,11.31,11.37,209604
4-Feb-13,11.47,11.47,11.25,11.27,253722
1-Feb-13,11.38,11.58,11.30,11.55,260950
31-Jan-13,11.33,11.36,11.16,11.32,158252
30-Jan-13,11.50,11.50,11.14,11.31,233126
29-Jan-13,11.46,11.52,11.33,11.48,378008
28-Jan-13,11.42,11.55,11.31,11.48,342868
25-Jan-13,11.22,11.54,11.14,11.38,444034
24-Jan-13,11.34,11.50,11.11,11.18,201108
23-Jan-13,11.42,11.51,11.36,11.36,242060
22-Jan-13,11.39,11.40,11.30,11.38,200146
18-Jan-13,11.27,11.41,11.22,11.36,765940
17-Jan-13,11.30,11.40,11.26,11.30,277616
16-Jan-13,11.29,11.37,11.22,11.29,318228
15-Jan-13,11.24,11.36,11.23,11.32,412288
14-Jan-13,11.32,11.34,11.21,11.31,252392
11-Jan-13,11.35,11.42,11.28,11.38,95476
10-Jan-13,11.40,11.40,11.28,11.32,107250
9-Jan-13,11.51,11.54,11.35,11.43,99394
8-Jan-13,11.34,11.60,11.30,11.45,256340
7-Jan-13,11.39,11.56,11.28,11.38,185370
4-Jan-13,11.62,11.62,11.46,11.47,169338
3-Jan-13,11.62,11.62,11.44,11.55,181932
2-Jan-13,11.80,11.80,11.36,11.60,460446
31-Dec-12,11.51,11.70,11.36,11.54,198034
28-Dec-12,11.14,12.24,11.14,11.46,586706
27-Dec-12,11.08,11.26,10.78,11.22,146056
26-Dec-12,11.26,11.48,11.01,11.06,181160
24-Dec-12,11.14,11.24,10.50,11.24,75788
21-Dec-12,11.20,11.20,11.00,11.16,680592
20-Dec-12,11.39,11.40,11.30,11.31,198968
19-Dec-12,11.48,11.50,11.34,11.36,165224
18-Dec-12,11.40,11.44,11.21,11.44,382434
17-Dec-12,10.95,11.39,10.91,11.38,230886
14-Dec-12,11.02,11.08,10.86,10.92,217974
13-Dec-12,11.36,11.42,10.85,11.07,120322
12-Dec-12,11.62,11.64,11.30,11.32,143922
11-Dec-12,11.74,11.74,11.54,11.60,244772
10-Dec-12,11.72,11.74,11.58,11.64,950694
7-Dec-12,11.72,11.73,11.60,11.71,208712
6-Dec-12,11.58,11.78,11.58,11.70,147602
5-Dec-12,11.77,11.77,11.55,11.64,218212
4-Dec-12,11.64,11.80,11.56,11.72,386210
3-Dec-12,11.83,11.83,11.48,11.61,497178
30-Nov-12,11.90,11.90,11.62,11.80,549200
29-Nov-12,11.64,11.88,11.52,11.86,229870
28-Nov-12,11.21,11.54,11.21,11.54,220500
27-Nov-12,11.38,11.48,11.24,11.28,185874
26-Nov-12,11.33,11.38,11.24,11.35,152194
23-Nov-12,11.36,11.43,11.28,11.32,77426
21-Nov-12,11.32,11.44,11.25,11.30,164982
20-Nov-12,11.26,11.42,11.22,11.26,291486
19-Nov-12,10.89,11.34,10.84,11.34,434200
16-Nov-12,10.76,10.80,10.66,10.77,400678
15-Nov-12,10.72,10.82,10.64,10.80,286854
14-Nov-12,10.80,10.96,10.68,10.70,257242
13-Nov-12,11.00,11.00,10.78,10.80,175036
12-Nov-12,11.28,11.32,11.02,11.06,123390
9-Nov-12,11.57,11.64,11.28,11.28,185796
8-Nov-12,11.79,11.90,11.71,11.72,269298
7-Nov-12,11.90,11.94,11.57,11.82,400586
6-Nov-12,11.80,12.28,11.72,12.00,735200
5-Nov-12,11.82,11.90,11.69,11.80,435914
2-Nov-12,12.14,12.19,11.75,11.78,292656
1-Nov-12,12.06,12.28,12.00,12.08,237324
31-Oct-12,11.92,12.02,11.83,12.02,166668
26-Oct-12,11.82,11.92,11.70,11.92,299662
25-Oct-12,12.22,12.26,11.58,11.80,439524
24-Oct-12,12.43,12.43,12.14,12.15,305270
23-Oct-12,12.35,12.50,12.20,12.38,349340
22-Oct-12,12.28,12.47,12.19,12.41,238950
19-Oct-12,12.70,12.72,12.30,12.34,259952
18-Oct-12,12.84,12.92,12.72,12.81,432772
17-Oct-12,12.73,12.92,12.69,12.90,263142
16-Oct-12,12.50,12.76,12.46,12.75,280614
15-Oct-12,12.30,12.48,12.14,12.48,173540
12-Oct-12,12.30,12.40,12.24,12.30,186010
11-Oct-12,12.54,12.60,12.31,12.31,159550
10-Oct-12,12.42,12.46,12.27,12.45,209916
9-Oct-12,12.62,12.64,12.36,12.38,193366
8-Oct-12,12.68,12.68,12.54,12.58,596542
5-Oct-12,12.84,12.87,12.63,12.68,396926
4-Oct-12,12.66,12.86,12.64,12.82,458512
3-Oct-12,12.58,12.76,12.48,12.66,525410
2-Oct-12,12.48,12.66,12.32,12.52,688396
1-Oct-12,12.57,12.68,12.40,12.44,828502
28-Sep-12,12.53,12.66,12.43,12.60,413216
27-Sep-12,12.48,12.64,12.42,12.62,765738
26-Sep-12,12.00,12.52,12.27,12.42,660044
25-Sep-12,12.81,12.81,12.46,12.48,782632
24-Sep-12,12.74,12.80,12.56,12.78,1258746
21-Sep-12,12.64,12.68,12.49,12.62,1174086
20-Sep-12,12.42,12.64,12.38,12.48,1551878
19-Sep-12,12.55,12.61,12.43,12.43,542064
18-Sep-12,12.37,12.54,12.35,12.51,925058
17-Sep-12,12.46,12.48,12.24,12.42,654564
14-Sep-12,12.08,12.59,12.08,12.47,1462300
13-Sep-12,11.79,12.06,11.72,12.02,1191782
12-Sep-12,11.58,11.88,11.52,11.84,1129422
11-Sep-12,11.54,11.61,11.48,11.56,429348
10-Sep-12,11.31,11.52,11.27,11.50,948558
7-Sep-12,11.26,11.50,11.20,11.35,679376
6-Sep-12,11.19,11.30,11.09,11.26,799818
5-Sep-12,11.12,11.26,11.00,11.10,1218022
4-Sep-12,11.12,11.12,10.87,11.05,1920326
31-Aug-12,11.27,11.30,10.94,11.09,625744
30-Aug-12,11.22,11.22,11.06,11.10,252582
29-Aug-12,11.22,11.32,11.21,11.22,408546
28-Aug-12,11.31,11.42,11.21,11.24,532782
27-Aug-12,11.44,11.47,11.26,11.30,316538
24-Aug-12,11.38,11.50,11.33,11.44,406650
23-Aug-12,11.47,11.60,11.36,11.42,163850
22-Aug-12,11.56,11.62,11.42,11.52,1534514
21-Aug-12,11.45,11.63,11.36,11.55,345530
20-Aug-12,11.38,11.49,11.34,11.44,430538
17-Aug-12,11.28,11.48,11.13,11.44,806626
16-Aug-12,11.38,11.38,11.28,11.31,458464
15-Aug-12,11.44,11.46,11.30,11.35,310944
14-Aug-12,11.47,11.54,11.31,11.36,422110
13-Aug-12,11.68,12.26,11.38,11.46,836540
10-Aug-12,11.00,12.16,10.78,11.78,2366782
9-Aug-12,12.53,13.10,12.39,12.64,527738
8-Aug-12,12.38,12.62,12.02,12.50,595644
7-Aug-12,12.38,12.45,12.24,12.42,556026
6-Aug-12,12.33,12.44,11.67,12.34,721466
3-Aug-12,12.24,12.38,12.15,12.30,617214
2-Aug-12,12.04,12.22,11.83,12.13,458638
1-Aug-12,12.17,12.22,12.04,12.04,375944
31-Jul-12,12.20,12.29,12.12,12.15,395818
30-Jul-12,12.30,12.34,12.17,12.28,627592
27-Jul-12,12.26,12.35,12.06,12.28,359044
26-Jul-12,12.28,12.36,12.06,12.22,211892
25-Jul-12,12.36,12.40,12.11,12.17,328412
24-Jul-12,12.38,12.46,12.20,12.34,1139478
23-Jul-12,12.04,12.39,12.02,12.31,721278
20-Jul-12,12.27,12.44,12.24,12.30,609750
19-Jul-12,12.43,12.48,12.30,12.34,636728
18-Jul-12,12.18,12.46,12.12,12.44,5427906
17-Jul-12,13.07,13.22,12.94,12.98,1021156
16-Jul-12,13.21,13.25,12.88,13.04,206058
13-Jul-12,13.22,13.52,13.22,13.30,167844
12-Jul-12,13.08,13.25,12.93,13.20,169876
11-Jul-12,13.10,13.26,12.98,13.18,336520
10-Jul-12,13.28,13.30,12.93,13.02,529812
9-Jul-12,13.22,13.38,13.06,13.18,339876
6-Jul-12,13.28,13.35,13.19,13.22,302374
5-Jul-12,12.90,13.35,12.90,13.34,654746
3-Jul-12,12.60,12.93,12.60,12.93,164412
2-Jul-12,12.64,12.83,12.42,12.56,596192
29-Jun-12,12.30,12.64,12.30,12.50,441572
28-Jun-12,11.82,12.11,11.76,12.06,293338
27-Jun-12,11.42,11.89,11.37,11.85,357286
26-Jun-12,11.22,11.42,11.20,11.36,248766
25-Jun-12,11.51,11.51,11.22,11.26,180360
22-Jun-12,11.42,11.68,11.36,11.61,2468786
21-Jun-12,11.68,11.72,11.28,11.39,272112
20-Jun-12,11.76,11.86,11.66,11.72,161066
19-Jun-12,11.67,11.81,11.67,11.80,370980
18-Jun-12,11.54,11.75,11.49,11.66,365810
15-Jun-12,11.46,11.68,11.36,11.60,672962
14-Jun-12,11.54,11.54,11.38,11.49,433166
13-Jun-12,11.55,11.75,11.45,11.59,228464
12-Jun-12,11.56,11.62,11.46,11.62,304888
11-Jun-12,11.74,11.74,11.50,11.50,338170
8-Jun-12,11.72,11.77,11.66,11.70,323152
7-Jun-12,11.90,11.90,11.71,11.74,289676
6-Jun-12,11.93,12.00,11.81,11.87,481930
5-Jun-12,11.69,11.93,11.64,11.87,635402
4-Jun-12,11.70,11.80,11.53,11.76,325016
1-Jun-12,11.57,11.72,11.54,11.68,423246
31-May-12,11.65,11.81,11.59,11.79,382134
30-May-12,11.58,11.74,11.52,11.62,375110
29-May-12,11.64,11.75,11.52,11.68,235044
25-May-12,11.50,11.66,11.50,11.59,177512
24-May-12,11.52,11.54,11.37,11.50,304408
23-May-12,11.54,11.60,11.38,11.50,484264
22-May-12,11.63,11.65,11.52,11.64,335994
21-May-12,11.60,11.72,11.50,11.62,324806
18-May-12,11.80,11.95,11.50,11.56,651528
17-May-12,12.04,12.10,11.74,11.74,189026
16-May-12,12.26,12.29,11.94,12.05,178652
15-May-12,11.84,12.26,11.80,12.20,408930
14-May-12,11.70,11.96,11.68,11.85,536146
11-May-12,11.52,11.80,11.42,11.77,387006
10-May-12,11.68,11.74,11.29,11.55,188774
9-May-12,11.55,11.76,11.12,11.64,384330
8-May-12,10.70,11.57,10.25,11.50,532634
7-May-12,11.71,11.82,11.61,11.68,565342
4-May-12,11.80,11.80,11.66,11.74,271258
3-May-12,11.85,11.88,11.75,11.87,136602
2-May-12,11.73,11.96,11.73,11.88,137372
1-May-12,11.87,12.12,11.74,11.80,215852
30-Apr-12,12.10,12.13,11.86,11.88,362976
27-Apr-12,12.14,12.18,11.96,12.10,230380
26-Apr-12,11.90,12.22,11.90,12.12,283108
25-Apr-12,11.83,12.02,11.78,11.90,174486
24-Apr-12,11.58,11.72,11.58,11.71,355650
23-Apr-12,11.47,11.62,11.06,11.56,280010
20-Apr-12,11.55,11.67,11.40,11.66,261076
19-Apr-12,11.36,11.54,11.28,11.38,217862
18-Apr-12,11.39,11.47,11.31,11.38,413486
17-Apr-12,11.45,11.59,11.40,11.46,222366
16-Apr-12,11.36,11.44,11.22,11.38,153778
13-Apr-12,11.49,11.54,11.30,11.30,121748
12-Apr-12,11.46,11.62,11.43,11.56,152644
11-Apr-12,11.46,11.48,11.30,11.48,173004
10-Apr-12,11.35,11.43,11.31,11.36,973144
9-Apr-12,11.34,11.43,11.10,11.34,166174
5-Apr-12,11.36,11.56,11.21,11.53,211616
4-Apr-12,11.50,11.78,11.28,11.44,148274
3-Apr-12,11.82,11.84,11.58,11.62,133162
2-Apr-12,11.60,11.86,11.59,11.82,250514
30-Mar-12,11.73,11.75,11.56,11.66,232540
29-Mar-12,11.64,11.69,11.53,11.64,147630
28-Mar-12,11.62,11.75,11.47,11.74,270838
27-Mar-12,11.60,11.71,11.48,11.62,197956
26-Mar-12,11.64,11.80,11.48,11.60,328356
23-Mar-12,11.60,11.60,11.43,11.55,189864
22-Mar-12,11.40,11.56,11.34,11.56,331460
21-Mar-12,11.47,11.57,11.47,11.48,200810
20-Mar-12,11.52,11.63,11.42,11.48,263136
19-Mar-12,11.54,11.62,11.18,11.56,1762450
16-Mar-12,11.12,11.25,11.06,11.14,781356
15-Mar-12,10.68,11.16,10.68,11.16,1174250
14-Mar-12,10.50,10.66,10.42,10.65,687862
13-Mar-12,10.55,10.55,10.46,10.51,292226
12-Mar-12,10.49,10.54,10.31,10.49,1244094
9-Mar-12,10.06,10.34,9.92,10.33,188232
8-Mar-12,10.12,10.20,9.99,10.06,595470
7-Mar-12,10.10,10.17,10.00,10.12,116176
6-Mar-12,10.16,10.18,10.00,10.03,167616
5-Mar-12,10.29,10.31,10.20,10.28,102128
2-Mar-12,10.54,10.56,10.28,10.28,320080
1-Mar-12,10.40,10.69,10.16,10.52,448488
29-Feb-12,10.35,10.52,10.32,10.36,575082
28-Feb-12,10.29,10.36,10.20,10.34,673696
27-Feb-12,9.80,10.31,9.73,10.27,1646952
24-Feb-12,9.63,9.87,9.56,9.84,825900
23-Feb-12,9.64,9.78,9.56,9.73,446782
22-Feb-12,9.75,9.75,9.28,9.60,787616
21-Feb-12,9.37,9.52,9.36,9.50,350498
17-Feb-12,9.48,9.48,9.30,9.36,870960
16-Feb-12,9.32,9.48,9.28,9.42,594712
15-Feb-12,9.46,9.47,9.21,9.30,444294
14-Feb-12,9.39,9.45,9.33,9.41,255414
13-Feb-12,9.56,9.62,9.38,9.43,307578
10-Feb-12,9.48,9.58,9.44,9.52,150082
9-Feb-12,9.55,9.61,9.46,9.56,70038
8-Feb-12,9.50,9.59,9.32,9.55,236948
7-Feb-12,9.52,9.54,9.46,9.51,131894
6-Feb-12,9.45,9.54,9.45,9.52,228674
3-Feb-12,9.66,9.66,9.48,9.50,452170
2-Feb-12,9.50,9.54,9.40,9.50,305944
1-Feb-12,9.44,9.58,9.44,9.50,377982
31-Jan-12,9.50,9.52,9.31,9.38,171262
30-Jan-12,9.52,9.52,9.35,9.42,95700
27-Jan-12,9.41,9.59,9.41,9.56,169270
26-Jan-12,9.50,9.52,9.40,9.44,139986
25-Jan-12,9.50,9.60,9.40,9.50,230322
24-Jan-12,9.44,9.50,9.32,9.50,281624
23-Jan-12,9.50,9.52,9.40,9.46,118944
20-Jan-12,9.47,9.58,9.44,9.50,261826
19-Jan-12,9.52,9.54,9.46,9.50,141130
18-Jan-12,9.36,9.54,9.29,9.48,318562
17-Jan-12,9.34,9.38,9.25,9.35,195176
13-Jan-12,9.32,9.38,9.14,9.24,86018
12-Jan-12,9.32,9.53,9.22,9.38,273340
11-Jan-12,9.26,9.34,9.16,9.32,155464
10-Jan-12,9.12,9.25,9.10,9.24,237602
9-Jan-12,9.06,9.06,8.98,9.00,148004
6-Jan-12,9.02,9.09,8.92,9.00,62654
5-Jan-12,8.94,9.16,8.90,9.00,160588
4-Jan-12,9.01,9.06,8.92,8.95,359854
3-Jan-12,9.21,9.24,8.98,9.05,257138
30-Dec-11,9.11,9.14,9.02,9.03,140256
29-Dec-11,9.04,9.12,9.00,9.10,103224
28-Dec-11,9.08,9.08,8.92,9.00,139750
27-Dec-11,9.13,9.21,9.07,9.10,121562
23-Dec-11,9.22,9.22,9.06,9.14,90030
22-Dec-11,9.00,9.26,8.99,9.20,290382
21-Dec-11,9.15,9.15,8.86,9.01,337306
20-Dec-11,8.92,9.17,8.76,9.16,498030
19-Dec-11,8.90,8.97,8.74,8.78,447324
16-Dec-11,8.43,8.88,8.37,8.86,1834308
15-Dec-11,8.30,8.53,8.26,8.44,454366
14-Dec-11,8.18,8.28,8.12,8.24,517808
13-Dec-11,8.20,8.28,8.12,8.26,610548
12-Dec-11,8.14,8.16,8.06,8.14,201482
9-Dec-11,8.02,8.25,8.02,8.24,274998
8-Dec-11,8.06,8.11,7.96,8.02,306694
7-Dec-11,8.11,8.16,7.96,8.12,222382
6-Dec-11,8.06,8.20,8.00,8.14,194456
5-Dec-11,8.03,8.12,7.92,8.06,273104
2-Dec-11,8.06,8.06,7.90,7.93,84838
1-Dec-11,7.98,8.06,7.95,7.96,158102
30-Nov-11,7.95,8.05,7.88,8.02,428118
29-Nov-11,7.64,7.74,7.55,7.68,198996
28-Nov-11,7.68,7.75,7.50,7.63,297416
25-Nov-11,7.55,7.64,7.44,7.46,109530
23-Nov-11,7.82,7.82,7.58,7.60,160238
22-Nov-11,7.96,8.06,7.87,7.87,182512
21-Nov-11,7.92,8.00,7.90,7.97,192390
18-Nov-11,7.96,8.06,7.90,8.06,199124
17-Nov-11,8.06,8.12,7.92,7.98,179790
16-Nov-11,8.12,8.30,8.04,8.06,180094
15-Nov-11,8.10,8.22,8.02,8.18,154168
14-Nov-11,8.25,8.28,8.12,8.14,345754
11-Nov-11,8.12,8.28,8.12,8.25,191476
10-Nov-11,8.12,8.15,7.93,8.06,327742
9-Nov-11,8.08,8.16,7.98,8.02,252900
8-Nov-11,8.01,8.48,8.01,8.23,481120
7-Nov-11,8.06,8.12,7.81,8.11,77664
4-Nov-11,8.12,8.19,8.05,8.10,139676
3-Nov-11,8.00,8.22,7.87,8.20,186128
2-Nov-11,7.73,8.01,7.70,7.95,302396
1-Nov-11,7.58,7.70,7.54,7.62,302882
31-Oct-11,8.16,8.16,7.90,7.93,237446
28-Oct-11,8.20,8.34,8.02,8.26,310280
27-Oct-11,8.00,8.68,7.98,8.22,408488
26-Oct-11,7.66,7.82,7.53,7.76,249644
25-Oct-11,7.76,7.76,7.54,7.58,231418
24-Oct-11,7.53,8.10,7.53,7.78,307426
21-Oct-11,7.54,7.62,7.40,7.50,330590
20-Oct-11,7.42,7.48,7.24,7.40,160448
19-Oct-11,7.50,7.62,7.40,7.42,238012
18-Oct-11,7.42,7.66,7.42,7.58,325130
17-Oct-11,7.53,8.44,7.35,7.40,201636
14-Oct-11,7.50,7.60,7.41,7.56,619526
13-Oct-11,7.40,7.48,7.35,7.44,167172
12-Oct-11,7.35,7.47,7.29,7.45,289872
11-Oct-11,7.28,7.36,7.20,7.26,239368
10-Oct-11,7.24,7.34,7.16,7.32,199576
7-Oct-11,7.34,7.34,7.08,7.12,374912
6-Oct-11,7.31,7.40,7.27,7.36,185210
5-Oct-11,7.12,7.38,7.00,7.32,283166
4-Oct-11,6.64,7.12,6.64,7.10,578336
3-Oct-11,7.11,7.11,6.74,6.74,454478
30-Sep-11,7.16,7.37,7.14,7.14,462674
29-Sep-11,7.21,7.48,7.12,7.25,402456
28-Sep-11,7.19,7.19,6.98,7.05,350324
27-Sep-11,7.14,7.24,7.08,7.19,401530
26-Sep-11,6.97,7.04,6.85,7.00,237686
23-Sep-11,6.78,6.94,6.76,6.92,1013778
22-Sep-11,6.97,7.08,6.75,6.79,333158
21-Sep-11,7.44,7.52,7.12,7.13,297860
20-Sep-11,7.62,7.72,7.40,7.42,484728
19-Sep-11,7.82,7.82,7.54,7.60,291284
16-Sep-11,8.02,8.02,7.84,7.92,460996
15-Sep-11,8.00,8.00,7.85,7.98,140316
14-Sep-11,7.92,7.98,7.72,7.91,335010
13-Sep-11,7.90,7.94,7.76,7.84,258190
12-Sep-11,7.40,7.86,7.40,7.84,229218
9-Sep-11,7.66,7.74,7.44,7.50,335496
8-Sep-11,7.92,7.92,7.72,7.73,236858
7-Sep-11,7.79,7.97,7.69,7.96,195054
6-Sep-11,7.50,7.70,7.37,7.66,298270
2-Sep-11,7.98,8.04,7.70,7.72,209588
1-Sep-11,8.26,8.42,8.09,8.12,245114
31-Aug-11,8.06,8.28,8.03,8.24,272034
30-Aug-11,8.00,8.10,7.90,8.02,271642
29-Aug-11,7.86,8.06,7.86,8.06,204736
26-Aug-11,7.58,7.80,7.44,7.78,168484
25-Aug-11,7.84,7.92,7.61,7.64,151046
24-Aug-11,7.70,7.94,7.55,7.78,380646
23-Aug-11,7.48,7.74,7.22,7.73,539730
22-Aug-11,7.78,7.83,7.39,7.48,335752
19-Aug-11,7.70,7.93,7.53,7.70,191884
18-Aug-11,8.24,8.24,7.80,7.84,371292
17-Aug-11,8.69,8.74,8.35,8.48,138186
16-Aug-11,8.62,8.74,8.49,8.67,164832
15-Aug-11,8.51,8.74,8.48,8.72,196596
12-Aug-11,8.57,8.60,8.40,8.48,245452
11-Aug-11,8.26,8.66,8.21,8.52,266280
10-Aug-11,8.45,8.52,8.18,8.21,253434
9-Aug-11,8.59,8.72,8.06,8.68,388210
8-Aug-11,8.90,9.08,8.32,8.35,472896
5-Aug-11,9.20,9.26,8.88,9.12,368858
4-Aug-11,9.06,9.36,8.82,9.10,399522
3-Aug-11,9.16,9.55,8.97,9.42,307564
2-Aug-11,9.18,9.17,8.97,9.16,304102
1-Aug-11,9.34,9.75,9.08,9.22,391372
29-Jul-11,9.30,9.40,9.18,9.26,311034
28-Jul-11,9.40,9.51,9.30,9.36,244998
27-Jul-11,9.58,9.58,9.32,9.38,415608
26-Jul-11,9.68,9.76,9.60,9.64,193414
25-Jul-11,9.64,9.81,9.56,9.64,403446
22-Jul-11,9.84,10.11,9.60,9.74,1990742
21-Jul-11,10.02,10.18,10.02,10.12,82892
20-Jul-11,10.20,10.20,10.00,10.06,100672
19-Jul-11,10.08,10.25,10.08,10.18,118862
18-Jul-11,9.99,10.04,9.82,10.00,237312
15-Jul-11,9.98,10.06,9.95,10.00,178714
14-Jul-11,10.06,10.10,9.88,9.96,209264
13-Jul-11,10.10,10.13,10.02,10.06,180764
12-Jul-11,10.16,10.24,10.02,10.04,145176
11-Jul-11,10.36,10.63,10.16,10.21,171918
8-Jul-11,10.46,10.74,10.08,10.50,251564
7-Jul-11,10.40,10.67,10.36,10.59,195618
6-Jul-11,10.08,10.34,10.06,10.32,271722
5-Jul-11,9.98,10.12,9.95,10.08,262278
1-Jul-11,9.96,10.04,9.80,9.98,166888
30-Jun-11,9.82,9.98,9.82,9.94,175330
29-Jun-11,9.74,9.82,9.70,9.78,126194
28-Jun-11,9.48,9.74,9.48,9.74,284284
27-Jun-11,9.53,9.63,9.33,9.48,311102
24-Jun-11,9.56,9.62,9.37,9.52,4251708
23-Jun-11,9.38,9.58,9.32,9.54,419472
22-Jun-11,9.49,9.56,9.36,9.46,237150
21-Jun-11,9.40,9.54,9.28,9.54,287768
20-Jun-11,9.24,9.56,9.24,9.40,264086
17-Jun-11,9.50,9.51,9.35,9.42,151984
16-Jun-11,9.43,9.67,9.40,9.48,212550
15-Jun-11,9.45,9.48,9.35,9.42,131092
14-Jun-11,9.34,9.60,9.34,9.52,206164
13-Jun-11,9.30,9.42,9.24,9.28,191660
10-Jun-11,9.34,9.36,9.25,9.26,197328
9-Jun-11,9.50,9.50,9.23,9.39,419326
8-Jun-11,9.44,9.56,9.36,9.49,275712
7-Jun-11,9.57,9.62,9.44,9.46,197080
6-Jun-11,9.54,9.66,9.48,9.50,146352
3-Jun-11,9.54,9.78,9.50,9.50,111114
2-Jun-11,9.61,9.68,9.50,9.65,112196
1-Jun-11,9.70,9.90,9.60,9.62,167926
31-May-11,9.71,9.78,9.66,9.78,225420
27-May-11,9.70,9.70,9.58,9.65,30076
26-May-11,9.54,9.66,9.42,9.66,91356
25-May-11,9.50,9.60,9.42,9.58,136424
24-May-11,9.40,9.60,9.23,9.50,165658
23-May-11,9.66,9.66,9.33,9.37,90732
20-May-11,9.78,9.85,9.70,9.74,182062
19-May-11,9.92,9.95,9.77,9.84,80220
18-May-11,9.38,9.94,9.38,9.87,75726
17-May-11,9.71,9.77,9.63,9.71,47268
16-May-11,9.82,9.90,9.75,9.76,185756
13-May-11,9.95,9.99,9.78,9.87,135494
12-May-11,10.14,10.20,9.86,10.00,273540
11-May-11,10.30,10.34,10.12,10.22,142970
10-May-11,9.82,10.36,9.82,10.14,120452
9-May-11,10.25,10.34,10.17,10.20,99428
6-May-11,10.03,10.30,10.02,10.24,172858
5-May-11,10.00,10.16,9.95,10.00,124146
4-May-11,9.99,10.23,9.94,10.07,140556
3-May-11,10.00,10.10,9.97,10.00,118448
2-May-11,10.20,10.20,9.98,10.03,182384
29-Apr-11,10.11,10.29,10.00,10.20,212508
28-Apr-11,10.00,10.10,9.92,10.08,114464
27-Apr-11,10.00,10.05,9.93,10.02,172764
26-Apr-11,10.16,10.16,9.98,10.02,403424
25-Apr-11,10.10,10.14,9.94,10.14,107274
21-Apr-11,10.20,10.20,10.00,10.13,69618
20-Apr-11,10.10,10.16,10.03,10.12,53280
19-Apr-11,10.03,10.06,9.82,10.01,92558
18-Apr-11,10.08,10.08,9.92,10.00,126922
15-Apr-11,10.04,10.24,10.04,10.14,77928
14-Apr-11,10.04,10.12,10.00,10.10,197454
13-Apr-11,10.02,10.12,10.02,10.06,70492
12-Apr-11,10.00,10.09,9.98,10.00,115778
11-Apr-11,10.07,10.13,10.01,10.04,75970
8-Apr-11,10.08,10.12,9.98,10.06,50598
7-Apr-11,10.18,10.22,10.02,10.03,161570
6-Apr-11,10.12,10.23,10.05,10.16,139884
5-Apr-11,10.26,10.28,10.10,10.12,217706
4-Apr-11,10.36,10.42,10.27,10.28,130378
1-Apr-11,10.21,10.47,10.20,10.30,144192
31-Mar-11,10.05,10.22,9.98,10.21,162182
30-Mar-11,10.02,10.28,9.99,10.22,90688
29-Mar-11,10.03,10.26,9.99,10.04,244952
28-Mar-11,10.14,10.29,10.00,10.06,217542
25-Mar-11,10.06,10.24,10.00,10.10,101722
24-Mar-11,10.20,10.20,9.98,10.04,108416
23-Mar-11,9.98,10.24,9.98,10.18,308460
22-Mar-11,9.74,10.06,9.66,9.89,255766
21-Mar-11,9.58,9.75,9.51,9.75,206136
18-Mar-11,9.45,9.56,9.42,9.54,230516
17-Mar-11,9.38,9.61,9.35,9.41,199176
16-Mar-11,9.32,9.46,9.25,9.26,299116
15-Mar-11,9.33,9.46,9.28,9.36,298818
14-Mar-11,9.33,9.66,9.25,9.45,225128
11-Mar-11,9.34,9.45,9.24,9.39,275550
10-Mar-11,9.40,9.46,9.24,9.34,344326
9-Mar-11,9.48,9.52,9.38,9.48,450362
8-Mar-11,9.37,9.58,9.37,9.48,218268
7-Mar-11,9.73,9.73,9.35,9.38,425884
4-Mar-11,9.82,9.94,9.50,9.67,101894
3-Mar-11,9.80,9.94,9.75,9.87,192570
2-Mar-11,9.79,9.89,9.48,9.74,249664
1-Mar-11,9.82,9.82,9.73,9.75,293704
28-Feb-11,9.98,9.99,9.75,9.80,233094
25-Feb-11,9.90,10.06,9.85,9.98,174376
24-Feb-11,9.76,10.00,9.76,9.92,223972
23-Feb-11,9.86,10.00,9.39,9.80,506284
22-Feb-11,10.03,10.22,9.90,10.14,494568
18-Feb-11,10.52,10.78,9.98,10.13,871412
17-Feb-11,9.90,10.11,9.56,10.08,342352
16-Feb-11,9.86,9.99,9.80,9.86,184382
15-Feb-11,9.60,9.96,9.58,9.88,330238
14-Feb-11,9.65,9.67,9.49,9.60,260416
11-Feb-11,9.32,9.62,9.28,9.46,411316
10-Feb-11,9.36,9.50,9.28,9.39,451500
9-Feb-11,9.42,9.52,9.36,9.42,269346
8-Feb-11,9.38,9.54,9.36,9.45,384284
7-Feb-11,9.53,9.62,9.36,9.38,837042
4-Feb-11,9.20,9.58,9.13,9.50,9344720
3-Feb-11,9.16,9.26,8.74,8.80,733994
2-Feb-11,9.08,9.20,9.08,9.16,59748
1-Feb-11,9.06,9.32,9.02,9.14,82314
31-Jan-11,9.16,9.48,8.98,9.04,135520
28-Jan-11,9.50,9.56,9.12,9.12,218068
27-Jan-11,9.53,9.55,9.42,9.48,98986
26-Jan-11,9.48,9.57,9.42,9.53,92920
25-Jan-11,9.35,9.50,9.27,9.40,121786
24-Jan-11,9.34,9.48,9.26,9.43,71942
21-Jan-11,9.48,9.56,9.35,9.35,69104
20-Jan-11,9.44,9.66,9.38,9.46,146958
19-Jan-11,9.42,9.64,9.42,9.50,304190
18-Jan-11,9.44,9.52,9.18,9.44,152034
14-Jan-11,9.75,9.78,9.38,9.50,115680
13-Jan-11,9.78,9.97,9.62,9.76,147976
12-Jan-11,10.08,10.17,10.00,10.06,84258
11-Jan-11,10.20,10.42,9.94,10.02,132046
10-Jan-11,9.84,10.19,9.80,10.18,94876
7-Jan-11,9.91,9.91,9.72,9.86,137984
6-Jan-11,9.86,9.93,9.76,9.87,147566
5-Jan-11,9.86,9.98,9.72,9.88,135680
4-Jan-11,10.02,10.06,9.56,9.84,101518
3-Jan-11,10.32,10.50,9.87,10.01,248990
31-Dec-10,10.34,10.98,10.24,10.26,131222
30-Dec-10,10.43,10.43,10.20,10.33,27726
29-Dec-10,10.45,10.45,10.25,10.26,60280
28-Dec-10,10.51,10.60,10.25,10.43,128182
27-Dec-10,10.22,10.50,10.02,10.47,46896
23-Dec-10,10.32,10.32,10.18,10.20,85828
22-Dec-10,10.24,10.50,10.18,10.31,131630
21-Dec-10,10.19,10.36,10.05,10.33,55750
20-Dec-10,9.96,10.20,9.88,10.13,366434
17-Dec-10,10.00,10.13,9.49,9.88,183834
16-Dec-10,9.90,10.03,9.82,9.98,133260
15-Dec-10,9.82,10.00,9.70,9.85,146146
14-Dec-10,9.91,9.91,9.48,9.82,118096
13-Dec-10,10.16,10.16,9.76,9.93,150136
10-Dec-10,10.21,10.27,9.94,10.16,141400
9-Dec-10,10.50,10.50,10.16,10.22,91296
8-Dec-10,10.16,10.49,10.08,10.48,186200
7-Dec-10,9.78,10.18,9.78,10.13,189144
6-Dec-10,9.68,9.80,9.59,9.71,156286
3-Dec-10,10.18,10.18,9.69,9.70,204244
2-Dec-10,10.30,10.30,10.06,10.09,234418
1-Dec-10,9.76,10.57,9.76,10.30,217304
30-Nov-10,9.78,10.11,9.56,9.70,1165714
29-Nov-10,9.84,9.89,9.56,9.88,192082
26-Nov-10,9.66,9.94,9.65,9.92,78664
24-Nov-10,9.38,9.65,9.33,9.57,149622
23-Nov-10,9.25,9.38,9.00,9.35,177540
22-Nov-10,9.07,9.38,8.92,9.38,120380
19-Nov-10,9.12,9.23,8.92,9.08,183302
18-Nov-10,9.14,9.14,9.04,9.12,175360
17-Nov-10,9.20,9.25,9.00,9.07,117754
16-Nov-10,9.04,9.24,8.93,9.22,190806
15-Nov-10,9.13,9.22,9.08,9.08,138026
12-Nov-10,9.10,9.25,9.03,9.16,193926
11-Nov-10,9.08,9.25,8.96,9.22,323568
10-Nov-10,9.02,9.08,8.75,8.87,287634
9-Nov-10,8.88,9.02,8.84,9.00,254242
8-Nov-10,8.75,8.96,8.75,8.88,120616
5-Nov-10,8.70,8.79,8.62,8.76,269858
4-Nov-10,8.62,8.85,8.53,8.73,689236
3-Nov-10,8.58,8.60,8.42,8.55,497542
2-Nov-10,8.65,8.65,8.48,8.58,846018
1-Nov-10,8.65,8.75,8.59,8.65,205424
29-Oct-10,8.70,8.77,8.58,8.65,472448
28-Oct-10,8.74,8.88,8.62,8.72,284282
27-Oct-10,8.65,8.70,8.54,8.70,167182
26-Oct-10,8.58,8.70,8.58,8.66,140020
25-Oct-10,8.44,8.66,8.42,8.63,418494
22-Oct-10,8.40,8.46,8.32,8.40,35460
21-Oct-10,8.46,8.46,8.37,8.40,123094
20-Oct-10,8.36,8.48,8.28,8.42,47478
19-Oct-10,8.38,8.46,8.26,8.32,79724
18-Oct-10,8.52,8.54,8.44,8.50,95062
15-Oct-10,8.50,8.52,8.48,8.52,357656
14-Oct-10,8.36,8.50,8.33,8.48,159012
13-Oct-10,8.46,8.50,8.35,8.40,100154
12-Oct-10,8.42,8.48,8.38,8.45,93974
11-Oct-10,8.18,8.50,8.18,8.46,73264
8-Oct-10,8.30,8.50,8.30,8.48,104902
7-Oct-10,8.44,8.50,8.31,8.46,76360
6-Oct-10,8.30,8.38,8.28,8.36,112862
5-Oct-10,8.32,8.38,8.16,8.32,209570
4-Oct-10,8.36,8.48,8.22,8.26,79388
1-Oct-10,7.96,8.42,7.82,8.36,281882
30-Sep-10,7.82,7.92,7.70,7.90,126242
29-Sep-10,7.66,7.79,7.46,7.78,54018
28-Sep-10,7.66,7.74,7.54,7.66,151980
27-Sep-10,7.43,7.72,7.41,7.63,158890
24-Sep-10,7.74,7.84,7.34,7.37,375612
23-Sep-10,7.62,7.94,7.61,7.63,235226
22-Sep-10,7.60,7.71,7.59,7.66,222330
21-Sep-10,7.68,7.94,7.62,7.65,188718
20-Sep-10,7.59,7.74,7.50,7.72,248262
17-Sep-10,7.48,7.75,7.36,7.60,310218
16-Sep-10,7.07,7.55,7.00,7.40,181586
15-Sep-10,7.28,7.28,7.04,7.10,81244
14-Sep-10,7.40,7.42,7.26,7.28,29536
13-Sep-10,7.35,7.49,7.33,7.40,170352
10-Sep-10,7.25,7.29,7.22,7.27,287430
9-Sep-10,7.34,7.34,7.19,7.26,247866
8-Sep-10,7.26,7.34,7.12,7.24,105928
7-Sep-10,7.22,7.33,7.14,7.26,337636
3-Sep-10,7.25,7.29,7.16,7.23,112174
2-Sep-10,7.23,7.30,7.05,7.16,131260
1-Sep-10,7.15,7.22,7.04,7.20,73734
31-Aug-10,7.21,7.21,7.01,7.04,85194
30-Aug-10,7.32,7.48,7.00,7.16,188966
27-Aug-10,6.96,7.38,6.77,7.38,89910
26-Aug-10,6.88,7.12,6.85,6.88,56340
25-Aug-10,6.74,6.89,6.65,6.87,168946
24-Aug-10,6.69,6.86,6.64,6.78,129950
23-Aug-10,7.09,7.16,6.68,6.76,153746
20-Aug-10,7.16,7.21,7.05,7.09,226960
19-Aug-10,7.39,7.51,7.04,7.22,144538
18-Aug-10,7.64,7.64,7.40,7.44,59954
17-Aug-10,7.60,7.65,7.36,7.64,86100
16-Aug-10,7.54,7.54,7.32,7.53,112260
13-Aug-10,7.35,7.58,7.25,7.56,212638
12-Aug-10,7.56,7.60,7.25,7.40,280390
11-Aug-10,8.00,8.04,7.64,7.67,174050
10-Aug-10,8.31,8.31,8.08,8.14,67286
9-Aug-10,8.40,8.50,8.12,8.40,103994
6-Aug-10,8.19,8.37,8.10,8.34,84406
5-Aug-10,8.47,8.50,8.26,8.28,73988
4-Aug-10,8.40,8.55,8.40,8.52,88354
3-Aug-10,8.50,8.66,8.38,8.38,88998
2-Aug-10,8.61,8.68,8.47,8.52,119642
30-Jul-10,8.30,8.58,8.25,8.55,170402
29-Jul-10,8.47,8.47,8.25,8.34,48416
28-Jul-10,8.48,8.52,8.33,8.37,132390
27-Jul-10,8.54,8.61,8.43,8.50,250750
26-Jul-10,8.46,8.70,8.36,8.46,236072
23-Jul-10,8.20,8.42,8.16,8.39,127946
22-Jul-10,8.16,8.36,8.14,8.25,325098
21-Jul-10,8.36,8.49,8.02,8.03,96486
20-Jul-10,8.16,8.40,8.11,8.28,178004
19-Jul-10,8.06,8.36,8.05,8.24,156386
16-Jul-10,8.38,8.40,8.04,8.12,220922
15-Jul-10,8.51,8.51,8.39,8.46,139932
14-Jul-10,8.77,8.80,8.38,8.52,130992
13-Jul-10,9.13,9.13,8.81,8.82,837658
12-Jul-10,9.10,9.18,9.04,9.06,242740
9-Jul-10,8.85,9.14,8.71,9.10,333272
8-Jul-10,8.62,8.91,8.34,8.88,377544
7-Jul-10,8.30,8.62,8.25,8.58,601240
6-Jul-10,8.30,8.38,8.11,8.28,192184
2-Jul-10,8.04,8.31,7.86,8.24,255492
1-Jul-10,8.06,8.14,7.96,7.98,241822
30-Jun-10,8.19,8.46,8.00,8.02,200884
29-Jun-10,8.38,8.65,8.10,8.23,389952
28-Jun-10,8.25,8.54,8.08,8.44,284120
25-Jun-10,8.09,8.34,7.95,8.28,3583142
24-Jun-10,8.04,8.42,7.90,8.08,408572
23-Jun-10,8.11,8.24,7.68,8.04,531728
22-Jun-10,8.30,8.64,8.04,8.15,171108
21-Jun-10,8.56,8.80,8.32,8.33,191512
18-Jun-10,8.84,8.85,8.26,8.50,333210
17-Jun-10,9.15,9.20,8.66,8.78,217294
16-Jun-10,9.00,9.20,8.98,9.12,354046
15-Jun-10,8.85,9.12,8.68,9.00,450184
14-Jun-10,8.38,8.85,8.32,8.68,377962
11-Jun-10,8.14,8.38,8.14,8.38,56576
10-Jun-10,8.18,8.36,8.10,8.20,156260
9-Jun-10,8.12,8.25,8.07,8.12,127442
8-Jun-10,8.06,8.19,8.05,8.15,410418
7-Jun-10,8.18,8.24,7.88,8.10,507426
4-Jun-10,8.33,8.42,8.12,8.22,234128
3-Jun-10,8.32,8.50,8.32,8.39,354732
2-Jun-10,8.10,8.38,8.10,8.38,521064
1-Jun-10,8.10,8.22,8.00,8.18,187512
28-May-10,8.18,8.25,7.78,8.16,258180
27-May-10,8.18,8.25,8.06,8.24,234152
26-May-10,7.86,8.14,7.85,8.12,208556
25-May-10,7.83,7.92,7.65,7.84,140656
24-May-10,7.50,7.96,7.50,7.88,175324
21-May-10,7.62,7.81,7.45,7.52,145508
20-May-10,8.10,8.19,7.68,7.69,226868
19-May-10,8.25,8.32,8.15,8.17,115354
18-May-10,8.25,8.38,8.24,8.29,196916
17-May-10,8.32,8.38,8.12,8.24,206090
14-May-10,8.26,8.46,8.25,8.34,310638
13-May-10,8.14,8.40,8.08,8.36,495956
12-May-10,7.72,8.22,7.72,8.06,386314
11-May-10,7.71,7.71,7.22,7.66,1133010
10-May-10,8.27,8.27,7.59,7.66,559510
7-May-10,7.98,8.18,7.62,7.88,245170
6-May-10,8.10,8.18,7.85,7.95,255710
5-May-10,8.26,8.36,8.05,8.16,235458
4-May-10,8.30,8.42,8.22,8.32,564876
3-May-10,8.35,8.50,8.11,8.36,216874
30-Apr-10,8.41,8.48,8.30,8.39,328484
29-Apr-10,8.30,8.48,8.16,8.40,591762
28-Apr-10,8.22,8.32,7.99,8.26,197960
27-Apr-10,7.96,8.32,7.96,8.28,232054
26-Apr-10,8.14,8.30,8.00,8.22,291228
23-Apr-10,7.98,8.19,7.96,8.05,303000
22-Apr-10,8.18,8.26,7.90,8.00,361840
21-Apr-10,8.26,8.32,8.18,8.18,237514
20-Apr-10,8.25,8.46,8.16,8.24,234992
19-Apr-10,8.50,8.50,8.20,8.27,171216
16-Apr-10,8.16,8.60,8.04,8.50,403436
15-Apr-10,8.22,8.32,8.12,8.28,378478
14-Apr-10,8.19,8.32,8.10,8.22,246216
13-Apr-10,8.15,8.25,8.00,8.21,841310
12-Apr-10,8.09,8.28,7.93,8.26,497926
9-Apr-10,7.80,8.14,7.70,8.00,812756
8-Apr-10,7.56,7.88,7.55,7.86,640198
7-Apr-10,7.63,7.64,7.55,7.55,609870
6-Apr-10,7.52,7.64,7.52,7.64,391640
5-Apr-10,7.64,7.64,7.40,7.52,1336162
31-Mar-10,8.00,8.17,7.50,7.54,15194082
