﻿Date,Open,High,Low,Close,Volume
20-Jun-17,13.69,13.88,13.60,13.73,284833
19-Jun-17,13.71,13.80,13.44,13.68,186062
16-Jun-17,13.43,13.65,13.33,13.61,315343
15-Jun-17,13.25,13.54,13.10,13.53,217079
14-Jun-17,13.86,13.86,13.32,13.34,271500
13-Jun-17,13.66,14.01,13.58,13.84,785592
12-Jun-17,13.48,13.67,13.33,13.60,359339
9-Jun-17,13.31,13.52,13.16,13.50,292146
8-Jun-17,13.09,13.34,13.02,13.32,222288
7-Jun-17,12.96,13.07,12.94,13.03,148735
6-Jun-17,13.00,13.10,12.84,12.96,270233
5-Jun-17,13.08,13.08,12.88,12.99,182906
2-Jun-17,13.15,13.22,12.83,13.12,195833
1-Jun-17,12.89,13.15,12.79,13.12,167156
31-May-17,12.75,12.84,12.55,12.83,175285
30-May-17,12.90,12.90,12.64,12.66,95919
26-May-17,12.90,12.97,12.74,12.90,156249
25-May-17,12.77,12.96,12.60,12.92,244485
24-May-17,12.86,12.91,12.72,12.75,138148
23-May-17,13.00,13.03,12.77,12.87,117229
22-May-17,13.07,13.18,12.89,12.94,228229
19-May-17,13.21,13.31,12.98,13.00,213793
18-May-17,13.11,13.35,12.94,13.24,268739
17-May-17,13.34,13.46,13.06,13.09,184403
16-May-17,13.30,13.48,13.24,13.46,271593
15-May-17,13.15,13.38,13.08,13.29,264610
12-May-17,13.15,13.39,13.00,13.11,301763
11-May-17,13.00,13.07,12.85,13.00,240322
10-May-17,13.21,13.27,12.90,13.10,282094
9-May-17,13.24,13.34,12.88,13.28,678989
8-May-17,13.52,13.54,13.16,13.22,311012
5-May-17,13.40,14.14,12.94,13.45,1167529
4-May-17,13.50,13.57,13.23,13.40,505086
3-May-17,13.76,13.80,13.40,13.50,355720
2-May-17,13.62,13.86,13.44,13.76,645449
1-May-17,13.16,13.73,13.11,13.58,635067
28-Apr-17,13.20,13.34,13.01,13.15,160989
27-Apr-17,13.14,13.25,12.91,13.22,283001
26-Apr-17,13.32,13.40,13.10,13.16,376149
25-Apr-17,13.43,13.58,13.34,13.36,249647
24-Apr-17,13.44,13.44,13.26,13.31,175888
21-Apr-17,13.20,13.44,13.10,13.27,268979
20-Apr-17,13.00,13.37,12.79,13.20,387879
19-Apr-17,12.85,13.00,12.77,12.94,196403
18-Apr-17,12.97,13.00,12.71,12.84,296059
17-Apr-17,12.57,13.01,12.32,13.01,641431
13-Apr-17,12.31,12.81,12.22,12.58,561727
12-Apr-17,12.48,12.48,11.58,12.25,1772297
11-Apr-17,12.61,12.64,12.25,12.50,433552
10-Apr-17,12.90,13.04,12.65,12.68,307675
7-Apr-17,12.95,13.08,12.72,12.87,276984
6-Apr-17,12.94,13.11,12.76,12.98,389084
5-Apr-17,13.06,13.15,12.85,12.93,315185
4-Apr-17,13.05,13.14,12.86,12.93,182414
3-Apr-17,13.30,13.31,12.90,13.05,260568
31-Mar-17,13.35,13.35,13.13,13.26,293153
30-Mar-17,13.36,13.50,13.24,13.36,358358
29-Mar-17,13.04,13.32,13.03,13.29,278014
28-Mar-17,13.02,13.13,12.82,13.07,461290
27-Mar-17,12.53,13.05,12.49,13.02,476500
24-Mar-17,12.52,12.72,12.43,12.64,303608
23-Mar-17,12.18,12.57,12.17,12.50,377229
22-Mar-17,12.13,12.17,12.00,12.15,165294
21-Mar-17,12.25,12.33,12.09,12.10,217377
20-Mar-17,12.31,12.51,12.20,12.21,362126
17-Mar-17,12.07,12.41,11.97,12.36,517185
16-Mar-17,12.06,12.15,11.95,12.09,269983
15-Mar-17,11.86,12.21,11.66,12.07,394756
14-Mar-17,11.95,12.08,11.70,11.74,1212150
13-Mar-17,12.70,13.00,11.90,12.03,1207008
10-Mar-17,12.40,12.74,12.36,12.59,872871
9-Mar-17,12.27,12.48,12.11,12.37,337333
8-Mar-17,12.36,12.50,12.21,12.27,353867
7-Mar-17,12.33,12.55,12.30,12.36,394496
6-Mar-17,12.26,12.48,12.13,12.35,414615
3-Mar-17,12.59,12.78,12.17,12.27,361682
2-Mar-17,12.41,12.74,12.30,12.60,339058
1-Mar-17,12.54,12.73,12.23,12.41,764947
28-Feb-17,12.89,13.00,12.38,12.41,597067
27-Feb-17,12.87,13.16,12.83,12.89,271935
24-Feb-17,12.92,13.12,12.74,12.87,390587
23-Feb-17,13.77,13.84,12.93,13.01,670650
22-Feb-17,14.18,14.21,13.62,13.78,338309
21-Feb-17,14.44,14.50,14.10,14.25,212872
17-Feb-17,14.45,14.59,14.21,14.34,279714
16-Feb-17,14.54,14.71,14.35,14.50,248537
15-Feb-17,14.42,14.62,14.36,14.50,242591
14-Feb-17,14.50,14.63,13.77,14.49,157777
13-Feb-17,14.35,14.58,14.20,14.55,253457
10-Feb-17,13.81,14.44,13.73,14.36,337325
9-Feb-17,13.34,13.84,13.34,13.78,219844
8-Feb-17,13.28,13.42,13.15,13.33,155576
7-Feb-17,13.27,13.45,13.23,13.32,130741
6-Feb-17,13.53,13.60,13.22,13.25,209580
3-Feb-17,13.47,13.71,13.32,13.56,211398
2-Feb-17,13.38,13.60,13.33,13.43,118626
1-Feb-17,13.67,13.84,13.38,13.39,165058
31-Jan-17,13.77,13.80,13.62,13.64,179521
30-Jan-17,13.94,14.01,13.59,13.75,286574
27-Jan-17,14.32,14.33,13.92,14.01,363790
26-Jan-17,14.49,14.66,14.27,14.36,113432
25-Jan-17,14.26,14.60,14.24,14.51,210044
24-Jan-17,14.29,14.41,14.17,14.29,114773
23-Jan-17,13.97,14.28,13.89,14.20,163079
20-Jan-17,14.02,14.16,13.86,14.00,366647
19-Jan-17,14.11,14.15,13.94,14.04,176300
18-Jan-17,14.04,14.24,13.93,14.12,201796
17-Jan-17,14.02,14.41,13.86,14.03,470739
13-Jan-17,14.01,14.16,13.85,14.01,231929
12-Jan-17,13.91,14.24,13.68,14.04,348959
11-Jan-17,13.78,14.01,13.29,13.87,659201
10-Jan-17,13.94,14.06,13.62,13.69,525331
9-Jan-17,14.00,14.04,13.70,13.79,376559
6-Jan-17,14.55,14.55,13.93,14.02,624631
5-Jan-17,14.69,14.93,14.22,14.57,381594
4-Jan-17,14.41,14.68,14.38,14.55,242035
3-Jan-17,14.24,14.39,14.05,14.32,339527
30-Dec-16,14.34,14.34,14.00,14.12,287996
29-Dec-16,14.40,14.58,14.35,14.37,132868
28-Dec-16,14.59,14.59,14.22,14.32,186861
27-Dec-16,14.68,14.73,14.49,14.53,209539
23-Dec-16,14.49,14.68,14.46,14.61,166697
22-Dec-16,14.82,14.92,14.47,14.47,190540
21-Dec-16,14.79,14.93,14.61,14.86,416945
20-Dec-16,15.08,15.25,14.76,14.79,622128
19-Dec-16,14.75,15.30,14.68,15.15,454167
16-Dec-16,14.70,14.97,14.60,14.69,290862
15-Dec-16,14.54,14.82,14.50,14.65,278549
14-Dec-16,14.66,14.85,14.51,14.56,148734
13-Dec-16,14.71,14.84,14.56,14.64,225178
12-Dec-16,14.71,14.71,14.22,14.59,464279
9-Dec-16,15.13,15.19,14.67,14.75,253133
8-Dec-16,15.03,15.32,14.97,15.14,233948
7-Dec-16,14.89,15.13,14.89,15.06,243319
6-Dec-16,14.84,14.91,14.67,14.85,257681
5-Dec-16,14.61,14.87,14.57,14.77,235868
2-Dec-16,14.52,14.75,14.42,14.53,227987
1-Dec-16,14.52,14.84,14.40,14.63,487627
30-Nov-16,14.73,14.77,14.50,14.52,396941
29-Nov-16,14.91,15.15,14.65,14.77,421496
28-Nov-16,15.04,15.25,14.75,14.92,291057
25-Nov-16,15.00,15.19,14.62,15.10,109225
23-Nov-16,14.80,15.26,14.75,15.06,348687
22-Nov-16,14.48,14.94,14.43,14.76,723731
21-Nov-16,14.34,14.46,14.22,14.41,209813
18-Nov-16,14.05,14.28,13.95,14.25,218147
17-Nov-16,13.95,14.12,13.88,14.00,293710
16-Nov-16,14.00,14.12,13.91,13.99,231757
15-Nov-16,14.15,14.25,13.89,14.00,282913
14-Nov-16,14.30,14.47,14.14,14.17,345922
11-Nov-16,14.25,14.43,14.23,14.25,322669
10-Nov-16,13.99,14.46,13.95,14.29,812887
9-Nov-16,13.50,13.90,13.47,13.88,322128
8-Nov-16,13.55,13.76,13.42,13.71,286283
7-Nov-16,13.50,13.75,13.45,13.56,328948
4-Nov-16,13.19,13.50,12.92,13.36,316686
3-Nov-16,13.12,13.28,13.10,13.19,415008
2-Nov-16,13.15,13.16,12.87,13.09,1164059
1-Nov-16,13.38,13.43,13.10,13.11,428360
31-Oct-16,13.49,13.73,13.32,13.41,600196
28-Oct-16,13.63,13.85,13.52,13.55,262409
27-Oct-16,13.43,13.64,13.30,13.59,403502
26-Oct-16,13.58,13.96,13.40,13.42,626049
25-Oct-16,13.93,13.95,13.58,13.65,452841
24-Oct-16,13.98,14.04,13.68,13.99,512024
21-Oct-16,13.88,14.10,13.86,14.00,713811
20-Oct-16,13.89,14.02,13.67,13.96,864912
19-Oct-16,13.84,14.08,13.59,13.91,1262866
18-Oct-16,13.69,14.25,13.46,13.74,4503642
17-Oct-16,12.20,12.65,12.07,12.63,1233193
14-Oct-16,12.13,12.37,11.96,12.12,829310
13-Oct-16,11.99,12.52,11.99,12.12,341773
12-Oct-16,11.95,12.12,11.81,12.09,504763
11-Oct-16,12.05,12.20,11.88,12.00,481309
10-Oct-16,11.82,12.19,11.82,12.04,435725
7-Oct-16,11.76,11.82,11.71,11.75,175894
6-Oct-16,11.83,11.83,11.74,11.77,104120
5-Oct-16,12.00,12.14,11.89,11.91,377261
4-Oct-16,12.01,12.17,11.93,11.97,215045
3-Oct-16,11.85,12.14,11.84,11.93,170434
30-Sep-16,11.73,11.98,11.69,11.92,311618
29-Sep-16,11.79,11.95,11.64,11.72,281958
28-Sep-16,11.69,11.86,11.53,11.79,304425
27-Sep-16,11.68,11.76,11.61,11.73,253782
26-Sep-16,11.91,11.95,11.68,11.71,257700
23-Sep-16,11.77,12.00,11.70,11.94,221292
22-Sep-16,11.75,11.80,11.53,11.78,215918
21-Sep-16,11.14,11.71,11.14,11.66,444708
20-Sep-16,11.13,11.22,10.99,11.15,369317
19-Sep-16,11.23,11.36,10.95,11.05,484370
16-Sep-16,11.27,11.34,11.08,11.15,514956
15-Sep-16,10.98,11.32,10.92,11.27,318297
14-Sep-16,11.04,11.15,10.97,11.00,235613
13-Sep-16,11.19,11.19,10.99,11.02,227256
12-Sep-16,10.87,11.27,10.75,11.20,286843
9-Sep-16,11.30,11.43,10.97,10.97,229503
8-Sep-16,11.58,11.61,11.18,11.33,204417
7-Sep-16,11.20,11.59,11.14,11.56,428748
6-Sep-16,11.28,11.38,11.16,11.19,192939
2-Sep-16,11.10,11.23,11.05,11.23,228241
1-Sep-16,11.28,11.35,10.97,11.02,408169
31-Aug-16,11.26,11.36,11.20,11.23,212649
30-Aug-16,11.15,11.32,11.15,11.30,255340
29-Aug-16,11.11,11.32,11.10,11.14,277642
26-Aug-16,11.05,11.23,10.97,11.07,430641
25-Aug-16,10.91,11.04,10.90,10.99,382382
24-Aug-16,11.02,11.10,10.98,10.99,401914
23-Aug-16,10.80,11.07,10.80,10.97,539321
22-Aug-16,10.65,10.75,10.55,10.71,197776
19-Aug-16,10.61,10.77,10.41,10.69,291425
18-Aug-16,10.54,10.70,10.49,10.59,178722
17-Aug-16,10.67,10.67,10.51,10.58,161639
16-Aug-16,10.68,10.74,10.58,10.70,206047
15-Aug-16,10.77,10.91,10.69,10.71,188817
12-Aug-16,10.85,10.92,10.73,10.77,272759
11-Aug-16,10.81,11.40,10.80,10.98,734996
10-Aug-16,10.48,10.83,10.37,10.80,1007498
9-Aug-16,10.41,10.52,10.40,10.44,281826
8-Aug-16,10.44,10.48,10.38,10.42,209644
5-Aug-16,10.06,10.49,10.05,10.40,939217
4-Aug-16,10.15,10.31,9.96,10.06,285749
3-Aug-16,10.03,10.21,10.00,10.19,170364
2-Aug-16,10.43,10.43,10.11,10.11,156035
1-Aug-16,10.51,10.60,10.28,10.43,196697
29-Jul-16,10.52,10.57,10.36,10.51,281029
28-Jul-16,10.57,10.62,10.21,10.52,203900
27-Jul-16,10.68,10.70,10.46,10.56,322330
26-Jul-16,10.85,10.93,10.53,10.66,368921
25-Jul-16,10.65,10.96,10.65,10.91,563892
22-Jul-16,11.10,11.10,10.59,10.66,636528
21-Jul-16,10.00,11.35,10.00,11.00,1792512
20-Jul-16,9.82,9.95,9.72,9.80,351964
19-Jul-16,9.79,10.00,9.73,9.82,387726
18-Jul-16,9.66,9.89,9.55,9.77,458500
15-Jul-16,9.61,9.80,9.50,9.63,269434
14-Jul-16,9.67,9.70,9.54,9.55,245846
13-Jul-16,9.61,9.71,9.36,9.52,598196
12-Jul-16,9.55,9.76,9.38,9.64,473619
11-Jul-16,9.05,9.60,8.98,9.47,600037
8-Jul-16,8.91,9.15,8.91,9.01,192168
7-Jul-16,8.90,9.03,8.86,8.90,218201
6-Jul-16,8.99,9.00,8.83,8.91,96897
5-Jul-16,9.08,9.17,9.03,9.04,166654
1-Jul-16,9.12,9.20,9.02,9.12,204045
30-Jun-16,8.95,9.10,8.85,9.10,259661
29-Jun-16,8.68,8.97,8.62,8.97,362171
28-Jun-16,8.54,8.89,8.52,8.62,408160
27-Jun-16,8.65,8.69,8.43,8.49,576322
24-Jun-16,8.87,9.07,8.59,8.59,3033588
23-Jun-16,9.05,9.23,9.02,9.10,322604
22-Jun-16,8.98,9.07,8.85,8.96,262607
21-Jun-16,8.84,9.06,8.67,8.90,291067
20-Jun-16,8.81,9.05,8.79,8.79,345480
17-Jun-16,8.88,8.98,8.66,8.73,524583
16-Jun-16,9.07,9.22,8.83,8.93,288528
15-Jun-16,9.33,9.38,9.07,9.09,257202
14-Jun-16,9.24,9.42,9.14,9.26,316099
13-Jun-16,9.15,9.40,9.15,9.26,502812
10-Jun-16,9.30,9.34,9.17,9.20,92562
9-Jun-16,9.45,9.49,9.29,9.34,147254
8-Jun-16,9.38,9.52,9.27,9.49,138250
7-Jun-16,9.46,9.52,9.30,9.38,134084
6-Jun-16,9.31,9.49,9.25,9.47,136056
3-Jun-16,9.34,9.40,9.26,9.27,98571
2-Jun-16,9.46,9.63,9.30,9.34,213527
1-Jun-16,9.31,9.52,9.24,9.44,158355
31-May-16,9.51,9.53,9.28,9.34,238269
27-May-16,9.46,9.61,9.35,9.50,100376
26-May-16,9.38,9.51,9.14,9.42,205325
25-May-16,9.67,9.67,9.18,9.40,235308
24-May-16,9.28,9.74,9.21,9.69,243375
23-May-16,9.29,9.37,9.14,9.29,213051
20-May-16,9.12,9.26,9.00,9.24,217981
19-May-16,9.36,9.39,9.01,9.02,205857
18-May-16,9.44,9.58,9.28,9.38,197250
17-May-16,9.62,9.63,9.40,9.52,308324
16-May-16,9.64,9.74,9.51,9.61,233640
13-May-16,9.56,9.66,9.46,9.60,161374
12-May-16,9.57,9.62,9.42,9.54,207848
11-May-16,9.97,10.09,9.48,9.51,192801
10-May-16,9.88,10.17,9.88,9.96,198445
9-May-16,9.75,10.02,9.71,9.86,127547
6-May-16,9.72,9.82,9.64,9.74,237411
5-May-16,9.86,9.96,9.68,9.78,223305
4-May-16,9.38,9.99,9.25,9.90,396837
3-May-16,9.13,9.63,8.90,9.47,457480
2-May-16,9.15,9.20,8.90,8.99,498850
29-Apr-16,9.08,9.16,8.95,9.05,194345
28-Apr-16,9.08,9.15,8.97,9.06,96533
27-Apr-16,9.03,9.13,8.92,9.10,271040
26-Apr-16,9.09,9.15,8.96,9.02,174718
25-Apr-16,9.15,9.18,8.99,9.06,168648
22-Apr-16,9.10,9.20,9.07,9.15,213470
21-Apr-16,9.00,9.18,8.89,9.14,223595
20-Apr-16,9.09,9.23,8.98,9.02,333847
19-Apr-16,9.35,9.36,8.90,9.13,786458
18-Apr-16,9.40,9.51,9.31,9.35,186692
15-Apr-16,9.46,9.68,9.36,9.40,194216
14-Apr-16,9.72,9.76,9.40,9.44,251231
13-Apr-16,9.69,9.80,9.40,9.74,261190
12-Apr-16,9.44,9.70,9.33,9.62,489555
11-Apr-16,9.58,9.80,9.46,9.48,433038
8-Apr-16,9.87,9.92,9.60,9.62,230526
7-Apr-16,9.90,10.00,9.80,9.83,240359
6-Apr-16,10.02,10.08,9.84,9.93,2465361
5-Apr-16,9.90,10.10,9.89,10.03,433632
4-Apr-16,10.06,10.23,9.94,10.00,404100
1-Apr-16,10.21,10.37,9.97,10.01,427385
31-Mar-16,10.33,10.57,10.19,10.33,396209
30-Mar-16,10.45,10.45,10.02,10.28,222167
29-Mar-16,10.36,10.42,10.09,10.16,256087
28-Mar-16,10.57,10.58,10.18,10.43,150112
24-Mar-16,10.42,10.59,10.37,10.51,86982
23-Mar-16,10.74,10.78,10.44,10.51,105294
22-Mar-16,10.79,11.00,10.50,10.76,188949
21-Mar-16,10.95,11.05,10.76,10.88,146508
18-Mar-16,10.87,11.01,10.75,10.95,315544
17-Mar-16,10.72,11.00,10.72,10.83,148562
16-Mar-16,10.51,10.91,10.51,10.76,131494
15-Mar-16,10.90,10.96,10.55,10.57,192011
14-Mar-16,10.71,11.04,10.67,10.98,172542
11-Mar-16,10.60,10.80,10.41,10.69,185141
10-Mar-16,10.75,10.92,10.45,10.48,363456
9-Mar-16,10.53,10.81,10.45,10.74,307117
8-Mar-16,10.37,10.81,10.23,10.52,368436
7-Mar-16,11.00,11.00,10.13,10.40,426218
4-Mar-16,10.78,10.85,10.45,10.50,531258
3-Mar-16,10.71,10.82,10.56,10.78,164533
2-Mar-16,10.66,10.95,10.54,10.75,150959
1-Mar-16,10.94,11.04,10.60,10.63,190019
29-Feb-16,10.99,11.05,10.41,10.83,318173
26-Feb-16,10.49,10.96,10.41,10.95,299441
25-Feb-16,10.18,10.58,10.02,10.52,356740
24-Feb-16,9.83,10.27,9.72,10.24,283928
23-Feb-16,10.48,10.58,9.79,9.90,452559
22-Feb-16,10.50,10.84,10.04,10.63,464481
19-Feb-16,9.70,10.61,9.32,10.35,401436
18-Feb-16,9.65,9.91,9.49,9.81,262992
17-Feb-16,9.23,9.79,8.50,9.71,364503
16-Feb-16,8.72,9.14,8.37,9.12,542799
12-Feb-16,8.79,9.03,8.49,8.68,279472
11-Feb-16,8.80,9.00,8.41,8.65,215188
10-Feb-16,9.10,9.52,8.86,8.98,128606
9-Feb-16,9.02,9.37,8.87,9.04,414485
8-Feb-16,9.11,9.21,8.86,9.08,307728
5-Feb-16,9.77,9.77,9.00,9.22,484705
4-Feb-16,9.49,9.87,9.47,9.85,260103
3-Feb-16,9.58,9.60,9.24,9.53,242246
2-Feb-16,9.39,9.60,9.28,9.52,304691
1-Feb-16,9.57,9.77,9.34,9.43,337324
29-Jan-16,9.83,9.94,9.55,9.67,247250
28-Jan-16,10.06,10.15,9.78,9.85,145596
27-Jan-16,9.99,10.30,9.74,9.96,248449
26-Jan-16,9.99,10.15,9.73,9.99,205924
25-Jan-16,9.88,10.00,9.70,9.92,178616
22-Jan-16,10.05,10.19,9.82,9.98,163398
21-Jan-16,9.73,10.13,9.73,9.89,313794
20-Jan-16,9.01,9.86,8.83,9.77,742365
19-Jan-16,9.94,10.00,8.97,9.18,554846
15-Jan-16,10.06,10.30,9.57,9.76,389345
14-Jan-16,9.97,10.25,9.76,10.18,415204
13-Jan-16,10.50,10.52,9.77,9.95,621250
12-Jan-16,10.00,10.96,9.94,10.49,982717
11-Jan-16,9.90,9.97,9.40,9.45,453718
8-Jan-16,9.95,10.02,9.68,9.80,483824
7-Jan-16,9.94,10.05,9.82,9.88,372368
6-Jan-16,10.21,10.36,9.73,9.93,484898
5-Jan-16,10.79,10.79,10.25,10.32,241841
4-Jan-16,10.57,11.10,10.33,10.44,231216
31-Dec-15,10.94,11.01,10.64,10.65,448945
30-Dec-15,10.59,11.00,10.59,10.94,411336
29-Dec-15,10.89,10.90,10.55,10.70,158023
28-Dec-15,10.33,10.92,10.33,10.85,252379
24-Dec-15,10.86,10.96,10.56,10.60,67342
23-Dec-15,10.55,10.91,10.44,10.86,219143
22-Dec-15,10.30,10.61,10.21,10.52,154865
21-Dec-15,10.37,10.71,10.11,10.24,187751
18-Dec-15,10.23,10.46,10.08,10.37,411761
17-Dec-15,10.44,10.70,10.10,10.21,334708
16-Dec-15,10.71,10.80,10.21,10.40,297867
15-Dec-15,10.54,10.80,10.43,10.63,291531
14-Dec-15,10.74,10.81,10.39,10.52,257745
11-Dec-15,10.95,11.14,10.34,10.78,318474
10-Dec-15,10.62,11.13,10.43,11.10,546787
9-Dec-15,10.84,11.23,10.51,10.63,221331
8-Dec-15,11.10,11.28,10.68,10.83,341409
7-Dec-15,11.39,11.77,11.02,11.20,200145
4-Dec-15,11.45,11.82,11.29,11.45,358391
3-Dec-15,11.70,11.77,11.24,11.35,406231
2-Dec-15,11.14,11.76,11.10,11.70,482044
1-Dec-15,11.18,11.61,11.04,11.19,399154
30-Nov-15,10.89,11.29,10.86,11.04,605519
27-Nov-15,10.58,10.68,10.22,10.40,66086
25-Nov-15,10.58,10.73,10.41,10.53,156076
24-Nov-15,10.48,10.62,10.31,10.55,199750
23-Nov-15,10.13,10.44,10.01,10.30,193960
20-Nov-15,10.26,10.40,10.05,10.06,167631
19-Nov-15,10.36,10.38,10.08,10.20,238690
18-Nov-15,9.99,10.48,9.93,10.33,336240
17-Nov-15,10.29,10.50,9.71,9.91,732186
16-Nov-15,10.47,10.84,10.12,10.24,518737
13-Nov-15,11.12,11.19,10.47,10.49,442491
12-Nov-15,11.34,11.56,11.06,11.15,190308
11-Nov-15,11.16,11.56,10.98,11.32,292121
10-Nov-15,11.23,11.89,10.86,11.13,285028
9-Nov-15,11.66,11.67,11.18,11.28,222117
6-Nov-15,11.94,11.94,11.62,11.70,264262
5-Nov-15,11.77,12.00,11.60,11.85,255902
4-Nov-15,12.03,12.13,11.54,11.63,321998
3-Nov-15,11.89,12.17,11.72,12.05,504500
2-Nov-15,11.70,11.75,11.06,11.43,752516
30-Oct-15,12.07,12.27,11.61,11.73,589833
29-Oct-15,12.17,12.35,11.90,12.12,535291
28-Oct-15,12.24,12.52,11.99,12.17,861670
27-Oct-15,12.20,13.00,12.13,12.48,2785619
26-Oct-15,12.40,12.65,11.76,12.26,658157
23-Oct-15,12.84,13.22,12.52,12.76,194289
22-Oct-15,13.00,13.26,12.67,12.73,185555
21-Oct-15,13.70,13.71,12.92,12.93,298337
20-Oct-15,14.16,14.56,12.98,13.71,915760
19-Oct-15,13.64,14.01,13.45,13.64,254334
16-Oct-15,13.53,13.85,13.36,13.64,276247
15-Oct-15,13.56,13.75,13.46,13.58,127490
14-Oct-15,13.48,13.65,13.33,13.58,110899
13-Oct-15,13.68,14.02,13.44,13.44,294669
12-Oct-15,13.64,13.70,13.39,13.55,62196
9-Oct-15,13.67,13.73,13.44,13.59,183486
8-Oct-15,13.78,13.89,13.50,13.63,437083
7-Oct-15,13.94,13.98,13.66,13.89,170187
6-Oct-15,13.90,14.04,13.69,13.95,186617
5-Oct-15,13.64,14.02,13.55,13.87,203567
2-Oct-15,13.55,13.78,13.34,13.59,84083
1-Oct-15,13.96,14.49,13.45,13.58,272815
30-Sep-15,13.20,14.10,13.12,14.00,403756
29-Sep-15,13.09,13.25,12.91,13.17,176474
28-Sep-15,13.17,13.31,12.71,13.04,249381
25-Sep-15,13.51,13.67,13.17,13.18,126930
24-Sep-15,13.79,13.90,13.30,13.52,337318
23-Sep-15,13.81,14.08,13.78,13.90,254154
22-Sep-15,14.27,14.42,13.70,13.78,227102
21-Sep-15,14.99,15.18,14.27,14.39,327909
18-Sep-15,14.49,15.10,14.32,14.92,2176292
17-Sep-15,14.82,14.99,14.48,14.60,194353
16-Sep-15,14.63,14.84,14.32,14.79,317576
15-Sep-15,14.69,14.76,14.29,14.36,517005
14-Sep-15,14.71,14.86,14.49,14.62,176335
11-Sep-15,14.53,14.80,14.43,14.76,250846
10-Sep-15,14.59,14.81,14.34,14.61,330177
9-Sep-15,14.59,14.81,14.32,14.62,285603
8-Sep-15,13.52,14.67,13.16,14.58,988179
4-Sep-15,12.95,13.09,12.83,13.02,81660
3-Sep-15,12.93,13.13,12.82,13.06,110732
2-Sep-15,12.58,12.98,12.34,12.91,325720
1-Sep-15,12.54,12.84,12.41,12.48,208387
31-Aug-15,13.14,13.32,12.64,12.69,253209
28-Aug-15,13.24,13.45,12.89,13.12,158420
27-Aug-15,13.02,13.35,13.01,13.11,184977
26-Aug-15,12.93,13.25,12.43,12.98,547222
25-Aug-15,12.67,12.93,12.46,12.73,315652
24-Aug-15,12.98,13.04,12.26,12.49,422580
21-Aug-15,12.99,13.17,12.95,13.13,304827
20-Aug-15,13.12,13.56,13.00,13.09,264782
19-Aug-15,13.52,13.68,13.00,13.15,545856
18-Aug-15,13.70,13.83,13.35,13.51,478617
17-Aug-15,14.13,14.20,13.48,13.69,668733
14-Aug-15,14.40,14.40,13.93,14.13,335889
13-Aug-15,14.56,14.74,14.31,14.40,106467
12-Aug-15,14.04,14.77,13.91,14.62,303544
11-Aug-15,14.42,14.54,14.13,14.25,225207
10-Aug-15,14.54,15.01,14.15,14.54,200008
7-Aug-15,14.55,14.76,14.10,14.46,284416
6-Aug-15,15.21,15.25,14.59,14.64,143121
5-Aug-15,15.36,15.60,15.09,15.27,207803
4-Aug-15,15.65,15.85,15.33,15.33,102267
3-Aug-15,15.70,15.73,15.44,15.57,151040
31-Jul-15,15.55,15.80,15.40,15.70,322051
30-Jul-15,15.54,15.74,15.45,15.55,198678
29-Jul-15,15.32,15.55,15.03,15.41,160457
28-Jul-15,15.85,15.95,15.20,15.34,541802
27-Jul-15,16.33,16.48,16.18,16.22,523110
24-Jul-15,15.85,16.40,15.75,16.39,344959
23-Jul-15,15.68,15.96,15.65,15.86,93836
22-Jul-15,15.55,15.90,15.53,15.70,162010
21-Jul-15,15.27,15.55,15.21,15.54,203421
20-Jul-15,15.30,15.30,15.10,15.21,64947
17-Jul-15,15.20,15.30,15.14,15.26,92183
16-Jul-15,15.06,15.32,15.01,15.11,388098
15-Jul-15,15.35,15.35,15.00,15.13,135402
14-Jul-15,15.40,15.60,15.25,15.35,174578
13-Jul-15,15.25,15.93,15.20,15.34,175704
10-Jul-15,15.18,15.19,15.06,15.15,77824
9-Jul-15,15.06,15.20,15.00,15.10,72418
8-Jul-15,15.13,15.19,14.90,14.99,159528
7-Jul-15,15.30,15.32,15.06,15.23,237469
6-Jul-15,15.42,15.65,15.10,15.30,84809
2-Jul-15,15.68,15.79,15.05,15.28,102815
1-Jul-15,15.25,15.95,15.18,15.61,492229
30-Jun-15,15.04,15.28,14.82,15.22,637811
29-Jun-15,14.90,15.22,14.66,14.86,132764
26-Jun-15,15.65,15.65,14.65,15.03,195287
25-Jun-15,14.89,15.16,14.76,15.00,65026
24-Jun-15,14.73,14.99,14.65,14.93,73756
23-Jun-15,14.69,14.74,14.57,14.74,32686
22-Jun-15,15.00,15.01,14.50,14.64,384809
19-Jun-15,14.88,15.35,14.67,15.35,100482
18-Jun-15,14.69,14.85,14.55,14.82,38540
17-Jun-15,14.84,14.88,14.50,14.67,150445
16-Jun-15,15.15,15.17,14.72,14.88,257699
15-Jun-15,15.37,15.44,15.01,15.14,88390
12-Jun-15,15.37,15.85,15.22,15.41,135737
11-Jun-15,15.54,15.80,15.20,15.26,194970
10-Jun-15,15.60,15.70,15.34,15.42,128937
9-Jun-15,15.61,15.80,15.28,15.49,89749
8-Jun-15,15.75,15.89,15.51,15.66,314816
5-Jun-15,15.56,15.98,15.56,15.71,244450
4-Jun-15,15.80,16.05,15.72,15.86,102628
3-Jun-15,15.71,16.24,15.57,15.64,173595
2-Jun-15,15.73,16.43,15.41,16.20,276954
1-Jun-15,16.15,16.49,15.65,15.79,279087
29-May-15,16.72,16.90,16.10,16.15,73328
28-May-15,16.09,16.52,16.00,16.45,73658
27-May-15,16.49,16.56,16.10,16.16,90155
26-May-15,16.69,16.75,16.24,16.38,84899
22-May-15,16.42,16.60,16.31,16.52,72808
21-May-15,16.31,16.50,16.25,16.40,76073
20-May-15,17.00,17.00,16.11,16.40,283413
19-May-15,17.24,17.25,16.75,16.83,189713
18-May-15,16.76,17.21,16.65,17.14,275466
15-May-15,16.01,16.80,16.00,16.70,274214
14-May-15,15.93,16.22,15.78,16.07,310930
13-May-15,16.07,16.19,15.76,15.80,175936
12-May-15,15.96,16.25,15.78,15.88,168990
11-May-15,16.25,16.35,15.88,15.94,727177
8-May-15,15.30,15.60,15.13,15.34,229274
7-May-15,15.40,15.49,15.11,15.11,241789
6-May-15,15.50,15.64,15.20,15.30,142987
5-May-15,15.70,15.72,15.15,15.43,237519
4-May-15,15.30,15.70,14.95,15.20,356867
1-May-15,14.50,14.85,14.49,14.62,80719
30-Apr-15,14.50,14.84,14.38,14.43,158663
29-Apr-15,14.70,14.80,14.35,14.50,80794
28-Apr-15,14.60,14.84,14.24,14.50,92064
27-Apr-15,14.88,15.00,14.13,14.34,198117
24-Apr-15,15.17,15.24,14.64,14.84,572287
23-Apr-15,14.88,15.18,14.78,14.98,134349
22-Apr-15,14.31,14.80,14.20,14.76,109624
21-Apr-15,14.62,14.84,14.50,14.53,504417
20-Apr-15,14.38,14.63,14.30,14.50,287408
17-Apr-15,14.04,14.45,14.03,14.20,242659
16-Apr-15,13.99,14.24,13.85,14.14,331212
15-Apr-15,14.00,14.04,13.78,13.99,133602
14-Apr-15,14.11,14.20,13.54,14.00,252307
13-Apr-15,14.12,14.48,13.81,14.10,543480
10-Apr-15,14.01,14.40,13.98,14.05,233891
9-Apr-15,14.16,14.50,13.67,14.05,356290
8-Apr-15,14.74,15.00,14.18,14.30,255506
7-Apr-15,15.15,15.88,14.03,14.74,907006
6-Apr-15,13.60,15.44,13.60,15.00,2151936
2-Apr-15,13.34,13.74,13.28,13.50,586104
1-Apr-15,13.24,13.65,13.22,13.40,994304
31-Mar-15,12.84,13.53,12.84,13.15,2033696
30-Mar-15,12.45,12.90,12.35,12.78,1295562
27-Mar-15,11.47,12.35,11.47,12.21,1565509
26-Mar-15,11.15,11.69,11.15,11.58,1794873
25-Mar-15,11.10,11.26,11.05,11.26,1175358
24-Mar-15,11.15,11.15,10.95,11.10,842936
23-Mar-15,11.20,11.20,10.90,11.05,912917
20-Mar-15,11.08,11.10,11.00,11.04,225600
19-Mar-15,11.04,11.20,11.00,11.05,403014
18-Mar-15,11.20,11.20,10.83,11.18,922164
17-Mar-15,11.48,11.48,11.00,11.20,1542603
16-Mar-15,10.65,11.10,10.60,11.08,1479127
13-Mar-15,10.25,10.81,10.25,10.64,1331178
12-Mar-15,10.50,10.50,10.12,10.26,724028
9-Mar-15,9.95,9.95,9.95,9.95,278
6-Mar-15,10.00,10.00,10.00,10.00,1540
2-Mar-15,10.00,10.00,10.00,10.00,1000
27-Feb-15,10.00,10.00,10.00,10.00,1000
26-Feb-15,10.00,10.00,10.00,10.00,550
25-Feb-15,9.99,10.00,9.99,10.00,7500
24-Feb-15,9.99,9.99,9.95,9.95,972
23-Feb-15,9.88,9.88,9.88,9.88,100
20-Feb-15,9.99,9.99,9.99,9.99,500
19-Feb-15,10.00,10.00,9.99,9.99,1650
18-Feb-15,9.98,9.99,9.98,9.98,1250
12-Feb-15,9.99,9.99,9.99,9.99,185
11-Feb-15,9.95,9.95,9.95,9.95,300
10-Feb-15,9.87,9.95,9.87,9.95,6947
6-Feb-15,9.91,9.91,9.91,9.91,1000
2-Feb-15,9.92,9.93,9.90,9.90,3000
30-Jan-15,9.92,9.92,9.92,9.92,2000
28-Jan-15,9.92,9.92,9.90,9.92,4000
27-Jan-15,9.88,9.93,9.88,9.93,2815
26-Jan-15,9.88,9.88,9.88,9.88,1000
16-Jan-15,9.77,9.77,9.77,9.77,1700
12-Jan-15,9.71,9.79,9.71,9.74,2650
9-Jan-15,9.73,9.85,9.70,9.70,3800
8-Jan-15,9.69,9.82,9.69,9.79,3350
30-Dec-14,9.72,9.73,9.72,9.73,1000
26-Dec-14,9.73,9.73,9.73,9.73,100
15-Dec-14,9.68,9.68,9.68,9.68,100
10-Dec-14,9.69,9.71,9.67,9.71,602
9-Dec-14,9.71,9.72,9.71,9.72,3000
5-Dec-14,9.70,9.74,9.70,9.71,5200
3-Dec-14,9.78,9.78,9.78,9.78,100
2-Dec-14,9.80,9.80,9.67,9.78,700
1-Dec-14,9.88,9.88,9.88,9.88,200
28-Nov-14,9.67,9.67,9.67,9.67,300
26-Nov-14,9.84,9.84,9.84,9.84,200
24-Nov-14,9.80,9.80,9.80,9.80,2000
20-Nov-14,9.67,9.75,9.67,9.75,502
14-Nov-14,9.68,9.72,9.67,9.72,4500
13-Nov-14,9.67,9.72,9.67,9.72,1100
30-Oct-14,9.78,9.78,9.78,9.78,1919
24-Oct-14,9.77,9.77,9.77,9.77,100
23-Oct-14,9.71,9.71,9.68,9.68,200
22-Oct-14,9.67,9.70,9.65,9.70,1194900
21-Oct-14,9.67,9.69,9.65,9.67,73665
20-Oct-14,9.65,9.68,9.64,9.68,266700
17-Oct-14,9.75,9.75,9.75,9.75,1800
14-Oct-14,9.72,9.83,9.72,9.83,600
13-Oct-14,9.64,9.66,9.64,9.66,400150
2-Oct-14,9.69,9.69,9.66,9.68,923213
1-Oct-14,9.66,9.71,9.66,9.71,4422
30-Sep-14,9.68,9.68,9.68,9.68,116227
29-Sep-14,9.74,9.75,9.74,9.74,3000
26-Sep-14,9.72,9.73,9.72,9.73,1831
23-Sep-14,9.69,9.69,9.68,9.68,225248
19-Sep-14,9.72,9.72,9.72,9.72,1600
16-Sep-14,9.70,9.70,9.70,9.70,100
15-Sep-14,9.64,9.71,9.64,9.71,1092
12-Sep-14,9.62,9.74,9.62,9.74,1840
8-Sep-14,9.74,9.74,9.74,9.74,72308
5-Sep-14,9.70,9.79,9.70,9.79,1900
4-Sep-14,9.69,9.78,9.69,9.78,2200
3-Sep-14,9.70,9.70,9.70,9.70,100
2-Sep-14,9.62,9.67,9.60,9.60,2659
29-Aug-14,9.70,9.70,9.70,9.70,1550
28-Aug-14,9.71,9.72,9.71,9.72,1700
25-Aug-14,9.69,9.69,9.69,9.69,350
22-Aug-14,9.66,9.68,9.64,9.64,2100
20-Aug-14,9.74,9.74,9.66,9.66,2000
18-Aug-14,9.67,9.69,9.64,9.65,4516
14-Aug-14,9.70,9.70,9.64,9.68,422
12-Aug-14,9.71,9.71,9.70,9.70,200
8-Aug-14,9.70,9.79,9.70,9.79,721
7-Aug-14,9.79,9.80,9.78,9.78,9900
6-Aug-14,9.78,9.80,9.75,9.75,4200
1-Aug-14,9.71,9.75,9.69,9.69,7500
31-Jul-14,9.66,9.66,9.66,9.66,709976
30-Jul-14,9.68,9.68,9.68,9.68,101
29-Jul-14,9.69,9.75,9.68,9.72,7042
28-Jul-14,9.72,9.75,9.71,9.74,9584
25-Jul-14,9.72,9.74,9.72,9.74,4600
24-Jul-14,9.73,9.75,9.73,9.73,6500
18-Jul-14,9.72,9.75,9.71,9.72,17300
17-Jul-14,9.69,9.73,9.69,9.73,15800
15-Jul-14,9.70,9.74,9.68,9.74,5900
14-Jul-14,9.71,9.77,9.71,9.76,8100
11-Jul-14,9.70,9.72,9.70,9.70,8700
2-Jul-14,9.68,9.75,9.68,9.70,10917
30-Jun-14,9.69,9.76,9.68,9.74,12284
26-Jun-14,9.68,9.73,9.68,9.73,14369
25-Jun-14,9.69,9.69,9.68,9.68,1948
24-Jun-14,9.68,9.68,9.68,9.68,494
18-Jun-14,9.68,9.68,9.68,9.68,647
13-Jun-14,9.72,9.73,9.68,9.70,6810
12-Jun-14,9.72,9.74,9.68,9.68,7550
11-Jun-14,9.72,9.72,9.68,9.70,22700
10-Jun-14,9.73,9.73,9.68,9.68,10600
9-Jun-14,9.95,9.95,9.67,9.71,28500
3-Jun-14,9.74,9.74,9.73,9.73,601000
30-May-14,9.70,9.70,9.70,9.70,300
28-May-14,9.69,9.69,9.69,9.69,2000
27-May-14,9.70,9.70,9.70,9.70,10000
23-May-14,9.73,9.73,9.70,9.70,800
20-May-14,9.69,9.72,9.66,9.69,600
16-May-14,9.72,9.74,9.65,9.65,15200
12-May-14,9.64,9.71,9.64,9.64,7879
8-May-14,9.65,9.72,9.65,9.72,2500
6-May-14,9.65,9.70,9.64,9.68,14422
2-May-14,9.68,9.73,9.65,9.65,145726
30-Apr-14,9.68,9.68,9.68,9.68,1200
29-Apr-14,9.65,9.69,9.65,9.68,1540
25-Apr-14,9.70,9.72,9.70,9.72,800
22-Apr-14,9.65,9.65,9.64,9.64,1720
17-Apr-14,9.69,9.74,9.69,9.74,2700
15-Apr-14,9.64,9.64,9.64,9.64,620
14-Apr-14,9.67,9.69,9.64,9.64,10102
11-Apr-14,9.67,9.70,9.65,9.65,61702
10-Apr-14,9.64,9.64,9.64,9.64,253
9-Apr-14,9.62,9.62,9.62,9.62,1500
7-Apr-14,9.66,9.69,9.64,9.69,2000
4-Apr-14,9.70,9.75,9.65,9.66,48742
1-Apr-14,9.68,9.69,9.68,9.69,5240
31-Mar-14,9.67,9.83,9.65,9.69,9240
28-Mar-14,9.66,9.75,9.64,9.64,59540
27-Mar-14,9.64,9.64,9.64,9.64,4000
26-Mar-14,9.64,9.64,9.64,9.64,9000
25-Mar-14,9.64,9.65,9.64,9.64,4000
20-Mar-14,9.71,9.71,9.64,9.64,200
19-Mar-14,9.65,9.65,9.64,9.64,1932
18-Mar-14,9.64,9.72,9.64,9.68,634
14-Mar-14,9.64,9.64,9.64,9.64,252
13-Mar-14,9.64,9.72,9.64,9.67,6665
11-Mar-14,9.69,9.69,9.69,9.69,2500
10-Mar-14,9.71,9.71,9.67,9.67,948
7-Mar-14,9.64,9.64,9.64,9.64,2000
4-Mar-14,9.71,9.81,9.65,9.65,9113
27-Feb-14,9.65,9.65,9.65,9.65,700
26-Feb-14,9.70,9.70,9.61,9.63,8176
25-Feb-14,9.64,9.71,9.64,9.70,13069
24-Feb-14,9.63,9.69,9.63,9.67,7972
21-Feb-14,9.68,9.73,9.62,9.67,60964
20-Feb-14,9.68,9.82,9.63,9.63,95593
19-Feb-14,9.79,9.79,9.65,9.70,110709
18-Feb-14,9.81,9.82,9.62,9.73,65600
14-Feb-14,9.80,9.80,9.80,9.80,298
13-Feb-14,9.69,9.72,9.61,9.70,25700
12-Feb-14,9.71,9.74,9.67,9.69,32300
10-Feb-14,9.65,9.65,9.65,9.65,100
7-Feb-14,9.60,9.60,9.60,9.60,2131
6-Feb-14,9.65,9.67,9.65,9.65,700
5-Feb-14,9.82,9.82,9.65,9.65,6822
4-Feb-14,9.80,9.80,9.60,9.68,27182
3-Feb-14,9.65,9.70,9.63,9.65,483860
31-Jan-14,9.70,9.70,9.61,9.61,1400
29-Jan-14,9.66,9.70,9.60,9.60,4500
28-Jan-14,9.58,9.72,9.58,9.67,9100
27-Jan-14,9.75,9.75,9.50,9.60,11600
24-Jan-14,9.57,9.70,9.55,9.58,15800
22-Jan-14,9.70,9.70,9.52,9.65,3410
21-Jan-14,9.68,9.88,9.52,9.75,5700
17-Jan-14,9.64,9.64,9.40,9.40,1700
16-Jan-14,9.56,9.63,9.56,9.60,400
14-Jan-14,10.37,10.37,9.70,9.70,2400
13-Jan-14,9.40,9.70,9.40,9.70,1100
10-Jan-14,10.47,10.47,9.50,9.60,10300
9-Jan-14,10.49,10.49,10.49,10.49,100
8-Jan-14,9.40,10.34,9.40,9.42,3200
