﻿Date,Open,High,Low,Close,Volume
20-Jun-17,122.06,122.37,117.84,118.00,692247
19-Jun-17,120.46,124.74,119.61,120.91,562250
16-Jun-17,116.00,118.77,115.15,118.17,557700
15-Jun-17,118.12,118.34,115.02,116.47,769537
14-Jun-17,120.74,123.36,118.24,119.27,634204
13-Jun-17,123.04,125.91,119.80,120.33,631828
12-Jun-17,120.00,123.98,119.57,121.57,778356
9-Jun-17,126.00,127.88,117.90,121.40,1103284
8-Jun-17,133.88,134.00,123.93,125.72,793876
7-Jun-17,127.40,133.44,127.20,132.48,819896
6-Jun-17,126.18,129.53,124.15,126.40,784114
5-Jun-17,123.00,128.28,122.88,126.58,1309710
2-Jun-17,119.40,124.50,119.36,122.79,938548
1-Jun-17,117.14,118.98,115.06,118.89,686304
31-May-17,116.01,117.07,111.82,116.47,1333990
30-May-17,119.20,119.39,113.88,116.59,1024550
26-May-17,118.15,120.19,118.00,119.27,882423
25-May-17,121.21,121.51,117.80,118.41,908328
24-May-17,123.00,123.13,119.51,121.09,805265
23-May-17,126.38,126.50,121.30,123.78,692731
22-May-17,124.50,126.87,121.00,126.23,930347
19-May-17,122.15,127.68,122.15,123.75,1098578
18-May-17,122.29,122.29,116.96,121.77,1348868
17-May-17,128.27,129.00,122.43,122.58,1520112
16-May-17,119.01,132.29,118.67,131.29,2176676
15-May-17,125.98,126.00,118.88,120.78,2113490
12-May-17,126.27,128.00,124.02,127.97,432451
11-May-17,125.80,126.97,124.63,125.99,399242
10-May-17,123.15,126.72,122.40,125.79,520132
9-May-17,124.34,126.62,122.50,122.97,490024
8-May-17,120.20,123.87,119.98,123.64,498117
5-May-17,121.92,122.12,117.58,120.20,371174
4-May-17,117.66,121.42,117.08,121.35,434683
3-May-17,118.19,118.50,115.51,117.47,294633
2-May-17,119.00,119.01,116.62,117.07,562735
1-May-17,119.11,119.83,116.58,119.02,264043
28-Apr-17,119.40,120.75,116.94,119.11,476945
27-Apr-17,120.61,123.60,118.58,119.40,897244
26-Apr-17,117.20,118.10,115.91,116.18,566213
25-Apr-17,113.62,117.87,113.26,116.47,787891
24-Apr-17,111.38,114.37,111.05,112.73,481536
21-Apr-17,107.03,111.63,106.62,110.67,486925
20-Apr-17,108.32,108.32,106.06,107.66,274545
19-Apr-17,106.17,108.50,105.08,107.74,311729
18-Apr-17,106.60,107.96,104.15,105.57,275683
17-Apr-17,107.08,107.08,105.09,106.63,201746
13-Apr-17,102.50,107.50,102.05,106.24,466010
12-Apr-17,102.02,102.63,100.48,102.16,595702
11-Apr-17,104.16,104.38,101.58,102.33,906252
10-Apr-17,105.56,106.02,104.04,104.29,633572
7-Apr-17,107.67,107.67,105.73,106.24,290304
6-Apr-17,104.80,108.60,103.56,107.83,482324
5-Apr-17,106.38,106.89,104.42,104.84,436027
4-Apr-17,106.50,107.67,105.16,105.85,264785
3-Apr-17,106.59,107.00,104.81,106.36,312899
31-Mar-17,102.49,107.18,102.28,106.57,461486
30-Mar-17,104.03,104.03,101.21,102.74,694078
29-Mar-17,102.61,104.63,100.88,104.03,497043
28-Mar-17,100.54,103.21,99.88,102.85,478121
27-Mar-17,105.65,105.65,99.59,101.97,908544
24-Mar-17,103.57,108.50,103.57,106.37,538056
23-Mar-17,103.15,105.07,102.12,103.74,391672
22-Mar-17,100.00,102.95,99.42,102.87,386697
21-Mar-17,101.45,102.92,99.16,101.26,734613
20-Mar-17,100.00,101.73,99.50,100.25,500377
17-Mar-17,96.00,99.97,95.51,99.45,542500
16-Mar-17,95.76,96.56,95.33,95.68,194094
15-Mar-17,93.10,96.01,93.10,95.10,801299
14-Mar-17,93.07,93.64,92.35,92.93,326874
13-Mar-17,91.80,93.98,91.54,93.36,224123
10-Mar-17,90.96,92.00,90.45,91.57,190715
9-Mar-17,90.63,91.14,89.62,90.69,196761
8-Mar-17,91.24,91.70,90.49,90.55,205252
7-Mar-17,91.58,92.54,90.44,90.69,383595
6-Mar-17,90.48,92.29,89.57,91.68,437936
3-Mar-17,89.93,90.79,89.42,90.41,365348
2-Mar-17,90.97,91.06,89.06,90.01,866667
1-Mar-17,86.51,92.00,86.51,91.61,649826
28-Feb-17,85.87,87.71,85.78,86.47,464432
27-Feb-17,85.00,86.30,83.55,85.74,349684
24-Feb-17,84.54,85.69,84.24,85.25,382098
23-Feb-17,84.25,86.00,84.01,85.27,566188
22-Feb-17,83.32,85.26,82.59,83.89,523518
21-Feb-17,83.71,84.02,81.01,83.26,613569
17-Feb-17,83.85,83.92,82.95,83.61,458532
16-Feb-17,84.81,85.17,83.72,84.58,323960
15-Feb-17,85.50,85.70,84.11,85.08,357470
14-Feb-17,86.32,86.45,82.64,85.08,895220
13-Feb-17,87.62,87.81,86.70,87.19,323191
10-Feb-17,85.81,87.98,85.46,87.10,470420
9-Feb-17,84.26,85.30,84.06,85.30,378741
8-Feb-17,83.89,84.11,82.77,84.02,486813
7-Feb-17,83.30,84.20,83.30,83.76,427398
6-Feb-17,82.17,84.17,82.17,83.33,667895
3-Feb-17,82.21,82.47,81.03,81.76,249064
2-Feb-17,81.11,82.99,81.10,81.81,375107
1-Feb-17,81.36,81.50,79.91,81.15,427627
31-Jan-17,79.75,81.21,79.56,80.99,249880
30-Jan-17,80.54,80.54,78.70,79.75,152830
27-Jan-17,80.50,81.16,79.62,80.91,187569
26-Jan-17,82.51,82.64,79.62,80.27,456685
25-Jan-17,80.00,80.42,78.30,80.27,472384
24-Jan-17,79.37,79.79,78.02,79.33,627242
23-Jan-17,81.00,81.06,77.71,78.79,431490
20-Jan-17,80.82,83.87,80.54,81.08,715130
19-Jan-17,77.65,80.65,77.40,80.50,1811874
18-Jan-17,75.89,76.79,74.06,74.92,897942
17-Jan-17,75.70,76.79,75.50,75.68,628645
13-Jan-17,75.78,76.15,75.00,75.66,403286
12-Jan-17,75.07,75.82,74.72,75.27,191864
11-Jan-17,76.25,76.30,74.86,75.48,268085
10-Jan-17,77.10,77.26,75.82,76.35,362043
9-Jan-17,76.83,77.82,76.10,77.04,316631
6-Jan-17,77.00,77.43,75.59,76.67,336776
5-Jan-17,74.68,77.77,74.11,76.72,515747
4-Jan-17,72.29,74.99,72.06,73.95,499723
3-Jan-17,71.00,72.15,70.17,71.91,388837
30-Dec-16,71.06,71.58,70.00,70.15,418903
29-Dec-16,70.75,71.65,70.75,71.12,174073
28-Dec-16,70.83,71.89,70.14,70.45,185610
27-Dec-16,69.10,72.25,68.90,70.50,336881
23-Dec-16,68.19,69.45,67.36,68.71,190409
22-Dec-16,67.09,67.93,66.11,67.85,215256
21-Dec-16,66.49,67.15,66.14,66.94,217457
20-Dec-16,67.08,67.76,66.66,66.76,420185
19-Dec-16,67.67,67.83,67.00,67.01,245937
16-Dec-16,68.65,68.87,66.78,67.67,522937
15-Dec-16,70.73,71.32,68.61,68.64,698758
14-Dec-16,72.03,72.25,70.82,71.39,265935
13-Dec-16,71.18,73.02,70.71,71.93,251588
12-Dec-16,72.18,72.20,70.09,70.59,391500
9-Dec-16,72.80,73.17,72.20,72.64,249376
8-Dec-16,70.02,72.59,69.95,72.19,684915
7-Dec-16,72.00,72.26,70.26,70.40,406775
6-Dec-16,73.98,74.23,72.02,72.25,208165
5-Dec-16,73.31,74.00,72.54,73.40,418679
2-Dec-16,75.00,75.45,71.91,73.27,1097852
1-Dec-16,72.70,76.60,72.70,74.74,256125
30-Nov-16,76.54,76.88,75.23,76.53,402527
29-Nov-16,77.27,77.50,75.89,76.27,289023
28-Nov-16,77.00,77.10,76.09,76.80,584294
25-Nov-16,77.67,78.16,76.80,77.50,213090
23-Nov-16,76.70,78.10,76.51,77.90,361968
22-Nov-16,76.63,77.30,75.52,76.77,463427
21-Nov-16,74.40,76.62,74.04,76.36,452046
18-Nov-16,74.22,74.82,73.22,74.02,534642
17-Nov-16,72.51,73.94,71.83,73.50,497020
16-Nov-16,70.00,74.00,70.00,72.49,939072
15-Nov-16,70.99,71.61,70.19,70.22,812972
14-Nov-16,75.59,75.84,70.06,70.53,1139612
11-Nov-16,78.00,78.28,75.41,76.13,742574
10-Nov-16,78.58,79.75,77.53,78.79,675726
9-Nov-16,77.30,80.41,77.09,78.50,345117
8-Nov-16,77.46,79.74,77.10,79.46,579360
7-Nov-16,78.38,79.16,77.20,77.49,545946
4-Nov-16,75.60,77.48,75.40,77.14,343638
3-Nov-16,76.25,77.18,76.10,76.40,452223
2-Nov-16,79.24,79.24,75.88,76.13,897508
1-Nov-16,81.23,81.44,79.03,79.86,556388
31-Oct-16,82.02,82.29,80.61,81.44,411358
28-Oct-16,82.06,83.68,81.26,82.00,528214
27-Oct-16,81.76,83.23,80.27,81.25,1613224
26-Oct-16,76.96,77.92,76.00,77.60,931517
25-Oct-16,75.22,77.41,74.55,77.19,860983
24-Oct-16,74.14,76.97,73.46,74.29,614701
21-Oct-16,71.55,74.29,71.50,73.25,317258
20-Oct-16,73.10,73.27,71.55,71.88,246482
19-Oct-16,73.31,73.95,72.60,72.92,255636
18-Oct-16,72.11,73.44,72.09,73.15,513705
17-Oct-16,72.00,72.20,70.54,71.15,405104
14-Oct-16,71.14,73.23,70.72,72.25,286276
13-Oct-16,70.96,71.46,69.16,71.01,469907
12-Oct-16,70.62,71.41,70.47,71.38,193514
11-Oct-16,70.92,71.57,69.83,70.49,281546
10-Oct-16,69.63,71.50,69.41,71.30,344298
7-Oct-16,70.00,70.49,68.53,68.97,257016
6-Oct-16,70.09,70.94,69.91,70.30,283054
5-Oct-16,70.64,72.28,70.17,70.47,662504
4-Oct-16,70.67,70.78,69.60,70.09,234857
3-Oct-16,71.10,71.44,70.14,70.30,229286
30-Sep-16,70.16,71.12,69.81,70.84,384972
29-Sep-16,69.78,70.97,69.20,70.37,256590
28-Sep-16,69.74,69.82,68.87,69.78,290644
27-Sep-16,69.75,70.73,69.11,69.91,327771
26-Sep-16,69.31,69.50,68.04,68.74,461217
23-Sep-16,70.78,71.98,69.14,69.74,507362
22-Sep-16,68.59,71.30,68.52,70.96,554884
21-Sep-16,68.80,69.03,67.65,68.94,700113
20-Sep-16,68.60,69.14,68.11,68.76,501085
19-Sep-16,68.47,69.01,67.79,68.60,481832
16-Sep-16,69.91,70.00,67.37,68.23,846934
15-Sep-16,64.17,70.40,63.97,70.36,1560835
14-Sep-16,64.00,64.31,63.60,63.81,466089
13-Sep-16,62.36,63.53,62.03,63.43,380865
12-Sep-16,62.02,63.19,61.16,62.73,344904
9-Sep-16,63.70,64.20,62.61,62.91,359299
8-Sep-16,63.29,64.36,62.75,64.02,489570
7-Sep-16,63.91,64.36,62.76,63.13,476898
6-Sep-16,63.41,65.05,63.41,64.07,1001497
2-Sep-16,61.58,63.01,61.52,62.83,501845
1-Sep-16,59.69,61.47,59.59,60.83,788276
31-Aug-16,59.58,59.99,59.20,59.76,559887
30-Aug-16,60.79,61.09,59.58,59.81,390021
29-Aug-16,61.00,61.36,59.90,60.04,579975
26-Aug-16,62.31,62.65,60.82,61.01,397563
25-Aug-16,61.50,62.66,61.25,61.98,353003
24-Aug-16,63.41,63.80,61.24,61.44,588436
23-Aug-16,63.85,64.03,63.13,64.00,413452
22-Aug-16,63.84,64.34,63.57,63.76,473889
19-Aug-16,63.28,64.03,62.88,63.96,366732
18-Aug-16,63.70,64.49,63.32,63.67,534336
17-Aug-16,62.89,63.43,62.12,63.38,726912
16-Aug-16,62.30,63.46,62.28,62.89,488690
15-Aug-16,61.82,63.00,61.72,62.80,566263
12-Aug-16,60.77,61.87,60.66,61.21,784105
11-Aug-16,60.69,61.00,60.25,60.70,399277
10-Aug-16,59.75,61.10,59.33,60.63,527340
9-Aug-16,61.49,61.49,59.31,59.75,610813
8-Aug-16,60.37,62.18,60.37,61.41,1217027
5-Aug-16,58.44,60.38,58.42,60.01,941757
4-Aug-16,57.90,59.19,57.72,58.02,682956
3-Aug-16,59.01,59.03,57.63,57.85,638028
2-Aug-16,58.30,59.03,58.10,58.58,683834
1-Aug-16,60.35,60.96,58.79,58.83,690870
29-Jul-16,61.20,62.14,60.12,60.21,611264
28-Jul-16,60.50,62.20,59.90,61.18,970906
27-Jul-16,63.97,63.97,59.85,60.08,1465077
26-Jul-16,65.73,66.38,63.50,63.96,1098170
25-Jul-16,63.76,66.11,63.64,64.47,1209791
22-Jul-16,63.70,63.90,63.11,63.59,849656
21-Jul-16,63.80,64.13,63.19,63.70,747118
20-Jul-16,61.78,64.31,61.03,63.71,692500
19-Jul-16,60.45,62.62,60.34,62.08,577023
18-Jul-16,61.20,61.41,60.52,60.58,334111
15-Jul-16,61.08,62.26,60.47,61.69,298810
14-Jul-16,60.46,61.64,59.96,61.01,679462
13-Jul-16,60.01,60.89,59.44,60.00,685255
12-Jul-16,62.10,62.10,60.00,60.01,877997
11-Jul-16,62.07,62.96,61.71,61.81,605616
8-Jul-16,61.52,62.13,61.42,61.96,688678
7-Jul-16,62.50,62.76,61.83,62.00,536544
6-Jul-16,63.00,63.24,62.21,62.50,498039
5-Jul-16,62.88,64.17,61.97,63.53,665935
1-Jul-16,62.87,64.29,62.15,62.88,1058723
30-Jun-16,60.65,62.15,59.96,62.06,1170804
29-Jun-16,58.87,60.50,58.52,60.07,580381
28-Jun-16,58.64,58.80,57.18,58.46,444929
27-Jun-16,57.59,58.74,56.97,58.33,658636
24-Jun-16,54.97,58.19,54.97,57.65,490309
23-Jun-16,57.50,57.50,56.84,57.00,222506
22-Jun-16,56.00,57.11,55.51,56.90,292193
21-Jun-16,55.00,56.41,55.00,55.90,357787
20-Jun-16,53.79,54.84,53.47,54.75,307508
17-Jun-16,53.89,54.32,52.83,53.03,507343
16-Jun-16,54.00,54.91,53.01,53.52,478747
15-Jun-16,54.26,55.41,53.84,54.93,373354
14-Jun-16,53.62,54.38,53.32,54.02,635157
13-Jun-16,54.01,54.41,53.55,53.83,541603
10-Jun-16,53.00,54.83,52.51,54.51,356524
9-Jun-16,52.94,54.14,52.03,53.42,911425
8-Jun-16,55.50,55.50,53.35,53.40,735536
7-Jun-16,55.29,56.07,55.29,55.55,562042
6-Jun-16,55.76,55.87,55.20,55.44,447279
3-Jun-16,55.27,55.64,55.08,55.44,553416
2-Jun-16,54.91,55.63,54.91,55.18,488407
1-Jun-16,53.01,55.12,53.01,55.00,1154935
31-May-16,56.49,56.95,53.18,53.42,4138322
27-May-16,57.24,57.74,55.43,56.45,745772
26-May-16,56.64,57.44,56.35,56.97,519479
25-May-16,58.40,58.99,56.64,56.92,631748
24-May-16,55.33,58.46,55.33,58.13,1161823
23-May-16,53.89,55.56,53.89,55.21,521305
20-May-16,54.20,54.39,53.86,54.14,370128
19-May-16,52.98,53.81,52.60,53.77,389326
18-May-16,53.07,54.08,52.52,52.82,543742
17-May-16,54.50,54.59,52.94,53.09,292808
16-May-16,53.06,54.86,53.02,54.58,533282
13-May-16,53.31,53.86,52.58,52.65,444401
12-May-16,54.04,54.49,53.02,53.57,927366
11-May-16,54.42,54.74,53.50,53.76,273717
10-May-16,54.50,54.93,53.51,54.16,415240
9-May-16,54.70,54.99,53.68,54.12,579615
6-May-16,53.89,55.01,53.45,54.73,366412
5-May-16,55.89,56.06,55.06,55.24,349518
4-May-16,56.42,56.77,54.38,55.57,421095
3-May-16,57.63,57.99,56.66,56.88,436464
2-May-16,57.36,58.00,57.00,57.48,265098
29-Apr-16,58.25,58.34,56.51,57.86,511743
28-Apr-16,56.00,60.44,54.56,58.38,921288
27-Apr-16,57.11,57.45,56.11,56.39,389712
26-Apr-16,56.44,57.10,56.11,56.86,341497
25-Apr-16,56.71,57.05,55.93,56.31,386886
22-Apr-16,57.46,57.77,56.15,56.86,551877
21-Apr-16,56.62,57.71,55.99,57.32,422657
20-Apr-16,58.34,58.41,56.42,56.62,710571
19-Apr-16,55.06,58.52,55.06,58.49,873928
18-Apr-16,55.40,55.88,54.52,54.78,424204
15-Apr-16,54.32,55.97,54.16,55.43,375948
14-Apr-16,55.38,55.79,54.56,54.81,548074
13-Apr-16,52.60,55.47,52.54,55.23,833604
12-Apr-16,52.23,52.23,51.38,52.11,226425
11-Apr-16,51.61,52.60,51.61,51.91,315653
8-Apr-16,50.44,52.58,50.41,51.52,451945
7-Apr-16,49.40,50.54,49.40,50.13,420421
6-Apr-16,49.19,49.97,48.91,49.70,554982
5-Apr-16,49.27,49.63,48.95,49.31,402949
4-Apr-16,49.65,49.94,49.29,49.73,296246
1-Apr-16,49.12,50.19,48.95,49.68,504169
31-Mar-16,49.45,50.56,48.94,49.68,648931
30-Mar-16,49.79,50.19,49.28,49.61,489815
29-Mar-16,48.10,50.58,48.10,49.70,545331
28-Mar-16,50.18,50.18,47.69,47.99,660399
24-Mar-16,51.07,51.18,50.11,50.15,359890
23-Mar-16,50.92,51.65,50.36,51.34,530832
22-Mar-16,52.70,52.99,51.09,51.45,511130
21-Mar-16,53.28,53.49,52.31,52.70,501879
18-Mar-16,53.25,53.54,52.82,53.34,574393
17-Mar-16,51.23,53.75,51.23,53.62,600965
16-Mar-16,51.29,51.74,50.89,51.32,286266
15-Mar-16,50.74,51.76,50.70,51.51,353552
14-Mar-16,50.59,51.00,50.03,50.74,556779
11-Mar-16,50.90,51.85,50.42,50.64,822913
10-Mar-16,49.35,51.16,49.28,50.89,629550
9-Mar-16,49.00,49.56,48.80,49.13,433333
8-Mar-16,49.25,49.82,48.21,48.86,395196
7-Mar-16,49.44,50.35,49.44,49.72,447615
4-Mar-16,50.79,51.13,49.64,50.00,568601
3-Mar-16,50.39,51.11,49.40,50.20,286137
2-Mar-16,51.80,51.96,50.31,50.60,421856
1-Mar-16,52.22,52.66,51.54,51.64,462762
29-Feb-16,50.25,51.93,49.71,51.75,1401053
26-Feb-16,52.33,52.51,50.20,50.30,546148
25-Feb-16,51.00,52.20,50.91,52.16,444064
24-Feb-16,50.56,51.88,50.11,51.52,344092
23-Feb-16,50.61,51.56,50.21,51.09,442507
22-Feb-16,50.60,51.00,49.66,50.87,753506
19-Feb-16,49.78,50.26,49.52,50.22,364204
18-Feb-16,50.00,50.60,49.12,49.90,654145
17-Feb-16,49.34,50.19,48.05,49.89,1899227
16-Feb-16,45.25,50.00,45.25,49.34,1569876
12-Feb-16,43.58,44.94,43.58,44.88,1272558
11-Feb-16,43.28,44.12,42.64,43.56,822533
10-Feb-16,43.36,45.30,42.69,43.71,535916
9-Feb-16,45.22,45.22,42.64,42.97,684147
8-Feb-16,45.05,45.49,44.13,45.21,1000647
5-Feb-16,48.06,48.06,45.39,45.53,898598
4-Feb-16,49.00,49.00,47.33,47.95,600560
3-Feb-16,49.00,49.16,48.34,49.00,821925
2-Feb-16,49.49,49.73,47.98,48.70,771502
1-Feb-16,48.17,49.65,47.34,49.63,1363084
29-Jan-16,47.36,48.00,46.53,47.97,823645
28-Jan-16,45.00,47.51,44.84,47.37,1049378
27-Jan-16,45.00,45.82,43.84,44.65,1601386
26-Jan-16,43.93,43.93,42.95,43.50,411845
25-Jan-16,44.44,44.90,43.96,43.99,586717
22-Jan-16,44.65,44.65,43.79,44.00,529147
21-Jan-16,44.40,44.40,43.67,43.93,343995
20-Jan-16,43.33,44.73,43.12,44.37,518321
19-Jan-16,43.06,44.32,43.06,43.83,562288
15-Jan-16,41.87,42.12,41.34,41.82,510271
14-Jan-16,42.93,43.24,42.55,42.84,407563
13-Jan-16,43.78,44.15,41.89,42.35,339187
12-Jan-16,42.22,44.03,41.70,43.53,536047
11-Jan-16,43.11,43.11,41.66,42.22,1045686
8-Jan-16,44.95,44.95,43.33,43.93,432181
7-Jan-16,44.20,45.20,42.30,44.34,799947
6-Jan-16,45.44,46.92,45.01,45.80,1218609
5-Jan-16,45.21,46.33,45.04,45.65,572251
4-Jan-16,45.93,46.50,45.04,45.17,506499
31-Dec-15,46.29,46.84,46.18,46.47,135694
30-Dec-15,47.00,47.30,46.29,46.47,180850
29-Dec-15,47.20,47.29,46.42,46.97,623656
28-Dec-15,47.47,47.51,45.73,47.04,728500
24-Dec-15,47.00,47.73,46.89,47.51,556270
23-Dec-15,47.61,48.09,46.87,47.08,551122
22-Dec-15,48.00,48.29,46.60,47.32,940187
21-Dec-15,48.55,48.84,47.10,47.82,542889
18-Dec-15,48.01,48.66,47.71,48.49,754484
17-Dec-15,47.50,48.62,47.39,48.01,795813
16-Dec-15,47.22,47.55,46.78,47.49,545090
15-Dec-15,46.15,47.05,45.78,46.97,514338
14-Dec-15,45.54,45.92,45.25,45.83,509001
11-Dec-15,45.91,46.08,45.26,45.54,450831
10-Dec-15,46.67,46.95,46.13,46.40,464774
9-Dec-15,46.00,46.93,45.61,46.67,790294
8-Dec-15,46.08,46.29,45.16,45.88,1076839
7-Dec-15,45.31,46.87,45.09,46.79,1279752
4-Dec-15,45.44,45.58,44.86,45.29,1123700
3-Dec-15,44.53,45.87,44.32,45.50,1214631
2-Dec-15,43.92,44.54,43.70,44.53,1120222
1-Dec-15,44.04,44.31,41.87,43.58,1381882
30-Nov-15,43.50,44.59,43.19,44.04,4984561
27-Nov-15,43.23,43.72,42.02,43.28,677467
25-Nov-15,42.77,43.49,42.67,43.23,1025968
24-Nov-15,41.77,42.85,41.72,42.75,729430
23-Nov-15,41.80,42.09,41.46,41.99,488884
20-Nov-15,42.05,42.17,41.76,41.80,558995
19-Nov-15,41.23,42.03,40.99,41.80,557464
18-Nov-15,41.06,41.36,40.62,41.07,465411
17-Nov-15,41.11,41.70,40.96,41.17,486244
16-Nov-15,40.72,41.40,40.53,41.05,884462
13-Nov-15,41.08,41.93,40.57,40.71,672086
12-Nov-15,39.91,41.19,39.79,40.90,960781
11-Nov-15,38.90,40.00,38.50,39.87,870320
10-Nov-15,38.33,38.92,38.06,38.54,807484
9-Nov-15,38.00,38.50,37.55,38.39,476506
6-Nov-15,37.19,38.38,37.05,38.03,2390195
5-Nov-15,37.44,37.98,37.20,37.42,326510
4-Nov-15,38.40,38.50,37.32,37.38,528526
3-Nov-15,38.27,38.50,38.00,38.24,509223
2-Nov-15,38.41,38.65,37.94,38.40,343358
30-Oct-15,38.14,38.51,37.76,38.45,515534
29-Oct-15,37.95,38.60,37.80,38.05,631609
28-Oct-15,37.19,38.41,36.85,38.39,583555
27-Oct-15,37.32,37.62,37.00,37.37,530198
26-Oct-15,37.00,38.00,37.00,37.47,593743
23-Oct-15,36.66,37.35,36.28,37.02,1030500
22-Oct-15,37.85,37.89,35.53,35.80,870429
21-Oct-15,37.30,37.49,36.21,36.50,772707
20-Oct-15,36.87,37.39,36.61,37.30,497658
19-Oct-15,36.01,36.89,35.77,36.82,295770
16-Oct-15,35.50,36.09,34.97,36.05,775247
15-Oct-15,35.00,35.75,34.73,35.75,395798
14-Oct-15,34.33,34.70,34.01,34.61,276637
13-Oct-15,33.96,34.60,33.87,34.39,382112
12-Oct-15,33.71,34.30,33.71,34.11,426315
9-Oct-15,33.74,34.13,33.50,34.07,116386
8-Oct-15,33.86,34.19,33.46,33.83,517500
7-Oct-15,34.27,34.54,33.85,34.25,315475
6-Oct-15,33.93,34.25,33.41,33.72,167054
5-Oct-15,34.05,34.49,33.57,34.10,515885
2-Oct-15,31.19,33.93,31.19,33.72,357830
1-Oct-15,32.10,32.41,30.90,31.40,230756
30-Sep-15,30.98,32.52,30.94,32.15,771608
29-Sep-15,30.28,30.91,29.98,30.73,699692
28-Sep-15,30.19,31.00,30.03,30.18,459805
25-Sep-15,30.67,31.07,30.13,30.37,391094
24-Sep-15,30.53,31.03,30.18,30.27,411267
23-Sep-15,30.60,31.03,30.31,30.62,330307
22-Sep-15,30.23,31.03,30.03,30.39,447580
21-Sep-15,30.45,30.98,30.42,30.48,164886
18-Sep-15,30.71,31.27,30.27,30.39,398173
17-Sep-15,30.94,31.58,30.94,31.07,217897
16-Sep-15,30.91,31.79,30.91,31.12,231992
15-Sep-15,30.07,31.07,29.85,30.74,498784
14-Sep-15,31.09,31.09,30.32,30.43,181126
11-Sep-15,30.92,31.26,30.88,31.08,83187
10-Sep-15,31.19,31.63,30.85,31.07,196858
9-Sep-15,32.19,32.50,31.13,31.23,316905
8-Sep-15,31.03,32.25,31.03,32.00,441525
4-Sep-15,30.26,31.27,30.23,31.10,361441
3-Sep-15,30.03,30.97,30.02,30.41,157549
2-Sep-15,30.00,30.42,29.85,30.20,391107
1-Sep-15,30.09,30.99,29.88,29.98,503006
31-Aug-15,31.17,31.20,30.50,30.67,173243
28-Aug-15,31.16,31.62,30.78,31.32,157515
27-Aug-15,31.00,31.86,30.64,31.43,469697
26-Aug-15,30.31,30.49,29.58,30.44,277314
25-Aug-15,30.50,31.21,29.63,30.60,817713
24-Aug-15,26.80,29.77,26.48,29.00,486421
21-Aug-15,29.30,30.64,29.00,29.99,810727
20-Aug-15,31.00,31.29,29.80,29.85,578397
19-Aug-15,32.00,32.09,30.79,31.10,483941
18-Aug-15,33.04,33.22,32.06,32.08,207229
17-Aug-15,33.00,33.45,32.75,33.26,140381
14-Aug-15,33.04,33.48,32.97,33.18,135043
13-Aug-15,33.23,34.00,33.01,33.15,243230
12-Aug-15,33.51,33.95,33.06,33.23,269199
11-Aug-15,33.72,34.10,33.38,33.90,359869
10-Aug-15,33.88,33.98,33.76,33.85,88893
7-Aug-15,33.25,34.24,33.17,33.82,166900
6-Aug-15,34.00,34.03,33.21,33.33,250951
5-Aug-15,34.61,34.75,33.81,34.04,376758
4-Aug-15,33.98,34.80,33.98,34.60,80599
3-Aug-15,33.81,34.25,33.46,33.92,121887
31-Jul-15,34.34,34.39,33.61,33.81,131639
30-Jul-15,34.32,34.83,33.61,33.99,213785
29-Jul-15,33.26,34.58,33.20,34.34,518429
28-Jul-15,34.00,34.16,32.80,33.13,419861
27-Jul-15,34.55,34.76,33.10,33.74,436409
24-Jul-15,35.35,36.00,35.12,35.30,572612
23-Jul-15,35.18,37.56,34.95,35.25,1283250
22-Jul-15,34.27,34.83,34.00,34.65,319231
21-Jul-15,34.17,34.54,33.69,34.36,333803
20-Jul-15,33.85,34.15,33.84,33.99,153410
17-Jul-15,34.00,34.08,33.22,34.00,168603
16-Jul-15,33.67,34.09,33.60,33.89,122697
15-Jul-15,33.46,33.46,32.85,33.11,1220227
14-Jul-15,33.40,33.94,32.88,33.60,205943
13-Jul-15,34.04,34.15,33.39,33.40,286007
10-Jul-15,34.19,34.21,33.55,34.04,536582
9-Jul-15,33.82,34.85,33.23,33.60,533731
8-Jul-15,29.89,34.14,29.73,32.42,715214
7-Jul-15,34.20,34.20,31.86,32.18,1549420
6-Jul-15,35.14,35.18,33.96,34.49,1216666
2-Jul-15,35.89,36.00,35.25,35.76,188020
1-Jul-15,34.84,36.05,34.84,35.95,389577
30-Jun-15,35.05,35.35,34.82,35.30,152403
29-Jun-15,33.80,34.87,33.70,34.68,355434
26-Jun-15,35.88,35.88,34.20,34.63,1015619
25-Jun-15,36.17,36.17,35.72,35.95,199967
24-Jun-15,36.53,36.82,36.10,36.12,140498
23-Jun-15,36.07,37.02,36.06,36.58,309427
22-Jun-15,37.25,37.34,35.47,35.86,549512
19-Jun-15,38.22,38.38,36.97,37.06,246503
18-Jun-15,37.98,38.23,37.91,38.19,453704
17-Jun-15,38.03,38.03,37.75,37.98,533248
16-Jun-15,37.72,38.03,37.06,38.00,327576
15-Jun-15,38.05,38.22,37.85,37.96,419535
12-Jun-15,38.01,38.11,37.54,38.11,874009
11-Jun-15,37.71,38.00,37.60,38.00,658703
10-Jun-15,36.20,37.77,36.11,37.66,398353
9-Jun-15,35.90,36.09,35.77,36.00,108974
8-Jun-15,36.50,36.58,35.85,36.04,194237
5-Jun-15,35.89,36.50,35.88,36.48,165193
4-Jun-15,35.90,36.14,35.78,35.93,98024
3-Jun-15,36.35,36.37,35.90,36.04,134543
2-Jun-15,35.99,36.42,35.80,35.94,303901
1-Jun-15,36.50,36.56,36.25,36.49,436431
29-May-15,36.12,36.43,35.86,36.22,384526
28-May-15,36.26,36.42,35.95,36.01,283033
27-May-15,36.40,36.56,36.32,36.49,241559
26-May-15,36.49,36.50,35.98,36.19,694730
22-May-15,36.42,36.54,36.18,36.24,330799
21-May-15,36.04,36.50,36.04,36.33,186600
20-May-15,36.25,36.59,36.06,36.17,125940
19-May-15,36.48,36.53,36.06,36.33,104734
18-May-15,36.00,36.51,35.92,36.17,626459
15-May-15,36.48,36.60,35.88,36.04,132924
14-May-15,36.20,36.42,36.04,36.17,208707
13-May-15,36.00,36.51,35.95,36.13,138000
12-May-15,36.13,36.13,35.40,35.78,155880
11-May-15,36.63,36.88,36.23,36.30,179453
8-May-15,37.25,37.39,36.49,36.63,72336
7-May-15,36.50,37.17,36.00,36.79,299595
6-May-15,36.98,37.09,36.45,36.51,226990
5-May-15,36.59,36.90,36.11,36.83,440569
4-May-15,36.95,37.09,36.46,37.00,630357
1-May-15,36.62,37.26,36.49,37.21,235337
30-Apr-15,37.53,37.78,36.47,36.75,462525
29-Apr-15,38.11,38.25,37.53,37.79,397187
28-Apr-15,38.05,39.26,35.75,38.25,1492658
27-Apr-15,36.64,36.94,35.58,36.01,659212
24-Apr-15,37.00,37.00,36.23,36.24,229965
23-Apr-15,36.25,37.00,36.25,36.88,295450
22-Apr-15,36.17,36.60,35.91,36.22,506668
21-Apr-15,36.13,36.23,35.52,35.96,469436
20-Apr-15,36.00,36.19,35.80,36.05,979227
17-Apr-15,35.40,36.06,35.03,35.90,222916
16-Apr-15,35.94,36.19,35.76,35.81,727354
15-Apr-15,36.14,36.15,35.51,35.75,718608
14-Apr-15,35.82,36.28,35.36,36.19,547000
13-Apr-15,36.04,36.50,35.65,35.82,506753
10-Apr-15,36.00,36.38,35.78,35.98,302143
9-Apr-15,35.80,36.49,35.45,36.20,623610
8-Apr-15,35.42,35.80,35.03,35.80,457145
7-Apr-15,34.62,35.29,34.50,35.13,419824
6-Apr-15,34.28,34.66,33.99,34.62,139134
2-Apr-15,34.14,34.59,33.96,34.31,179682
1-Apr-15,33.51,34.14,33.31,34.14,187970
31-Mar-15,33.68,33.71,33.13,33.22,196012
30-Mar-15,33.26,33.84,33.22,33.79,436205
27-Mar-15,33.10,33.80,33.00,33.10,795548
26-Mar-15,33.36,33.36,32.79,32.96,224948
25-Mar-15,33.12,33.57,32.63,33.46,277160
24-Mar-15,33.62,33.72,32.88,33.21,354506
23-Mar-15,32.42,33.70,32.42,33.67,618855
20-Mar-15,31.86,32.79,31.64,32.53,165998
19-Mar-15,32.50,32.56,31.90,31.94,197227
18-Mar-15,32.63,32.76,32.27,32.57,287376
17-Mar-15,32.35,32.80,32.21,32.69,162851
16-Mar-15,32.48,32.67,32.08,32.42,193004
13-Mar-15,32.13,32.44,31.90,32.19,472956
12-Mar-15,31.43,32.45,31.10,32.27,514018
11-Mar-15,31.32,31.69,31.00,31.13,171473
10-Mar-15,31.18,31.66,30.99,31.30,223359
9-Mar-15,30.92,31.52,30.73,31.46,221991
6-Mar-15,30.96,30.96,30.20,30.84,305234
5-Mar-15,30.93,31.21,30.62,31.05,219229
4-Mar-15,30.48,31.07,30.21,31.03,210519
3-Mar-15,30.88,31.15,30.44,30.63,228026
2-Mar-15,30.56,31.18,30.52,31.06,254280
27-Feb-15,30.67,30.90,30.25,30.72,189427
26-Feb-15,31.13,31.20,30.65,30.75,95244
25-Feb-15,31.50,31.50,30.91,31.05,182337
24-Feb-15,30.90,31.61,30.84,31.45,370715
23-Feb-15,29.82,30.90,29.61,30.88,505701
20-Feb-15,30.69,30.70,30.00,30.09,103863
19-Feb-15,29.98,30.94,28.95,30.68,148748
18-Feb-15,30.02,30.42,29.88,30.04,605991
17-Feb-15,30.32,30.36,29.75,30.06,207093
13-Feb-15,30.50,30.76,29.91,30.20,289556
12-Feb-15,30.47,30.66,30.02,30.49,458945
11-Feb-15,29.38,30.50,29.34,30.40,403084
10-Feb-15,30.16,30.16,28.83,29.72,294682
9-Feb-15,29.91,30.36,29.83,30.11,245276
6-Feb-15,30.00,30.23,29.84,30.07,274619
5-Feb-15,30.65,30.71,30.02,30.16,328310
4-Feb-15,31.14,31.14,30.20,30.59,493354
3-Feb-15,31.30,31.33,30.90,31.11,129250
2-Feb-15,31.09,31.55,30.66,31.33,841055
30-Jan-15,31.48,31.49,30.95,31.01,396539
29-Jan-15,31.00,31.55,30.64,31.50,444735
28-Jan-15,30.66,31.73,30.62,31.18,514381
27-Jan-15,30.00,30.52,30.00,30.51,776972
26-Jan-15,30.48,30.50,29.78,30.20,457950
23-Jan-15,29.45,30.46,29.20,30.17,1324050
22-Jan-15,28.00,29.44,27.62,29.33,1173193
21-Jan-15,27.97,28.50,27.43,27.50,900464
20-Jan-15,28.20,28.48,27.74,27.99,675705
16-Jan-15,28.27,28.79,27.93,28.19,240343
15-Jan-15,27.96,28.21,27.61,27.97,482615
14-Jan-15,27.21,27.87,27.19,27.69,205046
13-Jan-15,27.26,27.61,27.04,27.52,482783
12-Jan-15,27.66,27.66,27.04,27.08,376436
9-Jan-15,27.47,28.30,27.37,27.66,560998
8-Jan-15,26.11,28.30,26.11,27.36,1007051
7-Jan-15,27.58,27.74,26.14,26.20,1181174
6-Jan-15,28.10,28.20,27.30,27.55,350113
5-Jan-15,28.38,28.86,27.76,28.05,567049
2-Jan-15,28.12,28.32,27.79,28.10,178135
31-Dec-14,28.26,28.26,27.87,28.09,347170
30-Dec-14,27.97,28.29,27.88,28.04,290978
29-Dec-14,28.37,28.37,28.00,28.07,376153
26-Dec-14,28.44,28.58,28.21,28.34,121033
24-Dec-14,28.00,28.63,27.92,28.39,414328
23-Dec-14,28.75,28.79,27.99,28.00,1059058
22-Dec-14,29.49,29.49,28.41,29.06,627055
19-Dec-14,29.92,30.11,29.43,29.56,121865
18-Dec-14,30.12,30.43,29.66,29.98,270388
17-Dec-14,29.13,29.80,28.51,29.75,643241
16-Dec-14,29.27,29.59,28.94,29.15,475387
15-Dec-14,29.50,29.74,29.46,29.60,423419
12-Dec-14,28.94,29.46,28.84,29.43,281263
11-Dec-14,29.00,29.60,28.68,29.11,498589
10-Dec-14,28.00,28.81,27.90,28.65,397003
9-Dec-14,27.68,29.00,27.68,28.40,468611
8-Dec-14,29.23,29.52,27.12,28.13,852876
5-Dec-14,30.28,30.64,29.45,29.58,337079
4-Dec-14,30.88,30.98,29.97,30.17,329878
3-Dec-14,30.30,31.14,30.15,31.04,442852
2-Dec-14,29.61,30.60,29.18,30.02,833500
1-Dec-14,30.60,30.60,29.26,29.45,844879
28-Nov-14,31.27,31.42,30.27,30.72,644284
26-Nov-14,31.75,31.80,31.28,31.43,170351
25-Nov-14,31.90,32.07,31.43,31.64,393000
24-Nov-14,32.00,34.99,31.91,32.02,201575
21-Nov-14,32.30,32.48,31.97,32.03,171507
20-Nov-14,31.96,32.49,31.61,32.02,336656
19-Nov-14,32.15,32.15,31.63,31.94,289210
18-Nov-14,31.68,32.40,31.67,32.00,379920
17-Nov-14,31.85,32.20,31.52,32.01,499958
14-Nov-14,32.08,32.22,31.88,32.06,218159
13-Nov-14,32.36,32.60,31.97,32.18,335723
12-Nov-14,31.58,32.47,31.58,32.21,264237
11-Nov-14,32.91,32.91,32.01,32.11,195859
10-Nov-14,32.38,33.05,32.29,32.98,483724
7-Nov-14,32.00,32.46,31.91,32.19,287210
6-Nov-14,31.96,32.23,31.86,32.08,395912
5-Nov-14,32.00,32.00,31.42,31.78,419585
4-Nov-14,30.95,32.04,30.82,32.03,702430
3-Nov-14,31.75,31.89,30.67,30.84,863613
31-Oct-14,31.98,32.25,31.72,31.76,367021
30-Oct-14,31.84,32.28,30.21,31.72,295091
29-Oct-14,32.00,32.12,31.45,31.84,1247374
28-Oct-14,31.91,32.17,31.69,32.01,684038
27-Oct-14,32.58,32.73,32.00,32.22,509038
24-Oct-14,32.54,33.52,32.50,32.83,839470
23-Oct-14,32.20,33.08,32.07,32.32,512879
22-Oct-14,31.28,32.54,31.19,32.07,1017695
21-Oct-14,32.01,32.49,30.16,31.03,2933653
20-Oct-14,34.30,34.30,33.15,33.70,1207755
17-Oct-14,33.94,35.34,33.60,34.48,819722
16-Oct-14,32.49,34.39,32.49,33.55,576602
15-Oct-14,31.53,33.30,31.32,33.17,405270
14-Oct-14,32.50,32.88,30.66,32.48,915463
13-Oct-14,34.34,34.73,31.83,32.17,1107478
10-Oct-14,35.31,35.80,34.08,34.50,636169
9-Oct-14,35.75,36.20,35.44,35.77,376131
8-Oct-14,34.00,35.82,33.98,35.82,386648
7-Oct-14,35.45,35.52,33.99,34.02,498639
6-Oct-14,35.20,37.31,35.05,35.43,769317
3-Oct-14,34.35,35.17,34.35,34.91,296011
2-Oct-14,34.50,34.90,33.87,34.29,800225
1-Oct-14,35.04,35.06,34.32,34.39,414034
30-Sep-14,35.01,35.13,34.65,34.94,330265
29-Sep-14,33.98,35.07,33.87,34.96,526119
26-Sep-14,34.70,34.79,34.19,34.40,487547
25-Sep-14,35.05,35.20,34.70,34.80,215334
24-Sep-14,34.50,35.45,34.20,34.93,349130
23-Sep-14,34.28,34.90,33.92,34.50,663376
22-Sep-14,35.67,35.74,34.27,34.59,783287
19-Sep-14,36.10,36.47,35.36,35.59,554529
18-Sep-14,35.26,36.74,35.18,35.90,1002956
17-Sep-14,34.50,34.99,34.11,34.83,337926
16-Sep-14,34.22,34.85,34.00,34.73,433804
15-Sep-14,34.80,34.92,34.06,34.32,766112
12-Sep-14,34.41,34.92,34.17,34.75,413106
11-Sep-14,33.93,34.47,33.80,34.40,477904
10-Sep-14,34.16,34.52,33.50,34.01,650791
9-Sep-14,34.34,34.42,33.61,33.93,714085
8-Sep-14,34.05,34.74,33.96,34.71,523468
5-Sep-14,34.00,34.70,33.91,34.05,583377
4-Sep-14,35.30,35.30,34.21,34.26,428271
3-Sep-14,35.00,35.45,34.91,34.93,667960
2-Sep-14,34.25,35.34,34.25,34.78,1167697
29-Aug-14,34.01,34.49,33.91,34.20,320955
28-Aug-14,34.53,34.56,33.91,34.01,359808
27-Aug-14,35.23,35.23,34.25,34.52,465018
26-Aug-14,33.99,34.97,33.99,34.71,388504
25-Aug-14,34.69,34.69,33.62,33.94,635491
22-Aug-14,34.91,34.93,33.77,34.15,765502
21-Aug-14,35.02,35.19,34.11,34.76,569747
20-Aug-14,33.76,34.64,33.73,34.57,877740
19-Aug-14,34.14,34.14,33.51,34.02,1366920
18-Aug-14,33.94,34.30,33.66,34.28,907228
15-Aug-14,33.12,33.54,32.78,33.51,315816
14-Aug-14,33.23,33.67,32.68,32.90,359948
13-Aug-14,32.77,32.78,32.10,32.73,454847
12-Aug-14,32.67,32.77,32.07,32.35,435760
11-Aug-14,32.37,32.98,32.16,32.65,456047
8-Aug-14,31.84,32.24,31.77,32.17,282686
7-Aug-14,31.68,31.99,31.59,31.77,975023
6-Aug-14,31.25,31.78,31.00,31.58,744245
5-Aug-14,31.91,31.91,31.00,31.23,866693
4-Aug-14,29.98,32.00,29.96,31.94,1137244
1-Aug-14,29.35,30.36,29.25,30.04,956049
31-Jul-14,29.44,29.74,29.23,29.45,798807
30-Jul-14,29.78,29.86,29.25,29.78,805767
29-Jul-14,27.60,29.89,27.60,29.60,1739269
28-Jul-14,27.42,27.71,27.12,27.33,501890
25-Jul-14,27.28,27.33,26.94,27.02,461614
24-Jul-14,27.47,27.65,27.04,27.24,635544
23-Jul-14,28.36,28.44,27.14,27.20,745683
22-Jul-14,27.28,28.30,27.27,27.78,1190591
21-Jul-14,26.93,27.41,26.25,27.05,1266189
18-Jul-14,27.08,27.68,26.70,27.46,538433
17-Jul-14,26.91,27.86,26.61,26.82,694531
16-Jul-14,28.06,28.20,27.14,27.22,346420
15-Jul-14,28.52,28.56,27.69,27.87,371752
14-Jul-14,28.01,28.42,27.89,28.34,376375
11-Jul-14,27.90,28.39,27.76,27.92,429156
10-Jul-14,27.76,28.25,27.65,27.92,456835
9-Jul-14,27.60,28.81,27.60,28.53,522071
8-Jul-14,29.15,29.15,27.05,27.64,1085585
7-Jul-14,28.82,29.97,28.81,29.17,952386
3-Jul-14,28.50,28.90,28.42,28.59,442847
2-Jul-14,28.60,28.80,28.04,28.50,615680
1-Jul-14,27.50,28.49,27.39,28.31,534409
30-Jun-14,27.13,27.68,26.63,27.50,561990
27-Jun-14,26.65,27.11,26.36,26.90,210135
26-Jun-14,27.71,28.25,26.73,26.76,488141
25-Jun-14,27.14,28.04,26.97,27.74,506053
24-Jun-14,27.00,27.79,26.70,27.10,925609
23-Jun-14,26.23,27.06,25.26,26.99,458283
20-Jun-14,26.56,26.56,26.00,26.36,648924
19-Jun-14,27.17,27.34,26.42,26.56,603714
18-Jun-14,27.00,27.29,26.80,27.26,550320
17-Jun-14,27.00,27.34,26.72,26.97,527701
16-Jun-14,26.23,27.41,26.10,27.14,604500
13-Jun-14,26.17,26.53,25.92,26.48,281677
12-Jun-14,26.19,26.64,25.97,26.22,299183
11-Jun-14,26.25,26.32,25.72,26.31,316476
10-Jun-14,25.09,26.64,25.09,26.45,908920
9-Jun-14,24.64,26.14,24.60,25.99,1498889
6-Jun-14,24.10,24.99,24.04,24.64,772218
5-Jun-14,23.11,24.16,22.98,23.85,706396
4-Jun-14,22.90,23.10,22.85,22.98,506173
3-Jun-14,22.69,23.09,22.59,23.01,518531
2-Jun-14,23.00,23.19,22.89,23.00,361214
30-May-14,22.96,23.14,22.52,22.99,410925
29-May-14,22.77,22.90,22.60,22.70,452461
28-May-14,23.00,23.00,22.50,22.55,228763
27-May-14,22.99,23.15,22.75,23.00,312574
23-May-14,23.00,23.11,22.63,22.99,424298
22-May-14,23.50,23.51,22.77,22.92,888911
21-May-14,22.76,23.46,22.66,23.45,860375
20-May-14,22.64,22.70,21.78,22.55,576384
19-May-14,21.64,22.85,21.60,22.76,1175304
16-May-14,21.56,22.25,20.91,21.53,3708232
15-May-14,24.68,24.68,19.32,20.22,3386648
14-May-14,24.71,25.31,24.70,25.16,294252
13-May-14,25.12,25.29,24.57,24.71,173001
12-May-14,23.21,25.21,23.14,25.16,955870
9-May-14,22.60,23.20,22.50,23.15,205356
8-May-14,22.60,23.37,22.50,22.53,138637
7-May-14,23.36,23.47,22.51,22.90,197194
6-May-14,23.23,23.64,23.19,23.48,167758
5-May-14,23.22,23.60,22.89,23.42,131273
2-May-14,21.30,23.54,21.25,23.47,232934
1-May-14,22.05,22.50,21.87,22.15,82721
30-Apr-14,21.86,22.17,21.25,22.12,196893
29-Apr-14,22.28,22.62,22.19,22.42,97421
28-Apr-14,23.09,23.09,22.20,22.36,256852
25-Apr-14,23.18,23.29,22.97,23.10,254399
24-Apr-14,23.58,23.78,23.01,23.33,313349
23-Apr-14,23.50,23.82,23.10,23.33,515651
22-Apr-14,23.55,23.95,22.07,22.97,927512
21-Apr-14,22.05,23.19,22.05,23.09,347060
17-Apr-14,22.18,22.40,21.86,21.90,311530
16-Apr-14,21.63,22.45,21.51,22.43,387064
15-Apr-14,21.50,21.94,20.73,21.44,404891
14-Apr-14,21.00,21.76,21.00,21.43,797659
11-Apr-14,20.67,21.45,20.55,20.82,269169
10-Apr-14,21.40,21.40,20.73,20.73,318883
9-Apr-14,21.48,21.76,21.19,21.41,157961
8-Apr-14,21.06,21.37,20.85,21.24,266907
7-Apr-14,21.43,21.67,20.70,20.91,544839
4-Apr-14,22.16,22.29,21.33,21.50,190033
3-Apr-14,22.44,22.59,21.84,21.97,292768
2-Apr-14,23.35,23.47,22.47,22.59,115417
1-Apr-14,22.04,23.19,22.04,23.10,184367
31-Mar-14,22.74,22.92,22.38,22.52,305772
28-Mar-14,22.00,22.98,22.00,22.54,250524
27-Mar-14,22.49,22.49,21.90,22.00,400585
26-Mar-14,23.38,23.38,22.29,22.38,183347
25-Mar-14,22.28,23.79,22.22,23.27,379067
24-Mar-14,23.47,23.47,21.78,22.11,695542
21-Mar-14,24.84,24.84,23.72,23.79,657892
20-Mar-14,24.52,25.00,24.08,24.18,421161
19-Mar-14,24.55,24.80,24.38,24.71,271759
18-Mar-14,25.06,25.06,24.26,24.54,317476
17-Mar-14,24.53,24.77,24.28,24.46,181057
14-Mar-14,24.18,24.57,24.13,24.51,234293
13-Mar-14,24.51,24.76,24.02,24.22,157451
12-Mar-14,23.96,24.50,23.95,24.47,193007
11-Mar-14,24.00,24.76,24.00,24.05,321349
10-Mar-14,24.25,24.35,23.75,24.01,398902
7-Mar-14,24.00,24.54,23.85,24.00,444008
6-Mar-14,24.15,24.19,23.61,23.90,219673
5-Mar-14,23.20,24.08,23.20,24.05,395744
4-Mar-14,23.75,24.18,23.54,23.90,699408
3-Mar-14,23.24,23.75,22.91,23.57,540436
28-Feb-14,24.59,24.75,22.95,23.72,902567
27-Feb-14,24.97,25.00,24.00,24.69,485228
26-Feb-14,24.97,25.35,24.90,24.93,955183
25-Feb-14,25.43,25.49,24.90,25.09,803536
24-Feb-14,24.90,25.90,24.88,25.43,559041
21-Feb-14,24.50,25.00,24.32,24.90,526342
20-Feb-14,24.16,24.61,24.05,24.51,372023
19-Feb-14,24.59,24.74,24.08,24.17,671794
18-Feb-14,24.57,25.08,24.53,24.59,513944
14-Feb-14,23.87,24.27,23.82,24.17,267213
13-Feb-14,23.83,24.11,23.75,23.97,517374
12-Feb-14,24.00,24.10,23.76,23.91,311892
11-Feb-14,24.47,24.55,23.77,23.93,311215
10-Feb-14,24.85,25.98,24.28,24.30,783420
7-Feb-14,24.01,24.35,24.01,24.30,310940
6-Feb-14,23.96,24.08,23.60,23.97,201739
5-Feb-14,23.15,23.92,22.67,23.84,479133
4-Feb-14,23.22,23.93,23.13,23.41,936307
3-Feb-14,23.85,24.38,23.41,23.49,368664
31-Jan-14,22.87,24.18,22.87,23.95,303449
30-Jan-14,24.00,24.38,23.47,23.51,326905
29-Jan-14,24.10,24.34,23.62,23.85,547986
28-Jan-14,22.02,24.68,21.97,24.41,1136442
27-Jan-14,23.11,23.40,20.25,21.26,1424836
24-Jan-14,23.50,23.89,23.01,23.52,1134399
23-Jan-14,24.25,24.25,23.00,23.52,1280842
22-Jan-14,26.08,26.58,24.92,25.61,1231171
21-Jan-14,25.37,25.60,24.44,24.90,858415
17-Jan-14,24.34,24.48,23.86,24.05,404600
16-Jan-14,23.42,24.43,23.35,24.20,464735
15-Jan-14,23.27,23.51,22.90,23.40,427514
14-Jan-14,22.93,23.38,22.70,23.36,609440
13-Jan-14,23.03,23.37,22.64,23.01,487843
10-Jan-14,22.53,23.00,22.31,22.91,332583
9-Jan-14,23.88,23.88,22.26,22.53,814678
8-Jan-14,22.97,23.83,22.61,23.49,681827
7-Jan-14,21.73,23.53,21.73,22.18,1184913
6-Jan-14,21.51,22.12,21.42,21.58,762705
3-Jan-14,21.35,21.97,21.30,21.49,470146
2-Jan-14,22.00,22.04,21.04,21.15,346508
31-Dec-13,22.05,22.12,21.84,21.99,141730
30-Dec-13,22.00,22.37,21.83,21.99,329846
27-Dec-13,22.10,22.48,21.53,21.83,292137
26-Dec-13,22.64,22.64,21.77,21.98,456998
24-Dec-13,20.15,21.56,20.10,21.50,816393
23-Dec-13,19.87,20.03,19.80,20.00,304598
20-Dec-13,19.86,20.04,19.75,19.87,385953
19-Dec-13,19.89,20.00,19.80,19.89,370176
18-Dec-13,19.72,19.96,19.72,19.89,209234
17-Dec-13,19.76,19.98,19.72,19.78,194553
16-Dec-13,19.90,20.16,19.69,19.75,306423
13-Dec-13,19.79,19.95,19.67,19.83,145915
12-Dec-13,19.06,19.92,18.90,19.74,319640
11-Dec-13,19.50,19.69,18.00,18.90,1076713
10-Dec-13,19.85,19.98,19.51,19.75,202924
9-Dec-13,20.11,20.33,19.50,19.85,328925
6-Dec-13,19.81,19.93,19.66,19.88,223681
5-Dec-13,19.85,19.85,19.50,19.66,200319
4-Dec-13,19.45,19.93,19.45,19.87,257297
3-Dec-13,19.65,19.95,19.06,19.48,330708
2-Dec-13,19.64,19.94,19.61,19.82,224468
29-Nov-13,19.68,19.80,19.56,19.70,46156
27-Nov-13,19.35,19.81,19.08,19.67,122320
26-Nov-13,19.50,19.80,19.30,19.41,177569
25-Nov-13,19.92,19.98,19.43,19.50,159712
22-Nov-13,19.34,19.88,19.13,19.82,201467
21-Nov-13,19.23,19.69,19.18,19.40,196496
20-Nov-13,19.87,19.92,19.15,19.19,436661
19-Nov-13,20.09,20.09,19.71,19.93,535870
18-Nov-13,19.74,20.15,19.60,19.95,599366
15-Nov-13,19.94,19.95,19.10,19.53,449230
14-Nov-13,19.22,20.44,19.22,19.84,991770
13-Nov-13,18.91,19.40,18.85,19.15,884667
12-Nov-13,19.17,19.17,18.56,18.94,189960
11-Nov-13,18.63,19.38,18.46,19.05,298685
8-Nov-13,18.14,18.63,18.14,18.52,103860
7-Nov-13,18.87,18.87,17.98,18.13,195604
6-Nov-13,18.79,18.96,18.43,18.74,178889
5-Nov-13,18.96,18.96,18.31,18.63,129748
4-Nov-13,18.41,18.91,18.12,18.87,409379
1-Nov-13,19.50,19.50,18.28,18.36,408277
31-Oct-13,19.56,19.64,18.86,19.19,309305
30-Oct-13,19.25,19.80,18.84,19.60,380431
29-Oct-13,18.86,19.20,18.70,19.20,354861
28-Oct-13,18.73,19.25,18.42,18.68,472206
25-Oct-13,18.53,18.79,18.02,18.69,646978
24-Oct-13,18.04,18.60,18.00,18.43,306775
23-Oct-13,18.00,18.57,17.57,18.05,600864
22-Oct-13,17.20,17.84,16.25,17.57,844603
21-Oct-13,15.50,16.18,15.49,15.92,643236
18-Oct-13,14.89,15.78,14.85,15.43,490652
17-Oct-13,14.76,15.28,14.44,14.88,735588
16-Oct-13,15.00,15.04,14.91,14.96,484269
15-Oct-13,14.95,15.05,14.90,14.93,393384
14-Oct-13,14.80,15.15,14.66,14.98,476188
11-Oct-13,14.55,14.97,14.55,14.92,122426
10-Oct-13,14.46,14.66,14.37,14.56,199867
9-Oct-13,14.22,14.58,14.04,14.36,159875
8-Oct-13,15.00,15.00,13.96,14.26,398467
7-Oct-13,14.87,15.00,14.80,14.96,270662
4-Oct-13,14.65,14.96,14.55,14.92,99665
3-Oct-13,14.72,14.76,14.60,14.65,93473
2-Oct-13,14.40,14.86,14.37,14.73,139109
1-Oct-13,14.56,14.57,14.35,14.55,378763
30-Sep-13,15.04,15.04,14.45,14.50,262837
27-Sep-13,15.00,15.20,14.90,14.98,452375
26-Sep-13,15.14,16.22,14.96,15.02,800345
25-Sep-13,14.00,15.32,13.97,14.88,1131963
24-Sep-13,14.00,14.25,13.92,14.00,183282
23-Sep-13,13.85,14.09,13.78,13.98,258877
20-Sep-13,13.79,14.05,13.62,13.64,257066
19-Sep-13,12.94,13.94,12.94,13.84,449244
18-Sep-13,12.99,13.10,12.96,13.01,205182
17-Sep-13,13.09,13.15,12.89,12.95,142141
16-Sep-13,13.11,13.28,12.86,13.09,398734
13-Sep-13,12.91,13.05,12.87,12.96,49497
12-Sep-13,13.00,13.07,12.78,12.91,136680
11-Sep-13,13.20,13.20,12.88,12.95,145358
10-Sep-13,13.35,13.35,13.01,13.21,248305
9-Sep-13,12.67,13.49,12.67,13.33,199104
6-Sep-13,12.49,12.74,12.25,12.61,76574
5-Sep-13,12.52,12.66,12.34,12.43,34425
4-Sep-13,12.05,12.56,12.05,12.53,62157
3-Sep-13,11.92,12.05,11.79,12.04,84527
30-Aug-13,12.04,12.08,11.70,11.92,61103
29-Aug-13,12.10,12.13,11.86,12.08,75427
28-Aug-13,12.20,12.30,11.93,12.05,136052
27-Aug-13,12.39,12.49,12.17,12.29,127228
26-Aug-13,12.44,12.58,12.21,12.43,74057
23-Aug-13,12.71,12.73,12.50,12.55,77119
22-Aug-13,12.47,12.78,12.42,12.77,362092
21-Aug-13,12.49,12.50,12.36,12.41,177446
20-Aug-13,12.35,12.53,12.35,12.49,77582
19-Aug-13,12.36,12.46,12.30,12.35,48713
16-Aug-13,12.42,12.57,12.23,12.49,60347
15-Aug-13,12.73,12.83,12.50,12.50,176453
14-Aug-13,12.59,12.98,12.53,12.92,87147
13-Aug-13,12.60,12.80,12.50,12.67,98679
12-Aug-13,12.55,12.71,12.38,12.70,73923
9-Aug-13,12.70,12.75,12.55,12.55,95562
8-Aug-13,12.30,12.90,12.28,12.64,1409217
7-Aug-13,12.42,12.45,12.27,12.38,75767
6-Aug-13,12.50,12.55,12.35,12.38,124196
5-Aug-13,12.37,12.48,12.31,12.45,118272
2-Aug-13,12.84,13.34,12.07,12.28,548361
1-Aug-13,11.80,12.10,11.59,12.02,212866
31-Jul-13,11.40,11.76,11.30,11.76,260176
30-Jul-13,11.50,11.78,11.46,11.54,718388
29-Jul-13,11.50,11.70,11.40,11.61,152694
26-Jul-13,11.39,11.80,11.24,11.78,275070
25-Jul-13,11.75,11.81,11.18,11.33,221807
24-Jul-13,11.80,11.93,11.41,11.81,264973
23-Jul-13,11.20,11.85,11.16,11.60,683439
22-Jul-13,11.02,11.33,10.80,10.96,486951
19-Jul-13,10.66,10.79,10.65,10.74,176445
18-Jul-13,10.61,10.75,10.50,10.73,109499
17-Jul-13,10.69,10.86,10.25,10.67,208472
16-Jul-13,10.71,10.75,10.53,10.60,93830
15-Jul-13,10.64,10.76,10.61,10.76,82508
12-Jul-13,10.63,10.70,10.49,10.61,71050
11-Jul-13,10.57,10.73,10.55,10.70,47231
10-Jul-13,10.22,10.62,10.22,10.58,31569
9-Jul-13,10.35,10.43,10.15,10.28,112158
8-Jul-13,10.70,10.70,10.16,10.34,134225
5-Jul-13,10.31,10.66,10.31,10.65,48460
3-Jul-13,10.63,10.63,10.30,10.30,56905
2-Jul-13,10.63,10.75,10.52,10.59,172069
1-Jul-13,10.45,10.75,10.45,10.71,144925
28-Jun-13,10.45,10.54,10.43,10.48,37558
27-Jun-13,10.06,10.56,10.06,10.50,118286
26-Jun-13,9.99,10.28,9.97,10.23,97554
25-Jun-13,9.70,10.28,9.50,9.97,547302
24-Jun-13,9.90,10.00,9.50,9.70,237731
21-Jun-13,10.00,10.14,9.98,10.01,115300
20-Jun-13,10.13,10.21,9.89,10.01,228044
19-Jun-13,10.28,10.32,10.16,10.22,146469
18-Jun-13,10.19,10.47,10.19,10.29,134358
17-Jun-13,10.36,10.47,10.16,10.20,180794
14-Jun-13,10.47,10.53,10.32,10.32,78561
13-Jun-13,10.40,10.57,10.25,10.41,52006
12-Jun-13,10.74,10.74,10.44,10.45,56184
11-Jun-13,10.69,10.79,10.50,10.68,55361
10-Jun-13,10.72,10.79,10.67,10.76,146185
7-Jun-13,10.46,10.72,10.45,10.65,59038
6-Jun-13,10.56,10.60,10.26,10.46,102668
5-Jun-13,10.63,10.82,10.54,10.54,35116
4-Jun-13,10.94,10.97,10.57,10.71,76821
3-Jun-13,10.98,11.11,10.77,10.85,62955
31-May-13,10.94,11.08,10.84,10.88,411308
30-May-13,11.10,11.25,10.77,11.00,504609
29-May-13,10.90,11.39,10.83,11.15,308344
28-May-13,10.14,10.91,10.05,10.89,224921
24-May-13,10.05,10.42,10.05,10.32,55469
23-May-13,10.20,10.20,9.88,10.05,105424
22-May-13,9.80,10.35,9.80,10.21,344857
21-May-13,9.98,9.99,9.67,9.80,112917
20-May-13,9.82,10.00,9.82,10.00,128154
17-May-13,9.38,9.95,9.38,9.85,262464
16-May-13,9.30,9.58,9.17,9.43,68634
15-May-13,8.92,9.44,8.92,9.32,350174
14-May-13,9.09,9.14,8.89,8.94,355974
13-May-13,9.16,9.16,9.03,9.11,41672
10-May-13,9.04,9.20,9.04,9.20,53556
9-May-13,9.30,9.31,9.06,9.13,61951
8-May-13,9.14,9.22,9.01,9.10,78466
7-May-13,9.23,9.28,8.88,9.20,90310
6-May-13,9.42,9.44,9.19,9.28,35370
3-May-13,9.60,9.60,9.35,9.39,31073
2-May-13,9.65,9.65,9.55,9.56,17133
1-May-13,9.65,9.79,9.55,9.66,61331
30-Apr-13,9.55,9.71,9.44,9.66,187847
29-Apr-13,9.64,9.64,9.45,9.60,74047
26-Apr-13,9.76,9.76,9.54,9.64,15961
25-Apr-13,9.72,9.80,9.57,9.79,108634
24-Apr-13,9.50,9.80,9.50,9.68,112393
23-Apr-13,9.35,9.99,9.35,9.82,344386
22-Apr-13,9.43,9.47,9.28,9.28,23643
19-Apr-13,9.48,9.48,9.33,9.43,22209
18-Apr-13,9.37,9.48,9.20,9.42,7435
17-Apr-13,9.36,9.44,9.24,9.36,64462
16-Apr-13,9.04,9.46,9.04,9.39,76326
15-Apr-13,9.30,9.46,9.22,9.25,68091
12-Apr-13,9.37,9.39,9.27,9.30,9355
11-Apr-13,9.40,9.41,9.30,9.33,26605
10-Apr-13,9.17,9.43,9.17,9.37,49300
9-Apr-13,8.98,9.13,8.98,9.12,27753
8-Apr-13,9.20,9.20,8.92,9.04,54497
5-Apr-13,9.21,9.26,8.95,9.09,70184
4-Apr-13,9.29,9.41,9.24,9.26,18362
3-Apr-13,9.32,9.40,9.14,9.28,109904
2-Apr-13,9.44,9.44,9.29,9.29,27531
1-Apr-13,9.40,9.50,9.31,9.44,35994
28-Mar-13,9.48,9.48,9.31,9.37,17198
27-Mar-13,9.50,9.50,9.34,9.48,59209
26-Mar-13,9.45,9.50,9.32,9.48,35480
25-Mar-13,9.45,9.45,9.38,9.41,21117
22-Mar-13,9.49,9.50,9.31,9.50,56732
21-Mar-13,9.46,9.50,9.35,9.50,126788
20-Mar-13,9.50,9.50,9.21,9.43,71905
19-Mar-13,9.50,9.56,9.40,9.45,114993
18-Mar-13,9.10,9.55,9.10,9.47,117580
15-Mar-13,8.72,9.37,8.60,9.27,519433
14-Mar-13,8.79,8.85,8.50,8.57,158997
13-Mar-13,9.10,9.15,8.84,8.87,105740
12-Mar-13,9.48,9.48,9.12,9.15,25547
11-Mar-13,9.10,9.53,9.02,9.50,179308
8-Mar-13,9.16,9.17,9.00,9.06,24989
7-Mar-13,9.20,9.20,9.07,9.14,60685
6-Mar-13,9.00,9.25,9.00,9.17,149515
5-Mar-13,9.15,9.20,8.82,8.88,108972
4-Mar-13,8.93,9.14,8.93,9.07,36967
1-Mar-13,8.98,8.99,8.82,8.91,46559
28-Feb-13,9.00,9.04,8.80,8.90,74716
27-Feb-13,9.15,9.20,9.00,9.06,33316
26-Feb-13,9.35,9.41,9.19,9.19,902601
25-Feb-13,9.28,9.49,9.28,9.33,87161
22-Feb-13,9.28,9.28,9.25,9.27,17204
21-Feb-13,9.30,9.30,9.15,9.24,63436
20-Feb-13,9.60,9.66,9.37,9.54,152262
19-Feb-13,9.69,9.69,9.52,9.62,134337
15-Feb-13,9.17,9.75,9.17,9.57,112742
14-Feb-13,9.16,9.34,9.06,9.25,55565
13-Feb-13,9.18,9.36,9.04,9.16,47448
12-Feb-13,9.08,9.26,9.00,9.23,53559
11-Feb-13,9.15,9.15,8.88,8.99,61992
8-Feb-13,9.38,9.39,9.07,9.17,107875
7-Feb-13,9.01,9.59,8.98,9.40,289687
6-Feb-13,8.65,9.15,8.65,9.04,225768
5-Feb-13,8.50,8.65,8.38,8.58,229787
4-Feb-13,8.52,8.52,8.35,8.47,131511
1-Feb-13,8.25,8.52,8.20,8.52,301560
31-Jan-13,8.56,8.56,8.16,8.24,130193
30-Jan-13,8.58,8.65,8.48,8.51,263030
29-Jan-13,8.41,8.70,8.36,8.55,211297
28-Jan-13,8.65,8.76,8.41,8.44,597529
25-Jan-13,8.73,8.84,8.55,8.67,400014
24-Jan-13,8.60,8.77,8.60,8.69,496166
23-Jan-13,8.85,8.87,8.55,8.59,1137489
22-Jan-13,9.25,9.38,8.61,8.83,1037283
18-Jan-13,9.34,9.52,9.26,9.29,212649
17-Jan-13,9.49,9.51,9.24,9.34,237260
16-Jan-13,9.40,9.52,9.34,9.47,294229
15-Jan-13,9.30,9.40,9.25,9.35,607982
14-Jan-13,9.28,9.28,9.17,9.27,341156
11-Jan-13,9.25,9.32,9.18,9.25,359567
10-Jan-13,9.21,9.26,9.00,9.21,180143
9-Jan-13,9.10,9.25,9.10,9.23,148314
8-Jan-13,9.12,9.20,9.02,9.12,120750
7-Jan-13,9.30,9.30,9.10,9.12,169160
4-Jan-13,9.45,9.45,9.18,9.24,52869
3-Jan-13,9.47,9.47,9.29,9.33,142587
2-Jan-13,9.70,9.70,9.30,9.40,138600
31-Dec-12,9.24,9.65,9.18,9.60,373265
28-Dec-12,9.30,9.30,9.23,9.30,115510
27-Dec-12,9.30,9.42,9.19,9.31,30582
26-Dec-12,9.50,9.69,9.12,9.36,300853
24-Dec-12,9.74,9.74,9.53,9.53,7610
21-Dec-12,9.50,9.76,9.40,9.72,58334
20-Dec-12,9.45,9.50,9.41,9.43,16246
19-Dec-12,9.59,9.59,9.36,9.40,48048
18-Dec-12,9.50,9.88,9.43,9.53,61420
17-Dec-12,9.30,9.58,9.30,9.43,63967
14-Dec-12,8.81,9.28,8.81,9.26,96501
13-Dec-12,8.80,8.94,8.73,8.89,47132
12-Dec-12,8.75,8.91,8.67,8.76,109599
11-Dec-12,8.82,8.90,8.70,8.70,19332
10-Dec-12,8.83,8.90,8.56,8.72,112000
7-Dec-12,8.62,8.88,8.44,8.81,179779
6-Dec-12,8.62,8.63,8.44,8.53,96425
5-Dec-12,8.57,8.84,8.43,8.54,121299
4-Dec-12,9.15,9.21,8.86,8.98,312220
3-Dec-12,9.00,9.18,9.00,9.14,463558
30-Nov-12,8.84,9.03,8.84,9.00,326866
29-Nov-12,8.99,9.05,8.95,8.96,140620
28-Nov-12,9.01,9.10,8.99,8.99,55992
27-Nov-12,9.04,9.09,8.98,9.00,43921
26-Nov-12,9.02,9.16,8.98,9.10,66810
23-Nov-12,9.03,9.04,8.76,8.95,91173
21-Nov-12,8.99,9.13,8.99,9.08,45151
20-Nov-12,9.00,9.10,8.95,9.10,171065
19-Nov-12,9.00,9.07,8.80,9.00,139419
16-Nov-12,9.00,9.10,9.00,9.00,10348
15-Nov-12,9.00,9.16,9.00,9.10,27579
14-Nov-12,9.00,9.13,9.00,9.09,31558
13-Nov-12,9.07,9.19,9.02,9.02,25944
12-Nov-12,9.31,9.38,9.10,9.15,95926
9-Nov-12,9.13,9.23,9.10,9.19,10062
8-Nov-12,9.15,9.22,9.01,9.13,21053
7-Nov-12,9.35,9.49,9.08,9.22,73220
6-Nov-12,9.25,9.60,9.25,9.36,34141
5-Nov-12,9.11,9.38,9.11,9.26,21774
2-Nov-12,8.91,9.32,8.80,9.20,117263
1-Nov-12,8.88,8.98,8.80,8.84,48263
31-Oct-12,9.00,9.00,8.84,9.00,12736
26-Oct-12,8.98,9.05,8.92,8.98,155191
25-Oct-12,8.88,9.06,8.88,8.98,273590
24-Oct-12,8.78,9.10,8.78,8.86,184893
23-Oct-12,8.67,9.20,8.60,8.88,642774
22-Oct-12,8.66,8.75,8.19,8.60,102153
19-Oct-12,8.43,9.07,8.35,8.76,61543
18-Oct-12,9.00,9.00,8.35,8.50,29749
17-Oct-12,9.00,9.10,8.96,9.02,49025
16-Oct-12,8.85,9.10,8.80,8.95,61143
15-Oct-12,8.71,9.09,8.65,8.91,32782
12-Oct-12,8.72,8.72,8.51,8.56,14955
11-Oct-12,8.65,8.72,8.54,8.61,11771
10-Oct-12,8.35,8.71,8.35,8.71,68992
9-Oct-12,8.38,8.50,8.32,8.34,54902
8-Oct-12,8.33,8.42,8.30,8.32,22000
5-Oct-12,8.30,8.46,8.30,8.40,22407
4-Oct-12,8.20,8.35,8.20,8.30,23561
3-Oct-12,8.27,8.39,8.19,8.28,29947
2-Oct-12,8.19,8.35,8.16,8.26,36608
1-Oct-12,8.18,8.47,8.18,8.37,53290
28-Sep-12,8.00,8.36,8.00,8.30,39173
27-Sep-12,7.80,8.31,7.80,8.19,57149
26-Sep-12,7.78,7.94,7.78,7.89,18984
25-Sep-12,7.98,7.98,7.77,7.84,24380
24-Sep-12,7.92,7.99,7.78,7.92,54907
21-Sep-12,8.07,8.10,7.92,8.00,30373
20-Sep-12,8.20,8.24,8.05,8.05,12075
19-Sep-12,8.20,8.26,8.05,8.15,68232
18-Sep-12,8.40,8.40,8.21,8.21,5644
17-Sep-12,8.57,8.60,8.45,8.45,54950
14-Sep-12,8.40,8.59,8.33,8.50,66839
13-Sep-12,8.40,8.65,8.33,8.43,35479
12-Sep-12,8.24,8.59,8.24,8.40,48694
11-Sep-12,8.01,8.50,8.01,8.32,180312
10-Sep-12,7.60,8.09,7.54,8.02,105618
7-Sep-12,7.42,7.64,7.42,7.63,91970
6-Sep-12,7.45,7.59,7.43,7.50,41012
5-Sep-12,7.30,7.58,7.29,7.45,33946
4-Sep-12,7.39,7.50,7.31,7.40,35181
31-Aug-12,7.50,7.53,7.35,7.50,31044
30-Aug-12,7.30,7.74,7.30,7.60,248868
29-Aug-12,8.30,8.30,6.97,7.30,425440
28-Aug-12,8.34,8.40,8.20,8.40,18084
27-Aug-12,8.72,8.72,8.33,8.43,60696
24-Aug-12,8.84,9.03,8.72,8.79,32790
23-Aug-12,8.52,8.98,8.49,8.98,46970
22-Aug-12,8.74,8.76,8.51,8.56,90369
21-Aug-12,8.90,8.90,8.60,8.73,44876
20-Aug-12,8.94,9.15,8.92,8.95,91045
17-Aug-12,8.98,9.11,8.91,9.00,51385
16-Aug-12,8.83,9.06,8.82,8.98,115448
15-Aug-12,8.71,9.02,8.71,8.85,53917
14-Aug-12,8.48,9.16,8.48,8.82,69478
13-Aug-12,8.26,8.77,8.26,8.48,237992
10-Aug-12,7.92,8.40,7.92,8.28,101813
9-Aug-12,7.77,8.06,7.77,7.91,128838
8-Aug-12,7.77,8.03,7.77,7.86,28789
7-Aug-12,7.60,8.05,7.60,7.87,52603
6-Aug-12,7.64,7.72,7.52,7.64,74999
3-Aug-12,7.65,7.78,7.59,7.68,39496
2-Aug-12,7.63,7.71,7.63,7.65,21433
1-Aug-12,8.05,8.05,7.65,7.68,105788
31-Jul-12,7.70,7.75,7.55,7.66,75211
30-Jul-12,7.62,7.75,7.62,7.66,40598
27-Jul-12,7.52,7.81,7.52,7.67,28268
26-Jul-12,7.54,7.76,7.50,7.56,40340
25-Jul-12,7.81,7.90,7.46,7.62,159330
24-Jul-12,7.88,8.15,7.50,7.92,104280
23-Jul-12,8.05,8.15,7.84,8.00,139792
20-Jul-12,7.90,8.26,7.79,8.07,132340
19-Jul-12,8.74,8.74,7.15,7.56,813995
18-Jul-12,9.30,9.31,8.80,8.81,447875
17-Jul-12,9.90,9.95,9.15,9.17,79490
16-Jul-12,10.05,10.05,10.05,10.05,0
13-Jul-12,10.01,10.31,10.01,10.08,34600
12-Jul-12,10.00,10.04,9.93,9.95,22900
11-Jul-12,10.02,10.05,9.87,10.05,6700
10-Jul-12,9.86,10.05,9.76,10.05,25500
9-Jul-12,10.16,10.28,9.88,9.88,16313
6-Jul-12,9.93,10.05,9.76,9.99,57978
5-Jul-12,10.00,10.15,9.72,9.93,29436
3-Jul-12,9.94,10.05,9.75,10.00,6790
2-Jul-12,9.79,9.94,9.50,9.88,23103
29-Jun-12,10.21,10.21,9.53,9.84,34495
28-Jun-12,9.98,10.10,9.98,10.10,5951
27-Jun-12,9.96,10.11,9.90,9.95,26542
26-Jun-12,10.14,10.24,9.88,10.02,9800
25-Jun-12,10.52,10.53,10.02,10.19,9180
22-Jun-12,10.70,10.70,10.52,10.52,3889
21-Jun-12,10.84,10.86,10.70,10.70,8585
20-Jun-12,10.86,10.94,10.86,10.90,78629
19-Jun-12,10.88,10.88,10.70,10.86,2214
18-Jun-12,10.90,10.98,10.68,10.90,13619
15-Jun-12,10.62,11.37,10.60,11.06,44908
14-Jun-12,10.86,10.86,10.54,10.58,5011
13-Jun-12,10.94,11.04,10.80,10.93,3144
12-Jun-12,10.92,11.24,10.69,11.06,8873
11-Jun-12,10.86,11.15,10.86,11.02,7022
8-Jun-12,10.67,10.88,10.65,10.86,5692
7-Jun-12,10.66,10.98,10.65,10.75,12266
6-Jun-12,10.53,10.69,10.36,10.60,11606
5-Jun-12,10.60,10.69,10.51,10.57,2582
4-Jun-12,10.57,10.82,10.51,10.57,3882
1-Jun-12,10.38,10.57,10.38,10.57,2646
31-May-12,10.55,10.71,10.50,10.52,3588
30-May-12,10.72,10.81,10.50,10.60,5513
29-May-12,10.82,10.90,10.71,10.79,2372
25-May-12,10.90,11.00,10.79,10.90,3411
24-May-12,10.84,10.92,10.68,10.83,48722
23-May-12,10.88,11.00,10.85,10.90,81553
22-May-12,10.61,11.21,10.35,10.90,42249
21-May-12,10.60,10.70,10.30,10.61,20380
18-May-12,10.62,10.73,10.61,10.65,16780
17-May-12,10.87,10.90,10.55,10.64,53050
16-May-12,10.84,10.99,10.63,10.94,50199
15-May-12,10.70,11.00,10.70,10.90,41273
14-May-12,10.60,11.02,10.41,10.78,66336
11-May-12,10.63,10.75,10.29,10.57,39223
10-May-12,10.94,11.01,10.70,10.70,63627
9-May-12,10.86,11.01,10.78,11.00,33913
8-May-12,11.00,11.14,10.97,11.00,58570
7-May-12,10.81,11.00,10.81,11.00,89985
4-May-12,11.01,11.19,10.90,10.90,67344
3-May-12,11.40,11.40,11.08,11.08,4659
2-May-12,11.33,11.50,11.33,11.46,1719
1-May-12,11.46,11.63,11.36,11.51,1918
30-Apr-12,11.75,11.83,11.52,11.55,46166
27-Apr-12,11.75,11.98,11.71,11.89,12534
26-Apr-12,11.68,11.97,11.68,11.90,5500
25-Apr-12,11.95,11.95,11.45,11.64,31622
24-Apr-12,11.50,11.77,11.48,11.65,10150
23-Apr-12,11.27,11.71,11.25,11.56,33876
20-Apr-12,11.33,11.53,11.19,11.40,7200
19-Apr-12,11.24,11.53,11.18,11.18,10400
18-Apr-12,11.04,11.25,11.04,11.16,8882
17-Apr-12,10.95,11.04,10.87,11.01,21690
16-Apr-12,10.97,10.98,10.70,10.81,6600
13-Apr-12,10.76,11.09,10.76,11.01,12516
12-Apr-12,11.01,11.12,10.60,10.60,7033
11-Apr-12,11.13,11.19,10.99,11.07,20568
10-Apr-12,11.33,11.33,11.02,11.18,11029
9-Apr-12,11.29,11.50,11.26,11.42,2570
5-Apr-12,11.63,11.80,10.98,11.42,37644
4-Apr-12,11.52,11.63,11.36,11.50,19710
3-Apr-12,11.23,11.77,11.23,11.50,31354
2-Apr-12,11.02,11.29,11.02,11.18,8100
30-Mar-12,11.08,11.15,10.98,11.10,22766
29-Mar-12,11.09,11.19,11.00,11.00,12517
28-Mar-12,11.12,11.12,10.98,11.05,46543
27-Mar-12,11.16,11.28,11.10,11.22,14375
26-Mar-12,11.01,11.27,11.01,11.22,16479
23-Mar-12,11.25,11.34,10.98,11.00,71580
22-Mar-12,11.60,11.67,11.28,11.32,75332
21-Mar-12,11.60,11.72,11.60,11.60,28272
20-Mar-12,11.50,11.55,11.33,11.55,66314
19-Mar-12,11.93,11.93,11.53,11.53,12502
16-Mar-12,11.47,12.00,11.47,11.85,24947
15-Mar-12,11.53,11.53,11.42,11.53,37043
14-Mar-12,11.51,11.62,11.40,11.60,20987
13-Mar-12,11.28,11.61,11.21,11.59,17880
12-Mar-12,11.33,11.44,11.22,11.32,11254
9-Mar-12,11.49,11.49,11.40,11.40,2889
8-Mar-12,11.46,11.55,11.34,11.51,37000
7-Mar-12,11.35,11.41,11.20,11.22,5225
6-Mar-12,11.08,11.42,11.08,11.40,54050
5-Mar-12,11.10,11.29,11.10,11.18,8843
2-Mar-12,11.10,11.32,11.10,11.17,12148
1-Mar-12,11.00,11.21,10.95,11.11,11902
29-Feb-12,11.00,11.09,10.92,11.00,29400
28-Feb-12,10.78,11.11,10.72,10.99,23490
27-Feb-12,11.15,11.27,10.68,10.72,86773
24-Feb-12,11.15,11.29,11.15,11.15,15517
23-Feb-12,11.05,11.18,11.05,11.15,25430
22-Feb-12,11.32,11.36,11.10,11.12,43775
21-Feb-12,11.03,11.19,11.00,11.16,31281
17-Feb-12,11.06,11.17,11.06,11.08,11900
16-Feb-12,11.38,11.74,10.91,11.06,1686587
15-Feb-12,11.26,11.59,11.26,11.45,47067
14-Feb-12,11.04,11.31,11.00,11.31,43477
13-Feb-12,11.04,11.30,11.04,11.12,20210
10-Feb-12,10.90,11.13,10.90,11.05,6778
9-Feb-12,10.88,11.09,10.81,11.04,118530
8-Feb-12,10.55,10.95,10.47,10.89,96652
7-Feb-12,10.86,11.00,10.44,10.53,158198
6-Feb-12,10.90,10.99,10.83,10.94,33841
3-Feb-12,10.84,11.00,10.84,10.99,15586
2-Feb-12,10.80,10.91,10.75,10.83,94867
1-Feb-12,10.85,10.92,10.70,10.82,267910
31-Jan-12,11.11,11.11,10.20,10.77,473533
30-Jan-12,10.81,11.21,10.74,11.16,66522
27-Jan-12,10.77,11.00,10.75,10.97,24742
26-Jan-12,10.75,10.88,10.75,10.87,6500
25-Jan-12,10.74,10.85,10.74,10.80,10363
24-Jan-12,10.59,10.92,10.59,10.83,40903
23-Jan-12,10.73,10.85,10.50,10.72,123348
20-Jan-12,10.99,10.99,10.57,10.64,126063
19-Jan-12,10.95,10.95,10.50,10.77,97320
18-Jan-12,10.94,11.00,10.80,10.97,29331
17-Jan-12,10.70,10.98,10.61,10.91,43931
13-Jan-12,10.89,10.94,10.47,10.52,38248
12-Jan-12,10.80,11.09,10.70,11.02,26434
11-Jan-12,10.71,10.97,10.60,10.86,27149
10-Jan-12,10.43,11.03,10.43,10.81,68997
9-Jan-12,10.12,10.48,10.12,10.43,52530
6-Jan-12,10.15,10.30,10.15,10.17,51508
5-Jan-12,10.05,10.38,10.01,10.25,17329
4-Jan-12,10.00,10.14,9.96,10.01,39100
3-Jan-12,10.01,10.14,9.96,9.96,61900
30-Dec-11,9.99,10.02,9.94,9.97,36900
29-Dec-11,9.96,10.00,9.89,9.96,46414
28-Dec-11,10.00,10.00,9.96,9.99,50010
27-Dec-11,9.99,10.00,9.94,10.00,16418
23-Dec-11,10.00,10.03,9.87,10.03,27809
22-Dec-11,9.86,10.01,9.85,10.00,225839
21-Dec-11,10.45,10.45,9.90,9.95,101993
20-Dec-11,10.00,10.03,9.86,9.89,7903
19-Dec-11,10.00,10.00,9.82,9.95,12357
16-Dec-11,9.89,10.02,9.89,9.98,10195
15-Dec-11,9.82,9.91,9.79,9.82,22078
14-Dec-11,9.90,9.93,9.74,9.81,10987
13-Dec-11,10.01,10.11,9.77,9.87,26369
12-Dec-11,9.98,10.09,9.95,10.01,26668
9-Dec-11,9.80,10.02,9.80,9.98,14160
8-Dec-11,9.90,9.95,9.64,9.72,115089
7-Dec-11,10.14,10.65,9.77,9.83,307568
6-Dec-11,10.20,10.23,9.98,10.07,24500
5-Dec-11,10.06,10.18,9.96,10.13,63130
2-Dec-11,9.85,10.16,9.85,9.94,209159
1-Dec-11,10.50,10.52,9.77,9.84,67519
30-Nov-11,9.44,10.41,9.41,10.23,165224
29-Nov-11,9.96,9.96,8.96,9.00,207909
28-Nov-11,10.00,10.03,9.86,10.01,347078
25-Nov-11,9.98,10.10,9.90,9.93,187658
23-Nov-11,9.89,10.00,9.74,9.94,49246
22-Nov-11,9.97,10.09,9.90,10.07,93288
21-Nov-11,10.00,10.09,9.84,9.90,262685
18-Nov-11,9.93,10.02,9.92,9.98,16750
17-Nov-11,10.03,10.08,9.92,9.94,27393
16-Nov-11,9.99,10.14,9.89,10.09,21640
15-Nov-11,10.00,10.00,9.81,9.99,50646
14-Nov-11,10.05,10.10,9.69,9.95,52668
11-Nov-11,10.00,10.00,9.92,10.00,11208
10-Nov-11,9.88,9.99,9.85,9.89,10548
9-Nov-11,10.01,10.06,9.84,9.85,164075
8-Nov-11,10.01,10.10,9.97,10.05,120029
7-Nov-11,10.21,10.24,9.99,10.04,45708
4-Nov-11,10.25,10.35,10.17,10.21,33698
3-Nov-11,10.30,10.30,10.20,10.27,5100
2-Nov-11,10.25,10.33,10.20,10.23,44195
1-Nov-11,10.09,10.39,9.79,10.25,93734
31-Oct-11,10.36,10.42,10.04,10.15,47970
28-Oct-11,10.70,10.70,10.13,10.25,165444
27-Oct-11,10.20,10.50,10.00,10.45,191318
26-Oct-11,10.00,10.22,9.99,10.11,38434
25-Oct-11,10.27,10.30,9.60,9.97,150618
24-Oct-11,9.51,10.30,9.51,10.11,111026
21-Oct-11,9.20,9.55,9.19,9.51,27880
20-Oct-11,8.86,9.11,8.86,9.03,14701
19-Oct-11,8.71,8.95,8.50,8.81,111718
18-Oct-11,9.84,10.25,8.41,8.61,368955
17-Oct-11,10.16,10.16,9.75,9.91,21341
14-Oct-11,10.19,10.28,10.18,10.18,7464
13-Oct-11,10.35,10.35,10.12,10.13,3039
12-Oct-11,10.25,10.48,10.20,10.34,16145
11-Oct-11,10.18,10.30,10.12,10.12,10285
10-Oct-11,10.25,10.65,10.25,10.25,10530
7-Oct-11,10.40,10.40,10.00,10.18,4782
6-Oct-11,10.15,10.60,10.15,10.47,63964
5-Oct-11,9.96,10.24,9.96,10.23,116155
4-Oct-11,9.48,10.00,9.30,9.76,58423
3-Oct-11,9.37,9.69,9.11,9.42,21740
30-Sep-11,10.06,10.06,9.44,9.53,39834
29-Sep-11,10.25,10.26,9.83,10.06,82194
28-Sep-11,10.40,10.40,10.04,10.13,61357
27-Sep-11,10.22,10.41,10.12,10.41,16773
26-Sep-11,10.37,10.37,10.00,10.24,18085
23-Sep-11,10.21,10.50,10.11,10.38,48971
22-Sep-11,10.43,11.08,10.43,10.69,127384
21-Sep-11,11.90,11.90,11.47,11.53,19300
20-Sep-11,11.90,11.98,11.80,11.87,63080
19-Sep-11,11.96,11.96,11.54,11.91,51062
16-Sep-11,11.86,11.90,11.79,11.86,10376
15-Sep-11,12.00,12.09,11.93,11.93,43736
14-Sep-11,12.00,12.07,12.00,12.00,11100
13-Sep-11,12.04,12.05,11.92,12.00,16397
12-Sep-11,12.00,12.16,11.97,12.06,39743
9-Sep-11,12.44,12.44,12.00,12.09,18398
8-Sep-11,12.23,12.48,12.12,12.47,18622
7-Sep-11,12.48,12.63,12.00,12.33,42609
6-Sep-11,12.23,12.50,12.23,12.47,120607
2-Sep-11,12.25,12.58,12.04,12.47,62063
1-Sep-11,12.56,12.60,12.18,12.27,22765
31-Aug-11,12.00,12.53,11.80,12.53,157091
30-Aug-11,11.76,12.09,11.74,12.09,214015
29-Aug-11,11.81,12.04,11.74,11.92,81373
26-Aug-11,11.80,11.88,11.70,11.81,59617
25-Aug-11,11.92,12.00,11.79,11.80,144864
24-Aug-11,11.77,11.96,11.57,11.70,203634
23-Aug-11,11.51,11.85,11.44,11.80,173361
22-Aug-11,11.80,11.80,11.46,11.54,74540
19-Aug-11,11.70,11.89,11.70,11.75,65142
18-Aug-11,11.70,11.89,11.66,11.75,104602
17-Aug-11,11.72,11.80,11.50,11.75,184448
16-Aug-11,11.76,12.00,11.76,11.76,82992
15-Aug-11,12.02,12.15,11.70,11.88,94830
12-Aug-11,12.00,12.88,11.80,12.02,108348
11-Aug-11,12.00,12.03,11.74,12.01,99972
10-Aug-11,11.96,12.04,11.72,11.94,119887
9-Aug-11,11.36,12.07,11.36,12.04,251750
8-Aug-11,11.44,12.07,11.00,11.36,320528
5-Aug-11,11.54,11.67,11.04,11.59,107568
4-Aug-11,11.95,11.96,11.49,11.61,103421
3-Aug-11,11.96,12.20,11.86,12.08,48100
2-Aug-11,11.93,12.24,11.93,12.02,19451
1-Aug-11,12.11,12.75,11.86,12.05,32124
29-Jul-11,12.54,13.00,12.19,12.75,49120
28-Jul-11,12.62,12.93,12.60,12.80,89388
27-Jul-11,12.80,13.00,12.44,12.79,81747
26-Jul-11,10.96,13.75,10.85,12.98,407384
25-Jul-11,10.71,10.71,10.49,10.63,57676
22-Jul-11,10.65,10.87,10.46,10.66,47688
21-Jul-11,10.97,10.97,10.31,10.49,163567
20-Jul-11,11.13,11.13,10.80,10.87,76108
19-Jul-11,11.14,11.14,10.80,10.90,158816
18-Jul-11,11.04,11.14,10.88,11.08,80898
15-Jul-11,11.13,11.22,10.92,11.00,82528
14-Jul-11,10.97,11.20,10.96,11.16,153905
13-Jul-11,11.07,11.12,10.84,11.00,130228
12-Jul-11,10.75,11.32,10.66,11.07,51744
11-Jul-11,10.72,10.94,10.70,10.73,12250
8-Jul-11,11.03,11.03,10.82,10.90,9430
7-Jul-11,10.90,11.26,10.81,11.00,59595
6-Jul-11,11.00,11.00,10.78,10.84,12610
5-Jul-11,11.02,11.12,10.92,10.99,37400
1-Jul-11,10.91,11.00,10.87,10.99,14754
30-Jun-11,10.77,10.95,10.77,10.85,11299
29-Jun-11,10.73,10.84,10.70,10.80,13021
28-Jun-11,10.72,10.80,10.70,10.77,8107
27-Jun-11,10.51,10.80,10.51,10.69,7232
24-Jun-11,10.79,10.79,10.48,10.57,7952
23-Jun-11,10.66,10.80,10.63,10.75,11912
22-Jun-11,10.81,10.82,10.75,10.82,1600
21-Jun-11,11.00,11.00,10.80,10.90,20285
20-Jun-11,10.76,11.08,10.54,10.90,44945
17-Jun-11,10.37,11.51,9.96,11.15,149900
16-Jun-11,10.49,10.60,10.23,10.23,25129
15-Jun-11,11.06,11.35,10.40,10.44,188856
14-Jun-11,11.00,11.56,10.99,11.20,34413
13-Jun-11,10.71,11.04,10.71,10.94,2069750
10-Jun-11,10.55,10.76,10.50,10.71,14385
9-Jun-11,10.60,10.71,10.49,10.54,22790
8-Jun-11,10.80,10.91,10.65,10.65,19089
7-Jun-11,11.00,11.08,10.89,10.93,43366
6-Jun-11,10.93,11.09,10.79,10.98,39845
3-Jun-11,10.77,10.94,10.63,10.85,27026
2-Jun-11,11.35,11.35,10.90,11.12,15445
1-Jun-11,10.98,11.20,10.98,11.14,7887
31-May-11,10.81,11.15,10.81,10.98,21999
27-May-11,10.92,11.15,10.92,11.12,8019
26-May-11,11.08,11.09,10.82,11.02,31326
25-May-11,11.05,11.50,11.05,11.06,82012
24-May-11,11.09,11.49,10.80,11.25,186324
23-May-11,11.59,11.59,10.56,11.15,159800
20-May-11,11.39,11.63,11.39,11.49,33349
19-May-11,11.70,11.70,11.40,11.45,52340
18-May-11,11.49,11.79,11.49,11.77,10735
17-May-11,11.49,11.67,11.49,11.59,11500
16-May-11,12.05,12.12,11.63,11.71,16300
13-May-11,12.12,12.14,11.79,11.88,31524
12-May-11,12.49,12.49,11.92,12.10,36126
11-May-11,11.91,12.15,11.91,11.99,35252
10-May-11,11.82,12.17,11.65,12.00,54319
9-May-11,11.41,11.77,11.25,11.70,50716
6-May-11,11.42,11.42,11.25,11.32,21035
5-May-11,11.09,11.34,10.83,11.21,46580
4-May-11,11.03,11.28,11.00,11.09,47592
3-May-11,12.50,12.50,10.88,11.10,190990
2-May-11,13.25,13.25,12.26,12.60,65391
29-Apr-11,13.01,13.01,12.61,12.75,30408
28-Apr-11,14.00,14.20,12.94,13.01,212968
27-Apr-11,13.13,13.85,13.13,13.75,128649
26-Apr-11,12.95,13.12,12.95,13.03,38518
25-Apr-11,13.07,13.07,12.85,13.02,21516
21-Apr-11,12.99,13.00,12.77,12.98,38333
20-Apr-11,12.22,13.00,12.18,12.89,88805
19-Apr-11,11.75,12.20,11.73,12.15,48645
18-Apr-11,11.81,11.83,11.62,11.75,11730
15-Apr-11,11.91,11.94,11.72,11.84,37521
14-Apr-11,11.70,11.89,11.59,11.74,11048
13-Apr-11,11.71,11.71,11.59,11.65,16064
12-Apr-11,11.69,11.69,11.49,11.57,30888
11-Apr-11,11.48,11.90,11.48,11.70,46126
8-Apr-11,11.06,11.47,11.06,11.46,53247
7-Apr-11,10.57,11.19,10.47,11.09,135816
6-Apr-11,10.44,10.71,10.10,10.49,198538
5-Apr-11,10.33,10.43,10.22,10.37,53737
4-Apr-11,10.26,10.40,10.13,10.29,73092
1-Apr-11,10.95,10.95,10.25,10.36,110298
31-Mar-11,11.08,11.15,10.87,10.93,13317
30-Mar-11,10.93,11.49,10.93,11.02,161939
29-Mar-11,10.80,11.00,10.80,11.00,143417
28-Mar-11,10.86,11.02,10.67,10.94,412715
25-Mar-11,10.81,10.92,10.60,10.70,40611
24-Mar-11,10.82,10.92,10.53,10.72,73230
23-Mar-11,10.54,10.99,10.44,10.69,32413
22-Mar-11,10.90,10.95,10.51,10.64,41365
21-Mar-11,10.71,10.95,10.56,10.95,23792
18-Mar-11,10.92,10.92,10.55,10.64,43099
17-Mar-11,11.06,11.06,10.75,10.84,45205
16-Mar-11,11.40,11.40,10.66,10.83,65865
15-Mar-11,10.79,11.35,10.70,11.28,119742
14-Mar-11,10.68,11.29,10.43,11.19,176619
11-Mar-11,11.11,11.50,10.76,10.84,212505
10-Mar-11,11.60,11.60,10.93,11.00,341399
9-Mar-11,10.63,11.70,10.52,11.60,121751
8-Mar-11,10.35,10.74,10.35,10.60,65253
7-Mar-11,10.22,10.45,10.17,10.35,110996
4-Mar-11,10.09,10.20,10.05,10.13,15181
3-Mar-11,10.15,10.20,9.90,10.15,216756
2-Mar-11,10.30,10.39,9.85,10.00,285882
1-Mar-11,10.49,10.77,10.10,10.34,212131
28-Feb-11,10.73,11.60,10.39,10.48,162943
25-Feb-11,10.52,10.62,10.20,10.49,182938
24-Feb-11,11.16,11.26,10.42,10.53,330320
23-Feb-11,11.72,11.94,11.00,11.17,316770
22-Feb-11,12.00,12.00,11.46,11.52,44225
18-Feb-11,11.44,11.95,11.44,11.90,140144
17-Feb-11,11.95,12.05,11.31,11.50,351518
16-Feb-11,12.73,12.73,11.98,12.04,148968
15-Feb-11,12.50,12.55,12.31,12.45,26422
14-Feb-11,12.45,12.80,12.30,12.59,273473
11-Feb-11,12.94,12.94,12.55,12.55,100576
10-Feb-11,13.00,13.00,12.61,12.82,129497
9-Feb-11,12.96,13.00,12.86,12.87,55598
8-Feb-11,13.11,13.11,12.90,12.96,62444
7-Feb-11,12.90,13.15,12.90,12.99,37265
4-Feb-11,13.26,13.26,12.90,13.01,30932
3-Feb-11,13.00,13.22,12.79,13.02,117373
2-Feb-11,13.00,13.07,12.86,13.00,55347
1-Feb-11,13.18,13.33,12.80,12.99,114135
31-Jan-11,13.32,13.49,12.82,13.00,140643
28-Jan-11,13.45,13.45,12.63,13.06,405819
27-Jan-11,12.32,13.80,12.16,13.55,274385
26-Jan-11,12.96,13.15,11.89,12.35,1325237
25-Jan-11,15.16,15.20,12.19,13.04,913133
24-Jan-11,15.00,15.51,14.87,15.24,381156
21-Jan-11,15.45,15.50,14.90,14.96,303553
20-Jan-11,15.90,16.10,15.33,15.62,180023
19-Jan-11,15.93,16.15,15.69,16.14,155186
18-Jan-11,15.90,16.00,15.57,16.00,43988
14-Jan-11,15.95,15.99,15.53,15.99,22913
13-Jan-11,16.00,16.03,15.85,16.00,29939
12-Jan-11,15.55,16.10,15.54,15.96,88349
11-Jan-11,15.50,15.74,15.22,15.65,45483
10-Jan-11,16.24,16.24,15.48,15.64,46923
7-Jan-11,16.13,16.20,15.93,16.03,96613
6-Jan-11,16.07,16.11,15.74,16.09,99327
5-Jan-11,15.84,16.08,15.70,15.90,153197
4-Jan-11,15.58,15.89,15.49,15.83,79229
3-Jan-11,16.25,16.25,15.36,15.82,44689
31-Dec-10,15.85,16.15,15.62,16.10,85730
30-Dec-10,15.79,15.93,15.38,15.93,158177
29-Dec-10,15.93,15.95,15.25,15.75,227789
28-Dec-10,15.96,15.96,15.65,15.80,69944
27-Dec-10,15.60,15.96,15.28,15.75,81705
23-Dec-10,15.60,15.60,15.20,15.53,17660
22-Dec-10,15.27,15.65,15.25,15.60,69245
21-Dec-10,14.62,15.64,14.56,15.54,155629
20-Dec-10,14.42,14.98,14.26,14.29,169070
17-Dec-10,14.67,14.67,14.10,14.39,259228
16-Dec-10,14.64,14.99,14.20,14.88,73445
15-Dec-10,14.89,15.12,14.45,14.58,93530
14-Dec-10,14.66,15.05,14.28,14.70,54866
13-Dec-10,14.58,14.60,14.02,14.56,178512
10-Dec-10,15.00,15.19,14.50,14.50,247865
9-Dec-10,15.60,15.60,15.03,15.10,378431
8-Dec-10,15.20,15.69,14.64,15.35,350352
7-Dec-10,16.25,16.25,15.20,15.21,415483
6-Dec-10,16.55,16.66,16.03,16.08,32918
3-Dec-10,16.50,16.80,16.33,16.56,59413
2-Dec-10,16.73,16.97,16.53,16.72,103291
1-Dec-10,16.40,16.73,16.35,16.50,93277
30-Nov-10,15.75,16.18,15.75,16.03,29668
29-Nov-10,17.09,17.22,15.60,16.00,194116
26-Nov-10,16.90,17.22,16.70,16.85,73747
24-Nov-10,15.90,17.35,15.90,17.25,176590
23-Nov-10,16.03,16.29,15.86,16.04,123199
22-Nov-10,15.70,16.48,15.68,15.92,52559
19-Nov-10,16.25,16.35,15.50,15.59,118894
18-Nov-10,16.08,16.72,15.98,16.15,115013
17-Nov-10,15.33,16.13,15.00,15.88,271100
16-Nov-10,16.20,16.56,15.50,15.50,66536
15-Nov-10,17.11,17.36,16.25,16.37,77620
12-Nov-10,17.92,17.92,16.59,17.13,214625
11-Nov-10,16.97,17.89,16.70,17.80,152408
10-Nov-10,16.50,16.99,16.50,16.88,148049
9-Nov-10,17.00,17.00,16.16,16.43,159403
8-Nov-10,15.75,16.90,15.75,16.04,386827
5-Nov-10,14.89,15.68,14.89,15.55,90099
4-Nov-10,15.08,15.48,14.80,14.89,435448
3-Nov-10,15.05,15.27,14.73,15.02,307150
2-Nov-10,16.75,16.88,14.65,15.05,574166
1-Nov-10,17.50,17.70,16.50,16.65,270895
29-Oct-10,17.70,17.83,17.35,17.80,177641
28-Oct-10,17.35,17.92,16.68,17.70,345922
27-Oct-10,17.89,17.97,16.35,17.50,712332
26-Oct-10,17.60,18.34,17.55,18.00,986007
25-Oct-10,16.95,17.90,16.06,17.67,1213935
22-Oct-10,15.00,16.50,14.80,16.50,1231223
21-Oct-10,14.75,15.49,14.58,14.76,2250270
20-Oct-10,14.00,15.74,13.22,15.00,8186581
