﻿Date,Open,High,Low,Close,Volume
20-Jun-17,47.88,47.88,46.72,46.89,303514
19-Jun-17,49.04,49.14,48.01,48.22,311873
16-Jun-17,48.35,48.82,48.02,48.70,597781
15-Jun-17,49.14,49.50,47.96,48.18,404572
14-Jun-17,50.50,50.52,49.43,49.43,308988
13-Jun-17,50.51,50.80,50.26,50.34,221578
12-Jun-17,50.77,51.42,50.02,50.45,370555
9-Jun-17,50.70,51.03,50.55,50.66,251403
8-Jun-17,51.10,51.46,50.44,50.69,307498
7-Jun-17,52.18,52.77,51.03,51.28,477802
6-Jun-17,52.16,52.48,52.08,52.28,297557
5-Jun-17,52.00,52.64,51.89,52.33,303979
2-Jun-17,53.04,53.34,52.08,52.16,413607
1-Jun-17,53.29,53.54,52.60,53.07,254922
31-May-17,52.86,53.19,52.16,52.98,442460
30-May-17,53.47,53.86,52.96,52.97,208666
26-May-17,53.69,54.01,53.38,53.76,246444
25-May-17,53.74,54.38,53.39,53.87,154292
24-May-17,54.03,54.43,53.92,53.95,161539
23-May-17,53.92,54.19,53.56,54.03,519101
22-May-17,53.91,54.05,53.34,53.86,439766
19-May-17,53.34,54.14,53.05,53.71,201010
18-May-17,52.49,53.11,52.20,52.89,976251
17-May-17,53.25,53.42,52.72,52.75,149539
16-May-17,53.75,53.96,53.11,53.68,255681
15-May-17,53.32,53.72,53.20,53.53,279580
12-May-17,52.82,53.03,52.35,52.57,445273
11-May-17,52.33,52.78,52.06,52.54,384394
10-May-17,52.10,52.81,51.85,52.00,739148
9-May-17,52.60,52.98,51.17,51.83,266018
8-May-17,52.27,52.34,51.11,51.70,255522
5-May-17,51.74,52.52,51.34,52.13,333935
4-May-17,54.28,54.34,51.51,51.65,274548
3-May-17,53.84,54.47,53.59,54.27,288241
2-May-17,55.42,55.58,54.81,55.10,399765
1-May-17,55.06,55.36,54.75,55.15,265785
28-Apr-17,55.54,55.54,54.55,54.86,320518
27-Apr-17,55.30,55.66,54.84,55.08,712349
26-Apr-17,55.45,55.61,55.09,55.34,264544
25-Apr-17,54.74,55.56,54.52,55.50,325046
24-Apr-17,54.41,54.99,54.12,54.75,129367
21-Apr-17,54.33,54.44,53.50,54.37,208400
20-Apr-17,54.24,54.40,53.86,54.29,274573
19-Apr-17,54.33,55.10,53.64,54.09,227935
18-Apr-17,54.03,54.39,53.45,54.39,495368
17-Apr-17,53.99,54.25,53.58,54.25,285124
13-Apr-17,54.19,54.35,53.43,53.55,134145
12-Apr-17,54.45,54.78,54.00,54.15,209272
11-Apr-17,55.00,55.32,54.25,54.41,111476
10-Apr-17,55.20,55.43,54.76,54.93,97191
7-Apr-17,55.49,55.78,54.79,54.88,144333
6-Apr-17,55.00,55.48,54.84,55.39,241901
5-Apr-17,55.53,55.79,54.72,54.87,137394
4-Apr-17,54.87,55.17,54.30,55.15,124619
3-Apr-17,54.63,54.96,53.98,54.73,217612
31-Mar-17,53.49,54.62,53.39,54.47,208016
30-Mar-17,53.09,53.69,52.76,53.57,233584
29-Mar-17,52.44,53.24,52.04,53.12,401029
28-Mar-17,52.08,52.61,51.78,52.17,329905
27-Mar-17,52.56,52.79,51.78,52.01,210632
24-Mar-17,52.69,53.15,52.65,52.85,408649
23-Mar-17,52.90,53.35,52.44,52.58,190140
22-Mar-17,52.52,52.83,52.19,52.76,209084
21-Mar-17,52.89,53.14,52.28,52.62,275273
20-Mar-17,53.35,53.37,52.37,52.50,363157
17-Mar-17,54.54,54.66,53.34,53.59,633250
16-Mar-17,54.48,54.66,54.14,54.51,302549
15-Mar-17,54.02,54.72,53.42,54.44,217861
14-Mar-17,53.78,53.82,53.25,53.55,247396
13-Mar-17,54.07,54.50,53.92,54.18,161455
10-Mar-17,54.48,54.66,53.75,54.07,308043
9-Mar-17,54.46,54.64,53.50,54.25,389107
8-Mar-17,55.88,56.12,54.70,54.71,175626
7-Mar-17,56.02,56.25,55.72,55.96,243405
6-Mar-17,56.27,56.27,55.64,56.16,189606
3-Mar-17,56.65,56.76,56.16,56.21,209947
2-Mar-17,56.26,56.56,55.82,56.47,685181
1-Mar-17,56.44,56.78,56.00,56.49,683725
28-Feb-17,55.55,56.31,55.50,56.31,583037
27-Feb-17,55.65,55.94,55.39,55.91,375522
24-Feb-17,55.82,55.92,55.31,55.65,614691
23-Feb-17,56.34,56.42,55.56,55.82,869520
22-Feb-17,56.22,56.48,55.53,56.13,3317175
21-Feb-17,59.82,60.14,59.23,59.30,336788
17-Feb-17,59.35,59.56,58.85,59.13,207486
16-Feb-17,59.74,60.00,59.15,59.30,424532
15-Feb-17,59.91,59.91,59.33,59.64,264922
14-Feb-17,59.09,59.70,58.70,59.69,381405
13-Feb-17,58.55,59.09,57.85,59.08,360408
10-Feb-17,58.90,58.95,58.09,58.44,398577
9-Feb-17,57.44,58.41,56.63,58.31,341009
8-Feb-17,56.29,57.09,55.40,57.06,363222
7-Feb-17,56.96,57.64,55.84,56.94,523694
6-Feb-17,57.33,57.76,56.75,57.74,457659
3-Feb-17,57.45,58.09,56.87,57.62,964634
2-Feb-17,56.68,57.41,56.44,57.17,444881
1-Feb-17,57.15,57.49,56.19,56.64,497174
31-Jan-17,57.99,58.12,57.26,57.88,411193
30-Jan-17,58.69,58.69,57.40,57.96,306392
27-Jan-17,58.53,59.01,57.91,58.69,464852
26-Jan-17,57.68,58.35,57.25,58.35,960763
25-Jan-17,56.68,57.29,56.22,57.22,257040
24-Jan-17,55.64,56.77,55.50,56.49,296355
23-Jan-17,55.11,56.08,55.02,55.44,389616
20-Jan-17,55.00,55.20,54.55,55.06,156739
19-Jan-17,54.84,54.86,54.26,54.51,204382
18-Jan-17,54.35,54.69,53.98,54.59,362370
17-Jan-17,54.53,54.93,54.14,54.32,438830
13-Jan-17,53.56,54.60,53.38,54.13,514392
12-Jan-17,54.09,54.11,53.37,53.66,208398
11-Jan-17,53.19,53.84,52.94,53.58,205468
10-Jan-17,53.10,53.67,52.76,52.95,227301
9-Jan-17,53.80,53.95,53.18,53.54,238382
6-Jan-17,53.55,54.02,53.21,53.80,509597
5-Jan-17,52.90,53.08,52.49,53.06,210257
4-Jan-17,51.90,52.87,51.86,52.53,211994
3-Jan-17,51.47,52.05,50.96,51.95,509994
30-Dec-16,51.17,51.27,50.40,50.81,208185
29-Dec-16,51.39,51.39,50.72,51.09,198968
28-Dec-16,51.35,51.68,51.07,51.23,232569
27-Dec-16,51.87,51.87,51.36,51.50,243103
23-Dec-16,50.66,51.64,50.53,51.45,397321
22-Dec-16,49.76,51.00,49.76,50.62,824095
21-Dec-16,49.11,49.95,48.81,49.89,417763
20-Dec-16,48.81,49.04,48.37,49.02,573174
19-Dec-16,48.45,48.58,48.11,48.38,339031
16-Dec-16,47.51,48.38,47.47,48.22,1183621
15-Dec-16,46.99,47.84,46.70,47.65,777277
14-Dec-16,48.24,48.27,47.02,47.43,514118
13-Dec-16,48.47,48.47,47.54,48.22,282570
12-Dec-16,48.82,48.95,47.94,48.02,482133
9-Dec-16,48.57,48.63,47.89,48.21,419855
8-Dec-16,48.00,48.51,47.67,48.46,364846
7-Dec-16,47.94,48.53,47.57,48.00,473274
6-Dec-16,48.67,48.73,47.64,47.73,413172
5-Dec-16,47.97,49.01,47.72,48.63,333475
2-Dec-16,47.09,48.13,46.68,47.71,435079
1-Dec-16,47.68,48.09,46.79,47.16,523902
30-Nov-16,46.56,48.16,46.22,47.13,444058
29-Nov-16,46.58,46.82,45.38,45.89,827287
28-Nov-16,47.38,47.56,46.65,46.69,451546
25-Nov-16,47.57,47.90,46.60,47.28,151367
23-Nov-16,46.37,47.65,46.22,47.46,428936
22-Nov-16,46.36,46.56,45.59,46.55,782474
21-Nov-16,45.80,47.06,45.04,45.56,548681
18-Nov-16,46.18,46.18,44.86,44.96,717410
17-Nov-16,46.98,47.79,45.11,45.79,908749
16-Nov-16,47.05,47.32,46.13,46.83,368691
15-Nov-16,46.93,47.44,46.49,47.16,299748
14-Nov-16,45.81,46.92,45.71,46.46,341618
11-Nov-16,44.44,45.79,44.44,45.68,265838
10-Nov-16,44.93,45.45,44.65,45.21,317100
9-Nov-16,43.95,45.16,43.75,44.86,282559
8-Nov-16,44.46,44.91,43.94,43.98,234797
7-Nov-16,44.93,45.26,44.37,44.39,340447
4-Nov-16,44.38,44.82,44.03,44.47,452448
3-Nov-16,44.09,44.67,43.76,44.42,500930
2-Nov-16,44.66,44.92,43.00,43.95,896002
1-Nov-16,46.80,47.79,46.00,46.00,558882
31-Oct-16,47.90,48.35,47.56,47.74,183502
28-Oct-16,48.07,48.39,47.57,48.00,311939
27-Oct-16,47.57,48.30,47.38,48.15,357409
26-Oct-16,47.04,47.92,46.91,47.48,367604
25-Oct-16,47.19,47.82,47.12,47.33,468646
24-Oct-16,46.63,47.46,46.50,47.42,323022
21-Oct-16,46.48,46.59,45.85,46.56,300073
20-Oct-16,46.05,46.52,45.67,46.41,273385
19-Oct-16,46.07,46.48,45.79,46.23,629423
18-Oct-16,46.19,46.51,45.65,46.00,242490
17-Oct-16,46.19,46.19,45.20,45.66,490808
14-Oct-16,46.63,46.63,45.42,46.11,602388
13-Oct-16,46.50,46.54,45.77,46.40,418250
12-Oct-16,46.42,47.02,46.19,46.64,302434
11-Oct-16,47.09,47.09,46.28,46.98,553670
10-Oct-16,46.97,47.33,46.49,47.09,407567
7-Oct-16,47.25,47.31,46.53,46.68,370843
6-Oct-16,47.72,47.87,46.81,47.34,269669
5-Oct-16,48.16,48.47,47.50,47.74,312946
4-Oct-16,48.09,48.48,47.43,47.88,197192
3-Oct-16,48.27,48.85,47.79,48.01,269435
30-Sep-16,48.93,49.12,47.87,48.44,452609
29-Sep-16,48.56,49.20,48.06,48.36,237438
28-Sep-16,48.43,49.29,47.71,48.71,254048
27-Sep-16,47.42,48.14,47.12,48.01,159624
26-Sep-16,48.54,48.54,47.73,47.98,262740
23-Sep-16,48.01,48.66,47.83,48.12,463138
22-Sep-16,47.74,48.58,47.45,48.33,613082
21-Sep-16,45.56,47.97,45.18,46.97,643387
20-Sep-16,44.88,45.24,44.65,45.17,191706
19-Sep-16,44.75,45.31,44.67,44.94,394794
16-Sep-16,44.87,45.30,44.55,44.69,1461212
15-Sep-16,45.59,45.92,44.79,44.87,428906
14-Sep-16,45.65,46.67,45.15,45.50,346851
13-Sep-16,46.37,46.60,45.60,45.76,806216
12-Sep-16,46.45,47.39,46.45,46.87,317309
9-Sep-16,48.11,48.46,46.77,47.04,355130
8-Sep-16,48.45,49.00,48.28,48.54,629151
7-Sep-16,48.57,48.90,47.92,48.26,411973
6-Sep-16,48.01,48.55,47.84,48.23,330618
2-Sep-16,47.95,48.10,47.51,47.82,334062
1-Sep-16,47.87,48.43,47.21,47.60,402699
31-Aug-16,47.85,48.20,47.11,47.96,414687
30-Aug-16,48.00,48.23,47.40,48.02,352988
29-Aug-16,47.54,47.90,47.02,47.76,293471
26-Aug-16,47.67,48.07,47.12,47.47,281709
25-Aug-16,46.35,47.53,45.87,47.16,497204
24-Aug-16,46.32,46.76,45.58,46.21,456448
23-Aug-16,46.15,46.65,46.00,46.44,418297
22-Aug-16,45.68,46.23,45.59,46.11,355269
19-Aug-16,46.42,46.61,45.44,46.01,276493
18-Aug-16,45.98,46.78,45.64,46.20,359275
17-Aug-16,45.71,46.35,45.12,45.62,312292
16-Aug-16,45.50,45.99,45.18,45.59,681189
15-Aug-16,45.63,46.21,45.25,45.55,409216
12-Aug-16,46.09,46.37,44.89,45.11,571479
11-Aug-16,45.48,45.68,44.76,45.40,312272
10-Aug-16,46.52,46.52,44.85,44.96,387847
9-Aug-16,47.65,47.70,46.32,46.42,406847
8-Aug-16,47.58,48.30,47.31,47.45,437946
5-Aug-16,46.01,47.59,45.80,47.26,308635
4-Aug-16,47.42,47.90,45.49,45.96,996666
3-Aug-16,47.53,47.68,46.54,47.31,422391
2-Aug-16,47.96,47.96,46.58,47.37,308378
1-Aug-16,48.39,48.39,47.16,47.50,231244
29-Jul-16,47.95,48.86,47.48,48.77,260137
28-Jul-16,49.21,49.65,48.93,49.36,249916
27-Jul-16,50.00,50.24,48.90,49.14,251723
26-Jul-16,50.00,50.40,49.54,49.71,238657
25-Jul-16,50.40,50.46,49.63,50.01,306081
22-Jul-16,50.55,50.70,49.40,50.50,413710
21-Jul-16,49.83,50.44,49.60,50.31,453027
20-Jul-16,49.42,49.81,49.00,49.75,268043
19-Jul-16,49.91,50.00,49.40,49.60,252200
18-Jul-16,49.19,49.95,48.87,49.94,331250
15-Jul-16,49.65,49.65,49.04,49.24,146537
14-Jul-16,49.27,49.72,48.52,49.42,182787
13-Jul-16,49.37,49.50,48.57,48.77,240001
12-Jul-16,48.84,49.84,48.84,49.26,427447
11-Jul-16,47.95,48.36,47.76,48.22,207647
8-Jul-16,47.86,48.21,47.31,47.41,368493
7-Jul-16,48.42,49.48,47.20,47.37,233891
6-Jul-16,47.88,48.48,47.12,48.21,430279
5-Jul-16,49.10,49.10,47.97,48.39,288322
1-Jul-16,49.81,49.86,49.28,49.56,265796
30-Jun-16,49.23,49.73,48.37,49.53,440963
29-Jun-16,48.45,49.48,48.28,49.18,317052
28-Jun-16,47.91,48.47,46.70,47.88,290489
27-Jun-16,48.38,48.55,45.85,46.60,623985
24-Jun-16,47.65,49.53,47.38,48.52,548504
23-Jun-16,48.68,50.02,48.32,49.80,417460
22-Jun-16,47.85,48.82,46.88,48.28,336985
21-Jun-16,46.61,47.89,46.50,47.40,475343
20-Jun-16,47.44,48.34,46.54,46.81,482588
17-Jun-16,47.25,47.41,46.38,46.61,1067691
16-Jun-16,46.28,47.24,45.84,46.84,396972
15-Jun-16,46.34,47.32,45.47,46.77,339748
14-Jun-16,47.04,48.08,45.60,46.37,599784
13-Jun-16,48.02,48.34,47.25,47.43,603942
10-Jun-16,48.19,48.94,47.96,48.27,526834
9-Jun-16,48.50,49.37,48.03,48.72,245057
8-Jun-16,50.95,51.13,48.76,48.91,831254
7-Jun-16,49.11,51.35,49.00,50.68,3622093
6-Jun-16,49.20,49.92,48.93,49.35,604426
3-Jun-16,49.64,50.22,48.53,48.89,384993
2-Jun-16,49.82,50.88,49.10,49.35,627447
1-Jun-16,48.78,50.94,48.58,50.31,422462
31-May-16,48.94,50.12,48.89,49.15,528777
27-May-16,48.15,49.01,47.47,48.96,241825
26-May-16,48.40,48.94,47.98,48.16,597105
25-May-16,47.99,48.88,47.68,48.25,388864
24-May-16,48.40,48.76,47.40,47.74,197462
23-May-16,48.32,48.73,47.67,48.08,248409
20-May-16,47.94,49.17,47.46,48.56,541496
19-May-16,47.76,48.13,46.89,47.70,568862
18-May-16,49.90,50.02,47.62,48.16,646771
17-May-16,49.14,50.17,48.90,49.91,504599
16-May-16,49.02,49.64,48.62,49.40,314192
13-May-16,48.56,49.36,47.92,48.25,410730
12-May-16,50.14,50.53,48.32,48.72,445501
11-May-16,49.54,49.81,48.56,49.43,873087
10-May-16,48.85,50.57,48.58,49.96,529797
9-May-16,48.06,49.16,46.60,48.73,487788
6-May-16,46.44,49.00,46.43,48.15,548429
5-May-16,45.74,47.11,44.82,46.68,485430
4-May-16,44.11,45.09,44.11,44.63,314790
3-May-16,44.16,44.73,42.92,44.13,408364
2-May-16,46.04,46.31,44.51,44.96,329206
29-Apr-16,45.83,46.52,44.97,46.24,358997
28-Apr-16,45.80,46.24,44.74,45.77,404150
27-Apr-16,47.12,47.68,46.50,46.95,580783
26-Apr-16,47.18,47.20,46.37,46.64,494700
25-Apr-16,47.45,47.90,46.62,46.69,409879
22-Apr-16,47.84,48.09,46.37,47.35,465032
21-Apr-16,46.68,47.44,46.06,47.24,408357
20-Apr-16,45.92,47.08,45.46,46.45,284816
19-Apr-16,44.60,46.18,44.41,46.07,194953
18-Apr-16,41.38,44.56,41.38,44.42,184747
15-Apr-16,44.00,44.80,43.17,43.40,344074
14-Apr-16,44.80,45.27,44.00,44.52,186673
13-Apr-16,45.20,45.94,44.75,44.87,165483
12-Apr-16,44.15,45.60,43.90,45.20,278569
11-Apr-16,44.21,44.94,43.06,44.01,330123
8-Apr-16,43.29,44.59,43.03,43.71,493829
7-Apr-16,42.34,42.91,41.64,42.60,419004
6-Apr-16,42.31,43.08,41.79,42.59,246826
5-Apr-16,42.10,42.30,41.22,41.66,287935
4-Apr-16,42.96,44.37,42.10,42.37,522389
1-Apr-16,44.67,45.01,42.96,42.96,460518
31-Mar-16,44.52,45.92,44.52,45.66,268338
30-Mar-16,44.34,45.68,44.33,44.44,258128
29-Mar-16,42.54,43.95,42.16,43.87,265261
28-Mar-16,43.56,43.56,42.29,43.18,172932
24-Mar-16,42.56,43.96,42.33,43.34,477116
23-Mar-16,44.92,45.35,43.22,43.22,277188
22-Mar-16,44.16,46.28,43.96,45.56,350394
21-Mar-16,45.55,46.11,44.02,44.66,585359
18-Mar-16,46.96,47.88,44.72,45.55,963941
17-Mar-16,45.49,47.57,45.49,46.73,448711
16-Mar-16,43.16,45.63,42.75,45.35,586120
15-Mar-16,42.49,43.30,42.00,43.05,470934
14-Mar-16,43.34,44.88,42.67,42.99,468744
11-Mar-16,43.98,44.36,42.93,43.88,656543
10-Mar-16,42.98,43.64,42.38,43.39,657482
9-Mar-16,42.75,43.75,42.26,43.14,352322
8-Mar-16,44.75,45.06,42.10,42.13,327159
7-Mar-16,44.89,46.04,44.30,45.27,487315
4-Mar-16,44.62,45.46,43.88,44.70,720144
3-Mar-16,42.24,44.33,41.54,44.21,451808
2-Mar-16,41.29,42.32,40.12,42.25,902716
1-Mar-16,41.87,42.17,40.75,41.66,558795
29-Feb-16,41.79,42.53,40.62,41.72,665449
26-Feb-16,40.90,41.96,40.55,41.56,642655
25-Feb-16,42.51,44.32,40.03,40.33,1009344
24-Feb-16,41.51,43.17,39.02,43.01,649767
23-Feb-16,43.62,43.98,41.37,41.53,533137
22-Feb-16,43.40,44.48,42.34,43.78,614192
19-Feb-16,42.24,43.47,41.45,42.54,447488
18-Feb-16,42.32,43.30,40.78,43.10,486868
17-Feb-16,40.45,43.15,40.45,41.53,523788
16-Feb-16,39.39,41.13,38.52,40.86,1430794
12-Feb-16,38.18,39.03,36.45,38.27,692417
11-Feb-16,37.74,38.50,35.18,36.67,779299
10-Feb-16,38.42,39.34,37.26,38.35,545774
9-Feb-16,39.24,39.24,37.23,38.36,709206
8-Feb-16,42.64,42.65,38.59,40.01,756034
5-Feb-16,44.50,45.50,42.77,43.53,359373
4-Feb-16,43.84,45.12,43.16,44.99,345920
3-Feb-16,44.65,45.00,42.61,43.47,516856
2-Feb-16,44.50,45.48,42.58,44.18,635998
1-Feb-16,43.37,46.00,41.92,46.00,439246
29-Jan-16,45.87,46.88,44.19,44.33,271508
28-Jan-16,46.10,47.04,44.37,46.56,513793
27-Jan-16,45.00,46.10,43.53,44.51,571300
26-Jan-16,43.09,46.06,41.50,45.73,780566
25-Jan-16,44.16,46.48,42.12,42.46,783644
22-Jan-16,46.94,47.29,44.55,45.08,759694
21-Jan-16,41.22,44.27,40.81,42.25,630959
20-Jan-16,41.43,41.89,37.71,40.44,540455
19-Jan-16,44.79,45.26,41.30,42.61,381765
15-Jan-16,44.30,45.28,42.90,44.64,436303
14-Jan-16,44.44,46.76,43.29,45.63,554212
13-Jan-16,47.48,48.10,44.16,44.21,786412
12-Jan-16,47.35,48.13,45.09,46.48,915942
11-Jan-16,46.95,47.18,45.16,46.85,780825
8-Jan-16,46.70,48.30,46.05,47.04,383147
7-Jan-16,46.53,48.41,45.64,46.05,444664
6-Jan-16,49.17,49.84,46.65,47.81,415703
5-Jan-16,50.64,50.78,47.64,50.43,494379
4-Jan-16,50.20,51.43,49.60,50.83,455217
31-Dec-15,47.68,51.06,47.26,50.32,534329
30-Dec-15,48.10,48.80,46.04,48.12,384851
29-Dec-15,50.61,51.28,47.62,48.45,542427
28-Dec-15,50.23,50.70,48.80,50.30,533402
24-Dec-15,50.89,51.83,50.65,51.11,190925
23-Dec-15,49.91,51.32,49.63,51.00,607895
22-Dec-15,45.83,50.12,45.71,49.11,696274
21-Dec-15,45.57,46.44,44.80,45.97,702267
18-Dec-15,45.64,47.12,45.23,45.73,982154
17-Dec-15,45.29,46.28,43.50,45.87,651900
16-Dec-15,42.94,46.55,42.58,45.08,652387
15-Dec-15,42.02,43.13,41.24,42.94,554353
14-Dec-15,42.73,43.06,41.28,41.64,406282
11-Dec-15,46.68,46.72,42.84,43.09,465386
10-Dec-15,47.62,49.14,46.49,47.55,441968
9-Dec-15,43.96,48.98,43.66,48.59,612523
8-Dec-15,42.89,44.50,42.45,43.81,528072
7-Dec-15,42.95,44.10,41.39,43.77,629832
4-Dec-15,46.70,47.15,42.95,45.48,837215
3-Dec-15,48.44,49.08,44.88,47.00,630509
2-Dec-15,48.65,49.41,46.78,48.54,513845
1-Dec-15,50.05,50.46,48.99,49.13,389660
30-Nov-15,51.00,51.69,49.95,49.95,193051
27-Nov-15,50.67,51.42,50.43,50.88,72580
25-Nov-15,51.27,52.35,51.04,51.18,157848
24-Nov-15,50.60,52.64,50.60,51.77,257898
23-Nov-15,51.43,52.20,50.55,50.89,380298
20-Nov-15,51.83,52.91,51.17,51.41,350558
19-Nov-15,52.07,52.78,51.23,51.80,283403
18-Nov-15,52.12,53.30,51.47,52.69,213431
17-Nov-15,52.34,52.79,51.05,52.03,555589
16-Nov-15,51.21,53.50,51.10,52.55,367560
13-Nov-15,52.62,53.29,50.67,51.05,445229
12-Nov-15,52.85,53.51,52.49,52.75,173829
11-Nov-15,54.57,55.25,53.40,53.46,229387
10-Nov-15,54.42,55.45,54.15,54.30,235888
9-Nov-15,55.29,56.58,54.00,54.79,215310
6-Nov-15,55.53,56.14,54.77,55.43,180262
5-Nov-15,55.67,56.59,54.97,55.94,286806
4-Nov-15,56.58,56.58,54.69,55.64,439109
3-Nov-15,55.63,56.92,55.14,56.10,345862
2-Nov-15,55.83,56.51,55.21,55.54,392539
30-Oct-15,54.64,56.85,53.81,56.07,394024
29-Oct-15,50.87,54.47,50.25,54.31,432282
28-Oct-15,49.87,52.23,49.86,51.90,196064
27-Oct-15,50.00,50.04,48.00,49.65,356545
26-Oct-15,52.36,52.60,50.53,50.72,176978
23-Oct-15,53.18,53.58,52.08,52.69,237290
22-Oct-15,54.47,54.47,52.67,52.99,237945
21-Oct-15,54.71,55.53,53.72,54.32,189724
20-Oct-15,54.22,55.20,53.49,54.85,173774
19-Oct-15,54.32,55.07,53.41,54.55,167029
16-Oct-15,54.12,55.05,53.84,54.72,464922
15-Oct-15,53.44,54.32,52.83,54.17,201659
14-Oct-15,52.31,53.57,51.87,53.22,234967
13-Oct-15,51.20,52.91,51.01,52.14,284648
12-Oct-15,53.58,53.58,52.27,52.44,263516
9-Oct-15,53.87,54.70,53.18,53.61,296522
8-Oct-15,53.00,54.03,52.22,53.73,384311
7-Oct-15,52.41,53.40,51.52,53.30,364270
6-Oct-15,50.26,51.98,49.54,51.60,396847
5-Oct-15,48.61,50.86,48.61,50.33,640662
2-Oct-15,45.96,48.34,44.44,48.13,608787
1-Oct-15,45.54,46.88,45.01,46.34,465752
30-Sep-15,40.95,45.35,40.65,45.00,1148750
29-Sep-15,43.14,43.73,40.14,40.46,689271
28-Sep-15,44.14,44.66,41.89,42.98,485935
25-Sep-15,45.20,45.83,44.12,44.66,347259
24-Sep-15,46.00,46.88,43.09,45.06,640849
23-Sep-15,48.61,49.07,45.95,46.14,387047
22-Sep-15,48.97,49.65,48.02,48.41,625337
21-Sep-15,49.23,49.79,47.90,49.67,660249
18-Sep-15,50.20,50.81,48.32,49.18,1330244
17-Sep-15,49.84,50.50,49.52,50.32,298451
16-Sep-15,50.01,50.63,49.01,49.69,421655
15-Sep-15,50.01,50.62,49.10,49.81,383467
14-Sep-15,50.14,50.68,49.38,49.97,622949
11-Sep-15,50.73,51.00,49.96,50.14,534284
10-Sep-15,51.74,52.00,50.68,51.04,298258
9-Sep-15,52.56,53.12,51.51,51.82,467691
8-Sep-15,52.94,53.08,51.91,52.50,218098
4-Sep-15,52.33,52.99,51.82,52.53,213961
3-Sep-15,52.73,53.60,52.26,52.80,211660
2-Sep-15,52.33,53.72,51.26,52.66,328033
1-Sep-15,52.16,52.21,50.61,51.92,388780
31-Aug-15,51.79,53.49,50.90,52.81,324241
28-Aug-15,51.76,52.19,51.32,52.10,482519
27-Aug-15,50.26,51.79,49.42,51.66,409828
26-Aug-15,49.20,49.49,46.69,49.20,508595
25-Aug-15,50.53,50.63,47.79,48.35,699412
24-Aug-15,48.00,50.60,46.78,49.06,1200030
21-Aug-15,53.17,53.34,51.59,51.60,307257
20-Aug-15,53.88,54.63,52.68,53.42,224475
19-Aug-15,54.54,55.10,52.53,54.00,292265
18-Aug-15,55.15,55.83,53.99,54.56,346896
17-Aug-15,53.35,54.63,52.59,54.45,178555
14-Aug-15,52.99,53.60,52.07,53.38,184591
13-Aug-15,52.50,52.83,51.45,52.51,176525
12-Aug-15,51.04,52.84,50.46,52.77,238601
11-Aug-15,50.41,51.61,49.60,51.16,217919
10-Aug-15,49.33,51.77,49.33,50.72,287721
7-Aug-15,48.99,50.68,48.92,49.28,315741
6-Aug-15,49.85,51.78,46.52,49.49,952127
5-Aug-15,50.82,52.04,48.24,48.99,360257
4-Aug-15,51.46,52.24,50.70,51.32,159758
3-Aug-15,51.77,52.81,51.03,51.62,206383
31-Jul-15,53.10,53.62,52.10,52.44,302953
30-Jul-15,54.14,54.99,52.46,52.92,338625
29-Jul-15,52.83,54.86,51.96,54.84,322375
28-Jul-15,51.79,53.02,51.23,52.80,381732
27-Jul-15,51.85,51.96,50.84,51.40,526054
24-Jul-15,52.01,52.89,51.76,51.93,461980
23-Jul-15,52.29,52.95,51.86,51.86,388463
22-Jul-15,53.94,54.13,51.91,52.36,401770
21-Jul-15,53.83,54.54,53.00,53.48,320867
20-Jul-15,55.00,55.53,52.70,53.41,350079
17-Jul-15,55.33,56.02,53.58,54.93,421463
16-Jul-15,55.79,56.16,54.77,54.84,371062
15-Jul-15,57.36,57.55,55.64,55.77,282520
14-Jul-15,56.87,57.79,56.74,57.42,208301
13-Jul-15,57.25,57.90,56.72,56.93,212576
10-Jul-15,56.58,57.46,56.10,57.06,246119
9-Jul-15,56.83,57.13,55.54,56.08,186937
8-Jul-15,56.67,57.55,55.72,56.00,120197
7-Jul-15,56.23,57.50,55.76,57.07,319023
6-Jul-15,57.12,57.30,56.23,56.38,204987
2-Jul-15,56.57,57.71,56.07,57.14,270821
1-Jul-15,57.24,57.52,56.02,56.27,271389
30-Jun-15,58.53,59.36,57.07,57.12,342123
29-Jun-15,59.14,59.43,58.20,58.50,472182
26-Jun-15,58.87,60.37,58.64,59.86,297994
25-Jun-15,59.22,59.31,58.42,59.06,205240
24-Jun-15,58.69,59.25,58.11,58.94,336107
23-Jun-15,58.70,59.09,57.94,58.94,234151
22-Jun-15,57.28,58.96,56.61,58.80,342603
19-Jun-15,57.63,57.97,56.50,56.80,1040357
18-Jun-15,59.27,59.44,57.80,57.81,365751
17-Jun-15,58.92,59.82,57.92,59.03,243890
16-Jun-15,57.55,59.07,56.87,58.83,346794
15-Jun-15,56.87,58.63,56.54,57.78,404532
12-Jun-15,55.50,57.11,55.34,57.09,262555
11-Jun-15,57.25,57.75,56.05,56.07,182312
10-Jun-15,57.36,57.95,56.79,56.96,188948
9-Jun-15,56.38,57.43,55.88,56.87,264979
8-Jun-15,56.56,57.47,55.79,55.88,342544
5-Jun-15,56.82,57.88,55.50,56.74,235061
4-Jun-15,57.22,57.94,56.62,56.89,331570
3-Jun-15,58.46,58.82,57.08,57.60,316276
2-Jun-15,58.01,58.94,57.82,58.45,397448
1-Jun-15,58.17,59.30,57.68,58.03,337576
29-May-15,56.61,58.18,56.50,57.81,259407
28-May-15,57.09,57.74,56.49,57.21,267448
27-May-15,56.96,58.05,56.61,57.59,659584
26-May-15,56.90,57.78,56.33,57.04,300099
22-May-15,57.10,57.55,57.00,57.22,428635
21-May-15,57.42,58.18,57.00,57.36,130575
20-May-15,58.00,59.01,57.04,57.09,204860
19-May-15,59.24,59.24,57.95,58.01,325945
18-May-15,57.86,59.01,57.19,58.97,266199
15-May-15,58.44,58.48,57.33,57.43,197615
14-May-15,58.71,59.30,57.74,58.20,259671
13-May-15,58.56,59.00,57.12,58.24,328814
12-May-15,58.61,59.06,57.05,58.09,292379
11-May-15,59.85,59.85,57.66,58.69,219495
8-May-15,58.99,59.92,57.75,59.01,416120
7-May-15,56.79,57.86,55.60,56.31,293458
6-May-15,57.75,57.75,56.59,57.07,123715
5-May-15,57.48,58.00,56.76,57.46,232027
4-May-15,56.42,57.21,56.42,56.98,228709
1-May-15,55.86,56.96,55.86,56.66,520268
30-Apr-15,58.15,60.03,55.72,56.03,621559
29-Apr-15,58.89,61.74,58.30,58.30,1854057
28-Apr-15,58.44,59.25,58.05,59.25,478847
27-Apr-15,58.05,58.62,57.63,58.33,197722
24-Apr-15,57.03,58.11,56.86,58.00,185149
23-Apr-15,56.59,57.29,56.41,57.29,185986
22-Apr-15,56.39,56.82,56.05,56.71,108780
21-Apr-15,56.21,56.52,55.47,56.20,134260
20-Apr-15,56.50,56.99,55.91,56.06,93959
17-Apr-15,55.62,56.49,55.62,56.41,133537
16-Apr-15,55.67,56.25,55.30,56.05,174233
15-Apr-15,55.54,56.74,54.80,56.01,397602
14-Apr-15,56.16,56.27,55.15,55.25,173735
13-Apr-15,56.41,56.59,55.76,55.95,170738
10-Apr-15,56.50,56.79,55.98,56.50,700799
9-Apr-15,55.05,56.50,54.86,56.36,221024
8-Apr-15,55.25,56.23,54.35,55.23,376922
7-Apr-15,55.44,55.44,54.08,54.76,415507
6-Apr-15,53.80,55.50,53.71,55.34,132523
2-Apr-15,53.31,53.98,53.01,53.65,173667
1-Apr-15,53.46,54.86,53.29,53.29,141777
31-Mar-15,54.71,55.75,53.72,53.80,238175
30-Mar-15,54.47,55.24,54.20,54.79,105503
27-Mar-15,52.60,54.34,52.50,53.97,164757
26-Mar-15,53.52,54.00,52.23,52.67,130245
25-Mar-15,53.87,54.91,53.22,53.40,175764
24-Mar-15,53.92,54.59,53.50,54.00,164361
23-Mar-15,53.20,54.59,52.80,54.28,345495
20-Mar-15,52.66,53.71,52.54,53.35,436101
19-Mar-15,51.66,52.53,51.24,52.40,150859
18-Mar-15,51.25,54.20,51.00,51.95,366092
17-Mar-15,51.04,52.04,50.89,51.52,219577
16-Mar-15,51.54,51.84,50.78,51.42,323627
13-Mar-15,51.90,52.39,51.20,51.67,451269
12-Mar-15,52.98,53.08,51.45,51.94,496919
11-Mar-15,54.16,54.16,52.42,52.63,538113
10-Mar-15,53.61,54.49,53.09,54.22,169051
9-Mar-15,55.08,55.23,53.80,54.24,157489
6-Mar-15,55.15,55.69,54.36,54.76,215522
5-Mar-15,55.57,56.08,55.00,55.37,261179
4-Mar-15,56.22,56.22,54.90,55.60,190031
3-Mar-15,57.20,57.20,56.08,56.22,365032
2-Mar-15,57.70,57.70,56.51,56.53,189090
27-Feb-15,56.89,57.61,56.11,57.42,242478
26-Feb-15,56.81,57.00,55.81,56.80,240053
25-Feb-15,55.86,57.05,55.25,56.67,374426
24-Feb-15,56.34,56.49,55.26,55.73,144555
23-Feb-15,55.19,56.27,54.61,55.98,262323
20-Feb-15,55.16,56.22,54.73,55.79,236415
19-Feb-15,55.12,55.99,54.61,55.15,233543
18-Feb-15,56.14,56.89,55.58,55.80,185335
17-Feb-15,54.33,56.86,54.01,56.64,234391
13-Feb-15,55.82,56.99,55.40,55.75,383215
12-Feb-15,55.00,56.73,54.00,55.82,326592
11-Feb-15,56.94,57.42,55.57,55.83,189687
10-Feb-15,57.25,57.97,56.13,57.10,206926
9-Feb-15,57.37,58.08,56.66,57.34,275257
6-Feb-15,60.19,60.19,57.15,57.25,210701
5-Feb-15,58.88,59.88,57.07,59.17,266888
4-Feb-15,57.86,58.84,56.36,58.17,281545
3-Feb-15,57.24,59.21,57.12,58.63,481699
2-Feb-15,55.46,57.45,54.63,56.06,613498
30-Jan-15,53.08,55.69,52.79,55.01,236888
29-Jan-15,53.70,53.86,51.96,53.53,185481
28-Jan-15,55.08,55.65,53.52,53.71,266626
27-Jan-15,55.99,56.79,55.00,55.15,142156
26-Jan-15,55.15,56.41,54.65,56.32,297747
23-Jan-15,54.66,56.66,54.50,54.91,236758
22-Jan-15,55.04,56.09,53.64,54.66,342279
21-Jan-15,56.08,57.23,54.74,55.15,474176
20-Jan-15,55.36,56.75,54.18,55.82,335041
16-Jan-15,53.34,55.74,52.58,55.23,608329
15-Jan-15,52.92,54.96,52.02,53.43,240673
14-Jan-15,51.11,52.77,49.33,52.32,404433
13-Jan-15,54.08,54.60,51.54,51.94,307652
12-Jan-15,55.87,56.16,52.52,54.12,412304
9-Jan-15,56.81,57.38,54.71,56.17,528093
8-Jan-15,55.50,57.68,55.50,57.11,267233
7-Jan-15,56.42,57.21,54.90,55.49,257591
6-Jan-15,57.20,57.63,55.30,56.09,464057
5-Jan-15,58.20,59.21,56.98,57.29,600440
2-Jan-15,59.63,59.80,58.65,59.21,188794
31-Dec-14,58.36,59.80,57.71,58.85,516947
30-Dec-14,58.12,58.61,57.13,58.40,332397
29-Dec-14,55.98,58.77,55.98,57.96,336373
26-Dec-14,56.37,56.66,55.88,56.46,148493
24-Dec-14,55.02,56.50,54.67,56.04,103814
23-Dec-14,54.95,55.84,54.08,55.58,291016
22-Dec-14,56.89,56.89,54.06,54.31,421058
19-Dec-14,57.88,58.44,56.03,56.90,2822713
18-Dec-14,58.68,58.68,54.87,57.94,622093
17-Dec-14,51.16,54.59,51.01,54.35,600891
16-Dec-14,50.68,52.60,49.01,51.32,647643
15-Dec-14,52.98,53.36,50.05,51.29,564642
12-Dec-14,52.31,54.75,51.70,52.75,608663
11-Dec-14,51.82,54.89,51.29,53.28,506202
10-Dec-14,53.59,53.60,50.30,51.92,634656
9-Dec-14,53.43,55.16,52.41,54.85,374291
8-Dec-14,57.26,57.93,52.44,53.85,469435
5-Dec-14,58.27,58.27,57.00,57.44,254932
4-Dec-14,55.98,58.13,55.98,57.81,418402
3-Dec-14,54.48,58.51,54.30,56.85,473218
2-Dec-14,52.00,55.85,51.71,54.61,699597
1-Dec-14,57.01,57.26,51.20,52.60,1298620
28-Nov-14,59.69,59.69,56.62,57.27,339754
26-Nov-14,60.92,62.21,59.66,60.89,478977
25-Nov-14,60.10,61.05,59.71,60.93,512641
24-Nov-14,59.50,61.04,58.37,60.21,679142
21-Nov-14,58.19,59.87,58.05,59.59,1693530
20-Nov-14,56.05,58.23,56.05,58.00,855638
19-Nov-14,56.99,57.68,56.44,56.50,312119
18-Nov-14,57.59,57.91,56.55,57.20,307129
17-Nov-14,57.57,57.91,57.06,57.59,279804
14-Nov-14,55.86,57.88,55.51,57.85,353683
13-Nov-14,57.10,57.55,55.85,56.25,296689
12-Nov-14,56.67,57.40,56.10,57.25,234343
11-Nov-14,57.15,57.55,56.60,57.04,417353
10-Nov-14,57.70,58.64,56.38,57.56,943819
7-Nov-14,57.00,58.20,56.29,57.73,593096
6-Nov-14,56.31,57.33,55.96,56.93,429114
5-Nov-14,56.97,56.97,55.51,56.03,430103
4-Nov-14,57.01,57.20,55.29,56.06,561521
3-Nov-14,56.36,57.57,56.28,57.50,838253
31-Oct-14,57.25,57.25,54.92,56.30,491754
30-Oct-14,55.51,57.08,55.45,56.64,566359
29-Oct-14,57.80,57.80,56.38,57.34,489371
28-Oct-14,57.18,57.71,56.34,57.28,454667
27-Oct-14,58.20,58.20,56.39,56.99,688672
24-Oct-14,57.95,58.44,56.47,58.35,1074589
23-Oct-14,58.00,58.14,57.12,57.95,1716729
22-Oct-14,55.88,57.77,55.85,57.75,4535972
21-Oct-14,55.51,56.58,54.75,55.50,12709351
20-Oct-14,66.00,66.00,57.09,57.47,1336345
17-Oct-14,64.57,68.13,63.11,67.08,247356
16-Oct-14,57.00,64.60,57.00,63.60,474382
15-Oct-14,56.86,58.48,54.17,58.20,394801
14-Oct-14,57.58,58.28,52.59,56.40,494131
13-Oct-14,62.45,63.31,57.62,57.77,204714
10-Oct-14,65.33,65.33,61.10,62.83,259725
9-Oct-14,67.43,67.93,65.12,65.63,149934
8-Oct-14,67.33,68.23,64.84,67.90,128310
7-Oct-14,67.29,68.69,67.06,67.62,124090
6-Oct-14,68.97,69.35,67.03,67.89,99660
3-Oct-14,68.13,68.88,67.01,68.68,76132
2-Oct-14,68.57,69.53,67.01,67.98,116395
1-Oct-14,70.48,71.37,68.31,68.83,181772
30-Sep-14,68.05,70.95,67.10,70.77,225260
29-Sep-14,69.46,70.37,67.91,68.15,115208
26-Sep-14,69.20,70.50,68.16,69.99,124152
25-Sep-14,68.98,69.25,67.60,69.17,259776
24-Sep-14,69.29,69.70,68.11,69.07,107002
23-Sep-14,69.54,69.85,68.50,68.74,101042
22-Sep-14,70.39,70.40,69.39,69.96,148601
19-Sep-14,70.54,72.00,70.13,70.40,341599
18-Sep-14,70.38,71.54,69.31,70.50,227367
17-Sep-14,70.30,70.69,69.10,70.41,314980
16-Sep-14,69.21,70.20,68.90,70.04,151619
15-Sep-14,69.34,69.93,68.39,69.58,118823
12-Sep-14,70.32,70.50,69.01,69.52,296442
11-Sep-14,70.31,71.39,69.85,70.32,139672
10-Sep-14,70.44,71.21,70.00,70.49,265256
9-Sep-14,69.38,70.44,68.75,70.27,258050
8-Sep-14,68.34,69.43,67.75,69.33,208079
5-Sep-14,67.40,68.30,66.66,68.24,105915
4-Sep-14,67.62,68.15,66.40,67.50,274815
3-Sep-14,68.65,69.34,67.36,67.95,257269
2-Sep-14,70.20,70.72,68.19,68.78,310626
29-Aug-14,70.24,70.64,69.31,70.28,97302
28-Aug-14,71.43,71.51,69.83,70.12,53635
27-Aug-14,69.96,71.49,68.30,71.25,232189
26-Aug-14,69.75,70.28,69.35,69.48,77387
25-Aug-14,69.09,70.25,68.60,70.00,325505
22-Aug-14,69.02,70.53,68.60,69.36,176902
21-Aug-14,68.81,69.73,68.69,69.51,242120
20-Aug-14,68.60,69.25,68.13,69.16,344566
19-Aug-14,68.40,69.19,68.10,68.65,1268727
18-Aug-14,70.07,71.42,69.67,70.51,59440
15-Aug-14,71.20,71.45,69.10,70.13,85060
14-Aug-14,71.50,71.75,70.05,70.90,98677
13-Aug-14,68.98,71.36,68.98,71.15,130735
12-Aug-14,68.84,69.39,68.21,68.87,52348
11-Aug-14,68.00,70.00,67.40,69.17,91051
8-Aug-14,68.16,68.16,66.35,67.60,86027
7-Aug-14,67.84,69.16,67.11,67.76,80284
6-Aug-14,68.00,68.40,67.02,67.68,78858
5-Aug-14,68.59,69.72,67.65,68.03,87042
4-Aug-14,66.43,68.60,65.78,68.58,84907
1-Aug-14,66.16,67.37,64.73,66.51,301428
31-Jul-14,69.59,69.59,64.04,66.62,398554
30-Jul-14,72.20,72.77,68.74,69.64,145370
29-Jul-14,72.00,72.72,71.72,72.09,68669
28-Jul-14,72.25,72.78,70.96,71.93,46463
25-Jul-14,71.71,72.17,71.02,72.15,38908
24-Jul-14,73.44,73.62,71.51,72.08,69481
23-Jul-14,72.39,73.62,72.20,73.11,80412
22-Jul-14,70.66,73.07,70.53,72.34,57154
21-Jul-14,71.49,72.00,70.70,70.83,99703
18-Jul-14,71.61,72.90,71.61,71.89,52158
17-Jul-14,71.59,71.98,71.10,71.73,78674
16-Jul-14,71.91,72.25,71.38,72.01,210549
15-Jul-14,71.83,71.83,70.66,71.59,101245
14-Jul-14,71.83,72.48,71.10,71.45,63643
11-Jul-14,71.81,72.06,70.51,71.87,73644
10-Jul-14,70.98,71.87,70.26,71.48,93427
9-Jul-14,70.97,71.92,70.62,71.38,100792
8-Jul-14,71.25,71.67,70.33,70.95,69722
7-Jul-14,71.49,71.67,70.06,71.36,105852
3-Jul-14,73.69,73.69,71.60,71.80,52005
2-Jul-14,73.69,73.84,72.32,73.78,70453
1-Jul-14,73.72,73.99,72.85,73.65,116710
30-Jun-14,71.61,73.45,70.92,73.40,270765
27-Jun-14,71.70,72.48,71.06,71.56,125145
26-Jun-14,71.73,72.77,71.20,71.84,85181
25-Jun-14,71.75,72.43,70.65,71.68,86280
24-Jun-14,69.16,72.95,68.51,72.02,231345
23-Jun-14,69.30,70.91,68.72,69.44,304183
20-Jun-14,68.99,69.96,67.59,69.15,387163
19-Jun-14,69.94,70.26,68.79,69.42,124266
18-Jun-14,72.47,73.11,69.94,69.94,137322
17-Jun-14,72.99,73.76,72.43,72.64,91280
16-Jun-14,71.29,73.84,70.83,73.25,151900
13-Jun-14,70.89,71.56,69.85,71.53,92764
12-Jun-14,72.92,73.67,70.44,71.16,222442
11-Jun-14,75.08,75.55,72.44,73.29,166895
10-Jun-14,73.61,75.39,73.47,75.39,188234
9-Jun-14,74.00,75.32,73.31,75.32,305245
6-Jun-14,72.75,74.56,72.37,74.05,190587
5-Jun-14,72.95,73.82,71.65,72.36,105366
4-Jun-14,70.88,73.38,70.15,72.57,78768
3-Jun-14,69.94,71.90,69.90,71.28,151533
2-Jun-14,70.00,70.16,69.02,69.94,114951
30-May-14,69.11,69.85,68.86,69.70,113948
29-May-14,69.43,69.97,68.90,69.24,108661
28-May-14,69.68,70.18,69.10,69.44,92213
27-May-14,69.68,70.13,68.72,69.52,62627
23-May-14,70.54,70.92,69.08,69.58,91514
22-May-14,69.81,70.90,69.71,70.45,64137
21-May-14,70.59,70.97,69.59,70.08,101362
20-May-14,69.25,70.23,67.94,70.23,63313
19-May-14,68.78,69.38,68.54,69.12,67851
16-May-14,69.22,69.87,68.57,68.75,52954
15-May-14,69.37,69.37,67.31,69.03,105322
14-May-14,69.06,69.60,68.50,69.34,94974
13-May-14,68.71,69.84,68.66,69.16,120783
12-May-14,68.12,69.55,68.12,68.76,99581
9-May-14,67.67,68.56,67.05,67.96,105847
8-May-14,68.24,68.93,66.61,67.66,117573
7-May-14,67.95,68.57,67.00,68.49,84096
6-May-14,68.18,70.07,67.11,67.72,135267
5-May-14,67.13,68.53,66.66,68.51,105238
2-May-14,66.69,68.20,66.09,67.08,111143
1-May-14,65.00,66.97,64.32,65.75,196458
30-Apr-14,64.60,64.63,63.21,63.90,199029
29-Apr-14,63.66,64.65,63.66,64.65,66677
28-Apr-14,62.98,63.89,62.60,63.15,111735
25-Apr-14,62.84,63.60,62.50,63.24,139246
24-Apr-14,63.40,63.89,62.43,62.89,202844
23-Apr-14,63.51,63.74,62.96,63.48,116360
22-Apr-14,63.31,63.93,63.31,63.70,127995
21-Apr-14,62.30,64.00,62.14,63.50,74173
17-Apr-14,62.56,62.95,61.81,62.43,86974
16-Apr-14,62.61,63.24,61.72,62.44,60314
15-Apr-14,62.58,62.64,61.64,62.24,81782
14-Apr-14,62.00,63.22,61.85,62.23,72344
11-Apr-14,62.08,62.29,60.88,62.00,241659
10-Apr-14,62.09,62.87,61.31,61.83,133946
9-Apr-14,63.00,63.00,61.62,62.09,151341
8-Apr-14,62.02,62.94,62.02,62.76,111734
7-Apr-14,61.68,62.93,61.68,62.19,90290
4-Apr-14,62.19,62.98,60.91,62.00,256059
3-Apr-14,61.96,62.41,60.94,61.79,88214
2-Apr-14,61.30,62.58,61.16,62.05,91720
1-Apr-14,60.42,61.71,59.75,61.71,204117
31-Mar-14,59.89,60.30,59.27,60.21,207489
28-Mar-14,59.82,60.56,59.65,59.96,167412
27-Mar-14,60.07,60.97,59.66,60.00,179159
26-Mar-14,60.79,61.35,60.13,60.46,106273
25-Mar-14,61.81,62.04,60.69,60.79,104097
24-Mar-14,61.90,62.23,61.02,61.73,138622
21-Mar-14,61.16,63.61,60.60,62.25,3519797
20-Mar-14,61.71,62.31,60.27,60.67,435275
19-Mar-14,63.71,64.33,61.32,61.91,526438
18-Mar-14,65.24,65.44,63.74,64.00,602192
17-Mar-14,63.66,65.59,63.45,65.38,706889
14-Mar-14,62.11,64.80,62.11,63.66,620875
13-Mar-14,62.00,62.35,61.22,61.70,148086
12-Mar-14,62.27,62.62,61.75,61.96,277727
11-Mar-14,61.44,62.57,61.31,62.25,324984
10-Mar-14,61.70,62.27,60.62,61.48,180762
7-Mar-14,61.89,62.16,61.05,61.25,178750
6-Mar-14,61.50,61.78,60.79,61.54,174910
5-Mar-14,60.80,61.89,60.80,61.53,106836
4-Mar-14,62.25,62.38,60.62,61.95,149322
3-Mar-14,59.25,61.24,59.25,61.13,78631
28-Feb-14,59.46,60.77,59.21,60.20,185127
27-Feb-14,59.98,60.10,59.49,59.69,113301
26-Feb-14,58.42,60.00,58.20,59.93,183198
25-Feb-14,58.01,58.95,58.01,58.33,207822
24-Feb-14,58.00,58.64,57.68,58.13,249882
21-Feb-14,57.48,58.22,56.92,58.00,181452
20-Feb-14,58.57,58.68,57.05,57.83,243674
19-Feb-14,57.00,58.93,57.00,58.85,255873
18-Feb-14,57.99,58.64,57.85,58.21,287217
14-Feb-14,57.32,58.15,56.67,58.12,236026
13-Feb-14,57.03,57.68,56.70,57.25,173224
12-Feb-14,57.89,57.98,56.23,57.04,204367
11-Feb-14,57.25,57.87,56.53,57.67,441453
10-Feb-14,56.19,57.13,55.68,56.84,230414
7-Feb-14,54.86,56.55,54.53,56.02,198034
6-Feb-14,52.50,55.67,52.03,55.07,347551
5-Feb-14,52.96,54.41,52.60,53.97,178072
4-Feb-14,52.77,53.56,52.56,53.11,109817
3-Feb-14,53.06,53.57,52.10,52.66,117742
31-Jan-14,51.42,53.24,51.37,53.16,99664
30-Jan-14,52.24,52.68,51.56,52.31,113576
29-Jan-14,52.50,53.18,51.16,52.74,173952
28-Jan-14,52.77,53.30,52.55,52.94,169580
27-Jan-14,53.72,54.20,52.23,53.02,185116
24-Jan-14,54.13,54.65,53.38,53.49,249580
23-Jan-14,54.60,54.98,54.26,54.59,146417
22-Jan-14,54.00,54.75,53.89,54.55,146199
21-Jan-14,53.47,54.24,52.60,54.12,294659
17-Jan-14,53.44,53.99,53.40,53.76,102957
16-Jan-14,53.61,53.94,53.21,53.80,82258
15-Jan-14,54.90,55.03,53.20,53.82,181041
14-Jan-14,54.56,55.35,54.28,54.60,326820
13-Jan-14,54.31,55.51,54.20,54.81,449912
10-Jan-14,53.33,54.65,53.28,54.26,153929
9-Jan-14,53.47,53.55,53.17,53.37,176466
8-Jan-14,52.70,53.06,52.55,52.86,122891
7-Jan-14,52.72,53.10,52.59,52.86,134141
6-Jan-14,52.87,53.09,52.37,52.65,226371
3-Jan-14,52.96,52.96,52.22,52.65,123032
2-Jan-14,51.98,52.94,51.55,51.70,200377
31-Dec-13,52.10,52.87,51.92,52.34,242211
30-Dec-13,51.55,52.24,51.37,51.92,120306
27-Dec-13,51.32,51.90,50.97,51.47,134922
26-Dec-13,51.50,51.80,50.90,50.99,261914
24-Dec-13,51.25,51.57,50.90,51.26,96553
23-Dec-13,50.38,51.44,50.14,51.08,289092
20-Dec-13,49.37,51.10,49.11,50.39,4274726
19-Dec-13,49.13,49.22,48.73,49.15,288869
18-Dec-13,47.81,49.37,47.40,49.09,1255929
17-Dec-13,48.07,48.55,47.42,47.67,550908
16-Dec-13,49.63,49.92,48.11,48.24,812670
13-Dec-13,48.88,49.93,47.88,49.38,1636711
12-Dec-13,49.96,50.95,49.84,50.24,584648
11-Dec-13,50.39,50.39,49.52,50.15,141503
10-Dec-13,50.37,51.25,50.29,50.39,176599
9-Dec-13,50.55,51.26,50.44,51.11,176151
6-Dec-13,49.24,50.83,49.24,50.55,246479
5-Dec-13,50.41,50.72,49.16,49.64,222067
4-Dec-13,50.78,50.78,50.05,50.41,270982
3-Dec-13,51.00,51.07,50.09,50.91,303746
2-Dec-13,51.64,51.65,51.02,51.41,240446
29-Nov-13,51.45,51.45,51.05,51.25,67157
27-Nov-13,51.10,51.53,50.73,51.21,279903
26-Nov-13,51.15,51.15,50.87,51.00,273221
25-Nov-13,50.86,51.18,50.26,51.10,332624
22-Nov-13,50.51,51.13,50.51,51.06,495290
21-Nov-13,50.33,50.75,50.33,50.60,446922
20-Nov-13,50.00,50.48,49.75,50.33,1001107
19-Nov-13,50.86,50.93,49.64,50.00,5762719
18-Nov-13,53.82,54.25,52.54,53.01,177920
15-Nov-13,53.30,54.43,53.05,53.85,127105
14-Nov-13,53.42,54.16,52.79,53.03,184784
13-Nov-13,52.50,53.63,51.76,53.18,71862
12-Nov-13,53.15,54.00,51.56,52.70,106451
11-Nov-13,54.00,54.04,53.35,53.80,83269
8-Nov-13,53.85,54.10,52.47,53.60,75912
7-Nov-13,54.85,55.00,53.66,54.05,254146
6-Nov-13,54.01,54.99,53.32,54.59,63306
5-Nov-13,53.50,54.03,53.03,53.77,49375
4-Nov-13,53.83,54.32,52.89,53.71,49685
1-Nov-13,54.00,54.34,53.55,53.78,17581
31-Oct-13,53.42,54.20,53.09,53.70,87053
30-Oct-13,54.85,55.06,53.82,54.02,162347
29-Oct-13,56.21,56.77,53.91,55.10,161229
28-Oct-13,56.27,56.48,56.10,56.22,33399
25-Oct-13,59.24,59.24,55.97,56.49,128842
24-Oct-13,56.47,57.85,56.05,56.25,167586
23-Oct-13,55.94,56.40,55.13,56.20,64513
22-Oct-13,56.18,56.49,55.78,56.35,58704
21-Oct-13,56.27,56.49,55.59,56.00,139302
18-Oct-13,54.15,56.39,53.95,56.39,248478
17-Oct-13,54.23,54.66,53.77,54.10,81000
16-Oct-13,54.84,55.74,52.85,54.35,110247
15-Oct-13,54.46,55.30,53.01,54.86,109089
14-Oct-13,54.50,55.69,53.14,54.77,157529
11-Oct-13,55.67,56.00,54.04,55.01,87427
10-Oct-13,56.57,57.02,55.37,55.67,61070
9-Oct-13,55.70,56.67,54.88,56.30,63775
8-Oct-13,56.84,56.94,56.20,56.29,37319
7-Oct-13,57.14,57.96,56.63,56.93,63365
4-Oct-13,58.25,58.25,57.15,57.35,48025
3-Oct-13,58.25,58.25,57.53,58.05,161167
2-Oct-13,58.01,58.89,57.77,58.10,107907
1-Oct-13,57.99,58.75,57.26,58.64,173100
30-Sep-13,57.77,58.23,57.00,58.00,112891
27-Sep-13,58.26,58.49,57.13,57.97,99936
26-Sep-13,56.87,58.31,56.79,58.09,69455
25-Sep-13,56.99,57.30,56.30,56.81,108501
24-Sep-13,56.79,57.99,55.74,57.23,133591
23-Sep-13,57.18,57.91,56.22,56.68,168088
20-Sep-13,58.33,59.10,57.02,57.63,361323
19-Sep-13,57.30,59.29,57.20,58.92,228160
18-Sep-13,55.99,57.24,55.18,57.06,153579
17-Sep-13,54.66,56.34,54.25,55.73,169278
16-Sep-13,56.72,56.72,54.32,54.75,109381
13-Sep-13,56.53,56.66,56.00,56.44,102268
12-Sep-13,56.85,57.29,54.61,56.70,81244
11-Sep-13,57.53,57.53,56.70,57.00,65658
10-Sep-13,56.17,58.00,56.17,57.67,138390
9-Sep-13,54.77,56.11,54.03,56.00,69763
6-Sep-13,55.00,55.14,54.23,54.80,65556
5-Sep-13,53.26,54.92,53.25,54.89,52562
4-Sep-13,54.37,54.94,53.29,53.46,54178
3-Sep-13,53.94,54.26,53.28,53.68,68694
30-Aug-13,54.26,54.26,53.16,53.60,45674
29-Aug-13,53.57,54.45,53.57,53.90,61515
28-Aug-13,53.15,53.76,52.87,53.39,62009
27-Aug-13,53.50,54.31,53.07,53.20,64528
26-Aug-13,54.97,55.00,53.61,53.87,64794
23-Aug-13,54.77,55.17,54.22,54.82,149307
22-Aug-13,53.85,54.78,53.04,54.72,44946
21-Aug-13,54.63,54.99,54.00,54.00,43347
20-Aug-13,54.34,55.27,54.00,54.83,86393
19-Aug-13,53.40,54.77,52.98,54.05,120234
16-Aug-13,52.62,53.71,52.59,53.39,41949
15-Aug-13,52.23,53.26,51.51,52.77,113381
14-Aug-13,51.72,52.64,51.58,52.28,161307
13-Aug-13,52.90,53.24,52.49,52.49,67286
12-Aug-13,51.56,53.12,51.56,52.87,144636
9-Aug-13,51.79,52.49,51.76,51.76,44353
8-Aug-13,51.57,52.69,51.19,52.06,238535
7-Aug-13,51.94,51.96,51.14,51.62,236328
6-Aug-13,52.51,53.29,51.98,52.10,95581
5-Aug-13,51.64,52.86,50.52,52.86,229118
2-Aug-13,53.87,53.88,52.15,52.38,136950
1-Aug-13,53.62,54.45,53.32,53.64,114006
31-Jul-13,53.26,53.99,52.87,53.49,74150
30-Jul-13,54.50,54.92,53.82,53.85,133181
29-Jul-13,56.44,56.48,54.68,55.02,86282
26-Jul-13,53.70,56.29,53.70,55.85,105000
25-Jul-13,54.01,54.37,52.96,54.06,172244
24-Jul-13,53.65,54.40,52.85,54.34,165325
23-Jul-13,54.00,54.75,53.31,53.47,249680
22-Jul-13,53.51,54.38,53.51,53.81,123354
19-Jul-13,53.50,54.30,52.67,53.73,247061
18-Jul-13,54.19,54.98,53.69,54.07,186474
17-Jul-13,55.98,56.10,54.08,54.50,226534
16-Jul-13,56.00,56.32,55.00,55.69,137738
15-Jul-13,56.84,56.99,56.51,56.66,156114
12-Jul-13,57.67,57.99,56.57,57.15,301126
11-Jul-13,58.40,58.61,56.76,58.00,346507
10-Jul-13,58.84,59.05,57.29,58.22,246606
9-Jul-13,59.69,59.69,58.48,59.02,69581
8-Jul-13,59.41,59.48,58.05,58.95,239437
5-Jul-13,60.86,60.86,58.27,59.40,115100
3-Jul-13,61.85,61.85,59.92,60.43,74524
2-Jul-13,61.24,61.71,60.52,61.55,92344
1-Jul-13,61.00,63.71,60.39,61.33,183364
28-Jun-13,61.14,61.14,59.74,60.46,166241
27-Jun-13,61.01,62.06,60.40,61.14,98160
26-Jun-13,58.60,60.92,58.60,60.70,203844
25-Jun-13,56.28,58.47,55.50,57.78,129994
24-Jun-13,55.47,56.86,53.44,56.14,240550
21-Jun-13,56.10,57.24,53.06,55.94,2171186
20-Jun-13,58.20,59.08,55.35,56.00,551718
19-Jun-13,59.18,59.53,58.32,59.00,248525
18-Jun-13,59.98,60.35,58.93,59.32,95299
17-Jun-13,58.71,59.62,57.92,59.08,123442
14-Jun-13,57.80,58.77,57.00,58.53,265253
13-Jun-13,58.71,59.55,57.74,57.80,69738
12-Jun-13,58.52,59.14,57.93,58.76,215241
11-Jun-13,58.50,58.96,57.77,58.20,150287
10-Jun-13,60.00,60.36,59.00,59.48,50731
7-Jun-13,58.88,60.81,58.69,59.90,84623
6-Jun-13,57.23,58.85,56.55,58.62,287970
5-Jun-13,60.70,60.70,57.26,57.75,367629
4-Jun-13,61.94,62.04,60.23,60.79,112155
3-Jun-13,62.10,62.19,61.02,61.39,120084
31-May-13,63.98,64.00,61.54,62.04,160973
30-May-13,66.25,66.25,63.31,64.00,171578
29-May-13,68.49,68.75,65.24,66.34,235790
28-May-13,68.49,71.92,67.80,68.09,145877
24-May-13,67.40,69.00,66.73,67.67,202605
23-May-13,66.02,66.94,64.53,66.43,146857
22-May-13,64.60,66.29,64.50,66.17,175687
21-May-13,62.68,64.98,62.35,64.47,148628
20-May-13,63.65,64.46,61.45,62.34,106730
17-May-13,62.50,65.99,62.50,63.27,416150
16-May-13,60.92,63.77,60.92,62.63,177387
15-May-13,60.91,61.66,60.37,61.04,112997
14-May-13,60.77,61.39,60.75,61.00,158446
13-May-13,60.72,61.51,60.61,60.98,372244
10-May-13,60.45,61.74,60.45,60.95,124623
9-May-13,63.32,63.96,60.25,60.75,351781
8-May-13,65.38,66.29,62.99,63.60,288328
7-May-13,63.00,66.51,63.00,65.01,260513
6-May-13,63.35,65.12,63.35,64.83,236300
3-May-13,62.04,64.77,62.04,63.29,518067
2-May-13,60.92,62.58,60.23,62.36,463998
1-May-13,59.24,62.20,58.89,61.24,4685301
30-Apr-13,57.90,60.94,57.90,59.60,1224496
29-Apr-13,59.00,59.00,57.39,57.50,138143
26-Apr-13,56.74,57.49,56.14,57.23,110568
25-Apr-13,55.61,57.10,55.60,56.41,162966
24-Apr-13,54.13,57.59,53.84,55.71,282277
23-Apr-13,53.09,54.76,52.57,54.08,143686
22-Apr-13,52.72,53.40,52.35,53.10,37476
19-Apr-13,52.95,53.15,52.58,52.97,66033
18-Apr-13,53.53,53.53,52.47,52.74,54809
17-Apr-13,52.98,54.23,52.34,53.77,172584
16-Apr-13,52.20,54.26,51.55,52.80,170748
15-Apr-13,52.41,52.58,51.48,52.07,122005
12-Apr-13,52.33,52.96,52.08,52.43,79340
11-Apr-13,52.70,52.90,51.89,52.23,147621
10-Apr-13,53.10,53.12,52.27,52.83,161826
9-Apr-13,52.67,53.73,52.67,53.06,149824
8-Apr-13,51.66,53.31,51.02,52.85,191264
5-Apr-13,51.25,51.60,50.61,51.20,234331
4-Apr-13,52.00,52.70,51.69,51.69,152197
3-Apr-13,53.45,53.45,52.15,52.36,122136
2-Apr-13,53.54,54.00,52.80,53.56,234181
1-Apr-13,54.04,54.16,53.26,53.68,150085
28-Mar-13,53.89,54.20,53.42,53.97,183258
27-Mar-13,53.97,54.30,53.33,53.40,149462
26-Mar-13,55.02,55.11,54.02,54.27,125993
25-Mar-13,55.64,55.64,54.63,54.90,74557
22-Mar-13,55.23,56.05,54.92,55.36,273679
21-Mar-13,53.42,55.48,53.08,55.23,441365
20-Mar-13,52.36,53.60,52.01,53.44,288438
19-Mar-13,53.18,53.83,52.90,53.33,284958
18-Mar-13,52.49,53.59,52.13,53.23,336343
15-Mar-13,54.22,55.15,52.81,52.91,1330853
14-Mar-13,53.85,55.16,53.10,54.45,778603
13-Mar-13,53.52,54.14,51.30,53.94,577257
12-Mar-13,55.92,56.63,54.03,54.69,1045991
11-Mar-13,54.00,54.79,53.59,54.51,498958
8-Mar-13,53.29,54.33,53.02,54.32,266324
7-Mar-13,52.69,53.65,52.57,53.51,246275
6-Mar-13,51.71,52.89,51.32,52.51,478979
5-Mar-13,51.38,52.60,51.36,51.92,279322
4-Mar-13,50.62,51.75,50.60,51.36,240339
1-Mar-13,49.59,50.63,49.27,50.63,339347
28-Feb-13,49.90,50.82,49.53,49.90,188996
27-Feb-13,49.11,49.87,48.61,49.50,292759
26-Feb-13,48.86,49.35,48.31,48.93,335663
25-Feb-13,49.01,49.88,48.62,48.70,249261
22-Feb-13,48.57,49.00,47.78,48.64,173019
21-Feb-13,48.56,48.75,46.67,48.48,233527
20-Feb-13,48.82,49.15,48.33,48.91,193108
19-Feb-13,47.58,49.02,47.58,48.90,174057
15-Feb-13,47.35,48.10,47.10,47.62,104723
14-Feb-13,47.30,47.66,46.82,47.36,150182
13-Feb-13,46.22,48.03,46.22,47.35,203939
12-Feb-13,45.56,46.36,45.13,46.06,182875
11-Feb-13,46.13,46.37,45.75,46.01,119643
8-Feb-13,45.43,46.20,45.18,46.08,133451
7-Feb-13,44.90,45.63,44.60,45.48,214221
6-Feb-13,44.53,45.00,44.52,44.95,119993
5-Feb-13,44.59,44.68,44.44,44.62,153587
4-Feb-13,44.16,44.79,43.97,44.61,153136
1-Feb-13,44.00,44.41,43.84,44.36,176311
31-Jan-13,43.04,44.00,42.76,44.00,315119
30-Jan-13,43.87,43.87,43.28,43.65,228638
29-Jan-13,44.20,44.30,43.22,43.79,269621
28-Jan-13,44.45,44.51,44.20,44.31,230580
25-Jan-13,44.38,44.45,44.00,44.40,181951
24-Jan-13,43.85,44.48,43.35,44.18,383143
23-Jan-13,43.74,44.22,43.48,44.12,383219
22-Jan-13,43.25,43.74,42.95,43.70,320676
18-Jan-13,42.76,43.12,42.65,43.06,221252
17-Jan-13,42.57,43.05,42.49,42.89,283634
16-Jan-13,42.51,42.75,42.33,42.62,343787
15-Jan-13,42.46,42.72,42.00,42.60,283358
14-Jan-13,42.70,42.75,42.32,42.75,355492
11-Jan-13,42.15,42.68,42.00,42.63,493032
10-Jan-13,42.05,42.28,41.41,42.28,968072
9-Jan-13,42.19,42.49,42.00,42.00,6429528
8-Jan-13,42.60,42.60,41.26,41.70,1137505
7-Jan-13,44.98,45.05,43.31,43.32,267104
4-Jan-13,45.34,45.40,44.66,45.00,86765
3-Jan-13,45.20,45.64,44.75,45.14,96721
2-Jan-13,44.17,45.83,44.17,44.96,208159
31-Dec-12,42.97,44.18,42.62,43.80,76556
28-Dec-12,42.82,43.47,42.28,43.20,231005
27-Dec-12,43.57,43.75,42.59,42.88,36971
26-Dec-12,44.16,44.28,43.22,43.48,50455
24-Dec-12,44.29,44.48,43.66,44.10,47878
21-Dec-12,43.66,44.70,43.63,43.95,116484
20-Dec-12,42.88,44.34,42.64,44.21,387238
19-Dec-12,41.98,43.22,41.58,42.63,91603
18-Dec-12,42.83,43.31,41.57,42.04,105436
17-Dec-12,43.22,43.41,42.72,42.96,55933
14-Dec-12,42.95,43.29,42.69,43.00,64486
13-Dec-12,43.44,43.44,42.59,42.96,92874
12-Dec-12,45.10,45.10,43.00,43.46,169298
11-Dec-12,44.15,44.80,43.90,44.30,48505
10-Dec-12,44.47,44.68,43.49,44.12,28617
7-Dec-12,43.91,44.53,43.40,44.34,51925
6-Dec-12,44.89,45.14,43.61,44.04,86523
5-Dec-12,45.00,45.34,44.74,45.12,35298
4-Dec-12,45.21,45.36,44.91,45.08,60716
3-Dec-12,45.75,45.97,44.16,45.36,74928
30-Nov-12,45.89,46.69,45.20,46.10,59974
29-Nov-12,45.54,46.46,45.12,45.65,53675
28-Nov-12,45.19,46.30,45.19,45.64,55556
27-Nov-12,45.00,45.94,44.91,45.36,114167
26-Nov-12,43.71,45.09,43.68,44.89,67389
23-Nov-12,44.05,44.24,43.96,43.96,31154
21-Nov-12,44.01,44.25,43.74,44.00,44073
20-Nov-12,43.81,44.14,43.57,44.14,44840
19-Nov-12,44.01,44.22,43.66,43.90,38468
16-Nov-12,42.80,43.84,42.48,43.48,81717
15-Nov-12,43.72,44.12,41.30,42.95,136853
14-Nov-12,44.96,45.24,42.84,43.51,410965
13-Nov-12,45.00,45.00,44.70,44.95,91314
12-Nov-12,44.83,45.79,44.67,45.04,96250
9-Nov-12,44.78,45.16,44.51,45.02,49682
8-Nov-12,45.58,45.70,44.36,45.02,59185
7-Nov-12,44.85,45.48,44.25,45.33,51138
6-Nov-12,44.30,45.40,44.30,45.30,46611
5-Nov-12,43.75,44.95,43.53,44.58,63250
2-Nov-12,43.92,44.31,43.53,43.73,43867
1-Nov-12,43.99,44.44,43.71,44.03,20463
31-Oct-12,45.21,45.48,43.63,44.19,156941
26-Oct-12,44.70,45.45,44.52,44.90,44253
25-Oct-12,44.78,45.30,44.55,44.78,89873
24-Oct-12,44.63,45.09,44.59,44.83,38125
23-Oct-12,44.82,44.82,44.00,44.33,40640
22-Oct-12,45.05,45.87,45.05,45.27,64571
19-Oct-12,45.05,45.30,44.75,45.05,95692
18-Oct-12,44.80,45.59,44.66,44.91,98483
17-Oct-12,44.53,44.74,44.27,44.68,48719
16-Oct-12,43.90,44.80,43.75,44.52,68953
15-Oct-12,43.62,44.20,43.50,44.04,50666
12-Oct-12,43.85,44.63,43.82,44.29,132254
11-Oct-12,44.00,44.00,43.70,44.00,74350
10-Oct-12,43.76,43.92,43.54,43.69,213586
9-Oct-12,43.93,44.02,43.75,43.92,76893
8-Oct-12,43.75,44.06,43.32,44.06,71971
5-Oct-12,44.06,44.25,43.88,43.91,60656
4-Oct-12,44.20,44.26,43.62,44.21,190971
3-Oct-12,42.93,44.19,42.81,44.19,475485
2-Oct-12,42.65,43.52,42.40,43.06,2753215
1-Oct-12,43.41,43.82,43.27,43.44,149847
28-Sep-12,44.00,44.00,43.14,43.41,66426
27-Sep-12,43.60,44.00,42.71,44.00,33182
26-Sep-12,43.65,43.93,43.37,43.50,25336
25-Sep-12,43.31,43.96,43.31,43.69,81480
24-Sep-12,44.00,44.00,43.59,43.68,17447
21-Sep-12,44.11,44.30,43.86,44.05,55770
20-Sep-12,43.52,44.20,43.46,43.78,76010
19-Sep-12,44.30,44.30,43.16,43.62,68976
18-Sep-12,45.00,45.00,44.00,44.24,34650
17-Sep-12,46.10,46.10,44.52,44.70,80668
14-Sep-12,45.50,45.77,44.89,45.50,53867
13-Sep-12,46.99,46.99,44.35,45.20,83168
12-Sep-12,46.92,46.99,46.04,46.55,47815
11-Sep-12,44.63,47.24,44.52,45.97,80907
10-Sep-12,44.28,44.53,43.09,44.40,41586
7-Sep-12,44.17,44.30,43.87,43.88,27050
6-Sep-12,44.28,44.69,44.00,44.20,65766
5-Sep-12,43.78,44.51,43.62,43.95,30466
4-Sep-12,44.24,44.26,43.50,43.80,43754
31-Aug-12,43.54,43.79,43.21,43.57,48383
30-Aug-12,43.02,43.22,42.81,43.14,34744
29-Aug-12,42.38,43.44,42.38,42.83,87482
28-Aug-12,42.92,43.13,42.03,42.14,44914
27-Aug-12,42.68,42.88,42.25,42.75,54992
24-Aug-12,42.70,42.74,42.01,42.02,39908
23-Aug-12,42.18,42.64,42.00,42.59,26244
22-Aug-12,41.99,42.28,41.83,42.03,32184
21-Aug-12,43.12,43.12,41.85,42.02,46577
20-Aug-12,43.00,43.60,42.49,42.82,80639
17-Aug-12,42.50,43.00,42.18,42.99,78801
16-Aug-12,42.11,43.00,42.10,42.22,74753
15-Aug-12,41.77,43.98,41.77,41.98,111157
14-Aug-12,40.91,42.21,40.61,41.56,69764
13-Aug-12,39.92,41.80,39.74,40.92,231869
10-Aug-12,39.21,39.87,39.21,39.50,54186
9-Aug-12,39.01,39.68,39.01,39.44,90837
8-Aug-12,38.34,39.27,38.32,39.05,52300
7-Aug-12,39.00,40.22,38.64,38.73,49052
6-Aug-12,39.28,39.28,38.05,38.84,48391
3-Aug-12,38.06,39.40,37.75,38.62,110952
2-Aug-12,37.71,38.10,37.23,37.37,94282
1-Aug-12,36.26,37.69,36.01,37.49,110680
31-Jul-12,36.77,37.00,36.42,36.49,65519
30-Jul-12,37.04,37.42,36.53,36.62,24147
27-Jul-12,36.96,37.14,36.74,36.85,16329
26-Jul-12,36.86,37.13,36.00,36.99,65283
25-Jul-12,36.45,36.89,36.41,36.65,9098
24-Jul-12,37.07,37.07,36.29,36.44,32533
23-Jul-12,36.52,37.06,36.20,37.00,17021
20-Jul-12,35.40,37.36,35.40,36.95,48100
19-Jul-12,35.71,35.78,35.40,35.71,16694
18-Jul-12,35.75,36.46,35.28,35.55,24909
17-Jul-12,35.35,35.77,35.06,35.77,46588
16-Jul-12,35.08,35.38,35.02,35.33,21553
13-Jul-12,35.10,35.30,34.94,35.29,128569
12-Jul-12,34.93,35.30,34.75,35.10,190802
11-Jul-12,35.24,35.42,34.82,35.04,85846
10-Jul-12,34.56,35.94,34.56,35.12,162850
9-Jul-12,34.60,34.90,34.24,34.79,48231
6-Jul-12,34.19,34.59,34.05,34.44,17744
5-Jul-12,34.44,34.83,34.44,34.53,26040
3-Jul-12,34.90,35.00,34.50,34.65,25078
2-Jul-12,34.10,34.92,33.68,34.58,174936
29-Jun-12,34.00,34.43,33.08,33.90,36040
28-Jun-12,33.14,33.16,32.82,33.16,43450
27-Jun-12,31.95,33.17,31.95,33.01,42586
26-Jun-12,31.57,32.36,31.57,32.01,206853
25-Jun-12,31.51,31.96,31.18,31.80,32101
22-Jun-12,31.66,32.12,31.14,31.74,216905
21-Jun-12,31.39,31.98,30.46,31.06,25234
20-Jun-12,31.90,31.90,30.63,31.30,63071
19-Jun-12,30.88,32.11,30.88,31.84,20391
18-Jun-12,31.04,31.04,30.27,30.81,23595
15-Jun-12,31.30,31.40,30.65,31.24,43993
14-Jun-12,30.88,31.23,30.27,31.23,36915
13-Jun-12,30.60,31.19,30.44,30.75,11863
12-Jun-12,30.45,31.05,30.24,30.90,39007
11-Jun-12,30.55,31.17,30.25,30.65,46082
8-Jun-12,29.27,30.50,29.25,30.25,146359
7-Jun-12,30.01,30.50,29.83,30.10,91923
6-Jun-12,30.51,30.65,30.01,30.30,108859
5-Jun-12,30.20,30.74,29.58,30.63,131528
4-Jun-12,30.38,30.64,29.33,30.21,168993
1-Jun-12,31.41,31.41,29.61,30.64,112552
31-May-12,31.65,31.67,30.42,31.53,96495
30-May-12,32.29,32.29,31.26,31.84,45270
29-May-12,32.38,32.64,32.07,32.24,23153
25-May-12,32.75,32.75,32.05,32.40,54297
24-May-12,32.70,32.86,32.57,32.74,38207
23-May-12,32.70,33.00,32.34,32.92,38679
22-May-12,33.42,33.42,32.65,32.90,19287
21-May-12,32.38,33.59,32.00,33.24,25252
18-May-12,32.77,32.92,32.30,32.70,20018
17-May-12,32.44,33.69,32.44,32.89,30415
16-May-12,33.03,33.25,32.36,32.65,20457
15-May-12,33.11,33.40,32.85,33.30,29248
14-May-12,33.80,33.80,32.47,32.96,38231
11-May-12,33.32,34.08,33.32,33.72,9582
10-May-12,34.34,34.34,33.00,33.55,29305
9-May-12,33.70,34.00,32.06,33.93,89156
8-May-12,34.68,34.68,33.00,33.78,48434
7-May-12,34.14,34.97,34.03,34.73,34429
4-May-12,34.83,35.16,34.24,34.28,40768
3-May-12,35.28,35.58,34.85,34.99,20526
2-May-12,35.45,35.45,35.06,35.28,33324
1-May-12,35.40,35.48,35.16,35.45,45728
30-Apr-12,35.30,35.47,35.03,35.35,60900
27-Apr-12,35.44,35.50,35.25,35.25,19811
26-Apr-12,35.25,35.48,35.05,35.36,20118
25-Apr-12,36.22,36.22,35.28,35.28,39004
24-Apr-12,35.36,35.57,34.45,35.12,54367
23-Apr-12,35.50,35.60,34.81,35.21,36654
20-Apr-12,35.27,35.98,35.27,35.38,27398
19-Apr-12,34.71,35.50,34.71,35.47,22309
18-Apr-12,35.14,35.64,34.28,34.58,17431
17-Apr-12,35.86,35.88,35.05,35.05,21874
16-Apr-12,35.58,35.78,34.87,35.00,7276
13-Apr-12,36.03,36.03,35.33,35.43,18922
12-Apr-12,35.78,36.38,35.59,36.23,24672
11-Apr-12,35.50,35.84,34.54,35.84,28092
10-Apr-12,35.59,35.93,34.87,35.16,51970
9-Apr-12,35.30,35.60,35.30,35.53,19267
5-Apr-12,36.18,36.55,35.77,36.18,24002
4-Apr-12,34.71,36.14,34.70,36.14,49044
3-Apr-12,34.75,35.87,34.51,34.96,47238
2-Apr-12,35.18,35.33,34.50,34.73,41785
30-Mar-12,34.26,36.18,33.86,34.97,49747
29-Mar-12,34.50,34.50,33.27,34.24,56354
28-Mar-12,35.49,35.49,34.01,34.57,33124
27-Mar-12,35.37,35.55,35.31,35.50,21372
26-Mar-12,35.80,36.01,35.26,35.64,22788
23-Mar-12,35.50,35.90,35.32,35.72,31316
22-Mar-12,36.09,36.09,35.61,35.70,32060
21-Mar-12,36.82,36.99,36.26,36.26,33803
20-Mar-12,36.82,36.98,36.72,36.83,34671
19-Mar-12,36.02,36.88,35.47,36.74,170936
16-Mar-12,36.07,36.26,35.70,35.94,137170
15-Mar-12,35.64,35.99,35.50,35.89,20873
14-Mar-12,36.09,36.09,35.50,35.70,19735
13-Mar-12,36.25,36.25,35.60,36.00,30248
12-Mar-12,36.21,36.30,35.92,36.11,15845
9-Mar-12,36.21,36.31,35.75,36.15,50588
8-Mar-12,36.48,36.49,35.95,36.10,27306
7-Mar-12,35.92,36.92,35.92,36.30,31814
6-Mar-12,36.13,36.20,34.57,36.00,42818
5-Mar-12,36.83,36.91,36.33,36.38,38804
2-Mar-12,36.73,36.99,36.65,36.74,44603
1-Mar-12,36.70,36.86,36.40,36.79,64542
29-Feb-12,36.73,36.73,36.34,36.50,29365
28-Feb-12,36.50,36.96,36.06,36.63,60640
27-Feb-12,36.83,36.89,36.44,36.54,32153
24-Feb-12,36.50,36.80,36.28,36.68,40337
23-Feb-12,36.42,37.04,36.00,36.50,49573
22-Feb-12,36.94,37.09,36.10,36.20,53152
21-Feb-12,36.52,36.68,35.98,36.48,35927
17-Feb-12,36.94,37.14,36.02,36.34,41341
16-Feb-12,35.57,37.33,35.34,36.95,140295
15-Feb-12,35.39,35.90,35.06,35.78,58357
14-Feb-12,35.08,35.50,34.65,35.44,52007
13-Feb-12,34.95,35.48,34.81,34.96,110930
10-Feb-12,34.48,34.64,33.91,34.63,42582
9-Feb-12,33.52,34.54,33.44,34.07,128537
8-Feb-12,33.44,33.61,33.15,33.57,69380
7-Feb-12,33.69,33.88,33.00,33.38,58771
6-Feb-12,33.12,33.62,32.79,33.60,38841
3-Feb-12,33.25,33.50,32.91,33.37,44902
2-Feb-12,33.09,33.53,32.77,33.20,41575
1-Feb-12,33.20,33.20,32.55,33.00,51855
31-Jan-12,32.97,33.21,32.09,33.18,47962
30-Jan-12,32.70,33.01,32.46,32.82,48025
27-Jan-12,32.83,33.75,32.71,32.91,51560
26-Jan-12,32.63,33.10,32.48,32.87,78209
25-Jan-12,32.26,32.68,32.00,32.31,44610
24-Jan-12,32.48,32.68,32.10,32.35,64894
23-Jan-12,32.48,32.92,31.80,32.51,90454
20-Jan-12,32.50,33.18,31.82,32.20,73770
19-Jan-12,32.07,32.99,32.07,32.55,47099
18-Jan-12,32.59,32.79,31.94,31.99,66409
17-Jan-12,32.45,32.85,31.24,32.30,125260
13-Jan-12,32.00,32.05,31.22,31.53,49977
12-Jan-12,31.96,32.11,31.26,31.95,55206
11-Jan-12,32.50,32.50,31.87,31.89,54506
10-Jan-12,32.36,33.10,32.05,32.65,60867
9-Jan-12,32.70,32.87,31.78,32.50,111678
6-Jan-12,33.60,34.00,32.39,32.77,79411
5-Jan-12,34.09,34.40,33.30,33.40,75331
4-Jan-12,33.96,34.76,33.48,34.25,142020
3-Jan-12,33.35,33.96,32.42,33.50,119416
30-Dec-11,33.15,33.20,32.01,32.90,32027
29-Dec-11,32.95,33.28,32.65,33.12,52911
28-Dec-11,32.76,33.10,32.34,33.00,19009
27-Dec-11,33.01,33.60,32.34,33.02,42943
23-Dec-11,33.42,33.42,33.05,33.19,13220
22-Dec-11,33.74,33.74,32.95,33.28,33194
21-Dec-11,32.51,34.00,32.50,33.38,67541
20-Dec-11,32.66,32.97,32.02,32.69,45670
19-Dec-11,33.45,33.45,32.30,32.65,47518
16-Dec-11,33.20,34.40,32.90,33.40,126696
15-Dec-11,32.84,33.39,32.00,33.39,63511
14-Dec-11,32.00,33.00,31.40,33.00,77013
13-Dec-11,31.72,32.95,31.45,32.00,81478
12-Dec-11,31.95,31.95,30.60,31.56,82687
9-Dec-11,30.26,31.89,29.78,31.74,49554
8-Dec-11,29.63,30.61,29.50,30.53,33105
7-Dec-11,29.94,30.30,29.51,29.82,52182
6-Dec-11,29.22,29.96,29.14,29.58,60052
5-Dec-11,28.70,29.54,28.39,29.01,71639
2-Dec-11,28.56,29.00,27.97,28.43,54004
1-Dec-11,27.16,28.49,27.16,28.31,82612
30-Nov-11,28.10,28.52,26.98,27.26,26776
29-Nov-11,27.99,28.10,27.44,27.81,16771
28-Nov-11,27.85,28.13,27.57,27.96,29247
25-Nov-11,27.83,28.09,27.70,27.70,3262
23-Nov-11,27.90,28.53,27.70,27.89,22904
22-Nov-11,27.87,28.45,27.65,27.98,27797
21-Nov-11,27.20,27.85,26.39,27.85,23712
18-Nov-11,27.61,27.75,26.10,27.26,40044
17-Nov-11,27.35,27.75,27.35,27.58,29687
16-Nov-11,26.86,27.48,26.59,27.45,22441
15-Nov-11,26.80,27.35,26.72,26.90,32013
14-Nov-11,27.50,27.63,26.70,27.03,14481
11-Nov-11,27.34,27.75,26.68,27.45,28070
10-Nov-11,27.25,27.35,26.50,27.13,39424
9-Nov-11,25.78,26.69,25.10,26.16,92401
8-Nov-11,26.61,27.43,25.99,26.85,67807
7-Nov-11,26.40,26.61,26.21,26.61,8910
4-Nov-11,26.79,26.97,26.26,26.47,43949
3-Nov-11,26.50,27.18,26.42,26.81,71250
2-Nov-11,26.47,26.47,25.74,26.28,22202
1-Nov-11,26.69,26.69,26.31,26.50,33839
31-Oct-11,26.47,26.86,26.28,26.80,61309
28-Oct-11,25.95,26.68,25.95,26.58,63019
27-Oct-11,26.12,26.49,25.60,26.20,46317
26-Oct-11,25.34,25.85,25.34,25.73,29490
25-Oct-11,25.84,26.10,24.80,25.03,86410
24-Oct-11,25.39,26.12,25.39,25.94,52153
21-Oct-11,25.86,25.86,25.22,25.55,28189
20-Oct-11,25.14,25.33,25.10,25.16,28190
19-Oct-11,25.31,25.54,25.25,25.30,17019
18-Oct-11,25.21,25.46,25.17,25.20,45963
17-Oct-11,25.23,25.79,25.14,25.25,72468
14-Oct-11,24.35,25.38,23.75,25.14,105266
13-Oct-11,23.44,24.02,23.21,24.00,120854
12-Oct-11,23.33,23.50,23.13,23.27,41870
11-Oct-11,22.91,23.47,22.77,23.25,181496
10-Oct-11,22.96,23.35,22.51,23.12,47905
7-Oct-11,23.55,23.56,22.88,22.88,46407
6-Oct-11,23.42,23.61,23.18,23.53,17750
5-Oct-11,22.80,23.58,22.72,23.37,38949
4-Oct-11,23.27,23.27,22.41,23.00,113935
3-Oct-11,23.55,24.12,23.49,23.65,24302
30-Sep-11,23.36,24.15,23.32,23.82,38969
29-Sep-11,23.79,23.79,23.41,23.53,28125
28-Sep-11,23.70,23.91,23.49,23.51,53510
27-Sep-11,23.90,24.07,23.66,23.75,27487
26-Sep-11,23.88,24.05,23.46,23.65,19740
23-Sep-11,23.89,24.06,23.66,24.06,32777
22-Sep-11,23.82,24.13,23.56,24.13,48402
21-Sep-11,24.21,24.82,23.92,24.20,139900
20-Sep-11,24.26,24.50,24.02,24.22,92845
19-Sep-11,24.00,24.35,23.56,24.09,42465
16-Sep-11,24.39,24.86,24.04,24.15,36044
15-Sep-11,24.35,24.57,24.25,24.25,40965
14-Sep-11,24.20,24.38,23.75,24.24,18805
13-Sep-11,23.99,24.35,23.56,24.09,41424
12-Sep-11,23.48,24.08,23.33,23.77,111540
9-Sep-11,23.57,23.97,23.54,23.64,32296
8-Sep-11,23.38,23.79,23.38,23.72,29548
7-Sep-11,23.41,23.76,23.17,23.51,95789
6-Sep-11,23.10,23.50,23.00,23.23,120631
2-Sep-11,23.02,23.90,22.95,23.38,31819
1-Sep-11,23.39,23.88,23.26,23.30,120269
31-Aug-11,23.46,23.70,23.39,23.44,30134
30-Aug-11,22.91,23.83,22.84,23.30,44870
29-Aug-11,23.00,23.19,22.90,22.95,164191
26-Aug-11,22.95,23.23,22.76,22.90,141254
25-Aug-11,22.99,23.22,22.44,23.00,102882
24-Aug-11,23.06,23.18,22.64,22.89,44700
23-Aug-11,23.16,23.65,22.64,22.87,38975
22-Aug-11,23.25,23.43,22.60,22.90,79619
19-Aug-11,23.45,23.55,22.97,23.10,143237
18-Aug-11,23.66,23.95,23.25,23.66,59384
17-Aug-11,24.01,24.33,23.61,24.00,115499
16-Aug-11,24.05,24.25,23.80,23.99,52582
15-Aug-11,24.44,24.58,23.63,24.26,51978
12-Aug-11,24.17,24.30,23.72,24.20,46901
11-Aug-11,23.18,24.26,22.95,24.01,47428
10-Aug-11,22.99,23.27,22.53,23.00,166268
9-Aug-11,21.40,23.16,21.22,22.99,185602
8-Aug-11,22.50,23.61,21.07,21.34,294204
5-Aug-11,23.85,23.88,22.47,22.94,129848
4-Aug-11,23.82,24.29,23.36,23.70,104669
3-Aug-11,23.88,24.00,23.71,23.90,150745
2-Aug-11,24.39,24.73,23.76,24.03,91540
1-Aug-11,24.70,24.95,24.50,24.52,22260
29-Jul-11,24.50,24.70,23.45,24.60,108820
28-Jul-11,24.52,24.90,24.27,24.50,39010
27-Jul-11,24.50,24.80,24.28,24.44,128143
26-Jul-11,24.83,24.84,24.49,24.70,66576
25-Jul-11,24.80,25.14,24.73,24.82,70803
22-Jul-11,24.98,25.00,24.73,24.83,82124
21-Jul-11,25.02,25.28,24.73,24.73,90881
20-Jul-11,25.22,25.30,25.00,25.21,101854
19-Jul-11,25.20,25.39,25.03,25.25,103129
18-Jul-11,25.30,25.48,25.04,25.29,82514
15-Jul-11,25.25,25.58,25.20,25.30,30283
14-Jul-11,25.20,25.34,25.00,25.24,57080
13-Jul-11,24.82,25.20,24.70,25.01,109254
12-Jul-11,24.68,25.02,24.51,25.02,87712
11-Jul-11,24.67,24.97,24.37,24.71,79647
8-Jul-11,24.55,25.00,24.24,24.98,108678
7-Jul-11,24.90,24.93,24.55,24.61,54964
6-Jul-11,24.89,24.89,24.25,24.55,90760
5-Jul-11,24.81,25.01,24.70,24.90,50165
1-Jul-11,24.32,24.89,24.32,24.76,13650
30-Jun-11,24.94,25.00,24.03,24.35,58017
29-Jun-11,24.97,24.97,24.49,24.95,44422
28-Jun-11,24.07,24.76,23.83,24.76,83398
27-Jun-11,24.66,24.66,24.13,24.33,58830
24-Jun-11,24.00,24.17,23.85,24.12,36315
23-Jun-11,23.68,24.02,23.50,23.93,66135
22-Jun-11,24.06,24.46,23.95,24.00,69993
21-Jun-11,24.36,24.83,24.10,24.20,83292
20-Jun-11,23.61,24.65,23.40,24.44,90688
17-Jun-11,23.60,24.10,23.60,23.80,38875
16-Jun-11,23.56,23.97,23.21,23.70,66276
15-Jun-11,23.97,24.23,23.51,23.82,98718
14-Jun-11,24.49,24.63,24.11,24.30,57393
13-Jun-11,24.30,24.47,24.03,24.24,42741
10-Jun-11,24.76,24.87,24.25,24.35,46715
9-Jun-11,24.37,25.00,24.03,24.99,164305
8-Jun-11,24.98,24.98,24.15,24.30,63801
7-Jun-11,24.25,25.06,24.21,24.42,40899
6-Jun-11,24.69,24.70,24.01,24.12,122402
3-Jun-11,24.35,25.15,24.29,24.82,103986
2-Jun-11,25.23,25.46,24.19,25.04,200217
1-Jun-11,25.02,25.67,24.57,25.19,603250
31-May-11,24.53,25.23,24.24,24.84,226776
27-May-11,23.33,24.50,23.30,24.49,208972
26-May-11,23.13,23.44,23.13,23.36,71436
25-May-11,23.09,23.48,23.09,23.24,151237
24-May-11,23.39,23.47,23.08,23.24,207830
23-May-11,23.03,23.39,23.03,23.34,94828
20-May-11,23.53,23.72,23.19,23.49,123783
19-May-11,23.14,23.54,23.14,23.52,240149
18-May-11,22.91,23.36,22.91,23.09,116695
17-May-11,23.11,23.20,22.60,22.98,124121
16-May-11,23.44,23.46,23.03,23.11,113239
13-May-11,23.64,23.69,23.14,23.34,190863
12-May-11,23.47,24.05,23.09,23.66,263201
11-May-11,23.89,23.95,23.01,23.47,450291
10-May-11,23.59,23.68,22.82,23.37,237755
9-May-11,22.95,23.62,22.51,23.58,213343
6-May-11,22.86,23.28,22.80,22.89,259298
5-May-11,23.21,23.32,22.21,22.81,352881
4-May-11,23.69,23.71,23.00,23.47,301084
3-May-11,23.33,23.95,23.00,23.75,278463
2-May-11,23.94,24.20,23.30,23.50,255714
29-Apr-11,23.80,24.00,23.27,23.64,367532
28-Apr-11,24.01,24.19,23.55,23.92,227759
27-Apr-11,24.50,24.50,23.53,24.25,262892
26-Apr-11,24.84,24.84,23.55,23.75,517508
25-Apr-11,23.73,25.09,23.61,24.32,541492
21-Apr-11,23.35,23.60,23.26,23.51,779536
20-Apr-11,23.25,23.82,23.00,23.50,9940036
