﻿Date,Open,High,Low,Close,Volume
20-Jun-17,12.73,12.80,12.45,12.55,4227217
19-Jun-17,12.51,12.82,12.48,12.65,1560514
16-Jun-17,12.22,12.49,12.14,12.48,2709757
15-Jun-17,12.58,12.67,12.40,12.45,1445684
14-Jun-17,12.52,12.75,12.44,12.72,2281456
13-Jun-17,12.39,12.52,12.29,12.50,2763363
12-Jun-17,12.22,12.53,12.22,12.35,2961381
9-Jun-17,12.26,12.32,12.11,12.25,2687882
8-Jun-17,12.27,12.42,12.17,12.21,2307850
7-Jun-17,12.44,12.50,12.28,12.31,1378729
6-Jun-17,12.43,12.60,12.34,12.43,1352249
5-Jun-17,12.62,12.65,12.47,12.53,1280347
2-Jun-17,12.50,12.72,12.49,12.61,2308018
1-Jun-17,12.41,12.54,12.33,12.50,2094464
31-May-17,12.60,12.60,12.28,12.37,2515009
30-May-17,12.45,12.56,12.40,12.53,1543421
26-May-17,12.53,12.60,12.45,12.49,1106721
25-May-17,12.85,12.86,12.55,12.56,823485
24-May-17,12.76,12.82,12.61,12.80,793818
23-May-17,12.79,12.89,12.65,12.75,1429601
22-May-17,12.80,12.85,12.67,12.70,1017432
19-May-17,12.60,12.81,12.56,12.74,1292392
18-May-17,12.33,12.62,12.26,12.59,2145714
17-May-17,12.51,12.63,12.32,12.33,2121629
16-May-17,12.66,12.68,12.50,12.68,1406518
15-May-17,12.51,12.72,12.50,12.63,1381333
12-May-17,12.45,12.53,12.39,12.47,1044352
11-May-17,12.48,12.54,12.34,12.49,884137
10-May-17,12.47,12.56,12.32,12.52,1488006
9-May-17,12.30,12.53,12.30,12.52,1560442
8-May-17,12.30,12.40,12.19,12.25,1176777
5-May-17,12.23,12.32,12.12,12.31,1374620
4-May-17,12.11,12.21,12.09,12.17,1464371
3-May-17,12.28,12.36,12.03,12.09,2072898
2-May-17,12.41,12.47,12.14,12.32,1947797
1-May-17,12.48,12.59,12.35,12.42,1562432
28-Apr-17,12.67,12.67,12.34,12.45,1753071
27-Apr-17,12.73,12.77,12.47,12.66,2189086
26-Apr-17,12.41,12.90,12.30,12.64,2533665
25-Apr-17,12.34,12.41,12.01,12.33,4333740
24-Apr-17,12.40,12.45,12.13,12.30,2694775
21-Apr-17,12.20,12.24,12.04,12.16,1988886
20-Apr-17,12.49,12.60,12.04,12.22,2545399
19-Apr-17,12.54,12.63,12.39,12.40,1373240
18-Apr-17,12.28,12.55,12.20,12.49,1867983
17-Apr-17,12.18,12.34,12.11,12.33,1138601
13-Apr-17,12.15,12.28,12.08,12.10,2003450
12-Apr-17,12.30,12.34,12.11,12.14,1039451
11-Apr-17,12.23,12.38,12.16,12.33,1351631
10-Apr-17,12.17,12.38,12.10,12.28,1108412
7-Apr-17,12.23,12.29,12.12,12.14,1739794
6-Apr-17,12.23,12.35,12.14,12.27,1332778
5-Apr-17,12.42,12.56,12.18,12.23,1933600
4-Apr-17,12.35,12.46,12.26,12.36,1680516
3-Apr-17,12.54,12.58,12.26,12.39,2941184
31-Mar-17,12.87,12.93,12.39,12.54,5390864
30-Mar-17,12.94,12.99,12.84,12.86,1999991
29-Mar-17,12.80,13.01,12.77,12.95,1785262
28-Mar-17,12.54,12.90,12.49,12.85,2367632
27-Mar-17,12.38,12.63,12.35,12.60,2155850
24-Mar-17,12.55,12.70,12.45,12.59,1992178
23-Mar-17,12.50,12.71,12.44,12.52,1829119
22-Mar-17,12.55,12.55,12.28,12.50,3270436
21-Mar-17,12.89,12.89,12.39,12.51,5136200
20-Mar-17,12.75,12.88,12.63,12.86,2012774
17-Mar-17,12.94,13.05,12.70,12.73,7216249
16-Mar-17,12.79,13.37,12.78,13.31,2143426
15-Mar-17,12.57,12.78,12.48,12.76,1620426
14-Mar-17,12.55,12.58,12.36,12.50,1677718
13-Mar-17,12.96,12.98,12.58,12.61,1582137
10-Mar-17,12.65,13.18,12.65,12.96,3171502
9-Mar-17,12.66,12.67,12.32,12.55,1764070
8-Mar-17,12.39,12.66,12.24,12.65,2259738
7-Mar-17,12.30,12.45,12.24,12.34,1695300
6-Mar-17,12.15,12.22,12.10,12.20,1003755
3-Mar-17,12.07,12.28,11.91,12.27,1920139
2-Mar-17,12.31,12.31,12.06,12.09,1623740
1-Mar-17,12.23,12.58,12.20,12.31,3039171
28-Feb-17,12.12,12.14,11.88,11.94,2746586
27-Feb-17,11.82,12.19,11.74,12.10,3765768
24-Feb-17,12.05,12.28,11.94,12.21,2728814
23-Feb-17,12.38,12.43,12.00,12.11,2193773
22-Feb-17,12.13,12.53,12.06,12.32,3746859
21-Feb-17,12.07,12.22,12.02,12.17,1964019
17-Feb-17,12.16,12.18,12.00,12.07,1314507
16-Feb-17,12.36,12.43,12.17,12.18,1182341
15-Feb-17,12.07,12.39,12.04,12.34,914857
14-Feb-17,12.24,12.30,12.06,12.13,1344148
13-Feb-17,12.34,12.39,12.23,12.32,1365923
10-Feb-17,11.99,12.30,11.93,12.28,1169457
9-Feb-17,11.93,12.01,11.77,11.93,1409504
8-Feb-17,12.05,12.05,11.78,11.94,2386008
7-Feb-17,12.24,12.26,12.01,12.09,1078293
6-Feb-17,12.27,12.40,12.16,12.24,871867
3-Feb-17,12.28,12.38,12.14,12.33,1015084
2-Feb-17,12.31,12.40,12.18,12.20,1178098
1-Feb-17,12.34,12.36,12.17,12.30,1584229
31-Jan-17,12.36,12.36,12.18,12.27,1138502
30-Jan-17,12.40,12.42,12.15,12.41,1302537
27-Jan-17,12.75,12.77,12.47,12.54,1026016
26-Jan-17,12.79,12.96,12.72,12.75,1402975
25-Jan-17,12.66,12.91,12.61,12.71,1429442
24-Jan-17,12.17,12.68,12.05,12.56,2221964
23-Jan-17,11.84,11.98,11.81,11.92,822077
20-Jan-17,11.78,11.88,11.70,11.87,953162
19-Jan-17,11.95,12.07,11.69,11.76,1027780
18-Jan-17,12.05,12.12,11.79,11.94,1201103
17-Jan-17,11.81,12.08,11.75,11.95,1276092
13-Jan-17,11.89,12.05,11.80,11.91,1383487
12-Jan-17,11.62,11.85,11.36,11.80,1820249
11-Jan-17,11.47,11.68,11.33,11.67,2440607
10-Jan-17,11.44,11.58,11.31,11.48,1777860
9-Jan-17,11.50,11.51,11.31,11.37,1878591
6-Jan-17,12.08,12.08,11.53,11.55,2079768
5-Jan-17,11.80,11.91,11.67,11.88,2965652
4-Jan-17,11.70,11.97,11.70,11.84,1884166
3-Jan-17,11.66,11.78,11.48,11.63,2103195
30-Dec-16,11.76,11.76,11.44,11.48,1545298
29-Dec-16,11.87,12.01,11.72,11.75,1029483
28-Dec-16,12.20,12.20,11.85,11.89,1026701
27-Dec-16,12.21,12.22,12.11,12.18,636545
23-Dec-16,12.07,12.22,12.01,12.16,1278357
22-Dec-16,12.24,12.25,12.05,12.06,663710
21-Dec-16,12.14,12.33,12.14,12.22,873028
20-Dec-16,12.27,12.39,12.00,12.13,2309474
19-Dec-16,12.20,12.37,12.15,12.25,2032611
16-Dec-16,11.88,12.26,11.84,12.05,4582997
15-Dec-16,12.19,12.52,11.84,11.91,2822621
14-Dec-16,12.52,12.59,12.16,12.17,1895454
13-Dec-16,12.75,12.87,12.45,12.55,1872960
12-Dec-16,12.61,12.78,12.49,12.74,1906679
9-Dec-16,13.13,13.14,12.69,12.80,1711641
8-Dec-16,12.77,13.37,12.74,13.11,2480471
7-Dec-16,12.07,12.73,12.07,12.70,2960097
6-Dec-16,11.85,12.16,11.74,12.15,1411869
5-Dec-16,11.85,11.85,11.56,11.72,2526369
2-Dec-16,11.33,11.55,11.32,11.45,1820947
1-Dec-16,11.65,11.72,11.31,11.37,3259912
30-Nov-16,11.97,11.99,11.61,11.62,1963731
29-Nov-16,11.71,11.98,11.64,11.87,2503220
28-Nov-16,11.83,11.83,11.54,11.70,1110071
25-Nov-16,11.86,11.92,11.74,11.89,403542
23-Nov-16,11.52,11.80,11.50,11.77,1181988
22-Nov-16,11.62,11.80,11.54,11.57,1257447
21-Nov-16,11.65,11.72,11.44,11.54,2052600
18-Nov-16,11.46,11.66,11.37,11.60,1216856
17-Nov-16,11.31,11.61,11.31,11.42,2337688
16-Nov-16,11.35,11.35,11.11,11.17,1467456
15-Nov-16,11.73,11.74,11.32,11.40,2816826
14-Nov-16,11.48,11.59,11.34,11.50,2027537
11-Nov-16,11.32,11.44,11.21,11.34,3848754
10-Nov-16,11.31,11.43,11.12,11.25,3967482
9-Nov-16,10.57,11.16,10.47,11.10,3775356
8-Nov-16,10.62,10.71,10.42,10.68,3095537
7-Nov-16,11.03,11.03,10.69,10.73,2613497
4-Nov-16,10.55,11.02,10.47,10.79,2291283
3-Nov-16,10.55,10.75,10.47,10.55,2673810
2-Nov-16,10.59,10.64,10.35,10.52,1921068
1-Nov-16,10.82,10.85,10.39,10.65,2786031
31-Oct-16,10.89,11.05,10.75,10.83,2703435
28-Oct-16,11.05,11.12,10.91,10.92,2453710
27-Oct-16,11.26,11.84,10.99,11.10,4401928
26-Oct-16,12.12,12.34,11.99,12.00,1694257
25-Oct-16,12.42,12.46,12.18,12.24,840460
24-Oct-16,12.55,12.64,12.46,12.56,1095899
21-Oct-16,12.33,12.48,12.32,12.38,839661
20-Oct-16,12.67,12.70,12.36,12.51,1019938
19-Oct-16,12.71,12.88,12.63,12.74,754571
18-Oct-16,12.81,12.84,12.64,12.71,945664
17-Oct-16,12.71,12.75,12.60,12.68,637874
14-Oct-16,12.59,12.71,12.48,12.62,1602034
13-Oct-16,12.57,12.67,12.42,12.51,1116360
12-Oct-16,12.83,12.90,12.68,12.71,968048
11-Oct-16,13.06,13.10,12.70,12.81,709077
10-Oct-16,12.97,13.18,12.92,13.11,915341
7-Oct-16,13.16,13.24,12.84,12.86,1031807
6-Oct-16,13.01,13.16,12.88,13.14,1305847
5-Oct-16,13.01,13.21,12.98,13.05,2276966
4-Oct-16,12.96,13.10,12.90,12.94,1306516
3-Oct-16,13.09,13.11,12.88,12.93,1030754
30-Sep-16,13.10,13.26,12.94,13.18,1507069
29-Sep-16,13.14,13.23,12.99,13.01,2023960
28-Sep-16,13.01,13.24,12.95,13.24,1189004
27-Sep-16,12.75,13.01,12.67,12.93,1268571
26-Sep-16,12.64,12.83,12.63,12.76,820255
23-Sep-16,12.81,12.93,12.75,12.75,755533
22-Sep-16,12.71,12.88,12.65,12.83,1076705
21-Sep-16,12.45,12.58,12.24,12.53,1118968
20-Sep-16,12.80,12.88,12.31,12.38,1899654
19-Sep-16,12.47,12.79,12.47,12.55,1081996
16-Sep-16,12.49,12.50,12.31,12.38,2012346
15-Sep-16,12.50,12.66,12.38,12.55,1325277
14-Sep-16,12.63,12.67,12.42,12.54,1658181
13-Sep-16,12.90,12.99,12.49,12.55,1161611
12-Sep-16,12.69,13.06,12.64,13.03,1161784
9-Sep-16,13.29,13.29,12.62,12.81,2200784
8-Sep-16,13.63,13.63,13.44,13.46,801731
7-Sep-16,13.47,13.77,13.47,13.67,1002098
6-Sep-16,13.52,13.53,13.32,13.48,741870
2-Sep-16,13.51,13.60,13.32,13.44,1509158
1-Sep-16,13.58,13.67,13.27,13.37,1226451
31-Aug-16,13.67,13.74,13.40,13.56,2023103
30-Aug-16,13.61,13.73,13.59,13.70,1618116
29-Aug-16,13.78,13.85,13.52,13.61,1947568
26-Aug-16,13.87,13.94,13.62,13.74,1913304
25-Aug-16,13.76,13.97,13.76,13.80,835982
24-Aug-16,14.04,14.12,13.78,13.80,897618
23-Aug-16,13.81,14.20,13.81,14.07,2469396
22-Aug-16,13.68,13.76,13.54,13.69,1101945
19-Aug-16,13.56,13.72,13.47,13.72,1160409
18-Aug-16,13.45,13.66,13.44,13.60,1018209
17-Aug-16,13.67,13.75,13.41,13.42,3084518
16-Aug-16,13.77,13.81,13.64,13.68,939736
15-Aug-16,13.69,14.03,13.66,13.85,1588032
12-Aug-16,13.62,13.72,13.50,13.61,1290580
11-Aug-16,13.62,13.72,13.50,13.65,1096050
10-Aug-16,13.64,13.66,13.41,13.52,1092719
9-Aug-16,13.62,13.66,13.52,13.59,1084600
8-Aug-16,13.75,13.87,13.56,13.60,1061217
5-Aug-16,13.59,13.84,13.59,13.73,2176343
4-Aug-16,13.42,13.53,13.21,13.47,1847476
3-Aug-16,13.13,13.50,13.12,13.41,2471478
2-Aug-16,13.54,13.61,13.14,13.22,2023706
1-Aug-16,13.42,13.53,13.29,13.51,1752214
29-Jul-16,13.93,14.00,13.34,13.45,2440361
28-Jul-16,13.98,14.07,13.82,13.93,2618997
27-Jul-16,13.99,14.16,13.66,13.99,2728617
26-Jul-16,13.40,13.48,13.27,13.43,1924515
25-Jul-16,13.29,13.44,13.27,13.35,1225240
22-Jul-16,13.29,13.38,13.11,13.35,1170644
21-Jul-16,13.27,13.37,13.18,13.33,1216824
20-Jul-16,13.18,13.36,13.10,13.27,863787
19-Jul-16,13.27,13.35,13.12,13.18,951445
18-Jul-16,13.17,13.30,13.09,13.28,920905
15-Jul-16,13.17,13.22,13.01,13.17,1211410
14-Jul-16,13.24,13.26,13.07,13.07,1005794
13-Jul-16,13.13,13.23,12.90,13.10,1480792
12-Jul-16,13.00,13.19,12.89,13.06,2077139
11-Jul-16,12.88,12.95,12.75,12.89,1888202
8-Jul-16,12.50,12.88,12.46,12.75,2969127
7-Jul-16,12.01,12.30,11.99,12.30,1462165
6-Jul-16,11.68,12.02,11.60,11.99,1225377
5-Jul-16,11.97,11.97,11.59,11.80,1092055
1-Jul-16,11.85,12.23,11.80,12.04,1217664
30-Jun-16,11.68,11.82,11.54,11.82,1499541
29-Jun-16,11.60,11.79,11.48,11.68,1663893
28-Jun-16,11.32,11.56,11.24,11.40,1932251
27-Jun-16,11.52,11.57,11.08,11.17,2160308
24-Jun-16,11.70,11.98,11.59,11.69,2906389
23-Jun-16,12.28,12.37,12.12,12.37,837124
22-Jun-16,12.00,12.27,11.93,12.07,1257037
21-Jun-16,12.18,12.25,11.79,11.99,1478810
20-Jun-16,12.23,12.37,12.05,12.06,1301443
17-Jun-16,11.77,12.05,11.55,12.00,2331362
16-Jun-16,11.71,11.76,11.54,11.74,1689924
15-Jun-16,11.61,11.90,11.53,11.84,2107903
14-Jun-16,11.55,11.72,11.44,11.52,2296995
13-Jun-16,11.86,12.06,11.60,11.62,1561051
10-Jun-16,12.19,12.22,11.92,11.96,1047885
9-Jun-16,12.16,12.30,12.09,12.28,1286120
8-Jun-16,12.12,12.33,12.05,12.29,1466780
7-Jun-16,11.73,12.14,11.67,12.12,1916527
6-Jun-16,11.66,11.80,11.58,11.75,915006
3-Jun-16,11.49,11.67,11.37,11.62,1317948
2-Jun-16,11.77,11.83,11.51,11.54,2424317
1-Jun-16,11.60,11.85,11.56,11.84,1224398
31-May-16,11.83,11.86,11.62,11.66,2168307
27-May-16,11.76,11.98,11.58,11.77,1296545
26-May-16,11.71,11.88,11.61,11.72,1258988
25-May-16,11.76,11.86,11.50,11.70,1363556
24-May-16,11.15,11.76,11.12,11.71,2465748
23-May-16,11.02,11.11,10.92,11.01,935673
20-May-16,10.74,11.07,10.74,11.07,1205811
19-May-16,10.62,10.75,10.49,10.69,1031263
18-May-16,10.82,10.99,10.67,10.75,1169270
17-May-16,10.83,11.16,10.78,10.85,1372970
16-May-16,10.77,10.88,10.69,10.82,1211120
13-May-16,10.85,11.03,10.70,10.72,1179518
12-May-16,11.10,11.19,10.67,10.88,1662486
11-May-16,11.32,11.34,10.99,11.07,1399726
10-May-16,11.35,11.46,11.29,11.38,810883
9-May-16,11.23,11.46,11.20,11.30,1725894
6-May-16,11.15,11.41,11.07,11.23,1155868
5-May-16,11.38,11.41,11.16,11.22,1193774
4-May-16,11.32,11.49,11.14,11.28,1128310
3-May-16,11.65,11.67,11.38,11.45,859073
2-May-16,11.64,11.89,11.56,11.79,1347231
29-Apr-16,11.81,11.85,11.48,11.60,1909347
28-Apr-16,12.57,12.60,11.80,11.80,3035389
27-Apr-16,12.70,12.81,12.44,12.64,1524785
26-Apr-16,12.35,12.50,12.25,12.46,1415033
25-Apr-16,12.34,12.43,12.19,12.34,1088534
22-Apr-16,12.27,12.49,12.26,12.35,1329494
21-Apr-16,12.30,12.56,12.26,12.29,1268109
20-Apr-16,12.24,12.41,12.07,12.29,1128857
19-Apr-16,12.41,12.64,12.07,12.26,1107192
18-Apr-16,12.32,12.49,12.24,12.46,795094
15-Apr-16,12.29,12.47,12.24,12.42,1026216
14-Apr-16,12.23,12.48,12.12,12.32,2365724
13-Apr-16,11.97,12.32,11.92,12.24,2631024
12-Apr-16,11.72,11.89,11.60,11.86,882631
11-Apr-16,11.79,11.94,11.69,11.72,833822
8-Apr-16,11.81,11.95,11.62,11.66,902594
7-Apr-16,11.68,11.84,11.55,11.63,1601764
6-Apr-16,11.52,11.83,11.44,11.78,1207412
5-Apr-16,11.32,11.61,11.27,11.51,989406
4-Apr-16,11.69,11.77,11.32,11.47,1095037
1-Apr-16,11.62,11.71,11.52,11.68,1111577
31-Mar-16,11.55,11.82,11.55,11.78,1691462
30-Mar-16,11.87,11.87,11.53,11.58,2144616
29-Mar-16,11.42,11.71,11.33,11.68,1970447
28-Mar-16,11.33,11.44,11.18,11.37,1519561
24-Mar-16,11.26,11.34,11.12,11.31,1325635
23-Mar-16,11.62,11.64,11.27,11.28,1160810
22-Mar-16,11.66,11.85,11.63,11.67,867776
21-Mar-16,11.84,11.99,11.62,11.79,1486083
18-Mar-16,11.89,12.06,11.77,11.89,3025003
17-Mar-16,11.38,11.86,11.34,11.81,2728679
16-Mar-16,11.07,11.46,11.01,11.41,1494818
15-Mar-16,11.19,11.26,11.08,11.15,1060187
14-Mar-16,11.37,11.38,11.11,11.29,2588471
11-Mar-16,10.95,11.41,10.84,11.40,1908284
10-Mar-16,10.85,11.00,10.66,10.79,1671978
9-Mar-16,10.62,10.83,10.36,10.83,2008320
8-Mar-16,10.92,10.95,10.50,10.54,1856703
7-Mar-16,10.69,10.96,10.64,10.96,2710624
4-Mar-16,10.99,11.05,10.67,10.68,2611343
3-Mar-16,10.80,11.02,10.72,10.96,3358807
2-Mar-16,10.48,10.71,10.43,10.71,2656753
1-Mar-16,10.35,10.53,10.04,10.49,3451730
29-Feb-16,10.41,10.52,10.27,10.31,2960614
26-Feb-16,11.06,11.06,10.17,10.26,2675511
25-Feb-16,10.06,10.27,9.95,10.26,1782254
24-Feb-16,9.74,10.07,9.58,10.07,1076831
23-Feb-16,9.79,9.91,9.61,9.87,1314139
22-Feb-16,9.58,9.93,9.58,9.82,2270228
19-Feb-16,9.39,9.50,9.28,9.46,1235826
18-Feb-16,9.59,9.62,9.27,9.42,1724800
17-Feb-16,9.75,9.82,9.54,9.57,1471925
16-Feb-16,9.62,9.68,9.35,9.68,1251325
12-Feb-16,9.18,9.48,9.14,9.44,1540834
11-Feb-16,9.25,9.40,8.86,9.05,2175903
10-Feb-16,9.39,9.61,9.16,9.48,1355550
9-Feb-16,9.05,9.42,8.83,9.29,1665587
8-Feb-16,9.39,9.43,8.94,9.20,2681433
5-Feb-16,10.06,10.14,9.50,9.55,2300836
4-Feb-16,10.06,10.50,9.67,10.11,1515256
3-Feb-16,10.03,10.14,9.58,10.13,2544702
2-Feb-16,10.34,10.35,9.88,9.93,1628099
1-Feb-16,10.49,10.56,10.20,10.50,1543602
29-Jan-16,10.15,10.60,10.09,10.54,2740622
28-Jan-16,10.27,10.46,9.98,10.07,1148860
27-Jan-16,10.22,10.51,10.05,10.11,1614235
26-Jan-16,9.95,10.32,9.74,10.19,1384327
25-Jan-16,10.18,10.23,9.85,9.86,1934084
22-Jan-16,10.11,10.56,10.08,10.26,1890275
21-Jan-16,9.90,10.19,9.79,9.92,1723118
20-Jan-16,9.86,9.96,9.34,9.84,2714769
19-Jan-16,10.58,10.60,9.82,10.08,1984801
15-Jan-16,10.25,10.55,10.10,10.43,1929899
14-Jan-16,10.56,10.93,10.41,10.57,1941249
13-Jan-16,10.73,10.97,10.07,10.26,1610273
12-Jan-16,10.87,10.98,10.29,10.65,2280397
11-Jan-16,10.76,10.80,10.48,10.76,2019870
8-Jan-16,11.27,11.27,10.66,10.67,3334468
7-Jan-16,11.38,11.63,11.09,11.17,2984371
6-Jan-16,11.93,12.12,11.67,11.70,2178013
5-Jan-16,12.23,12.30,12.06,12.10,1424869
4-Jan-16,12.47,12.47,12.06,12.17,2067275
31-Dec-15,12.75,12.85,12.65,12.67,1407314
30-Dec-15,12.92,12.92,12.74,12.76,1070254
29-Dec-15,12.94,13.04,12.73,12.91,1314926
28-Dec-15,12.92,12.96,12.72,12.83,1041129
24-Dec-15,13.01,13.10,12.97,13.00,447202
23-Dec-15,13.01,13.08,12.84,13.03,1144887
22-Dec-15,12.79,12.98,12.51,12.93,1523527
21-Dec-15,12.55,12.88,12.47,12.78,1945643
18-Dec-15,12.69,12.72,12.28,12.50,8684485
17-Dec-15,13.21,13.21,12.65,12.73,1491128
16-Dec-15,12.91,13.25,12.86,13.19,1689605
15-Dec-15,12.65,12.91,12.60,12.77,1453693
14-Dec-15,12.55,12.70,12.32,12.58,2539885
11-Dec-15,12.87,12.92,12.55,12.56,1732352
10-Dec-15,12.79,13.12,12.74,13.08,1779318
9-Dec-15,13.07,13.32,12.71,12.78,2408117
8-Dec-15,13.35,13.54,13.04,13.10,1961828
7-Dec-15,13.71,13.80,13.41,13.51,1580030
4-Dec-15,13.72,13.91,13.54,13.74,1459866
3-Dec-15,13.79,13.87,13.54,13.68,2078786
2-Dec-15,14.19,14.20,13.64,13.77,2111478
1-Dec-15,14.01,14.33,13.82,14.20,1378848
30-Nov-15,14.15,14.15,13.88,13.95,1369765
27-Nov-15,14.33,14.38,14.05,14.12,563090
25-Nov-15,13.98,14.31,13.98,14.30,1386959
24-Nov-15,13.66,14.06,13.64,13.98,2143350
23-Nov-15,13.60,13.97,13.59,13.77,1660933
20-Nov-15,13.66,13.77,13.49,13.65,1188243
19-Nov-15,13.49,13.72,13.41,13.56,971743
18-Nov-15,13.19,13.52,13.09,13.47,1269713
17-Nov-15,13.32,13.38,13.14,13.21,1418987
16-Nov-15,12.78,13.29,12.77,13.22,1308322
13-Nov-15,12.99,13.27,12.77,12.81,1901052
12-Nov-15,13.55,13.60,12.96,12.97,1284464
11-Nov-15,13.41,13.82,13.29,13.67,1935800
10-Nov-15,12.94,13.45,12.79,13.40,2953330
9-Nov-15,13.30,13.47,12.63,12.94,2337895
6-Nov-15,13.02,13.47,12.94,13.29,3781239
5-Nov-15,12.82,12.93,12.39,12.59,2533105
4-Nov-15,13.01,13.10,12.79,12.81,1506082
3-Nov-15,13.06,13.17,12.86,13.00,1642823
2-Nov-15,12.93,13.28,12.93,13.09,2107014
30-Oct-15,13.09,13.15,12.84,12.98,2122083
29-Oct-15,13.35,13.42,12.84,13.13,3632432
28-Oct-15,13.18,13.55,12.98,13.43,1772552
27-Oct-15,13.57,13.61,13.04,13.14,1231603
26-Oct-15,13.73,13.89,13.41,13.60,1024152
23-Oct-15,13.68,13.84,13.49,13.73,1437466
22-Oct-15,13.92,13.92,13.41,13.61,1336518
21-Oct-15,14.05,14.16,13.88,13.90,1473819
20-Oct-15,13.67,14.02,13.67,13.98,1458538
19-Oct-15,13.53,13.81,13.50,13.68,1110144
16-Oct-15,13.82,13.85,13.45,13.61,1455680
15-Oct-15,13.61,13.77,13.30,13.76,1867157
14-Oct-15,13.94,13.97,13.40,13.54,2069242
13-Oct-15,14.19,14.49,13.93,13.95,3438519
12-Oct-15,14.41,14.41,14.14,14.28,1073542
9-Oct-15,14.47,14.47,14.26,14.38,1093115
8-Oct-15,14.18,14.60,14.15,14.43,1426230
7-Oct-15,13.83,14.25,13.76,14.23,2196810
6-Oct-15,14.17,14.34,13.77,13.80,1383808
5-Oct-15,13.67,14.22,13.63,14.21,1626785
2-Oct-15,13.13,13.58,13.04,13.53,1644028
1-Oct-15,13.12,13.38,13.04,13.30,1708762
30-Sep-15,13.20,13.21,12.94,13.09,1643124
29-Sep-15,13.40,13.40,12.89,13.03,1614354
28-Sep-15,13.95,13.99,13.08,13.35,1717702
25-Sep-15,13.98,14.17,13.88,14.02,1755451
24-Sep-15,13.60,13.86,13.29,13.82,1241911
23-Sep-15,13.84,13.88,13.69,13.71,1439278
22-Sep-15,13.90,13.96,13.47,13.82,1534856
21-Sep-15,14.42,14.66,13.88,14.08,1832645
18-Sep-15,14.41,14.45,14.10,14.33,3250749
17-Sep-15,14.42,14.84,14.32,14.56,1114136
16-Sep-15,14.24,14.49,14.18,14.44,1055519
15-Sep-15,14.16,14.31,14.10,14.25,791701
14-Sep-15,14.28,14.28,14.02,14.17,633825
11-Sep-15,14.03,14.28,13.94,14.27,946109
10-Sep-15,14.08,14.30,13.84,14.07,1436242
9-Sep-15,14.45,14.52,14.14,14.21,1384726
8-Sep-15,14.03,14.32,13.96,14.31,834270
4-Sep-15,13.92,14.17,13.75,13.83,1125010
3-Sep-15,14.02,14.16,13.94,14.08,1045320
2-Sep-15,13.66,13.98,13.36,13.98,1490321
1-Sep-15,13.62,13.74,13.46,13.52,2199880
31-Aug-15,13.72,13.94,13.60,13.88,1940141
28-Aug-15,13.87,14.03,13.59,13.72,2212862
27-Aug-15,13.77,13.92,13.56,13.88,2970249
26-Aug-15,13.66,13.67,13.15,13.64,1800467
25-Aug-15,14.27,14.32,13.30,13.31,1959247
24-Aug-15,14.40,14.40,13.34,13.85,3395025
21-Aug-15,15.00,15.10,14.76,14.82,1691154
20-Aug-15,15.51,15.59,15.18,15.20,1700988
19-Aug-15,15.42,15.70,15.30,15.67,2440816
18-Aug-15,15.15,15.53,15.04,15.49,2258049
17-Aug-15,14.72,15.15,14.58,15.15,1941587
14-Aug-15,14.66,14.78,14.46,14.77,1646427
13-Aug-15,14.50,14.83,14.31,14.69,1928618
12-Aug-15,14.72,14.72,14.25,14.49,2582665
11-Aug-15,14.86,15.00,14.64,14.82,2100400
10-Aug-15,15.00,15.10,14.65,14.86,2862398
7-Aug-15,14.99,15.34,14.76,14.80,27724752
6-Aug-15,14.36,14.41,14.16,14.23,1006843
5-Aug-15,14.52,14.66,14.05,14.36,1363628
4-Aug-15,14.81,14.90,14.38,14.50,878900
3-Aug-15,14.78,14.93,14.71,14.81,955514
31-Jul-15,14.70,15.01,14.62,14.80,1045755
30-Jul-15,14.70,14.77,14.55,14.65,1077158
29-Jul-15,14.62,14.83,14.41,14.74,711821
28-Jul-15,14.52,14.75,14.40,14.59,746388
27-Jul-15,14.45,14.60,14.33,14.49,875339
24-Jul-15,14.75,14.76,14.44,14.49,1217271
23-Jul-15,15.03,15.08,14.61,14.74,835541
22-Jul-15,14.77,15.13,14.74,14.98,827342
21-Jul-15,14.77,14.96,14.64,14.78,789749
20-Jul-15,15.02,15.03,14.59,14.76,792167
17-Jul-15,15.16,15.19,14.80,14.99,891695
16-Jul-15,15.31,15.39,15.12,15.13,667089
15-Jul-15,15.28,15.38,15.16,15.28,1617752
14-Jul-15,15.31,15.35,15.16,15.28,956690
13-Jul-15,15.27,15.32,15.16,15.29,486258
10-Jul-15,15.23,15.38,15.10,15.22,696481
9-Jul-15,15.27,15.37,15.09,15.13,714520
8-Jul-15,15.20,15.44,15.01,15.07,986076
7-Jul-15,14.88,15.31,14.71,15.28,2690855
6-Jul-15,14.99,15.31,14.75,14.90,1421826
2-Jul-15,15.26,15.50,14.94,15.00,2485449
1-Jul-15,15.47,15.47,14.90,15.26,5022823
30-Jun-15,15.63,15.70,15.19,15.30,2308180
29-Jun-15,15.85,16.05,15.48,15.50,1259467
26-Jun-15,16.05,16.12,15.74,15.84,1904245
25-Jun-15,16.05,16.15,15.93,16.05,1391226
24-Jun-15,15.70,16.08,15.70,15.99,2576791
23-Jun-15,15.55,15.75,15.46,15.63,1256140
22-Jun-15,15.40,15.59,15.33,15.50,1298203
19-Jun-15,15.12,15.38,15.05,15.32,1559437
18-Jun-15,14.85,15.36,14.82,15.07,1390498
17-Jun-15,14.89,14.94,14.75,14.84,908622
16-Jun-15,14.96,14.97,14.69,14.88,1452595
15-Jun-15,14.98,15.20,14.92,14.95,1103813
12-Jun-15,14.86,15.10,14.74,14.98,1229412
11-Jun-15,14.68,15.00,14.61,14.88,1107404
10-Jun-15,14.46,14.69,14.36,14.61,1464647
9-Jun-15,14.54,14.59,14.22,14.41,522287
8-Jun-15,14.57,14.70,14.41,14.54,508129
5-Jun-15,14.58,14.66,14.28,14.58,766818
4-Jun-15,14.83,14.88,14.40,14.58,715402
3-Jun-15,14.72,14.99,14.54,14.88,1093318
2-Jun-15,14.66,14.83,14.55,14.69,1012544
1-Jun-15,14.88,15.05,14.68,14.69,1980016
29-May-15,14.67,14.67,14.37,14.42,743607
28-May-15,14.59,14.91,14.53,14.71,685161
27-May-15,14.53,14.67,14.29,14.63,826212
26-May-15,14.59,14.75,14.40,14.53,786170
22-May-15,14.86,14.95,14.56,14.59,940471
21-May-15,14.88,14.98,14.67,14.87,798859
20-May-15,14.77,14.98,14.51,14.90,900164
19-May-15,14.80,15.06,14.60,14.74,1056626
18-May-15,14.51,14.70,14.36,14.69,783560
15-May-15,14.21,14.56,14.13,14.51,879309
14-May-15,14.22,14.33,14.06,14.26,865456
13-May-15,14.23,14.29,14.01,14.13,1161565
12-May-15,14.23,14.34,13.94,14.23,1361951
11-May-15,14.71,14.79,14.28,14.37,1140717
8-May-15,15.23,15.23,14.46,14.73,1530054
7-May-15,14.33,14.63,14.16,14.56,1674973
6-May-15,14.44,14.49,14.22,14.35,1691827
5-May-15,14.44,14.53,14.30,14.43,3289226
4-May-15,14.40,14.63,14.27,14.44,1297929
1-May-15,14.28,14.51,14.26,14.41,818576
30-Apr-15,14.40,14.62,14.24,14.28,1494238
29-Apr-15,14.75,14.77,14.27,14.47,1442533
28-Apr-15,14.64,14.84,14.42,14.77,1230014
27-Apr-15,14.84,15.00,14.58,14.65,743983
24-Apr-15,14.59,14.80,14.32,14.78,991041
23-Apr-15,14.93,14.99,14.40,14.58,1797775
22-Apr-15,15.06,15.11,14.82,15.03,1096056
21-Apr-15,15.00,15.18,14.95,15.08,853904
20-Apr-15,15.06,15.09,14.77,14.99,1169579
17-Apr-15,14.77,15.01,14.62,14.97,1611992
16-Apr-15,15.18,15.20,14.70,14.89,1400554
15-Apr-15,15.24,15.40,15.06,15.21,1601340
14-Apr-15,15.08,15.16,14.82,15.16,2078740
13-Apr-15,15.10,15.15,14.83,15.03,1183475
10-Apr-15,15.00,15.12,14.63,15.09,1547847
9-Apr-15,15.29,15.29,14.77,15.00,1054853
8-Apr-15,15.10,15.36,15.07,15.30,792932
7-Apr-15,15.29,15.36,14.99,15.11,1175727
6-Apr-15,15.39,15.81,15.20,15.29,1052005
2-Apr-15,15.16,15.58,15.16,15.48,1771650
1-Apr-15,15.46,15.50,15.03,15.15,1420501
31-Mar-15,15.46,15.85,15.30,15.43,1378864
30-Mar-15,15.04,15.49,15.04,15.47,1156743
27-Mar-15,14.81,15.15,14.78,15.02,1199851
26-Mar-15,14.88,15.02,14.68,14.80,937916
25-Mar-15,15.43,15.61,14.93,14.93,990523
24-Mar-15,15.10,15.48,14.93,15.43,2513367
23-Mar-15,15.25,15.27,15.07,15.08,1308021
20-Mar-15,15.10,15.45,15.05,15.21,2319047
19-Mar-15,15.11,15.45,14.91,15.03,1150511
18-Mar-15,14.59,15.08,14.42,14.98,707958
17-Mar-15,14.78,14.80,14.49,14.59,964525
16-Mar-15,14.77,14.98,14.68,14.83,856772
13-Mar-15,14.90,14.94,14.48,14.70,1204200
12-Mar-15,14.63,14.96,14.63,14.94,718843
11-Mar-15,14.37,14.64,14.25,14.57,1029345
10-Mar-15,14.49,14.56,14.33,14.38,1052728
9-Mar-15,14.62,14.69,14.48,14.57,1551944
6-Mar-15,14.82,14.99,14.63,14.66,1243557
5-Mar-15,15.10,15.12,14.85,14.97,2040778
4-Mar-15,14.96,15.17,14.62,15.11,2201844
3-Mar-15,15.66,15.75,14.71,14.99,3286810
2-Mar-15,15.91,16.06,15.87,15.91,1438207
27-Feb-15,15.83,16.05,15.80,15.88,1034297
26-Feb-15,15.88,16.00,15.55,15.80,1345314
25-Feb-15,15.90,16.14,15.76,15.91,1698079
24-Feb-15,15.68,16.00,15.67,15.87,2157132
23-Feb-15,15.61,15.67,15.33,15.52,675195
20-Feb-15,15.78,15.87,15.42,15.67,937272
19-Feb-15,15.89,16.03,15.71,15.84,895103
18-Feb-15,15.80,15.98,15.66,15.90,1431068
17-Feb-15,15.65,16.05,15.50,15.80,1558698
13-Feb-15,15.45,15.72,15.42,15.64,788456
12-Feb-15,15.16,15.52,14.99,15.49,1182186
11-Feb-15,15.22,15.51,15.00,15.10,816566
10-Feb-15,15.25,15.45,14.93,15.21,1097327
9-Feb-15,15.07,15.54,15.00,15.15,1702764
6-Feb-15,15.01,15.16,14.95,15.07,1295722
5-Feb-15,15.10,15.38,14.78,14.99,1166120
4-Feb-15,14.65,15.28,14.54,15.10,2135587
3-Feb-15,14.42,14.78,14.31,14.73,1009110
2-Feb-15,14.32,14.64,14.21,14.41,703024
30-Jan-15,14.46,14.79,14.17,14.33,1018031
29-Jan-15,14.25,14.80,14.24,14.59,1314165
28-Jan-15,14.20,14.57,14.10,14.23,1583725
27-Jan-15,13.98,14.29,13.88,14.19,1128924
26-Jan-15,13.79,14.25,13.64,14.15,1982811
23-Jan-15,13.74,13.80,13.48,13.65,1170718
22-Jan-15,13.84,13.88,13.53,13.73,1687494
21-Jan-15,13.59,13.88,13.56,13.74,1616627
20-Jan-15,14.28,14.32,13.48,13.59,2134529
16-Jan-15,13.97,14.53,13.68,14.34,3680497
15-Jan-15,15.30,15.41,14.01,14.06,3739137
14-Jan-15,15.10,15.53,14.86,15.23,1533645
13-Jan-15,16.23,16.57,14.97,15.31,3379460
12-Jan-15,15.96,16.47,15.77,16.03,1467093
9-Jan-15,15.97,16.22,15.88,15.97,1417326
8-Jan-15,15.85,15.98,15.73,15.89,1663250
7-Jan-15,15.10,15.75,15.03,15.69,2369014
6-Jan-15,15.08,15.24,14.87,15.01,1884002
5-Jan-15,15.01,15.10,14.86,15.05,1080270
2-Jan-15,15.36,15.36,14.84,15.12,1108491
31-Dec-14,15.01,15.30,15.00,15.25,1281959
30-Dec-14,14.86,15.03,14.86,15.00,985162
29-Dec-14,14.62,15.00,14.62,14.89,769969
26-Dec-14,14.68,14.83,14.63,14.65,1071970
24-Dec-14,14.54,14.70,14.44,14.61,404439
23-Dec-14,14.54,14.75,14.47,14.54,1569572
22-Dec-14,14.52,14.60,14.34,14.50,1230262
19-Dec-14,14.56,14.61,14.34,14.49,1859734
18-Dec-14,14.60,14.66,14.42,14.62,1175765
17-Dec-14,13.88,14.45,13.79,14.41,1423987
16-Dec-14,13.78,13.92,13.62,13.82,1453537
15-Dec-14,14.17,14.29,13.59,13.84,1585256
12-Dec-14,14.28,14.33,14.11,14.15,1322665
11-Dec-14,14.58,14.62,14.38,14.40,1525312
10-Dec-14,15.08,15.08,14.54,14.56,1995705
9-Dec-14,14.98,15.20,14.89,15.11,1442529
8-Dec-14,15.18,15.27,15.00,15.10,2322507
5-Dec-14,15.06,15.32,14.98,15.18,1614064
4-Dec-14,15.02,15.13,14.95,15.06,2147004
3-Dec-14,15.13,15.31,15.02,15.11,1509685
2-Dec-14,15.10,15.19,15.00,15.10,1408859
1-Dec-14,15.27,15.30,14.95,15.08,1946767
28-Nov-14,15.34,15.42,15.10,15.26,721022
26-Nov-14,15.29,15.36,15.06,15.34,1159644
25-Nov-14,15.19,15.32,15.04,15.30,1566052
24-Nov-14,14.98,15.22,14.95,15.21,1183026
21-Nov-14,15.10,15.14,14.85,14.98,1859555
20-Nov-14,14.40,15.00,14.23,14.87,2112412
19-Nov-14,14.62,14.65,14.27,14.41,1420729
18-Nov-14,14.79,14.93,14.51,14.62,1457149
17-Nov-14,14.91,15.06,14.64,14.75,1943959
14-Nov-14,14.78,15.00,14.71,14.87,1712816
13-Nov-14,14.93,15.03,14.77,14.78,1765891
12-Nov-14,14.96,15.09,14.87,14.94,1645593
11-Nov-14,14.82,15.09,14.70,15.07,2704865
10-Nov-14,14.49,14.78,14.48,14.78,3344773
7-Nov-14,14.06,14.31,13.94,14.30,1976586
6-Nov-14,14.03,14.25,13.60,14.08,2027568
5-Nov-14,13.64,13.72,13.42,13.61,1860171
4-Nov-14,13.56,13.68,13.32,13.44,1092494
3-Nov-14,13.69,13.82,13.47,13.62,1990021
31-Oct-14,13.99,14.22,13.69,13.69,1444495
30-Oct-14,13.53,13.90,13.41,13.81,1387828
29-Oct-14,14.04,14.07,13.42,13.57,2079868
28-Oct-14,13.75,14.08,13.66,14.05,1812036
27-Oct-14,13.70,13.80,13.40,13.74,1586136
24-Oct-14,13.81,13.90,13.46,13.78,2124422
23-Oct-14,13.63,13.92,13.46,13.81,1870226
22-Oct-14,13.85,13.98,13.50,13.52,2143737
21-Oct-14,13.85,14.15,13.70,13.85,1854861
20-Oct-14,13.40,13.88,13.40,13.82,3200731
17-Oct-14,13.39,13.69,13.23,13.49,1977797
16-Oct-14,13.16,13.52,12.97,13.21,2577294
15-Oct-14,12.70,13.51,12.62,13.35,2837360
14-Oct-14,12.86,13.14,12.69,12.92,2266499
13-Oct-14,12.83,13.11,12.70,12.73,2392539
10-Oct-14,13.16,13.20,12.59,12.81,2802491
9-Oct-14,13.76,13.84,13.09,13.20,2289022
8-Oct-14,13.41,13.88,13.25,13.79,2021191
7-Oct-14,13.54,13.74,13.40,13.42,2300486
6-Oct-14,13.53,13.67,13.30,13.61,1754791
3-Oct-14,13.42,13.63,13.32,13.51,1729713
2-Oct-14,12.76,13.42,12.72,13.39,7579868
1-Oct-14,12.92,12.98,12.61,12.75,1585996
30-Sep-14,13.03,13.20,12.78,12.94,2140389
29-Sep-14,13.14,13.19,12.93,13.01,2096889
26-Sep-14,13.33,13.41,13.12,13.30,928652
25-Sep-14,13.43,13.61,13.26,13.32,1655842
24-Sep-14,13.35,13.59,13.17,13.45,2184741
23-Sep-14,13.40,13.53,13.27,13.42,1596579
22-Sep-14,14.08,14.08,13.44,13.48,2038738
19-Sep-14,14.51,14.56,13.90,14.17,9744300
18-Sep-14,14.29,14.56,14.27,14.50,2636493
17-Sep-14,14.15,14.47,14.09,14.30,2707720
16-Sep-14,14.10,14.25,14.03,14.04,1308753
15-Sep-14,14.36,14.36,13.94,14.16,2284217
12-Sep-14,14.14,14.18,13.93,14.08,1103087
11-Sep-14,13.89,14.22,13.88,14.18,1477203
10-Sep-14,13.89,14.04,13.75,13.93,1690494
9-Sep-14,14.14,14.14,13.79,13.89,2068038
8-Sep-14,14.19,14.33,14.04,14.12,1730523
5-Sep-14,14.32,14.49,14.10,14.20,2791733
4-Sep-14,14.48,14.74,14.33,14.34,1600626
3-Sep-14,14.84,14.90,14.39,14.44,2075509
2-Sep-14,14.93,14.96,14.69,14.80,1598790
29-Aug-14,14.78,14.95,14.59,14.80,2012308
28-Aug-14,14.54,14.86,14.42,14.79,2095834
27-Aug-14,14.56,14.60,14.41,14.58,1648975
26-Aug-14,14.33,14.55,14.20,14.52,1321728
25-Aug-14,14.47,14.56,14.28,14.31,2369681
22-Aug-14,14.36,14.42,14.22,14.36,1327946
21-Aug-14,14.34,14.46,14.23,14.36,1765223
20-Aug-14,14.41,14.45,14.20,14.34,2141486
19-Aug-14,14.49,14.64,14.34,14.45,2751476
18-Aug-14,13.95,14.36,13.88,14.24,2710460
15-Aug-14,13.82,14.06,13.53,13.74,3373780
14-Aug-14,13.39,13.78,13.34,13.70,3246412
13-Aug-14,12.94,13.39,12.90,13.31,2880930
12-Aug-14,13.00,13.08,12.82,12.91,1766544
11-Aug-14,13.25,13.26,12.90,13.03,2346222
8-Aug-14,13.48,13.48,13.11,13.15,2651672
7-Aug-14,14.30,14.30,13.30,13.48,3241558
6-Aug-14,13.33,13.43,13.25,13.31,1899734
5-Aug-14,13.48,13.65,13.28,13.34,1941905
4-Aug-14,13.39,13.54,13.25,13.50,1711428
1-Aug-14,13.55,13.71,13.24,13.28,1679175
31-Jul-14,13.63,13.63,13.34,13.51,1762627
30-Jul-14,13.90,13.95,13.50,13.73,1613384
29-Jul-14,13.96,14.09,13.76,13.84,1501526
28-Jul-14,14.21,14.33,13.73,13.91,2595977
25-Jul-14,14.47,14.47,14.09,14.20,1830262
24-Jul-14,14.82,14.91,14.37,14.48,2179598
23-Jul-14,14.70,14.95,14.51,14.83,1732751
22-Jul-14,14.64,14.87,14.57,14.71,1594356
21-Jul-14,14.62,14.75,14.49,14.56,2179293
18-Jul-14,14.50,14.92,14.50,14.68,2447454
17-Jul-14,14.99,14.99,14.51,14.58,3170634
16-Jul-14,14.88,15.05,14.64,15.00,4883929
15-Jul-14,15.21,15.23,14.81,14.85,2512440
14-Jul-14,15.20,15.25,14.96,15.23,3663723
11-Jul-14,15.38,15.38,14.68,14.81,5227017
10-Jul-14,15.37,15.45,15.10,15.17,10441923
9-Jul-14,16.06,16.09,15.73,15.77,6855076
8-Jul-14,15.92,16.45,15.92,16.05,23062850
7-Jul-14,15.79,15.88,15.60,15.85,11741994
3-Jul-14,15.66,15.95,15.42,15.76,9921613
2-Jul-14,15.65,15.82,15.46,15.46,11105616
1-Jul-14,15.76,15.93,15.34,15.85,11406876
30-Jun-14,15.33,15.75,15.25,15.72,8862411
27-Jun-14,15.50,15.70,15.12,15.33,5554632
26-Jun-14,15.81,15.85,15.45,15.53,6739068
25-Jun-14,16.32,16.44,15.55,15.95,5717127
24-Jun-14,16.20,16.66,16.11,16.40,3398579
23-Jun-14,16.11,16.52,15.89,16.28,1213539
20-Jun-14,16.78,16.80,15.95,16.09,1445403
19-Jun-14,16.87,16.99,16.51,16.78,931489
18-Jun-14,16.71,16.83,16.40,16.80,910836
17-Jun-14,16.50,16.73,16.25,16.69,1252728
16-Jun-14,16.47,16.65,16.21,16.44,323391
13-Jun-14,16.53,16.76,16.41,16.55,497644
12-Jun-14,16.46,16.65,16.25,16.53,640433
11-Jun-14,16.52,16.78,16.45,16.54,776237
10-Jun-14,16.39,16.95,16.29,16.55,1447770
9-Jun-14,15.81,16.80,15.81,16.36,1320183
6-Jun-14,15.76,16.25,15.71,15.87,1603517
5-Jun-14,15.41,15.67,15.14,15.62,1049340
4-Jun-14,15.24,15.36,15.00,15.32,699191
3-Jun-14,15.38,15.38,15.18,15.26,616700
2-Jun-14,15.23,15.50,15.11,15.46,463888
30-May-14,15.52,15.60,15.13,15.25,422758
29-May-14,15.49,15.49,15.10,15.30,708510
28-May-14,15.03,15.50,14.91,15.15,1196921
27-May-14,15.18,15.58,14.86,14.98,546810
23-May-14,15.45,15.65,14.71,15.01,1618233
22-May-14,16.49,16.58,15.38,15.49,1897938
21-May-14,16.95,16.99,16.47,16.50,187420
20-May-14,16.90,17.15,16.73,16.90,166332
19-May-14,16.89,17.07,16.80,16.96,135506
16-May-14,16.50,17.13,16.50,16.90,204332
15-May-14,16.49,16.49,15.84,16.18,137117
14-May-14,17.10,17.10,16.49,16.60,97061
13-May-14,16.89,17.35,16.83,17.11,359627
12-May-14,16.61,17.21,16.61,16.98,345875
9-May-14,16.60,16.87,16.49,16.60,346050
8-May-14,16.05,16.79,15.87,16.67,372974
7-May-14,16.33,16.39,16.01,16.02,210859
6-May-14,17.01,17.45,16.25,16.31,230843
5-May-14,16.38,16.50,16.27,16.44,109923
2-May-14,16.33,16.73,16.33,16.51,72014
1-May-14,16.04,16.53,16.04,16.32,147391
30-Apr-14,15.99,16.10,15.78,16.07,143736
29-Apr-14,15.90,16.18,15.81,16.04,228317
28-Apr-14,16.00,16.27,15.63,15.80,136151
25-Apr-14,16.34,16.34,15.87,15.98,79602
24-Apr-14,16.46,16.59,16.25,16.44,85070
23-Apr-14,16.42,16.55,16.33,16.40,249807
22-Apr-14,15.79,16.49,15.79,16.38,338871
21-Apr-14,15.93,16.15,15.64,15.73,138971
17-Apr-14,15.91,16.08,15.55,15.88,162082
16-Apr-14,15.91,16.09,15.68,15.95,98303
15-Apr-14,15.79,16.11,15.41,15.85,291382
14-Apr-14,15.97,16.03,15.49,15.72,124281
11-Apr-14,15.84,16.03,15.75,15.82,98397
10-Apr-14,16.34,16.57,15.95,15.97,148794
9-Apr-14,16.20,16.44,15.88,16.40,147629
8-Apr-14,16.30,16.70,16.15,16.20,121518
7-Apr-14,16.65,16.70,16.12,16.17,138714
4-Apr-14,17.14,17.35,16.32,16.69,240019
3-Apr-14,17.03,17.04,16.70,17.00,198168
2-Apr-14,16.48,17.21,16.46,17.07,691086
1-Apr-14,16.25,16.86,16.18,16.43,491419
31-Mar-14,16.59,16.68,16.19,16.23,317043
28-Mar-14,16.34,16.73,16.32,16.51,179532
27-Mar-14,16.52,16.66,16.23,16.26,340837
26-Mar-14,16.84,16.84,16.41,16.47,176887
25-Mar-14,16.94,17.11,16.55,16.72,125326
24-Mar-14,16.43,17.07,16.42,16.98,513439
21-Mar-14,17.30,17.50,16.33,16.45,603135
20-Mar-14,17.18,17.57,17.15,17.35,268940
19-Mar-14,17.61,17.80,17.02,17.20,133892
18-Mar-14,17.41,17.59,17.26,17.39,71807
17-Mar-14,17.45,18.06,17.34,17.44,109556
14-Mar-14,17.04,17.63,17.04,17.39,212254
13-Mar-14,17.38,17.38,17.00,17.12,141966
12-Mar-14,17.34,17.51,17.14,17.30,76309
11-Mar-14,17.78,17.84,17.16,17.39,192264
10-Mar-14,18.01,18.01,17.50,17.70,159058
7-Mar-14,18.23,18.39,17.97,18.08,159239
6-Mar-14,17.85,18.24,17.75,18.14,237572
5-Mar-14,18.00,18.09,17.73,17.85,86718
4-Mar-14,18.40,18.40,17.92,18.08,186106
3-Mar-14,17.99,18.29,17.55,18.05,236938
28-Feb-14,18.90,18.90,18.12,18.22,420272
27-Feb-14,19.15,19.56,18.44,18.90,622991
26-Feb-14,17.44,18.56,17.26,18.38,1002399
25-Feb-14,17.46,17.65,17.26,17.37,222575
24-Feb-14,17.18,17.47,17.09,17.29,168748
21-Feb-14,16.62,17.37,16.62,17.19,322404
20-Feb-14,16.49,16.60,16.29,16.51,406057
19-Feb-14,16.81,16.88,16.40,16.49,392942
18-Feb-14,17.02,17.19,16.53,16.90,270161
14-Feb-14,16.95,17.28,16.35,16.93,626017
13-Feb-14,17.05,17.47,16.81,16.95,382017
12-Feb-14,17.57,17.70,17.06,17.21,239174
11-Feb-14,17.49,17.60,16.89,17.57,320446
10-Feb-14,18.45,18.53,17.87,18.19,179272
7-Feb-14,18.04,18.70,18.04,18.49,263579
6-Feb-14,17.51,18.46,17.47,18.04,259273
5-Feb-14,17.25,17.68,17.17,17.51,179383
4-Feb-14,17.27,17.50,17.10,17.26,132669
3-Feb-14,17.67,17.89,17.02,17.26,170017
31-Jan-14,17.50,17.96,17.35,17.64,139177
30-Jan-14,18.00,18.30,17.67,17.70,178761
29-Jan-14,17.56,17.80,17.35,17.71,300537
28-Jan-14,17.41,18.23,17.41,17.73,190486
27-Jan-14,17.88,18.22,17.18,17.35,459832
24-Jan-14,17.69,17.90,17.40,17.51,185175
23-Jan-14,17.83,18.18,17.53,17.61,521266
22-Jan-14,17.29,18.15,17.29,17.81,124692
21-Jan-14,17.98,17.98,17.25,17.31,656941
17-Jan-14,17.42,18.08,17.42,17.91,249893
16-Jan-14,17.36,17.71,17.11,17.48,680479
15-Jan-14,17.25,17.77,17.12,17.37,347982
14-Jan-14,17.15,17.49,17.01,17.21,915074
13-Jan-14,17.16,17.50,17.05,17.16,1076937
10-Jan-14,17.83,17.99,17.08,17.96,1182570
9-Jan-14,18.50,18.69,18.16,18.44,151397
8-Jan-14,18.83,19.06,18.24,18.49,205976
7-Jan-14,19.17,19.36,18.52,18.86,175765
6-Jan-14,19.65,19.78,19.13,19.16,152157
3-Jan-14,19.11,19.89,19.11,19.65,142088
2-Jan-14,19.90,20.00,18.95,19.14,182875
31-Dec-13,19.46,19.98,19.29,19.93,138005
30-Dec-13,19.23,19.50,19.00,19.32,120860
27-Dec-13,19.44,19.50,18.96,19.19,101596
26-Dec-13,19.57,19.81,19.06,19.35,127103
24-Dec-13,19.60,19.96,19.48,19.55,81898
23-Dec-13,19.35,20.11,19.35,19.50,219109
20-Dec-13,18.88,19.46,18.78,19.30,431209
19-Dec-13,18.74,19.05,18.41,18.69,177000
18-Dec-13,18.46,19.10,18.08,18.91,208707
17-Dec-13,18.10,18.46,17.82,18.32,171886
16-Dec-13,18.55,18.65,17.86,18.03,235300
13-Dec-13,18.31,18.64,18.02,18.42,121673
12-Dec-13,18.43,18.80,17.71,18.26,256520
11-Dec-13,19.38,19.57,18.39,18.43,232997
10-Dec-13,19.25,19.58,19.17,19.41,320250
9-Dec-13,18.87,19.39,18.87,19.25,340318
6-Dec-13,18.64,19.08,18.58,18.79,161315
5-Dec-13,19.13,19.45,18.43,18.54,164422
4-Dec-13,19.10,19.45,19.10,19.23,107033
3-Dec-13,19.10,19.32,19.02,19.21,128127
2-Dec-13,19.80,19.80,19.00,19.18,245936
29-Nov-13,19.80,20.29,19.50,19.85,254574
27-Nov-13,19.89,20.09,19.51,19.76,242384
26-Nov-13,18.99,20.09,18.99,19.92,413459
25-Nov-13,19.05,19.32,18.79,18.91,340511
22-Nov-13,18.88,19.34,18.83,19.05,301988
21-Nov-13,18.63,19.06,18.50,18.93,222451
20-Nov-13,18.66,18.99,18.47,18.63,272446
19-Nov-13,18.74,18.76,18.35,18.49,291555
18-Nov-13,18.86,19.03,18.56,18.67,391664
15-Nov-13,19.18,19.18,18.55,18.74,544288
14-Nov-13,18.36,19.39,18.36,19.04,808144
13-Nov-13,17.45,18.65,17.38,18.42,2414108
12-Nov-13,16.46,17.27,16.44,16.82,1231150
11-Nov-13,16.52,16.75,16.30,16.50,254031
8-Nov-13,16.62,16.91,16.31,16.50,351312
7-Nov-13,16.81,16.89,16.63,16.63,547453
6-Nov-13,16.65,16.99,16.53,16.70,422071
5-Nov-13,16.20,16.90,15.95,16.56,952712
4-Nov-13,16.97,17.80,15.95,16.15,3048412
1-Nov-13,15.95,16.13,15.33,15.38,300129
31-Oct-13,15.94,16.01,15.71,15.92,145456
30-Oct-13,16.25,16.37,15.82,15.90,160980
29-Oct-13,16.09,16.34,16.03,16.20,384131
28-Oct-13,16.26,16.27,15.81,16.00,200608
25-Oct-13,16.44,16.49,16.12,16.20,174999
24-Oct-13,15.81,16.65,15.81,16.36,608294
23-Oct-13,15.32,16.08,15.32,15.75,443187
22-Oct-13,15.05,16.42,15.05,15.39,840277
21-Oct-13,14.10,15.99,13.79,14.89,494874
18-Oct-13,14.05,14.19,13.98,14.07,92793
17-Oct-13,13.68,13.95,13.68,13.92,144950
16-Oct-13,13.75,13.80,13.62,13.72,122643
15-Oct-13,13.71,13.90,13.61,13.71,103874
14-Oct-13,13.90,13.93,13.63,13.71,38663
11-Oct-13,13.88,14.03,13.84,13.93,55307
10-Oct-13,13.84,14.13,13.75,13.88,19655
9-Oct-13,13.50,13.79,13.43,13.66,115539
8-Oct-13,14.18,14.24,13.65,13.66,212034
7-Oct-13,13.98,14.30,13.98,14.23,63140
4-Oct-13,14.12,14.37,14.00,14.11,58268
3-Oct-13,14.63,14.65,14.04,14.17,111784
2-Oct-13,14.35,14.84,14.35,14.70,279282
1-Oct-13,14.69,14.80,14.38,14.42,226265
30-Sep-13,14.38,14.80,14.35,14.68,77243
27-Sep-13,14.40,14.63,14.40,14.54,130316
26-Sep-13,14.50,14.63,14.31,14.51,87131
25-Sep-13,14.64,14.77,14.17,14.46,178382
24-Sep-13,14.41,14.96,14.40,14.58,91134
23-Sep-13,14.97,15.00,14.19,14.38,223196
20-Sep-13,15.12,15.17,14.89,14.94,121026
19-Sep-13,15.22,15.35,15.04,15.12,95264
18-Sep-13,14.87,15.24,14.55,15.13,233995
17-Sep-13,15.01,15.09,14.88,14.97,31072
16-Sep-13,15.32,15.43,15.06,15.07,65826
13-Sep-13,15.20,15.28,14.90,15.18,40942
12-Sep-13,15.12,15.34,15.12,15.14,37862
11-Sep-13,14.95,15.14,14.74,15.09,108577
10-Sep-13,14.85,15.05,14.84,14.96,100734
9-Sep-13,14.13,15.07,14.10,14.79,195834
6-Sep-13,14.24,14.44,14.00,14.06,131001
5-Sep-13,14.28,14.30,13.95,14.08,56951
4-Sep-13,14.25,14.54,14.13,14.22,171272
3-Sep-13,14.16,14.54,14.11,14.25,112438
30-Aug-13,14.64,14.73,13.98,14.03,77980
29-Aug-13,14.25,14.64,14.25,14.57,62287
28-Aug-13,14.32,14.52,14.25,14.30,36037
27-Aug-13,14.50,14.77,14.31,14.35,83235
26-Aug-13,14.88,14.98,14.60,14.61,72849
23-Aug-13,15.32,15.32,14.83,14.90,81419
22-Aug-13,15.01,15.38,14.99,15.32,19489
21-Aug-13,15.09,15.21,14.88,15.04,70135
20-Aug-13,15.10,15.32,14.94,15.18,44781
19-Aug-13,15.09,15.36,14.92,15.04,60355
16-Aug-13,15.13,15.47,14.94,15.14,225351
15-Aug-13,15.15,15.27,14.69,15.09,159335
14-Aug-13,15.18,15.25,14.71,15.21,234803
13-Aug-13,16.00,16.10,14.95,15.10,434724
12-Aug-13,14.83,14.95,14.59,14.92,112201
9-Aug-13,15.13,15.13,14.71,14.78,66389
8-Aug-13,15.02,15.28,14.83,15.15,231399
7-Aug-13,14.97,15.06,14.82,14.92,42314
6-Aug-13,15.15,15.15,14.72,15.02,77738
5-Aug-13,15.23,15.44,15.09,15.20,69967
2-Aug-13,15.32,15.42,14.85,15.29,303679
1-Aug-13,15.20,15.55,15.10,15.45,77623
31-Jul-13,15.01,15.46,14.84,15.09,132495
30-Jul-13,15.24,15.46,14.95,14.98,80823
29-Jul-13,15.43,15.56,14.83,15.15,117012
26-Jul-13,15.35,15.70,15.22,15.44,88872
25-Jul-13,16.09,16.09,15.06,15.46,324671
24-Jul-13,16.74,16.79,15.94,16.10,150147
23-Jul-13,16.83,16.97,16.19,16.72,440866
22-Jul-13,17.10,17.10,16.80,16.81,90201
19-Jul-13,16.84,16.95,16.76,16.93,80845
18-Jul-13,16.82,16.98,16.80,16.90,171561
17-Jul-13,16.85,16.92,16.54,16.77,67083
16-Jul-13,16.78,16.95,16.46,16.74,116595
15-Jul-13,16.92,17.02,16.75,16.84,108333
12-Jul-13,16.86,17.22,16.52,16.92,213569
11-Jul-13,16.15,16.94,16.15,16.90,106250
10-Jul-13,16.06,16.22,15.90,15.93,192392
9-Jul-13,15.61,16.14,15.38,16.02,147139
8-Jul-13,16.31,16.55,15.33,15.50,241218
5-Jul-13,16.27,16.27,15.70,16.05,64232
3-Jul-13,15.99,16.19,15.65,16.08,108274
2-Jul-13,16.46,16.46,15.95,16.09,94198
1-Jul-13,16.69,16.69,16.10,16.35,197691
28-Jun-13,15.33,16.58,15.03,16.58,746100
27-Jun-13,14.82,15.38,14.82,15.34,96978
26-Jun-13,15.03,15.22,14.69,14.70,184519
25-Jun-13,14.63,15.01,14.35,14.92,786810
24-Jun-13,15.26,15.26,14.24,14.40,1014564
21-Jun-13,16.14,16.23,15.42,15.44,255513
20-Jun-13,16.30,16.58,15.85,16.15,163976
19-Jun-13,16.66,16.67,16.40,16.46,280758
18-Jun-13,16.66,16.78,16.45,16.61,72828
17-Jun-13,16.70,17.04,16.45,16.59,256384
14-Jun-13,16.75,16.82,16.53,16.61,123140
13-Jun-13,16.55,16.84,16.20,16.72,123372
12-Jun-13,16.89,17.05,16.47,16.61,132536
11-Jun-13,16.36,17.04,16.18,16.79,367819
10-Jun-13,16.68,16.89,16.22,16.60,124649
7-Jun-13,16.30,16.72,16.26,16.67,243783
6-Jun-13,16.43,16.50,15.79,16.17,420018
5-Jun-13,16.56,16.68,16.25,16.42,142140
4-Jun-13,16.95,17.05,16.43,16.63,597229
3-Jun-13,16.98,17.16,16.76,16.92,328198
31-May-13,16.89,17.25,16.76,16.84,809751
30-May-13,17.32,17.44,16.57,17.01,343611
29-May-13,18.09,18.09,17.21,17.31,197064
28-May-13,18.33,18.50,18.01,18.14,122298
24-May-13,18.00,18.22,17.87,18.08,53411
23-May-13,17.71,18.08,17.60,18.04,159051
22-May-13,18.10,18.37,17.88,17.96,285009
21-May-13,18.10,18.15,17.86,18.03,207808
20-May-13,18.15,18.63,18.00,18.06,123783
17-May-13,18.17,18.63,18.17,18.25,123441
16-May-13,18.89,19.00,17.80,18.26,347057
15-May-13,19.90,20.48,18.65,19.00,586870
14-May-13,18.96,19.27,18.57,19.20,203781
13-May-13,18.78,18.84,18.42,18.73,56501
10-May-13,18.77,18.90,18.56,18.88,84138
9-May-13,19.04,19.06,18.65,18.70,62004
8-May-13,19.16,19.23,18.77,19.08,123858
7-May-13,19.08,19.20,18.99,19.10,102472
6-May-13,18.86,19.15,18.78,18.99,110946
3-May-13,19.02,19.23,18.78,18.86,175769
2-May-13,18.60,18.93,18.36,18.86,166431
1-May-13,19.00,19.23,18.20,18.50,329177
30-Apr-13,19.28,19.38,18.70,19.00,278540
29-Apr-13,19.76,19.86,19.20,19.32,244041
26-Apr-13,19.27,19.77,19.27,19.63,78233
25-Apr-13,19.45,19.88,18.82,19.62,90806
24-Apr-13,19.36,19.50,19.12,19.45,55388
23-Apr-13,18.95,19.58,18.80,19.40,129143
22-Apr-13,18.88,19.00,18.53,18.85,110995
19-Apr-13,18.79,18.83,18.40,18.76,193200
18-Apr-13,18.75,19.36,18.57,18.75,175215
17-Apr-13,18.58,18.88,18.48,18.70,167764
16-Apr-13,18.62,19.19,18.44,18.73,187801
15-Apr-13,19.19,19.29,18.21,18.50,209345
12-Apr-13,19.13,19.36,19.13,19.25,280069
11-Apr-13,19.18,19.44,19.10,19.26,165030
10-Apr-13,19.75,19.94,19.22,19.28,230493
9-Apr-13,19.67,19.70,19.37,19.65,71689
8-Apr-13,19.44,19.64,19.23,19.59,403580
5-Apr-13,19.00,19.58,18.60,19.39,236061
4-Apr-13,19.11,19.14,18.91,19.03,291952
3-Apr-13,19.75,19.82,18.90,19.16,300247
2-Apr-13,20.15,20.15,19.68,19.74,217075
1-Apr-13,20.29,21.18,19.85,20.02,663175
28-Mar-13,20.45,20.51,19.78,20.15,1687003
27-Mar-13,20.34,20.53,20.02,20.48,149106
26-Mar-13,20.07,20.86,20.07,20.50,748857
25-Mar-13,19.67,20.00,19.48,19.93,143633
22-Mar-13,19.91,20.21,19.25,19.51,206460
21-Mar-13,20.59,20.88,19.71,19.95,438020
20-Mar-13,19.76,20.97,19.76,20.51,569085
19-Mar-13,19.46,21.25,18.26,19.73,389137
18-Mar-13,18.76,19.90,18.76,19.64,453706
15-Mar-13,19.09,19.22,18.66,18.99,284196
14-Mar-13,19.00,19.13,18.50,19.06,98275
13-Mar-13,19.10,19.40,18.81,18.97,209229
12-Mar-13,19.23,19.28,19.00,19.15,109920
11-Mar-13,19.08,19.40,18.81,19.28,184739
8-Mar-13,18.48,19.17,18.25,19.03,324738
7-Mar-13,18.53,18.56,18.17,18.35,317771
6-Mar-13,18.39,18.55,18.15,18.55,313772
5-Mar-13,18.28,18.75,18.02,18.26,250943
4-Mar-13,18.23,18.41,17.90,18.12,105663
1-Mar-13,18.24,18.33,17.82,18.30,299758
28-Feb-13,18.39,18.75,18.13,18.40,219667
27-Feb-13,18.27,18.67,18.24,18.49,338655
26-Feb-13,18.63,18.63,17.77,18.27,405697
25-Feb-13,18.20,18.69,17.91,18.19,460935
22-Feb-13,18.15,18.23,17.65,18.06,145456
21-Feb-13,17.58,18.18,17.50,18.03,317593
20-Feb-13,18.40,18.67,17.82,17.97,342095
19-Feb-13,18.61,18.75,18.15,18.59,750869
15-Feb-13,18.89,18.98,18.71,18.76,418651
14-Feb-13,19.00,19.04,18.84,18.97,62730
13-Feb-13,18.86,19.19,18.61,19.03,290024
12-Feb-13,19.03,19.14,18.80,18.86,310392
11-Feb-13,18.60,19.31,18.60,19.02,388150
8-Feb-13,18.63,19.00,18.23,18.64,375703
7-Feb-13,18.00,18.54,17.99,18.45,784680
6-Feb-13,18.03,18.72,17.81,18.16,427454
5-Feb-13,18.45,18.46,17.80,18.18,689092
4-Feb-13,19.01,19.01,18.12,18.40,528951
1-Feb-13,19.25,19.35,18.40,19.00,1467804
31-Jan-13,19.56,19.99,19.00,19.05,12752948
