﻿Date,Open,High,Low,Close,Volume
20-Jun-17,42.30,42.70,41.18,41.41,2773648
19-Jun-17,43.53,43.71,42.95,43.00,1433600
16-Jun-17,42.70,43.59,42.31,43.50,2474434
15-Jun-17,43.29,43.93,42.43,42.45,2994723
14-Jun-17,45.80,45.91,43.42,43.51,2639269
13-Jun-17,45.88,46.31,45.66,45.82,1598011
12-Jun-17,46.12,46.80,45.58,45.74,2846945
9-Jun-17,44.44,45.94,44.43,45.77,4965692
8-Jun-17,43.84,44.48,43.81,44.40,2867792
7-Jun-17,45.33,45.98,43.83,44.09,2602732
6-Jun-17,45.00,45.73,44.74,45.57,1968770
5-Jun-17,45.21,45.70,45.10,45.13,1782866
2-Jun-17,45.84,45.97,45.29,45.48,2015502
1-Jun-17,46.09,46.36,45.67,45.86,1735581
31-May-17,45.42,45.93,44.60,45.93,4497529
30-May-17,47.21,47.30,45.91,45.92,3319171
26-May-17,47.67,47.88,46.75,47.34,9959946
25-May-17,49.44,50.19,47.69,48.47,1984829
24-May-17,50.18,50.64,49.33,49.58,1299360
23-May-17,51.26,51.26,50.24,50.26,1631878
22-May-17,51.32,51.42,50.29,50.79,1014106
19-May-17,49.68,51.42,49.68,50.92,1931227
18-May-17,49.18,49.73,48.66,49.54,1296545
17-May-17,50.84,50.84,49.53,49.55,1039439
16-May-17,51.22,51.56,50.71,50.78,1332382
15-May-17,51.76,52.14,50.97,51.20,1344090
12-May-17,51.11,51.35,50.70,50.82,1044272
11-May-17,51.56,51.56,50.76,50.89,1604778
10-May-17,49.67,51.28,49.45,50.87,2011224
9-May-17,50.27,50.52,48.65,49.26,1757156
8-May-17,50.17,50.80,49.73,50.37,1891610
5-May-17,48.81,50.91,48.81,50.37,4013120
4-May-17,54.16,54.71,48.89,48.91,5975209
3-May-17,55.52,56.07,54.69,55.00,1389552
2-May-17,56.50,56.79,55.45,55.74,1784523
1-May-17,55.25,55.88,55.25,55.86,1058497
28-Apr-17,55.39,55.91,54.86,55.13,1846551
27-Apr-17,56.67,57.39,55.55,56.15,1686258
26-Apr-17,56.76,57.78,56.45,57.04,1514171
25-Apr-17,56.02,57.12,55.99,56.98,1979860
24-Apr-17,55.92,56.47,54.81,56.16,1699623
21-Apr-17,56.19,56.19,55.22,55.43,1627930
20-Apr-17,55.93,56.61,55.59,56.19,1705414
19-Apr-17,57.52,57.75,55.41,55.75,2143783
18-Apr-17,57.68,57.80,57.08,57.52,1666071
17-Apr-17,58.57,58.57,57.52,57.87,1243140
13-Apr-17,58.90,58.96,57.71,58.44,1350441
12-Apr-17,59.62,59.62,58.64,58.88,1107413
11-Apr-17,59.79,59.80,59.06,59.36,1407614
10-Apr-17,59.60,60.06,59.31,59.72,986048
7-Apr-17,59.60,59.87,59.02,59.35,1658726
6-Apr-17,58.88,59.91,58.46,59.32,1412332
5-Apr-17,60.11,60.62,58.28,58.33,1588520
4-Apr-17,59.83,59.83,58.61,59.48,1358330
3-Apr-17,59.72,60.22,58.47,59.49,2211138
31-Mar-17,58.50,60.00,58.47,59.90,2103996
30-Mar-17,59.35,59.47,58.31,59.06,1477855
29-Mar-17,57.20,59.28,57.20,59.01,1995877
28-Mar-17,57.10,57.69,56.57,57.32,1684259
27-Mar-17,55.93,56.98,55.30,56.85,1938664
24-Mar-17,56.79,57.23,56.48,56.69,1698434
23-Mar-17,56.28,56.96,55.95,56.74,1184524
22-Mar-17,55.97,56.65,55.70,56.21,1677929
21-Mar-17,57.29,57.82,55.90,56.30,2331173
20-Mar-17,55.95,57.08,55.59,56.92,1377323
17-Mar-17,56.81,57.25,56.15,56.47,4488939
16-Mar-17,57.23,57.24,55.82,56.82,1540459
15-Mar-17,55.87,57.00,54.90,56.86,2257654
14-Mar-17,55.54,55.74,53.94,54.96,1797395
13-Mar-17,56.15,57.23,56.15,56.52,1551132
10-Mar-17,55.81,56.01,55.18,55.72,1874010
9-Mar-17,56.00,56.43,53.74,55.52,3694694
8-Mar-17,58.87,59.06,56.66,56.81,1888761
7-Mar-17,58.88,59.25,58.31,59.07,2512043
6-Mar-17,58.29,58.44,57.60,58.32,1702663
3-Mar-17,57.31,58.24,56.98,58.09,1257333
2-Mar-17,56.93,57.53,56.80,57.08,1954848
1-Mar-17,56.98,57.90,56.98,57.27,2319195
28-Feb-17,55.11,56.77,55.11,56.50,3538423
27-Feb-17,56.54,56.74,55.84,55.91,1479628
24-Feb-17,55.98,56.67,55.61,56.38,1850268
23-Feb-17,56.22,57.70,55.79,56.23,4911114
22-Feb-17,57.77,58.45,56.94,57.08,1548767
21-Feb-17,59.69,59.73,58.13,58.48,1517663
17-Feb-17,58.35,58.85,57.87,58.69,1561549
16-Feb-17,59.63,60.39,58.42,58.53,1901088
15-Feb-17,59.59,60.49,59.13,59.29,2185158
14-Feb-17,59.76,59.98,59.03,59.30,1525267
13-Feb-17,59.37,59.85,58.81,59.56,1505464
10-Feb-17,60.15,60.15,59.18,59.34,2052610
9-Feb-17,59.66,59.95,58.95,59.31,1228713
8-Feb-17,58.16,59.11,57.75,59.11,1998525
7-Feb-17,61.23,61.83,58.48,58.66,1980145
6-Feb-17,61.17,61.45,60.53,61.35,1764454
3-Feb-17,60.10,61.04,59.64,60.90,1986524
2-Feb-17,59.30,60.06,58.65,59.88,1571890
1-Feb-17,58.12,59.07,57.26,59.05,2346535
31-Jan-17,57.72,58.23,57.13,57.62,1902274
30-Jan-17,57.55,57.82,56.37,57.17,2384444
27-Jan-17,59.71,59.74,57.80,58.55,1630832
26-Jan-17,60.36,60.74,59.43,59.66,1321807
25-Jan-17,59.80,59.90,59.04,59.46,2078752
24-Jan-17,58.25,59.82,58.07,59.40,3113674
23-Jan-17,58.40,58.88,57.53,57.77,5912462
20-Jan-17,60.60,61.25,59.70,60.05,1635779
19-Jan-17,60.36,61.14,59.60,59.89,1155701
18-Jan-17,59.49,60.28,59.25,60.00,1821537
17-Jan-17,58.52,59.77,58.12,59.68,1262154
13-Jan-17,56.92,58.00,56.92,57.95,1365798
12-Jan-17,57.76,58.64,56.60,57.35,1473941
11-Jan-17,57.43,57.85,56.81,57.43,2374463
10-Jan-17,58.67,58.67,56.63,57.02,1975251
9-Jan-17,58.85,59.92,58.47,58.60,2407364
6-Jan-17,59.09,59.97,58.76,59.41,1720523
5-Jan-17,58.49,59.14,58.19,58.99,1393898
4-Jan-17,58.04,58.29,57.06,58.27,1339194
3-Jan-17,57.16,58.27,56.47,57.98,1799705
30-Dec-16,56.60,57.32,55.73,56.07,1641727
29-Dec-16,56.97,57.12,56.32,56.67,1327106
28-Dec-16,58.48,59.35,56.97,57.08,1417061
27-Dec-16,58.24,58.43,57.56,58.20,527069
23-Dec-16,57.23,58.13,56.90,58.04,896038
22-Dec-16,57.78,57.81,56.48,57.24,1055419
21-Dec-16,56.31,57.82,56.21,57.48,1697977
20-Dec-16,55.31,57.12,55.31,56.21,2575092
19-Dec-16,54.78,55.00,54.22,54.95,1255254
16-Dec-16,53.80,54.97,53.58,54.92,4158703
15-Dec-16,52.55,54.20,51.39,54.01,1691827
14-Dec-16,53.90,54.49,52.73,53.07,1935578
13-Dec-16,54.00,55.03,53.30,53.95,1951356
12-Dec-16,54.81,54.93,53.17,53.43,1918340
9-Dec-16,54.78,54.85,53.14,53.54,1379380
8-Dec-16,54.10,54.72,53.44,54.20,1466866
7-Dec-16,53.22,54.08,53.05,53.82,1624520
6-Dec-16,52.81,53.73,52.54,53.62,1199973
5-Dec-16,53.29,54.22,53.28,53.34,1837468
2-Dec-16,51.99,53.13,51.44,52.62,2535624
1-Dec-16,54.01,54.10,51.40,51.86,2903078
30-Nov-16,49.16,54.12,48.98,53.29,14163990
29-Nov-16,48.88,49.07,47.64,48.59,2240991
28-Nov-16,52.25,52.37,48.58,49.57,1894412
25-Nov-16,51.67,52.28,51.42,51.94,1618392
23-Nov-16,51.12,52.34,50.62,51.68,1993884
22-Nov-16,52.95,53.34,51.29,51.83,2506327
21-Nov-16,51.47,53.06,51.21,52.96,3433034
18-Nov-16,50.00,50.85,49.58,50.44,1235304
17-Nov-16,50.41,51.00,49.35,49.97,1428536
16-Nov-16,49.69,50.62,49.23,49.78,1495637
15-Nov-16,49.16,50.79,48.86,49.94,2096374
14-Nov-16,48.05,48.90,47.55,48.66,1604466
11-Nov-16,46.96,48.20,46.34,48.13,1772731
10-Nov-16,48.61,49.45,47.85,48.04,2124535
9-Nov-16,46.77,49.08,46.54,48.59,1909919
8-Nov-16,45.02,47.41,45.02,46.94,1244390
7-Nov-16,46.00,46.58,45.31,45.76,1623786
4-Nov-16,45.97,46.28,45.35,45.35,1413548
3-Nov-16,46.46,46.64,44.79,46.31,2319692
2-Nov-16,43.31,46.36,41.35,45.60,4502176
1-Nov-16,44.45,44.76,43.15,43.93,2696551
31-Oct-16,44.97,44.97,43.49,43.90,2609647
28-Oct-16,46.38,47.00,45.43,45.70,2225317
27-Oct-16,47.11,47.53,46.55,46.63,1230898
26-Oct-16,45.25,46.88,44.66,46.76,2363802
25-Oct-16,47.17,47.76,45.78,45.94,1735848
24-Oct-16,48.20,48.81,46.54,47.25,1731271
21-Oct-16,47.56,48.72,47.46,48.59,1508524
20-Oct-16,47.56,48.16,47.22,47.75,1605756
19-Oct-16,47.68,48.62,46.96,48.10,1445989
18-Oct-16,47.52,47.66,46.55,47.09,1423741
17-Oct-16,47.89,48.27,46.62,46.70,2001101
14-Oct-16,48.20,48.86,47.78,48.12,1500450
13-Oct-16,47.64,48.49,47.20,48.02,2213449
12-Oct-16,48.69,48.95,47.70,47.98,1980541
11-Oct-16,49.49,49.56,48.46,49.12,1371614
10-Oct-16,49.28,50.35,49.28,49.74,1180206
7-Oct-16,49.12,49.41,48.50,48.81,1115108
6-Oct-16,49.28,49.92,48.83,48.91,998482
5-Oct-16,49.14,49.48,48.66,48.92,1531161
4-Oct-16,49.06,49.16,48.02,48.25,1816836
3-Oct-16,49.26,49.43,48.32,49.05,1454669
30-Sep-16,49.75,50.00,49.05,49.11,1995669
29-Sep-16,49.05,50.14,48.34,49.40,3032534
28-Sep-16,47.40,50.03,46.98,49.26,3279872
27-Sep-16,47.27,47.77,45.59,46.96,2140119
26-Sep-16,47.65,48.03,46.65,46.78,1828385
23-Sep-16,49.10,49.80,46.99,47.14,3426623
22-Sep-16,49.94,50.87,48.51,49.07,2820302
21-Sep-16,48.09,49.51,47.91,49.34,2856184
20-Sep-16,47.80,48.60,47.19,47.31,2137106
19-Sep-16,47.48,48.92,47.48,48.13,3173638
16-Sep-16,45.53,47.20,45.35,46.80,3520567
15-Sep-16,46.14,47.05,45.66,46.53,2340473
14-Sep-16,44.95,46.51,44.55,46.05,2184000
13-Sep-16,45.52,45.77,44.05,45.26,2303545
12-Sep-16,45.65,46.82,45.09,46.28,2200018
9-Sep-16,47.62,47.75,46.42,46.52,2121722
8-Sep-16,47.26,48.76,46.99,48.36,2356793
7-Sep-16,46.01,47.21,45.45,46.81,2901886
6-Sep-16,44.33,46.00,44.33,45.97,1684303
2-Sep-16,44.00,44.49,43.43,44.07,871066
1-Sep-16,43.32,43.63,42.77,43.33,1564996
31-Aug-16,43.23,43.59,42.76,43.58,1908507
30-Aug-16,44.15,44.66,43.38,43.65,1194829
29-Aug-16,43.26,44.12,43.02,44.05,1578822
26-Aug-16,43.42,44.29,43.08,43.54,1423413
25-Aug-16,42.22,43.53,42.22,43.27,1278164
24-Aug-16,42.91,43.36,42.10,42.32,1423949
23-Aug-16,42.70,43.78,42.64,43.36,1270033
22-Aug-16,43.22,43.49,42.56,42.85,1198917
19-Aug-16,44.28,44.34,43.56,43.92,2042352
18-Aug-16,43.51,44.77,43.50,44.71,1448770
17-Aug-16,42.77,43.39,42.27,43.15,1365075
16-Aug-16,43.34,43.83,42.99,43.00,1515585
15-Aug-16,42.70,43.84,42.70,43.58,2815861
12-Aug-16,42.53,42.99,42.11,42.44,1026393
11-Aug-16,41.84,42.45,41.53,42.25,1373211
10-Aug-16,42.16,42.63,41.30,41.54,2094487
9-Aug-16,42.19,42.57,41.67,41.96,1539257
8-Aug-16,41.62,42.82,41.62,42.08,2836863
5-Aug-16,40.38,41.67,39.44,41.30,2571104
4-Aug-16,38.91,40.84,38.79,40.45,3367534
3-Aug-16,37.39,39.09,35.35,38.51,5114519
2-Aug-16,37.07,37.83,35.79,37.39,4839502
1-Aug-16,36.63,37.19,36.03,36.88,3055111
29-Jul-16,35.84,37.37,35.66,37.26,2033086
28-Jul-16,37.04,37.74,36.12,37.18,2561675
27-Jul-16,38.67,39.37,36.82,37.15,2571545
26-Jul-16,38.61,39.46,38.31,38.44,1843723
25-Jul-16,39.92,40.15,38.64,38.85,2541893
22-Jul-16,40.75,40.96,39.57,40.33,1464561
21-Jul-16,41.66,42.31,40.64,40.74,1406279
20-Jul-16,41.10,42.63,39.61,41.70,2206228
19-Jul-16,43.18,43.26,41.11,41.32,2072230
18-Jul-16,42.00,43.38,41.03,43.17,2551780
15-Jul-16,42.94,43.26,41.85,42.19,1309746
14-Jul-16,43.43,43.74,42.50,42.73,1396994
13-Jul-16,44.41,44.69,42.19,42.85,1825850
12-Jul-16,43.61,45.37,43.51,44.43,2304930
11-Jul-16,42.81,43.44,42.63,42.71,1376193
8-Jul-16,41.93,42.80,41.42,42.33,1623795
7-Jul-16,42.54,43.46,40.78,41.17,2185603
6-Jul-16,40.89,42.01,40.60,41.95,1824531
5-Jul-16,41.85,41.85,40.17,41.43,1654776
1-Jul-16,42.39,42.91,41.92,42.66,1512406
30-Jun-16,42.37,42.85,41.52,42.14,2148695
29-Jun-16,41.86,42.84,41.13,42.27,3145020
28-Jun-16,39.83,41.49,39.70,40.98,3033344
27-Jun-16,40.37,40.82,37.92,38.73,3434770
24-Jun-16,41.00,42.11,40.35,41.09,3532573
23-Jun-16,42.21,42.96,41.94,42.94,1627633
22-Jun-16,42.38,42.80,41.38,41.63,2185148
21-Jun-16,41.88,42.60,40.70,42.19,2611004
20-Jun-16,42.11,42.73,41.71,41.96,2043436
17-Jun-16,41.06,41.89,40.87,41.48,3045786
16-Jun-16,40.09,40.86,38.99,40.44,1829457
15-Jun-16,39.35,41.91,38.83,40.78,3997001
14-Jun-16,39.47,39.98,38.32,39.51,4507549
13-Jun-16,40.12,40.77,39.39,39.82,2574279
10-Jun-16,42.32,42.63,40.56,40.70,2259456
9-Jun-16,42.80,43.40,42.31,43.12,2548183
8-Jun-16,44.89,45.12,42.77,43.41,3052940
7-Jun-16,45.07,45.64,44.50,44.80,2398625
6-Jun-16,44.55,45.36,43.67,44.96,1744644
3-Jun-16,43.91,44.19,42.91,43.72,1338462
2-Jun-16,42.77,43.74,42.67,43.66,1599912
1-Jun-16,42.07,43.74,41.19,43.56,2656676
31-May-16,42.87,43.96,42.57,42.83,2077358
27-May-16,42.74,42.99,41.69,42.72,1990241
26-May-16,44.57,44.97,42.98,43.00,1951032
25-May-16,42.67,44.26,42.22,43.94,2450439
24-May-16,43.16,43.34,41.32,42.20,2906008
23-May-16,43.36,43.63,42.72,42.80,1971025
20-May-16,43.00,44.20,42.35,44.10,1819189
19-May-16,41.74,43.32,41.03,43.00,2264367
18-May-16,43.80,44.14,41.81,42.12,2020631
17-May-16,42.82,44.77,42.47,43.81,2447511
16-May-16,41.91,43.84,41.79,43.31,2837794
13-May-16,41.18,41.80,40.49,40.98,1739835
12-May-16,42.86,43.42,40.20,41.12,2528164
11-May-16,39.58,42.09,38.58,41.98,3018704
10-May-16,38.93,40.34,38.80,39.92,2233893
9-May-16,39.46,39.89,37.31,38.83,2955672
6-May-16,39.44,40.97,39.25,40.00,1939269
5-May-16,40.08,40.93,39.40,39.89,2108832
4-May-16,38.38,39.83,37.79,39.14,3174440
3-May-16,38.26,38.50,37.52,38.19,1706995
2-May-16,40.21,40.79,38.11,38.92,3086563
29-Apr-16,38.23,41.32,38.20,40.46,3799878
28-Apr-16,40.31,40.91,38.31,38.71,3346565
27-Apr-16,38.60,40.50,38.31,40.46,3869507
26-Apr-16,38.02,38.30,37.23,38.10,1845138
25-Apr-16,39.70,39.95,36.95,37.54,3321700
22-Apr-16,38.69,39.77,37.97,39.67,3706868
21-Apr-16,37.74,38.90,37.30,38.43,3744389
20-Apr-16,36.85,39.17,36.71,37.79,5092491
19-Apr-16,34.34,37.40,34.30,37.21,4431587
18-Apr-16,30.91,33.72,30.76,33.49,3248868
15-Apr-16,31.66,33.08,31.42,32.54,4166829
14-Apr-16,32.05,32.18,31.15,32.11,3330707
13-Apr-16,32.04,32.46,31.05,31.99,4199030
12-Apr-16,30.27,32.35,29.75,32.19,3597212
11-Apr-16,29.97,30.56,29.61,30.00,2437093
8-Apr-16,29.40,30.28,29.24,29.57,2739484
7-Apr-16,28.45,29.25,27.99,28.72,2258246
6-Apr-16,28.52,28.76,27.53,28.68,2647093
5-Apr-16,27.34,28.52,27.11,28.06,3352692
4-Apr-16,28.00,28.60,27.09,27.52,3169625
1-Apr-16,28.88,29.00,27.92,28.26,3518645
31-Mar-16,28.94,30.09,28.88,29.86,3685798
30-Mar-16,29.00,29.94,28.69,29.09,4515905
29-Mar-16,27.22,28.55,26.46,28.24,3749873
28-Mar-16,28.02,28.24,27.00,28.02,3478954
24-Mar-16,27.60,28.43,26.50,28.07,2780179
23-Mar-16,29.40,29.80,27.75,28.06,3180452
22-Mar-16,28.77,30.24,28.51,29.88,3846099
21-Mar-16,29.73,29.85,28.50,29.25,2896117
18-Mar-16,30.55,31.00,29.40,29.75,8939289
17-Mar-16,30.59,31.41,29.61,30.23,4300917
16-Mar-16,28.72,30.47,28.56,30.24,6342469
15-Mar-16,28.60,28.66,26.91,27.93,2255396
14-Mar-16,28.07,29.54,27.50,29.11,2971808
11-Mar-16,28.21,29.23,27.45,28.34,4237669
10-Mar-16,28.17,28.50,26.72,27.29,3810358
9-Mar-16,27.97,28.54,26.71,28.36,4107677
8-Mar-16,29.82,29.93,26.57,27.05,4220920
7-Mar-16,29.86,31.00,29.08,30.03,3978187
4-Mar-16,29.30,30.37,28.20,29.50,4313096
3-Mar-16,27.03,29.34,26.62,28.75,4272931
2-Mar-16,26.34,27.39,25.36,27.19,5137060
1-Mar-16,26.83,27.37,25.72,26.44,5106932
29-Feb-16,25.55,27.35,25.32,26.88,11791716
26-Feb-16,25.03,27.61,24.77,25.55,7249740
25-Feb-16,21.62,24.70,20.81,24.30,7336095
24-Feb-16,20.12,22.92,19.57,22.13,6473678
23-Feb-16,22.47,23.30,21.04,21.17,7290264
22-Feb-16,22.03,23.30,21.42,22.53,5159322
19-Feb-16,22.93,22.93,20.60,21.38,7922408
18-Feb-16,21.11,23.23,20.60,23.03,11813222
17-Feb-16,17.74,21.31,17.47,20.59,11257146
16-Feb-16,16.49,17.72,15.40,17.25,7197124
12-Feb-16,15.99,17.07,14.85,16.28,4947240
11-Feb-16,17.49,17.94,14.55,15.43,3491809
10-Feb-16,17.80,19.17,17.78,18.16,2574981
9-Feb-16,19.07,19.28,16.51,17.62,3565539
8-Feb-16,21.52,21.68,18.75,19.76,3003307
5-Feb-16,22.86,24.04,22.22,22.81,3238402
4-Feb-16,22.59,24.24,22.56,23.51,3100617
3-Feb-16,21.93,22.72,21.22,22.25,3236813
2-Feb-16,21.08,22.23,20.52,21.53,2609924
1-Feb-16,22.00,22.00,20.66,21.51,2333702
29-Jan-16,22.61,23.33,21.68,22.47,3616819
28-Jan-16,23.29,24.28,23.05,23.66,2721656
27-Jan-16,22.00,22.93,21.31,22.49,3274441
26-Jan-16,21.25,22.48,20.07,22.29,2745786
25-Jan-16,20.06,22.27,19.51,20.75,3550413
22-Jan-16,20.29,21.37,19.27,20.45,3272654
21-Jan-16,16.42,18.95,16.08,18.74,3306605
20-Jan-16,16.00,16.80,14.76,16.23,3311361
19-Jan-16,17.25,17.50,15.40,16.02,2852511
15-Jan-16,16.73,17.50,15.78,17.04,3586658
14-Jan-16,18.07,19.02,16.85,18.79,4930026
13-Jan-16,22.23,22.71,17.15,17.28,6700451
12-Jan-16,22.41,23.90,20.52,22.02,2404801
11-Jan-16,22.47,22.73,21.39,21.87,1537284
8-Jan-16,21.62,23.25,21.38,22.59,1811240
7-Jan-16,22.58,23.00,21.28,21.46,2400062
6-Jan-16,25.43,25.72,22.89,23.19,2620389
5-Jan-16,26.79,26.92,25.47,26.38,1843044
4-Jan-16,26.34,27.00,24.69,26.80,2263360
31-Dec-15,25.70,27.61,25.50,27.06,2328996
30-Dec-15,25.44,26.69,24.92,26.05,1792205
29-Dec-15,26.80,26.98,25.09,26.17,1923308
28-Dec-15,26.75,26.75,25.29,26.07,1536707
24-Dec-15,28.02,28.79,27.18,27.22,535245
23-Dec-15,28.13,28.88,27.26,28.18,2916311
22-Dec-15,25.60,28.44,25.35,27.05,2736728
21-Dec-15,24.72,26.10,23.33,26.06,3864881
18-Dec-15,26.48,27.75,25.48,25.74,2749183
17-Dec-15,28.43,28.54,25.35,26.42,1960605
16-Dec-15,28.05,29.02,27.37,28.28,1478619
15-Dec-15,28.48,29.09,27.05,28.25,1436537
14-Dec-15,28.21,28.70,26.29,27.83,1806858
11-Dec-15,31.30,31.70,28.08,28.42,1803238
10-Dec-15,31.14,32.78,30.14,32.08,2885651
9-Dec-15,28.37,32.06,28.11,31.41,2964442
8-Dec-15,24.73,28.73,24.65,28.05,3109435
7-Dec-15,29.90,29.90,24.10,26.03,5217128
4-Dec-15,35.62,35.99,30.19,30.23,3033412
3-Dec-15,37.32,37.70,35.75,36.02,885047
2-Dec-15,38.38,38.38,36.30,36.88,1361270
1-Dec-15,39.44,39.67,38.12,38.32,1371992
30-Nov-15,40.02,40.70,39.11,39.30,1179690
27-Nov-15,40.31,40.73,39.63,39.94,297370
25-Nov-15,41.05,41.75,40.15,40.57,957209
24-Nov-15,39.73,41.64,39.53,41.53,1602472
23-Nov-15,40.03,40.90,39.40,39.59,1094831
20-Nov-15,42.33,42.48,40.08,40.17,794741
19-Nov-15,42.98,43.20,41.57,42.10,696503
18-Nov-15,42.74,44.11,42.08,42.98,882057
17-Nov-15,43.25,43.51,41.86,42.25,858768
16-Nov-15,41.21,43.35,41.21,43.30,1112432
13-Nov-15,40.62,41.68,39.73,41.45,1555252
12-Nov-15,43.18,43.99,40.92,41.11,1464416
11-Nov-15,46.47,46.65,43.33,43.73,1174982
10-Nov-15,47.50,48.05,46.44,46.65,795559
9-Nov-15,48.36,49.05,46.68,47.55,1081448
6-Nov-15,49.21,50.49,47.09,48.37,1142806
5-Nov-15,50.90,51.54,49.07,50.14,1236468
4-Nov-15,51.03,51.91,48.66,50.13,1864682
3-Nov-15,54.00,54.55,50.00,50.88,4109047
2-Nov-15,56.38,58.87,55.90,58.21,828337
30-Oct-15,55.05,58.19,54.52,57.15,875729
29-Oct-15,53.69,56.48,53.31,54.89,679090
28-Oct-15,53.40,55.66,52.90,55.08,870508
27-Oct-15,55.42,55.50,51.48,52.97,1211654
26-Oct-15,58.14,58.47,56.15,56.35,732815
23-Oct-15,58.74,59.99,57.38,58.66,631597
22-Oct-15,60.67,61.48,58.33,59.05,716552
21-Oct-15,62.79,63.56,60.39,60.83,487054
20-Oct-15,61.72,64.37,61.45,62.72,513995
19-Oct-15,61.64,62.32,59.73,61.76,472505
16-Oct-15,62.47,62.81,59.97,61.91,806653
15-Oct-15,61.03,62.59,59.32,62.16,584505
14-Oct-15,61.18,62.37,59.62,61.26,695051
13-Oct-15,61.51,63.22,60.54,61.41,642823
12-Oct-15,64.40,64.54,61.04,62.43,686265
9-Oct-15,65.80,66.39,63.76,64.18,1096240
8-Oct-15,63.19,66.49,60.90,65.43,860483
7-Oct-15,63.59,66.87,62.27,63.72,1572271
6-Oct-15,60.47,64.51,60.00,62.18,1362360
5-Oct-15,56.32,61.06,55.76,60.51,1514670
2-Oct-15,51.80,55.34,51.31,55.29,738312
1-Oct-15,51.73,53.95,51.59,52.06,1062690
30-Sep-15,49.64,51.63,49.25,51.52,952413
29-Sep-15,50.69,51.40,48.65,48.92,1288994
28-Sep-15,53.15,53.74,49.57,50.11,955422
25-Sep-15,53.91,54.54,53.04,54.00,1220972
24-Sep-15,56.14,56.14,51.89,53.39,1754942
23-Sep-15,60.75,61.37,56.10,56.32,888529
22-Sep-15,60.71,62.33,60.06,60.63,669278
21-Sep-15,61.30,62.62,60.43,61.79,727665
18-Sep-15,60.62,61.23,59.89,60.73,989695
17-Sep-15,61.50,63.50,61.08,61.89,638230
16-Sep-15,60.03,61.76,59.83,61.52,856959
15-Sep-15,59.00,60.09,58.74,59.24,524046
14-Sep-15,59.45,59.70,58.51,58.75,522660
11-Sep-15,61.60,61.74,58.70,59.75,708249
10-Sep-15,63.39,64.21,62.14,62.43,788691
9-Sep-15,65.02,65.66,63.43,63.61,689371
8-Sep-15,63.91,65.08,63.43,64.38,621461
4-Sep-15,63.48,64.36,62.39,63.49,622982
3-Sep-15,63.51,65.60,62.68,64.39,1138843
2-Sep-15,64.93,65.40,61.89,63.34,834208
1-Sep-15,64.96,65.50,63.10,63.76,821512
31-Aug-15,65.26,66.92,64.10,66.06,1268079
28-Aug-15,63.95,67.17,63.42,65.96,1066487
27-Aug-15,61.35,64.34,61.17,63.94,1149012
26-Aug-15,60.22,60.97,58.00,59.53,963539
25-Aug-15,61.06,61.62,58.70,58.72,836843
24-Aug-15,58.51,62.31,58.51,59.29,1084482
21-Aug-15,64.99,64.99,62.66,63.62,1138659
20-Aug-15,70.96,71.21,64.88,65.05,1863390
19-Aug-15,74.78,75.48,71.42,72.63,883103
18-Aug-15,75.68,76.01,74.36,75.04,670784
17-Aug-15,74.00,75.42,73.96,75.32,457294
14-Aug-15,74.50,75.92,73.50,74.26,625398
13-Aug-15,77.41,77.47,74.85,74.97,544315
12-Aug-15,77.74,78.67,75.62,77.99,817463
11-Aug-15,76.25,77.51,75.38,77.39,573543
10-Aug-15,74.01,77.70,73.85,77.34,826269
7-Aug-15,76.37,76.62,73.66,73.92,969831
6-Aug-15,78.00,78.00,72.51,76.76,1853945
5-Aug-15,83.21,86.68,78.50,78.66,1367382
4-Aug-15,84.25,88.19,83.23,83.54,945400
3-Aug-15,87.63,87.63,84.65,84.89,653537
31-Jul-15,89.22,91.14,88.33,88.45,453868
30-Jul-15,89.89,90.06,87.68,89.67,603581
29-Jul-15,88.99,91.60,88.45,91.09,752375
28-Jul-15,86.34,90.06,85.15,88.97,719734
27-Jul-15,85.40,86.55,83.47,86.05,734528
24-Jul-15,87.13,87.69,85.50,86.38,902248
23-Jul-15,85.89,86.96,84.80,86.83,574178
22-Jul-15,87.43,87.82,84.91,85.43,632069
21-Jul-15,86.76,89.40,86.47,87.79,504121
20-Jul-15,87.95,88.00,85.58,86.64,650788
17-Jul-15,87.82,88.18,86.69,87.85,549202
16-Jul-15,89.00,89.36,88.00,88.31,395047
15-Jul-15,90.98,91.56,88.30,88.96,674627
14-Jul-15,89.53,92.13,89.39,91.26,627512
13-Jul-15,88.24,91.20,88.24,90.02,793804
10-Jul-15,88.63,88.63,86.00,87.64,849418
9-Jul-15,87.82,88.65,87.32,87.68,504331
8-Jul-15,87.51,89.00,85.41,86.37,530304
7-Jul-15,85.50,89.56,84.29,88.94,1025819
6-Jul-15,86.37,86.37,84.62,85.57,1004332
2-Jul-15,86.89,88.11,86.13,87.55,468517
1-Jul-15,89.64,89.94,86.34,86.94,798744
30-Jun-15,89.56,90.52,88.66,89.22,596255
29-Jun-15,90.02,91.41,88.67,88.71,558473
26-Jun-15,91.19,91.66,90.14,91.17,1021043
25-Jun-15,93.05,93.22,90.82,91.07,531468
24-Jun-15,93.81,94.82,92.63,93.05,359712
23-Jun-15,92.80,95.04,92.11,93.78,829811
22-Jun-15,89.98,94.77,89.98,92.58,1353680
19-Jun-15,90.06,90.59,89.10,89.39,719505
18-Jun-15,90.36,90.86,88.83,90.28,774953
17-Jun-15,89.62,91.09,88.71,89.93,558596
16-Jun-15,90.54,90.84,88.90,89.61,424866
15-Jun-15,88.41,90.85,88.36,90.51,466629
12-Jun-15,89.20,89.61,88.51,89.27,524592
11-Jun-15,90.66,91.18,89.27,89.65,562607
10-Jun-15,90.20,91.03,89.63,90.51,719933
9-Jun-15,89.78,90.66,88.70,89.18,727118
8-Jun-15,90.69,91.87,88.84,89.31,696992
5-Jun-15,87.83,90.67,87.09,89.81,1177271
4-Jun-15,91.03,91.07,88.00,88.09,605673
3-Jun-15,92.28,92.60,91.23,91.32,643943
2-Jun-15,91.73,93.58,91.30,92.69,596516
1-Jun-15,91.96,91.96,90.32,91.61,659484
29-May-15,93.95,93.95,91.33,91.95,1130938
28-May-15,95.20,95.28,93.05,93.87,701463
27-May-15,96.93,97.26,95.54,95.75,541010
26-May-15,97.50,98.27,96.18,97.01,592441
22-May-15,98.10,98.68,97.56,98.50,412141
21-May-15,98.70,99.92,98.21,98.57,396558
20-May-15,99.65,100.00,98.24,98.48,484947
19-May-15,99.93,100.99,99.08,99.66,968380
18-May-15,99.65,101.16,99.65,100.79,559904
15-May-15,100.38,101.59,98.90,101.23,835168
14-May-15,101.93,102.24,100.13,100.25,442730
13-May-15,101.92,103.58,100.16,101.60,558646
12-May-15,101.93,101.99,100.03,100.61,796286
11-May-15,103.33,103.43,100.70,101.72,558895
8-May-15,102.86,104.52,101.36,103.31,483353
7-May-15,101.34,102.10,99.17,101.90,594585
6-May-15,103.89,104.80,100.95,101.83,759611
5-May-15,105.56,107.36,103.88,104.25,733351
4-May-15,105.49,105.93,103.24,105.59,685700
1-May-15,105.60,106.00,103.77,105.01,478990
30-Apr-15,105.85,106.58,104.17,104.97,532660
29-Apr-15,105.32,107.11,104.67,106.70,565882
28-Apr-15,107.18,107.63,105.02,105.83,433577
27-Apr-15,107.44,108.63,106.35,106.68,437704
24-Apr-15,107.13,107.89,106.17,106.84,522245
23-Apr-15,105.58,107.89,105.11,107.22,517496
22-Apr-15,104.41,106.44,103.73,105.44,645527
21-Apr-15,105.32,106.07,103.25,104.61,483534
20-Apr-15,105.19,106.84,104.60,105.26,480163
17-Apr-15,105.17,105.45,103.45,104.29,609701
16-Apr-15,107.00,107.00,104.18,105.36,831358
15-Apr-15,103.30,108.13,102.06,106.96,1220338
14-Apr-15,98.96,102.94,98.82,102.32,911183
13-Apr-15,100.74,101.38,98.82,99.45,580394
10-Apr-15,100.36,101.37,99.32,100.56,574069
9-Apr-15,98.49,100.96,97.30,100.58,618932
8-Apr-15,98.66,99.00,96.90,97.96,779232
7-Apr-15,97.69,99.24,96.98,98.75,849839
6-Apr-15,95.34,98.09,94.77,97.64,602164
2-Apr-15,95.12,95.68,93.24,94.85,562987
1-Apr-15,95.63,97.35,94.59,94.99,625007
31-Mar-15,95.85,97.74,95.13,95.79,1050086
30-Mar-15,96.21,97.89,95.46,97.16,636649
27-Mar-15,94.35,96.36,93.03,94.97,958530
26-Mar-15,96.43,97.39,93.44,94.51,738455
25-Mar-15,91.76,93.18,91.46,92.16,776206
24-Mar-15,92.00,92.19,90.79,90.86,551019
23-Mar-15,91.19,91.97,90.61,91.61,724175
20-Mar-15,90.57,91.87,90.33,90.72,714397
19-Mar-15,91.36,92.00,89.72,90.04,425330
18-Mar-15,88.94,92.57,88.36,92.00,841236
17-Mar-15,88.17,90.90,88.17,89.84,592271
16-Mar-15,88.36,89.14,86.51,89.07,924267
13-Mar-15,91.08,91.14,88.60,89.11,1103975
12-Mar-15,91.99,92.98,90.68,91.16,2560325
11-Mar-15,96.30,96.66,93.79,94.41,654108
10-Mar-15,95.90,97.27,95.59,96.06,632967
9-Mar-15,98.83,99.94,97.13,97.28,904937
6-Mar-15,99.36,99.87,97.89,98.78,769337
5-Mar-15,99.00,101.05,98.18,100.54,527048
4-Mar-15,97.73,99.88,97.07,99.13,788682
3-Mar-15,99.50,99.63,97.20,97.94,902555
2-Mar-15,99.34,99.47,97.79,98.85,850393
27-Feb-15,97.73,99.62,97.52,99.58,1009655
26-Feb-15,98.10,98.38,96.08,97.52,793653
25-Feb-15,96.74,98.45,95.85,98.24,751308
24-Feb-15,97.85,97.97,95.69,96.74,923235
23-Feb-15,95.94,97.64,94.76,96.88,1027886
20-Feb-15,95.63,96.68,95.45,96.25,702375
19-Feb-15,97.43,97.43,94.43,95.75,757685
18-Feb-15,98.29,101.75,98.06,98.60,941305
17-Feb-15,94.89,99.77,91.69,99.06,1042373
13-Feb-15,92.75,97.92,90.15,93.93,1017512
12-Feb-15,93.31,94.91,92.53,93.24,918812
11-Feb-15,93.99,94.62,90.35,90.58,961577
10-Feb-15,94.24,94.95,92.62,94.36,456766
9-Feb-15,95.06,96.97,93.62,93.82,450244
6-Feb-15,95.98,97.52,93.24,94.42,627745
5-Feb-15,94.15,98.29,93.47,96.65,912050
4-Feb-15,94.87,94.92,90.98,92.66,674432
3-Feb-15,92.18,97.85,91.83,96.32,869231
2-Feb-15,87.29,92.25,86.91,91.61,678487
30-Jan-15,84.35,87.94,83.48,86.83,663452
29-Jan-15,86.61,86.63,83.12,85.44,958241
28-Jan-15,91.76,92.45,87.22,87.47,687162
27-Jan-15,90.91,92.81,90.13,92.31,509156
26-Jan-15,91.06,92.31,90.70,91.59,424585
23-Jan-15,91.02,92.84,89.53,91.12,326650
22-Jan-15,92.41,93.72,90.13,91.24,455142
21-Jan-15,89.85,92.21,89.38,92.02,515250
20-Jan-15,88.51,91.52,86.26,89.69,690272
16-Jan-15,86.61,89.15,84.65,88.94,781340
15-Jan-15,86.12,88.64,84.45,86.63,902844
14-Jan-15,84.52,86.44,82.09,85.49,969356
13-Jan-15,89.93,90.39,85.02,85.87,974634
12-Jan-15,90.92,92.32,87.34,89.27,1032951
9-Jan-15,97.05,98.56,92.64,92.82,831459
8-Jan-15,95.88,98.25,94.97,97.89,833028
7-Jan-15,97.32,97.89,93.80,95.20,745036
6-Jan-15,100.11,100.74,93.34,96.11,1072840
5-Jan-15,104.72,106.00,98.49,99.19,955968
2-Jan-15,105.75,107.93,105.11,107.06,471239
31-Dec-14,105.86,108.32,104.07,106.05,472638
30-Dec-14,106.48,108.17,105.22,106.82,414722
29-Dec-14,104.25,108.11,104.11,107.18,497444
26-Dec-14,104.52,104.70,102.70,104.21,246839
24-Dec-14,101.71,104.95,100.84,104.31,191410
23-Dec-14,102.95,103.71,101.00,102.71,492430
22-Dec-14,101.45,102.98,98.78,101.63,543537
19-Dec-14,101.73,104.72,100.22,102.77,784931
18-Dec-14,104.05,105.96,98.94,101.81,1110635
17-Dec-14,92.19,101.07,90.70,100.55,1347769
16-Dec-14,89.49,96.40,88.97,91.28,1165424
15-Dec-14,93.46,94.08,89.73,90.86,860442
12-Dec-14,90.58,94.37,88.98,92.56,893146
11-Dec-14,88.01,94.58,88.01,93.01,1321914
10-Dec-14,95.28,95.28,88.92,89.35,1308451
9-Dec-14,98.13,99.13,95.50,98.25,653845
8-Dec-14,106.43,107.00,96.05,97.81,837373
5-Dec-14,108.77,108.77,106.72,108.15,413091
4-Dec-14,106.00,110.03,105.20,108.66,469137
3-Dec-14,103.45,107.75,103.45,106.31,736669
2-Dec-14,100.21,105.84,98.85,103.45,929546
1-Dec-14,112.50,113.99,97.87,100.00,1618460
28-Nov-14,121.14,121.44,113.69,114.14,437278
26-Nov-14,122.30,126.48,121.43,125.37,627115
25-Nov-14,121.48,123.30,120.58,122.41,742025
24-Nov-14,122.33,122.88,120.31,121.39,228127
21-Nov-14,123.32,125.22,122.21,122.53,482717
20-Nov-14,118.63,122.34,117.84,121.49,461898
19-Nov-14,117.62,118.71,117.13,118.43,312101
18-Nov-14,115.92,119.52,115.56,117.76,463604
17-Nov-14,115.50,117.34,114.33,116.11,290664
14-Nov-14,115.30,116.55,114.17,115.90,257863
13-Nov-14,117.75,118.11,113.79,115.44,468135
12-Nov-14,118.00,120.65,116.85,118.34,392693
11-Nov-14,118.04,120.14,116.75,119.03,532973
10-Nov-14,120.19,122.10,117.91,118.04,510680
7-Nov-14,119.00,122.32,119.00,120.16,444577
6-Nov-14,119.05,119.61,115.20,118.42,676983
5-Nov-14,120.08,124.41,119.01,119.97,638084
4-Nov-14,127.95,127.95,117.91,120.51,813882
3-Nov-14,128.56,130.33,126.91,127.89,349533
31-Oct-14,125.48,128.89,125.02,128.63,502592
30-Oct-14,127.13,127.88,124.23,125.21,305290
29-Oct-14,127.89,129.99,126.55,128.44,270821
28-Oct-14,126.61,128.59,125.45,127.64,304804
27-Oct-14,128.40,128.40,124.32,126.31,341729
24-Oct-14,126.64,128.21,125.08,127.34,309205
23-Oct-14,129.73,129.73,125.48,126.19,325634
22-Oct-14,128.06,129.79,125.48,125.62,404220
21-Oct-14,126.73,132.06,126.22,128.50,394877
20-Oct-14,123.10,126.13,121.80,125.97,350958
17-Oct-14,122.20,127.71,121.66,123.41,566169
16-Oct-14,115.23,124.05,114.89,120.66,837574
15-Oct-14,110.01,115.71,107.41,115.27,984412
14-Oct-14,109.51,115.89,104.67,111.48,1416604
13-Oct-14,123.00,124.90,107.33,109.01,1724556
10-Oct-14,125.09,125.70,118.08,121.65,810174
9-Oct-14,132.06,132.24,126.13,126.24,375607
8-Oct-14,135.30,135.36,129.33,132.73,413988
7-Oct-14,137.42,137.92,135.17,135.21,239548
6-Oct-14,138.95,139.78,136.98,137.42,210719
3-Oct-14,139.46,139.92,137.01,138.86,237219
2-Oct-14,137.10,139.99,136.03,139.10,398385
1-Oct-14,136.73,137.38,135.17,137.10,440001
30-Sep-14,137.77,137.80,134.96,136.17,493790
29-Sep-14,135.13,137.65,134.15,137.47,283605
26-Sep-14,135.50,138.13,135.06,136.87,202966
25-Sep-14,137.23,137.60,134.87,135.43,212026
24-Sep-14,137.00,138.49,135.48,137.47,385354
23-Sep-14,137.92,138.67,136.10,136.79,221948
22-Sep-14,139.38,139.38,137.35,138.69,212371
19-Sep-14,139.61,139.81,138.23,139.65,358064
18-Sep-14,140.35,141.35,138.78,139.58,202249
17-Sep-14,140.64,141.62,139.70,140.14,202968
16-Sep-14,137.89,141.51,137.89,140.62,178082
15-Sep-14,138.69,138.91,137.01,138.59,177191
12-Sep-14,141.19,142.30,138.21,139.45,182492
11-Sep-14,140.69,141.79,138.95,141.66,157403
10-Sep-14,141.19,141.96,140.00,141.90,159389
9-Sep-14,142.03,143.46,140.31,141.18,188766
8-Sep-14,141.83,141.90,140.03,141.19,185528
5-Sep-14,139.69,142.00,139.48,141.57,248383
4-Sep-14,140.75,141.12,139.27,139.94,174416
3-Sep-14,140.00,141.63,139.29,140.58,324444
2-Sep-14,139.78,139.99,138.66,139.15,229317
29-Aug-14,139.36,140.33,138.82,139.55,248724
28-Aug-14,139.24,140.46,138.90,139.25,197699
27-Aug-14,138.89,140.33,138.47,139.99,214181
26-Aug-14,140.88,141.33,138.74,139.06,154118
25-Aug-14,138.38,140.03,137.60,139.92,153723
22-Aug-14,137.35,139.28,135.11,137.64,193817
21-Aug-14,137.91,138.93,135.75,137.35,205025
20-Aug-14,138.78,138.81,137.28,138.13,135124
19-Aug-14,137.19,139.26,137.03,138.62,274943
18-Aug-14,138.46,138.46,136.61,137.36,120316
15-Aug-14,133.64,138.16,133.27,137.69,418215
14-Aug-14,134.49,135.58,132.56,132.90,245094
13-Aug-14,135.06,135.62,133.51,134.49,301850
12-Aug-14,134.78,135.38,132.54,134.93,344607
11-Aug-14,133.32,138.76,133.11,135.51,531050
8-Aug-14,130.12,132.31,129.01,131.57,317954
7-Aug-14,131.00,133.16,129.48,129.94,209490
6-Aug-14,130.61,132.23,129.39,130.97,210710
5-Aug-14,133.87,135.74,130.93,131.24,250186
4-Aug-14,130.50,133.98,129.15,133.24,581184
1-Aug-14,128.25,132.75,127.68,129.46,592393
31-Jul-14,130.12,130.12,126.42,127.50,555636
30-Jul-14,132.11,133.23,131.09,131.22,254145
29-Jul-14,132.91,133.27,131.62,131.91,246041
28-Jul-14,132.90,133.31,132.15,132.71,234649
25-Jul-14,135.00,135.01,133.02,133.20,242765
24-Jul-14,135.15,136.20,134.82,135.47,267896
23-Jul-14,135.70,137.34,135.70,136.05,234492
22-Jul-14,136.82,138.19,136.21,137.53,182076
21-Jul-14,137.29,137.96,136.00,136.07,328372
18-Jul-14,138.87,140.00,138.10,138.35,229112
17-Jul-14,138.78,140.00,137.84,138.50,135710
16-Jul-14,139.43,140.09,137.60,139.48,236899
15-Jul-14,139.95,139.96,137.13,138.00,189149
14-Jul-14,140.95,141.24,139.40,139.87,228133
11-Jul-14,137.30,140.19,137.19,139.94,258578
10-Jul-14,136.31,139.15,135.41,138.77,576686
9-Jul-14,137.34,138.12,136.31,137.72,424736
8-Jul-14,140.00,140.00,136.82,137.03,595188
7-Jul-14,141.91,142.80,140.54,140.79,217896
3-Jul-14,141.01,142.39,138.52,142.25,370909
2-Jul-14,144.21,145.00,140.41,140.96,296470
1-Jul-14,140.56,142.58,139.00,141.53,343838
30-Jun-14,136.86,139.98,136.25,139.57,522583
27-Jun-14,136.78,139.32,136.59,137.08,2922876
26-Jun-14,133.05,140.24,132.25,138.13,633550
25-Jun-14,134.41,134.90,131.45,133.34,581585
24-Jun-14,140.80,140.80,134.40,134.49,1233253
23-Jun-14,138.00,142.76,134.58,140.83,910166
20-Jun-14,136.40,144.95,134.50,138.09,3476686
19-Jun-14,125.20,160.97,124.76,150.62,1374436
18-Jun-14,123.98,125.12,123.36,125.05,487635
17-Jun-14,122.06,124.49,122.00,123.68,715288
16-Jun-14,119.28,122.04,119.28,122.00,316941
13-Jun-14,119.43,120.01,118.52,119.43,243511
12-Jun-14,119.65,120.16,118.38,119.08,294451
11-Jun-14,120.00,120.62,119.60,119.68,221247
10-Jun-14,120.19,120.74,119.61,120.62,245302
9-Jun-14,120.53,122.13,120.00,120.45,335377
6-Jun-14,119.47,120.60,119.07,120.53,257858
5-Jun-14,118.32,119.35,117.70,119.13,191475
4-Jun-14,117.06,118.34,116.88,117.95,235260
3-Jun-14,116.02,117.28,115.16,117.21,230872
2-Jun-14,115.02,116.08,114.33,115.93,249815
30-May-14,115.00,115.14,114.55,114.96,255125
29-May-14,114.89,115.00,114.05,114.97,206604
28-May-14,115.62,116.12,114.42,114.91,253727
27-May-14,115.65,116.20,114.87,115.48,275669
23-May-14,115.45,115.78,115.03,115.51,240067
22-May-14,114.70,115.80,114.70,115.42,183481
21-May-14,113.84,114.91,113.84,114.69,191434
20-May-14,112.87,113.81,112.73,113.50,218636
19-May-14,112.20,113.60,111.81,113.31,240708
16-May-14,110.85,112.62,110.05,112.35,326620
15-May-14,110.49,110.86,108.82,110.56,190142
14-May-14,111.71,111.77,110.52,110.77,189389
13-May-14,111.17,112.13,111.17,111.63,290638
12-May-14,109.85,111.76,109.67,110.95,221203
9-May-14,108.88,109.54,107.69,109.52,224824
8-May-14,110.87,111.91,109.26,109.32,274782
7-May-14,109.97,110.95,108.91,110.88,362682
6-May-14,110.00,110.23,109.01,109.45,269011
5-May-14,106.63,110.40,106.63,110.21,276726
2-May-14,107.69,108.13,105.71,106.40,296638
1-May-14,106.85,108.11,105.41,106.77,543152
30-Apr-14,108.22,108.52,106.45,107.99,258342
29-Apr-14,107.94,109.35,107.89,108.23,227699
28-Apr-14,106.18,107.97,105.83,107.26,306428
25-Apr-14,106.43,106.44,104.94,105.58,208204
24-Apr-14,109.04,109.04,106.84,106.99,155647
23-Apr-14,109.00,110.25,108.81,109.33,198938
22-Apr-14,108.82,109.15,108.14,108.94,160330
21-Apr-14,107.21,108.85,107.15,108.82,241764
17-Apr-14,106.02,107.39,105.46,106.77,248494
16-Apr-14,105.97,106.77,104.83,106.43,252449
15-Apr-14,104.76,105.88,103.50,104.98,277252
14-Apr-14,105.41,106.33,103.88,104.66,171781
11-Apr-14,102.19,105.12,101.60,104.51,331619
10-Apr-14,102.64,105.04,102.64,103.03,319304
9-Apr-14,103.06,103.12,101.48,102.31,252694
8-Apr-14,101.42,103.42,101.08,102.89,209160
7-Apr-14,103.65,104.16,101.22,101.56,274428
4-Apr-14,104.45,105.96,103.80,103.84,272694
3-Apr-14,104.58,104.98,103.51,103.96,258349
2-Apr-14,103.86,104.68,103.63,104.44,422974
1-Apr-14,100.00,104.64,99.30,103.91,543371
31-Mar-14,97.46,99.46,96.89,99.26,255041
28-Mar-14,97.35,98.62,97.22,97.46,220779
27-Mar-14,97.28,97.98,96.56,97.60,146239
26-Mar-14,97.77,98.35,97.19,97.23,184692
25-Mar-14,97.92,98.42,96.72,97.08,281058
24-Mar-14,99.08,99.47,96.46,97.62,216632
21-Mar-14,99.17,99.92,98.43,98.54,509271
20-Mar-14,97.52,98.88,97.15,98.69,221070
19-Mar-14,97.64,98.20,97.10,97.73,235800
18-Mar-14,98.24,98.60,97.23,97.49,547708
17-Mar-14,98.17,98.38,96.97,97.89,184654
14-Mar-14,96.70,98.04,96.70,97.87,230658
13-Mar-14,97.30,97.73,95.79,96.70,186225
12-Mar-14,96.66,97.48,96.22,97.30,162060
11-Mar-14,97.77,97.95,96.37,97.12,301129
10-Mar-14,98.54,98.54,97.47,97.94,372586
7-Mar-14,99.02,99.28,98.12,98.37,160656
6-Mar-14,98.78,99.20,98.28,98.66,251698
5-Mar-14,98.57,99.35,98.22,98.77,191933
4-Mar-14,97.85,98.68,97.64,98.50,291358
3-Mar-14,96.42,97.42,96.19,96.69,255336
28-Feb-14,97.65,98.08,96.38,96.76,287780
27-Feb-14,97.06,97.58,96.69,97.46,193447
26-Feb-14,96.17,97.14,95.63,97.09,246608
25-Feb-14,96.27,96.73,95.40,96.17,309446
24-Feb-14,96.00,97.25,95.68,96.21,279382
21-Feb-14,96.95,96.95,95.82,95.99,362506
20-Feb-14,96.00,96.91,95.80,96.48,263700
19-Feb-14,96.21,97.79,95.32,96.11,469249
18-Feb-14,97.67,98.23,96.54,97.16,414399
14-Feb-14,94.55,97.06,94.25,96.52,298327
13-Feb-14,94.73,98.64,93.17,96.31,328439
12-Feb-14,94.16,95.11,93.93,94.42,312826
11-Feb-14,92.34,94.42,91.86,94.00,191556
10-Feb-14,93.07,93.70,91.48,92.03,172657
7-Feb-14,91.45,93.48,91.28,92.94,245089
6-Feb-14,89.32,91.79,89.32,91.29,209244
5-Feb-14,88.92,89.70,87.54,89.02,301035
4-Feb-14,89.17,89.58,88.55,89.19,236897
3-Feb-14,90.30,90.72,88.02,89.20,356601
31-Jan-14,89.41,91.39,89.11,90.29,210641
30-Jan-14,90.14,90.96,89.29,90.03,177041
29-Jan-14,88.84,90.54,87.84,89.25,299495
28-Jan-14,87.71,89.81,87.40,89.35,231309
27-Jan-14,88.40,89.17,87.00,87.78,247952
24-Jan-14,89.17,89.46,88.08,88.13,283986
23-Jan-14,88.12,89.58,87.53,89.54,212483
22-Jan-14,89.44,90.40,88.55,88.90,545281
21-Jan-14,89.14,90.77,88.66,90.35,247256
17-Jan-14,88.54,89.30,87.63,88.25,239424
16-Jan-14,89.01,89.32,87.43,88.90,227699
15-Jan-14,88.70,89.54,88.45,88.97,226997
14-Jan-14,86.99,88.49,86.41,88.13,172354
13-Jan-14,87.50,87.80,86.47,86.81,287978
10-Jan-14,87.64,89.11,87.59,87.84,447717
9-Jan-14,89.89,89.89,86.61,87.47,399484
8-Jan-14,87.88,91.50,86.78,89.42,860823
7-Jan-14,86.49,86.96,84.17,85.34,531541
6-Jan-14,87.10,87.11,85.65,86.44,306647
3-Jan-14,87.37,87.91,86.53,86.63,245092
2-Jan-14,88.03,88.10,86.48,86.98,289919
31-Dec-13,88.83,89.20,88.11,88.17,227533
30-Dec-13,87.85,89.74,87.17,88.46,382012
27-Dec-13,87.94,88.70,87.45,87.82,228752
26-Dec-13,87.69,88.12,86.99,87.50,188223
24-Dec-13,86.14,87.32,86.05,87.24,139878
23-Dec-13,85.66,86.42,85.17,86.27,197939
20-Dec-13,82.70,85.10,82.23,84.84,351859
19-Dec-13,82.93,83.46,81.82,83.01,288319
18-Dec-13,81.91,83.00,81.20,82.90,250959
17-Dec-13,81.79,82.66,81.60,82.05,220516
16-Dec-13,80.98,82.14,80.98,81.94,269470
13-Dec-13,79.71,81.30,79.29,80.91,217281
12-Dec-13,79.62,80.18,79.04,79.53,247846
11-Dec-13,79.58,80.27,79.24,79.62,241308
10-Dec-13,79.11,79.50,78.41,79.01,207801
9-Dec-13,79.94,80.20,78.89,79.64,276957
6-Dec-13,79.39,80.17,78.38,80.01,197536
5-Dec-13,78.61,78.98,77.72,78.66,244148
4-Dec-13,78.36,79.58,77.81,78.89,284271
3-Dec-13,80.23,81.14,79.88,80.01,400346
2-Dec-13,80.90,82.16,80.46,81.98,152270
29-Nov-13,81.43,82.06,80.93,81.09,90082
27-Nov-13,80.95,81.76,80.66,81.02,139863
26-Nov-13,81.86,82.30,80.98,80.99,197929
25-Nov-13,81.56,82.35,81.41,81.64,250149
22-Nov-13,80.61,81.62,80.55,81.56,170227
21-Nov-13,79.89,81.01,79.60,80.43,156482
20-Nov-13,79.64,79.67,78.77,79.41,213835
19-Nov-13,78.69,79.60,78.01,79.27,259048
18-Nov-13,79.60,79.73,78.47,78.95,354908
15-Nov-13,78.27,79.38,77.79,79.38,187172
14-Nov-13,78.93,79.81,78.23,78.40,185725
13-Nov-13,78.09,78.84,77.75,78.69,192740
12-Nov-13,78.60,78.84,78.12,78.41,200838
11-Nov-13,78.72,79.38,77.97,78.63,192293
8-Nov-13,76.00,78.56,75.96,78.51,194036
7-Nov-13,76.83,77.30,74.50,76.10,353225
6-Nov-13,77.08,77.45,76.01,76.43,263160
5-Nov-13,76.83,77.68,75.90,76.46,464802
4-Nov-13,76.92,78.50,76.56,78.26,265040
1-Nov-13,77.40,78.22,76.02,76.68,319987
31-Oct-13,78.52,78.80,77.52,77.56,253563
30-Oct-13,78.63,78.83,78.07,78.34,229619
29-Oct-13,78.53,79.63,77.65,78.33,184310
28-Oct-13,79.25,79.33,78.38,78.76,200880
25-Oct-13,80.15,80.20,78.84,79.27,157976
24-Oct-13,78.95,79.99,78.51,79.56,162993
23-Oct-13,78.44,79.05,77.68,78.54,234288
22-Oct-13,77.75,79.50,76.73,78.56,260627
21-Oct-13,75.01,76.32,75.01,76.08,114348
18-Oct-13,75.37,75.37,74.47,75.00,138542
17-Oct-13,73.24,74.75,72.80,74.75,124225
16-Oct-13,74.75,74.98,73.99,74.42,87381
15-Oct-13,74.41,74.52,73.32,74.16,170101
14-Oct-13,73.04,75.05,73.04,74.44,117585
11-Oct-13,72.88,73.99,72.62,73.68,153945
10-Oct-13,73.18,73.78,72.78,73.23,125024
9-Oct-13,72.97,73.16,72.24,72.42,142555
8-Oct-13,73.14,73.84,72.70,72.95,145488
7-Oct-13,73.27,73.86,72.74,73.32,120545
4-Oct-13,74.01,74.76,73.43,73.66,114208
3-Oct-13,74.70,74.76,73.15,74.09,154379
2-Oct-13,74.50,74.92,73.54,74.71,141364
1-Oct-13,73.01,74.73,72.64,74.73,208063
30-Sep-13,71.85,72.97,71.45,72.96,131657
27-Sep-13,72.66,72.87,71.72,72.24,219922
26-Sep-13,73.81,74.34,72.94,73.29,106085
25-Sep-13,73.49,74.16,73.24,73.61,135094
24-Sep-13,73.42,74.34,73.03,73.15,161461
23-Sep-13,73.36,74.10,72.79,73.20,143549
20-Sep-13,74.23,74.48,72.99,73.14,339641
19-Sep-13,73.01,74.94,73.01,73.97,278526
18-Sep-13,71.32,73.22,70.76,72.87,353536
17-Sep-13,70.37,71.68,70.11,71.13,217790
16-Sep-13,71.60,71.60,70.24,70.37,145683
13-Sep-13,71.42,71.86,70.61,70.70,244008
12-Sep-13,71.30,71.58,70.90,71.15,128516
11-Sep-13,72.02,72.44,71.02,71.33,133439
10-Sep-13,71.57,72.14,71.50,72.01,143822
9-Sep-13,71.50,72.02,70.84,71.46,242070
6-Sep-13,70.20,72.34,69.86,71.40,278103
5-Sep-13,70.00,70.55,69.55,69.80,86311
4-Sep-13,69.10,69.99,68.13,69.95,353665
3-Sep-13,68.81,69.17,67.91,68.69,202009
30-Aug-13,69.67,69.67,68.02,68.09,154433
29-Aug-13,69.03,69.78,69.00,69.50,139723
28-Aug-13,68.24,69.98,67.55,69.54,174052
27-Aug-13,67.33,68.20,66.81,68.03,225618
26-Aug-13,67.63,69.02,67.01,67.57,195095
23-Aug-13,67.32,67.60,66.57,67.52,155267
22-Aug-13,66.86,67.11,66.25,67.02,105581
21-Aug-13,66.72,67.19,66.44,66.58,91582
20-Aug-13,66.20,66.85,65.57,66.83,145880
19-Aug-13,66.35,66.39,65.56,66.15,292034
16-Aug-13,66.72,66.87,65.84,66.41,157698
15-Aug-13,66.54,67.25,66.30,66.93,156172
14-Aug-13,67.19,67.40,66.54,66.93,106386
13-Aug-13,67.18,67.39,66.30,67.08,143157
12-Aug-13,67.06,67.42,66.71,67.26,106947
9-Aug-13,67.00,67.76,66.42,67.33,192634
8-Aug-13,68.05,68.83,66.83,66.86,192649
7-Aug-13,68.67,68.78,67.64,67.73,156225
6-Aug-13,68.13,68.75,67.75,68.75,163847
5-Aug-13,69.19,69.54,67.95,68.20,312947
2-Aug-13,69.54,69.89,68.57,69.12,178982
1-Aug-13,69.00,69.97,67.77,69.55,263668
31-Jul-13,68.40,68.90,67.90,68.17,191190
30-Jul-13,68.57,68.72,67.92,68.28,144013
29-Jul-13,68.62,69.00,68.06,68.36,162165
26-Jul-13,68.55,68.90,68.17,68.60,206017
25-Jul-13,67.90,68.93,67.84,68.86,295372
24-Jul-13,69.05,69.05,67.93,68.50,254346
23-Jul-13,69.30,69.75,68.68,69.10,181285
22-Jul-13,68.07,69.17,67.82,68.97,127679
19-Jul-13,67.67,68.40,67.54,68.14,143611
18-Jul-13,68.03,68.73,67.53,67.71,132085
17-Jul-13,67.53,68.22,67.30,67.90,248695
16-Jul-13,68.45,68.76,66.59,67.28,303399
15-Jul-13,68.40,69.20,67.96,68.49,200212
12-Jul-13,68.13,68.77,67.96,68.48,144798
11-Jul-13,68.73,68.75,67.71,68.38,189623
10-Jul-13,68.21,68.58,67.60,67.90,193055
9-Jul-13,68.00,68.50,66.97,68.49,239353
8-Jul-13,67.37,67.90,66.93,67.90,187553
5-Jul-13,66.62,67.07,65.73,67.05,129208
3-Jul-13,66.00,66.08,65.57,66.06,124023
2-Jul-13,66.43,67.46,66.01,66.42,402710
1-Jul-13,64.62,66.59,64.40,66.54,236099
28-Jun-13,64.55,65.46,63.97,64.33,468559
27-Jun-13,64.44,64.87,64.28,64.67,165771
26-Jun-13,64.05,64.39,63.45,64.09,229188
25-Jun-13,62.61,63.81,62.02,63.41,253521
24-Jun-13,61.31,62.42,60.01,62.00,248267
21-Jun-13,62.94,63.37,60.99,61.68,653105
20-Jun-13,65.01,65.21,62.76,62.81,530731
19-Jun-13,66.77,67.21,65.84,65.86,205652
18-Jun-13,67.27,67.47,66.83,66.96,203574
17-Jun-13,66.67,67.60,66.58,67.21,348481
14-Jun-13,65.72,66.76,65.48,66.18,183663
13-Jun-13,65.05,66.06,64.89,65.96,163600
12-Jun-13,66.04,66.05,64.88,65.02,103687
11-Jun-13,65.68,66.17,64.98,65.52,187022
10-Jun-13,65.74,67.08,64.80,66.52,243672
7-Jun-13,64.44,65.57,64.37,65.42,124842
6-Jun-13,63.06,64.58,62.74,64.35,206103
5-Jun-13,63.49,63.90,62.91,63.24,194164
4-Jun-13,63.86,64.28,63.44,63.74,190091
3-Jun-13,64.58,64.98,63.31,63.97,445362
31-May-13,65.27,65.72,64.40,64.42,197268
30-May-13,66.86,66.89,64.86,65.73,338952
29-May-13,66.62,67.34,65.85,66.83,399576
28-May-13,67.90,68.52,67.47,67.65,186187
24-May-13,67.43,67.45,66.83,67.23,97604
23-May-13,66.24,67.76,66.05,67.72,144846
22-May-13,67.93,68.49,66.58,67.09,343882
21-May-13,67.61,68.50,67.48,67.91,377596
20-May-13,67.47,68.15,67.12,67.72,439818
17-May-13,67.81,68.36,67.41,67.82,357260
16-May-13,68.18,68.61,67.55,67.80,172811
15-May-13,68.03,68.63,67.92,68.37,190957
14-May-13,67.90,68.14,66.60,68.12,315416
13-May-13,68.90,68.93,68.11,68.19,139813
10-May-13,68.86,69.43,68.70,69.19,88971
9-May-13,68.80,69.38,68.32,68.61,179888
8-May-13,68.04,68.97,67.94,68.73,205670
7-May-13,68.08,69.06,67.74,68.12,161674
6-May-13,67.58,68.25,67.16,67.94,133464
3-May-13,66.73,67.57,65.37,67.27,199597
2-May-13,64.50,66.44,64.45,65.72,333163
1-May-13,65.70,65.75,64.10,64.38,340635
30-Apr-13,66.80,66.96,65.58,65.76,250519
29-Apr-13,65.97,67.02,65.97,66.63,143828
26-Apr-13,66.11,66.26,64.93,65.72,218891
25-Apr-13,67.48,67.48,66.00,66.11,218889
24-Apr-13,68.13,68.56,67.21,67.55,250398
23-Apr-13,67.88,68.54,67.68,68.13,197912
22-Apr-13,67.55,67.86,66.81,67.65,91445
19-Apr-13,66.17,67.59,66.10,67.47,157002
18-Apr-13,65.86,66.47,65.19,66.08,200505
17-Apr-13,66.54,66.59,64.52,65.88,296024
16-Apr-13,66.05,67.25,65.51,66.88,256054
15-Apr-13,67.71,67.79,65.56,65.61,268736
12-Apr-13,68.23,68.24,67.49,68.05,164262
11-Apr-13,67.74,68.64,67.67,68.27,159582
10-Apr-13,67.20,68.27,67.06,68.03,351017
9-Apr-13,68.79,69.21,68.45,68.57,207359
8-Apr-13,68.18,68.87,67.31,68.72,255749
5-Apr-13,66.29,67.43,65.50,67.19,169906
4-Apr-13,67.23,67.57,66.66,67.25,200688
3-Apr-13,68.80,69.00,66.42,67.23,496475
2-Apr-13,68.42,69.20,68.08,68.70,272284
1-Apr-13,68.20,68.30,67.27,67.98,410405
28-Mar-13,67.60,68.42,66.95,67.96,265005
27-Mar-13,66.35,67.30,66.31,67.29,375870
26-Mar-13,65.57,66.87,65.32,66.76,312137
25-Mar-13,65.84,66.32,65.07,65.20,250205
22-Mar-13,63.69,65.50,62.03,65.47,505084
21-Mar-13,63.49,64.48,63.41,63.69,378889
20-Mar-13,62.46,63.88,62.42,63.79,307824
19-Mar-13,62.62,62.75,61.47,62.23,183238
18-Mar-13,61.25,62.76,61.18,62.47,306942
15-Mar-13,61.86,62.02,61.45,61.89,295051
14-Mar-13,61.06,61.83,61.02,61.75,212834
13-Mar-13,61.42,61.79,60.84,60.90,244440
12-Mar-13,62.09,62.38,61.38,61.45,165601
11-Mar-13,61.44,62.29,61.31,62.21,255956
8-Mar-13,61.06,61.46,60.66,61.41,201720
7-Mar-13,61.06,61.38,60.40,60.95,183176
6-Mar-13,61.30,61.30,60.43,61.24,198844
5-Mar-13,61.41,61.66,60.55,61.35,400310
4-Mar-13,60.95,61.43,60.64,61.38,225351
1-Mar-13,60.68,61.34,60.16,61.05,289257
28-Feb-13,60.20,61.64,60.13,61.00,381662
27-Feb-13,58.97,60.81,58.87,60.28,644314
26-Feb-13,60.00,60.05,58.55,59.29,657625
25-Feb-13,61.22,61.69,60.07,60.11,512518
22-Feb-13,61.26,61.38,60.65,61.03,292135
21-Feb-13,61.89,61.89,60.17,60.89,393525
20-Feb-13,63.51,63.51,62.12,62.20,489617
19-Feb-13,62.74,63.89,62.25,63.77,427961
15-Feb-13,62.44,63.04,62.22,62.75,435050
14-Feb-13,61.38,62.54,61.38,62.07,250083
13-Feb-13,61.38,62.22,61.08,61.43,230945
12-Feb-13,61.02,61.95,60.77,61.29,283464
11-Feb-13,60.98,61.20,60.27,60.87,286766
8-Feb-13,60.71,61.35,60.48,60.91,251114
7-Feb-13,60.80,61.16,60.24,60.60,252871
6-Feb-13,60.25,60.76,60.15,60.76,249268
5-Feb-13,60.49,61.06,60.40,60.47,241728
4-Feb-13,60.62,60.95,60.22,60.34,205731
1-Feb-13,60.73,61.17,60.43,60.65,319336
31-Jan-13,60.38,60.87,60.17,60.36,259774
30-Jan-13,60.65,60.93,60.16,60.36,207538
29-Jan-13,60.15,60.84,59.74,60.81,193928
28-Jan-13,59.32,60.36,59.32,60.05,235602
25-Jan-13,59.34,59.70,58.90,59.30,261650
24-Jan-13,59.34,59.81,58.75,58.97,361766
23-Jan-13,60.00,60.14,59.20,59.52,386794
22-Jan-13,59.03,59.99,59.02,59.80,290100
18-Jan-13,58.85,59.22,58.80,59.20,225214
17-Jan-13,59.01,59.29,58.51,58.82,254057
16-Jan-13,57.57,58.73,57.46,58.49,249898
15-Jan-13,56.41,57.62,56.41,57.42,266674
14-Jan-13,56.72,56.99,56.23,56.58,336562
11-Jan-13,57.69,57.69,56.61,56.67,423252
10-Jan-13,58.28,58.83,57.60,57.97,363796
9-Jan-13,56.98,58.21,56.90,57.94,361989
8-Jan-13,56.36,57.16,56.24,56.85,372205
7-Jan-13,55.38,56.79,55.38,56.20,462847
4-Jan-13,55.53,57.12,55.34,55.34,489651
3-Jan-13,55.51,57.39,55.12,55.23,473910
2-Jan-13,54.68,56.61,54.31,55.11,587317
31-Dec-12,51.88,53.38,51.72,52.84,353334
28-Dec-12,50.88,51.86,50.80,51.55,226759
27-Dec-12,50.86,51.25,50.75,50.99,237449
26-Dec-12,51.45,51.63,50.38,50.68,271687
24-Dec-12,51.56,51.88,51.15,51.50,180026
21-Dec-12,50.95,51.68,50.29,51.53,596681
20-Dec-12,50.50,51.38,50.36,51.03,305486
19-Dec-12,50.60,50.66,50.07,50.35,198337
18-Dec-12,49.63,50.83,49.61,50.67,340346
17-Dec-12,49.16,49.85,49.04,49.61,303788
14-Dec-12,48.30,49.07,48.19,48.47,249529
13-Dec-12,48.59,48.84,48.19,48.46,215637
12-Dec-12,48.16,48.86,47.86,48.59,238556
11-Dec-12,48.19,48.26,47.39,48.13,222049
10-Dec-12,47.85,48.27,47.55,47.88,121643
7-Dec-12,48.93,49.06,47.56,47.77,242265
6-Dec-12,49.33,49.52,48.62,48.76,144686
5-Dec-12,50.00,50.06,49.28,49.46,132483
4-Dec-12,49.82,49.96,49.42,49.93,304831
3-Dec-12,50.26,50.54,49.67,49.92,112679
30-Nov-12,50.23,50.38,49.82,50.09,230492
29-Nov-12,49.81,50.19,49.59,50.09,123517
28-Nov-12,49.43,49.88,48.87,49.67,202003
27-Nov-12,49.98,50.18,49.50,49.51,195736
26-Nov-12,50.23,50.61,49.85,50.15,205313
23-Nov-12,50.09,50.47,49.75,50.41,86565
21-Nov-12,49.76,50.33,49.01,50.09,219479
20-Nov-12,50.18,50.55,49.51,49.86,143372
19-Nov-12,49.00,50.40,48.86,49.85,359042
16-Nov-12,46.55,48.79,46.50,48.63,586152
15-Nov-12,46.21,46.67,45.74,46.42,411760
14-Nov-12,47.09,47.86,45.99,46.17,330171
13-Nov-12,46.06,47.21,45.76,47.14,332636
12-Nov-12,47.62,47.62,45.77,46.13,518269
9-Nov-12,48.55,48.80,47.65,47.76,250357
8-Nov-12,49.40,49.45,48.81,48.90,218216
7-Nov-12,50.00,50.00,48.69,49.45,311028
6-Nov-12,50.00,51.20,49.39,50.91,284970
5-Nov-12,49.94,50.26,49.75,50.18,188026
2-Nov-12,51.30,51.45,49.68,49.78,201056
1-Nov-12,51.28,51.28,50.54,51.00,157886
31-Oct-12,51.01,51.18,50.60,50.93,171884
26-Oct-12,51.40,51.56,50.73,51.13,206909
25-Oct-12,50.57,51.39,50.48,51.13,367547
24-Oct-12,49.86,50.81,49.61,50.20,285468
23-Oct-12,47.96,49.90,47.96,49.47,297452
22-Oct-12,49.75,49.83,48.61,48.91,340058
19-Oct-12,50.52,50.78,49.40,49.58,210368
18-Oct-12,51.35,51.64,50.36,50.66,228212
17-Oct-12,51.25,51.99,51.22,51.82,151133
16-Oct-12,50.08,51.98,50.08,51.30,281887
15-Oct-12,50.00,50.18,49.56,49.94,203910
12-Oct-12,50.40,50.70,49.88,50.02,114339
11-Oct-12,50.75,50.92,50.45,50.47,140771
10-Oct-12,50.47,51.12,50.47,50.66,132710
9-Oct-12,50.23,50.84,49.98,50.41,144183
8-Oct-12,50.46,50.73,49.87,50.06,131148
5-Oct-12,50.96,51.22,50.45,50.58,138155
4-Oct-12,51.23,51.36,50.64,50.91,134898
3-Oct-12,50.80,51.23,50.57,50.97,264218
2-Oct-12,51.28,51.48,50.17,50.59,205479
1-Oct-12,50.50,51.09,50.28,51.09,232872
28-Sep-12,50.53,50.98,50.29,50.34,227245
27-Sep-12,51.12,51.43,50.30,50.72,252802
26-Sep-12,50.26,50.93,49.84,50.80,289197
25-Sep-12,50.46,50.96,50.12,50.21,274712
24-Sep-12,50.61,50.82,50.26,50.51,99089
21-Sep-12,50.47,51.30,50.33,50.81,324600
20-Sep-12,49.78,50.26,49.15,50.00,177829
19-Sep-12,49.40,50.29,49.15,50.01,265830
18-Sep-12,48.98,49.48,48.65,49.40,118862
17-Sep-12,49.15,49.46,48.76,49.10,124148
14-Sep-12,48.64,49.45,48.35,49.17,291437
13-Sep-12,47.60,48.61,47.43,48.34,315862
12-Sep-12,47.56,47.78,47.27,47.67,210332
11-Sep-12,47.07,47.49,46.90,47.42,269737
10-Sep-12,46.53,47.17,46.53,46.85,189472
7-Sep-12,46.20,46.74,46.05,46.74,216824
6-Sep-12,45.77,46.19,45.62,46.18,197293
5-Sep-12,45.30,45.63,45.12,45.42,178079
4-Sep-12,45.16,45.51,44.94,45.51,176410
31-Aug-12,45.47,45.49,44.81,45.27,160588
30-Aug-12,45.28,45.61,45.09,45.12,151118
29-Aug-12,45.46,45.70,45.27,45.50,186612
28-Aug-12,45.39,45.63,45.01,45.49,155595
27-Aug-12,44.81,45.52,44.63,45.38,260446
24-Aug-12,44.37,44.90,44.12,44.79,235215
23-Aug-12,44.42,44.70,44.18,44.61,229150
22-Aug-12,44.28,44.87,43.76,44.76,278509
21-Aug-12,44.18,44.45,44.04,44.18,179484
20-Aug-12,44.07,44.37,43.78,44.18,185290
17-Aug-12,43.83,44.29,43.54,44.16,333207
16-Aug-12,43.28,44.33,42.70,44.20,307281
15-Aug-12,43.26,43.52,42.52,43.48,305051
14-Aug-12,43.73,43.77,43.07,43.17,216953
13-Aug-12,44.02,44.41,43.25,43.47,324838
10-Aug-12,43.86,44.61,43.39,44.26,339478
9-Aug-12,44.61,45.13,44.22,44.70,187943
8-Aug-12,44.26,44.86,44.04,44.49,211109
7-Aug-12,44.68,45.18,44.50,44.55,293894
6-Aug-12,43.95,47.43,42.58,44.54,155052
3-Aug-12,44.62,44.71,43.99,44.01,240881
2-Aug-12,43.92,44.51,43.36,43.85,204546
1-Aug-12,44.29,45.07,43.85,44.26,289998
31-Jul-12,44.20,44.72,43.72,44.05,157357
30-Jul-12,44.49,44.55,43.94,44.20,219103
27-Jul-12,44.06,44.80,43.75,44.51,165433
26-Jul-12,44.49,44.53,43.43,43.86,211330
25-Jul-12,44.04,44.07,43.45,43.88,148022
24-Jul-12,44.25,44.26,43.39,43.83,169175
23-Jul-12,44.38,44.64,43.95,43.99,131282
20-Jul-12,44.94,45.38,44.75,44.83,279355
19-Jul-12,45.24,45.58,44.85,45.12,207639
18-Jul-12,45.75,46.03,45.37,45.50,166955
17-Jul-12,46.11,46.20,45.31,45.80,521291
16-Jul-12,44.74,45.74,44.71,45.73,251775
13-Jul-12,43.13,45.10,43.07,45.00,401457
12-Jul-12,42.42,43.85,42.33,43.06,477461
11-Jul-12,42.49,42.89,42.09,42.74,373444
10-Jul-12,42.69,42.84,41.46,42.43,318384
9-Jul-12,42.27,44.68,42.10,42.71,293361
6-Jul-12,42.66,42.77,42.28,42.37,246586
5-Jul-12,42.85,43.34,42.31,42.99,308657
3-Jul-12,42.37,43.05,42.27,42.90,287135
2-Jul-12,42.57,42.59,41.82,42.23,280847
29-Jun-12,42.85,42.97,42.50,42.70,253742
28-Jun-12,41.90,42.29,41.25,42.00,179098
27-Jun-12,41.32,42.37,41.32,42.35,199653
26-Jun-12,40.54,41.50,40.38,41.37,292323
25-Jun-12,41.24,41.37,39.89,40.54,267332
22-Jun-12,42.47,42.51,41.08,41.87,1965105
21-Jun-12,44.17,44.17,41.52,42.32,357599
20-Jun-12,44.44,45.21,44.03,44.18,210986
19-Jun-12,43.42,44.79,43.24,44.55,297288
18-Jun-12,42.35,43.81,42.23,43.17,346545
15-Jun-12,43.30,43.52,41.64,42.63,566606
14-Jun-12,42.99,43.63,42.99,43.30,318044
13-Jun-12,43.39,43.58,42.97,43.15,253711
12-Jun-12,43.29,43.51,42.88,43.33,358001
11-Jun-12,43.76,43.97,43.05,43.06,344937
8-Jun-12,43.76,44.06,43.27,43.45,219493
7-Jun-12,44.64,44.65,43.96,44.07,174178
6-Jun-12,43.02,44.16,42.68,44.11,333442
5-Jun-12,41.29,42.78,40.63,42.56,673615
4-Jun-12,42.76,42.94,41.01,41.55,549675
1-Jun-12,43.57,43.63,42.48,42.53,282745
31-May-12,45.11,45.17,43.85,44.34,449596
30-May-12,45.30,45.81,44.85,45.02,316338
29-May-12,44.48,45.84,44.42,45.75,279233
25-May-12,43.57,44.60,43.35,44.13,304024
24-May-12,43.98,44.19,42.63,43.60,207944
23-May-12,43.77,44.22,43.00,44.00,260687
22-May-12,43.74,44.77,43.70,43.95,289839
21-May-12,43.53,44.49,43.35,43.99,278047
18-May-12,44.23,44.79,43.37,43.49,250642
17-May-12,45.29,45.77,44.24,44.31,207708
16-May-12,44.85,46.25,44.53,45.33,294072
15-May-12,45.79,46.02,44.08,44.95,577216
14-May-12,47.52,47.70,46.06,46.24,180753
11-May-12,48.11,48.20,47.60,47.92,168402
10-May-12,47.99,48.62,47.79,48.27,184353
9-May-12,47.98,48.12,47.36,47.92,284626
8-May-12,48.07,48.74,47.68,48.61,127983
7-May-12,48.31,48.52,47.04,48.29,195017
4-May-12,48.74,49.45,47.53,48.31,277729
3-May-12,49.33,49.91,48.20,48.30,355056
2-May-12,48.19,49.23,47.98,49.21,214872
1-May-12,48.82,49.39,48.13,48.48,272430
30-Apr-12,47.68,48.13,47.62,48.09,141386
27-Apr-12,47.70,48.08,47.63,47.67,198204
26-Apr-12,47.08,47.69,47.08,47.51,125024
25-Apr-12,47.53,47.81,46.94,47.29,136527
24-Apr-12,46.85,47.70,46.68,47.22,195876
23-Apr-12,45.75,47.15,45.18,46.87,276714
20-Apr-12,46.50,46.73,46.15,46.20,229342
19-Apr-12,45.13,46.16,44.81,45.98,160063
18-Apr-12,45.19,45.69,44.89,45.39,215130
17-Apr-12,45.24,45.69,45.20,45.22,159146
16-Apr-12,45.35,45.44,44.97,45.04,119209
13-Apr-12,45.18,45.18,44.75,45.00,77299
12-Apr-12,45.10,45.85,44.84,45.23,151075
11-Apr-12,44.26,44.68,43.97,44.68,130411
10-Apr-12,44.91,45.00,43.50,44.00,223117
9-Apr-12,45.09,45.34,44.52,45.06,98040
5-Apr-12,45.24,45.99,45.24,45.90,130222
4-Apr-12,45.24,45.53,45.09,45.49,286261
3-Apr-12,45.29,45.66,44.94,45.58,133324
2-Apr-12,45.43,45.92,45.00,45.43,196777
30-Mar-12,44.99,45.70,44.70,45.45,95359
29-Mar-12,44.53,44.91,43.90,44.73,177447
28-Mar-12,45.43,45.59,44.29,44.84,157091
27-Mar-12,45.74,46.26,45.25,45.49,174996
26-Mar-12,45.63,46.04,45.34,45.71,223386
23-Mar-12,44.94,45.53,44.53,45.41,131162
22-Mar-12,45.06,45.12,44.32,44.84,144313
21-Mar-12,45.37,45.73,44.97,45.41,122496
20-Mar-12,45.83,46.02,44.36,45.37,273291
19-Mar-12,45.29,46.63,45.00,46.16,239916
16-Mar-12,44.82,45.47,44.55,44.81,275124
15-Mar-12,44.32,44.88,43.77,44.78,237540
14-Mar-12,45.76,45.76,44.24,44.38,220656
13-Mar-12,45.24,45.73,44.27,45.71,203708
12-Mar-12,44.80,45.05,44.35,45.04,168230
9-Mar-12,44.93,45.06,44.53,44.81,215757
8-Mar-12,44.88,45.31,44.64,44.78,170860
7-Mar-12,43.94,45.06,43.69,44.88,236201
6-Mar-12,44.16,44.48,43.94,44.21,368420
5-Mar-12,44.20,44.80,44.05,44.78,293835
2-Mar-12,44.40,44.48,43.97,44.20,197463
1-Mar-12,44.50,44.99,43.80,44.38,394165
29-Feb-12,45.21,45.50,43.83,44.43,585710
28-Feb-12,46.90,47.18,45.22,45.76,351841
27-Feb-12,45.80,48.28,45.80,46.91,484208
24-Feb-12,44.95,46.20,44.85,45.95,242390
23-Feb-12,44.30,45.76,44.30,44.85,242006
22-Feb-12,43.81,44.06,43.17,43.97,135125
21-Feb-12,43.62,44.59,43.41,43.94,116919
17-Feb-12,43.50,43.88,43.17,43.49,107763
16-Feb-12,42.72,43.48,42.72,43.20,151964
15-Feb-12,43.40,43.40,41.97,42.74,190215
14-Feb-12,42.16,43.42,41.41,43.20,138796
13-Feb-12,43.41,43.41,42.22,43.23,118997
10-Feb-12,43.10,43.30,43.00,43.23,102157
9-Feb-12,43.99,44.18,43.43,43.52,107157
8-Feb-12,43.91,44.16,43.42,43.74,76218
7-Feb-12,43.50,43.99,43.29,43.81,261800
6-Feb-12,43.45,43.71,43.27,43.48,82541
3-Feb-12,43.36,43.60,43.00,43.59,174620
2-Feb-12,42.48,43.04,42.16,42.88,270287
1-Feb-12,41.54,42.42,41.51,42.35,184230
31-Jan-12,41.61,41.68,41.05,41.44,214166
30-Jan-12,41.05,41.69,40.79,41.25,184800
27-Jan-12,41.48,42.54,41.25,41.32,192245
26-Jan-12,41.45,41.55,40.82,41.40,127140
25-Jan-12,40.73,41.31,40.34,41.06,147610
24-Jan-12,41.21,41.30,40.62,40.80,121995
23-Jan-12,41.48,41.78,41.16,41.23,71756
20-Jan-12,41.69,41.77,41.16,41.37,56276
19-Jan-12,41.68,42.12,41.49,41.65,123286
18-Jan-12,41.20,42.11,41.09,41.98,209776
17-Jan-12,40.85,41.68,40.58,41.27,267498
13-Jan-12,39.34,40.72,39.34,40.48,178606
12-Jan-12,39.80,40.27,39.40,39.62,168772
11-Jan-12,40.06,40.09,39.37,39.79,180369
10-Jan-12,40.03,40.48,39.59,39.97,344627
9-Jan-12,40.42,40.42,38.70,39.77,431680
6-Jan-12,41.31,41.31,40.68,40.79,270097
5-Jan-12,40.92,41.26,40.62,41.12,260008
4-Jan-12,41.04,41.07,40.05,41.00,248084
3-Jan-12,41.30,41.75,40.67,41.14,237753
30-Dec-11,40.61,40.96,40.26,40.69,118526
29-Dec-11,40.39,41.12,39.98,40.52,160053
28-Dec-11,41.12,41.12,40.02,40.07,85838
27-Dec-11,40.17,41.10,40.00,41.05,112078
23-Dec-11,39.68,40.11,39.34,40.10,144811
22-Dec-11,40.29,40.74,39.48,39.49,149326
21-Dec-11,39.01,40.21,38.69,40.02,195307
20-Dec-11,39.11,39.94,38.72,39.01,276383
19-Dec-11,39.18,39.32,38.16,38.57,277709
16-Dec-11,38.07,39.43,38.05,39.36,538166
15-Dec-11,38.34,38.60,37.25,37.77,280192
14-Dec-11,38.58,38.58,37.45,37.95,208449
13-Dec-11,38.78,40.29,38.53,38.70,307708
12-Dec-11,38.41,38.59,37.58,38.55,132439
9-Dec-11,37.71,38.88,37.71,38.66,214659
8-Dec-11,38.37,38.37,37.33,37.50,183508
7-Dec-11,38.40,38.86,37.92,38.59,165668
6-Dec-11,38.41,38.71,38.22,38.41,210251
5-Dec-11,37.94,38.84,37.53,38.22,557038
2-Dec-11,36.24,37.72,36.12,37.37,1310748
1-Dec-11,34.68,35.43,34.37,35.23,214344
30-Nov-11,34.21,34.65,34.12,34.57,274445
29-Nov-11,33.48,33.66,33.00,33.37,217819
28-Nov-11,33.49,33.59,32.71,33.30,212021
25-Nov-11,32.71,33.62,32.71,32.77,37013
23-Nov-11,32.94,33.01,32.51,32.81,149843
22-Nov-11,33.08,33.53,32.89,33.17,165770
21-Nov-11,33.01,33.18,32.34,33.01,210512
18-Nov-11,33.58,34.02,33.25,33.34,214253
17-Nov-11,34.09,34.09,32.95,33.56,117403
16-Nov-11,34.13,34.63,33.90,34.00,109395
15-Nov-11,34.06,34.27,33.77,34.26,174764
14-Nov-11,33.76,34.44,33.51,34.12,96938
11-Nov-11,34.51,34.95,33.73,33.90,111951
10-Nov-11,33.56,34.18,32.93,34.15,148253
9-Nov-11,34.16,34.16,32.92,33.09,146621
8-Nov-11,34.50,34.94,33.76,34.84,228470
7-Nov-11,34.50,34.50,33.37,34.26,133489
4-Nov-11,33.93,34.31,33.26,34.21,83841
3-Nov-11,33.73,34.23,33.23,33.98,119429
2-Nov-11,33.78,34.06,33.04,33.29,163107
1-Nov-11,32.84,33.37,32.58,33.24,135631
31-Oct-11,33.82,33.99,33.24,33.74,98073
28-Oct-11,34.33,34.42,33.88,34.08,103210
27-Oct-11,33.74,36.77,33.30,34.65,322682
26-Oct-11,33.03,33.30,32.29,32.75,135252
25-Oct-11,32.96,33.08,32.39,32.54,186888
24-Oct-11,33.11,33.38,32.87,33.02,201510
21-Oct-11,33.05,33.05,32.49,32.90,223058
20-Oct-11,33.29,33.29,32.07,32.48,290707
19-Oct-11,32.44,33.74,32.24,33.04,192526
18-Oct-11,32.35,33.00,31.91,32.63,304029
17-Oct-11,32.14,32.78,32.05,32.16,277651
14-Oct-11,32.03,32.24,31.72,32.19,202241
13-Oct-11,31.85,32.00,31.46,31.67,115740
12-Oct-11,31.87,32.20,31.67,32.12,167569
11-Oct-11,31.16,32.37,30.91,31.49,184677
10-Oct-11,30.68,31.35,30.57,31.31,134481
7-Oct-11,29.92,30.74,29.77,30.07,249594
6-Oct-11,29.76,30.00,29.36,29.87,264045
5-Oct-11,28.97,29.79,28.43,29.73,84497
4-Oct-11,27.89,28.93,26.76,28.83,237355
3-Oct-11,29.69,30.06,28.08,28.11,172204
30-Sep-11,29.81,30.14,29.66,29.75,211331
29-Sep-11,30.80,30.88,29.32,30.23,220764
28-Sep-11,30.79,30.90,30.00,30.40,134262
27-Sep-11,30.94,31.07,30.40,30.67,157521
26-Sep-11,30.63,30.63,29.85,30.24,147024
23-Sep-11,30.03,30.30,29.41,30.29,104541
22-Sep-11,30.00,30.73,29.50,30.14,215681
21-Sep-11,31.58,32.16,30.64,30.83,225402
20-Sep-11,32.10,32.54,31.38,31.49,196242
19-Sep-11,31.02,32.09,30.65,31.84,225394
16-Sep-11,31.73,31.77,30.57,31.58,367375
15-Sep-11,31.88,31.96,31.29,31.49,75572
14-Sep-11,31.75,31.95,31.20,31.56,122956
13-Sep-11,30.66,31.58,30.60,31.51,142824
12-Sep-11,29.70,30.57,29.21,30.51,161673
9-Sep-11,30.53,30.53,29.95,30.16,177605
8-Sep-11,30.51,31.04,30.51,30.80,114660
7-Sep-11,30.89,30.91,30.38,30.60,292803
6-Sep-11,29.55,30.57,29.27,30.55,316131
2-Sep-11,29.23,30.63,29.21,30.60,366044
1-Sep-11,29.96,30.76,29.52,30.14,304596
31-Aug-11,29.82,30.58,29.73,29.84,456579
30-Aug-11,29.32,29.92,29.19,29.54,815380
29-Aug-11,29.51,30.00,29.02,29.42,580096
26-Aug-11,28.79,29.64,28.51,29.12,353925
25-Aug-11,29.42,29.46,28.79,28.93,239931
24-Aug-11,29.14,29.98,28.88,29.15,364739
23-Aug-11,29.19,29.19,28.06,29.11,570359
22-Aug-11,31.24,31.24,28.48,28.84,422346
19-Aug-11,29.93,30.54,29.75,30.20,416102
18-Aug-11,31.07,31.20,29.56,30.35,282944
17-Aug-11,32.11,32.45,31.61,31.92,95749
16-Aug-11,32.30,32.36,31.59,31.82,289687
15-Aug-11,32.50,33.68,32.16,32.69,293686
12-Aug-11,32.63,33.31,31.20,31.98,217798
11-Aug-11,30.69,33.11,30.46,32.54,330125
10-Aug-11,29.79,32.13,29.39,30.44,274520
9-Aug-11,27.24,30.19,26.01,30.12,680235
8-Aug-11,30.25,33.50,26.01,26.68,752701
5-Aug-11,31.47,31.57,29.75,30.73,316293
4-Aug-11,33.15,33.41,31.01,31.23,281625
3-Aug-11,33.78,33.86,33.02,33.50,234209
2-Aug-11,34.31,34.41,33.64,33.64,109438
1-Aug-11,34.19,34.91,33.48,34.55,175720
29-Jul-11,33.97,34.11,33.44,33.76,102284
28-Jul-11,33.55,34.58,33.55,34.36,124380
27-Jul-11,33.48,33.85,33.22,33.55,139070
26-Jul-11,33.70,33.79,33.01,33.50,169174
25-Jul-11,33.98,34.73,33.55,33.79,211725
22-Jul-11,33.96,34.65,33.52,34.19,143844
21-Jul-11,33.73,34.90,33.53,33.91,148267
20-Jul-11,34.04,34.04,33.39,33.56,136391
19-Jul-11,34.00,34.19,33.12,34.02,108831
18-Jul-11,33.84,34.18,33.60,34.03,180794
15-Jul-11,33.51,34.29,33.19,33.94,93640
14-Jul-11,33.24,33.76,33.15,33.45,114843
13-Jul-11,33.20,33.41,33.06,33.24,160806
12-Jul-11,33.33,33.63,32.96,33.24,205901
11-Jul-11,33.95,34.23,33.44,33.48,145189
8-Jul-11,33.50,34.35,33.44,34.23,228572
7-Jul-11,33.50,34.00,33.42,33.79,103665
6-Jul-11,32.90,33.04,32.52,32.91,121792
5-Jul-11,33.07,33.37,32.70,32.95,122153
1-Jul-11,33.32,33.32,32.10,33.03,164383
30-Jun-11,33.45,33.88,33.12,33.46,119724
29-Jun-11,32.94,33.50,32.55,33.34,124633
28-Jun-11,31.76,32.78,31.54,32.70,218421
27-Jun-11,31.35,31.90,31.25,31.58,81702
24-Jun-11,31.25,31.67,30.65,31.49,460025
23-Jun-11,30.34,31.47,29.44,31.34,192823
22-Jun-11,30.91,31.57,30.57,30.85,215445
21-Jun-11,30.88,31.42,30.64,31.05,182095
20-Jun-11,30.74,30.96,30.23,30.71,231503
17-Jun-11,30.86,30.93,30.30,30.57,313777
16-Jun-11,31.03,31.26,30.51,30.66,227693
15-Jun-11,31.79,32.23,30.83,31.30,227249
14-Jun-11,32.63,32.72,32.18,32.29,122348
13-Jun-11,33.42,33.44,32.14,32.23,254008
10-Jun-11,33.48,33.67,33.12,33.35,136403
9-Jun-11,32.78,33.89,32.71,33.59,110779
8-Jun-11,32.39,33.00,31.73,32.67,381265
7-Jun-11,32.86,32.89,32.30,32.37,126122
6-Jun-11,33.24,33.42,32.56,32.59,159141
3-Jun-11,32.81,33.50,32.69,33.20,124159
2-Jun-11,34.09,34.21,33.06,33.20,253982
1-Jun-11,34.74,34.97,33.71,34.19,187160
31-May-11,34.64,35.47,34.30,34.92,1079969
27-May-11,33.61,34.59,33.56,34.40,173110
26-May-11,33.17,33.72,32.24,33.41,158132
25-May-11,32.31,33.74,32.31,33.20,204617
24-May-11,32.26,32.68,31.54,32.46,252561
23-May-11,31.83,32.60,31.52,32.18,202164
20-May-11,32.31,32.77,31.97,32.04,253268
19-May-11,32.23,32.59,32.09,32.33,242838
18-May-11,32.15,32.56,31.89,32.07,208377
17-May-11,32.41,32.81,31.78,32.01,405891
16-May-11,32.90,33.30,32.29,32.50,225469
13-May-11,33.11,33.41,32.62,33.15,202252
12-May-11,33.41,33.59,32.50,33.16,191483
11-May-11,34.39,34.39,33.31,33.60,434972
10-May-11,34.63,35.16,33.56,34.45,336339
9-May-11,33.85,35.01,33.60,34.83,197290
6-May-11,33.21,34.21,32.74,33.96,467029
5-May-11,33.60,33.84,32.59,33.09,379245
4-May-11,34.34,34.53,33.12,33.75,161325
3-May-11,34.22,34.69,33.85,34.34,227685
2-May-11,35.16,35.22,34.05,34.34,245388
29-Apr-11,35.78,35.80,34.89,35.02,339319
28-Apr-11,35.79,36.04,35.01,35.75,302933
27-Apr-11,35.58,36.02,35.39,35.98,189398
26-Apr-11,34.40,35.71,33.95,35.52,384192
25-Apr-11,34.50,34.96,33.68,34.54,293016
21-Apr-11,34.85,35.20,34.15,34.64,320539
20-Apr-11,32.71,35.31,32.70,35.00,4308266
19-Apr-11,33.58,33.58,32.59,32.73,404240
18-Apr-11,33.58,33.83,33.18,33.74,283051
15-Apr-11,33.19,33.82,33.18,33.77,310660
14-Apr-11,33.22,33.58,32.01,33.27,288315
13-Apr-11,32.74,33.74,32.74,33.53,204457
12-Apr-11,32.96,33.27,31.68,32.78,201798
11-Apr-11,33.39,33.57,32.80,33.06,87753
8-Apr-11,33.81,33.81,33.16,33.49,92968
7-Apr-11,33.68,33.68,33.30,33.60,85789
6-Apr-11,34.06,34.51,33.44,33.77,141053
5-Apr-11,33.81,34.14,32.95,33.95,263289
4-Apr-11,36.50,36.51,33.56,33.88,687701
1-Apr-11,36.18,36.73,35.70,36.04,389965
31-Mar-11,35.44,36.34,34.91,36.24,1790802
30-Mar-11,35.49,35.93,35.07,35.50,171182
29-Mar-11,35.18,35.70,34.94,35.36,90826
28-Mar-11,35.35,35.42,34.80,35.18,186865
25-Mar-11,34.83,35.64,34.81,35.35,108273
24-Mar-11,34.97,35.00,34.20,34.75,163933
23-Mar-11,36.70,36.70,34.45,34.96,362331
22-Mar-11,35.61,36.43,34.85,36.25,111709
21-Mar-11,34.92,35.72,34.35,35.49,117252
18-Mar-11,33.50,35.49,33.26,34.82,1085051
17-Mar-11,32.50,33.38,32.42,33.35,236638
16-Mar-11,32.15,33.55,31.82,32.20,474435
15-Mar-11,31.62,32.46,31.35,31.94,535532
14-Mar-11,32.24,32.57,31.87,32.05,317849
11-Mar-11,32.01,32.69,30.80,32.35,496397
10-Mar-11,32.98,33.06,31.71,32.20,415502
9-Mar-11,33.64,33.89,32.70,33.17,273514
8-Mar-11,33.78,33.88,33.31,33.58,249956
7-Mar-11,33.18,33.99,33.18,33.95,203992
4-Mar-11,32.72,33.64,32.64,33.22,75994
3-Mar-11,33.13,33.41,32.70,32.73,164367
2-Mar-11,32.60,33.44,32.30,32.98,170838
1-Mar-11,32.98,33.25,31.94,32.60,103265
28-Feb-11,32.71,32.90,32.35,32.77,36513
25-Feb-11,32.00,32.71,32.00,32.60,101014
24-Feb-11,32.23,32.24,31.64,32.04,147049
23-Feb-11,32.00,32.10,31.51,31.94,72057
22-Feb-11,32.53,32.64,31.40,31.91,172230
18-Feb-11,32.21,32.95,32.09,32.34,159528
17-Feb-11,32.25,32.29,31.61,32.10,91443
16-Feb-11,32.26,32.40,32.00,32.22,220691
15-Feb-11,31.60,31.92,31.50,31.88,201478
14-Feb-11,31.34,32.22,31.27,31.44,219834
11-Feb-11,31.16,31.16,30.72,31.02,78212
10-Feb-11,31.25,31.73,30.53,30.98,74033
9-Feb-11,31.39,31.50,31.16,31.36,45045
8-Feb-11,30.04,31.58,29.95,31.20,270523
7-Feb-11,30.19,30.74,30.00,30.00,97173
4-Feb-11,29.57,30.07,29.38,30.02,131469
3-Feb-11,30.35,30.56,29.25,29.38,287890
2-Feb-11,30.44,31.42,30.04,30.16,88547
1-Feb-11,31.17,31.17,30.12,30.65,85409
31-Jan-11,31.54,31.71,30.25,30.73,202815
28-Jan-11,30.21,30.76,28.98,30.58,256319
27-Jan-11,30.24,30.60,30.00,30.39,37220
26-Jan-11,30.23,30.81,29.60,30.40,125111
25-Jan-11,30.04,30.98,29.86,30.19,203991
24-Jan-11,29.40,30.23,28.51,30.10,129309
21-Jan-11,29.50,29.58,28.21,29.41,118068
20-Jan-11,28.89,30.04,27.27,29.41,354545
19-Jan-11,29.69,29.85,28.80,28.87,227618
18-Jan-11,28.60,30.25,28.42,29.34,691928
14-Jan-11,28.09,28.47,27.96,28.31,249001
13-Jan-11,28.11,28.46,27.89,28.03,130113
12-Jan-11,27.68,28.48,27.43,28.35,172245
11-Jan-11,27.43,27.64,27.12,27.59,188850
10-Jan-11,27.50,27.97,27.07,27.40,121080
7-Jan-11,27.90,28.13,27.41,27.80,288239
6-Jan-11,27.28,28.16,26.95,27.99,116065
5-Jan-11,27.01,27.37,26.87,27.34,61742
4-Jan-11,27.00,27.19,26.63,27.16,232239
3-Jan-11,26.92,27.04,26.51,27.00,253458
31-Dec-10,27.00,27.05,26.79,26.81,49788
30-Dec-10,27.01,27.19,26.85,27.03,297918
29-Dec-10,26.54,27.15,26.50,27.15,75198
28-Dec-10,26.45,26.85,26.40,26.80,203969
27-Dec-10,26.75,26.75,26.43,26.51,96944
23-Dec-10,26.73,26.86,26.70,26.86,135148
22-Dec-10,26.85,26.88,26.20,26.88,157421
21-Dec-10,27.63,27.70,26.60,27.05,139124
20-Dec-10,27.21,28.40,27.19,27.53,149219
17-Dec-10,26.99,27.55,26.87,27.31,218842
16-Dec-10,25.96,26.93,25.95,26.81,133002
15-Dec-10,26.56,27.14,25.48,26.06,396053
14-Dec-10,26.40,26.60,25.79,26.54,250497
13-Dec-10,25.50,26.69,25.49,26.52,397730
10-Dec-10,25.37,25.79,25.29,25.64,436875
9-Dec-10,25.35,26.25,25.34,25.57,877757
8-Dec-10,24.51,26.00,24.40,25.65,865113
7-Dec-10,24.10,25.20,23.50,24.70,10577595
