﻿Date,Open,High,Low,Close,Volume
20-Jun-17,36.09,36.58,35.69,36.01,2467245
19-Jun-17,37.07,37.39,35.96,36.10,3865196
16-Jun-17,37.77,37.98,37.34,37.91,3408676
15-Jun-17,38.26,38.37,37.40,37.91,1400041
14-Jun-17,38.92,39.39,38.44,38.57,2316519
13-Jun-17,37.95,38.81,37.88,38.78,2560325
12-Jun-17,37.42,38.40,37.34,37.81,2491114
9-Jun-17,37.31,37.79,37.05,37.48,2790861
8-Jun-17,36.97,37.65,36.96,37.39,2049526
7-Jun-17,38.20,38.50,36.85,37.28,3250686
6-Jun-17,38.93,38.93,38.01,38.07,2281971
5-Jun-17,39.13,39.29,38.77,39.04,1524912
2-Jun-17,40.00,40.11,38.76,39.13,2283163
1-Jun-17,38.65,40.14,38.65,39.97,3159138
31-May-17,39.25,39.32,38.23,38.51,3300988
30-May-17,38.91,39.23,38.66,39.06,3327195
26-May-17,39.25,39.68,38.32,39.07,4865381
25-May-17,40.81,40.83,39.79,39.82,3494583
24-May-17,40.77,40.90,39.93,40.80,4190519
23-May-17,42.93,42.93,40.67,40.87,5647560
22-May-17,44.30,44.56,42.46,42.97,4673478
19-May-17,44.74,44.74,43.89,44.08,2076659
18-May-17,43.97,44.93,43.66,44.61,1837550
17-May-17,45.00,45.53,43.76,43.97,4214357
16-May-17,47.04,47.04,45.52,45.62,2624565
15-May-17,46.40,47.08,46.20,46.67,2019295
12-May-17,46.09,46.68,45.57,46.25,2167862
11-May-17,47.36,47.52,45.51,45.63,4102770
10-May-17,49.80,50.95,46.70,47.99,8630400
9-May-17,47.10,48.10,46.82,46.92,4388598
8-May-17,46.18,47.38,46.03,47.03,3887262
5-May-17,45.86,46.45,45.73,46.17,1870504
4-May-17,45.12,45.95,45.02,45.89,2878432
3-May-17,46.13,46.23,44.85,45.11,2751495
2-May-17,45.07,46.12,44.74,46.10,2638755
1-May-17,45.03,45.50,44.77,44.96,2079307
28-Apr-17,45.20,45.20,43.66,45.01,3961697
27-Apr-17,44.51,45.31,44.11,45.10,3647898
26-Apr-17,43.70,44.86,43.68,44.50,2920941
25-Apr-17,43.48,43.94,42.77,43.65,1923598
24-Apr-17,43.10,43.80,42.82,43.34,2487250
21-Apr-17,42.68,43.06,42.32,42.65,5112946
20-Apr-17,42.28,43.00,42.15,42.71,1928027
19-Apr-17,42.18,42.89,41.96,42.03,2355633
18-Apr-17,41.49,42.10,41.14,41.97,1922392
17-Apr-17,41.72,41.80,40.89,41.77,3688579
13-Apr-17,41.50,41.76,41.16,41.36,1830721
12-Apr-17,41.45,42.10,41.20,41.50,1875367
11-Apr-17,42.08,42.14,41.12,41.45,3849454
10-Apr-17,42.20,42.63,42.03,42.24,3605844
7-Apr-17,42.29,42.59,42.04,42.06,3169454
6-Apr-17,41.94,42.75,41.75,42.30,4144477
5-Apr-17,41.78,42.33,41.35,41.76,4075598
4-Apr-17,42.54,42.76,41.58,41.64,2186776
3-Apr-17,43.26,43.44,42.16,42.77,3074130
31-Mar-17,43.38,43.62,43.02,43.16,2435647
30-Mar-17,43.50,43.58,42.80,43.31,2848970
29-Mar-17,43.10,43.77,42.83,43.65,1706971
28-Mar-17,42.52,43.42,42.50,43.13,1793289
27-Mar-17,42.33,42.94,42.00,42.66,1548733
24-Mar-17,42.73,43.02,42.45,42.69,2440526
23-Mar-17,41.35,42.70,40.92,42.52,5023091
22-Mar-17,41.80,41.80,40.87,41.40,2869119
21-Mar-17,43.26,43.36,41.64,41.71,2304181
20-Mar-17,43.19,43.40,42.82,43.00,1307757
17-Mar-17,43.23,43.39,42.88,43.27,2213001
16-Mar-17,42.82,43.18,42.61,43.07,1522658
15-Mar-17,42.44,42.88,42.00,42.71,1910256
14-Mar-17,43.40,43.50,41.94,42.26,1819716
13-Mar-17,43.62,44.00,43.15,43.51,1482343
10-Mar-17,43.72,44.35,43.28,43.60,2706853
9-Mar-17,43.94,44.60,43.12,43.59,4063861
8-Mar-17,41.23,44.06,41.20,43.83,7547721
7-Mar-17,41.35,41.92,41.10,41.31,3401785
6-Mar-17,41.50,41.68,40.81,41.60,3430341
3-Mar-17,40.94,41.78,40.81,41.74,3667698
2-Mar-17,40.85,41.53,40.45,40.82,3173973
1-Mar-17,41.79,41.90,40.74,41.47,3881821
28-Feb-17,42.18,42.25,41.15,41.47,3918310
27-Feb-17,42.01,43.20,41.81,42.81,5004487
24-Feb-17,43.15,43.36,42.00,42.62,4670239
23-Feb-17,46.12,46.20,43.21,43.46,6814868
22-Feb-17,45.84,46.16,44.96,45.55,4343788
21-Feb-17,47.25,47.31,46.77,46.84,2424593
17-Feb-17,46.97,47.65,46.32,47.06,5935715
16-Feb-17,49.00,50.36,46.84,46.92,12391044
15-Feb-17,52.33,53.29,52.20,52.70,6553366
14-Feb-17,51.50,52.46,50.72,52.19,3855261
13-Feb-17,52.02,52.20,51.33,51.39,2586323
10-Feb-17,52.70,52.90,51.82,52.00,2486631
9-Feb-17,52.12,52.90,52.04,52.51,2395161
8-Feb-17,51.96,52.32,51.45,51.89,1786303
7-Feb-17,52.03,52.40,51.50,51.96,1305017
6-Feb-17,52.50,52.87,51.63,51.96,1644297
3-Feb-17,52.40,52.96,52.06,52.61,960986
2-Feb-17,51.81,52.73,51.30,52.06,1044984
1-Feb-17,52.99,53.47,51.57,51.87,1800906
31-Jan-17,51.98,53.18,51.80,52.90,1405737
30-Jan-17,51.97,52.33,51.23,52.25,1145599
27-Jan-17,52.46,52.46,51.67,52.00,812887
26-Jan-17,52.73,52.84,52.10,52.18,772717
25-Jan-17,52.75,52.86,52.06,52.65,1892979
24-Jan-17,51.66,52.38,50.76,52.13,1412610
23-Jan-17,51.79,51.85,50.91,51.39,1550456
20-Jan-17,52.23,52.92,51.26,51.85,2137540
19-Jan-17,52.90,53.11,51.58,52.16,2097831
18-Jan-17,52.66,53.39,52.46,52.88,1289302
17-Jan-17,52.56,53.58,52.38,52.60,1926548
13-Jan-17,52.03,53.30,52.03,52.92,2254501
12-Jan-17,51.72,52.35,50.81,51.88,2499996
11-Jan-17,51.01,51.92,50.83,51.66,1560165
10-Jan-17,51.07,51.88,50.24,51.31,2572763
9-Jan-17,50.92,51.42,50.40,50.92,2646900
6-Jan-17,49.01,51.06,48.56,50.77,2940673
5-Jan-17,48.89,49.75,48.83,49.20,1734681
4-Jan-17,47.74,49.00,47.63,48.86,2011388
3-Jan-17,46.75,47.63,46.21,47.51,1913990
30-Dec-16,47.00,47.27,46.16,46.37,1533636
29-Dec-16,46.75,47.12,46.53,46.95,1622578
28-Dec-16,47.23,47.65,46.64,46.85,1368879
27-Dec-16,46.58,47.48,46.49,47.29,1416035
23-Dec-16,46.47,46.69,46.17,46.54,1222638
22-Dec-16,46.43,46.45,45.63,46.39,2677539
21-Dec-16,49.49,49.49,46.20,46.28,2703936
20-Dec-16,47.09,49.75,47.02,48.79,5586721
19-Dec-16,47.53,47.60,46.38,46.45,1919516
16-Dec-16,47.57,48.09,47.18,47.37,4050510
15-Dec-16,47.69,47.98,47.14,47.38,1880917
14-Dec-16,49.02,49.19,47.38,47.62,3847126
13-Dec-16,48.83,49.55,48.66,49.03,1412366
12-Dec-16,49.01,49.36,48.25,48.71,2146347
9-Dec-16,48.17,49.40,48.01,49.23,1811601
8-Dec-16,47.39,48.31,47.25,48.06,1664396
7-Dec-16,48.19,48.40,47.54,47.60,2724765
6-Dec-16,48.13,48.50,47.77,48.17,1379642
5-Dec-16,47.13,48.51,46.69,47.98,2761415
2-Dec-16,47.20,47.35,45.95,46.46,2588672
1-Dec-16,48.34,48.39,46.88,47.16,2264462
30-Nov-16,49.24,49.72,48.25,48.28,2706159
29-Nov-16,50.43,50.82,49.16,49.30,2349047
28-Nov-16,51.06,51.19,50.07,50.18,1925887
25-Nov-16,50.92,51.40,50.66,51.17,501095
23-Nov-16,51.00,51.01,50.39,50.79,1060034
22-Nov-16,51.69,52.08,51.23,51.34,1305155
21-Nov-16,51.30,52.04,50.93,51.68,1433253
18-Nov-16,50.77,51.51,50.29,50.79,1338828
17-Nov-16,50.18,51.69,50.10,50.97,2253303
16-Nov-16,49.84,51.20,49.74,50.40,3272105
15-Nov-16,49.57,50.52,49.33,50.02,4645583
14-Nov-16,51.03,51.28,48.52,48.80,5540386
11-Nov-16,51.94,51.94,50.59,51.01,3326432
10-Nov-16,52.70,53.73,51.01,51.83,6272164
9-Nov-16,53.00,56.02,51.00,52.63,18906705
8-Nov-16,63.56,65.56,62.82,63.10,6931425
7-Nov-16,64.60,64.85,63.36,63.43,2595436
4-Nov-16,62.31,64.05,62.31,63.64,1357805
3-Nov-16,61.66,63.25,61.39,62.74,1098684
2-Nov-16,63.38,63.65,61.50,61.63,1262500
1-Nov-16,64.41,64.58,62.93,63.47,1256084
31-Oct-16,64.63,64.74,64.00,64.48,1155706
28-Oct-16,62.48,64.86,61.84,64.34,2363536
27-Oct-16,62.39,62.53,61.24,61.85,1397483
26-Oct-16,62.54,63.52,61.51,61.75,1503632
25-Oct-16,63.72,64.26,63.10,63.53,812610
24-Oct-16,63.57,63.94,63.17,63.83,1174848
21-Oct-16,61.87,63.67,61.74,62.96,2069710
20-Oct-16,63.69,63.71,61.91,62.03,1534496
19-Oct-16,63.16,64.24,63.16,63.87,2040040
18-Oct-16,62.66,63.49,62.07,63.19,1666284
17-Oct-16,61.43,61.85,60.69,61.46,1471267
14-Oct-16,62.40,62.65,61.11,61.31,1983138
13-Oct-16,62.66,62.66,61.75,62.24,1737510
12-Oct-16,63.39,63.44,62.50,62.99,1558721
11-Oct-16,64.50,64.60,63.10,63.43,2072689
10-Oct-16,64.24,64.80,64.01,64.60,1203585
7-Oct-16,65.09,65.09,63.60,64.00,1185144
6-Oct-16,65.89,65.89,64.36,64.84,1675302
5-Oct-16,64.75,66.13,64.54,65.87,2138443
4-Oct-16,63.74,64.73,63.41,64.42,1019351
3-Oct-16,62.90,63.44,62.21,63.35,841938
30-Sep-16,62.98,63.48,62.96,63.18,1690269
29-Sep-16,63.79,64.42,62.82,63.00,2562317
28-Sep-16,64.37,65.03,63.72,64.08,1525973
27-Sep-16,62.01,64.68,61.92,64.26,3147105
26-Sep-16,61.65,61.97,61.33,61.89,999651
23-Sep-16,61.44,62.17,61.21,61.87,1326433
22-Sep-16,60.74,61.43,60.39,61.36,1193797
21-Sep-16,60.50,60.78,59.87,60.54,1350266
20-Sep-16,60.16,60.46,59.72,60.25,1188312
19-Sep-16,61.56,61.64,59.81,60.00,1918491
16-Sep-16,61.69,61.73,60.49,61.29,2782011
15-Sep-16,61.65,62.04,60.95,61.82,1433257
14-Sep-16,62.08,63.38,61.76,61.81,1656163
13-Sep-16,62.86,63.34,62.52,63.04,1475554
12-Sep-16,61.54,63.74,61.54,63.61,2142976
9-Sep-16,61.36,62.97,61.13,61.72,2517765
8-Sep-16,61.95,62.25,61.44,61.80,1037936
7-Sep-16,61.81,62.85,61.58,62.16,1324100
6-Sep-16,61.11,61.98,60.64,61.52,1995430
2-Sep-16,61.60,61.96,60.89,61.20,1035119
1-Sep-16,60.91,61.58,60.80,61.32,1024136
31-Aug-16,61.37,61.48,60.75,61.00,1230265
30-Aug-16,62.39,62.51,60.95,61.25,1457591
29-Aug-16,62.25,62.40,61.79,61.94,1295313
26-Aug-16,62.28,63.21,61.98,62.37,1135514
25-Aug-16,62.00,62.45,61.51,61.90,1450680
24-Aug-16,62.72,63.58,61.71,61.93,1189296
23-Aug-16,61.91,63.29,61.87,62.64,1852384
22-Aug-16,62.00,62.00,61.34,61.80,1385294
19-Aug-16,62.13,62.55,61.46,62.00,1388425
18-Aug-16,62.15,62.50,61.80,62.23,1000989
17-Aug-16,62.10,62.27,61.67,62.05,1274610
16-Aug-16,62.07,62.51,61.88,62.00,1609915
15-Aug-16,61.87,62.45,61.62,62.13,1382305
12-Aug-16,61.31,61.95,61.03,61.70,1624314
11-Aug-16,61.26,62.00,61.10,61.59,1563791
10-Aug-16,61.18,61.66,60.94,61.25,2396124
9-Aug-16,62.02,62.30,60.74,61.10,3539224
8-Aug-16,61.00,61.86,60.68,61.84,3592672
5-Aug-16,63.04,63.60,60.73,60.81,5439567
4-Aug-16,64.00,66.13,62.69,63.59,8795389
3-Aug-16,69.31,70.37,68.80,69.49,3674489
2-Aug-16,70.28,70.28,68.24,69.41,2607137
1-Aug-16,70.09,70.70,69.40,70.45,2078481
29-Jul-16,69.50,70.44,69.17,69.97,2420622
28-Jul-16,71.10,71.69,69.67,71.23,1568938
27-Jul-16,70.05,70.22,69.48,69.85,1544054
26-Jul-16,70.05,71.06,69.66,69.94,1338425
25-Jul-16,70.02,70.31,69.45,70.06,1099133
22-Jul-16,69.14,70.23,68.49,70.09,1254142
21-Jul-16,69.36,69.69,68.22,68.69,1029809
20-Jul-16,68.58,69.80,68.11,69.29,1228833
19-Jul-16,68.49,68.73,68.08,68.55,734202
18-Jul-16,68.06,69.11,67.87,68.74,1086966
15-Jul-16,68.91,68.91,67.75,68.26,990690
14-Jul-16,69.36,69.91,68.38,68.53,1197262
13-Jul-16,69.89,70.36,68.20,68.59,2552370
12-Jul-16,68.59,70.38,68.33,69.72,2220535
11-Jul-16,67.19,68.53,67.18,68.20,1310539
8-Jul-16,66.09,67.46,66.08,67.13,1495881
7-Jul-16,65.13,66.17,65.00,65.61,1456693
6-Jul-16,63.88,65.12,63.81,64.98,1512486
5-Jul-16,64.15,64.58,63.75,64.30,1430042
1-Jul-16,64.30,65.36,64.28,64.61,1066335
30-Jun-16,64.02,64.85,63.40,64.30,1321134
29-Jun-16,61.97,64.23,61.87,63.89,1966191
28-Jun-16,60.69,61.60,60.30,61.15,1538798
27-Jun-16,61.20,61.66,58.96,60.03,3190199
24-Jun-16,62.71,64.37,61.36,61.87,4606873
23-Jun-16,65.32,66.44,65.02,65.98,1442855
22-Jun-16,64.34,65.30,64.16,64.74,912839
21-Jun-16,64.91,64.91,63.63,64.51,1026670
20-Jun-16,63.98,65.75,63.62,64.66,2160949
17-Jun-16,64.06,64.77,62.85,63.08,2014676
16-Jun-16,63.99,64.63,62.52,64.39,1814719
15-Jun-16,65.43,66.22,64.70,64.84,1574055
14-Jun-16,65.65,66.37,64.22,65.07,1649849
13-Jun-16,67.02,68.59,66.01,66.11,1579391
10-Jun-16,68.76,69.15,66.90,67.22,1738379
9-Jun-16,69.02,70.51,68.85,69.47,1151695
8-Jun-16,69.03,69.87,68.76,69.24,1676216
7-Jun-16,69.78,69.95,68.05,68.63,4475517
6-Jun-16,68.63,71.61,67.92,71.46,3407673
3-Jun-16,68.30,68.41,67.16,68.16,1404108
2-Jun-16,66.79,68.76,66.27,68.63,1284927
1-Jun-16,67.41,67.68,66.06,67.06,863413
31-May-16,67.50,68.08,67.18,67.74,1566651
27-May-16,66.54,68.53,66.39,67.32,1297170
26-May-16,66.84,67.35,65.80,66.60,1000845
25-May-16,66.18,67.22,65.70,66.90,1655699
24-May-16,66.92,67.83,66.02,66.07,2302084
23-May-16,64.81,68.43,64.53,66.87,3467322
20-May-16,63.54,65.19,63.41,64.53,1798674
19-May-16,64.07,64.53,62.57,63.25,1593290
18-May-16,65.28,65.65,63.41,64.17,2143061
17-May-16,64.95,66.80,64.91,65.79,2774016
16-May-16,64.51,65.25,64.24,64.90,1187434
13-May-16,63.71,64.91,63.67,64.46,1963792
12-May-16,66.05,66.05,63.16,63.78,2494882
11-May-16,66.21,66.40,65.22,65.67,2262803
10-May-16,63.57,66.89,63.56,66.10,3416520
9-May-16,62.38,64.95,62.15,63.09,3448871
6-May-16,61.60,62.09,59.64,62.07,3181418
5-May-16,61.00,65.80,60.56,62.04,7307166
4-May-16,64.28,64.82,62.67,63.13,4461500
3-May-16,64.27,65.99,63.19,65.83,3943205
2-May-16,64.42,65.24,63.90,64.89,1831481
29-Apr-16,64.00,64.98,62.38,64.59,1797234
28-Apr-16,64.12,65.00,63.44,63.60,2883268
27-Apr-16,62.50,63.74,61.96,63.69,1520329
26-Apr-16,62.53,63.59,62.02,62.50,1247969
25-Apr-16,63.17,63.47,62.00,62.55,1048479
22-Apr-16,63.47,64.55,62.97,63.34,1439628
21-Apr-16,64.65,65.00,63.39,63.81,1193035
20-Apr-16,64.70,64.84,63.64,64.39,1059518
19-Apr-16,65.88,65.88,63.99,64.54,2299217
18-Apr-16,63.06,65.64,62.69,65.44,1903114
15-Apr-16,63.60,63.77,62.29,63.00,1349591
14-Apr-16,63.85,64.27,63.03,63.51,1031408
13-Apr-16,61.96,63.86,61.80,63.79,2267219
12-Apr-16,60.56,61.49,60.20,61.44,1801018
11-Apr-16,62.48,62.86,60.55,60.59,2042365
8-Apr-16,64.07,64.58,61.70,62.24,2388562
7-Apr-16,65.23,65.51,62.58,63.35,2370370
6-Apr-16,64.39,65.76,63.85,65.53,1136622
5-Apr-16,64.09,64.79,63.09,63.96,1801446
4-Apr-16,67.44,67.50,64.93,65.09,1153972
1-Apr-16,66.05,67.39,65.10,67.23,1725255
31-Mar-16,66.00,66.84,65.33,66.50,1700944
30-Mar-16,65.93,68.07,65.83,66.58,2249809
29-Mar-16,62.79,65.91,62.02,65.58,2549599
28-Mar-16,62.61,63.14,61.53,62.51,1309222
24-Mar-16,61.72,62.44,60.50,62.23,1681359
23-Mar-16,64.16,64.34,61.51,61.74,2093817
22-Mar-16,64.00,65.08,63.65,64.04,2059483
21-Mar-16,64.40,65.79,64.36,65.71,1518356
18-Mar-16,65.25,65.27,63.45,64.31,4860762
17-Mar-16,67.22,68.22,65.25,65.31,2077672
16-Mar-16,66.82,67.74,66.01,67.48,1865364
15-Mar-16,66.43,66.97,65.55,66.80,2353624
14-Mar-16,63.08,68.28,63.05,66.54,5466787
11-Mar-16,61.81,63.75,61.38,63.70,1597513
10-Mar-16,61.45,61.86,59.33,61.02,2228865
9-Mar-16,62.65,63.61,60.02,60.98,2732496
8-Mar-16,65.11,65.95,62.49,62.57,2083342
7-Mar-16,65.04,66.23,63.70,65.50,1983023
4-Mar-16,65.85,65.91,64.22,65.10,1549922
3-Mar-16,65.05,66.62,64.45,65.57,1594075
2-Mar-16,66.07,66.42,64.53,65.32,1806647
1-Mar-16,63.21,66.39,62.73,66.10,2970459
29-Feb-16,62.28,63.30,61.81,62.60,2246642
26-Feb-16,62.19,62.95,61.68,62.38,1676879
25-Feb-16,60.83,62.07,59.76,62.05,1241908
24-Feb-16,60.00,61.16,58.53,60.66,2502986
23-Feb-16,63.00,63.21,60.38,60.70,2529924
22-Feb-16,61.80,63.51,61.37,63.11,2022395
19-Feb-16,62.70,63.77,61.38,63.42,1769038
18-Feb-16,65.41,65.99,62.39,63.07,2278665
17-Feb-16,65.02,67.00,64.07,65.35,3330068
16-Feb-16,60.39,63.47,59.95,63.32,3086193
12-Feb-16,61.00,61.07,57.85,59.90,4204472
11-Feb-16,60.92,64.75,59.49,61.07,9473527
10-Feb-16,54.90,55.99,53.48,54.35,4709044
9-Feb-16,55.32,57.17,53.51,54.09,2528093
8-Feb-16,57.01,57.84,55.28,55.88,4261188
5-Feb-16,63.27,63.58,57.29,58.37,5099577
4-Feb-16,62.89,64.52,62.31,63.81,1800245
3-Feb-16,63.70,64.26,60.88,62.77,2068481
2-Feb-16,66.47,66.84,62.10,63.00,3027195
1-Feb-16,66.52,67.64,65.80,67.19,1790105
29-Jan-16,67.31,68.12,66.37,66.76,2620851
28-Jan-16,67.29,68.10,65.00,67.32,2710618
27-Jan-16,65.81,69.14,65.42,67.54,3193348
26-Jan-16,69.92,70.44,67.44,69.69,2445338
25-Jan-16,70.76,71.01,69.23,69.49,1115987
22-Jan-16,70.68,72.45,69.77,70.65,1009838
21-Jan-16,69.29,72.46,68.17,69.51,1577910
20-Jan-16,70.03,70.90,65.78,69.26,2479976
19-Jan-16,71.34,72.34,70.07,71.19,2508432
15-Jan-16,69.77,70.69,68.88,70.63,2906820
14-Jan-16,73.21,73.36,69.27,71.92,2892281
13-Jan-16,77.48,78.00,71.58,72.94,2882070
12-Jan-16,77.18,78.80,76.34,77.36,1189363
11-Jan-16,76.66,77.31,75.60,76.95,1357389
8-Jan-16,77.77,78.60,75.92,76.18,1447745
7-Jan-16,78.33,78.94,76.81,77.69,1945155
6-Jan-16,81.34,81.74,79.23,80.10,2521661
5-Jan-16,83.39,83.97,80.95,81.93,1450825
4-Jan-16,83.64,83.76,82.02,82.98,1732605
31-Dec-15,85.87,86.58,85.20,85.25,551645
30-Dec-15,86.39,86.83,85.94,86.15,573692
29-Dec-15,86.00,86.93,85.45,86.51,582913
28-Dec-15,84.98,85.46,84.17,85.20,1386116
24-Dec-15,85.09,85.93,84.60,85.45,822998
23-Dec-15,84.78,85.15,83.66,84.88,1155534
22-Dec-15,84.48,84.65,83.02,84.40,670910
21-Dec-15,85.00,85.79,83.18,84.12,878002
18-Dec-15,84.94,85.74,83.84,84.35,2336466
17-Dec-15,87.17,87.26,85.21,85.38,1095495
16-Dec-15,86.68,87.50,84.61,86.88,1533340
15-Dec-15,84.27,87.08,83.84,85.91,1599684
14-Dec-15,82.39,84.19,82.05,83.80,1443506
11-Dec-15,82.39,83.47,82.00,82.48,941351
10-Dec-15,83.84,84.14,82.65,83.52,1219231
9-Dec-15,82.75,84.17,82.14,82.41,971471
8-Dec-15,82.54,83.84,81.89,83.20,881003
7-Dec-15,83.99,84.48,82.37,83.07,1606913
4-Dec-15,83.06,84.71,82.33,84.37,1712609
3-Dec-15,82.74,84.91,82.58,83.14,2117356
2-Dec-15,82.56,83.32,82.24,82.92,1121359
1-Dec-15,82.85,83.44,82.48,82.93,980513
30-Nov-15,82.81,82.98,81.77,82.37,1267101
27-Nov-15,82.80,83.35,82.31,82.79,558528
25-Nov-15,82.90,83.17,82.27,82.77,858845
24-Nov-15,83.93,83.93,81.88,82.98,2141385
23-Nov-15,84.92,86.20,84.33,84.80,2009452
20-Nov-15,85.01,85.87,84.09,84.98,2163481
19-Nov-15,83.55,85.22,83.06,84.55,2519401
18-Nov-15,78.87,83.77,78.81,83.68,3228519
17-Nov-15,78.37,79.61,77.42,78.12,1511995
16-Nov-15,77.50,78.56,75.78,78.55,1878674
13-Nov-15,78.61,79.15,76.80,77.95,2044357
12-Nov-15,79.16,80.52,78.64,79.15,1640856
11-Nov-15,78.97,81.13,78.14,79.74,2204715
10-Nov-15,76.92,78.53,76.79,78.35,2296971
9-Nov-15,76.44,77.65,74.82,77.12,3653612
6-Nov-15,74.49,77.97,73.57,77.42,8421190
5-Nov-15,83.95,84.56,82.76,83.11,2693519
4-Nov-15,81.81,83.20,81.63,82.62,1472855
3-Nov-15,83.31,84.04,82.05,82.25,2208957
2-Nov-15,83.67,83.72,82.27,83.16,1607987
30-Oct-15,81.27,84.70,80.76,83.78,2181363
29-Oct-15,81.26,82.02,80.74,80.93,1758074
28-Oct-15,81.77,82.35,80.87,81.30,1611154
27-Oct-15,81.99,82.46,80.74,81.76,1393430
26-Oct-15,82.95,84.07,82.53,83.65,1451798
23-Oct-15,85.07,85.15,82.30,82.90,2505561
22-Oct-15,82.40,83.71,81.47,83.56,1853558
21-Oct-15,84.80,84.80,82.00,82.17,1361580
20-Oct-15,84.30,85.08,83.44,84.25,1604968
19-Oct-15,83.39,85.16,82.53,84.14,2313521
16-Oct-15,83.70,83.72,81.09,83.20,2537138
15-Oct-15,83.21,83.55,79.82,83.36,4995052
14-Oct-15,81.98,84.50,78.20,83.72,19910277
13-Oct-15,67.13,68.30,66.43,66.69,813694
12-Oct-15,68.01,68.50,66.71,67.48,779083
9-Oct-15,69.34,69.38,67.57,67.98,1488586
8-Oct-15,67.40,69.65,67.40,69.58,1062765
7-Oct-15,67.19,68.43,66.14,67.73,955111
6-Oct-15,67.20,68.16,66.76,66.84,1507764
5-Oct-15,67.30,67.78,66.81,67.24,1214924
2-Oct-15,63.23,66.36,63.07,66.36,1273154
1-Oct-15,63.24,64.34,63.00,64.13,1641458
30-Sep-15,64.01,64.32,62.62,63.02,1562460
29-Sep-15,62.97,63.96,62.24,63.42,1181481
28-Sep-15,64.70,65.30,62.79,62.88,1531710
25-Sep-15,65.74,66.48,64.34,64.89,1262462
24-Sep-15,65.10,65.70,64.37,65.46,1477154
23-Sep-15,67.08,67.72,65.66,65.69,1113896
22-Sep-15,67.73,68.38,66.53,67.20,1275826
21-Sep-15,68.87,69.30,67.99,68.38,883588
18-Sep-15,69.21,70.10,68.40,68.64,1909290
17-Sep-15,69.85,70.49,69.10,69.89,2384794
16-Sep-15,70.36,70.74,69.23,69.90,2070503
15-Sep-15,67.41,70.34,66.27,70.06,2392609
14-Sep-15,67.16,68.34,66.40,67.79,1270048
11-Sep-15,67.36,67.86,65.62,66.92,1881950
10-Sep-15,66.63,68.40,66.34,67.49,1907046
9-Sep-15,68.32,68.53,66.75,66.92,1512228
8-Sep-15,67.50,68.09,67.36,67.60,2221486
4-Sep-15,68.60,68.74,67.12,67.21,1572661
3-Sep-15,69.86,71.16,69.16,69.47,2230269
2-Sep-15,69.34,69.96,68.45,69.73,1031066
1-Sep-15,68.16,69.53,67.89,68.19,1935871
31-Aug-15,70.11,70.84,69.52,69.90,1301966
28-Aug-15,69.72,70.88,69.20,70.60,1229860
27-Aug-15,69.23,70.76,68.66,70.34,1593337
26-Aug-15,67.83,68.72,65.79,68.38,3279578
25-Aug-15,68.63,69.80,66.25,66.54,2422364
24-Aug-15,65.65,69.06,62.50,66.27,2690117
21-Aug-15,69.79,71.12,69.01,69.51,2565463
20-Aug-15,70.79,71.75,70.21,70.38,1990783
19-Aug-15,71.87,72.18,71.14,71.75,1552540
18-Aug-15,73.47,73.47,71.91,72.26,1337450
17-Aug-15,72.30,73.57,71.07,73.50,1133020
14-Aug-15,71.84,72.91,71.55,72.49,1123589
13-Aug-15,73.27,73.88,71.30,71.70,2278887
12-Aug-15,73.54,73.85,71.53,73.50,2237658
11-Aug-15,74.55,75.05,73.83,74.67,1886776
10-Aug-15,75.20,75.70,73.87,75.31,1701609
7-Aug-15,76.24,76.41,73.85,74.32,1938404
6-Aug-15,77.95,78.12,74.78,76.12,2371670
5-Aug-15,79.68,80.24,77.92,77.96,1965257
4-Aug-15,78.64,79.28,78.04,78.40,1218406
3-Aug-15,79.39,80.05,78.23,78.85,1440735
31-Jul-15,78.79,79.42,77.32,79.38,2082405
30-Jul-15,79.60,79.64,77.75,78.69,2395304
29-Jul-15,78.84,80.10,78.78,79.71,1833510
28-Jul-15,80.85,80.85,79.17,79.34,2622050
27-Jul-15,80.35,82.47,78.93,80.60,3158883
24-Jul-15,84.54,86.36,80.39,80.86,7178573
23-Jul-15,92.19,94.00,91.80,93.37,4130338
22-Jul-15,92.59,93.70,91.58,91.75,1600234
21-Jul-15,92.31,92.71,90.06,92.55,1801505
20-Jul-15,92.68,92.80,91.23,91.99,1284650
17-Jul-15,91.30,92.75,90.87,92.18,1305758
16-Jul-15,91.02,91.81,89.98,91.11,1063482
15-Jul-15,89.41,90.96,89.03,90.38,1040274
14-Jul-15,89.97,91.13,89.41,89.68,1377766
13-Jul-15,89.41,90.73,89.05,90.30,1319810
10-Jul-15,87.17,88.57,86.56,88.44,1029170
9-Jul-15,86.53,87.47,85.96,85.96,990048
8-Jul-15,85.60,86.73,85.15,85.58,1030292
7-Jul-15,87.03,87.19,84.88,86.83,1214482
6-Jul-15,86.50,86.99,85.90,86.89,1150494
2-Jul-15,87.01,87.67,86.21,86.87,1028351
1-Jul-15,88.00,88.78,86.53,86.90,958210
30-Jun-15,87.01,87.61,86.02,87.14,1273076
29-Jun-15,87.66,88.50,85.55,85.77,1225790
26-Jun-15,87.97,88.91,87.97,88.84,1160943
25-Jun-15,89.15,89.15,87.96,88.16,902616
24-Jun-15,89.93,90.14,88.42,88.98,1319651
23-Jun-15,90.73,90.81,89.41,90.24,1623654
22-Jun-15,91.15,92.00,90.11,90.74,1704690
19-Jun-15,90.69,91.28,89.56,90.94,3659165
18-Jun-15,85.77,91.42,85.65,90.67,8555800
17-Jun-15,76.62,88.79,75.89,87.65,15024654
16-Jun-15,75.56,76.78,75.56,76.45,962179
15-Jun-15,75.51,76.00,74.76,75.83,1195991
12-Jun-15,75.86,76.29,75.48,76.10,930823
11-Jun-15,76.64,77.09,75.92,76.26,1287746
10-Jun-15,75.63,76.98,75.63,76.48,1167588
9-Jun-15,75.35,75.73,74.80,75.21,810427
8-Jun-15,76.29,76.49,75.42,75.48,1894142
5-Jun-15,74.96,76.51,74.70,76.41,1640480
4-Jun-15,74.68,75.15,74.14,75.12,1741807
3-Jun-15,76.03,76.22,74.76,75.07,1828929
2-Jun-15,76.15,77.06,75.76,76.32,982286
1-Jun-15,76.24,76.94,75.70,76.51,1431460
29-May-15,76.71,76.77,75.62,76.26,2177302
28-May-15,78.26,78.54,76.79,76.80,1066133
27-May-15,77.88,78.63,77.78,78.50,1251631
26-May-15,80.11,80.57,77.69,77.77,1802054
22-May-15,79.66,80.37,79.66,80.27,1301762
21-May-15,79.72,80.19,79.03,79.30,1401186
20-May-15,80.78,80.93,79.00,79.77,1790087
19-May-15,81.97,82.51,80.29,80.65,1305018
18-May-15,81.86,82.36,81.34,81.49,1840405
15-May-15,82.18,82.61,81.30,81.83,891927
14-May-15,81.44,82.25,80.93,82.16,1203259
13-May-15,80.78,81.51,80.74,81.15,1189976
12-May-15,81.01,81.77,80.65,80.82,1515233
11-May-15,82.01,82.82,81.11,81.63,1720432
8-May-15,79.40,82.25,79.03,81.93,2644673
7-May-15,78.18,80.72,75.65,78.47,6611638
6-May-15,78.14,78.46,76.28,76.80,4451022
5-May-15,78.47,79.82,77.33,77.72,3296464
4-May-15,81.33,81.33,79.80,79.91,1998810
1-May-15,81.89,83.00,79.82,80.82,1815562
30-Apr-15,81.54,81.68,79.83,80.49,1649259
29-Apr-15,81.26,82.84,81.18,81.70,1653945
28-Apr-15,81.55,82.38,80.96,81.56,1637687
27-Apr-15,81.91,83.77,81.45,81.69,912518
24-Apr-15,82.83,83.56,81.41,81.57,1029324
23-Apr-15,82.34,83.34,82.02,82.78,900158
22-Apr-15,81.53,82.87,80.84,82.72,1245000
21-Apr-15,81.20,81.40,80.71,81.28,1284603
20-Apr-15,81.06,81.50,80.71,80.97,1416752
17-Apr-15,82.00,82.55,79.88,80.71,2163406
16-Apr-15,83.34,84.62,82.53,82.60,928432
15-Apr-15,83.33,83.80,82.38,83.09,1062453
14-Apr-15,83.56,83.84,82.05,83.27,1009038
13-Apr-15,83.13,84.45,83.00,83.52,833221
10-Apr-15,83.12,83.30,82.51,82.93,1084602
9-Apr-15,83.33,83.80,81.99,83.18,1805338
8-Apr-15,83.01,83.96,82.66,83.05,1128605
7-Apr-15,83.46,83.80,82.80,82.83,952302
6-Apr-15,80.61,83.86,80.55,83.40,2780027
2-Apr-15,82.48,83.32,82.05,82.50,1159249
1-Apr-15,83.38,83.51,81.58,82.34,1548811
31-Mar-15,83.41,84.18,83.17,83.17,1257318
30-Mar-15,84.31,84.60,83.46,83.61,1096755
27-Mar-15,83.38,84.15,83.17,83.79,897625
26-Mar-15,83.82,84.25,82.97,83.62,1378627
25-Mar-15,85.48,85.55,84.02,84.18,2343159
24-Mar-15,86.50,86.50,85.35,85.38,1537912
23-Mar-15,86.61,87.20,86.35,86.51,1864931
20-Mar-15,84.59,86.53,84.04,86.35,3192138
19-Mar-15,84.53,84.96,83.28,83.80,1575020
18-Mar-15,83.10,84.58,82.73,84.31,1676992
17-Mar-15,82.78,83.70,82.33,83.40,1174866
16-Mar-15,83.03,83.57,82.40,83.17,1196177
13-Mar-15,83.86,84.27,82.00,82.52,1353885
12-Mar-15,83.43,84.66,83.23,84.15,1377010
11-Mar-15,84.20,84.40,83.15,83.22,1393567
10-Mar-15,84.83,85.23,83.50,84.17,1542717
9-Mar-15,85.70,86.42,84.98,86.01,1476979
6-Mar-15,87.35,87.98,84.93,85.70,2622519
5-Mar-15,89.36,89.49,87.11,87.98,2429581
4-Mar-15,90.45,90.53,87.98,89.24,1963975
3-Mar-15,91.00,91.47,87.86,90.47,4202582
2-Mar-15,89.29,91.25,89.13,91.21,1648430
27-Feb-15,90.17,90.40,88.93,89.25,1800284
26-Feb-15,89.18,90.30,89.17,89.86,2583726
25-Feb-15,88.14,89.50,88.12,89.17,2397173
24-Feb-15,88.46,89.15,87.97,88.50,1819472
23-Feb-15,88.80,89.69,87.37,88.87,2578259
20-Feb-15,88.54,88.93,87.31,88.78,2957785
19-Feb-15,85.92,89.11,85.82,88.66,4075279
18-Feb-15,84.33,85.64,84.08,85.58,3931771
17-Feb-15,84.84,84.88,83.88,84.26,3028991
13-Feb-15,81.74,84.87,80.52,84.81,4572258
12-Feb-15,77.11,84.70,77.00,82.40,12738383
11-Feb-15,69.75,70.17,66.62,67.27,6311062
10-Feb-15,69.10,70.23,68.40,69.98,3410253
9-Feb-15,68.15,69.22,68.09,68.47,3818002
6-Feb-15,70.00,70.25,67.79,68.58,2854661
5-Feb-15,71.32,71.59,70.53,70.58,1247068
4-Feb-15,70.62,71.76,70.42,71.18,1724713
3-Feb-15,69.00,70.97,68.57,70.81,2040623
2-Feb-15,67.27,67.83,66.18,67.70,1257732
30-Jan-15,67.39,68.12,66.27,67.01,1753957
29-Jan-15,67.98,68.44,66.48,68.00,1488324
28-Jan-15,69.47,69.99,67.85,67.93,1158190
27-Jan-15,68.46,70.57,67.74,69.10,1674538
26-Jan-15,69.65,70.01,69.07,69.32,1799927
23-Jan-15,70.70,71.53,69.67,69.77,2147164
22-Jan-15,69.60,71.29,68.64,71.12,1850063
21-Jan-15,69.00,69.95,68.72,69.35,1433238
20-Jan-15,68.75,69.43,67.48,69.24,1614870
16-Jan-15,66.17,68.28,66.04,68.18,1997598
15-Jan-15,70.00,70.36,66.26,66.39,2220625
14-Jan-15,70.81,71.23,68.27,69.73,2023729
13-Jan-15,72.12,73.61,70.71,71.47,1521721
12-Jan-15,74.70,74.98,70.81,71.45,2081089
9-Jan-15,73.68,74.83,73.09,74.53,2140659
8-Jan-15,69.40,73.56,69.36,73.26,1985376
7-Jan-15,70.84,71.30,70.43,70.84,2017402
6-Jan-15,72.67,73.00,68.84,70.01,2762999
5-Jan-15,74.36,74.49,72.41,72.73,1994694
2-Jan-15,75.57,76.12,73.68,74.59,1374583
31-Dec-14,75.78,76.00,74.50,74.66,2063936
30-Dec-14,75.29,76.37,75.00,75.49,1223323
29-Dec-14,76.64,76.64,75.43,75.76,1365836
26-Dec-14,76.52,77.19,76.16,76.91,634592
24-Dec-14,76.05,76.47,75.93,76.14,373031
23-Dec-14,77.10,77.41,75.61,75.89,2452159
22-Dec-14,75.75,76.90,75.73,76.87,1733216
19-Dec-14,75.30,75.93,74.84,75.65,2788308
18-Dec-14,73.13,75.09,73.07,75.07,1843522
17-Dec-14,71.38,72.63,71.00,72.53,1959996
16-Dec-14,71.88,72.74,71.14,71.21,1787530
15-Dec-14,73.20,73.69,71.91,72.19,1408452
12-Dec-14,72.07,73.60,71.58,72.38,1458949
11-Dec-14,73.00,74.37,72.50,72.80,1923552
10-Dec-14,74.02,74.64,72.15,72.44,2003029
9-Dec-14,73.19,74.37,72.54,74.06,2288990
8-Dec-14,76.98,76.98,73.59,74.00,2945244
5-Dec-14,77.58,77.86,76.87,77.14,2071150
4-Dec-14,75.75,77.94,75.21,77.22,2893752
3-Dec-14,75.62,76.86,75.31,75.73,3306622
2-Dec-14,72.00,76.97,71.75,76.68,5317340
1-Dec-14,73.50,73.70,70.59,71.05,2255530
28-Nov-14,72.84,74.29,72.83,73.65,1316015
26-Nov-14,71.86,72.97,71.54,72.77,1634857
25-Nov-14,71.86,72.02,70.65,71.86,1540749
24-Nov-14,71.85,72.18,70.87,71.82,1583897
21-Nov-14,72.51,72.51,71.11,71.31,1867845
20-Nov-14,71.43,72.28,70.76,71.45,2404878
19-Nov-14,70.32,71.41,69.50,71.40,2793660
18-Nov-14,68.31,70.48,68.31,70.21,3015802
17-Nov-14,69.65,70.18,68.28,68.53,1981805
14-Nov-14,69.14,69.98,67.14,69.91,3302482
13-Nov-14,70.60,71.69,68.44,69.02,2692951
12-Nov-14,69.98,70.74,69.35,70.38,2515393
11-Nov-14,72.81,73.26,68.88,69.99,4839667
10-Nov-14,73.72,74.14,72.42,72.89,2006179
7-Nov-14,74.17,74.37,72.80,73.65,1815430
6-Nov-14,72.30,74.49,72.20,74.00,3842558
5-Nov-14,73.69,74.49,71.05,71.95,14041082
4-Nov-14,83.66,84.97,82.62,83.79,4905733
3-Nov-14,89.33,89.35,85.00,85.21,2787692
31-Oct-14,88.63,89.67,87.31,88.66,1950783
30-Oct-14,86.74,88.06,85.27,86.31,1535831
29-Oct-14,88.60,88.63,86.77,87.38,1276923
28-Oct-14,87.09,88.83,87.00,88.82,1015951
27-Oct-14,87.54,88.22,86.33,86.93,990678
24-Oct-14,87.26,88.41,86.63,88.25,880882
23-Oct-14,86.67,88.76,85.60,87.63,1365525
22-Oct-14,88.10,88.49,85.89,85.92,1427304
21-Oct-14,85.00,88.35,84.51,88.08,2858443
20-Oct-14,80.76,84.04,80.76,83.54,1832542
17-Oct-14,80.82,81.46,80.50,81.05,1818492
16-Oct-14,76.70,79.98,76.24,79.52,1952951
15-Oct-14,77.19,79.04,75.34,78.89,3103937
14-Oct-14,80.06,81.15,77.47,78.97,3001371
13-Oct-14,82.31,83.40,79.20,79.64,4664913
10-Oct-14,85.35,85.95,82.47,82.59,2249397
9-Oct-14,88.75,88.86,84.97,85.91,2456594
8-Oct-14,87.03,89.20,85.82,88.54,2137674
7-Oct-14,88.36,89.18,86.95,86.96,3042931
6-Oct-14,89.18,90.94,88.66,88.92,2890122
3-Oct-14,89.31,90.05,88.62,88.63,3119272
2-Oct-14,89.00,89.94,86.64,88.39,2714919
1-Oct-14,91.01,91.08,88.91,89.49,2138525
30-Sep-14,90.92,92.30,89.10,91.42,1876176
29-Sep-14,91.22,91.88,90.65,90.80,1223610
26-Sep-14,91.51,92.51,90.85,92.15,1420777
25-Sep-14,94.23,94.60,91.06,91.19,1781514
24-Sep-14,92.89,94.75,91.52,94.33,1707330
23-Sep-14,93.96,94.59,92.25,92.95,1794346
22-Sep-14,97.84,98.00,92.82,94.29,2893542
19-Sep-14,98.29,99.57,97.41,98.37,1514328
18-Sep-14,96.29,99.15,96.29,97.95,1507792
17-Sep-14,96.02,96.63,94.82,96.01,1357036
16-Sep-14,94.55,96.62,93.90,95.80,1397276
15-Sep-14,99.23,99.75,94.33,95.22,1890457
12-Sep-14,98.09,99.35,97.46,99.32,1671513
11-Sep-14,97.32,98.63,97.15,98.50,1312372
10-Sep-14,96.53,98.47,95.43,98.03,2491314
9-Sep-14,99.00,100.00,96.34,96.37,2856211
8-Sep-14,98.11,99.42,97.95,99.23,1737909
5-Sep-14,99.40,99.50,97.82,98.26,1701278
4-Sep-14,98.14,99.04,97.50,98.29,1468027
3-Sep-14,100.14,100.23,98.05,98.28,982694
2-Sep-14,99.59,99.96,98.45,99.44,1425235
29-Aug-14,99.71,100.78,98.71,99.09,1154749
28-Aug-14,101.15,101.25,98.25,99.37,2186411
27-Aug-14,104.07,104.44,101.55,101.78,1152990
26-Aug-14,104.33,105.22,103.56,104.51,1117009
25-Aug-14,102.53,104.19,102.08,103.79,1981196
22-Aug-14,98.27,103.10,97.05,101.99,2019491
21-Aug-14,98.02,98.15,96.95,97.90,861588
20-Aug-14,97.46,98.39,96.54,98.15,1109526
19-Aug-14,98.00,98.39,96.13,97.37,1066270
18-Aug-14,97.56,98.50,97.26,97.96,743591
15-Aug-14,98.25,98.50,95.78,97.10,1355457
14-Aug-14,96.84,97.35,96.04,96.97,850456
13-Aug-14,95.59,97.63,94.92,96.84,1147070
12-Aug-14,95.79,96.74,93.87,94.75,1053708
11-Aug-14,95.62,96.31,94.34,95.63,1061930
8-Aug-14,94.92,95.49,93.74,95.29,875885
7-Aug-14,94.45,96.64,94.05,94.45,1144225
6-Aug-14,93.44,95.61,93.27,94.03,909346
5-Aug-14,94.32,95.40,93.35,94.07,1226432
4-Aug-14,94.16,95.75,93.88,94.79,1527688
1-Aug-14,94.49,95.25,91.78,93.87,2416853
31-Jul-14,98.94,98.94,94.17,94.84,2471271
30-Jul-14,99.98,100.44,98.89,100.02,1221313
29-Jul-14,99.46,100.11,98.87,99.21,1305571
28-Jul-14,100.14,100.80,98.80,99.30,1644441
25-Jul-14,101.81,102.86,98.11,99.88,2507298
24-Jul-14,97.00,102.99,95.26,101.79,10670083
23-Jul-14,103.65,107.67,103.65,107.36,3960114
22-Jul-14,104.38,105.33,103.17,104.17,1483796
21-Jul-14,103.57,104.11,101.46,103.14,1223195
18-Jul-14,102.05,104.31,101.58,104.17,1117997
17-Jul-14,101.25,103.74,100.76,101.15,1519823
16-Jul-14,103.32,104.76,101.50,101.96,1201441
15-Jul-14,104.34,104.49,101.78,102.68,1234160
14-Jul-14,103.99,104.20,101.55,104.05,2519990
11-Jul-14,103.64,105.34,103.34,104.78,916756
10-Jul-14,100.88,104.36,100.44,103.35,1357475
9-Jul-14,102.01,103.59,101.47,103.52,1921415
8-Jul-14,107.64,107.64,100.61,101.45,2826201
7-Jul-14,109.08,109.14,107.24,107.41,1056318
3-Jul-14,108.92,109.48,107.76,109.18,952222
2-Jul-14,109.00,110.22,107.69,108.12,880853
1-Jul-14,109.13,109.79,107.90,109.01,1702715
30-Jun-14,110.01,111.24,108.02,108.66,1771433
27-Jun-14,107.66,110.40,107.02,110.21,1586325
26-Jun-14,108.20,108.88,106.60,107.87,1680075
25-Jun-14,104.30,108.63,104.03,108.50,1605398
24-Jun-14,103.59,107.43,103.21,104.68,2149169
23-Jun-14,103.69,104.31,102.17,103.87,1225250
20-Jun-14,103.31,104.61,102.50,103.53,2072833
19-Jun-14,105.88,106.00,101.75,102.98,1236951
18-Jun-14,104.68,105.39,103.03,105.24,1215962
17-Jun-14,104.28,106.50,104.05,104.57,1620658
16-Jun-14,102.00,104.11,101.27,103.97,1595928
13-Jun-14,103.19,103.93,100.76,101.98,2106194
12-Jun-14,104.08,104.25,101.14,101.72,1760420
11-Jun-14,102.43,104.12,101.38,103.52,1376411
10-Jun-14,103.82,104.56,102.22,102.68,1416179
9-Jun-14,104.05,104.20,103.07,103.70,1890570
6-Jun-14,103.14,104.47,102.10,104.05,2085939
5-Jun-14,99.50,103.32,98.77,103.03,3390629
4-Jun-14,97.65,99.59,96.27,99.35,1464391
3-Jun-14,97.22,98.31,95.82,98.00,1620032
2-Jun-14,99.97,100.00,97.26,97.77,1675007
30-May-14,98.39,98.62,96.38,97.17,1884209
29-May-14,95.92,98.36,95.55,98.20,1770504
28-May-14,95.04,96.00,94.20,95.19,1563893
27-May-14,94.78,96.75,94.17,95.42,1982234
23-May-14,91.13,94.93,90.10,94.42,2532044
22-May-14,88.39,91.34,87.17,91.01,2366258
21-May-14,86.52,88.34,85.40,88.16,1659202
20-May-14,86.05,88.59,85.14,85.87,2959542
19-May-14,82.15,86.60,81.90,86.41,2177751
16-May-14,83.45,83.74,80.27,82.16,3007236
15-May-14,84.08,84.17,81.43,83.61,2521637
14-May-14,86.12,86.96,84.07,84.19,2058442
13-May-14,89.34,89.51,85.93,86.09,2402430
12-May-14,85.40,90.71,85.07,89.51,4327007
9-May-14,82.71,84.88,82.67,84.58,1872706
8-May-14,82.26,85.94,81.62,83.22,3343170
7-May-14,83.95,86.16,80.16,83.99,7148146
6-May-14,85.22,85.93,80.42,81.37,5609074
5-May-14,82.02,84.87,81.40,84.71,2783283
2-May-14,83.63,85.57,82.21,82.60,2030217
1-May-14,81.51,84.88,81.50,83.50,2373758
30-Apr-14,80.11,81.34,78.91,80.74,2291573
29-Apr-14,78.47,81.58,77.19,80.83,2930976
28-Apr-14,78.34,80.56,75.13,77.28,4101326
25-Apr-14,82.60,83.00,77.12,77.39,3628098
24-Apr-14,84.37,84.46,81.38,83.48,2129355
23-Apr-14,85.93,86.05,82.96,83.28,1322755
22-Apr-14,85.11,87.30,85.01,85.77,1390858
21-Apr-14,85.83,85.91,84.04,84.80,1241022
17-Apr-14,84.31,86.64,83.68,85.68,2320247
16-Apr-14,84.12,86.94,83.39,84.80,2340561
15-Apr-14,80.44,84.08,80.04,83.30,3754478
14-Apr-14,80.15,80.76,78.03,79.77,2133465
11-Apr-14,80.27,82.91,77.68,78.99,3103014
10-Apr-14,87.69,87.96,81.78,81.90,2853636
9-Apr-14,86.18,88.61,85.13,88.11,2471797
8-Apr-14,83.47,87.74,82.79,86.07,3630170
7-Apr-14,85.22,85.49,80.59,83.36,4267866
4-Apr-14,92.19,92.48,83.76,85.69,5284454
3-Apr-14,95.26,96.18,90.82,91.30,1874052
2-Apr-14,95.40,96.33,94.02,95.16,1681142
1-Apr-14,91.23,95.78,90.75,95.55,2618746
31-Mar-14,90.56,92.19,90.07,90.59,1645826
28-Mar-14,89.64,92.14,89.08,90.05,2143704
27-Mar-14,92.26,92.34,88.82,89.95,3591752
26-Mar-14,97.00,97.04,92.41,92.71,2185850
25-Mar-14,98.38,99.75,95.31,96.48,1677506
24-Mar-14,101.85,102.67,96.05,97.58,2407313
21-Mar-14,103.61,104.74,101.40,101.51,1865283
20-Mar-14,103.68,105.25,102.59,103.36,1331528
19-Mar-14,105.03,105.54,102.89,103.76,1338721
18-Mar-14,104.53,106.61,104.36,105.20,965487
17-Mar-14,104.81,106.90,104.46,104.53,1601982
14-Mar-14,102.82,105.29,102.23,102.95,1621314
13-Mar-14,107.28,107.77,102.11,103.21,1621858
12-Mar-14,104.34,107.18,102.54,106.69,2186558
11-Mar-14,107.96,107.96,104.00,104.73,1775016
10-Mar-14,109.16,109.79,106.90,107.54,1478151
7-Mar-14,109.38,109.46,106.53,108.06,2361553
6-Mar-14,107.81,108.73,107.05,108.38,2442839
5-Mar-14,106.74,107.78,105.85,107.30,2297397
4-Mar-14,102.99,107.24,102.55,106.89,2652548
3-Mar-14,98.81,100.70,98.19,100.55,1550358
28-Feb-14,100.66,102.85,98.58,100.24,2071347
27-Feb-14,100.19,100.80,99.55,99.72,1396225
26-Feb-14,101.73,102.65,99.21,100.18,1879538
25-Feb-14,98.58,102.70,97.82,101.04,2386261
24-Feb-14,97.00,98.47,96.50,98.26,1307785
21-Feb-14,96.85,97.97,96.22,96.92,1970488
20-Feb-14,94.11,96.91,94.11,96.80,2303687
19-Feb-14,92.87,95.00,92.84,93.76,1890828
18-Feb-14,91.19,93.86,90.56,93.35,1989202
14-Feb-14,91.94,92.29,90.94,91.25,2236412
13-Feb-14,89.28,92.47,88.72,92.30,2880439
12-Feb-14,87.95,93.13,87.60,90.27,9557482
11-Feb-14,85.19,85.19,83.06,84.20,4655663
10-Feb-14,84.05,84.76,82.37,84.05,2586247
7-Feb-14,79.91,85.42,79.85,84.45,5213121
6-Feb-14,76.22,77.34,75.08,77.14,2151548
5-Feb-14,76.27,76.53,74.69,76.16,2018571
4-Feb-14,74.11,76.60,73.70,76.37,2365605
3-Feb-14,76.94,77.47,72.57,73.91,2128847
31-Jan-14,76.17,78.13,75.56,77.19,1841090
30-Jan-14,77.68,78.67,76.90,77.79,1198593
29-Jan-14,77.07,78.10,76.22,76.67,1633593
28-Jan-14,77.43,78.73,76.78,77.77,1719734
27-Jan-14,80.34,80.79,77.05,77.91,2301916
24-Jan-14,80.44,81.42,80.25,80.36,2305235
23-Jan-14,82.07,82.15,80.74,81.34,1629533
22-Jan-14,81.72,82.87,81.71,82.47,1898511
21-Jan-14,84.66,85.16,81.26,81.50,1834643
17-Jan-14,84.63,85.90,83.78,83.90,1364690
16-Jan-14,84.26,84.87,83.27,84.76,1057272
15-Jan-14,85.38,85.38,83.21,84.34,1197851
14-Jan-14,82.87,84.68,82.36,84.31,1265508
13-Jan-14,86.43,86.83,83.68,84.45,1885086
10-Jan-14,85.40,86.80,85.15,86.80,2071530
9-Jan-14,85.72,86.25,84.19,85.17,1389132
8-Jan-14,84.76,85.63,84.28,85.15,1455402
7-Jan-14,80.03,85.58,80.03,84.91,2535679
6-Jan-14,80.82,81.09,79.35,80.38,1631076
3-Jan-14,80.50,81.34,79.71,80.92,1284502
2-Jan-14,82.48,82.50,79.40,80.48,1995592
31-Dec-13,81.84,82.89,81.38,82.83,814114
30-Dec-13,81.46,81.98,80.76,81.67,801215
27-Dec-13,83.82,83.89,81.45,81.64,892629
26-Dec-13,82.95,84.12,82.85,83.47,1369273
24-Dec-13,83.58,83.65,82.10,82.82,583818
23-Dec-13,83.78,83.80,82.55,83.40,936946
20-Dec-13,82.44,83.70,81.63,83.13,6376012
19-Dec-13,81.40,82.88,81.27,82.02,1413040
18-Dec-13,80.92,81.60,78.67,81.41,3046078
17-Dec-13,80.61,81.63,79.73,80.90,2357132
16-Dec-13,82.05,83.20,81.54,81.89,1859621
13-Dec-13,83.32,83.32,81.27,81.38,1596812
12-Dec-13,82.84,83.91,82.13,82.60,2181206
11-Dec-13,84.86,85.26,82.32,82.79,1764087
10-Dec-13,84.79,85.90,84.52,84.98,1746751
9-Dec-13,85.70,87.00,84.13,84.77,2298384
6-Dec-13,86.76,87.97,84.67,85.61,1631794
5-Dec-13,85.11,87.63,84.72,85.54,1472968
4-Dec-13,85.32,86.84,84.52,85.13,1933095
3-Dec-13,87.17,87.62,85.29,85.92,1430436
2-Dec-13,88.25,89.57,86.90,87.54,1186099
29-Nov-13,88.69,89.46,88.23,88.32,430970
27-Nov-13,87.38,88.94,87.29,88.31,740103
26-Nov-13,86.48,88.20,85.23,87.38,1703142
25-Nov-13,87.88,88.47,86.07,86.61,1170851
22-Nov-13,87.50,88.39,87.01,87.40,1082578
21-Nov-13,87.27,88.37,87.02,87.27,1261723
20-Nov-13,87.92,88.55,86.74,87.13,914998
19-Nov-13,87.21,88.98,86.60,87.51,1376019
18-Nov-13,87.64,89.21,86.52,87.42,1852404
15-Nov-13,89.76,90.43,87.26,87.77,2300834
14-Nov-13,87.62,89.18,87.16,89.18,2417450
13-Nov-13,84.85,87.60,83.58,87.49,2466895
12-Nov-13,84.94,85.22,83.64,84.90,1881038
11-Nov-13,84.40,85.96,83.77,85.02,1754360
8-Nov-13,84.09,85.90,83.17,84.48,1939813
7-Nov-13,86.53,87.00,80.69,83.88,3475743
6-Nov-13,88.01,88.68,86.10,86.61,1920266
5-Nov-13,88.06,89.47,86.35,88.07,2781098
4-Nov-13,84.00,88.41,83.42,88.22,3270850
1-Nov-13,83.08,84.10,82.21,83.38,1793052
31-Oct-13,81.50,84.64,81.20,82.72,3513290
30-Oct-13,82.48,83.00,79.63,80.22,3153854
29-Oct-13,77.85,82.35,77.51,82.26,3277451
28-Oct-13,76.89,78.22,75.88,77.79,2266260
25-Oct-13,75.30,77.57,74.96,76.98,3246385
24-Oct-13,72.00,75.15,69.33,74.85,10535250
23-Oct-13,75.05,75.98,73.15,75.21,4724570
22-Oct-13,75.60,77.30,73.14,75.50,3556851
21-Oct-13,72.10,74.15,72.05,74.11,2517613
18-Oct-13,73.13,73.50,71.60,71.87,2557383
17-Oct-13,74.84,74.84,72.08,72.74,2518660
16-Oct-13,74.41,75.35,73.75,75.00,2524732
15-Oct-13,75.23,75.43,73.50,73.87,3511152
14-Oct-13,73.40,75.07,72.54,75.01,3288414
11-Oct-13,72.35,74.38,72.12,74.01,2875446
10-Oct-13,71.88,72.82,70.15,72.27,2368068
9-Oct-13,71.22,72.07,68.12,70.67,2673624
8-Oct-13,75.74,75.83,70.87,71.70,2973410
7-Oct-13,77.89,78.00,75.66,75.85,1751960
4-Oct-13,78.35,79.46,78.00,78.41,1706585
3-Oct-13,79.51,79.89,77.30,78.66,1705798
2-Oct-13,78.15,79.79,77.61,79.66,1779485
1-Oct-13,75.74,78.60,75.30,78.50,1756503
30-Sep-13,74.72,76.61,74.16,75.84,1339694
27-Sep-13,75.00,76.09,74.10,75.85,1048786
26-Sep-13,74.99,75.89,74.58,75.30,883941
25-Sep-13,75.29,75.92,74.06,74.78,1245522
24-Sep-13,74.15,75.74,73.12,75.30,1220411
23-Sep-13,77.00,78.17,73.54,74.30,2376619
20-Sep-13,74.27,79.08,74.25,75.12,4446441
19-Sep-13,74.32,75.00,73.14,74.27,1196284
18-Sep-13,73.14,74.61,72.50,73.92,1645461
17-Sep-13,73.40,73.46,72.11,72.93,853614
16-Sep-13,73.83,74.16,72.56,72.60,748158
13-Sep-13,74.37,74.37,72.42,72.82,1291144
12-Sep-13,73.93,75.90,73.85,74.49,1257956
11-Sep-13,72.53,74.40,72.42,73.79,1645576
10-Sep-13,74.25,74.64,72.25,72.62,2320536
9-Sep-13,74.53,75.20,74.29,74.50,1198729
6-Sep-13,74.96,75.47,73.05,74.11,1012030
5-Sep-13,74.61,75.73,74.17,74.67,1000827
4-Sep-13,74.02,74.96,73.32,74.74,602677
3-Sep-13,74.90,75.31,72.76,73.82,1132502
30-Aug-13,74.64,74.67,72.60,73.97,1053990
29-Aug-13,72.32,74.61,71.28,74.18,1009123
28-Aug-13,71.51,73.16,71.16,72.52,1119510
27-Aug-13,71.21,71.78,70.60,71.08,1410236
26-Aug-13,71.72,72.64,71.50,72.25,1137127
23-Aug-13,71.65,72.62,70.91,71.87,1226805
22-Aug-13,70.39,71.43,70.00,71.21,870291
21-Aug-13,69.49,71.25,69.42,70.20,1022098
20-Aug-13,69.36,70.20,68.84,69.81,1230094
19-Aug-13,71.15,72.29,69.22,69.26,1409511
16-Aug-13,70.29,72.48,69.19,70.99,2404981
15-Aug-13,71.53,72.16,69.56,70.52,4459582
14-Aug-13,80.61,81.99,72.88,73.55,6890457
13-Aug-13,81.50,81.70,79.68,80.96,933208
12-Aug-13,80.76,82.20,80.03,81.26,1113753
9-Aug-13,80.90,81.49,80.01,80.94,1429002
8-Aug-13,78.55,80.54,78.48,79.71,1081438
7-Aug-13,78.89,78.99,76.32,77.99,1353940
6-Aug-13,78.20,80.69,77.43,79.28,2520191
5-Aug-13,75.96,78.04,75.83,78.01,1008620
2-Aug-13,75.90,76.27,74.92,75.79,1058051
1-Aug-13,75.78,76.93,75.14,75.89,1194112
31-Jul-13,73.71,76.20,73.59,75.02,1817219
30-Jul-13,73.94,74.66,73.27,73.27,1014159
29-Jul-13,73.49,74.74,72.01,73.29,1308760
26-Jul-13,70.46,74.86,70.46,73.95,2980489
25-Jul-13,69.88,72.26,68.71,71.10,5498980
24-Jul-13,60.60,62.15,60.41,61.14,2704002
23-Jul-13,60.98,61.29,60.03,60.66,1399920
22-Jul-13,61.11,61.27,60.27,60.65,1283847
19-Jul-13,62.37,62.39,60.25,60.62,1248948
18-Jul-13,61.61,62.97,61.50,62.27,1269512
17-Jul-13,60.94,61.34,60.20,61.09,1037123
16-Jul-13,60.67,60.95,59.85,60.62,1416130
15-Jul-13,61.35,61.35,60.09,60.45,807709
12-Jul-13,60.33,61.49,60.11,61.05,1265303
11-Jul-13,62.34,62.56,59.74,60.44,2705213
10-Jul-13,62.74,63.01,60.52,61.93,1737911
9-Jul-13,63.54,63.75,62.24,62.74,1302111
8-Jul-13,62.00,63.47,61.88,63.16,2060556
5-Jul-13,60.85,61.74,60.37,61.70,1602227
3-Jul-13,59.61,60.85,59.54,60.79,1203373
2-Jul-13,60.91,61.13,60.00,60.23,1817140
1-Jul-13,61.45,61.78,60.11,61.07,2544064
28-Jun-13,60.76,61.56,60.47,60.87,4314552
27-Jun-13,62.17,62.72,60.55,60.84,2360099
26-Jun-13,62.35,63.02,60.76,61.91,2344763
25-Jun-13,61.12,61.83,60.79,61.53,926868
24-Jun-13,59.48,61.23,58.74,60.68,1454658
21-Jun-13,61.86,62.30,60.10,60.28,2821705
20-Jun-13,62.70,63.69,61.32,61.52,1496601
19-Jun-13,63.41,64.85,63.37,63.77,973170
18-Jun-13,64.19,65.20,63.72,63.85,1659664
17-Jun-13,64.18,65.04,63.60,64.36,2113837
14-Jun-13,64.38,64.84,63.67,63.75,1243749
13-Jun-13,63.59,64.54,63.20,64.51,1208056
12-Jun-13,64.48,64.82,63.18,63.18,1419043
11-Jun-13,63.95,65.10,63.42,63.86,907594
10-Jun-13,64.17,64.49,63.57,64.31,931921
7-Jun-13,62.62,64.17,62.40,64.05,1090209
6-Jun-13,61.71,62.03,60.73,62.03,1486216
5-Jun-13,62.18,62.69,61.25,61.52,1026606
4-Jun-13,62.43,63.91,61.81,62.19,2868253
3-Jun-13,62.67,63.73,60.93,62.06,4068703
31-May-13,63.92,65.41,63.76,64.49,6723374
30-May-13,63.77,64.10,63.14,63.99,1248402
29-May-13,63.97,64.90,63.12,63.56,1783529
28-May-13,62.57,64.37,62.01,64.30,2532757
24-May-13,61.73,62.02,60.80,61.69,1454566
23-May-13,61.06,62.55,59.07,62.06,1491822
22-May-13,62.26,63.57,61.00,61.51,2051229
21-May-13,62.70,63.22,61.89,62.34,1773574
20-May-13,60.07,63.01,59.90,62.63,3039787
17-May-13,59.64,60.48,59.25,59.88,2675334
16-May-13,59.53,60.39,58.65,59.03,2265696
15-May-13,58.00,60.26,57.91,59.36,2893495
14-May-13,55.04,58.38,54.81,58.01,3802187
13-May-13,53.68,55.31,53.29,54.79,1785497
10-May-13,52.19,54.30,52.15,53.84,2088226
9-May-13,52.58,53.10,51.76,51.99,2300863
8-May-13,53.34,54.57,51.72,52.49,4386245
7-May-13,55.94,56.80,54.07,55.01,2901297
6-May-13,55.26,55.55,54.83,55.17,1974243
3-May-13,54.21,55.64,54.00,55.30,2378024
2-May-13,51.90,53.54,51.90,53.51,1271835
1-May-13,52.53,53.00,51.88,52.11,1115533
30-Apr-13,53.07,53.50,52.38,52.58,1842576
29-Apr-13,53.69,54.00,52.25,53.07,1898109
26-Apr-13,53.75,54.80,52.83,53.72,3037972
25-Apr-13,51.33,53.39,51.30,53.01,2121861
24-Apr-13,52.11,52.61,51.00,51.34,1116061
23-Apr-13,51.41,52.55,51.37,52.30,789934
22-Apr-13,51.29,51.55,50.34,51.09,742846
19-Apr-13,51.23,51.82,50.62,51.09,779483
18-Apr-13,52.19,52.45,50.95,51.35,1214375
17-Apr-13,52.14,52.54,51.08,52.17,1698413
16-Apr-13,51.90,52.97,51.85,52.94,1565581
15-Apr-13,52.82,53.50,51.10,51.56,3201609
12-Apr-13,51.85,52.69,51.60,52.49,1101877
11-Apr-13,50.18,52.35,50.11,51.89,1987615
10-Apr-13,48.66,50.18,48.41,50.07,2281238
9-Apr-13,48.70,49.04,48.18,48.29,1314673
8-Apr-13,48.86,49.48,48.27,48.68,1272591
5-Apr-13,49.03,49.51,48.29,48.88,1439847
4-Apr-13,48.87,49.80,48.65,49.52,1364782
3-Apr-13,50.62,50.62,48.75,49.11,2461086
2-Apr-13,51.75,51.75,50.13,50.51,2715172
1-Apr-13,52.53,54.14,51.48,51.70,1695632
28-Mar-13,52.24,52.90,52.14,52.52,1034285
27-Mar-13,52.03,52.73,51.36,52.20,896698
26-Mar-13,53.22,53.22,51.93,52.44,1256101
25-Mar-13,52.93,53.50,52.13,52.24,901361
22-Mar-13,52.06,52.58,51.96,52.50,1077185
21-Mar-13,52.56,53.00,51.64,51.75,2136343
20-Mar-13,52.47,53.45,52.47,53.24,1318940
19-Mar-13,52.51,53.35,51.57,52.30,1256238
18-Mar-13,52.12,53.41,51.70,52.43,1098101
15-Mar-13,52.47,53.73,52.23,52.40,2655851
14-Mar-13,52.50,53.41,52.13,52.59,1482357
13-Mar-13,51.14,52.61,50.77,52.39,2037598
12-Mar-13,51.34,51.60,50.61,51.15,1781358
11-Mar-13,51.09,51.63,50.26,51.40,1223136
8-Mar-13,50.77,51.34,50.56,51.03,1531711
7-Mar-13,48.59,51.15,48.10,50.59,3630467
6-Mar-13,48.00,50.88,47.90,48.63,4827085
5-Mar-13,45.79,47.84,45.65,47.68,2587016
4-Mar-13,45.42,45.66,44.75,45.51,1841692
1-Mar-13,45.42,45.94,44.59,45.62,2159112
28-Feb-13,45.24,45.74,44.58,45.54,1993220
27-Feb-13,44.15,45.56,44.10,45.27,2194735
26-Feb-13,43.68,44.21,43.44,43.73,1138070
25-Feb-13,44.13,44.77,43.50,43.64,1846842
22-Feb-13,43.11,44.09,42.90,43.85,1985990
21-Feb-13,42.20,43.47,42.20,42.94,1498508
20-Feb-13,43.53,43.55,42.68,42.76,1231049
19-Feb-13,44.49,44.49,43.31,43.52,1607010
15-Feb-13,43.60,45.42,43.50,44.42,2821097
14-Feb-13,42.58,44.86,42.04,43.55,7033474
13-Feb-13,46.79,47.78,46.64,46.90,2628967
12-Feb-13,46.22,46.87,45.84,46.66,1813139
11-Feb-13,47.13,47.20,46.00,46.23,1232182
8-Feb-13,46.82,47.42,46.48,47.02,913373
7-Feb-13,47.02,47.03,45.66,46.85,1991430
6-Feb-13,47.05,49.35,46.82,47.00,4129805
5-Feb-13,45.86,46.91,45.70,46.84,1237309
4-Feb-13,46.09,46.78,45.56,45.64,1279350
1-Feb-13,46.29,46.57,45.64,46.30,1772423
31-Jan-13,45.43,46.34,45.07,46.28,1284604
30-Jan-13,46.10,46.29,45.16,45.52,1364123
29-Jan-13,46.42,46.55,45.65,45.90,1609981
28-Jan-13,46.34,47.77,46.02,46.50,2428380
25-Jan-13,44.94,46.05,44.76,45.96,1657159
24-Jan-13,44.78,45.72,44.59,44.82,1029043
23-Jan-13,44.41,44.95,44.20,44.84,1236453
22-Jan-13,43.59,44.38,43.31,44.32,1148828
18-Jan-13,44.16,44.17,43.17,43.68,1901351
17-Jan-13,43.98,44.57,43.53,44.09,1399879
16-Jan-13,44.05,44.20,43.49,43.97,1241630
15-Jan-13,44.14,44.30,43.36,44.15,959328
14-Jan-13,43.89,44.33,43.46,44.15,957043
11-Jan-13,43.65,44.00,43.50,43.98,990129
10-Jan-13,44.38,44.60,42.77,43.49,2676908
9-Jan-13,44.77,45.20,44.29,44.33,1261370
8-Jan-13,44.85,45.45,44.27,44.72,2192273
7-Jan-13,44.03,45.33,43.75,45.12,1823801
4-Jan-13,44.01,44.16,43.40,44.12,1052242
3-Jan-13,44.09,44.50,43.45,43.91,1770400
2-Jan-13,42.94,44.17,42.80,44.16,2106593
31-Dec-12,41.34,42.27,40.88,41.92,2324618
28-Dec-12,41.73,41.98,41.29,41.34,653364
27-Dec-12,41.85,42.04,41.29,41.93,784916
26-Dec-12,42.30,42.44,41.55,41.80,793193
24-Dec-12,43.25,44.10,42.13,42.25,1264037
21-Dec-12,42.79,42.79,41.48,41.97,2444803
20-Dec-12,43.49,43.74,42.89,42.97,2640047
19-Dec-12,43.10,44.29,42.85,43.41,1986482
18-Dec-12,43.01,44.29,42.92,42.98,5502114
17-Dec-12,41.86,43.65,41.31,43.45,4647837
14-Dec-12,42.76,42.77,41.40,41.67,2446895
13-Dec-12,42.91,43.15,42.02,42.71,3991027
12-Dec-12,41.05,42.89,40.61,42.65,6426210
11-Dec-12,47.00,47.00,40.64,40.91,12177353
10-Dec-12,39.58,39.89,37.91,38.39,1933399
7-Dec-12,39.10,39.69,38.35,38.59,1496691
6-Dec-12,38.50,39.34,38.23,39.29,1858776
5-Dec-12,37.35,38.96,37.35,38.37,2426329
4-Dec-12,37.66,37.76,35.96,37.53,3610740
3-Dec-12,38.24,38.38,37.50,37.70,3228924
30-Nov-12,37.89,39.07,37.62,38.19,2961161
29-Nov-12,37.96,38.21,37.55,37.87,1845180
28-Nov-12,37.63,37.97,37.16,37.90,990631
27-Nov-12,38.03,38.04,37.39,37.77,702418
26-Nov-12,38.00,38.09,37.46,37.91,767636
23-Nov-12,37.64,38.00,36.96,38.00,581840
21-Nov-12,37.48,37.68,36.89,37.40,1836660
20-Nov-12,38.09,38.39,37.05,37.28,2253509
19-Nov-12,38.40,39.32,38.08,38.16,2747632
16-Nov-12,36.54,38.70,36.51,38.03,4298874
15-Nov-12,35.69,36.99,35.50,36.60,4309164
14-Nov-12,35.09,36.35,35.09,35.64,2583296
13-Nov-12,34.70,35.67,34.31,35.54,1738803
12-Nov-12,35.48,35.89,34.88,34.98,2787232
9-Nov-12,33.72,35.04,32.50,34.31,4891338
8-Nov-12,33.89,34.47,33.71,34.17,2537274
7-Nov-12,34.01,34.42,32.95,34.00,3693442
6-Nov-12,34.43,34.50,33.70,33.83,2094764
5-Nov-12,34.70,35.00,34.14,34.45,2430567
2-Nov-12,35.01,35.95,34.64,35.12,12215407
1-Nov-12,30.48,30.49,28.63,29.41,7728693
31-Oct-12,30.73,30.99,29.70,30.29,5069240
26-Oct-12,32.15,32.32,29.36,30.27,7092043
25-Oct-12,31.61,31.65,30.44,30.78,2024886
24-Oct-12,31.59,31.81,31.08,31.40,2110396
23-Oct-12,30.14,31.84,30.13,31.50,2252884
22-Oct-12,29.85,30.72,29.81,30.70,1389366
19-Oct-12,30.40,30.48,29.06,29.93,3519534
18-Oct-12,31.24,31.29,30.26,30.57,2785678
17-Oct-12,31.13,31.13,30.55,31.09,3058007
16-Oct-12,31.69,31.90,31.14,31.18,1981735
15-Oct-12,31.28,31.58,31.23,31.49,1786904
12-Oct-12,30.72,31.41,30.44,31.22,3370898
11-Oct-12,32.68,32.68,30.97,31.15,3090939
10-Oct-12,32.77,32.80,32.13,32.22,1935430
9-Oct-12,33.36,33.44,32.45,32.52,2518396
8-Oct-12,33.28,34.16,33.15,33.57,1462957
5-Oct-12,33.51,34.18,33.33,33.49,2722971
4-Oct-12,32.64,33.45,32.15,33.40,1924345
3-Oct-12,32.41,32.77,31.99,32.12,2502826
2-Oct-12,32.00,32.66,31.80,32.39,1951726
1-Oct-12,33.23,33.27,31.70,31.94,3920172
28-Sep-12,33.38,33.40,32.57,32.93,2988327
27-Sep-12,32.39,34.07,31.71,33.42,3640930
26-Sep-12,33.85,34.09,33.05,33.24,1886316
25-Sep-12,33.75,34.44,33.70,33.74,2135879
24-Sep-12,34.53,34.53,33.47,33.70,2424375
21-Sep-12,34.31,35.07,34.15,34.53,4039373
20-Sep-12,34.84,34.85,33.82,34.48,1981632
19-Sep-12,34.96,35.19,34.00,34.90,1783930
18-Sep-12,35.81,36.19,34.70,34.73,2077852
17-Sep-12,36.07,36.29,35.64,35.81,1525941
14-Sep-12,36.47,36.98,36.02,36.06,2209079
13-Sep-12,35.35,36.70,35.05,36.34,1884980
12-Sep-12,35.58,35.95,35.11,35.25,1176603
11-Sep-12,35.16,35.82,34.99,35.38,1408662
10-Sep-12,35.53,35.96,35.25,35.29,913020
7-Sep-12,35.46,35.78,35.23,35.61,1156061
6-Sep-12,35.39,36.25,35.33,35.45,2343613
5-Sep-12,34.61,35.92,34.60,35.40,2693973
4-Sep-12,33.50,34.66,33.19,34.65,2224911
31-Aug-12,33.98,34.26,33.28,33.44,1273424
30-Aug-12,34.13,34.33,33.64,33.71,976326
29-Aug-12,34.13,34.38,33.34,34.21,1701860
28-Aug-12,33.88,34.44,33.64,34.26,2563060
27-Aug-12,34.29,34.34,33.89,33.97,737007
24-Aug-12,34.50,34.70,33.30,34.05,5589341
23-Aug-12,33.73,34.12,33.48,33.54,2111725
22-Aug-12,33.84,34.27,33.51,33.94,1716417
21-Aug-12,33.96,34.75,33.71,34.05,2442829
20-Aug-12,33.27,33.95,32.76,33.84,1842894
17-Aug-12,33.66,33.74,32.37,33.45,3050828
16-Aug-12,33.89,34.30,33.14,33.85,1992263
15-Aug-12,33.20,34.72,32.51,33.96,4098523
14-Aug-12,33.76,33.93,32.28,33.16,5752605
13-Aug-12,35.27,35.29,32.80,33.52,9384368
10-Aug-12,36.26,36.54,35.05,35.10,3806630
9-Aug-12,36.92,37.12,36.10,36.18,1646342
8-Aug-12,37.08,37.69,36.10,36.77,4031839
7-Aug-12,38.45,39.00,38.24,38.66,2070407
6-Aug-12,36.67,38.39,36.50,38.01,1985691
3-Aug-12,36.57,37.03,35.91,36.68,2291729
2-Aug-12,36.20,37.50,35.58,36.21,1661890
1-Aug-12,37.47,37.82,36.30,36.57,2856703
31-Jul-12,36.17,37.60,35.99,37.41,3158425
30-Jul-12,35.52,36.18,35.25,36.01,2592073
27-Jul-12,35.57,36.63,35.12,35.41,3029563
26-Jul-12,36.76,37.01,34.03,35.04,6637443
25-Jul-12,36.13,37.45,35.00,36.18,9251455
24-Jul-12,46.25,46.38,43.14,43.47,6151587
23-Jul-12,44.15,46.01,43.06,45.61,2384863
20-Jul-12,45.33,46.40,44.81,44.90,2210547
19-Jul-12,45.42,47.81,44.75,45.10,2613641
18-Jul-12,45.28,46.07,45.28,45.42,815225
17-Jul-12,47.00,47.03,45.37,45.52,1760643
16-Jul-12,45.91,46.24,44.44,46.15,1010530
13-Jul-12,44.01,46.95,43.49,45.85,2290489
12-Jul-12,43.79,44.54,43.26,43.88,1544338
11-Jul-12,44.96,45.47,43.98,44.28,923026
10-Jul-12,45.70,45.81,43.76,44.76,1248501
9-Jul-12,46.27,46.69,44.95,45.44,926056
6-Jul-12,45.84,46.54,45.36,46.36,887031
5-Jul-12,46.09,47.44,45.71,46.27,1521158
3-Jul-12,46.02,46.17,44.70,46.05,564352
2-Jul-12,44.73,47.00,44.72,46.00,1814865
29-Jun-12,44.74,46.30,44.13,44.69,1908819
28-Jun-12,43.97,44.26,42.18,43.58,1209404
27-Jun-12,44.36,45.35,43.88,44.42,996765
26-Jun-12,44.05,44.88,43.95,44.01,890571
25-Jun-12,44.76,45.39,43.98,44.07,1158439
22-Jun-12,43.46,46.09,43.37,45.53,3595348
21-Jun-12,43.53,43.85,42.35,43.01,978168
20-Jun-12,44.10,44.10,42.74,43.29,1370025
19-Jun-12,45.00,45.12,43.63,44.24,1841995
18-Jun-12,44.14,45.41,43.77,44.91,1448980
15-Jun-12,44.18,44.45,43.50,44.38,1995844
14-Jun-12,43.63,44.57,42.70,44.05,956985
13-Jun-12,44.49,45.31,43.31,43.43,1474300
12-Jun-12,43.04,45.07,42.80,45.02,2116508
11-Jun-12,44.46,44.86,42.53,42.94,2273888
8-Jun-12,42.01,43.15,41.56,43.02,1976675
7-Jun-12,44.00,44.00,41.59,41.67,1862158
6-Jun-12,40.86,43.81,40.86,42.99,2165621
5-Jun-12,41.21,42.21,40.44,41.09,1301682
4-Jun-12,41.16,41.62,40.12,41.49,1525015
1-Jun-12,41.61,41.80,39.92,41.02,2355805
31-May-12,43.48,43.85,42.14,42.88,2499089
30-May-12,44.88,44.88,42.71,43.16,2061632
29-May-12,45.80,45.80,44.39,45.26,1567661
25-May-12,44.53,45.23,44.52,45.00,2139193
24-May-12,45.04,45.32,44.25,44.40,1649999
23-May-12,42.21,45.82,41.91,45.15,3127923
22-May-12,42.33,44.22,41.99,42.63,2271425
21-May-12,40.87,42.63,40.33,42.17,2208701
18-May-12,41.57,41.59,39.81,40.66,3278731
17-May-12,43.69,43.73,40.73,41.03,2521888
16-May-12,42.93,43.84,42.72,43.64,3112879
15-May-12,41.81,43.09,41.47,42.65,2558228
14-May-12,41.40,42.57,41.01,41.64,1306554
11-May-12,40.57,42.05,40.50,41.73,1494835
10-May-12,41.19,41.70,40.45,40.79,1546723
9-May-12,40.54,41.08,40.10,40.68,1071111
8-May-12,40.69,41.30,39.40,41.20,2288471
7-May-12,39.80,40.98,39.80,40.97,3029061
4-May-12,39.99,40.69,39.75,40.20,4765267
3-May-12,42.63,43.50,40.24,40.90,3523523
2-May-12,43.25,44.46,42.08,42.63,7645626
1-May-12,36.38,37.89,36.07,36.53,4908586
30-Apr-12,36.46,37.54,36.40,37.51,2465543
27-Apr-12,36.24,37.85,35.88,36.87,5911832
26-Apr-12,33.74,34.51,33.27,34.38,1978102
25-Apr-12,33.73,34.10,33.53,33.69,1181841
24-Apr-12,33.79,34.20,33.23,33.38,927121
23-Apr-12,34.72,34.75,33.75,33.94,3340514
20-Apr-12,35.35,35.66,34.94,35.02,1228300
19-Apr-12,35.33,36.43,35.16,35.22,1065148
18-Apr-12,34.78,35.60,34.75,35.44,937401
17-Apr-12,34.16,35.18,33.98,35.00,1941364
16-Apr-12,34.63,34.84,33.74,33.83,918892
13-Apr-12,35.06,35.36,34.39,34.50,559480
12-Apr-12,34.84,35.47,34.75,35.10,1290730
11-Apr-12,35.01,35.41,34.74,34.78,1014548
10-Apr-12,35.45,35.56,34.47,34.58,1154033
9-Apr-12,35.56,35.83,35.16,35.50,1097171
5-Apr-12,36.04,36.93,35.85,36.23,2258925
4-Apr-12,36.41,36.80,35.80,36.25,1634952
3-Apr-12,37.42,37.59,36.54,36.59,1832917
2-Apr-12,35.62,37.78,35.04,37.37,3570484
30-Mar-12,35.28,36.86,35.27,35.67,3047883
29-Mar-12,34.25,35.18,33.92,35.16,1574906
28-Mar-12,35.15,35.73,34.08,34.57,1842546
27-Mar-12,34.30,36.05,33.90,35.29,2897748
26-Mar-12,33.31,34.50,32.86,34.30,2182080
23-Mar-12,33.01,33.36,32.81,33.27,531102
22-Mar-12,33.51,33.76,33.02,33.25,1047119
21-Mar-12,34.17,34.40,33.35,33.77,1317052
20-Mar-12,33.46,34.29,33.46,34.09,1064443
19-Mar-12,33.80,34.15,33.80,34.00,855753
16-Mar-12,32.51,34.92,31.99,34.00,4298036
15-Mar-12,31.14,32.54,30.92,32.47,2318958
14-Mar-12,30.40,31.00,30.23,30.99,1230156
13-Mar-12,30.92,30.99,30.25,30.48,2280549
12-Mar-12,30.73,31.06,30.50,30.70,1490762
9-Mar-12,31.30,31.35,30.56,30.70,705496
8-Mar-12,31.20,31.79,31.14,31.26,1151676
7-Mar-12,31.50,31.66,30.91,31.07,1478032
6-Mar-12,31.50,31.80,30.80,31.42,1034778
5-Mar-12,32.29,32.41,31.81,31.97,648856
2-Mar-12,32.37,33.09,32.04,32.45,1640333
1-Mar-12,31.89,32.88,31.09,32.62,2641389
29-Feb-12,32.32,32.43,31.67,32.23,1356150
28-Feb-12,32.09,33.49,32.00,32.31,2441996
27-Feb-12,31.38,32.08,31.14,31.91,1439394
24-Feb-12,30.19,32.00,30.19,31.80,1904275
23-Feb-12,30.06,30.69,29.56,30.59,2041670
22-Feb-12,30.95,30.95,29.85,30.00,3275470
21-Feb-12,30.61,30.74,30.12,30.67,2462663
17-Feb-12,30.50,30.94,29.95,30.70,1939867
16-Feb-12,29.27,30.65,28.73,30.40,2583207
15-Feb-12,27.80,30.10,27.52,29.28,4922770
14-Feb-12,28.70,28.79,26.93,27.63,4072040
13-Feb-12,30.07,30.13,28.50,28.59,2396352
10-Feb-12,29.02,30.89,28.65,30.04,3623540
9-Feb-12,28.28,29.85,27.99,29.34,12923339
8-Feb-12,34.78,34.97,33.02,34.34,3223195
7-Feb-12,35.28,35.48,34.82,34.84,2235853
6-Feb-12,35.35,35.75,35.06,35.15,1967930
3-Feb-12,35.07,35.93,35.07,35.38,2993420
2-Feb-12,35.28,35.60,33.83,34.88,2447714
1-Feb-12,33.11,35.17,33.08,35.06,3610274
31-Jan-12,30.84,33.04,30.84,32.91,1258128
30-Jan-12,30.96,31.84,30.64,31.64,904412
27-Jan-12,30.39,31.46,30.35,31.24,1227465
26-Jan-12,31.48,31.94,30.46,31.05,1881489
25-Jan-12,30.55,32.33,30.55,31.49,2349256
24-Jan-12,30.14,30.75,29.97,30.69,1299072
23-Jan-12,30.54,30.79,30.23,30.38,2565392
20-Jan-12,30.42,30.49,29.82,30.40,1307550
19-Jan-12,29.10,30.88,29.02,30.33,2712854
18-Jan-12,28.69,29.43,28.52,29.03,1205137
17-Jan-12,29.58,29.80,28.91,28.99,3210091
13-Jan-12,28.22,29.77,27.93,29.51,1993345
12-Jan-12,27.87,29.17,27.80,28.46,2005567
11-Jan-12,26.69,28.22,26.56,27.79,1803258
10-Jan-12,26.73,28.24,26.59,27.75,4177497
9-Jan-12,25.74,26.77,25.65,26.26,1965244
6-Jan-12,25.52,26.02,25.17,25.53,626570
5-Jan-12,24.57,25.82,24.57,25.52,1534670
4-Jan-12,25.82,26.09,25.41,25.68,1680917
3-Jan-12,26.15,27.35,26.10,26.63,3721786
30-Dec-11,24.97,25.55,24.64,25.21,1798396
29-Dec-11,25.54,25.66,24.79,24.82,2247268
28-Dec-11,25.25,25.98,24.94,25.77,2098539
27-Dec-11,25.36,26.10,24.63,25.94,2887314
23-Dec-11,24.71,27.14,24.50,26.02,2744280
22-Dec-11,27.12,27.60,23.99,24.53,6294064
21-Dec-11,30.00,30.00,27.51,27.67,2871800
20-Dec-11,29.50,30.62,29.47,30.25,2017106
19-Dec-11,28.69,29.46,28.41,28.97,1048411
16-Dec-11,29.92,29.92,28.00,28.46,966618
15-Dec-11,27.87,29.10,27.60,28.33,1417557
14-Dec-11,28.19,28.19,26.85,27.12,445374
13-Dec-11,28.53,28.53,27.01,27.50,452443
12-Dec-11,28.28,28.28,27.00,27.45,393301
9-Dec-11,27.93,28.00,26.70,27.91,716180
8-Dec-11,26.06,27.78,25.76,26.55,719530
7-Dec-11,27.50,27.76,24.00,27.45,1413628
