﻿Date,Open,High,Low,Close,Volume
20-Jun-17,376.67,378.88,369.73,372.24,7438701
19-Jun-17,375.00,376.70,367.80,369.80,6549332
16-Jun-17,377.98,378.01,370.10,371.40,6730973
15-Jun-17,372.50,375.46,366.49,375.34,10426469
14-Jun-17,381.08,384.25,376.31,380.66,12818429
13-Jun-17,367.62,376.00,366.61,375.95,11807920
12-Jun-17,357.99,364.50,350.62,359.01,10517660
9-Jun-17,374.42,376.87,354.80,357.32,17261435
8-Jun-17,363.75,371.90,360.22,370.00,9061496
7-Jun-17,356.34,360.50,355.14,359.65,9397959
6-Jun-17,344.70,359.49,339.97,352.85,11086798
5-Jun-17,338.50,348.44,334.21,347.32,6784368
2-Jun-17,339.77,342.88,335.93,339.85,5590239
1-Jun-17,344.00,344.88,337.29,340.37,7607996
31-May-17,337.69,342.89,335.16,341.01,9963444
30-May-17,326.00,336.28,325.76,335.10,7782916
26-May-17,317.28,325.49,316.31,325.14,7802199
25-May-17,311.02,316.97,307.81,316.83,5013963
24-May-17,306.51,311.00,305.40,310.22,5041692
23-May-17,310.46,310.73,303.48,303.86,4318354
22-May-17,312.80,314.37,306.80,310.35,4329178
19-May-17,315.50,316.50,310.20,310.83,4687572
18-May-17,307.00,313.94,305.31,313.06,5653801
17-May-17,314.39,314.63,305.50,306.11,6711940
16-May-17,317.59,320.06,315.14,317.01,4152484
15-May-17,318.38,320.20,312.53,315.88,7622004
12-May-17,325.48,327.00,321.53,324.81,4121612
11-May-17,323.40,326.00,319.60,323.10,4753819
10-May-17,321.56,325.50,318.12,325.22,5741607
9-May-17,309.38,321.99,309.10,321.26,9676537
8-May-17,310.90,313.79,305.82,307.19,7006471
5-May-17,298.00,308.55,296.80,308.35,8177347
4-May-17,307.44,307.77,290.76,295.46,14152008
3-May-17,317.67,321.53,310.45,311.02,7133365
2-May-17,324.00,327.66,316.56,318.89,5382777
1-May-17,314.88,327.25,314.81,322.83,8829565
28-Apr-17,309.83,314.80,308.00,314.07,4505478
27-Apr-17,311.69,313.09,307.50,308.63,3468569
26-Apr-17,312.37,314.50,309.00,310.17,4695044
25-Apr-17,308.00,313.98,305.86,313.79,6737708
24-Apr-17,309.22,310.55,306.02,308.03,5083505
21-Apr-17,302.00,306.40,300.42,305.60,4509756
20-Apr-17,306.51,309.15,300.23,302.51,6149352
19-Apr-17,302.46,306.62,302.11,305.52,3898024
18-Apr-17,299.70,300.84,297.90,300.25,3035698
17-Apr-17,302.70,304.00,298.68,301.44,4138736
13-Apr-17,296.70,307.39,295.30,304.00,9284634
12-Apr-17,306.34,308.45,296.32,296.84,6050682
11-Apr-17,313.38,313.47,305.50,308.71,5724577
10-Apr-17,309.15,313.73,308.71,312.39,7664458
7-Apr-17,297.50,302.69,297.15,302.54,4579613
6-Apr-17,296.88,301.94,294.10,298.70,5520588
5-Apr-17,302.04,304.88,294.20,295.00,7880938
4-Apr-17,296.89,304.81,294.53,303.70,10134556
3-Apr-17,286.90,299.00,284.58,298.52,13888618
31-Mar-17,278.73,279.68,276.32,278.30,3294640
30-Mar-17,278.04,282.00,277.21,277.92,4148426
29-Mar-17,278.34,279.60,275.54,277.38,3676157
28-Mar-17,277.02,280.68,275.00,277.45,7987604
27-Mar-17,260.60,270.57,259.75,270.22,6230795
24-Mar-17,255.70,263.89,255.01,263.16,5647253
23-Mar-17,255.39,257.67,253.30,254.78,3320245
22-Mar-17,251.56,255.07,250.51,255.01,4059297
21-Mar-17,262.83,264.80,250.24,250.68,6908554
20-Mar-17,260.60,264.55,258.82,261.92,3614294
17-Mar-17,264.00,265.33,261.20,261.50,6497496
16-Mar-17,262.40,265.75,259.06,262.05,7132153
15-Mar-17,257.00,261.00,254.27,255.73,5330806
14-Mar-17,246.11,258.12,246.02,258.00,7598446
13-Mar-17,244.82,246.85,242.78,246.17,3022625
10-Mar-17,246.21,246.50,243.00,243.69,3066272
9-Mar-17,247.63,248.66,243.00,244.90,3879293
8-Mar-17,247.00,250.07,245.32,246.87,3728649
7-Mar-17,251.92,253.89,248.32,248.59,3459470
6-Mar-17,247.91,251.70,247.51,251.21,3355500
3-Mar-17,251.33,251.90,249.00,251.57,2929234
2-Mar-17,249.71,253.28,248.27,250.48,3351833
1-Mar-17,254.18,254.85,249.11,250.02,4809488
28-Feb-17,244.19,251.00,243.90,249.99,6078145
27-Feb-17,248.17,248.36,242.01,246.23,11460810
24-Feb-17,252.66,258.25,250.20,257.00,8171626
23-Feb-17,264.00,264.66,255.56,255.99,14915249
22-Feb-17,280.31,283.45,272.60,273.51,8754975
21-Feb-17,275.45,281.40,274.01,277.39,5676747
17-Feb-17,265.80,272.89,264.15,272.23,6257149
16-Feb-17,277.60,280.00,268.50,268.95,7077322
15-Feb-17,280.00,282.24,276.44,279.76,4947856
14-Feb-17,279.03,287.39,278.61,280.98,7345224
13-Feb-17,270.74,280.79,270.51,280.60,7029605
10-Feb-17,269.79,270.95,266.11,269.23,3619739
9-Feb-17,266.25,271.18,266.15,269.20,7820222
8-Feb-17,257.35,263.36,256.20,262.08,3933014
7-Feb-17,258.19,260.00,256.42,257.48,4244775
6-Feb-17,251.00,257.82,250.63,257.77,3562517
3-Feb-17,251.91,252.18,249.68,251.33,2186723
2-Feb-17,248.34,252.42,247.71,251.55,2499775
1-Feb-17,253.05,253.20,249.05,249.24,3958829
31-Jan-17,249.24,255.89,247.70,251.93,4116104
30-Jan-17,252.53,255.29,247.10,250.63,3801074
27-Jan-17,251.38,253.00,248.52,252.95,3166336
26-Jan-17,254.29,255.74,250.75,252.51,3152123
25-Jan-17,257.31,258.46,251.80,254.47,5146361
24-Jan-17,250.00,254.80,249.65,254.61,4965451
23-Jan-17,245.85,250.89,245.50,248.92,6262938
20-Jan-17,245.46,246.00,243.01,244.73,4204275
19-Jan-17,247.25,248.68,240.75,243.76,7732303
18-Jan-17,236.65,239.71,235.58,238.36,3768967
17-Jan-17,236.70,239.96,234.37,235.58,4617522
13-Jan-17,230.00,237.85,229.59,237.75,6092960
12-Jan-17,229.06,230.70,225.58,229.59,3790229
11-Jan-17,229.07,229.98,226.68,229.73,3650825
10-Jan-17,232.00,232.00,226.89,229.87,3659955
9-Jan-17,228.97,231.92,228.00,231.28,3979484
6-Jan-17,226.93,230.31,225.45,229.01,5527893
5-Jan-17,226.42,227.48,221.95,226.75,5911695
4-Jan-17,214.75,228.00,214.31,226.99,11213471
3-Jan-17,214.86,220.33,210.96,216.99,5923254
30-Dec-16,216.30,217.50,211.68,213.69,4642620
29-Dec-16,218.56,219.20,214.12,214.68,4044968
28-Dec-16,221.53,223.80,217.20,219.74,3782456
27-Dec-16,214.88,222.25,214.42,219.53,5915732
23-Dec-16,208.00,213.45,207.71,213.34,4670464
22-Dec-16,208.22,209.99,206.50,208.45,3111108
21-Dec-16,208.45,212.23,207.41,207.70,5207622
20-Dec-16,203.05,209.00,202.50,208.79,4689071
19-Dec-16,202.49,204.45,199.84,202.73,3488071
16-Dec-16,198.08,202.59,197.60,202.49,3796889
15-Dec-16,198.41,200.74,197.39,197.58,3219567
14-Dec-16,198.74,203.00,196.76,198.69,4150927
13-Dec-16,193.18,201.28,193.00,198.15,6823884
12-Dec-16,192.80,194.42,191.04,192.43,2438876
9-Dec-16,190.87,193.84,190.81,192.18,2722505
8-Dec-16,192.05,192.50,189.54,192.29,3194148
7-Dec-16,186.15,193.40,185.00,193.15,5461851
6-Dec-16,185.52,186.58,182.68,185.85,3391622
5-Dec-16,182.51,188.89,182.51,186.80,4072239
2-Dec-16,182.88,184.88,180.00,181.47,4042324
1-Dec-16,188.25,188.53,181.00,181.88,5126401
30-Nov-16,191.00,191.89,187.50,189.40,3547104
29-Nov-16,195.56,196.73,189.50,189.57,4439256
28-Nov-16,195.48,199.35,194.55,196.12,4529182
25-Nov-16,193.64,197.24,193.64,196.65,2366098
23-Nov-16,190.61,195.64,189.00,193.14,4891893
22-Nov-16,185.84,191.47,183.71,191.17,5603361
21-Nov-16,185.04,188.89,184.41,184.52,4361043
18-Nov-16,190.65,193.00,185.00,185.02,5210347
17-Nov-16,183.49,189.49,182.11,188.66,4887067
16-Nov-16,182.65,184.73,181.21,183.93,3434437
15-Nov-16,182.78,186.43,182.05,183.77,3902018
14-Nov-16,188.00,188.25,178.19,181.45,6552205
11-Nov-16,184.24,188.88,183.00,188.56,3988504
10-Nov-16,191.05,191.61,180.42,185.35,6750341
9-Nov-16,186.88,192.00,183.95,190.06,8173065
8-Nov-16,193.79,197.49,191.26,194.94,3267580
7-Nov-16,193.59,194.29,190.05,193.21,3870112
4-Nov-16,189.00,193.46,185.96,190.56,5146043
3-Nov-16,189.00,191.47,187.04,187.42,2653023
2-Nov-16,190.05,192.70,187.50,188.02,4253382
1-Nov-16,198.04,198.50,188.10,190.79,7060036
31-Oct-16,202.49,202.49,195.81,197.73,4692273
28-Oct-16,204.00,205.32,199.83,199.97,4280141
27-Oct-16,211.34,213.70,201.65,204.01,13093744
26-Oct-16,201.00,203.19,200.10,202.24,5632841
25-Oct-16,202.90,204.69,201.20,202.34,2445014
24-Oct-16,201.00,203.95,200.25,202.76,2751562
21-Oct-16,198.60,201.57,197.41,200.09,2943402
20-Oct-16,202.12,203.00,197.05,199.10,5072877
19-Oct-16,199.74,206.66,198.06,203.56,6991183
18-Oct-16,195.99,199.47,193.26,199.10,5680475
17-Oct-16,197.05,198.39,192.00,193.96,4554080
14-Oct-16,200.66,201.43,196.30,196.51,4269850
13-Oct-16,200.50,200.90,197.05,200.24,2495413
12-Oct-16,200.95,203.88,200.42,201.51,1970689
11-Oct-16,201.85,202.20,198.31,200.10,2328422
10-Oct-16,201.35,204.14,199.66,200.95,3316297
7-Oct-16,201.00,201.32,195.80,196.61,3493018
6-Oct-16,202.46,204.21,200.21,201.00,4703402
5-Oct-16,212.24,213.15,208.12,208.46,1877534
4-Oct-16,213.10,213.32,208.82,211.41,3541481
3-Oct-16,212.30,215.67,208.25,213.70,5999892
30-Sep-16,202.21,204.98,199.55,204.03,2586273
29-Sep-16,205.60,207.33,200.58,200.70,2727029
28-Sep-16,207.51,208.25,205.26,206.27,2088374
27-Sep-16,209.65,209.98,204.61,205.81,3373180
26-Sep-16,206.50,211.00,206.50,208.99,2394358
23-Sep-16,205.99,210.18,205.67,207.45,2905229
22-Sep-16,206.40,207.28,203.00,206.43,2382902
21-Sep-16,206.37,207.00,201.56,205.22,2633503
20-Sep-16,206.85,207.75,203.91,204.64,2410488
19-Sep-16,207.00,209.43,205.00,206.34,2299498
16-Sep-16,200.42,205.70,199.00,205.40,3107808
15-Sep-16,196.49,202.52,196.40,200.42,3085115
14-Sep-16,195.75,197.92,194.86,196.41,2259231
13-Sep-16,197.06,198.49,193.45,196.05,3589379
12-Sep-16,195.00,201.37,194.10,198.30,3715161
9-Sep-16,199.09,199.92,193.70,194.47,3756992
8-Sep-16,199.55,199.89,196.36,197.36,3377946
7-Sep-16,205.50,206.50,200.71,201.71,3640923
6-Sep-16,199.02,203.25,199.00,202.83,4390572
2-Sep-16,202.33,203.20,196.20,197.78,5977413
1-Sep-16,209.01,211.10,200.50,200.77,7943138
31-Aug-16,210.43,212.60,208.65,212.01,3276548
30-Aug-16,216.11,216.11,210.52,211.34,3168862
29-Aug-16,220.15,220.40,215.00,215.20,3266334
26-Aug-16,222.14,222.86,218.82,219.99,2238992
25-Aug-16,223.11,223.80,220.77,220.96,1762519
24-Aug-16,227.05,227.15,222.22,222.62,2570693
23-Aug-16,224.32,228.49,222.80,224.84,4784418
22-Aug-16,224.17,225.11,222.68,222.93,2065493
19-Aug-16,223.54,225.17,222.53,225.00,1659530
18-Aug-16,223.82,225.66,222.29,223.51,1714467
17-Aug-16,224.33,224.83,222.80,223.24,1787127
16-Aug-16,225.49,227.19,223.41,223.61,2267147
15-Aug-16,226.02,229.50,224.93,225.59,2034328
12-Aug-16,225.41,226.65,224.04,225.61,1813540
11-Aug-16,226.17,227.57,223.41,224.91,1880936
10-Aug-16,228.24,229.87,224.62,225.65,2338301
9-Aug-16,226.82,231.54,226.65,229.08,2207833
8-Aug-16,228.00,229.60,226.09,226.16,2263584
5-Aug-16,230.00,232.00,227.40,230.03,3205215
4-Aug-16,225.69,230.86,222.05,230.61,4146997
3-Aug-16,227.37,229.70,224.21,225.79,3887759
2-Aug-16,229.37,229.87,221.40,227.20,3934432
1-Aug-16,235.50,236.63,229.38,230.01,4016284
29-Jul-16,230.70,235.28,230.24,234.79,3070813
28-Jul-16,227.95,230.76,226.60,230.61,2419059
27-Jul-16,229.34,233.36,226.92,228.49,2889007
26-Jul-16,227.69,230.00,225.30,229.51,3430042
25-Jul-16,222.27,231.39,221.37,230.01,4490683
22-Jul-16,221.99,224.50,218.88,222.27,2579692
21-Jul-16,226.00,227.85,219.10,220.50,4428651
20-Jul-16,226.47,229.80,225.00,228.36,2568498
19-Jul-16,225.00,229.10,224.75,225.26,3115065
18-Jul-16,219.64,227.09,218.30,226.25,3412055
15-Jul-16,222.52,222.75,219.64,220.40,2234247
14-Jul-16,223.12,224.94,221.05,221.53,2675834
13-Jul-16,225.50,225.59,220.29,222.53,3567062
12-Jul-16,224.10,227.50,223.22,224.65,4576165
11-Jul-16,219.96,226.78,219.51,224.78,5429823
8-Jul-16,217.80,219.81,214.50,216.78,4074785
7-Jul-16,213.10,218.12,213.01,215.94,3612022
6-Jul-16,210.00,215.23,209.00,214.44,4919855
5-Jul-16,209.73,214.54,208.00,213.98,5175345
1-Jul-16,206.14,218.24,206.00,216.50,5399951
30-Jun-16,212.97,213.50,209.02,212.28,4843111
29-Jun-16,205.13,211.78,203.00,210.19,5994908
28-Jun-16,201.89,204.05,199.41,201.79,6212422
27-Jun-16,190.86,198.81,187.87,198.55,7220323
24-Jun-16,190.05,195.12,189.73,193.15,7026516
23-Jun-16,195.69,197.55,192.13,196.40,10130748
22-Jun-16,199.47,205.95,195.75,196.66,23742414
21-Jun-16,220.68,222.57,218.81,219.61,4529005
20-Jun-16,219.50,223.75,218.23,219.70,3555471
17-Jun-16,217.81,219.99,214.50,215.47,3112620
16-Jun-16,217.42,218.04,213.50,217.93,2440259
15-Jun-16,216.95,221.90,215.13,217.70,2908522
14-Jun-16,218.88,222.20,212.53,214.96,3580167
13-Jun-16,219.50,225.77,217.66,217.87,4193022
10-Jun-16,227.39,227.97,218.42,218.79,6026603
9-Jun-16,234.98,235.33,227.06,229.36,4492075
8-Jun-16,233.80,240.84,232.60,235.52,5971995
7-Jun-16,222.24,234.44,221.52,232.34,6213573
6-Jun-16,218.00,220.90,215.45,220.68,2249508
3-Jun-16,220.00,221.94,218.01,218.99,2228970
2-Jun-16,219.59,219.91,217.11,218.96,2032832
1-Jun-16,221.48,222.40,216.89,219.56,2982695
31-May-16,223.04,224.75,221.50,223.23,2789002
27-May-16,224.99,225.93,220.75,223.04,3642740
26-May-16,220.50,225.26,219.05,225.12,4064013
25-May-16,217.91,221.36,216.51,219.58,3126822
24-May-16,216.60,218.74,215.18,217.91,3008774
23-May-16,219.87,222.60,215.86,216.22,5093158
20-May-16,216.99,220.55,216.35,220.28,8951773
19-May-16,213.62,216.79,207.30,215.21,6811976
18-May-16,209.15,215.31,207.75,211.17,5384698
17-May-16,209.05,209.82,204.02,204.66,2841168
16-May-16,208.15,213.15,207.92,208.29,2945072
13-May-16,207.78,211.20,206.70,207.61,2819264
12-May-16,211.44,211.67,203.66,207.28,3646943
11-May-16,207.59,215.48,206.05,208.96,5153730
10-May-16,207.55,209.47,205.00,208.69,4065214
9-May-16,215.72,216.15,206.80,208.92,4758131
6-May-16,210.87,216.37,208.11,214.93,5681078
5-May-16,228.46,228.64,209.79,211.53,11235835
4-May-16,230.29,234.46,220.40,222.56,8262540
3-May-16,237.36,238.91,231.62,232.32,4289174
2-May-16,241.50,243.19,234.82,241.80,3836429
29-Apr-16,248.14,248.43,237.81,240.76,5388701
28-Apr-16,249.85,253.43,247.44,247.71,2509509
27-Apr-16,252.75,255.00,249.40,251.47,3190682
26-Apr-16,252.05,255.73,249.39,253.74,3212470
25-Apr-16,253.01,257.38,250.76,251.82,3664293
22-Apr-16,248.89,254.00,245.71,253.75,3774648
21-Apr-16,248.99,250.90,246.91,248.29,2783059
20-Apr-16,246.26,253.66,241.50,249.97,5190831
19-Apr-16,253.12,254.37,241.25,247.37,6349403
18-Apr-16,252.23,258.31,251.66,253.88,4261782
15-Apr-16,251.31,254.60,249.12,254.51,3742018
14-Apr-16,253.00,256.84,251.05,251.86,4119980
13-Apr-16,248.51,255.50,247.33,254.53,4917930
12-Apr-16,249.50,251.80,243.63,247.82,5750757
11-Apr-16,251.00,258.99,245.30,249.92,9153901
8-Apr-16,260.50,260.82,248.02,250.07,7332157
7-Apr-16,266.45,269.34,254.51,257.20,8836815
6-Apr-16,253.97,267.74,253.45,265.42,11679883
5-Apr-16,240.50,256.56,240.00,255.47,9915160
4-Apr-16,249.12,252.12,243.64,246.99,13289584
1-Apr-16,244.82,247.90,233.25,237.59,15962015
31-Mar-16,229.34,237.42,225.01,229.77,7956740
30-Mar-16,235.09,235.50,226.50,226.89,4019667
29-Mar-16,229.89,232.38,225.33,230.13,4004940
28-Mar-16,231.61,234.81,225.00,230.26,3875451
24-Mar-16,215.78,228.89,215.00,227.75,4954411
23-Mar-16,232.37,234.73,222.03,222.58,4921013
22-Mar-16,237.21,238.99,232.56,234.24,4300628
21-Mar-16,235.34,239.88,235.00,238.32,5286697
18-Mar-16,229.10,234.48,228.06,232.74,4698180
17-Mar-16,221.47,228.50,220.00,226.38,3754756
16-Mar-16,218.00,222.58,217.02,221.93,3462107
15-Mar-16,214.27,218.97,211.50,218.34,3180452
14-Mar-16,212.65,216.72,210.64,215.15,4054723
11-Mar-16,207.93,209.42,205.33,207.50,3300358
10-Mar-16,210.00,213.29,200.67,205.18,5183177
9-Mar-16,204.52,209.37,202.79,208.72,3160081
8-Mar-16,203.50,207.50,202.20,202.60,4130816
7-Mar-16,197.68,209.70,197.40,205.29,5329369
4-Mar-16,198.00,204.03,197.50,201.04,6469772
3-Mar-16,188.28,197.42,184.22,195.74,4820497
2-Mar-16,183.73,188.52,181.50,188.34,4832986
1-Mar-16,194.25,195.95,182.70,186.35,6701674
29-Feb-16,192.40,196.35,189.22,191.93,4479719
26-Feb-16,188.70,192.00,185.00,190.34,6052910
25-Feb-16,178.65,188.52,175.20,187.43,5720514
24-Feb-16,172.75,179.50,167.84,179.00,5380712
23-Feb-16,176.16,181.73,173.68,177.21,5968028
22-Feb-16,170.12,178.91,169.85,177.74,5051180
19-Feb-16,163.66,167.49,162.50,166.58,2952880
18-Feb-16,172.42,172.95,164.77,166.77,3785336
17-Feb-16,159.00,169.34,156.68,168.68,5807071
16-Feb-16,158.70,162.95,154.11,155.17,5556314
12-Feb-16,155.00,157.01,143.70,151.04,7202970
11-Feb-16,152.00,163.26,147.00,150.47,14231392
10-Feb-16,150.50,154.97,141.74,143.67,9067292
9-Feb-16,142.32,159.79,141.05,148.25,8575099
8-Feb-16,157.10,157.15,146.00,147.99,9297941
5-Feb-16,171.30,173.00,157.74,162.60,9426933
4-Feb-16,170.70,175.98,166.99,175.33,4363924
3-Feb-16,183.59,183.94,170.18,173.48,7879454
2-Feb-16,192.42,193.12,180.23,182.78,5762855
1-Feb-16,188.76,199.52,182.75,196.94,5293766
29-Jan-16,189.95,193.74,188.08,191.20,2841003
28-Jan-16,190.79,191.28,182.41,189.70,4581652
27-Jan-16,192.38,193.26,185.77,188.07,3565378
26-Jan-16,196.70,197.82,188.88,193.56,4946841
25-Jan-16,200.06,203.57,195.88,196.38,2694564
22-Jan-16,204.80,205.50,199.03,202.55,3120106
21-Jan-16,201.55,203.23,195.02,199.97,3163432
20-Jan-16,199.40,201.28,191.25,198.70,5825431
19-Jan-16,208.71,210.47,200.78,204.72,3997509
15-Jan-16,198.97,205.07,197.25,204.99,5322235
14-Jan-16,202.21,210.00,193.38,206.18,6452623
13-Jan-16,212.01,212.65,200.00,200.31,4039093
12-Jan-16,211.60,213.74,205.31,209.97,3091917
11-Jan-16,214.01,214.45,203.00,207.85,4091422
8-Jan-16,217.86,220.44,210.77,211.00,3628058
7-Jan-16,214.19,218.44,213.67,215.65,3554251
6-Jan-16,220.00,220.05,215.98,219.04,3779128
5-Jan-16,226.36,226.89,220.00,223.43,3186752
4-Jan-16,230.72,231.38,219.00,223.41,6819737
31-Dec-15,238.51,243.45,238.37,240.01,2715038
30-Dec-15,236.60,243.63,235.67,238.09,3697921
29-Dec-15,230.06,237.72,229.55,237.19,2406290
28-Dec-15,231.49,231.98,225.54,228.95,1901304
24-Dec-15,230.56,231.88,228.28,230.57,710277
23-Dec-15,232.18,233.45,228.13,229.70,1554979
22-Dec-15,234.99,236.55,229.63,229.95,1961495
21-Dec-15,231.69,235.83,231.08,232.56,1953174
18-Dec-15,232.89,235.90,229.29,230.46,3014170
17-Dec-15,233.94,237.76,229.81,233.39,3298638
16-Dec-15,222.10,234.88,220.73,234.51,5104341
15-Dec-15,221.82,222.22,218.00,221.09,2244424
14-Dec-15,217.51,220.92,214.87,218.58,2827068
11-Dec-15,225.24,225.75,216.64,217.02,3268726
10-Dec-15,224.71,228.49,223.64,227.07,2071692
9-Dec-15,226.70,227.50,220.72,224.52,3057753
8-Dec-15,227.52,228.80,224.20,226.72,2687636
7-Dec-15,227.70,235.63,226.15,231.13,3144223
4-Dec-15,232.46,233.27,227.66,230.38,2573603
3-Dec-15,235.48,237.45,230.00,232.71,2939564
2-Dec-15,237.00,238.60,231.23,231.99,2975721
1-Dec-15,231.06,238.00,231.05,237.19,3728287
30-Nov-15,231.79,234.28,229.08,230.26,2585753
27-Nov-15,231.06,232.25,227.01,231.61,1949127
25-Nov-15,221.34,230.82,220.38,229.64,3990779
24-Nov-15,215.37,221.00,215.00,218.25,2452304
23-Nov-15,217.35,219.18,214.68,217.75,2524994
20-Nov-15,223.49,225.00,213.58,220.01,4388932
19-Nov-15,220.54,226.19,220.30,221.80,2499363
18-Nov-15,214.50,221.38,212.52,221.07,2805192
17-Nov-15,215.20,216.00,211.40,214.00,2143269
16-Nov-15,206.09,214.98,205.80,214.31,2917082
13-Nov-15,212.95,212.99,206.52,207.19,3412083
12-Nov-15,217.85,219.00,212.66,212.94,2910023
11-Nov-15,217.77,219.48,213.63,219.08,3334955
10-Nov-15,223.48,223.70,216.08,216.50,4568414
9-Nov-15,232.99,232.99,224.31,225.33,3843824
6-Nov-15,230.70,233.36,229.50,232.36,2443465
5-Nov-15,230.58,234.58,229.19,231.77,4493263
4-Nov-15,230.68,232.74,225.20,231.63,12706650
3-Nov-15,210.00,214.44,207.75,208.35,7141113
2-Nov-15,208.92,215.80,207.22,213.79,3919308
30-Oct-15,210.40,211.63,203.89,206.93,4372936
29-Oct-15,211.75,213.75,210.64,211.63,1782358
28-Oct-15,211.31,213.45,208.30,212.96,2672551
27-Oct-15,214.84,217.10,207.51,210.35,3500711
26-Oct-15,211.38,215.88,210.00,215.26,3387107
23-Oct-15,215.00,215.35,207.69,209.09,4142080
22-Oct-15,211.56,215.75,209.40,211.72,2809155
21-Oct-15,211.99,214.81,208.80,210.09,4151463
20-Oct-15,227.72,228.60,202.00,213.03,14863266
19-Oct-15,226.50,231.15,224.94,228.10,2499326
16-Oct-15,223.04,230.48,222.87,227.01,4320797
15-Oct-15,216.43,221.73,213.70,221.31,2833931
14-Oct-15,220.67,220.95,215.43,216.88,3086784
13-Oct-15,213.28,222.52,211.13,219.25,5162453
12-Oct-15,222.99,223.00,215.27,215.58,3803779
9-Oct-15,220.93,224.37,218.36,220.69,6150458
8-Oct-15,230.08,230.72,221.31,226.72,6119688
7-Oct-15,236.63,237.70,229.12,231.96,6803172
6-Oct-15,240.00,243.03,235.58,241.46,5225174
5-Oct-15,248.84,249.84,244.13,246.15,3678195
2-Oct-15,235.60,247.70,234.93,247.57,4390140
1-Oct-15,247.51,248.50,237.13,239.88,4566941
30-Sep-15,252.00,252.40,242.34,248.40,4923331
29-Sep-15,250.46,254.73,245.46,246.65,3693383
28-Sep-15,257.35,259.79,246.61,248.43,4892501
25-Sep-15,266.61,266.91,256.15,256.91,3767096
24-Sep-15,259.53,263.45,256.21,263.12,3442247
23-Sep-15,261.95,262.08,257.58,261.06,2594257
22-Sep-15,259.03,262.65,255.87,260.94,3657582
21-Sep-15,263.98,271.57,255.80,264.20,6110390
18-Sep-15,257.96,263.82,257.50,260.62,3739826
17-Sep-15,263.96,265.50,260.69,262.07,3574923
16-Sep-15,253.04,262.88,252.88,262.25,4404454
15-Sep-15,252.75,254.60,249.50,253.57,2929278
14-Sep-15,251.10,254.25,249.67,253.19,2883100
11-Sep-15,247.64,250.24,244.73,250.24,2342654
10-Sep-15,247.23,250.72,245.33,248.48,2705437
9-Sep-15,252.05,254.25,248.30,248.91,3384661
8-Sep-15,245.05,249.16,244.05,248.17,3120348
4-Sep-15,240.89,244.09,238.20,241.93,3682146
3-Sep-15,252.06,252.08,245.00,245.57,4131503
2-Sep-15,245.30,247.88,239.78,247.69,4584918
1-Sep-15,240.34,246.00,236.97,238.63,5437046
31-Aug-15,245.62,254.95,245.51,249.06,4680798
28-Aug-15,241.86,251.45,241.57,248.48,5495169
27-Aug-15,231.00,244.75,230.81,242.99,7642840
26-Aug-15,227.93,228.00,215.51,224.84,4948119
25-Aug-15,230.52,230.90,219.12,220.03,4304953
24-Aug-15,202.79,231.40,195.00,218.87,9565541
21-Aug-15,236.00,243.80,230.51,230.77,6564012
20-Aug-15,252.06,254.56,241.90,242.18,4887192
19-Aug-15,260.33,260.65,255.02,255.25,3604282
18-Aug-15,255.38,260.95,253.56,260.72,4195035
17-Aug-15,255.56,256.59,250.51,254.99,7176690
14-Aug-15,247.24,247.93,241.77,243.15,4364810
13-Aug-15,239.86,246.48,239.12,242.51,4689182
12-Aug-15,235.00,239.77,232.74,238.17,3739157
11-Aug-15,237.15,239.30,234.44,237.37,4264939
10-Aug-15,238.15,242.97,236.05,241.14,4185860
7-Aug-15,243.58,243.73,238.39,242.51,5073390
6-Aug-15,249.54,255.00,236.12,246.13,14623754
5-Aug-15,263.58,271.00,260.40,270.13,6214319
4-Aug-15,260.01,266.72,258.34,266.28,2352530
3-Aug-15,266.29,266.71,257.07,259.99,2553474
31-Jul-15,267.60,269.36,265.12,266.15,2222552
30-Jul-15,262.69,266.94,262.11,266.79,2034560
29-Jul-15,264.27,267.89,262.00,263.82,2790095
28-Jul-15,255.75,265.40,251.84,264.82,3895808
27-Jul-15,262.43,264.43,250.79,253.01,4694192
24-Jul-15,267.38,271.09,263.92,265.41,2836498
23-Jul-15,269.65,269.90,265.27,267.20,2227239
22-Jul-15,261.27,269.44,260.86,267.87,3104960
21-Jul-15,270.05,273.50,266.55,266.77,6108686
20-Jul-15,275.00,286.65,272.54,282.26,4978454
17-Jul-15,272.50,275.54,268.25,274.66,5004099
16-Jul-15,264.22,267.20,263.16,266.68,1615961
15-Jul-15,266.74,267.49,262.08,263.14,2021621
14-Jul-15,262.10,265.99,260.51,265.65,1907641
13-Jul-15,262.25,262.55,256.05,262.16,2960319
10-Jul-15,262.22,263.00,257.82,259.15,2610858
9-Jul-15,259.08,262.95,256.79,257.92,3334077
8-Jul-15,259.32,260.80,254.31,254.96,6221077
7-Jul-15,275.00,275.20,260.77,267.88,6105126
6-Jul-15,278.88,281.69,276.30,279.72,4121933
2-Jul-15,280.20,282.45,273.31,280.02,7163930
1-Jul-15,271.11,272.62,267.85,269.15,2101224
30-Jun-15,264.80,270.92,264.00,268.26,3086935
29-Jun-15,261.95,265.95,260.70,262.02,3478909
26-Jun-15,268.89,269.11,266.00,267.09,3838434
25-Jun-15,266.45,271.41,265.25,268.79,2849204
24-Jun-15,266.98,267.35,263.72,265.17,2412293
23-Jun-15,260.32,268.00,258.57,267.67,3870818
22-Jun-15,262.15,264.40,255.69,259.79,4561079
19-Jun-15,262.40,263.80,260.10,262.51,2463013
18-Jun-15,262.00,263.46,260.02,261.89,2782703
17-Jun-15,252.17,264.36,252.02,260.41,5512920
16-Jun-15,250.13,253.44,249.10,253.12,1984678
15-Jun-15,249.70,251.28,246.01,250.38,2186175
12-Jun-15,250.21,253.46,250.21,250.69,1422335
11-Jun-15,253.26,254.37,250.43,251.41,2044058
10-Jun-15,251.90,254.00,248.50,250.70,3454453
9-Jun-15,255.40,257.74,254.14,256.00,2611146
8-Jun-15,250.85,258.75,250.31,256.29,5016997
5-Jun-15,246.00,249.70,245.68,249.14,3022026
4-Jun-15,247.50,249.30,245.71,245.92,2453615
3-Jun-15,248.20,250.72,247.01,248.99,1781505
2-Jun-15,248.92,249.40,246.30,248.35,2134809
1-Jun-15,251.41,251.60,247.47,249.45,2505057
29-May-15,251.00,252.87,249.43,250.80,3789283
28-May-15,247.03,251.80,245.05,251.45,3647283
27-May-15,248.51,249.50,245.55,247.43,3408200
26-May-15,247.68,252.00,246.50,247.46,3498682
22-May-15,245.38,248.60,245.01,247.73,2223089
21-May-15,243.03,246.62,242.36,245.62,1970643
20-May-15,247.13,247.74,241.37,244.35,3755569
19-May-15,248.43,251.00,246.15,247.14,3674231
18-May-15,247.00,249.90,246.00,248.75,3353212
15-May-15,243.93,249.40,242.50,248.84,4527563
14-May-15,244.82,244.89,241.25,244.10,2895936
13-May-15,247.61,248.30,242.25,243.18,5440165
12-May-15,240.11,246.35,238.19,244.74,6363429
11-May-15,236.29,242.88,235.31,239.49,5672262
8-May-15,235.99,238.41,233.70,236.61,4668236
7-May-15,221.00,237.48,220.25,236.80,9455909
6-May-15,234.10,234.47,228.20,230.43,5270933
5-May-15,237.76,239.50,229.13,232.95,5796873
4-May-15,228.18,234.73,227.11,230.51,4434596
1-May-15,229.94,231.77,220.40,226.03,5281689
30-Apr-15,230.39,232.89,225.17,226.05,3911857
29-Apr-15,230.05,234.97,227.63,232.45,3936077
28-Apr-15,234.75,235.50,228.03,230.48,6085379
27-Apr-15,222.56,238.75,222.00,231.55,11672627
24-Apr-15,220.50,220.80,218.01,218.42,2427843
23-Apr-15,218.27,221.48,217.15,218.60,4411184
22-Apr-15,212.50,221.88,211.69,219.44,7863037
21-Apr-15,205.80,210.75,204.31,209.41,3432541
20-Apr-15,206.78,207.85,203.85,205.27,2559251
17-Apr-15,204.99,206.88,203.50,206.79,2469926
16-Apr-15,207.70,209.17,206.29,206.70,1659059
15-Apr-15,207.46,209.59,206.60,207.83,1952378
14-Apr-15,208.57,209.49,205.50,207.46,3025963
13-Apr-15,210.44,213.00,209.05,209.78,3758230
10-Apr-15,209.85,211.65,209.00,210.90,4067676
9-Apr-15,208.43,210.37,206.12,210.09,3800225
8-Apr-15,208.20,210.90,205.87,207.67,6303117
7-Apr-15,202.51,205.06,201.14,203.25,4347864
6-Apr-15,198.00,207.75,197.50,203.10,12455811
2-Apr-15,190.23,193.23,190.00,191.00,5010368
1-Apr-15,188.70,192.30,186.05,187.59,3794621
31-Mar-15,193.53,193.76,188.41,188.77,5026569
30-Mar-15,185.85,192.25,181.80,190.57,10089516
27-Mar-15,189.07,189.29,181.40,185.00,8604947
26-Mar-15,193.92,194.79,189.70,190.40,4127956
25-Mar-15,198.27,198.59,192.70,194.30,5730389
24-Mar-15,201.58,203.79,199.75,201.72,3649860
23-Mar-15,198.50,200.50,197.47,199.63,2631626
20-Mar-15,197.45,198.99,195.62,198.08,4269467
19-Mar-15,202.00,204.59,194.53,195.65,8475244
18-Mar-15,194.96,200.88,193.11,200.71,4820936
17-Mar-15,195.43,198.71,193.94,194.73,4894052
16-Mar-15,192.00,195.91,189.80,195.70,5628783
13-Mar-15,188.95,191.75,187.32,188.68,5434298
12-Mar-15,193.75,194.45,189.75,191.07,4149294
11-Mar-15,191.15,196.18,191.01,193.74,4974871
10-Mar-15,188.46,193.50,187.60,190.32,5579691
9-Mar-15,194.39,194.49,188.25,190.88,6736724
6-Mar-15,199.21,200.75,192.15,193.88,6712438
5-Mar-15,202.85,206.19,200.15,200.63,4877015
4-Mar-15,199.25,202.52,197.21,202.44,4221962
3-Mar-15,196.81,200.24,195.32,199.56,4432329
2-Mar-15,202.70,203.34,195.82,197.32,7922065
27-Feb-15,206.90,208.55,202.80,203.34,3882084
26-Feb-15,204.00,211.09,202.22,207.19,6472855
25-Feb-15,204.94,207.14,202.58,203.76,3909520
24-Feb-15,207.29,207.29,201.70,204.11,6603560
23-Feb-15,215.66,218.20,206.33,207.34,8499775
20-Feb-15,210.78,217.60,209.81,217.11,5982089
19-Feb-15,205.00,212.44,203.75,211.70,5154148
18-Feb-15,204.17,206.17,202.60,204.46,2713598
17-Feb-15,205.70,205.70,201.50,204.35,3979647
13-Feb-15,202.90,205.99,200.91,203.77,6191003
12-Feb-15,193.57,203.09,193.28,202.88,15649607
11-Feb-15,212.21,214.74,207.28,212.80,9769102
10-Feb-15,217.55,220.50,215.00,216.29,5390542
9-Feb-15,215.38,217.93,211.99,217.48,3472423
6-Feb-15,222.00,223.40,216.50,217.36,3243931
5-Feb-15,219.88,225.48,219.64,220.99,3522947
4-Feb-15,218.29,221.48,216.80,218.55,3305377
3-Feb-15,213.22,220.37,211.27,218.36,4826244
2-Feb-15,203.97,211.95,203.30,210.94,4149186
30-Jan-15,203.96,207.47,203.00,203.60,3006959
29-Jan-15,201.07,205.98,196.50,205.20,3548106
28-Jan-15,206.11,206.37,198.42,199.37,3149606
27-Jan-15,204.42,208.03,203.30,205.98,2781024
26-Jan-15,201.83,208.62,201.05,206.55,3234522
23-Jan-15,200.29,203.50,198.33,201.29,3442371
22-Jan-15,197.00,203.24,195.20,201.62,4116905
21-Jan-15,189.55,198.68,189.51,196.57,4153043
20-Jan-15,193.87,194.12,187.04,191.93,4503182
16-Jan-15,190.70,194.49,189.65,193.07,3603158
15-Jan-15,194.49,195.75,190.00,191.87,5216524
14-Jan-15,185.83,195.20,185.00,192.69,11551855
13-Jan-15,203.32,207.61,200.91,204.25,4477320
12-Jan-15,203.05,204.47,199.25,202.21,5950280
9-Jan-15,208.92,209.98,204.96,206.66,4668295
8-Jan-15,212.81,213.80,210.01,210.62,3442509
7-Jan-15,213.35,214.78,209.78,210.95,2968390
6-Jan-15,210.06,214.20,204.21,211.28,6261936
5-Jan-15,214.55,216.50,207.16,210.09,5368477
2-Jan-15,222.87,223.25,213.26,219.31,4764443
31-Dec-14,223.09,225.68,222.25,222.41,2402097
30-Dec-14,223.99,225.65,221.40,222.23,2903242
29-Dec-14,226.90,227.91,224.02,225.71,2811828
26-Dec-14,221.51,228.50,221.50,227.82,3327016
24-Dec-14,219.77,222.50,219.25,222.26,1333518
23-Dec-14,223.81,224.32,219.52,220.97,4513321
22-Dec-14,220.00,224.06,218.26,222.60,4806917
19-Dec-14,220.19,220.40,214.50,219.29,6910461
18-Dec-14,212.38,218.44,211.80,218.26,7483349
17-Dec-14,193.06,206.65,192.65,205.82,7367834
16-Dec-14,200.89,203.68,195.37,197.81,8426105
15-Dec-14,209.29,209.80,202.67,204.04,5218252
12-Dec-14,204.82,211.68,204.50,207.00,7173782
11-Dec-14,210.53,215.43,208.23,208.88,6694398
10-Dec-14,214.13,216.77,207.70,209.84,7314139
9-Dec-14,209.34,217.73,204.27,216.89,9431502
8-Dec-14,221.54,224.86,212.34,214.36,9225619
5-Dec-14,228.67,229.39,222.26,223.71,6063619
4-Dec-14,228.60,230.90,227.81,228.28,3879208
3-Dec-14,226.25,229.72,225.50,229.30,5307733
2-Dec-14,234.57,234.88,228.00,231.43,5887046
1-Dec-14,241.16,242.47,229.01,231.64,8619351
28-Nov-14,245.35,246.69,242.52,244.52,2119688
26-Nov-14,248.34,249.00,246.60,248.44,1981819
25-Nov-14,247.35,249.72,246.09,248.09,3159804
24-Nov-14,245.20,247.60,240.64,246.72,4789708
21-Nov-14,252.21,252.78,242.17,242.78,7485059
20-Nov-14,247.95,250.93,246.00,248.71,3587220
19-Nov-14,250.61,251.88,245.60,247.74,7918486
18-Nov-14,255.86,259.99,255.51,257.70,4474294
17-Nov-14,257.49,259.00,252.02,253.98,4025695
14-Nov-14,250.00,258.85,248.50,258.68,6101145
13-Nov-14,250.62,255.75,250.25,251.70,6236036
12-Nov-14,249.72,252.34,245.58,249.10,5870818
11-Nov-14,242.55,251.82,242.00,251.08,7952565
10-Nov-14,239.11,242.88,236.80,241.93,4577208
7-Nov-14,242.19,242.84,237.20,240.20,5161023
6-Nov-14,234.49,246.69,228.50,241.22,15354717
5-Nov-14,241.00,241.36,230.53,230.97,9045925
4-Nov-14,240.49,242.35,236.53,238.93,3682572
3-Nov-14,243.00,247.56,241.32,242.59,4207268
31-Oct-14,242.51,243.12,238.75,241.70,3775327
30-Oct-14,238.14,240.50,235.06,238.66,3228371
29-Oct-14,241.13,241.50,235.64,238.10,4967640
28-Oct-14,229.60,244.60,228.25,242.77,10516297
27-Oct-14,234.25,234.61,220.31,221.67,9553348
24-Oct-14,236.27,237.80,231.20,235.24,3466927
23-Oct-14,234.66,236.28,232.00,235.29,3499882
22-Oct-14,233.19,237.39,230.56,231.10,4123397
21-Oct-14,234.27,235.39,230.80,235.34,4130345
20-Oct-14,226.72,232.40,225.51,230.47,3499686
17-Oct-14,233.38,234.77,226.55,227.48,10551850
16-Oct-14,219.72,229.92,219.10,226.35,5404565
15-Oct-14,220.00,230.99,217.32,229.70,9151648
14-Oct-14,228.25,232.47,223.00,227.06,7112339
13-Oct-14,238.57,238.96,221.00,224.59,11276552
10-Oct-14,244.64,245.89,235.20,236.91,12898275
9-Oct-14,262.25,265.54,254.40,257.01,7361316
8-Oct-14,260.10,262.88,252.64,259.28,5062615
7-Oct-14,258.53,261.46,255.73,259.57,4491569
6-Oct-14,259.13,262.49,257.80,260.62,7719055
3-Oct-14,253.06,256.50,251.03,255.21,5408665
2-Oct-14,250.20,252.79,245.36,251.42,9002001
1-Oct-14,242.20,242.66,235.65,240.24,5946510
30-Sep-14,246.92,247.65,240.12,242.68,4248127
29-Sep-14,244.00,248.64,241.38,245.26,4854687
26-Sep-14,248.25,249.73,246.07,246.60,3798841
25-Sep-14,252.52,254.96,246.10,246.95,4843712
24-Sep-14,251.12,252.84,247.04,252.14,3754376
23-Sep-14,245.22,253.80,245.00,250.41,5660048
22-Sep-14,255.00,256.02,244.71,250.03,8222963
19-Sep-14,257.99,261.43,255.27,259.32,6811714
18-Sep-14,263.36,265.60,262.32,263.82,3699314
17-Sep-14,262.41,264.70,259.50,261.38,5179923
16-Sep-14,255.15,262.46,252.42,260.74,8303972
15-Sep-14,274.37,274.40,249.13,253.86,16464952
12-Sep-14,280.50,282.39,277.00,279.20,3328302
11-Sep-14,280.46,284.79,278.63,280.31,3768584
10-Sep-14,279.50,281.41,273.66,281.10,3785988
9-Sep-14,282.99,285.49,277.00,278.48,4567958
8-Sep-14,277.62,284.88,277.52,282.11,5505040
5-Sep-14,282.55,282.90,272.51,277.39,11176167
4-Sep-14,284.01,291.42,280.40,286.04,8341749
3-Sep-14,287.67,288.00,280.10,281.19,6779735
2-Sep-14,275.50,284.89,274.30,284.12,9852351
29-Aug-14,268.70,272.00,267.51,269.70,6453958
28-Aug-14,261.89,264.48,261.64,263.86,2854737
27-Aug-14,263.50,264.24,260.29,263.25,2990532
26-Aug-14,264.98,265.50,261.66,261.74,3822572
25-Aug-14,258.19,263.68,258.19,262.55,4318053
22-Aug-14,254.54,256.95,252.61,256.78,2836959
21-Aug-14,256.52,258.80,253.26,254.34,2919241
20-Aug-14,254.67,258.74,253.00,255.71,3027863
19-Aug-14,258.87,259.33,251.62,256.76,5340136
18-Aug-14,263.25,267.26,259.75,259.94,5849231
15-Aug-14,261.48,262.09,258.50,262.01,3867874
14-Aug-14,262.49,263.00,258.54,261.38,4126634
13-Aug-14,262.01,265.64,259.61,260.31,6932628
12-Aug-14,258.08,260.30,254.58,259.96,6390412
11-Aug-14,255.48,263.74,255.00,259.32,8101276
8-Aug-14,251.16,251.76,246.50,248.13,5099061
7-Aug-14,250.12,256.69,249.12,252.39,7478926
6-Aug-14,238.90,251.42,238.58,248.93,9249265
5-Aug-14,237.47,242.99,235.69,238.49,5388581
4-Aug-14,234.38,240.50,233.27,238.52,5967406
1-Aug-14,226.09,237.50,226.00,233.27,11898133
31-Jul-14,229.26,231.40,221.50,223.30,7749058
30-Jul-14,221.92,229.60,221.04,228.92,4927823
29-Jul-14,226.61,228.30,224.86,225.01,3387187
28-Jul-14,224.25,232.00,221.40,224.82,6517611
25-Jul-14,222.72,226.97,221.75,223.57,3090383
24-Jul-14,223.25,225.10,220.80,223.54,3248410
23-Jul-14,220.01,224.75,219.43,222.49,3088731
22-Jul-14,222.19,223.30,219.11,219.58,2732485
21-Jul-14,217.25,223.21,216.72,220.54,3825251
18-Jul-14,215.95,221.21,215.93,220.02,4260618
17-Jul-14,216.16,220.55,213.60,215.40,4650956
16-Jul-14,221.82,224.80,216.82,217.16,4051097
15-Jul-14,226.73,227.65,218.10,219.58,5732031
14-Jul-14,219.99,228.79,215.45,226.70,7208573
11-Jul-14,220.61,221.60,217.60,218.13,3307113
10-Jul-14,217.18,222.22,216.04,219.46,4865246
9-Jul-14,221.27,224.22,219.21,223.06,4117729
8-Jul-14,218.65,220.96,214.27,219.07,7846165
7-Jul-14,227.50,229.78,220.40,222.66,5901080
3-Jul-14,231.29,231.90,224.00,229.25,5166716
2-Jul-14,240.66,242.33,227.07,229.42,8035072
1-Jul-14,242.46,243.44,238.70,239.72,4341242
30-Jun-14,239.55,244.49,239.00,240.06,4833602
27-Jun-14,234.69,240.00,234.50,239.06,5638787
26-Jun-14,237.17,240.40,234.21,235.60,5122972
25-Jun-14,233.05,237.55,230.24,236.89,5803257
24-Jun-14,238.97,241.88,231.63,232.50,8081109
23-Jun-14,229.51,238.99,228.22,237.22,7800189
20-Jun-14,228.52,231.29,226.20,229.59,4908077
19-Jun-14,228.88,235.31,227.00,227.79,8801907
18-Jun-14,231.50,231.71,226.12,227.12,6947053
17-Jun-14,224.11,235.54,222.85,231.67,13304907
16-Jun-14,206.76,225.49,206.26,224.61,13246352
13-Jun-14,204.78,206.79,201.58,206.42,3546789
12-Jun-14,205.10,209.88,202.71,203.52,5997144
11-Jun-14,201.50,205.00,199.25,204.47,3980491
10-Jun-14,204.43,206.97,201.55,202.30,3522336
9-Jun-14,207.95,209.99,204.20,205.31,2813066
6-Jun-14,209.75,210.81,207.18,208.17,3074900
5-Jun-14,204.47,209.20,204.05,206.90,4059285
4-Jun-14,204.35,206.26,200.40,203.99,3434502
3-Jun-14,203.49,208.00,202.59,204.94,3866182
2-Jun-14,207.33,209.35,201.67,204.70,4668115
30-May-14,210.30,214.80,207.02,207.77,5586068
29-May-14,210.57,212.49,207.72,210.24,3694596
28-May-14,210.02,212.77,205.26,210.24,5496278
27-May-14,208.52,213.87,207.70,211.56,5346788
23-May-14,204.53,207.76,202.50,207.30,4010931
22-May-14,200.35,206.88,199.56,204.88,6216255
21-May-14,196.18,199.87,194.79,199.45,5290755
20-May-14,196.94,199.33,193.07,195.30,5553877
19-May-14,190.72,196.89,190.00,196.09,4571660
16-May-14,188.95,192.04,187.72,191.56,4489312
15-May-14,189.98,192.66,185.30,188.59,6046139
14-May-14,188.95,193.48,187.10,190.62,5414945
13-May-14,183.76,191.34,183.00,190.16,7097242
12-May-14,183.87,187.19,179.88,184.67,7004330
9-May-14,179.86,183.40,177.22,182.26,8495159
8-May-14,182.00,194.40,178.00,178.59,20056591
7-May-14,209.64,210.20,197.25,201.35,10179291
6-May-14,216.60,218.66,206.85,207.28,5636725
5-May-14,209.48,217.69,208.52,216.61,5152343
2-May-14,208.60,211.36,206.52,210.91,4091394
1-May-14,207.08,214.02,205.69,207.73,5444670
30-Apr-14,203.60,208.16,201.28,207.89,4443453
29-Apr-14,198.21,207.15,195.53,206.92,5787369
28-Apr-14,200.00,203.79,190.50,198.51,7041983
25-Apr-14,202.00,206.70,197.65,199.85,6996658
24-Apr-14,210.81,212.80,203.20,207.86,5504768
23-Apr-14,216.33,216.74,207.00,207.99,7295609
22-Apr-14,206.36,219.33,205.01,218.64,9809333
21-Apr-14,197.08,206.20,194.00,204.38,5266490
17-Apr-14,199.61,202.29,194.08,198.12,5929506
16-Apr-14,197.00,199.99,190.82,199.11,7205319
15-Apr-14,199.09,199.29,184.32,193.91,13667071
14-Apr-14,207.60,208.44,194.41,198.09,7703031
11-Apr-14,200.61,207.00,198.60,203.78,9071300
10-Apr-14,216.82,217.50,203.79,204.19,7211492
9-Apr-14,216.76,218.45,210.89,216.93,5157923
8-Apr-14,210.05,216.49,206.42,215.46,6889296
7-Apr-14,205.81,216.20,203.51,207.52,9855478
4-Apr-14,226.01,228.27,211.25,212.22,11345618
3-Apr-14,230.30,235.73,222.00,225.40,10923734
2-Apr-14,220.00,230.89,218.05,230.29,10782251
1-Apr-14,209.02,218.16,208.58,216.97,7371422
31-Mar-14,216.50,216.75,206.39,208.45,8380023
28-Mar-14,212.80,216.72,210.27,212.37,9684761
27-Mar-14,212.37,213.60,203.00,207.32,9505307
26-Mar-14,221.95,222.60,211.35,212.96,6907306
25-Mar-14,224.14,227.05,217.90,220.44,7865375
24-Mar-14,229.75,229.90,210.27,220.17,11332947
21-Mar-14,236.02,236.20,227.50,228.89,8227311
20-Mar-14,236.16,239.25,233.36,234.91,3817905
19-Mar-14,241.39,241.55,233.51,235.84,5071327
18-Mar-14,236.95,241.50,235.02,240.04,6242349
17-Mar-14,234.95,237.93,230.50,233.98,5912592
14-Mar-14,235.29,236.94,228.32,230.97,8289733
13-Mar-14,243.79,244.19,234.00,237.79,6236325
12-Mar-14,231.50,247.50,231.11,241.49,9763911
11-Mar-14,236.50,244.60,232.43,234.41,8836349
10-Mar-14,242.70,243.00,236.06,238.84,7745751
7-Mar-14,252.94,254.85,244.41,246.21,7818465
6-Mar-14,254.14,257.50,249.45,252.94,7374719
5-Mar-14,256.72,256.99,251.80,252.66,5946736
4-Mar-14,258.48,260.00,252.83,254.84,8765392
3-Mar-14,237.26,251.65,234.99,250.56,13109303
28-Feb-14,249.65,252.68,242.55,244.81,14612693
27-Feb-14,263.25,261.90,248.33,252.54,17970707
26-Feb-14,258.58,265.00,247.50,253.00,24771194
25-Feb-14,230.00,259.20,228.45,248.00,32797000
24-Feb-14,208.76,218.36,208.32,217.65,8303133
21-Feb-14,211.64,213.98,209.19,209.60,7828981
20-Feb-14,215.01,215.21,206.27,209.97,18022262
19-Feb-14,203.70,203.70,193.41,193.64,16419899
18-Feb-14,205.24,206.00,201.36,203.70,9355871
14-Feb-14,198.10,201.88,197.00,198.23,6173462
13-Feb-14,193.34,202.72,193.25,199.63,8174049
12-Feb-14,195.78,198.27,194.32,195.32,5181313
11-Feb-14,198.97,202.20,192.70,196.62,10734472
10-Feb-14,189.34,199.30,189.32,196.56,12989286
7-Feb-14,181.01,186.63,179.60,186.53,8964054
6-Feb-14,176.30,180.11,176.00,178.38,5847953
5-Feb-14,178.30,180.59,169.36,174.42,7275952
4-Feb-14,180.70,181.60,176.20,178.73,4690883
3-Feb-14,182.89,184.88,175.16,177.11,6778609
31-Jan-14,178.85,186.00,178.51,181.41,6512951
30-Jan-14,178.00,184.78,177.01,182.84,8575210
29-Jan-14,175.30,179.09,173.13,175.23,5956817
28-Jan-14,171.50,178.98,171.00,178.38,6128237
27-Jan-14,175.16,177.92,164.71,169.62,8737773
24-Jan-14,177.85,180.48,173.53,174.60,7711296
23-Jan-14,177.23,182.38,173.42,181.50,7899515
22-Jan-14,177.81,180.32,174.76,178.56,7036758
21-Jan-14,171.24,177.29,170.81,176.68,9745765
17-Jan-14,170.19,173.20,167.95,170.01,9216028
16-Jan-14,162.50,172.70,162.40,170.97,11982099
15-Jan-14,168.45,172.23,162.10,164.13,20488981
14-Jan-14,140.50,162.00,136.67,161.27,27935828
13-Jan-14,145.78,147.00,137.82,139.34,6324647
10-Jan-14,148.46,148.90,142.25,145.72,7450531
9-Jan-14,152.50,153.43,146.85,147.53,5388905
8-Jan-14,148.85,153.70,148.76,151.28,6166674
7-Jan-14,147.62,150.40,145.25,149.36,5041806
6-Jan-14,150.00,150.40,145.24,147.00,5367320
3-Jan-14,150.00,152.19,148.60,149.56,4698839
2-Jan-14,149.80,152.48,146.55,150.10,6195355
31-Dec-13,152.32,153.20,148.66,150.43,4266710
30-Dec-13,151.12,154.81,150.75,152.44,4472076
27-Dec-13,155.30,155.50,150.80,151.12,5469064
26-Dec-13,155.04,158.00,154.29,155.50,7129526
24-Dec-13,150.00,154.97,149.82,151.41,9941485
23-Dec-13,144.85,146.24,142.60,143.55,5385506
20-Dec-13,141.88,144.35,141.58,143.24,7422537
19-Dec-13,146.91,147.00,139.10,140.72,12758613
18-Dec-13,152.28,154.90,145.95,147.98,11581897
17-Dec-13,146.93,154.63,146.32,152.46,10494969
16-Dec-13,148.57,150.43,146.10,147.94,6675276
13-Dec-13,148.37,151.80,147.32,147.65,10599775
12-Dec-13,139.81,148.24,138.53,147.47,10767791
11-Dec-13,141.89,143.05,139.49,139.65,7137842
10-Dec-13,139.96,145.87,139.86,142.19,10748234
9-Dec-13,137.01,141.70,134.21,141.60,9061485
6-Dec-13,141.51,142.49,136.30,137.36,7909596
5-Dec-13,140.15,143.35,139.50,140.48,9288415
4-Dec-13,144.32,144.43,137.13,138.95,13147688
3-Dec-13,132.68,144.94,131.59,144.70,25682404
2-Dec-13,126.35,128.55,123.93,124.17,7751211
29-Nov-13,129.77,130.59,126.98,127.28,9716219
27-Nov-13,121.31,126.95,119.52,126.94,12367634
26-Nov-13,119.38,122.72,116.10,120.50,13885522
25-Nov-13,124.50,125.84,120.30,120.84,10275348
22-Nov-13,121.58,122.75,117.93,121.38,11104146
21-Nov-13,122.89,124.79,120.25,122.10,11903803
20-Nov-13,126.08,127.45,119.06,121.11,13849554
19-Nov-13,119.43,129.00,119.22,126.09,19816154
18-Nov-13,135.27,135.45,119.61,121.58,23138242
15-Nov-13,136.85,137.95,134.35,135.45,9900176
14-Nov-13,138.92,140.40,134.11,137.60,12203700
13-Nov-13,140.84,142.37,136.34,138.70,12658272
12-Nov-13,144.69,144.70,136.18,137.80,14985162
11-Nov-13,141.00,145.42,137.10,144.70,13997591
8-Nov-13,136.48,140.60,132.32,137.95,22477861
7-Nov-13,144.19,145.65,137.62,139.77,22284744
6-Nov-13,154.81,160.73,146.36,151.16,31071726
5-Nov-13,180.00,181.43,171.36,176.81,22467101
4-Nov-13,165.00,175.39,164.22,175.20,13120374
1-Nov-13,163.00,165.90,160.41,162.17,7180583
31-Oct-13,155.67,162.44,153.30,159.94,9340455
30-Oct-13,164.63,167.68,158.17,159.22,8401756
29-Oct-13,162.76,165.45,153.00,164.47,14111737
28-Oct-13,170.18,170.50,162.20,162.86,7841727
25-Oct-13,174.21,174.50,166.80,169.66,7595458
24-Oct-13,165.00,174.50,162.83,173.15,10825667
23-Oct-13,168.91,171.81,160.15,164.50,13327739
22-Oct-13,170.50,177.78,166.11,171.54,11394675
21-Oct-13,183.28,183.39,171.00,172.60,11532131
18-Oct-13,184.15,185.96,182.52,183.40,5930815
17-Oct-13,183.54,184.80,180.99,182.80,6704968
16-Oct-13,184.90,187.30,182.09,183.56,8205367
15-Oct-13,185.28,188.79,183.18,183.94,10978536
14-Oct-13,175.00,182.50,174.15,179.72,7769630
11-Oct-13,172.75,179.29,171.20,178.70,8311086
10-Oct-13,173.09,175.75,169.69,172.93,8883910
9-Oct-13,174.73,174.99,161.50,168.78,15316481
8-Oct-13,184.40,185.93,173.21,174.73,13757218
7-Oct-13,182.46,186.73,180.26,183.07,11485579
4-Oct-13,176.40,181.18,172.65,180.98,14413965
3-Oct-13,175.04,179.69,168.00,173.31,23816504
2-Oct-13,188.59,191.83,175.40,180.95,20775410
1-Oct-13,193.96,194.23,188.37,193.00,7761429
30-Sep-13,189.00,194.50,188.00,193.37,8934541
27-Sep-13,187.52,191.28,186.43,190.90,5923881
26-Sep-13,186.70,189.68,185.61,188.64,6621592
25-Sep-13,183.56,186.30,180.50,185.24,8252621
24-Sep-13,179.14,184.96,177.65,182.33,6282431
23-Sep-13,184.48,185.48,177.11,181.11,8191841
20-Sep-13,178.90,185.83,178.56,183.39,13401689
19-Sep-13,170.80,180.47,169.08,177.92,15594568
18-Sep-13,167.07,167.45,164.20,166.22,5439615
17-Sep-13,165.08,168.42,163.36,166.23,5500719
16-Sep-13,168.00,170.85,165.85,166.58,7592598
13-Sep-13,162.77,166.37,162.16,165.54,5409888
12-Sep-13,164.00,166.76,160.51,164.93,6159993
11-Sep-13,166.41,167.90,162.13,163.52,5811072
10-Sep-13,161.45,167.50,160.63,166.37,8967786
9-Sep-13,163.12,164.50,158.51,160.70,14344473
6-Sep-13,168.57,169.70,165.15,166.97,8619630
5-Sep-13,170.10,171.50,168.25,169.93,6693202
4-Sep-13,169.77,171.62,165.56,170.62,11475647
3-Sep-13,173.40,173.70,166.40,168.94,12061100
30-Aug-13,166.37,169.21,163.96,169.00,11028358
29-Aug-13,164.22,167.75,162.51,166.06,9445720
28-Aug-13,169.06,171.50,163.25,166.45,14740006
27-Aug-13,162.30,168.80,160.95,167.01,17566816
26-Aug-13,165.15,173.00,160.25,164.22,24171096
23-Aug-13,157.00,162.30,155.00,161.84,12931842
22-Aug-13,149.22,157.48,148.14,157.10,10592391
21-Aug-13,150.00,150.31,146.25,147.86,6266262
20-Aug-13,148.65,149.78,147.00,149.58,6418108
19-Aug-13,143.43,147.38,142.83,144.90,8037640
16-Aug-13,141.63,143.91,140.97,142.00,7108086
15-Aug-13,136.43,143.60,135.00,139.67,10188877
14-Aug-13,142.72,144.84,138.05,139.36,11693743
13-Aug-13,149.50,149.84,144.45,145.43,8748863
12-Aug-13,149.43,150.50,142.05,147.38,14912175
9-Aug-13,152.40,155.95,151.25,153.00,8936029
8-Aug-13,154.36,158.88,150.46,153.48,27246763
7-Aug-13,141.89,141.95,132.36,134.23,18212138
6-Aug-13,144.75,145.73,141.10,142.15,9261092
5-Aug-13,140.01,144.89,139.65,144.68,10200629
2-Aug-13,134.59,138.25,133.61,138.00,6269838
1-Aug-13,135.00,136.52,132.63,135.55,5323599
31-Jul-13,132.57,134.98,131.45,134.28,6351637
30-Jul-13,134.80,137.49,128.18,131.74,13130267
29-Jul-13,129.32,135.37,128.25,134.62,9686072
26-Jul-13,128.14,130.68,126.61,129.39,9640703
25-Jul-13,120.40,124.75,120.19,124.07,5287144
24-Jul-13,124.47,124.50,119.56,121.70,6871372
23-Jul-13,124.00,125.56,121.82,122.74,7740469
22-Jul-13,119.89,126.68,119.88,122.43,9804810
19-Jul-13,118.50,120.55,116.51,119.68,5891439
18-Jul-13,120.97,122.73,116.18,119.03,11407358
17-Jul-13,106.52,121.62,104.50,120.25,26028947
16-Jul-13,126.28,126.32,107.30,109.05,32371868
15-Jul-13,133.03,133.26,126.82,127.26,9924336
12-Jul-13,125.50,129.94,124.51,129.90,11349186
11-Jul-13,124.88,126.09,122.35,125.61,7486958
10-Jul-13,123.19,123.25,120.79,122.27,5600012
9-Jul-13,124.64,125.32,121.91,123.45,8603207
8-Jul-13,121.37,122.18,118.82,121.61,7820816
5-Jul-13,118.32,120.28,115.70,120.09,6827497
3-Jul-13,118.00,119.25,114.27,115.24,4806662
2-Jul-13,118.26,121.89,115.50,117.82,12070315
1-Jul-13,109.36,117.77,109.15,117.18,10903601
28-Jun-13,108.57,109.44,106.71,107.36,5750431
27-Jun-13,106.75,110.25,106.13,109.25,8750826
26-Jun-13,103.80,105.87,102.66,105.72,6610159
25-Jun-13,103.10,104.20,100.55,102.40,5850832
24-Jun-13,96.50,102.87,95.30,101.49,7127020
21-Jun-13,103.70,103.70,97.50,99.55,11714123
20-Jun-13,104.65,107.13,99.45,100.65,10111221
19-Jun-13,102.06,106.67,102.01,104.68,8588734
18-Jun-13,101.75,103.98,99.20,103.39,8803563
17-Jun-13,103.60,104.75,101.20,102.20,7075640
14-Jun-13,100.00,102.52,99.33,100.30,6554483
13-Jun-13,99.00,99.28,95.12,98.18,5965124
12-Jun-13,96.80,100.48,95.75,97.73,9197523
11-Jun-13,98.18,98.68,94.05,94.47,7385845
10-Jun-13,98.93,102.52,98.57,100.05,9234215
7-Jun-13,98.00,102.90,96.70,102.04,10717217
6-Jun-13,95.25,99.27,95.11,97.35,9514406
5-Jun-13,93.66,97.97,89.11,95.37,12224731
4-Jun-13,92.75,96.42,92.40,94.84,8856045
3-Jun-13,93.51,97.62,88.25,92.59,19143475
31-May-13,106.26,106.44,97.73,97.76,15171929
30-May-13,102.46,109.54,101.20,104.95,16140554
29-May-13,113.55,114.90,99.00,104.63,25099480
28-May-13,101.55,110.75,100.30,110.33,19691824
24-May-13,92.60,97.95,92.00,97.08,16124194
23-May-13,84.80,93.01,83.05,92.73,12044257
22-May-13,86.37,90.96,85.50,87.24,8573776
21-May-13,88.50,89.99,85.28,87.59,9001763
20-May-13,91.12,92.50,88.63,89.94,8348331
17-May-13,92.50,94.44,87.50,91.50,19008450
16-May-13,94.70,95.00,88.66,92.25,21614002
15-May-13,81.80,86.88,78.11,84.84,16878700
14-May-13,94.22,97.12,81.15,83.24,37163898
13-May-13,80.99,88.00,79.15,87.80,22416815
10-May-13,69.65,81.00,69.25,76.76,25086430
9-May-13,70.12,75.77,63.69,69.40,28604970
8-May-13,57.50,58.20,55.71,55.79,6769859
7-May-13,62.00,62.37,55.12,55.51,9994549
6-May-13,56.39,59.66,55.50,59.50,4372799
3-May-13,56.47,56.47,54.50,54.55,3379403
2-May-13,53.85,55.27,53.70,54.11,3052333
1-May-13,55.99,55.99,53.00,53.28,2742778
30-Apr-13,56.00,58.18,53.76,53.99,5523948
29-Apr-13,51.76,54.99,51.20,54.94,3642206
26-Apr-13,53.13,53.74,50.62,51.20,3622430
25-Apr-13,50.50,52.40,50.50,52.00,2796207
24-Apr-13,50.90,51.05,48.98,50.43,2630108
23-Apr-13,51.00,52.92,50.66,51.01,3737550
22-Apr-13,48.60,50.20,47.75,50.19,3939327
19-Apr-13,47.46,49.88,47.07,47.83,3012136
18-Apr-13,45.98,47.60,45.39,46.97,3368700
17-Apr-13,45.50,45.95,44.54,45.45,2118428
16-Apr-13,44.19,46.14,43.91,45.59,3180438
15-Apr-13,43.50,43.80,42.51,43.30,1685984
12-Apr-13,43.25,45.14,43.05,43.75,3149372
11-Apr-13,42.06,44.55,41.75,43.59,3448081
10-Apr-13,40.70,42.01,40.61,41.86,2121088
9-Apr-13,41.80,41.83,40.33,40.50,1696036
8-Apr-13,41.97,42.55,41.51,41.83,1679001
5-Apr-13,42.00,42.00,40.50,41.37,1552389
4-Apr-13,41.11,42.25,40.81,42.01,2264867
3-Apr-13,43.10,43.47,40.21,41.10,5644995
2-Apr-13,43.60,45.50,43.51,44.34,6652374
1-Apr-13,42.36,46.68,41.70,43.93,14105873
28-Mar-13,38.23,38.24,37.75,37.89,1158652
27-Mar-13,37.94,38.38,37.31,38.16,1296283
26-Mar-13,37.98,38.22,37.66,37.86,1808137
25-Mar-13,37.10,38.52,36.77,37.53,2379354
22-Mar-13,36.20,36.80,36.20,36.62,446235
21-Mar-13,35.95,37.06,35.74,36.01,1146287
20-Mar-13,35.26,36.07,35.16,35.95,1423684
19-Mar-13,35.25,35.60,34.94,35.08,1098475
18-Mar-13,35.30,36.06,34.92,35.15,1316336
15-Mar-13,36.64,36.65,35.21,35.29,3279777
14-Mar-13,38.90,38.91,36.77,36.85,2024459
13-Mar-13,39.00,39.49,38.81,38.98,821986
12-Mar-13,38.90,39.38,38.85,39.12,1275062
11-Mar-13,38.87,39.44,38.65,39.10,1579440
8-Mar-13,38.06,39.44,37.36,38.47,912052
7-Mar-13,37.73,38.65,36.88,38.23,1158354
6-Mar-13,37.01,37.88,36.97,37.69,1149925
5-Mar-13,36.00,36.92,35.79,36.65,2086969
4-Mar-13,34.77,35.83,34.70,35.58,1757660
1-Mar-13,35.00,35.08,34.25,34.65,1546600
28-Feb-13,35.89,36.10,34.37,34.83,1964893
27-Feb-13,34.41,35.41,34.40,35.10,1959129
26-Feb-13,34.46,34.96,33.80,34.43,2763050
25-Feb-13,36.15,36.75,34.34,34.38,2890772
22-Feb-13,35.72,36.39,35.60,36.11,2547831
21-Feb-13,36.49,37.39,34.54,35.16,9038212
20-Feb-13,39.30,39.65,38.46,38.54,3121910
19-Feb-13,37.36,39.29,37.31,39.28,2701340
15-Feb-13,38.50,38.51,36.95,37.04,2018269
14-Feb-13,38.64,38.75,38.21,38.30,990640
13-Feb-13,38.30,39.00,38.05,38.45,967102
12-Feb-13,38.45,38.87,37.29,37.89,2261246
11-Feb-13,37.98,39.15,37.50,38.42,3266248
8-Feb-13,39.45,40.00,39.14,39.24,1139733
7-Feb-13,39.19,39.68,38.95,39.48,1197521
6-Feb-13,38.18,39.39,37.90,39.17,1893148
5-Feb-13,38.00,38.65,37.68,38.13,1310192
4-Feb-13,38.40,38.42,37.59,37.74,1127989
1-Feb-13,38.17,38.50,37.62,38.30,1100590
31-Jan-13,37.87,37.87,36.93,37.51,901318
30-Jan-13,37.85,38.00,37.43,37.52,968098
29-Jan-13,38.10,38.44,37.13,37.95,1426503
28-Jan-13,36.86,38.71,36.86,38.03,1985992
25-Jan-13,37.00,37.54,36.80,36.98,1287703
24-Jan-13,36.00,37.72,35.84,36.99,1970389
23-Jan-13,35.02,36.24,34.96,36.00,1564206
22-Jan-13,34.56,35.55,34.26,35.19,1920131
18-Jan-13,34.74,34.78,33.82,34.52,3555074
17-Jan-13,34.16,34.85,33.92,34.38,1436604
16-Jan-13,33.85,34.23,33.73,34.10,1378138
15-Jan-13,33.11,34.25,33.08,33.90,1624389
14-Jan-13,33.08,33.38,32.85,33.26,925018
11-Jan-13,34.04,34.04,32.11,32.91,1563274
10-Jan-13,33.87,33.99,33.38,33.53,922405
9-Jan-13,34.01,34.19,33.40,33.64,697979
8-Jan-13,34.50,34.50,33.11,33.68,1283985
7-Jan-13,34.80,34.80,33.90,34.34,441909
4-Jan-13,34.80,34.80,33.92,34.40,673993
3-Jan-13,35.18,35.45,34.75,34.77,741941
2-Jan-13,35.00,35.45,34.70,35.36,1194710
31-Dec-12,33.00,33.97,33.00,33.87,594846
28-Dec-12,33.38,33.65,33.02,33.22,414135
27-Dec-12,33.50,33.91,33.00,33.69,561085
26-Dec-12,33.96,34.50,33.50,33.59,601784
24-Dec-12,33.64,34.35,33.55,34.28,375796
21-Dec-12,33.94,34.17,33.58,34.00,1492306
20-Dec-12,34.51,34.79,34.05,34.43,921194
19-Dec-12,34.75,35.26,34.52,34.61,1298731
18-Dec-12,34.26,35.07,34.26,34.59,1554436
17-Dec-12,33.77,34.50,33.75,34.40,824809
14-Dec-12,33.78,34.40,33.59,33.81,1022943
13-Dec-12,35.26,35.30,32.75,33.61,2151224
12-Dec-12,35.21,35.80,34.95,35.26,2063877
11-Dec-12,34.60,35.50,34.46,35.28,1572591
10-Dec-12,34.43,34.80,34.18,34.57,929751
7-Dec-12,34.30,34.49,33.85,34.17,664586
6-Dec-12,33.82,34.80,33.50,33.90,660397
5-Dec-12,33.82,34.19,33.58,33.71,661486
4-Dec-12,34.08,34.80,33.55,33.90,1264211
3-Dec-12,33.89,35.00,33.50,34.62,2085753
30-Nov-12,33.63,34.28,33.01,33.82,1420284
29-Nov-12,33.44,34.00,32.87,33.69,1103315
28-Nov-12,32.00,34.29,31.91,33.23,1525299
27-Nov-12,32.13,32.66,31.52,32.15,910770
26-Nov-12,32.10,32.30,31.62,32.27,496219
23-Nov-12,32.60,32.83,31.70,32.13,430212
21-Nov-12,32.61,33.47,32.29,32.47,963133
20-Nov-12,32.80,33.10,31.91,33.00,922427
19-Nov-12,32.07,33.25,31.84,32.92,1392548
16-Nov-12,31.15,32.00,30.59,31.84,908650
15-Nov-12,31.30,31.44,30.50,30.82,983941
14-Nov-12,31.96,32.12,31.20,31.38,871315
13-Nov-12,31.29,32.00,30.72,31.61,998263
12-Nov-12,30.29,31.42,30.16,31.07,557651
9-Nov-12,30.60,30.93,29.85,30.32,863028
8-Nov-12,31.01,31.88,30.94,31.31,1273986
7-Nov-12,31.00,32.05,30.81,31.54,1715417
6-Nov-12,30.61,31.20,29.95,31.15,2323943
5-Nov-12,29.80,31.58,29.33,31.50,2049118
2-Nov-12,29.27,29.55,28.55,28.92,1030265
1-Nov-12,28.25,29.49,28.20,29.25,1024054
31-Oct-12,27.70,28.35,27.37,28.13,775142
26-Oct-12,27.53,27.80,27.02,27.38,477305
25-Oct-12,27.80,27.80,27.45,27.52,577686
24-Oct-12,28.52,28.52,27.25,27.42,1016368
23-Oct-12,27.38,28.56,27.37,28.39,749273
22-Oct-12,27.99,28.00,27.36,27.85,470198
19-Oct-12,27.83,28.20,27.30,27.74,1027302
18-Oct-12,28.99,28.99,27.78,28.04,740947
17-Oct-12,28.25,28.84,27.80,28.82,667963
16-Oct-12,27.67,28.09,27.34,28.06,479248
15-Oct-12,28.02,28.05,26.86,27.33,1469167
12-Oct-12,28.32,28.73,27.50,27.64,987535
11-Oct-12,28.94,28.98,28.25,28.32,450571
10-Oct-12,28.39,28.72,28.01,28.40,505063
9-Oct-12,29.12,29.12,28.25,28.37,1193479
8-Oct-12,28.86,29.40,28.61,29.25,890006
5-Oct-12,29.70,29.81,28.68,28.89,938670
4-Oct-12,30.00,30.10,28.65,29.40,1541207
3-Oct-12,29.75,29.95,29.24,29.30,1055288
2-Oct-12,29.28,29.89,29.00,29.80,728969
1-Oct-12,29.50,29.89,29.00,29.16,884305
28-Sep-12,28.73,29.89,28.61,29.28,4343338
27-Sep-12,27.82,28.54,27.60,28.49,1758553
26-Sep-12,27.66,28.40,27.48,27.54,1527320
25-Sep-12,28.62,29.48,27.53,27.66,5684952
24-Sep-12,29.51,31.03,29.40,30.66,1302004
21-Sep-12,31.10,31.49,29.54,30.02,1870170
20-Sep-12,30.93,31.50,30.68,30.90,912372
19-Sep-12,31.00,31.74,30.94,31.05,1048457
18-Sep-12,31.88,31.90,30.68,31.34,1788480
17-Sep-12,32.35,32.78,31.51,32.54,3212991
14-Sep-12,30.00,30.65,29.65,30.39,1536669
13-Sep-12,28.57,29.50,28.48,29.48,1486359
12-Sep-12,27.90,28.58,27.80,28.28,1145334
11-Sep-12,27.76,28.16,27.40,27.80,1014871
10-Sep-12,29.20,29.35,27.30,27.37,1484015
7-Sep-12,28.55,29.57,28.50,29.35,953151
6-Sep-12,28.00,28.90,27.90,28.55,841643
5-Sep-12,28.01,28.50,27.81,27.94,639227
4-Sep-12,28.52,28.99,27.90,28.14,752496
31-Aug-12,28.61,28.84,28.20,28.52,539736
30-Aug-12,28.60,28.74,28.10,28.41,656307
29-Aug-12,28.49,28.64,28.02,28.41,838883
28-Aug-12,28.40,29.38,28.00,28.69,1402656
27-Aug-12,29.57,29.70,28.17,28.32,1350325
24-Aug-12,30.06,30.24,29.41,29.50,1430011
23-Aug-12,30.00,30.85,29.65,30.73,1470974
22-Aug-12,29.01,30.04,29.01,29.95,775490
21-Aug-12,29.58,30.00,29.00,29.11,761516
20-Aug-12,30.15,30.39,29.10,29.51,1179008
17-Aug-12,30.29,30.71,29.98,30.01,508122
16-Aug-12,29.53,30.39,29.50,30.30,668973
15-Aug-12,29.39,29.70,28.81,29.40,525385
14-Aug-12,30.75,31.17,29.26,29.42,793336
13-Aug-12,29.69,31.30,29.10,31.17,870050
10-Aug-12,29.31,29.94,29.31,29.94,707390
9-Aug-12,29.52,30.00,29.13,29.41,672584
8-Aug-12,29.90,30.00,28.59,29.09,1308895
7-Aug-12,28.77,30.90,28.50,30.25,2387304
6-Aug-12,27.55,28.70,27.55,28.27,1528169
3-Aug-12,26.90,27.55,26.74,27.27,1209470
2-Aug-12,26.84,26.85,25.52,26.10,1305016
1-Aug-12,27.99,27.99,26.03,26.25,1592217
31-Jul-12,27.54,27.97,27.35,27.42,1575060
30-Jul-12,29.51,30.25,27.21,27.35,2066040
27-Jul-12,28.71,29.66,28.10,29.51,1672968
26-Jul-12,29.90,30.00,27.64,28.13,2263005
25-Jul-12,29.92,29.98,28.75,28.95,2844065
24-Jul-12,30.66,31.04,29.62,29.84,1500676
23-Jul-12,31.05,31.30,30.62,30.66,1386743
20-Jul-12,32.07,32.25,31.25,31.79,1568466
19-Jul-12,32.72,33.15,32.04,32.27,1435878
18-Jul-12,31.42,33.67,31.06,32.15,2882084
17-Jul-12,35.00,35.21,32.38,33.35,2569463
16-Jul-12,34.32,36.00,33.90,35.96,1743908
13-Jul-12,32.97,34.40,32.83,34.25,1304912
12-Jul-12,31.29,33.01,30.80,32.70,1125670
11-Jul-12,31.57,31.68,31.01,31.51,638516
10-Jul-12,31.54,32.48,30.89,31.27,758352
9-Jul-12,30.94,31.83,30.67,31.49,910409
6-Jul-12,30.99,31.73,30.80,30.99,784661
5-Jul-12,30.81,31.67,30.80,31.23,1253866
3-Jul-12,30.60,31.00,30.40,30.66,947128
2-Jul-12,31.35,31.80,30.19,30.40,1315534
29-Jun-12,32.80,32.80,31.00,31.29,1125704
28-Jun-12,31.90,32.11,30.62,31.41,914040
27-Jun-12,31.90,32.44,31.57,31.96,1047194
26-Jun-12,32.05,32.35,31.39,31.61,2613849
25-Jun-12,33.94,34.12,32.75,33.11,1503186
22-Jun-12,32.60,33.98,32.46,33.78,3047452
21-Jun-12,34.26,34.28,31.84,32.19,1891895
20-Jun-12,33.50,34.50,33.21,33.78,3422342
19-Jun-12,32.02,32.66,31.50,32.09,911029
18-Jun-12,29.94,32.33,29.50,31.84,1256796
15-Jun-12,29.39,29.95,28.81,29.91,646737
14-Jun-12,30.18,30.65,28.62,29.39,872161
13-Jun-12,29.55,30.64,29.47,29.77,844371
12-Jun-12,29.23,29.84,28.81,29.66,568994
11-Jun-12,30.31,31.00,28.96,29.12,635947
8-Jun-12,28.86,30.19,28.15,30.08,881209
7-Jun-12,29.81,29.87,28.85,28.93,492015
6-Jun-12,28.20,29.45,28.14,29.22,910508
5-Jun-12,27.84,28.39,27.56,27.91,630885
4-Jun-12,28.03,28.41,27.11,27.88,1030834
1-Jun-12,28.53,29.16,27.76,28.15,885710
31-May-12,30.07,30.29,28.75,29.50,1118701
30-May-12,31.08,31.42,30.24,30.41,1307141
29-May-12,30.01,31.93,30.01,31.69,1649917
25-May-12,30.16,30.41,29.20,29.81,757009
24-May-12,31.25,31.25,29.69,30.32,1075520
23-May-12,30.56,31.05,29.50,31.02,1220349
22-May-12,30.10,31.34,30.00,30.79,2366170
21-May-12,27.58,29.26,27.12,28.77,1475170
18-May-12,28.37,28.46,26.83,27.56,1616487
17-May-12,29.30,29.79,28.24,28.57,1149043
16-May-12,29.58,30.18,28.88,29.18,1257193
15-May-12,30.26,30.96,29.22,29.43,1585682
14-May-12,31.92,32.13,30.05,30.06,1380842
11-May-12,32.49,33.44,32.16,32.25,1221205
10-May-12,32.97,34.68,32.40,32.96,5556301
9-May-12,30.30,30.77,29.76,30.06,1947828
8-May-12,32.50,32.73,29.37,30.19,3097180
7-May-12,31.96,32.58,31.61,32.47,1157969
4-May-12,32.32,32.46,31.40,31.83,1247486
3-May-12,33.91,34.00,32.13,32.46,842107
2-May-12,33.50,34.39,33.39,33.94,497251
1-May-12,33.13,34.21,33.13,33.78,658947
30-Apr-12,33.27,33.36,32.58,33.13,413948
27-Apr-12,33.60,33.63,32.91,33.34,590205
26-Apr-12,32.96,33.52,32.91,33.49,427619
25-Apr-12,32.07,32.99,32.07,32.91,712133
24-Apr-12,31.82,32.20,31.00,31.82,674467
23-Apr-12,32.86,32.97,31.71,31.94,890715
20-Apr-12,33.14,33.73,32.94,33.16,821774
19-Apr-12,32.75,33.43,32.50,33.16,774878
18-Apr-12,32.09,32.75,31.53,32.66,823096
17-Apr-12,32.43,33.07,32.04,32.24,1115538
16-Apr-12,33.41,33.70,32.09,32.25,1099751
13-Apr-12,33.94,34.04,32.85,33.59,649580
12-Apr-12,33.77,34.48,32.92,33.44,1034154
11-Apr-12,33.24,33.29,32.01,33.09,1105447
10-Apr-12,33.15,33.85,32.10,32.46,1847669
9-Apr-12,34.10,34.29,33.10,33.15,1655805
5-Apr-12,35.10,35.44,34.41,34.48,1509478
4-Apr-12,35.27,35.49,34.69,35.00,4482816
3-Apr-12,36.70,38.47,36.67,38.01,1104150
2-Apr-12,37.33,37.97,36.53,36.58,1028504
30-Mar-12,37.52,37.94,36.68,37.24,886312
29-Mar-12,38.19,38.19,37.03,37.33,796335
28-Mar-12,37.78,38.44,37.11,37.85,954970
27-Mar-12,37.16,39.95,37.03,37.94,2540053
26-Mar-12,35.59,38.09,35.04,37.40,3140891
23-Mar-12,34.26,34.63,33.15,34.08,1170567
22-Mar-12,34.97,35.15,34.30,34.40,522353
21-Mar-12,34.94,35.30,34.60,35.15,607103
20-Mar-12,34.98,35.20,34.57,34.96,567001
19-Mar-12,35.26,35.32,34.54,34.98,1015586
16-Mar-12,34.90,35.89,34.83,35.32,729236
15-Mar-12,35.28,35.48,34.78,35.00,571596
14-Mar-12,36.00,36.00,34.80,35.29,851464
13-Mar-12,36.51,36.59,35.50,36.09,1001643
12-Mar-12,34.69,36.29,34.60,36.01,1964520
9-Mar-12,33.20,35.31,33.20,34.74,1553423
8-Mar-12,33.11,33.49,33.04,33.07,633267
7-Mar-12,33.12,33.32,32.91,33.12,364831
6-Mar-12,33.25,33.28,32.62,33.11,573749
5-Mar-12,34.35,34.40,33.46,33.77,466938
2-Mar-12,34.40,34.50,33.71,34.04,549971
1-Mar-12,33.51,34.50,33.30,34.41,703435
29-Feb-12,33.81,34.12,33.14,33.41,535684
28-Feb-12,33.64,34.44,33.17,33.81,612183
27-Feb-12,33.41,34.00,33.00,33.62,605953
24-Feb-12,34.23,34.52,33.27,33.75,959866
23-Feb-12,33.99,34.97,33.56,34.53,820345
22-Feb-12,34.50,34.72,32.50,34.22,1654985
21-Feb-12,34.87,34.87,33.81,34.50,1135788
17-Feb-12,33.99,34.97,33.50,34.97,1376645
16-Feb-12,33.50,34.51,32.54,34.18,2219636
15-Feb-12,33.10,34.41,32.27,33.60,2764476
14-Feb-12,31.74,33.79,31.40,33.17,1811365
13-Feb-12,31.55,32.06,30.90,31.49,1157858
10-Feb-12,32.26,32.27,29.84,31.10,1874139
9-Feb-12,32.00,32.90,31.43,32.58,1277968
8-Feb-12,31.60,32.01,31.29,31.93,623626
7-Feb-12,31.80,31.80,30.82,31.60,1021503
6-Feb-12,31.10,31.90,31.05,31.80,652161
3-Feb-12,30.41,31.33,30.25,31.15,764418
2-Feb-12,29.72,30.88,29.60,30.25,805610
1-Feb-12,29.07,29.70,29.00,29.58,523169
31-Jan-12,29.90,30.00,28.87,29.07,956713
30-Jan-12,29.49,29.61,28.53,29.57,728979
27-Jan-12,28.50,29.72,28.50,29.33,748361
26-Jan-12,28.07,29.58,28.00,28.94,1271028
25-Jan-12,27.27,28.01,27.05,27.97,611112
24-Jan-12,26.63,27.68,26.44,27.42,857914
23-Jan-12,26.81,27.21,26.60,26.77,594533
20-Jan-12,26.90,27.00,26.40,26.60,662289
19-Jan-12,27.19,27.74,26.61,26.76,1246222
18-Jan-12,26.69,26.88,26.25,26.81,1260183
17-Jan-12,26.62,27.34,26.41,26.60,4652386
13-Jan-12,28.40,28.50,22.64,22.79,5506439
12-Jan-12,28.48,28.62,27.80,28.25,729300
11-Jan-12,27.62,28.38,27.30,28.23,672239
10-Jan-12,27.44,27.76,27.25,27.62,671732
9-Jan-12,27.00,27.49,26.12,27.25,896951
6-Jan-12,27.20,27.79,26.41,26.89,687081
5-Jan-12,27.76,27.93,26.85,27.12,1005432
4-Jan-12,28.21,28.67,27.50,27.71,630036
3-Jan-12,28.94,29.50,27.65,28.08,928052
30-Dec-11,28.49,28.98,28.25,28.56,339860
29-Dec-11,28.59,29.34,28.55,28.73,488150
28-Dec-11,28.99,29.24,28.04,28.51,575138
27-Dec-11,27.66,28.77,27.64,28.57,777403
23-Dec-11,28.00,28.00,27.52,27.90,591390
22-Dec-11,27.60,28.05,27.30,27.77,1009802
21-Dec-11,27.91,28.07,26.03,27.57,1705807
20-Dec-11,28.05,28.45,27.72,27.90,844381
19-Dec-11,28.09,28.50,27.37,27.75,986952
16-Dec-11,28.79,28.93,27.98,28.00,1029605
15-Dec-11,28.67,29.17,28.12,28.62,700261
14-Dec-11,29.50,29.68,28.00,28.53,1163840
13-Dec-11,30.57,30.93,28.91,29.45,994015
12-Dec-11,30.44,30.62,30.02,30.41,758657
9-Dec-11,30.54,31.12,30.28,31.04,1239444
8-Dec-11,30.84,31.65,29.61,30.89,3305945
7-Dec-11,34.63,34.89,33.80,34.19,674244
6-Dec-11,34.20,34.98,34.03,34.87,951810
5-Dec-11,33.53,35.00,33.43,34.42,1160050
2-Dec-11,32.83,33.69,32.40,33.30,802718
1-Dec-11,32.57,33.99,31.98,32.60,1030108
30-Nov-11,32.50,32.93,32.22,32.74,760965
29-Nov-11,32.49,33.07,31.63,31.75,591054
28-Nov-11,32.00,33.28,31.81,32.56,681124
25-Nov-11,31.55,32.41,31.08,31.66,239595
23-Nov-11,31.76,32.05,31.25,31.45,451813
22-Nov-11,31.76,32.79,31.05,32.07,732518
21-Nov-11,32.44,32.44,31.05,31.76,1031524
18-Nov-11,33.64,34.11,32.54,32.60,902729
17-Nov-11,34.50,34.90,33.19,33.68,1349265
16-Nov-11,33.48,35.00,33.40,34.94,1833136
15-Nov-11,32.92,34.40,32.73,33.93,890905
14-Nov-11,33.00,33.54,32.62,33.22,1325656
11-Nov-11,31.90,34.50,30.57,33.64,3875123
10-Nov-11,30.94,31.50,30.65,31.33,747273
9-Nov-11,30.87,31.49,30.30,30.88,953656
8-Nov-11,31.37,32.00,30.72,31.84,1167830
7-Nov-11,31.64,32.00,30.75,31.27,1266269
4-Nov-11,31.46,32.40,30.51,32.31,3033107
3-Nov-11,30.00,32.49,29.53,32.46,2510603
2-Nov-11,29.00,29.26,28.25,28.71,875521
1-Nov-11,28.39,28.92,28.00,28.88,635775
31-Oct-11,29.50,29.51,28.75,29.37,1133969
28-Oct-11,28.50,30.00,28.01,29.87,1264993
27-Oct-11,28.34,28.95,28.11,28.76,869335
26-Oct-11,28.19,28.37,27.40,27.98,510479
25-Oct-11,28.23,28.86,27.80,28.25,654371
24-Oct-11,27.87,28.89,27.75,28.55,940550
21-Oct-11,27.40,28.30,27.01,28.03,1142550
20-Oct-11,27.44,27.47,27.00,27.34,999647
19-Oct-11,28.02,28.06,27.30,27.57,792850
18-Oct-11,27.30,28.43,26.71,28.34,999690
17-Oct-11,27.86,28.00,27.26,27.42,754439
14-Oct-11,28.00,28.55,27.26,28.05,1400469
13-Oct-11,27.63,28.47,27.44,27.94,1043813
12-Oct-11,27.25,28.00,27.20,27.80,1123364
11-Oct-11,27.51,27.77,27.09,27.61,576003
10-Oct-11,27.31,28.18,27.00,27.88,923416
7-Oct-11,26.98,27.60,26.05,26.99,1311548
6-Oct-11,25.37,27.60,25.02,26.96,1769026
5-Oct-11,24.03,25.84,23.35,25.37,1229414
4-Oct-11,23.29,24.32,22.93,23.66,1200214
3-Oct-11,24.95,25.00,23.25,23.73,1023130
30-Sep-11,24.80,24.89,23.49,24.39,1336054
29-Sep-11,25.72,25.82,23.55,24.12,929545
28-Sep-11,26.00,26.50,24.51,24.59,723206
27-Sep-11,26.00,26.99,25.57,26.19,674429
26-Sep-11,26.52,26.52,24.90,25.52,934715
23-Sep-11,25.49,26.62,25.35,26.38,1156328
22-Sep-11,25.64,26.11,24.88,25.63,776002
21-Sep-11,25.95,26.95,25.70,25.85,987577
20-Sep-11,25.98,26.60,25.67,26.01,1180351
19-Sep-11,24.95,25.81,23.82,25.77,1157349
16-Sep-11,24.78,25.84,24.49,25.80,1417574
15-Sep-11,24.58,24.93,24.33,24.82,562512
14-Sep-11,24.25,24.84,23.79,24.34,830777
13-Sep-11,23.01,24.10,22.75,24.08,726461
12-Sep-11,22.50,23.31,22.45,22.88,566571
9-Sep-11,23.37,23.57,22.55,22.97,669263
8-Sep-11,23.58,24.03,23.28,23.61,505697
7-Sep-11,23.39,24.00,23.28,23.84,459186
6-Sep-11,22.50,23.20,22.29,22.94,809760
2-Sep-11,23.66,23.99,22.68,23.07,770331
1-Sep-11,24.66,24.87,23.84,24.00,848085
31-Aug-11,24.80,25.50,24.28,24.74,823735
30-Aug-11,24.50,24.77,24.09,24.63,366659
29-Aug-11,24.22,24.85,24.02,24.71,803302
26-Aug-11,22.71,23.95,22.07,23.73,761756
25-Aug-11,23.87,23.87,22.90,23.11,680210
24-Aug-11,23.10,23.93,22.83,23.87,684238
23-Aug-11,21.93,23.11,21.50,22.96,868968
22-Aug-11,23.11,23.80,21.68,21.95,986181
19-Aug-11,23.86,24.22,22.00,22.30,1375277
18-Aug-11,25.00,25.15,23.47,24.26,1056569
17-Aug-11,26.39,26.65,25.51,25.83,643772
16-Aug-11,26.13,26.54,25.83,26.10,537688
15-Aug-11,26.62,26.75,25.93,26.23,738572
12-Aug-11,25.60,27.14,25.36,26.31,1009020
11-Aug-11,24.04,25.75,24.00,25.30,836484
10-Aug-11,25.44,25.44,23.63,23.82,1564147
9-Aug-11,24.15,25.45,23.70,25.06,1333382
8-Aug-11,23.10,24.44,23.10,23.64,2608572
5-Aug-11,24.99,25.38,22.83,24.24,1964376
4-Aug-11,26.51,26.89,24.67,24.75,3065596
3-Aug-11,27.11,27.83,26.34,27.20,1801329
2-Aug-11,28.69,27.83,26.34,27.10,2246671
1-Aug-11,28.67,28.98,28.21,28.77,1164822
29-Jul-11,27.80,28.40,27.50,28.17,948127
28-Jul-11,27.60,28.55,27.54,28.17,938729
27-Jul-11,28.50,28.50,27.51,27.64,958403
26-Jul-11,28.31,28.77,27.97,28.00,762932
25-Jul-11,29.01,29.25,28.44,28.49,673491
22-Jul-11,28.70,29.54,28.55,29.29,583868
21-Jul-11,28.91,29.16,28.10,28.70,1012006
20-Jul-11,28.00,30.44,27.80,28.69,3048394
19-Jul-11,27.58,28.11,27.54,27.89,1026048
18-Jul-11,27.34,27.45,26.63,27.23,852317
15-Jul-11,27.79,27.83,27.40,27.58,708954
14-Jul-11,28.53,28.96,27.25,27.61,1159131
13-Jul-11,28.43,29.03,27.90,28.64,1065942
12-Jul-11,28.37,29.09,28.00,28.17,1045406
11-Jul-11,28.40,28.53,28.00,28.35,975703
8-Jul-11,29.89,29.89,28.59,28.81,1240580
7-Jul-11,29.14,30.00,29.01,29.73,1327821
6-Jul-11,29.14,29.14,28.55,28.96,926889
5-Jul-11,29.02,29.52,28.71,29.14,995989
1-Jul-11,29.07,29.60,28.80,29.02,854839
30-Jun-11,28.50,29.33,28.40,29.13,946654
29-Jun-11,28.50,29.09,28.07,28.29,1461708
28-Jun-11,27.79,28.25,27.67,28.11,889132
27-Jun-11,27.73,28.28,27.31,27.46,1809367
24-Jun-11,27.64,27.97,27.26,27.56,3608858
23-Jun-11,27.20,27.72,26.21,27.71,1169990
22-Jun-11,27.37,28.25,27.10,27.21,1475533
21-Jun-11,26.24,27.73,26.00,27.53,1496563
20-Jun-11,26.29,26.46,25.50,26.01,1537709
17-Jun-11,26.87,27.70,26.14,26.50,1713965
16-Jun-11,27.67,28.00,25.74,26.50,1842124
15-Jun-11,28.44,28.45,27.07,27.32,1346579
14-Jun-11,28.54,29.70,28.52,28.60,1573310
13-Jun-11,28.07,28.88,27.88,28.43,1713761
10-Jun-11,27.52,28.30,27.35,27.86,1566532
9-Jun-11,27.43,28.10,27.10,27.62,1604220
8-Jun-11,28.44,28.60,27.02,27.12,1696936
7-Jun-11,28.94,29.39,28.26,28.37,1222099
6-Jun-11,29.13,30.13,28.26,28.70,2331767
3-Jun-11,29.95,31.50,29.50,30.13,6210209
2-Jun-11,28.52,29.32,28.51,28.76,986294
1-Jun-11,30.00,30.10,28.38,28.52,1530396
31-May-11,29.69,30.28,29.55,30.14,3290522
27-May-11,29.54,29.67,28.82,29.55,1687069
26-May-11,28.82,29.76,28.10,29.48,3336891
25-May-11,26.90,29.01,26.17,28.98,4693811
24-May-11,27.02,27.50,26.60,26.72,613673
23-May-11,27.62,27.62,26.62,26.82,863548
20-May-11,28.26,28.28,27.35,27.97,842534
19-May-11,27.03,28.44,26.60,28.20,2655367
18-May-11,26.10,26.47,25.52,26.35,729407
17-May-11,27.00,27.00,25.72,25.96,1234156
16-May-11,27.99,27.99,26.55,26.60,755622
13-May-11,28.00,28.19,27.30,27.55,661577
12-May-11,27.07,27.74,26.65,27.67,627740
11-May-11,28.20,28.30,26.92,27.07,962965
10-May-11,28.24,28.95,27.91,28.33,1535626
9-May-11,27.00,28.00,26.85,27.91,916303
6-May-11,26.90,27.70,26.62,27.12,981606
5-May-11,27.20,27.44,26.17,26.44,1219449
4-May-11,26.78,27.00,25.75,26.69,1047169
3-May-11,27.38,27.39,26.50,26.87,913965
2-May-11,27.60,27.80,27.06,27.45,784560
29-Apr-11,27.69,27.87,27.42,27.60,726340
28-Apr-11,27.07,27.69,26.72,27.66,1644997
27-Apr-11,26.93,27.36,26.63,27.08,996901
26-Apr-11,26.66,27.25,26.31,26.93,1372343
25-Apr-11,26.70,26.73,25.97,26.39,800839
21-Apr-11,25.85,26.98,25.59,26.74,1386053
20-Apr-11,25.70,26.09,25.30,25.75,837469
19-Apr-11,25.26,25.26,24.65,25.16,548693
18-Apr-11,25.13,25.62,24.36,25.03,1033871
15-Apr-11,25.65,26.18,25.41,25.58,943451
14-Apr-11,24.87,25.28,24.20,25.14,983382
13-Apr-11,25.13,25.69,24.81,24.93,1211444
12-Apr-11,25.08,25.21,24.30,24.65,1357401
11-Apr-11,26.47,26.53,25.02,25.27,1372200
8-Apr-11,27.58,27.60,26.36,26.49,1946352
7-Apr-11,26.85,27.94,26.45,27.24,2810766
6-Apr-11,26.99,27.01,25.80,26.49,1288297
5-Apr-11,25.90,27.00,25.69,26.70,3181727
4-Apr-11,26.83,27.00,25.23,25.83,2609227
1-Apr-11,27.45,28.18,26.57,26.66,2865087
31-Mar-11,26.55,28.71,26.50,27.75,11522337
30-Mar-11,24.11,24.49,23.01,23.71,1223877
29-Mar-11,23.30,24.00,23.21,23.92,755591
28-Mar-11,22.70,23.54,22.55,23.25,1058018
25-Mar-11,22.43,23.00,22.40,22.75,567922
24-Mar-11,22.14,22.38,21.98,22.33,462160
23-Mar-11,22.11,22.27,21.77,22.21,422793
22-Mar-11,22.73,22.86,22.00,22.19,582813
21-Mar-11,23.05,23.05,22.54,22.73,411650
18-Mar-11,23.19,23.19,22.51,22.96,687823
17-Mar-11,23.24,23.43,22.64,22.81,922504
16-Mar-11,22.86,23.25,22.69,22.82,1169676
15-Mar-11,22.20,22.96,21.80,22.95,1318869
14-Mar-11,23.82,24.00,23.20,23.25,1165971
11-Mar-11,23.85,24.25,23.53,24.07,930794
10-Mar-11,24.44,24.49,23.73,24.01,1017047
9-Mar-11,24.66,24.99,24.27,24.72,924721
8-Mar-11,24.60,24.96,24.00,24.66,1399851
7-Mar-11,24.93,25.40,24.70,24.94,2033531
4-Mar-11,24.48,24.99,23.78,24.95,1580100
3-Mar-11,24.48,24.79,24.06,24.36,640140
2-Mar-11,23.82,24.28,23.72,24.02,663294
1-Mar-11,24.05,24.32,23.70,23.94,1106350
28-Feb-11,23.74,24.10,23.50,23.89,1051106
25-Feb-11,22.81,23.85,22.69,23.61,1347257
24-Feb-11,21.78,22.58,21.50,22.53,1055450
23-Feb-11,22.18,22.50,21.11,21.83,1605708
22-Feb-11,22.88,23.00,21.78,21.87,2064540
18-Feb-11,23.33,23.49,22.96,23.18,2370770
17-Feb-11,24.63,25.49,23.55,23.60,2619942
16-Feb-11,23.10,24.97,23.07,24.73,4115806
15-Feb-11,23.01,23.17,22.56,22.84,960851
14-Feb-11,23.64,24.14,23.05,23.08,1283404
11-Feb-11,23.25,23.75,22.94,23.25,636602
10-Feb-11,23.26,23.64,22.81,23.22,836020
9-Feb-11,24.13,24.18,22.79,23.21,2636262
8-Feb-11,23.78,25.25,23.00,24.49,3505183
7-Feb-11,23.26,23.26,22.88,23.07,895011
4-Feb-11,23.44,23.67,23.22,23.46,543917
3-Feb-11,23.82,23.90,23.15,23.63,512067
2-Feb-11,24.16,24.18,23.67,23.94,569472
1-Feb-11,24.31,24.73,23.54,23.91,707791
31-Jan-11,24.05,24.12,23.50,24.10,831575
28-Jan-11,24.88,24.88,23.75,24.01,1048811
27-Jan-11,24.74,25.08,24.53,24.92,895655
26-Jan-11,24.71,24.88,24.10,24.75,1079867
25-Jan-11,24.65,24.89,24.02,24.68,1271557
24-Jan-11,23.53,24.81,23.23,24.49,1645189
21-Jan-11,23.12,23.59,22.71,23.04,1216941
20-Jan-11,24.03,24.45,22.37,22.62,2279958
19-Jan-11,25.27,25.47,23.75,24.03,2371514
18-Jan-11,25.48,25.64,24.75,25.64,1623839
14-Jan-11,26.15,26.58,25.61,25.75,1192121
13-Jan-11,26.96,26.97,26.16,26.22,723522
12-Jan-11,27.01,27.40,26.52,26.96,964722
11-Jan-11,28.59,28.71,26.92,26.96,1711355
10-Jan-11,28.17,28.68,28.05,28.45,1342812
7-Jan-11,28.00,28.58,27.90,28.24,2249540
6-Jan-11,26.83,28.00,26.81,27.88,2061217
5-Jan-11,26.48,26.90,26.19,26.83,1446869
4-Jan-11,26.66,26.95,26.02,26.67,1189071
3-Jan-11,26.84,27.00,25.90,26.62,1284084
31-Dec-10,26.57,27.25,26.50,26.63,1417847
30-Dec-10,27.70,27.90,26.38,26.50,2041067
29-Dec-10,27.03,28.01,26.50,27.73,3319430
28-Dec-10,25.85,26.75,25.00,26.41,4056589
27-Dec-10,28.02,28.58,25.06,25.55,9302329
23-Dec-10,31.26,32.48,29.92,30.09,1557125
22-Dec-10,32.25,32.86,31.70,32.63,833256
21-Dec-10,31.80,32.69,31.71,32.26,777678
20-Dec-10,31.64,32.19,31.26,31.70,523320
17-Dec-10,31.34,31.54,30.71,31.36,813817
16-Dec-10,30.00,30.91,29.65,30.81,790070
15-Dec-10,28.67,29.97,28.53,29.60,742900
14-Dec-10,30.29,30.39,27.76,28.53,1766910
13-Dec-10,31.64,31.77,30.40,30.55,410331
10-Dec-10,32.05,32.92,31.13,31.52,429381
9-Dec-10,32.51,32.72,31.65,32.05,405983
8-Dec-10,32.48,32.49,31.52,32.37,660980
7-Dec-10,30.49,32.40,30.05,31.56,1311548
6-Dec-10,31.35,31.45,29.56,30.31,1274375
3-Dec-10,32.01,32.25,30.87,31.49,1160460
2-Dec-10,34.01,34.30,31.20,32.35,2006967
1-Dec-10,35.87,36.42,33.45,34.35,1299175
30-Nov-10,33.74,35.33,33.41,35.33,2222958
29-Nov-10,35.41,35.95,33.33,34.33,1145543
26-Nov-10,35.60,36.00,34.75,35.32,350554
24-Nov-10,35.27,35.97,34.33,35.47,1424959
23-Nov-10,33.29,35.68,32.19,34.57,1578070
22-Nov-10,31.57,33.45,31.50,33.40,1529972
19-Nov-10,30.16,31.37,29.70,30.99,1150494
18-Nov-10,30.67,30.74,28.92,29.89,956248
17-Nov-10,30.20,30.75,28.61,29.49,750341
16-Nov-10,31.00,31.40,28.42,29.67,1347731
15-Nov-10,30.22,32.94,30.22,30.80,2625133
12-Nov-10,28.25,30.50,28.07,29.84,2729169
11-Nov-10,28.60,29.10,27.33,28.04,1945094
10-Nov-10,24.48,29.97,24.05,29.36,3061038
9-Nov-10,25.00,25.69,24.05,24.63,957749
8-Nov-10,24.50,25.00,24.03,24.98,509475
5-Nov-10,24.87,24.97,23.72,24.44,1010946
4-Nov-10,22.60,25.33,22.15,24.90,1874801
3-Nov-10,21.28,22.50,21.16,21.77,374199
2-Nov-10,21.68,21.88,21.05,21.25,322465
1-Nov-10,21.94,22.75,21.31,21.41,455784
29-Oct-10,21.14,21.85,21.05,21.84,280682
28-Oct-10,21.39,21.50,20.96,21.19,224190
27-Oct-10,21.25,21.38,20.65,21.00,356500
26-Oct-10,20.80,21.87,20.51,21.36,660841
25-Oct-10,20.94,20.98,20.73,20.85,118614
22-Oct-10,20.68,20.93,20.55,20.72,161021
21-Oct-10,20.61,20.95,20.45,20.75,417999
20-Oct-10,20.16,20.69,20.04,20.65,312444
19-Oct-10,20.20,20.41,20.00,20.05,245127
18-Oct-10,20.52,20.64,20.22,20.23,162729
15-Oct-10,20.89,20.90,20.25,20.54,284840
14-Oct-10,21.00,21.03,20.40,20.75,294620
13-Oct-10,20.64,20.85,20.36,20.54,320541
12-Oct-10,20.20,20.28,20.03,20.24,243912
11-Oct-10,20.44,20.70,20.07,20.24,171194
8-Oct-10,20.43,20.79,20.39,20.43,268110
7-Oct-10,20.57,20.64,20.34,20.43,141020
6-Oct-10,21.06,21.26,20.32,20.46,313552
5-Oct-10,21.15,21.28,21.01,21.12,331936
4-Oct-10,20.43,21.17,20.30,20.99,643599
1-Oct-10,20.69,20.75,20.31,20.60,599071
30-Sep-10,22.00,22.15,20.19,20.40,2196625
29-Sep-10,21.19,22.03,21.13,21.98,1969457
28-Sep-10,21.04,21.49,20.76,21.40,1214465
27-Sep-10,20.40,20.81,20.05,20.53,418597
24-Sep-10,19.95,20.19,19.65,20.10,578987
23-Sep-10,19.89,20.14,19.50,19.56,668076
22-Sep-10,20.87,20.95,19.80,19.87,962816
21-Sep-10,20.89,21.55,20.67,20.77,796000
20-Sep-10,20.67,21.35,20.16,21.06,947475
17-Sep-10,21.02,21.32,19.80,20.23,1198458
16-Sep-10,22.15,23.16,20.84,20.94,2685880
15-Sep-10,20.98,22.00,20.79,21.98,684758
14-Sep-10,20.54,21.60,20.53,21.12,654629
13-Sep-10,20.89,20.90,20.50,20.72,360703
10-Sep-10,20.75,20.93,19.76,20.17,386571
9-Sep-10,21.00,21.05,20.69,20.71,376197
8-Sep-10,20.66,20.95,20.60,20.90,288382
7-Sep-10,20.61,21.00,20.50,20.54,243335
3-Sep-10,20.87,21.30,20.66,21.05,434756
2-Sep-10,20.37,21.24,20.31,21.06,487060
1-Sep-10,19.62,20.69,19.60,20.45,495685
31-Aug-10,19.66,19.79,19.33,19.48,201012
30-Aug-10,19.70,20.19,19.61,19.87,732731
27-Aug-10,19.75,19.86,19.50,19.70,379642
26-Aug-10,19.89,20.27,19.60,19.75,433736
25-Aug-10,19.16,19.98,18.56,19.90,503289
24-Aug-10,19.25,19.71,18.95,19.20,673074
23-Aug-10,19.09,20.39,19.00,20.13,1088029
20-Aug-10,18.65,19.11,18.51,19.10,297499
19-Aug-10,18.54,19.25,18.33,18.79,579082
18-Aug-10,19.59,19.59,18.60,18.77,601332
17-Aug-10,18.96,19.40,18.78,19.15,447881
16-Aug-10,18.45,18.80,18.26,18.78,486211
13-Aug-10,18.18,18.45,17.66,18.32,634513
12-Aug-10,17.80,17.90,17.39,17.60,691281
11-Aug-10,18.69,18.88,17.85,17.90,797650
10-Aug-10,19.65,19.65,18.82,19.03,1281286
9-Aug-10,19.90,19.98,19.45,19.60,812656
6-Aug-10,20.10,20.16,19.52,19.59,742138
5-Aug-10,21.54,21.55,20.05,20.45,796380
4-Aug-10,21.95,22.18,20.85,21.26,920756
3-Aug-10,21.00,21.95,20.82,21.95,1231023
2-Aug-10,20.50,20.97,20.33,20.92,719145
30-Jul-10,20.20,20.44,19.55,19.94,426830
29-Jul-10,20.77,20.88,20.00,20.35,615910
28-Jul-10,20.55,20.90,20.51,20.72,467183
27-Jul-10,20.91,21.18,20.26,20.55,619675
26-Jul-10,21.50,21.50,20.30,20.95,922453
23-Jul-10,21.19,21.56,21.06,21.29,654049
22-Jul-10,20.50,21.25,20.37,21.00,962345
21-Jul-10,20.66,20.90,19.50,20.22,1253442
20-Jul-10,21.85,21.85,20.05,20.30,1825231
19-Jul-10,21.37,22.25,20.92,21.91,2486489
16-Jul-10,20.70,21.30,20.05,20.64,2621210
15-Jul-10,19.94,21.50,19.00,19.89,3745297
14-Jul-10,17.94,20.15,17.76,19.84,4196110
13-Jul-10,17.39,18.64,16.90,18.14,2680060
12-Jul-10,17.95,18.07,17.00,17.05,2203570
9-Jul-10,17.58,17.90,16.55,17.40,4058606
8-Jul-10,16.14,17.52,15.57,17.46,7719539
7-Jul-10,16.40,16.63,14.98,15.80,6924914
6-Jul-10,20.00,20.00,15.83,16.11,6879296
2-Jul-10,23.00,23.10,18.71,19.20,5141807
1-Jul-10,25.00,25.92,20.27,21.96,8229863
30-Jun-10,25.79,30.42,23.30,23.83,17194394
29-Jun-10,19.00,25.00,17.54,23.89,18783276
