﻿Date,Open,High,Low,Close,Volume
20-Jun-17,17.15,17.15,16.84,16.91,8524617
19-Jun-17,16.77,17.08,16.75,17.06,11318878
16-Jun-17,16.75,16.81,16.55,16.67,9939429
15-Jun-17,16.53,16.89,16.46,16.83,11890455
14-Jun-17,17.05,17.13,16.57,16.76,12660518
13-Jun-17,17.12,17.22,16.76,16.97,13224916
12-Jun-17,16.73,17.19,16.27,17.04,20518301
9-Jun-17,17.65,17.66,16.45,16.90,21306172
8-Jun-17,17.44,17.61,17.27,17.59,10550528
7-Jun-17,17.62,17.74,17.30,17.44,15866228
6-Jun-17,18.10,18.15,17.47,17.57,22811819
5-Jun-17,18.29,18.34,18.02,18.23,10576479
2-Jun-17,18.53,18.58,18.22,18.31,9383147
1-Jun-17,18.22,18.66,18.20,18.53,13178576
31-May-17,18.48,18.60,18.08,18.32,17417178
30-May-17,18.21,18.72,18.18,18.43,18190729
26-May-17,17.99,18.30,17.95,18.23,10459358
25-May-17,18.04,18.27,17.94,17.95,9577563
24-May-17,18.10,18.34,17.83,17.98,15565326
23-May-17,18.41,18.51,17.98,18.15,16838535
22-May-17,18.35,18.52,18.27,18.43,11378262
19-May-17,18.68,18.90,18.27,18.35,16157833
18-May-17,18.17,18.61,17.97,18.51,19888987
17-May-17,18.99,19.25,18.22,18.28,30110458
16-May-17,19.38,19.78,19.09,19.49,35728080
15-May-17,18.69,19.32,18.63,19.23,22617484
12-May-17,18.45,19.05,18.34,18.61,22043972
11-May-17,18.63,18.74,18.31,18.39,12475401
10-May-17,18.37,18.56,18.25,18.54,9993885
9-May-17,18.31,18.49,18.20,18.37,12509720
8-May-17,18.68,18.68,18.16,18.31,18963259
5-May-17,18.45,18.72,18.37,18.69,15064320
4-May-17,18.60,18.89,18.36,18.48,24615089
3-May-17,18.37,18.60,18.15,18.57,29810339
2-May-17,17.57,18.53,17.35,18.24,64567849
1-May-17,17.14,17.65,16.97,17.54,47458301
28-Apr-17,16.50,16.79,16.43,16.48,26563886
27-Apr-17,15.80,16.63,15.80,16.61,41158088
26-Apr-17,15.90,16.48,15.76,15.82,79309104
25-Apr-17,14.71,14.96,14.63,14.66,20508038
24-Apr-17,14.70,14.82,14.56,14.71,12779234
21-Apr-17,14.65,14.75,14.41,14.63,13788561
20-Apr-17,14.58,14.75,14.51,14.65,9557311
19-Apr-17,14.44,14.79,14.44,14.54,14268086
18-Apr-17,14.37,14.56,14.27,14.44,9701933
17-Apr-17,14.30,14.55,14.12,14.40,10402739
13-Apr-17,14.49,14.50,14.22,14.30,10554106
12-Apr-17,14.34,14.78,14.26,14.42,12916443
11-Apr-17,14.30,14.40,14.20,14.31,7608797
10-Apr-17,14.30,14.46,14.20,14.36,10005913
7-Apr-17,14.36,14.43,14.25,14.29,8267410
6-Apr-17,14.53,14.62,14.30,14.39,18106706
5-Apr-17,14.61,14.82,14.41,14.53,13823697
4-Apr-17,14.75,14.76,14.58,14.69,8936123
3-Apr-17,14.97,14.98,14.65,14.84,11604887
31-Mar-17,14.93,15.06,14.91,14.95,8402610
30-Mar-17,15.05,15.08,14.90,14.92,8446411
29-Mar-17,14.86,15.06,14.70,15.04,11080006
28-Mar-17,15.00,15.17,14.80,14.94,14839686
27-Mar-17,15.02,15.06,14.75,14.99,10461305
24-Mar-17,15.06,15.37,15.03,15.14,15549218
23-Mar-17,14.99,15.05,14.73,14.93,11631874
22-Mar-17,14.50,14.99,14.32,14.98,21050310
21-Mar-17,15.08,15.10,14.50,14.54,19099006
20-Mar-17,15.11,15.11,14.82,15.09,12501894
17-Mar-17,15.20,15.23,15.03,15.08,10989782
16-Mar-17,15.08,15.28,15.04,15.19,11665929
15-Mar-17,15.25,15.30,14.85,15.03,19381783
14-Mar-17,15.20,15.58,15.15,15.32,15046532
13-Mar-17,15.10,15.27,15.10,15.21,8727459
10-Mar-17,15.23,15.27,14.94,15.12,13702981
9-Mar-17,15.24,15.38,15.03,15.22,10963474
8-Mar-17,15.19,15.36,15.08,15.24,12657128
7-Mar-17,15.52,15.73,15.16,15.18,16718623
6-Mar-17,15.75,15.78,15.50,15.56,11463950
3-Mar-17,15.84,16.10,15.68,15.75,15194477
2-Mar-17,15.77,16.00,15.72,15.79,12401132
1-Mar-17,15.87,15.90,15.58,15.79,18165341
28-Feb-17,16.00,16.04,15.74,15.77,10874175
27-Feb-17,15.93,16.13,15.72,16.06,13645548
24-Feb-17,15.95,15.98,15.85,15.98,9139840
23-Feb-17,16.12,16.27,15.90,16.03,15304539
22-Feb-17,16.40,16.51,16.01,16.08,13606184
21-Feb-17,16.64,16.69,16.30,16.42,16026753
17-Feb-17,16.36,16.62,16.36,16.62,14378181
16-Feb-17,16.69,16.79,16.32,16.35,21636195
15-Feb-17,16.85,16.89,16.30,16.74,35204804
14-Feb-17,15.92,16.60,15.85,16.52,35090746
13-Feb-17,15.63,15.99,15.51,15.81,29143701
10-Feb-17,15.96,16.00,15.50,15.58,73061193
9-Feb-17,17.05,17.12,16.26,16.41,109299298
8-Feb-17,18.77,18.77,18.04,18.72,37419148
7-Feb-17,18.00,18.67,17.99,18.26,26834754
6-Feb-17,17.70,17.97,17.41,17.93,13226687
3-Feb-17,17.72,17.85,17.44,17.61,14431299
2-Feb-17,17.33,17.86,17.12,17.78,19415648
1-Feb-17,17.84,17.92,17.10,17.24,21208131
31-Jan-17,16.95,17.74,16.91,17.62,25869200
30-Jan-17,16.57,17.10,16.41,16.94,18287898
27-Jan-17,16.91,16.97,16.53,16.57,11860596
26-Jan-17,16.86,17.07,16.79,16.81,10092909
25-Jan-17,16.70,16.79,16.59,16.73,10969267
24-Jan-17,16.61,16.66,16.33,16.52,12737164
23-Jan-17,16.57,16.81,16.46,16.61,11791454
20-Jan-17,16.82,16.90,16.46,16.58,14844724
19-Jan-17,17.09,17.15,16.75,16.79,12735487
18-Jan-17,17.01,17.14,16.83,17.11,12715349
17-Jan-17,17.07,17.09,16.86,16.96,13151088
13-Jan-17,17.38,17.66,17.23,17.25,11401444
12-Jan-17,17.13,17.39,16.96,17.38,12375630
11-Jan-17,17.46,17.60,17.17,17.30,10981465
10-Jan-17,17.51,17.78,17.32,17.37,10472834
9-Jan-17,17.22,17.56,17.19,17.50,11918061
6-Jan-17,17.24,17.43,17.11,17.17,14665118
5-Jan-17,16.91,17.27,16.80,17.09,17074353
4-Jan-17,16.50,16.94,16.50,16.86,15861285
3-Jan-17,16.31,16.45,16.21,16.44,11147866
30-Dec-16,16.31,16.57,16.22,16.30,14014531
29-Dec-16,16.39,16.65,16.30,16.39,14697888
28-Dec-16,16.63,16.73,16.29,16.39,13509202
27-Dec-16,16.52,16.87,16.42,16.61,13040453
23-Dec-16,16.34,16.67,16.16,16.50,18049997
22-Dec-16,16.82,16.89,16.27,16.41,27951823
21-Dec-16,17.52,17.55,17.01,17.08,34613928
20-Dec-16,18.23,18.32,17.87,17.92,16801686
19-Dec-16,18.60,18.70,18.22,18.24,12251137
16-Dec-16,18.76,18.89,18.53,18.63,14241736
15-Dec-16,18.94,19.15,18.71,18.79,11957850
14-Dec-16,19.40,19.62,18.89,18.93,13468878
13-Dec-16,18.97,19.59,18.94,19.37,15132159
12-Dec-16,19.48,19.70,18.90,18.93,15612368
9-Dec-16,19.56,19.84,19.38,19.65,15956083
8-Dec-16,19.50,19.71,19.08,19.64,19698311
7-Dec-16,18.26,19.55,18.20,19.48,32188576
6-Dec-16,18.31,18.50,18.13,18.23,14032971
5-Dec-16,17.96,18.36,17.87,18.23,12121693
2-Dec-16,18.00,18.16,17.86,17.93,12208682
1-Dec-16,18.82,18.83,17.74,18.03,19612967
30-Nov-16,18.20,18.80,18.18,18.49,20605390
29-Nov-16,18.22,18.68,18.13,18.19,13549072
28-Nov-16,18.00,18.30,17.85,18.30,19281803
25-Nov-16,18.27,18.31,18.03,18.06,7862681
23-Nov-16,18.45,18.59,18.08,18.22,16979819
22-Nov-16,18.66,18.87,18.51,18.63,10693395
21-Nov-16,18.72,18.91,18.59,18.60,13095559
18-Nov-16,18.73,18.91,18.64,18.73,12503189
17-Nov-16,18.70,18.96,18.53,18.55,16224315
16-Nov-16,18.98,19.15,18.59,18.63,14993344
15-Nov-16,19.15,19.51,18.91,18.98,19557951
14-Nov-16,18.75,19.20,18.50,19.14,23121279
11-Nov-16,18.35,18.73,18.07,18.55,15363776
10-Nov-16,19.04,19.30,18.03,18.37,31099082
9-Nov-16,17.96,19.24,17.91,19.13,34170184
8-Nov-16,18.22,18.56,17.77,18.38,19987464
7-Nov-16,18.11,18.69,18.11,18.41,26006168
4-Nov-16,17.52,18.34,17.50,18.02,30988697
3-Nov-16,17.55,17.86,17.26,17.58,17084589
2-Nov-16,17.43,17.95,17.38,17.61,20963582
1-Nov-16,17.84,18.00,17.26,17.49,22624832
31-Oct-16,17.65,18.04,17.64,17.95,19530470
28-Oct-16,17.70,18.00,17.50,17.66,29383320
27-Oct-16,18.00,18.12,17.07,17.40,63791893
26-Oct-16,17.58,17.66,17.17,17.29,35259271
25-Oct-16,17.82,17.84,17.15,17.26,32456237
24-Oct-16,17.60,18.37,17.49,18.03,41781102
21-Oct-16,16.95,18.35,16.74,18.09,58503852
20-Oct-16,17.04,17.07,16.82,16.90,15124038
19-Oct-16,16.94,17.26,16.88,17.07,17392381
18-Oct-16,16.86,17.13,16.79,16.83,18479753
17-Oct-16,16.76,16.98,16.43,16.73,25800559
14-Oct-16,17.88,18.05,16.28,16.88,73675252
13-Oct-16,17.86,17.99,17.67,17.79,18688297
12-Oct-16,18.19,18.19,17.81,18.05,23535123
11-Oct-16,18.18,18.20,17.65,18.00,49156851
10-Oct-16,17.49,18.24,16.93,17.56,105887343
7-Oct-16,19.95,20.53,19.64,19.85,38675653
6-Oct-16,20.46,21.00,19.60,19.87,109388242
5-Oct-16,24.32,25.25,24.13,24.87,63716832
4-Oct-16,23.75,23.79,23.34,23.52,22230724
3-Oct-16,23.78,24.25,23.46,24.00,37555727
30-Sep-16,23.02,23.25,22.82,23.05,17425201
29-Sep-16,22.92,23.36,22.86,23.01,26459769
28-Sep-16,23.42,23.63,22.44,22.96,44513688
27-Sep-16,23.21,23.98,22.90,23.72,65489542
26-Sep-16,21.79,23.57,21.65,23.37,95403450
23-Sep-16,21.50,22.89,21.11,22.62,192415337
22-Sep-16,18.52,18.92,18.44,18.63,16321143
21-Sep-16,18.44,18.50,18.13,18.49,16211539
20-Sep-16,18.30,18.64,18.23,18.39,15910296
19-Sep-16,19.22,19.24,18.28,18.36,23409732
16-Sep-16,18.90,19.25,18.74,19.11,40346697
15-Sep-16,18.30,18.42,18.06,18.30,14542023
14-Sep-16,17.93,18.39,17.90,18.08,16142107
13-Sep-16,17.99,18.10,17.52,17.76,15890043
12-Sep-16,17.96,18.24,17.68,18.15,18286500
9-Sep-16,18.40,18.82,17.92,18.11,30859215
8-Sep-16,18.81,19.31,18.59,18.70,45229547
7-Sep-16,20.05,20.65,19.80,19.87,26593146
6-Sep-16,19.74,20.14,19.48,19.93,24174808
2-Sep-16,19.62,19.87,19.35,19.55,19891612
1-Sep-16,19.37,20.14,19.27,19.50,39755902
31-Aug-16,18.39,19.60,18.38,19.21,34222625
30-Aug-16,18.59,18.69,18.32,18.38,8908431
29-Aug-16,18.39,18.55,18.30,18.47,11417408
26-Aug-16,18.40,18.53,18.10,18.30,11225899
25-Aug-16,18.33,18.65,18.23,18.32,13276453
24-Aug-16,18.80,18.97,18.20,18.25,16788827
23-Aug-16,18.65,18.93,18.65,18.69,14089337
22-Aug-16,18.95,18.96,18.52,18.55,17497567
19-Aug-16,18.96,19.31,18.76,18.98,17026064
18-Aug-16,19.56,19.60,18.92,19.00,47582533
17-Aug-16,20.43,20.44,19.90,20.17,22762792
16-Aug-16,20.78,20.79,20.29,20.40,23527718
15-Aug-16,19.85,21.10,19.83,20.86,58856771
12-Aug-16,19.71,19.71,19.01,19.54,28403177
11-Aug-16,19.17,19.83,19.11,19.78,30959549
10-Aug-16,18.67,19.57,18.56,19.04,28645020
9-Aug-16,18.17,18.79,17.97,18.68,19311410
8-Aug-16,18.25,18.48,17.94,18.20,15502751
5-Aug-16,18.19,18.58,18.14,18.26,22811743
4-Aug-16,17.57,18.31,17.36,18.13,33119092
3-Aug-16,16.34,17.88,16.33,17.61,55611351
2-Aug-16,16.61,16.70,16.20,16.42,16611322
1-Aug-16,16.65,16.85,16.40,16.64,26053169
29-Jul-16,16.39,16.74,16.24,16.64,26057239
28-Jul-16,15.89,16.34,15.88,16.31,31442403
27-Jul-16,16.34,16.59,15.69,15.77,83161918
26-Jul-16,18.52,18.65,18.16,18.45,44132848
25-Jul-16,18.43,18.70,18.17,18.65,21485283
22-Jul-16,18.12,18.39,17.76,18.37,19639487
21-Jul-16,18.57,18.80,18.35,18.39,13961365
20-Jul-16,18.52,18.76,18.45,18.56,15029172
19-Jul-16,18.51,18.90,18.27,18.33,27283395
18-Jul-16,18.29,18.75,18.05,18.65,29731219
15-Jul-16,17.98,18.18,17.81,18.08,17371221
14-Jul-16,18.02,18.28,17.91,17.96,19585345
13-Jul-16,18.21,18.32,17.50,17.74,17931884
12-Jul-16,17.98,18.38,17.92,18.10,23816224
11-Jul-16,17.59,17.88,17.52,17.71,24041870
8-Jul-16,17.53,18.16,17.47,18.08,24883974
7-Jul-16,17.24,17.68,17.24,17.37,13492885
6-Jul-16,17.02,17.34,16.81,17.20,15665672
5-Jul-16,17.25,17.28,16.76,17.14,15718026
1-Jul-16,16.93,17.50,16.90,17.28,20744514
30-Jun-16,16.80,17.00,16.73,16.91,14111037
29-Jun-16,16.60,17.01,16.43,16.83,18235982
28-Jun-16,16.24,16.64,16.16,16.42,18717348
27-Jun-16,16.29,16.40,15.46,15.84,23546607
24-Jun-16,16.24,16.90,16.20,16.44,31560052
23-Jun-16,16.30,17.07,16.28,17.04,25373143
22-Jun-16,16.27,16.32,16.04,16.13,13791513
21-Jun-16,16.48,16.56,16.17,16.32,15086452
20-Jun-16,16.34,16.64,16.15,16.34,22876114
17-Jun-16,16.16,16.37,15.96,16.10,32254067
16-Jun-16,15.90,15.95,15.40,15.87,23618674
15-Jun-16,15.71,16.44,15.71,15.96,53535208
14-Jun-16,14.82,15.42,14.80,15.36,37395716
13-Jun-16,14.63,15.30,14.50,14.55,43160866
10-Jun-16,14.45,14.45,14.00,14.02,22092785
9-Jun-16,14.84,14.86,14.59,14.60,12398073
8-Jun-16,15.07,15.12,14.81,14.95,12991012
7-Jun-16,15.36,15.37,14.91,15.00,16517978
6-Jun-16,15.22,15.45,15.18,15.27,13768456
3-Jun-16,15.11,15.35,14.96,15.20,15496556
2-Jun-16,15.04,15.26,14.85,15.20,13186085
1-Jun-16,15.10,15.17,14.62,15.02,18249913
31-May-16,15.12,15.49,15.08,15.22,24296612
27-May-16,14.25,15.10,14.23,15.10,28322390
26-May-16,14.45,14.48,14.19,14.30,21053494
25-May-16,14.07,14.57,14.06,14.41,23119328
24-May-16,14.22,14.22,13.72,14.03,36181060
23-May-16,14.40,14.60,14.33,14.41,12892047
20-May-16,14.20,14.51,14.16,14.43,18481100
19-May-16,14.15,14.30,14.04,14.15,15873752
18-May-16,14.35,14.57,14.05,14.14,14229427
17-May-16,14.21,14.59,14.13,14.34,15556456
16-May-16,14.09,14.37,14.06,14.29,11554681
13-May-16,14.06,14.28,14.00,14.10,12691797
12-May-16,14.63,14.68,14.00,14.08,19811562
11-May-16,14.61,14.86,14.44,14.59,13755455
10-May-16,14.17,14.69,14.16,14.63,14529305
9-May-16,14.28,14.47,14.15,14.20,11436415
6-May-16,14.12,14.40,13.98,14.40,21079842
5-May-16,14.93,14.98,14.08,14.12,29003490
4-May-16,13.95,14.88,13.92,14.84,41618544
3-May-16,14.22,14.25,13.90,14.01,25983649
2-May-16,14.73,14.77,14.17,14.40,26088830
29-Apr-16,14.70,14.93,14.32,14.62,26834661
28-Apr-16,14.85,15.09,14.62,14.64,34645850
27-Apr-16,15.15,15.28,14.81,14.86,84528793
26-Apr-16,17.21,17.98,17.08,17.75,39274283
25-Apr-16,17.20,17.75,16.88,17.09,18933620
22-Apr-16,17.33,17.51,17.02,17.23,14837328
21-Apr-16,17.48,17.77,17.42,17.51,13549015
20-Apr-16,16.94,17.52,16.90,17.40,17721233
19-Apr-16,17.37,17.39,16.68,16.92,24759684
18-Apr-16,17.71,17.72,17.06,17.31,17259128
15-Apr-16,17.52,17.91,17.31,17.58,16332627
14-Apr-16,17.38,17.70,17.14,17.53,16196878
13-Apr-16,16.68,17.40,16.68,17.37,22619818
12-Apr-16,16.50,16.77,16.15,16.57,14872623
11-Apr-16,16.74,16.98,16.41,16.51,14154643
8-Apr-16,17.12,17.25,16.41,16.65,18639903
7-Apr-16,16.88,17.59,16.85,16.98,23287332
6-Apr-16,17.12,17.48,16.90,17.26,23102552
5-Apr-16,17.59,17.83,16.89,17.05,41521334
4-Apr-16,16.00,17.54,15.96,17.09,38127998
1-Apr-16,16.41,16.43,15.83,15.98,20954935
31-Mar-16,16.40,16.84,16.21,16.55,18860415
30-Mar-16,16.16,16.72,16.01,16.36,19317323
29-Mar-16,15.69,15.99,15.33,15.97,16948067
28-Mar-16,15.98,16.00,15.40,15.60,14081303
24-Mar-16,15.94,15.99,15.56,15.91,14825066
23-Mar-16,16.86,16.91,16.01,16.01,17919499
22-Mar-16,16.75,17.01,16.70,16.86,9541746
21-Mar-16,16.83,17.05,16.68,16.89,12547433
18-Mar-16,17.08,17.38,16.76,16.85,21092422
17-Mar-16,16.65,17.15,16.62,16.85,17033660
16-Mar-16,16.33,16.77,16.13,16.70,24705433
15-Mar-16,17.00,17.04,16.14,16.19,19717491
14-Mar-16,16.81,17.32,16.79,17.12,16507358
11-Mar-16,16.77,16.94,16.46,16.81,21475363
10-Mar-16,17.69,17.77,16.38,16.61,33137588
9-Mar-16,18.61,18.74,17.52,17.66,21509309
8-Mar-16,19.10,19.15,18.33,18.33,16351201
7-Mar-16,19.11,19.73,18.77,19.17,19718790
4-Mar-16,19.45,20.32,19.06,19.36,30052498
3-Mar-16,18.53,19.44,18.48,19.31,23216471
2-Mar-16,17.85,18.74,17.72,18.54,17177413
1-Mar-16,18.47,18.48,17.59,17.85,19300408
29-Feb-16,17.96,18.57,17.78,18.12,17363991
26-Feb-16,17.72,18.03,17.50,17.94,16318614
25-Feb-16,17.93,17.95,17.31,17.59,22336855
24-Feb-16,18.00,18.09,17.11,18.00,26655122
23-Feb-16,18.56,18.96,18.10,18.30,25709890
22-Feb-16,18.62,18.68,17.76,18.30,24937307
19-Feb-16,18.16,18.88,17.77,18.31,23935666
18-Feb-16,18.10,18.55,17.52,18.43,34456628
17-Feb-16,16.47,17.60,16.43,17.46,25578556
16-Feb-16,16.09,16.40,15.67,16.36,17220953
12-Feb-16,14.54,15.94,14.53,15.88,35574264
11-Feb-16,14.07,14.79,13.91,14.31,38416732
10-Feb-16,14.55,15.28,14.52,14.98,33934131
9-Feb-16,14.62,15.54,14.31,14.40,26419689
8-Feb-16,15.51,15.55,14.73,14.90,24890059
5-Feb-16,16.61,16.64,15.62,15.72,24005787
4-Feb-16,16.40,17.18,16.29,16.91,18179660
3-Feb-16,16.33,16.74,15.55,16.56,24246385
2-Feb-16,17.22,17.27,16.01,16.08,31727127
1-Feb-16,17.89,18.77,17.30,17.91,49875496
29-Jan-16,16.64,17.07,16.51,16.80,16824172
28-Jan-16,17.21,17.34,16.45,16.49,16785267
27-Jan-16,17.01,17.62,16.77,16.78,16644336
26-Jan-16,17.22,17.28,16.40,17.01,22055783
25-Jan-16,16.80,17.45,16.51,17.02,33587750
22-Jan-16,18.29,18.56,17.73,17.84,15548544
21-Jan-16,17.44,18.32,16.80,17.83,26310354
20-Jan-16,16.16,19.04,15.48,17.38,69017691
19-Jan-16,18.18,18.18,16.43,16.69,24016992
15-Jan-16,18.23,18.53,17.61,17.94,24238369
14-Jan-16,18.55,19.16,17.27,19.00,37050143
13-Jan-16,19.70,19.76,18.47,18.68,35745880
12-Jan-16,19.87,20.41,19.32,19.62,14601306
11-Jan-16,20.12,20.20,19.26,19.65,21342126
8-Jan-16,20.51,20.72,19.60,19.98,21832259
7-Jan-16,21.00,21.48,20.20,20.26,20759757
6-Jan-16,21.62,22.18,21.18,21.39,14033627
5-Jan-16,22.79,23.00,21.85,21.92,17077655
4-Jan-16,22.64,22.84,22.11,22.56,15272743
31-Dec-15,22.17,23.28,22.15,23.14,19479440
30-Dec-15,22.45,22.94,22.21,22.23,15323698
29-Dec-15,22.63,22.82,22.31,22.47,11211058
28-Dec-15,22.90,23.32,22.50,22.53,13746540
24-Dec-15,22.70,23.06,22.55,22.97,7910740
23-Dec-15,22.68,22.95,22.37,22.67,13167600
22-Dec-15,22.26,22.67,22.09,22.56,13696232
21-Dec-15,23.02,23.04,21.99,22.14,22910612
18-Dec-15,23.35,23.44,22.66,22.99,23066199
17-Dec-15,24.47,24.75,23.29,23.31,17879207
16-Dec-15,23.96,24.48,23.80,24.30,24063311
15-Dec-15,24.52,24.69,23.70,23.95,23106575
14-Dec-15,24.68,24.94,23.70,24.92,18056237
11-Dec-15,25.91,26.20,24.80,24.84,23061261
10-Dec-15,24.36,26.25,24.34,25.91,28323889
9-Dec-15,24.98,24.98,24.19,24.31,14683738
8-Dec-15,24.04,25.10,23.54,24.99,23621785
7-Dec-15,24.99,25.16,24.13,24.46,16872129
4-Dec-15,25.81,25.85,25.01,25.02,16828165
3-Dec-15,25.48,26.06,24.91,25.90,23850709
2-Dec-15,25.31,25.72,25.17,25.40,11654936
1-Dec-15,25.39,25.58,25.00,25.53,14764130
30-Nov-15,25.78,25.82,25.06,25.40,17246252
27-Nov-15,25.98,26.07,25.67,25.75,4179367
25-Nov-15,25.62,26.41,25.59,26.06,13067044
24-Nov-15,25.17,25.55,25.02,25.52,10356351
23-Nov-15,26.11,26.27,25.02,25.20,18045709
20-Nov-15,26.32,26.70,26.03,26.27,10782883
19-Nov-15,25.94,26.58,25.93,26.32,14166823
18-Nov-15,25.17,26.09,25.16,25.90,13870934
17-Nov-15,25.54,25.69,24.90,25.23,13217032
16-Nov-15,25.33,25.78,25.00,25.41,12212153
13-Nov-15,25.89,26.16,25.16,25.18,14129761
12-Nov-15,26.08,26.61,25.85,26.13,12487188
11-Nov-15,27.08,27.14,26.37,26.50,12689955
10-Nov-15,26.81,27.17,26.25,27.05,16506775
9-Nov-15,28.07,28.21,26.68,27.09,25481511
6-Nov-15,28.58,28.70,28.05,28.28,13511474
5-Nov-15,29.47,29.55,28.45,28.66,15438828
4-Nov-15,29.36,30.15,29.23,29.36,18700364
3-Nov-15,29.09,29.63,29.04,29.13,16659884
2-Nov-15,28.54,29.29,28.05,29.20,18436663
30-Oct-15,29.13,29.57,28.35,28.46,21809385
29-Oct-15,30.58,30.70,28.93,29.06,33024457
28-Oct-15,28.13,31.34,27.76,30.87,88839840
27-Oct-15,31.02,31.87,30.65,31.34,37100857
26-Oct-15,30.63,31.22,30.48,30.89,16699236
23-Oct-15,29.97,30.72,29.61,30.28,19684212
22-Oct-15,29.24,29.80,28.74,29.15,17325447
21-Oct-15,29.50,29.66,28.65,29.30,30361504
20-Oct-15,30.94,31.39,30.41,30.91,15774630
19-Oct-15,31.15,31.60,30.57,30.91,23815515
16-Oct-15,30.08,31.40,29.36,31.15,44176849
15-Oct-15,29.46,30.28,29.01,29.71,15790417
14-Oct-15,29.46,29.82,28.38,29.38,27460063
13-Oct-15,29.55,30.68,28.84,29.06,45668157
12-Oct-15,30.30,30.77,28.60,28.75,30410162
9-Oct-15,30.90,31.41,30.28,30.85,26646459
8-Oct-15,29.57,31.50,29.03,30.32,36336731
7-Oct-15,28.35,29.95,28.01,29.83,34485074
6-Oct-15,28.16,28.40,26.75,27.62,31216096
5-Oct-15,26.99,28.25,26.33,28.15,30801175
2-Oct-15,24.50,26.48,24.34,26.31,23394736
1-Oct-15,26.47,26.84,24.65,24.68,30651736
30-Sep-15,25.94,27.33,25.88,26.94,25253305
29-Sep-15,25.23,25.76,24.92,25.59,13380915
28-Sep-15,24.96,25.61,24.60,25.26,17406307
25-Sep-15,26.84,26.91,25.14,25.29,14425518
24-Sep-15,26.51,26.64,25.40,26.60,21270013
23-Sep-15,26.97,27.28,26.58,26.79,10807286
22-Sep-15,27.05,27.48,26.62,26.83,13391312
21-Sep-15,27.98,28.09,27.19,27.38,10439089
18-Sep-15,27.04,28.25,26.99,27.96,17448234
17-Sep-15,27.54,27.93,27.03,27.41,12764449
16-Sep-15,27.14,28.00,27.00,27.75,13237233
15-Sep-15,27.04,27.55,27.00,27.17,10103197
14-Sep-15,27.21,27.55,26.80,26.90,11481480
11-Sep-15,27.63,27.65,27.17,27.39,8738561
10-Sep-15,27.07,27.83,26.95,27.71,11195157
9-Sep-15,27.17,27.85,26.42,27.18,19318330
8-Sep-15,28.15,28.20,27.01,27.18,19094807
4-Sep-15,27.95,28.55,27.80,28.15,13477155
3-Sep-15,28.03,29.00,27.81,28.30,21217229
2-Sep-15,27.47,27.82,26.87,27.82,14300716
1-Sep-15,27.23,28.12,26.77,27.03,20981383
31-Aug-15,27.64,28.49,27.35,27.79,30568615
28-Aug-15,26.19,26.93,26.06,26.83,12314248
27-Aug-15,25.44,26.80,25.24,26.46,22346998
26-Aug-15,24.80,25.29,23.83,25.03,20434430
25-Aug-15,26.29,26.33,24.38,24.38,19680627
24-Aug-15,23.61,26.23,21.01,25.17,30024259
21-Aug-15,25.65,26.74,25.51,25.87,23563519
20-Aug-15,27.15,27.48,25.92,26.00,25065228
19-Aug-15,28.06,28.09,27.16,27.61,19964006
18-Aug-15,28.91,29.00,28.30,28.30,9662803
17-Aug-15,29.19,29.34,28.93,29.06,9557303
14-Aug-15,28.50,29.27,28.45,29.06,16716347
13-Aug-15,29.60,29.60,28.44,28.54,15003972
12-Aug-15,29.11,29.50,28.51,29.39,18582876
11-Aug-15,29.01,29.89,28.53,29.62,27827588
10-Aug-15,28.09,29.63,27.82,29.50,42547095
7-Aug-15,27.80,27.90,26.87,27.04,18392551
6-Aug-15,28.40,28.43,27.23,27.54,27612162
5-Aug-15,29.41,29.50,28.43,28.48,21223283
4-Aug-15,29.11,29.90,28.90,29.34,21900293
3-Aug-15,30.85,31.09,28.69,29.27,46637134
31-Jul-15,31.38,31.62,30.85,31.01,18150252
30-Jul-15,31.10,31.83,31.05,31.47,29438817
29-Jul-15,32.59,33.24,31.06,31.24,92939850
28-Jul-15,34.70,36.67,34.14,36.54,57688647
27-Jul-15,35.11,35.15,33.88,34.70,24629131
24-Jul-15,36.41,36.41,35.30,35.42,13000824
23-Jul-15,36.00,36.73,35.94,36.19,10407769
22-Jul-15,36.23,36.37,35.51,36.09,11772251
21-Jul-15,35.82,36.75,35.71,36.63,12536207
20-Jul-15,35.75,35.99,35.20,35.81,9889748
17-Jul-15,36.46,36.66,35.60,35.67,12838454
16-Jul-15,35.89,36.45,35.75,36.10,11367681
15-Jul-15,36.66,37.09,35.55,35.66,18296837
14-Jul-15,35.78,38.82,35.77,36.72,50102513
13-Jul-15,34.99,36.14,34.75,35.78,17118202
10-Jul-15,34.68,35.12,34.46,34.91,10639720
9-Jul-15,35.17,35.43,34.31,34.36,14099347
8-Jul-15,35.41,36.05,34.67,34.76,15522331
7-Jul-15,35.35,35.72,34.55,35.52,14203167
6-Jul-15,35.17,35.69,35.00,35.43,11325391
2-Jul-15,35.40,35.97,35.10,35.72,17663959
1-Jul-15,36.05,36.11,35.24,35.40,23674620
30-Jun-15,34.50,36.42,34.44,36.22,26095592
29-Jun-15,34.47,35.09,34.15,34.21,25220715
26-Jun-15,34.97,35.33,34.67,35.26,17387971
25-Jun-15,35.36,35.36,34.96,35.17,10756756
24-Jun-15,35.40,35.75,35.10,35.17,13020956
23-Jun-15,35.78,36.20,34.96,35.37,25891418
22-Jun-15,35.95,36.00,35.34,35.55,21456373
19-Jun-15,34.97,36.28,34.85,35.86,33674913
18-Jun-15,34.63,35.04,34.45,34.66,19447110
17-Jun-15,34.99,35.12,34.17,34.69,27278532
16-Jun-15,34.23,35.20,33.51,34.82,49856071
15-Jun-15,35.24,35.26,34.31,34.67,32932110
12-Jun-15,36.90,37.25,35.55,35.90,60914449
11-Jun-15,35.92,36.17,35.79,35.84,20546962
10-Jun-15,36.01,36.17,35.60,35.85,12634817
9-Jun-15,36.50,36.50,35.56,35.88,14034468
8-Jun-15,36.91,36.98,36.41,36.46,11767083
5-Jun-15,36.79,37.23,36.65,37.00,11854282
4-Jun-15,37.17,37.79,36.51,36.71,23762920
3-Jun-15,36.51,37.17,36.48,37.00,14023524
2-Jun-15,36.45,36.60,36.16,36.40,13128349
1-Jun-15,36.69,36.83,36.43,36.63,10008279
29-May-15,37.05,37.07,36.53,36.67,16849058
28-May-15,36.49,37.33,36.37,36.83,17912105
27-May-15,36.50,36.65,36.10,36.41,14463568
26-May-15,36.67,36.83,36.37,36.51,13068502
22-May-15,36.70,36.98,36.57,36.60,9861815
21-May-15,36.81,36.94,36.39,36.68,17447682
20-May-15,37.49,37.94,36.54,36.78,23404469
19-May-15,37.14,37.88,36.90,37.50,26941996
18-May-15,37.10,37.57,36.90,37.28,11237346
15-May-15,37.36,37.80,37.00,37.10,16799060
14-May-15,37.93,38.09,37.27,37.33,14259607
13-May-15,37.66,38.20,37.53,37.72,14075331
12-May-15,37.29,37.80,37.06,37.48,11792938
11-May-15,37.58,37.86,37.20,37.31,12329491
8-May-15,38.02,38.20,37.55,37.59,14395832
7-May-15,37.24,37.88,36.95,37.71,21258764
6-May-15,37.69,37.78,36.52,37.26,29107858
5-May-15,38.00,38.61,37.36,37.42,22605023
4-May-15,38.72,38.96,37.55,37.88,27622537
1-May-15,39.19,39.24,37.37,37.84,37785543
30-Apr-15,39.28,39.74,38.48,38.96,46651477
29-Apr-15,40.21,41.09,38.07,38.49,120488557
28-Apr-15,52.16,52.22,38.38,42.27,77336612
27-Apr-15,50.84,52.54,50.82,51.66,23991902
24-Apr-15,51.85,51.96,50.24,50.82,14896860
23-Apr-15,51.87,52.20,51.22,51.41,11490400
22-Apr-15,51.48,52.09,51.32,51.73,11479493
21-Apr-15,51.68,51.85,51.10,51.32,8461283
20-Apr-15,51.07,51.48,50.51,51.40,11004476
17-Apr-15,51.71,52.16,50.19,50.66,16676896
16-Apr-15,51.30,52.34,51.14,52.03,14313301
15-Apr-15,51.33,51.87,50.91,51.30,13192067
14-Apr-15,51.75,51.81,50.68,51.20,12231640
13-Apr-15,51.99,52.29,51.45,51.62,12306515
10-Apr-15,52.29,52.45,51.38,51.94,13271155
9-Apr-15,52.15,52.99,51.54,52.17,17877667
8-Apr-15,53.32,53.49,51.95,52.30,22368922
7-Apr-15,51.01,53.28,50.86,52.87,37080755
6-Apr-15,50.03,51.16,49.87,50.84,14539680
2-Apr-15,50.64,50.95,49.88,50.42,13423909
1-Apr-15,51.00,51.69,50.17,50.47,24299197
31-Mar-15,49.62,51.24,49.54,50.08,23898381
30-Mar-15,50.45,50.71,48.66,49.89,20365393
27-Mar-15,50.35,50.89,49.94,50.01,14852364
26-Mar-15,49.65,50.90,49.40,49.92,24385783
25-Mar-15,51.50,51.87,49.31,49.50,31694649
24-Mar-15,48.67,51.79,48.54,51.47,38181773
23-Mar-15,48.24,49.25,47.87,48.46,16389818
20-Mar-15,48.36,49.15,48.25,48.44,18676496
19-Mar-15,46.96,48.15,46.45,47.93,15957089
18-Mar-15,46.75,47.38,46.16,47.20,13115352
17-Mar-15,46.66,47.29,46.44,46.93,13361311
16-Mar-15,46.90,47.07,46.05,46.43,10243160
13-Mar-15,46.94,47.72,46.45,46.66,13368059
12-Mar-15,46.57,47.32,46.51,47.07,12204772
11-Mar-15,45.66,46.74,45.13,46.27,12273750
10-Mar-15,47.23,47.26,45.79,45.84,17289874
9-Mar-15,47.22,48.08,47.13,47.59,13635901
6-Mar-15,47.26,48.07,46.57,46.75,11534904
5-Mar-15,47.59,48.43,47.20,47.35,13511889
4-Mar-15,47.51,47.85,46.41,47.57,14290082
3-Mar-15,48.13,48.80,47.44,47.71,16754427
2-Mar-15,48.26,48.30,47.31,48.15,13430911
27-Feb-15,49.19,49.90,47.96,48.08,15004478
26-Feb-15,48.81,50.01,48.64,49.41,22340876
25-Feb-15,48.80,49.18,48.25,48.55,11663183
24-Feb-15,48.33,49.30,48.06,48.69,11073664
23-Feb-15,49.02,49.24,48.35,48.47,12541405
20-Feb-15,48.76,49.88,48.65,49.11,20755575
19-Feb-15,47.84,48.94,47.42,48.70,18153446
18-Feb-15,48.00,48.79,47.36,47.82,15503060
17-Feb-15,48.20,49.09,47.89,48.03,16670155
13-Feb-15,47.93,48.82,47.57,48.50,20809627
12-Feb-15,47.98,48.45,46.88,47.95,23071572
11-Feb-15,46.27,47.78,46.11,47.50,24747029
10-Feb-15,47.35,47.39,45.57,46.26,32287813
9-Feb-15,46.73,47.69,46.50,47.32,36177946
6-Feb-15,46.12,48.50,45.80,48.01,102973023
5-Feb-15,42.04,43.79,40.91,41.26,61997292
4-Feb-15,40.05,40.83,39.82,40.72,23116779
3-Feb-15,38.00,40.19,37.69,39.79,28395371
2-Feb-15,37.70,38.07,36.92,37.46,13895869
30-Jan-15,36.65,38.15,36.41,37.53,15390172
29-Jan-15,37.39,37.57,36.07,36.68,20088464
28-Jan-15,38.43,38.78,37.03,37.15,22367616
27-Jan-15,39.56,39.61,38.38,38.92,15746411
26-Jan-15,39.33,40.13,39.04,40.10,13838215
23-Jan-15,39.48,39.97,38.78,39.42,16439238
22-Jan-15,37.98,39.25,37.55,39.07,20451716
21-Jan-15,37.65,38.27,37.33,37.83,12181324
20-Jan-15,37.59,38.14,36.54,37.57,17641670
16-Jan-15,37.18,38.13,36.85,37.31,14966077
15-Jan-15,39.70,39.70,36.86,36.93,23042008
14-Jan-15,38.89,40.18,38.80,39.85,16054746
13-Jan-15,39.74,40.35,39.23,39.65,18395519
12-Jan-15,40.28,40.95,39.30,39.37,27639025
9-Jan-15,39.22,40.34,38.26,40.17,24738362
8-Jan-15,37.42,39.19,37.09,39.09,19190436
7-Jan-15,39.10,39.10,37.06,37.28,22675663
6-Jan-15,36.27,39.45,36.04,38.76,33050812
5-Jan-15,36.26,37.11,35.64,36.38,15062744
2-Jan-15,36.23,36.74,35.54,36.56,12062461
31-Dec-14,35.89,36.49,35.47,35.87,17650083
30-Dec-14,36.02,36.24,35.46,35.86,19494563
29-Dec-14,37.39,37.51,36.38,36.42,13565360
26-Dec-14,37.76,38.10,37.54,37.60,7323988
24-Dec-14,37.67,38.35,37.56,37.61,6263320
23-Dec-14,38.58,39.25,37.46,37.57,16858037
22-Dec-14,37.50,38.82,37.31,38.43,20078978
19-Dec-14,36.70,37.45,36.50,37.08,16068717
18-Dec-14,36.13,37.27,35.95,36.73,19087488
17-Dec-14,35.56,35.90,34.95,35.57,18544835
16-Dec-14,36.50,36.71,35.09,35.13,19241183
15-Dec-14,38.13,38.38,36.73,36.85,16832975
12-Dec-14,36.31,37.71,36.10,37.10,15222465
11-Dec-14,36.45,37.23,36.25,36.70,15707079
10-Dec-14,36.91,37.78,36.25,36.35,16497652
9-Dec-14,34.97,37.09,34.62,37.05,20542824
8-Dec-14,38.08,38.12,35.75,36.29,30112791
5-Dec-14,38.97,39.07,38.35,38.49,12587725
4-Dec-14,38.80,39.66,38.62,38.79,13034027
3-Dec-14,39.00,39.42,38.38,39.06,13241278
2-Dec-14,39.40,39.40,38.33,38.91,16430289
1-Dec-14,41.29,41.29,39.00,39.04,22213988
28-Nov-14,41.09,42.08,40.83,41.74,11113905
26-Nov-14,39.83,41.56,39.74,41.13,23794731
25-Nov-14,40.12,40.30,39.56,39.76,16165082
24-Nov-14,39.99,40.47,39.58,40.19,15176007
21-Nov-14,40.25,40.28,39.80,40.03,12066551
20-Nov-14,39.49,40.55,39.32,39.81,13717120
19-Nov-14,40.35,40.47,39.21,39.71,19050142
18-Nov-14,40.69,41.17,39.95,40.61,18605048
17-Nov-14,41.46,41.68,40.41,40.47,20665239
14-Nov-14,40.02,41.85,39.77,41.85,33059767
13-Nov-14,43.55,43.95,39.95,40.04,67287397
12-Nov-14,39.94,42.94,39.60,42.54,51814076
11-Nov-14,39.31,39.84,38.81,39.59,19199463
10-Nov-14,40.34,40.69,39.42,39.59,19069311
7-Nov-14,40.74,40.74,39.70,40.31,18558908
6-Nov-14,40.19,41.35,40.10,40.84,16292122
5-Nov-14,41.69,41.80,40.13,40.37,19742219
4-Nov-14,40.02,41.10,39.75,40.90,19544339
3-Nov-14,40.55,41.20,40.16,40.21,31454276
31-Oct-14,42.69,42.85,41.34,41.47,23895091
30-Oct-14,41.56,42.48,39.94,41.80,42012595
29-Oct-14,43.85,44.16,41.81,42.08,40261918
28-Oct-14,42.25,44.58,41.76,43.78,83514039
27-Oct-14,50.02,50.24,47.18,48.56,51896310
24-Oct-14,50.16,50.19,49.15,49.95,12035228
23-Oct-14,50.13,50.40,49.20,49.67,23099811
22-Oct-14,51.13,51.84,49.00,49.08,26147867
21-Oct-14,51.76,52.15,50.30,50.63,21351031
20-Oct-14,49.07,50.89,48.80,50.70,17781053
17-Oct-14,49.72,50.25,48.65,48.77,24630575
16-Oct-14,48.34,49.82,47.17,48.23,30818799
15-Oct-14,47.11,50.52,46.38,49.99,34371495
14-Oct-14,49.06,49.53,47.08,48.58,29723607
13-Oct-14,50.54,51.91,48.26,48.49,35326778
10-Oct-14,54.57,55.66,50.30,50.40,46727275
9-Oct-14,55.29,55.99,54.92,55.29,29741359
8-Oct-14,53.62,55.67,52.60,55.42,31098532
7-Oct-14,53.12,54.99,53.10,53.53,26082251
6-Oct-14,53.94,54.45,53.23,53.49,20033423
3-Oct-14,52.75,54.73,52.11,53.94,31227155
2-Oct-14,51.03,52.10,50.01,51.85,27056496
1-Oct-14,51.08,51.29,49.15,50.06,24733453
30-Sep-14,52.00,52.19,51.17,51.58,12315738
29-Sep-14,51.09,52.18,50.88,51.74,15404256
26-Sep-14,51.97,52.61,51.70,51.89,14125293
25-Sep-14,52.71,53.23,51.27,51.45,21071508
24-Sep-14,52.55,53.34,52.13,52.96,17656100
23-Sep-14,51.46,52.56,51.02,52.17,19997954
22-Sep-14,52.38,52.90,51.36,51.94,21744393
19-Sep-14,50.78,53.00,50.18,53.00,38192577
18-Sep-14,50.97,51.88,50.53,50.88,22484799
17-Sep-14,50.97,51.60,50.16,50.70,22874400
16-Sep-14,48.70,50.91,48.40,50.83,26744763
15-Sep-14,51.60,51.93,47.56,49.38,38374126
12-Sep-14,52.55,52.82,52.02,52.11,22986464
11-Sep-14,52.55,53.64,52.18,52.64,38099375
10-Sep-14,52.11,53.33,51.85,52.91,38057661
9-Sep-14,52.23,52.40,50.22,50.61,25034416
8-Sep-14,51.80,52.68,51.68,52.00,30836421
5-Sep-14,50.09,50.88,49.52,50.70,20251354
4-Sep-14,49.69,50.86,49.22,50.24,24413060
3-Sep-14,51.83,51.85,49.05,49.33,34411151
2-Sep-14,50.02,51.34,49.90,51.02,28267227
29-Aug-14,49.89,50.35,49.13,49.75,31926942
28-Aug-14,47.98,49.88,47.86,49.43,35076316
27-Aug-14,48.24,48.46,47.18,48.06,26127632
26-Aug-14,46.10,48.20,46.04,48.17,27716184
25-Aug-14,46.22,46.36,45.70,46.10,17583487
22-Aug-14,45.04,46.14,44.80,45.98,19429784
21-Aug-14,45.29,45.35,44.84,45.11,10619316
20-Aug-14,44.93,45.21,44.76,45.06,10383233
19-Aug-14,45.24,45.45,45.03,45.09,11903442
18-Aug-14,45.06,45.33,44.77,45.12,14835442
15-Aug-14,45.47,45.50,44.44,44.76,17794698
14-Aug-14,44.40,45.34,44.04,45.33,23638935
13-Aug-14,44.12,44.34,43.62,44.15,16180836
12-Aug-14,44.38,44.72,43.61,43.81,29582276
11-Aug-14,43.48,43.60,42.71,43.27,18420323
8-Aug-14,43.02,43.36,42.51,43.13,14977725
7-Aug-14,43.37,44.37,42.89,43.00,25389111
6-Aug-14,43.39,44.04,42.75,43.46,20355349
5-Aug-14,43.25,44.48,43.02,43.83,26404094
4-Aug-14,43.70,44.53,43.44,43.47,22424950
1-Aug-14,45.01,45.54,43.81,44.13,37194768
31-Jul-14,44.62,45.84,44.30,45.19,47170214
30-Jul-14,47.01,48.00,45.65,46.30,116195894
29-Jul-14,38.11,38.92,37.99,38.59,65338012
28-Jul-14,38.30,38.44,37.56,37.93,16781679
25-Jul-14,38.20,38.80,38.02,38.16,15980826
24-Jul-14,38.71,39.00,37.85,38.71,22105562
23-Jul-14,37.65,38.19,37.56,37.75,13220692
22-Jul-14,38.31,38.60,37.45,37.65,16837757
21-Jul-14,37.23,38.29,36.85,38.05,19685415
18-Jul-14,36.81,37.08,35.95,37.05,26435471
17-Jul-14,36.80,37.17,36.38,36.87,22631521
16-Jul-14,38.31,38.52,37.10,37.43,19726498
15-Jul-14,38.59,38.99,37.62,37.88,24657590
14-Jul-14,38.57,39.38,38.20,38.31,19704978
11-Jul-14,38.15,38.79,38.00,38.33,21084782
10-Jul-14,36.49,38.10,36.11,37.84,26549714
9-Jul-14,37.82,38.35,37.35,38.06,26838322
8-Jul-14,39.96,40.04,36.84,37.41,49952021
7-Jul-14,41.08,41.45,40.14,40.23,21454528
3-Jul-14,41.94,42.00,40.82,41.33,15795099
2-Jul-14,42.83,42.83,41.42,41.77,24377465
1-Jul-14,42.06,42.95,41.91,42.05,36019345
30-Jun-14,40.81,41.34,40.35,40.97,22782975
27-Jun-14,40.70,41.15,40.11,40.93,48261139
26-Jun-14,40.05,42.00,39.81,41.44,45348482
25-Jun-14,38.24,39.59,38.01,39.46,25457189
24-Jun-14,39.44,39.64,38.26,38.48,24477866
23-Jun-14,39.07,39.58,38.73,39.52,22591330
20-Jun-14,38.82,39.24,37.77,39.24,41501084
19-Jun-14,38.73,39.30,38.32,38.90,24648320
18-Jun-14,38.16,38.83,37.75,38.74,23707470
17-Jun-14,38.03,38.55,37.30,38.02,30321533
16-Jun-14,36.70,38.17,36.44,38.02,29889320
13-Jun-14,36.85,37.25,35.90,36.90,29129856
12-Jun-14,35.06,37.27,35.06,36.79,58146088
11-Jun-14,35.07,35.97,34.93,35.54,30021271
10-Jun-14,34.73,35.50,34.66,35.37,36572189
9-Jun-14,33.24,34.55,33.09,34.47,23397248
6-Jun-14,34.14,34.41,33.22,33.33,23353197
5-Jun-14,33.67,34.89,33.11,33.89,40904898
4-Jun-14,32.49,33.32,31.85,32.90,24863032
3-Jun-14,31.73,32.69,31.65,32.58,19948755
2-Jun-14,32.89,33.20,31.62,31.75,31209765
30-May-14,33.73,33.86,32.11,32.44,40603942
29-May-14,34.67,35.14,33.88,34.00,54016285
28-May-14,31.50,33.84,31.09,33.77,60302764
27-May-14,30.94,31.20,30.38,30.51,25240098
23-May-14,31.51,31.68,30.45,30.50,27448011
22-May-14,31.33,32.25,30.52,31.52,35566214
21-May-14,31.85,31.95,31.15,31.75,15562626
20-May-14,32.00,32.39,31.52,31.77,16580525
19-May-14,32.05,32.44,31.64,32.07,15952792
16-May-14,32.95,33.21,32.02,32.26,21391370
15-May-14,33.02,33.29,32.16,32.77,22030524
14-May-14,33.35,33.83,32.62,32.85,20029415
13-May-14,33.84,34.06,32.89,33.39,24676758
12-May-14,33.08,34.10,32.40,33.94,34712746
9-May-14,32.23,33.11,31.75,32.05,31888811
8-May-14,31.48,32.98,31.13,31.96,51282789
7-May-14,31.97,32.00,29.51,30.66,68876278
6-May-14,35.61,36.10,31.72,31.85,134709976
5-May-14,38.52,39.60,38.05,38.75,10405247
2-May-14,39.20,39.86,38.70,39.02,12729508
1-May-14,39.01,40.77,38.97,39.09,15759771
30-Apr-14,37.66,38.98,37.24,38.97,38397930
29-Apr-14,40.53,43.97,40.18,42.62,28127685
28-Apr-14,41.76,42.35,39.30,40.73,14358891
25-Apr-14,44.29,44.44,41.31,41.61,13712435
24-Apr-14,46.71,46.79,43.63,44.82,11019701
23-Apr-14,45.88,46.17,44.87,45.95,7346070
22-Apr-14,46.23,47.09,45.80,46.02,7001423
21-Apr-14,44.96,46.30,44.64,46.13,6930984
17-Apr-14,44.66,46.55,43.91,45.01,12308119
16-Apr-14,45.42,45.56,43.54,44.42,13919567
15-Apr-14,41.28,45.55,40.76,45.52,24285070
14-Apr-14,41.40,41.95,40.12,40.87,10418475
11-Apr-14,40.79,41.10,39.68,40.05,9999669
10-Apr-14,42.85,43.25,40.93,41.34,10720909
9-Apr-14,42.23,43.06,41.77,42.49,14330716
8-Apr-14,43.42,43.42,41.55,41.78,14514458
7-Apr-14,42.87,44.60,42.26,42.45,12052991
4-Apr-14,44.20,44.87,42.37,43.14,13848715
3-Apr-14,45.48,45.61,43.38,44.05,11175769
2-Apr-14,47.40,47.44,45.51,45.73,7911260
1-Apr-14,46.71,47.59,46.18,46.98,6916147
31-Mar-14,47.55,47.75,46.43,46.67,5794497
28-Mar-14,46.65,47.34,45.70,47.30,9610491
27-Mar-14,45.09,46.40,43.31,46.32,15507597
26-Mar-14,48.06,48.30,44.25,44.43,16131643
25-Mar-14,49.35,49.70,47.58,47.88,8225616
24-Mar-14,50.69,50.94,47.77,48.77,12325696
21-Mar-14,50.24,50.92,49.51,50.92,11816347
20-Mar-14,51.00,51.66,49.64,50.12,10086189
19-Mar-14,50.80,51.98,50.71,51.24,7624177
18-Mar-14,52.03,52.21,50.29,51.13,12228931
17-Mar-14,52.08,52.49,51.35,52.05,6600907
14-Mar-14,53.40,53.91,51.80,51.92,9570412
13-Mar-14,54.90,55.45,53.20,53.57,7671506
12-Mar-14,54.25,55.30,53.88,54.50,5839493
11-Mar-14,54.16,55.84,53.80,54.02,11777991
10-Mar-14,54.09,54.59,53.38,53.88,5789363
7-Mar-14,55.18,55.20,53.31,53.53,7325092
6-Mar-14,54.91,56.09,54.70,54.83,9034361
5-Mar-14,54.53,55.03,53.75,54.38,5681226
4-Mar-14,54.25,55.28,54.12,54.28,6724023
3-Mar-14,53.89,54.40,52.90,53.71,9619007
28-Feb-14,55.93,56.00,54.13,54.91,8148204
27-Feb-14,56.34,56.69,55.40,55.77,6541385
26-Feb-14,55.00,56.99,54.90,55.87,12134445
25-Feb-14,55.89,55.95,54.50,54.96,9301175
24-Feb-14,56.03,56.49,55.30,55.78,8494379
21-Feb-14,57.10,57.20,55.70,55.92,7723834
20-Feb-14,55.82,57.08,54.65,56.63,12109533
19-Feb-14,58.47,58.95,54.62,55.50,25849571
18-Feb-14,57.88,58.64,56.77,58.18,10738508
14-Feb-14,57.02,57.86,56.70,57.44,12629957
13-Feb-14,56.07,58.98,55.46,56.47,26048458
12-Feb-14,55.05,57.00,54.76,56.85,20204449
11-Feb-14,53.20,54.40,53.10,54.00,13216301
10-Feb-14,54.50,54.59,52.34,52.92,15883618
7-Feb-14,51.23,54.92,50.75,54.35,32359106
6-Feb-14,50.61,53.90,49.99,50.03,64954379
5-Feb-14,67.16,67.24,64.80,65.97,34001488
4-Feb-14,66.25,66.37,64.50,66.32,13053271
3-Feb-14,65.92,66.48,64.21,65.25,18075264
31-Jan-14,63.39,65.37,62.65,64.50,15527717
30-Jan-14,63.98,65.24,62.80,63.47,17490124
29-Jan-14,59.62,60.95,58.60,59.45,9494690
28-Jan-14,57.44,60.85,57.35,60.44,9380780
27-Jan-14,61.77,61.77,56.10,57.91,19028084
24-Jan-14,62.17,63.62,61.30,61.74,13039731
23-Jan-14,61.45,62.81,60.88,62.80,10204702
22-Jan-14,63.11,63.80,61.76,62.44,12076892
21-Jan-14,63.33,63.44,61.50,62.53,13739691
17-Jan-14,63.60,64.69,61.59,62.20,28440701
16-Jan-14,61.45,62.40,60.46,60.57,16755251
15-Jan-14,59.11,61.75,58.32,61.57,21646397
14-Jan-14,58.88,59.02,57.36,58.21,14810026
13-Jan-14,59.98,60.38,57.29,57.82,21039027
10-Jan-14,57.50,58.76,55.87,57.00,22391578
9-Jan-14,59.54,60.81,55.59,57.05,31121971
8-Jan-14,58.71,61.26,57.92,59.29,27304350
7-Jan-14,67.67,67.73,61.39,61.46,31806111
6-Jan-14,64.83,66.87,63.50,66.29,27303649
3-Jan-14,69.00,70.43,68.43,69.00,33254610
2-Jan-14,65.00,67.50,64.40,67.50,29286655
31-Dec-13,62.36,65.22,61.65,63.65,27858516
30-Dec-13,60.27,63.71,58.57,60.51,55538253
27-Dec-13,70.10,71.25,63.69,63.75,60418668
26-Dec-13,72.88,74.73,69.13,73.31,82761072
24-Dec-13,66.34,70.87,65.56,69.96,35802698
23-Dec-13,59.85,64.99,59.70,64.54,22163787
20-Dec-13,58.51,60.25,58.01,60.01,26207420
19-Dec-13,55.09,57.75,55.00,57.49,13174896
18-Dec-13,56.96,57.00,54.23,55.51,16659776
17-Dec-13,56.97,57.38,54.62,56.45,22115199
16-Dec-13,57.97,60.24,55.76,56.61,39310848
13-Dec-13,56.20,59.41,55.45,59.00,38979567
12-Dec-13,52.20,55.87,50.69,55.33,23446870
11-Dec-13,52.37,53.87,51.00,52.34,26631535
10-Dec-13,48.75,52.58,48.70,51.99,25792002
9-Dec-13,45.58,49.84,45.02,49.14,17366614
6-Dec-13,45.75,45.80,44.54,44.95,6236232
5-Dec-13,43.45,46.35,42.83,45.62,11813520
4-Dec-13,41.27,43.92,41.27,43.69,11028953
3-Dec-13,40.69,41.60,40.54,41.37,5776893
2-Dec-13,41.79,42.00,40.40,40.78,6427386
29-Nov-13,41.40,41.58,40.90,41.57,4107074
27-Nov-13,40.47,41.40,40.35,40.90,5536322
26-Nov-13,39.16,40.55,38.92,40.18,9828433
25-Nov-13,41.08,41.14,38.80,39.06,14333375
22-Nov-13,41.81,42.28,40.97,41.00,6185245
21-Nov-13,41.25,42.49,40.37,42.06,8324753
20-Nov-13,41.40,41.75,40.51,41.05,5767325
19-Nov-13,41.39,41.90,40.00,41.75,7436616
18-Nov-13,43.50,43.95,40.85,41.14,12810624
15-Nov-13,45.25,45.27,43.43,43.98,8010663
14-Nov-13,42.34,45.67,42.24,44.69,11099433
13-Nov-13,41.03,42.87,40.76,42.60,8688325
12-Nov-13,43.66,43.78,41.83,41.90,6316755
11-Nov-13,40.50,43.00,39.40,42.90,16113941
8-Nov-13,45.93,46.94,40.68,41.65,27925307
7-Nov-13,45.10,50.09,44.00,44.90,117701670
