﻿Date,Open,High,Low,Close,Volume
20-Jun-17,31.73,31.85,31.45,31.60,568125
19-Jun-17,31.51,31.95,31.50,31.92,642043
16-Jun-17,30.81,31.33,30.73,31.30,636222
15-Jun-17,30.67,30.99,30.56,30.89,538095
14-Jun-17,31.73,31.73,30.76,31.00,528716
13-Jun-17,31.38,31.58,31.09,31.56,379236
12-Jun-17,31.21,31.40,30.97,31.14,488584
9-Jun-17,32.58,32.60,31.07,31.36,561776
8-Jun-17,32.30,32.52,32.12,32.43,254741
7-Jun-17,32.36,32.42,32.23,32.33,259698
6-Jun-17,32.52,32.89,32.26,32.42,361064
5-Jun-17,32.21,33.00,32.13,32.77,474400
2-Jun-17,31.93,32.43,31.87,32.27,379905
1-Jun-17,31.19,31.95,31.04,31.94,328383
31-May-17,31.12,31.24,30.88,31.04,423177
30-May-17,31.10,31.27,30.98,31.09,264992
26-May-17,31.40,31.40,31.03,31.20,235683
25-May-17,31.90,32.00,31.46,31.48,273489
24-May-17,31.08,31.68,30.95,31.64,522724
23-May-17,31.92,32.07,30.89,30.89,532688
22-May-17,32.33,32.33,31.13,31.81,974257
19-May-17,30.13,30.52,30.04,30.35,439878
18-May-17,29.93,30.16,29.77,30.05,331982
17-May-17,30.02,30.25,29.86,29.99,676770
16-May-17,30.42,30.58,30.04,30.52,295982
15-May-17,30.23,30.65,30.15,30.33,373043
12-May-17,30.74,30.82,30.09,30.25,328872
11-May-17,31.04,31.22,30.41,30.87,381144
10-May-17,30.59,31.07,30.31,31.00,770149
9-May-17,30.75,30.98,30.38,30.50,551692
8-May-17,30.50,30.79,30.37,30.50,599376
5-May-17,30.80,31.00,30.31,30.41,703221
4-May-17,30.61,30.75,30.20,30.74,419161
3-May-17,30.88,31.10,30.15,30.51,611394
2-May-17,31.36,31.67,30.73,30.81,921067
1-May-17,32.01,32.28,31.60,31.61,911891
28-Apr-17,32.62,32.79,31.94,32.02,855988
27-Apr-17,32.51,33.01,32.12,32.70,488369
26-Apr-17,31.80,32.62,31.80,32.50,534528
25-Apr-17,31.64,32.01,31.52,31.96,537655
24-Apr-17,31.74,31.74,31.34,31.45,451101
21-Apr-17,30.97,31.27,30.75,31.11,582073
20-Apr-17,30.55,31.30,30.38,31.09,562845
19-Apr-17,29.89,30.47,29.80,30.35,414261
18-Apr-17,29.39,29.83,29.31,29.79,316335
17-Apr-17,28.95,29.59,28.70,29.54,734546
13-Apr-17,29.80,29.96,28.88,28.91,639218
12-Apr-17,30.09,30.28,29.65,29.81,535982
11-Apr-17,30.37,30.51,30.00,30.33,479573
10-Apr-17,30.62,30.87,30.34,30.40,219805
7-Apr-17,30.57,30.78,30.41,30.57,289964
6-Apr-17,30.20,30.74,29.93,30.71,382855
5-Apr-17,30.15,30.67,29.97,30.04,325103
4-Apr-17,30.38,30.38,29.89,30.06,566038
3-Apr-17,30.60,30.86,29.82,30.24,478673
31-Mar-17,30.41,30.75,30.28,30.60,347195
30-Mar-17,29.94,30.54,29.94,30.48,261258
29-Mar-17,29.83,30.14,29.68,29.99,289638
28-Mar-17,29.71,30.08,29.54,29.93,361650
27-Mar-17,29.60,30.04,29.27,29.90,320479
24-Mar-17,30.10,30.55,29.74,29.87,703009
23-Mar-17,29.79,30.23,29.51,29.94,342715
22-Mar-17,29.66,29.85,29.41,29.84,486421
21-Mar-17,30.15,30.23,29.58,29.69,538257
20-Mar-17,29.77,30.05,29.55,30.00,544577
17-Mar-17,29.79,30.28,29.75,29.84,1732532
16-Mar-17,30.06,30.21,29.65,29.95,450306
15-Mar-17,29.61,30.25,29.48,30.14,588974
14-Mar-17,29.62,29.91,29.46,29.51,342132
13-Mar-17,29.54,29.84,29.44,29.83,265808
10-Mar-17,29.46,29.64,29.28,29.54,371563
9-Mar-17,29.70,29.89,28.77,29.24,653415
8-Mar-17,29.87,30.12,29.68,29.81,365614
7-Mar-17,30.15,30.32,29.72,29.77,424587
6-Mar-17,30.37,30.55,29.79,30.15,457637
3-Mar-17,30.70,30.98,30.36,30.62,352544
2-Mar-17,31.10,31.10,30.51,30.83,481869
1-Mar-17,30.63,31.31,30.52,31.17,396184
28-Feb-17,30.79,30.91,30.31,30.31,392947
27-Feb-17,30.76,30.99,30.33,30.99,491550
24-Feb-17,30.28,30.83,29.90,30.80,393643
23-Feb-17,30.44,30.74,30.17,30.51,386544
22-Feb-17,31.00,31.13,30.23,30.35,319511
21-Feb-17,31.06,31.26,30.65,30.96,602299
17-Feb-17,29.89,31.09,29.86,31.08,599351
16-Feb-17,29.21,29.98,29.08,29.94,379061
15-Feb-17,29.50,29.60,28.89,29.27,744831
14-Feb-17,29.14,29.59,28.88,29.54,1188872
13-Feb-17,29.60,29.84,28.37,29.08,2240507
10-Feb-17,28.38,28.76,28.32,28.63,566588
9-Feb-17,28.50,29.29,28.34,28.39,853892
8-Feb-17,29.00,29.25,28.62,28.69,512494
7-Feb-17,29.16,29.44,28.75,28.94,776466
6-Feb-17,29.01,29.67,28.92,29.19,564070
3-Feb-17,29.01,29.06,28.47,29.01,721871
2-Feb-17,27.89,29.00,27.89,28.79,1268596
1-Feb-17,28.06,28.23,27.87,27.90,348588
31-Jan-17,27.80,28.06,27.48,27.95,419552
30-Jan-17,28.16,28.26,27.63,27.92,492371
27-Jan-17,27.94,28.45,27.83,28.43,381584
26-Jan-17,28.02,28.27,27.74,27.98,252237
25-Jan-17,28.16,28.29,27.81,27.88,214419
24-Jan-17,27.67,28.20,27.27,28.05,342699
23-Jan-17,27.84,27.89,27.47,27.50,248471
20-Jan-17,26.77,27.83,26.74,27.83,407227
19-Jan-17,27.49,27.67,26.72,26.78,397838
18-Jan-17,27.20,28.05,27.20,27.44,361836
17-Jan-17,27.20,27.38,26.82,27.06,595938
13-Jan-17,27.63,28.04,27.10,27.32,525646
12-Jan-17,28.75,28.76,27.18,27.43,765179
11-Jan-17,28.58,29.09,28.38,28.79,515447
10-Jan-17,27.98,28.80,27.92,28.73,753371
9-Jan-17,28.24,28.30,27.75,27.95,462154
6-Jan-17,28.04,28.49,27.80,28.44,672350
5-Jan-17,27.89,28.34,27.76,28.06,643687
4-Jan-17,27.60,28.24,27.51,28.09,1170341
3-Jan-17,28.11,28.31,27.24,27.69,905116
30-Dec-16,27.97,28.09,27.71,28.07,309109
29-Dec-16,28.00,28.16,27.56,27.92,238836
28-Dec-16,28.15,28.32,27.85,28.08,493108
27-Dec-16,28.12,28.71,27.98,28.17,198407
23-Dec-16,28.12,28.35,27.81,28.20,285760
22-Dec-16,28.23,28.31,27.82,28.03,331874
21-Dec-16,28.61,28.74,28.11,28.25,562184
20-Dec-16,28.46,29.14,28.39,28.72,762474
19-Dec-16,27.89,28.69,27.76,28.67,1013094
16-Dec-16,28.58,28.95,27.67,27.80,1723855
15-Dec-16,27.95,28.79,27.78,28.42,853052
14-Dec-16,27.91,28.42,27.44,28.02,914193
13-Dec-16,27.49,28.00,27.35,27.80,1076329
12-Dec-16,26.89,27.39,26.88,27.32,721979
9-Dec-16,27.15,27.31,26.75,27.06,887576
8-Dec-16,26.90,27.48,26.75,27.17,1047514
7-Dec-16,25.35,26.99,25.35,26.93,2402431
6-Dec-16,24.80,25.25,24.75,25.20,1784844
5-Dec-16,24.68,25.01,24.27,24.85,1870178
2-Dec-16,24.61,24.86,24.40,24.46,994334
1-Dec-16,25.10,25.93,24.52,24.62,2579877
30-Nov-16,24.64,24.79,24.41,24.46,1232898
29-Nov-16,24.58,24.80,24.37,24.65,721139
28-Nov-16,25.03,25.41,24.61,24.73,1053883
25-Nov-16,25.61,25.64,25.10,25.10,346369
23-Nov-16,25.08,25.58,24.88,25.44,970767
22-Nov-16,24.68,25.16,24.58,25.03,798699
21-Nov-16,23.44,24.66,23.44,24.59,1334944
18-Nov-16,23.85,24.07,23.38,23.44,817519
17-Nov-16,24.09,24.40,23.80,23.99,992080
16-Nov-16,23.72,24.02,23.62,23.99,668261
15-Nov-16,23.68,24.01,23.50,23.89,1175413
14-Nov-16,24.17,24.28,23.54,23.69,1166367
11-Nov-16,23.47,24.27,23.06,24.18,1076359
10-Nov-16,23.00,23.77,22.81,23.55,2343583
9-Nov-16,22.93,23.14,22.72,23.00,2165946
8-Nov-16,23.05,23.24,22.71,23.13,1358459
7-Nov-16,22.88,23.50,22.70,23.11,1736160
4-Nov-16,22.44,22.91,22.24,22.69,1346930
3-Nov-16,22.67,22.92,22.41,22.62,1023370
2-Nov-16,22.50,22.98,22.48,22.67,1219183
1-Nov-16,22.78,22.78,22.18,22.53,4584329
31-Oct-16,22.57,22.98,22.52,22.70,1305673
28-Oct-16,23.22,23.35,22.50,22.75,7341100
27-Oct-16,22.96,23.89,22.75,23.29,2281091
26-Oct-16,22.78,22.86,22.25,22.81,4476213
25-Oct-16,23.19,23.20,22.75,23.04,2198984
24-Oct-16,23.60,23.60,22.97,23.30,1082016
21-Oct-16,23.75,24.02,23.18,23.33,1405911
20-Oct-16,23.59,24.01,23.45,23.92,744508
19-Oct-16,24.12,24.20,23.30,23.76,1535384
18-Oct-16,23.03,24.58,22.88,24.30,2714988
17-Oct-16,22.42,22.59,22.25,22.47,999352
14-Oct-16,22.57,22.84,22.40,22.46,2540971
13-Oct-16,23.34,23.39,22.28,22.83,3564577
12-Oct-16,22.59,23.43,22.20,23.34,4019966
11-Oct-16,23.00,23.66,22.72,23.30,5099627
10-Oct-16,23.15,24.03,23.15,23.49,2488722
7-Oct-16,23.13,23.48,22.92,23.38,3502513
6-Oct-16,23.51,24.02,23.32,23.44,3389232
5-Oct-16,23.80,24.92,23.47,23.68,3157572
4-Oct-16,25.70,25.77,24.35,24.49,8727143
3-Oct-16,22.45,28.00,21.86,28.00,30017393
30-Sep-16,23.25,23.25,22.66,22.70,1758180
29-Sep-16,22.42,23.25,22.42,23.00,1576596
28-Sep-16,22.35,22.75,22.25,22.47,1401925
27-Sep-16,22.40,22.53,22.25,22.35,368661
26-Sep-16,22.56,23.00,21.91,22.35,497775
23-Sep-16,22.80,23.15,22.55,23.00,543979
22-Sep-16,24.00,24.00,22.32,23.20,572279
21-Sep-16,24.00,24.93,23.53,24.00,571114
20-Sep-16,25.00,25.05,24.26,24.26,283870
19-Sep-16,27.50,27.50,24.96,24.96,102275
