﻿Date,Open,High,Low,Close,Volume
20-Jun-17,79.81,79.83,78.13,78.30,4993678
19-Jun-17,78.96,79.83,78.06,79.81,7935203
16-Jun-17,81.19,81.47,77.35,78.44,14953927
15-Jun-17,82.45,82.86,81.24,82.56,5412397
14-Jun-17,82.02,83.06,81.70,82.88,4370035
13-Jun-17,81.32,81.89,80.96,81.80,3029353
12-Jun-17,81.04,82.59,81.03,81.81,4625998
9-Jun-17,81.54,81.62,80.56,80.99,4141051
8-Jun-17,81.51,82.04,81.38,81.47,3088951
7-Jun-17,81.69,81.69,80.75,81.46,6175198
6-Jun-17,82.75,83.35,81.08,81.45,6663823
5-Jun-17,83.25,83.50,82.72,83.38,2824024
2-Jun-17,82.30,83.13,82.27,83.10,3940913
1-Jun-17,81.29,82.21,81.01,82.18,3692484
31-May-17,80.37,81.03,80.31,81.02,4355560
30-May-17,81.05,81.11,80.13,80.16,4078217
26-May-17,81.00,81.25,80.64,81.25,2735130
25-May-17,80.68,81.27,80.50,80.75,4154609
24-May-17,81.40,81.41,80.31,80.58,3576933
23-May-17,81.57,81.69,81.23,81.24,3050016
22-May-17,80.59,81.44,80.21,81.34,5724315
19-May-17,81.46,81.68,80.57,80.61,5279552
18-May-17,81.96,82.39,81.38,81.45,4378478
17-May-17,83.14,83.43,81.11,81.73,7747008
16-May-17,84.98,84.99,84.27,84.51,2571970
15-May-17,85.16,85.60,84.50,84.96,4142102
12-May-17,85.48,85.61,84.86,85.25,3302457
11-May-17,85.29,85.78,85.09,85.50,4076695
10-May-17,85.77,85.88,85.51,85.62,2580748
9-May-17,85.55,86.42,85.55,85.98,2719576
8-May-17,85.64,85.99,85.36,85.84,2945696
5-May-17,86.18,86.29,85.27,85.89,4187061
4-May-17,85.85,86.27,85.72,86.05,3561653
3-May-17,85.89,86.10,85.52,85.79,3288379
2-May-17,86.73,86.86,85.68,85.81,4013857
1-May-17,86.36,86.86,86.31,86.46,3380047
28-Apr-17,85.77,87.79,85.45,86.54,3615641
27-Apr-17,85.87,86.25,85.63,85.89,2855810
26-Apr-17,85.93,86.35,85.45,85.92,3477924
25-Apr-17,84.45,86.12,84.36,85.92,7008741
24-Apr-17,84.76,84.86,84.16,84.28,5037552
21-Apr-17,84.21,84.62,83.92,84.03,3698774
20-Apr-17,83.73,84.66,83.49,84.14,4219726
19-Apr-17,83.21,84.00,82.96,83.51,5163499
18-Apr-17,82.60,83.05,82.52,82.82,2894280
17-Apr-17,82.63,83.16,82.52,83.13,1931626
13-Apr-17,82.82,83.18,82.35,82.48,2780762
12-Apr-17,82.44,82.83,82.31,82.57,2984343
11-Apr-17,82.27,82.81,82.08,82.68,3464917
10-Apr-17,82.28,82.81,82.12,82.51,4073427
7-Apr-17,81.80,82.94,81.66,82.33,5576132
6-Apr-17,81.20,81.91,80.92,81.66,4696691
5-Apr-17,82.98,83.10,80.30,81.17,12117445
4-Apr-17,82.84,83.61,82.39,82.50,3273405
3-Apr-17,83.36,83.75,82.80,82.95,3283623
31-Mar-17,83.11,83.69,83.03,83.05,3133198
30-Mar-17,83.65,83.79,83.10,83.31,2437968
29-Mar-17,83.60,83.87,83.31,83.77,2016580
28-Mar-17,83.29,84.02,83.10,83.74,3053042
27-Mar-17,82.71,83.62,82.55,83.56,2410041
24-Mar-17,83.25,83.34,82.61,82.97,2110083
23-Mar-17,82.89,83.47,82.59,82.98,2501173
22-Mar-17,83.49,83.85,82.55,83.03,4488298
21-Mar-17,84.76,84.91,82.77,83.21,5072986
20-Mar-17,85.77,85.86,84.55,84.63,3579559
17-Mar-17,86.25,86.25,85.04,85.91,7254687
16-Mar-17,85.61,86.04,85.22,85.67,3356110
15-Mar-17,85.53,85.95,84.71,85.80,3921032
14-Mar-17,85.45,85.50,84.63,85.40,3257320
13-Mar-17,85.42,85.76,85.07,85.61,2417742
10-Mar-17,85.93,86.06,85.34,85.63,2601035
9-Mar-17,85.26,85.81,84.45,85.31,2520986
8-Mar-17,85.99,85.99,85.12,85.16,2898421
7-Mar-17,85.46,86.32,85.36,85.99,2407972
6-Mar-17,85.58,86.44,85.36,85.88,2437548
3-Mar-17,86.66,86.91,85.24,85.89,3157970
2-Mar-17,86.50,87.03,86.32,86.74,3097105
1-Mar-17,86.82,87.23,86.40,86.77,3390496
28-Feb-17,87.13,87.13,85.59,86.38,3879904
27-Feb-17,87.47,87.58,87.05,87.22,2032133
24-Feb-17,86.86,87.63,86.73,87.61,2890852
23-Feb-17,86.47,87.82,83.99,86.99,3437222
22-Feb-17,86.43,86.57,85.90,86.29,3047701
21-Feb-17,88.00,88.00,85.89,86.41,3430698
17-Feb-17,85.54,86.10,85.37,85.86,4106620
16-Feb-17,84.20,86.12,84.00,85.65,6373665
15-Feb-17,83.74,84.38,83.61,84.25,2736127
14-Feb-17,83.33,83.88,83.06,83.79,5095885
13-Feb-17,83.48,83.63,82.67,83.43,3299797
10-Feb-17,82.38,83.46,81.95,83.31,4401200
9-Feb-17,81.73,82.55,81.40,82.38,2950038
8-Feb-17,81.32,81.66,80.72,81.53,2515251
7-Feb-17,80.91,81.55,80.37,81.43,4174804
6-Feb-17,80.53,81.40,80.47,80.80,3418422
3-Feb-17,81.13,81.24,80.40,80.47,3167670
2-Feb-17,81.05,81.05,80.21,80.59,3667771
1-Feb-17,81.20,81.69,80.16,81.04,5080115
31-Jan-17,81.26,81.94,81.09,81.94,3424716
30-Jan-17,82.00,82.23,81.04,81.48,5047095
27-Jan-17,81.60,82.28,80.74,81.50,4613064
26-Jan-17,81.87,82.26,81.22,81.27,2535271
25-Jan-17,81.42,82.32,81.33,82.03,5113159
24-Jan-17,81.72,81.81,80.62,81.23,4245772
23-Jan-17,81.40,82.49,81.34,81.55,3704323
20-Jan-17,84.11,84.72,81.01,81.72,11067907
19-Jan-17,84.08,84.09,83.34,83.49,2615684
18-Jan-17,84.21,84.40,83.63,84.12,2938775
17-Jan-17,83.53,84.55,83.50,84.22,3332053
13-Jan-17,83.94,84.14,83.37,83.82,2934594
12-Jan-17,84.15,84.27,83.35,83.92,3242564
11-Jan-17,83.01,85.26,83.01,84.43,6573458
10-Jan-17,82.41,83.40,82.00,82.67,3037865
9-Jan-17,82.81,82.91,81.95,82.55,3293038
6-Jan-17,83.08,83.69,82.45,83.10,3949995
5-Jan-17,82.00,83.37,80.31,83.03,7401365
4-Jan-17,83.30,83.50,82.78,82.98,4125458
3-Jan-17,83.10,83.38,82.30,82.96,4943270
30-Dec-16,83.46,83.62,82.42,82.76,3343578
29-Dec-16,83.47,83.88,83.16,83.48,3697261
28-Dec-16,84.51,84.84,83.42,83.59,4003172
27-Dec-16,84.46,85.29,84.21,84.49,2765641
23-Dec-16,84.33,84.77,83.75,84.28,2181182
22-Dec-16,85.50,102.82,83.90,84.27,3983109
21-Dec-16,86.22,86.42,85.70,85.85,2166922
20-Dec-16,87.00,87.42,85.89,86.28,4141718
19-Dec-16,86.24,86.44,85.59,86.06,3048302
16-Dec-16,86.22,87.19,85.84,86.08,7155144
15-Dec-16,85.63,86.30,85.02,85.72,3461858
14-Dec-16,87.77,88.00,85.52,85.74,5117287
13-Dec-16,86.83,87.94,86.25,87.73,3546980
12-Dec-16,85.88,86.91,85.88,86.64,2206614
9-Dec-16,84.77,86.68,84.52,86.39,3408674
8-Dec-16,85.07,85.22,83.80,84.28,3143499
7-Dec-16,84.16,85.04,84.04,84.99,4858361
6-Dec-16,84.82,85.00,84.29,84.71,2911403
5-Dec-16,85.11,85.27,84.62,85.00,2800176
2-Dec-16,84.39,85.44,83.89,85.11,3928646
1-Dec-16,84.83,85.05,83.70,84.22,4463474
30-Nov-16,85.75,85.84,84.41,84.73,5951933
29-Nov-16,85.33,86.26,84.66,85.53,3686831
28-Nov-16,84.10,85.57,84.05,85.35,3956847
25-Nov-16,84.16,84.53,84.00,84.43,1587742
23-Nov-16,83.93,84.15,83.61,84.05,2788299
22-Nov-16,84.47,84.72,83.77,83.92,3500542
21-Nov-16,83.15,84.51,83.04,84.42,3110653
18-Nov-16,83.53,83.87,82.56,83.27,5013338
17-Nov-16,83.07,84.10,82.25,83.99,3806722
16-Nov-16,83.25,83.36,82.45,83.19,3833572
15-Nov-16,81.90,83.35,81.37,83.28,6651645
14-Nov-16,81.04,81.88,80.78,81.76,4500869
11-Nov-16,80.76,81.12,79.87,81.05,3802604
10-Nov-16,82.00,82.30,79.82,80.87,5293448
9-Nov-16,79.47,82.21,79.25,81.54,7290496
8-Nov-16,78.21,80.55,77.02,80.09,12055433
7-Nov-16,81.56,81.82,81.03,81.45,4453554
4-Nov-16,80.05,81.26,80.05,80.35,7023873
3-Nov-16,82.35,82.46,80.68,80.78,4587201
2-Nov-16,81.30,82.29,81.28,81.93,9783089
1-Nov-16,81.95,82.73,81.79,82.46,5130759
31-Oct-16,81.48,82.80,81.39,82.73,4662127
28-Oct-16,80.23,81.15,79.33,81.10,7971224
27-Oct-16,82.18,82.69,81.82,82.16,2779828
26-Oct-16,81.53,82.96,81.53,82.30,3068295
25-Oct-16,83.10,83.25,82.18,82.45,3318564
24-Oct-16,81.65,83.34,81.58,83.11,4751526
21-Oct-16,80.70,81.62,80.28,81.57,4762880
20-Oct-16,78.75,81.30,78.62,81.02,11159279
19-Oct-16,78.06,78.07,76.26,77.18,5890663
18-Oct-16,78.63,78.90,77.99,78.08,3097066
17-Oct-16,79.50,79.70,77.83,78.01,3803498
14-Oct-16,78.43,78.69,77.94,78.31,2657834
13-Oct-16,77.84,78.63,77.70,78.20,3458736
12-Oct-16,78.16,78.92,77.81,78.30,3474569
11-Oct-16,79.45,79.51,77.80,78.08,5524004
10-Oct-16,80.00,80.10,79.39,79.65,2765162
7-Oct-16,80.65,80.75,79.25,79.88,2851713
6-Oct-16,80.70,80.70,79.74,80.30,3662227
5-Oct-16,80.30,80.90,80.18,80.51,2498209
4-Oct-16,80.85,81.49,80.03,80.24,3111612
3-Oct-16,80.27,80.69,80.02,80.38,2306364
30-Sep-16,79.59,80.92,79.02,80.62,4490152
29-Sep-16,80.40,80.71,78.90,79.21,3657060
28-Sep-16,81.18,81.47,80.15,80.66,3109992
27-Sep-16,80.77,81.51,80.54,80.97,2898746
26-Sep-16,81.66,81.90,80.56,80.68,2916358
23-Sep-16,82.53,82.59,82.03,82.05,2715769
22-Sep-16,81.24,82.71,80.92,82.38,6983078
21-Sep-16,80.74,80.98,79.65,80.58,4603485
20-Sep-16,80.91,81.29,80.62,80.64,2509955
19-Sep-16,81.84,81.84,80.44,80.81,3753512
16-Sep-16,80.50,81.73,80.36,81.49,8924860
15-Sep-16,80.83,81.66,80.69,81.40,5529974
14-Sep-16,81.78,82.48,80.71,80.98,4875481
13-Sep-16,83.00,83.16,81.98,82.25,3600405
12-Sep-16,82.95,83.74,82.66,83.57,4982823
9-Sep-16,83.70,84.24,82.77,82.92,6937617
8-Sep-16,84.25,85.08,82.88,84.67,9886020
7-Sep-16,81.82,83.06,81.41,82.88,3316700
6-Sep-16,82.05,82.14,81.20,81.64,3726013
2-Sep-16,81.87,82.25,81.72,82.22,2986981
1-Sep-16,81.04,81.71,80.59,81.54,3296108
31-Aug-16,80.54,80.83,80.25,80.71,3282708
30-Aug-16,80.41,80.55,79.98,80.52,2782911
29-Aug-16,79.80,80.86,79.71,80.35,3467800
26-Aug-16,80.31,80.43,78.51,79.39,6064847
25-Aug-16,81.33,81.63,79.80,80.18,4233463
24-Aug-16,82.06,82.44,81.25,81.47,3993388
23-Aug-16,83.00,83.07,82.27,82.38,1883860
22-Aug-16,82.66,83.00,82.22,82.74,2639852
19-Aug-16,82.32,82.82,82.02,82.59,2757209
18-Aug-16,82.65,82.91,82.04,82.65,2886314
17-Aug-16,82.58,82.89,81.73,82.52,3844406
16-Aug-16,83.40,83.50,82.77,82.80,3374766
15-Aug-16,83.30,83.88,82.66,83.61,3611130
12-Aug-16,82.64,83.36,82.50,83.32,3574213
11-Aug-16,82.94,83.23,82.39,82.91,6038894
10-Aug-16,81.06,82.90,81.02,82.50,8216360
9-Aug-16,80.82,81.17,80.49,80.89,3465240
8-Aug-16,80.42,80.80,80.31,80.63,3865534
5-Aug-16,80.25,81.29,79.92,80.53,3769596
4-Aug-16,79.85,80.29,79.66,79.85,3180069
3-Aug-16,79.02,80.02,78.85,79.60,3819116
2-Aug-16,79.60,80.14,78.42,78.95,3906205
1-Aug-16,78.88,79.49,78.05,79.27,4581522
29-Jul-16,79.49,79.56,78.80,79.25,3730298
28-Jul-16,79.77,79.92,79.04,79.46,3906732
27-Jul-16,80.58,80.60,79.55,79.94,9054470
26-Jul-16,81.35,82.35,81.10,81.33,3129998
25-Jul-16,81.41,81.61,80.79,81.57,3352828
22-Jul-16,82.33,82.41,81.23,81.35,3159763
21-Jul-16,82.45,82.75,81.49,81.70,2828456
20-Jul-16,82.37,82.64,82.15,82.51,4919258
19-Jul-16,83.03,83.20,81.98,82.21,4914258
18-Jul-16,82.59,83.56,82.33,82.78,3805123
15-Jul-16,84.34,84.38,82.25,82.51,6818654
14-Jul-16,82.66,84.19,82.33,83.78,7002069
13-Jul-16,81.69,82.23,81.21,81.77,4565374
12-Jul-16,81.90,82.62,81.05,81.22,5229083
11-Jul-16,81.83,82.31,81.67,82.01,3607652
8-Jul-16,81.01,81.80,80.63,81.80,5973492
7-Jul-16,81.52,81.97,80.38,80.50,5559959
6-Jul-16,82.15,82.84,80.58,81.55,10537783
5-Jul-16,82.88,84.97,82.70,83.52,7629265
1-Jul-16,83.71,83.92,82.85,83.06,4858326
30-Jun-16,83.39,83.45,82.21,83.27,5813242
29-Jun-16,80.34,83.34,80.03,83.19,7039016
28-Jun-16,79.71,79.98,78.99,79.88,4876716
27-Jun-16,80.94,81.36,79.01,79.39,6777783
24-Jun-16,81.71,82.97,81.50,81.78,10136248
23-Jun-16,84.30,85.09,83.71,85.06,4708177
22-Jun-16,82.95,83.80,82.90,83.74,4711548
21-Jun-16,83.10,83.39,82.86,83.20,3462651
20-Jun-16,83.37,84.46,82.77,82.93,5121368
17-Jun-16,83.52,83.56,81.79,82.65,5993346
16-Jun-16,82.00,83.33,81.33,83.15,3659282
15-Jun-16,84.23,84.89,83.09,83.21,5276442
14-Jun-16,83.89,84.44,82.65,84.34,6807550
13-Jun-16,82.50,84.45,82.06,84.36,8597409
10-Jun-16,78.67,83.48,78.65,82.47,10952718
9-Jun-16,79.39,79.78,78.65,79.01,2411616
8-Jun-16,78.98,79.71,78.97,79.44,2778405
7-Jun-16,79.21,79.98,79.00,79.12,2932152
6-Jun-16,78.68,79.21,78.41,78.66,2621034
3-Jun-16,79.14,79.14,78.16,78.68,2488399
2-Jun-16,78.20,79.50,78.02,79.10,4018577
1-Jun-16,77.42,78.22,77.22,78.10,3916700
31-May-16,76.94,77.59,76.65,77.40,5007493
27-May-16,77.09,77.33,76.55,77.00,3003115
26-May-16,77.46,77.53,76.74,76.78,3253871
25-May-16,77.31,77.92,77.20,77.63,4013524
24-May-16,76.72,77.65,76.71,77.15,4688705
23-May-16,77.02,77.26,76.40,76.53,3609692
20-May-16,76.34,77.53,76.30,77.22,6193182
19-May-16,76.02,76.98,75.74,76.21,3005608
18-May-16,76.49,77.02,75.85,76.54,5878341
17-May-16,77.69,77.99,76.47,76.48,7597187
16-May-16,78.41,79.23,78.01,78.87,5176204
13-May-16,79.59,80.04,78.55,78.61,4035392
12-May-16,80.37,80.57,79.68,79.87,2566925
11-May-16,80.95,80.95,79.42,80.23,5907089
10-May-16,80.97,81.25,80.65,80.92,3186823
9-May-16,79.50,81.30,79.40,80.89,6225170
6-May-16,79.00,79.50,78.24,79.43,11409807
5-May-16,81.34,81.80,81.01,81.46,2525981
4-May-16,81.04,81.72,80.84,81.49,3477932
3-May-16,79.86,81.92,79.66,81.46,5240203
2-May-16,79.10,80.79,79.02,80.56,3247756
29-Apr-16,79.58,79.76,78.28,79.28,5218507
28-Apr-16,81.11,81.38,80.16,80.34,2876623
27-Apr-16,81.47,81.97,81.05,81.56,3583113
26-Apr-16,80.82,81.40,80.37,81.31,3382875
25-Apr-16,80.02,80.40,79.71,80.39,2957408
22-Apr-16,80.54,81.11,79.72,80.14,3743086
21-Apr-16,81.05,81.49,80.52,80.56,3218824
20-Apr-16,82.09,82.18,81.07,81.13,3063439
19-Apr-16,81.27,81.96,80.70,81.84,5384908
18-Apr-16,81.18,81.47,80.86,81.25,4125966
15-Apr-16,81.77,81.83,81.12,81.44,3240314
14-Apr-16,80.99,81.36,80.76,81.26,4031185
13-Apr-16,81.95,82.00,80.82,81.08,5256404
12-Apr-16,81.26,81.70,80.90,81.31,3623969
11-Apr-16,81.72,82.14,81.02,81.15,3022997
8-Apr-16,81.56,82.06,81.18,81.37,4167143
7-Apr-16,83.38,83.54,81.20,81.30,5584035
6-Apr-16,83.34,85.10,83.12,83.69,8010293
5-Apr-16,85.77,86.00,82.55,83.36,9433903
4-Apr-16,86.64,86.79,84.82,86.31,5101270
1-Apr-16,84.24,86.84,84.02,86.70,6501064
31-Mar-16,83.83,84.47,83.70,84.24,3806773
30-Mar-16,83.50,83.86,83.03,83.63,2811076
29-Mar-16,82.92,83.06,81.94,83.02,2677755
28-Mar-16,82.33,83.22,82.06,82.79,1735869
24-Mar-16,82.24,82.34,81.72,82.33,1934369
23-Mar-16,82.82,83.05,82.08,82.34,2088670
22-Mar-16,83.16,83.34,82.26,82.80,2777827
21-Mar-16,83.86,84.06,83.49,83.55,2596374
18-Mar-16,83.76,84.58,83.06,83.94,8398477
17-Mar-16,81.41,83.44,81.41,83.30,3832560
16-Mar-16,81.21,82.22,80.94,82.10,3212093
15-Mar-16,80.91,81.82,80.90,81.32,1974838
14-Mar-16,81.12,81.86,81.00,81.52,1874226
11-Mar-16,81.44,81.58,80.82,81.41,2540858
10-Mar-16,81.60,81.85,79.47,80.66,3582147
9-Mar-16,80.94,83.10,80.63,81.60,5018368
8-Mar-16,78.94,81.45,78.71,80.39,3938451
7-Mar-16,78.88,80.03,78.61,79.15,3586747
4-Mar-16,80.00,80.09,79.04,79.45,2113345
3-Mar-16,79.36,79.98,78.33,79.92,2542503
2-Mar-16,80.30,80.49,78.63,79.46,4127949
1-Mar-16,79.92,80.55,79.52,80.35,4244175
29-Feb-16,79.35,79.93,78.79,78.94,3216483
26-Feb-16,80.00,80.05,78.87,79.57,4505437
25-Feb-16,79.48,79.94,78.56,79.92,3138238
24-Feb-16,78.05,79.43,77.91,79.43,3578927
23-Feb-16,78.47,78.94,77.70,78.73,3815642
22-Feb-16,78.40,78.88,77.75,78.80,3340399
19-Feb-16,76.44,77.59,75.95,77.57,4074426
18-Feb-16,77.50,77.99,76.44,76.55,4001219
17-Feb-16,77.19,78.24,76.63,78.16,4198065
16-Feb-16,78.20,78.20,76.17,76.55,4751847
12-Feb-16,76.59,77.11,75.84,77.08,4167495
11-Feb-16,74.85,76.12,73.88,75.53,5035598
10-Feb-16,75.66,77.50,75.00,76.01,4141072
9-Feb-16,72.55,75.69,72.14,74.93,7167476
8-Feb-16,74.18,74.18,71.50,72.91,8765122
5-Feb-16,76.59,77.39,74.79,75.20,6150333
4-Feb-16,76.76,77.33,75.11,77.19,5404087
3-Feb-16,78.43,78.70,76.05,76.81,4465353
2-Feb-16,79.09,79.29,77.71,78.00,4301196
1-Feb-16,78.89,80.71,78.32,80.07,4934869
29-Jan-16,78.58,79.74,77.14,79.72,4856945
28-Jan-16,78.85,78.93,76.62,77.61,4435747
27-Jan-16,79.98,80.46,77.97,78.45,3426136
26-Jan-16,78.80,79.80,78.80,79.44,3557156
25-Jan-16,80.62,80.94,78.56,78.71,3390817
22-Jan-16,80.63,81.09,79.61,80.84,3447707
21-Jan-16,79.45,79.92,78.53,78.98,4446509
20-Jan-16,79.20,80.22,77.00,79.45,5380164
19-Jan-16,80.92,81.64,79.86,80.70,5432627
15-Jan-16,79.48,80.75,78.95,79.93,7487530
14-Jan-16,80.00,82.74,79.78,81.87,5352912
13-Jan-16,81.83,82.19,79.62,79.93,4972239
12-Jan-16,81.58,81.98,80.81,81.82,4143791
11-Jan-16,81.77,82.35,79.86,81.02,5354945
8-Jan-16,81.88,83.00,80.92,81.05,9767884
7-Jan-16,82.40,82.40,79.03,81.17,11361954
6-Jan-16,80.54,81.26,79.43,79.63,11659237
5-Jan-16,82.79,83.08,80.83,80.87,7603141
4-Jan-16,83.70,83.77,82.12,83.05,6334633
31-Dec-15,85.92,86.04,84.78,85.16,2528739
30-Dec-15,86.82,87.00,86.34,86.39,2184620
29-Dec-15,86.41,87.05,86.22,86.82,3570549
28-Dec-15,85.99,86.40,85.42,85.84,2133441
24-Dec-15,86.36,86.95,85.93,86.46,1366994
23-Dec-15,86.31,86.50,85.71,86.05,3559111
22-Dec-15,85.01,86.34,84.23,86.01,4993105
21-Dec-15,83.01,85.02,82.71,84.89,4895823
18-Dec-15,82.73,83.44,82.14,82.51,8529876
17-Dec-15,85.11,85.32,83.29,83.34,3797594
16-Dec-15,82.93,84.96,82.46,84.71,4816421
15-Dec-15,83.40,83.96,82.04,82.11,4488949
14-Dec-15,81.80,82.89,81.15,82.56,3980305
11-Dec-15,82.08,82.89,81.03,81.71,4209063
10-Dec-15,83.43,84.02,82.75,83.42,2692669
9-Dec-15,83.05,84.00,82.36,83.34,4238554
8-Dec-15,84.26,84.89,83.44,83.66,5106051
7-Dec-15,84.46,85.13,83.93,84.87,5867049
4-Dec-15,82.02,84.73,82.00,84.62,4702652
3-Dec-15,83.59,84.19,81.75,81.94,4316056
2-Dec-15,84.04,84.10,83.03,83.31,2771744
1-Dec-15,84.43,84.69,83.36,83.99,2976130
30-Nov-15,84.10,84.52,83.77,84.03,3664414
27-Nov-15,83.46,85.20,83.46,84.18,2346588
25-Nov-15,82.93,84.00,82.90,83.40,2085297
24-Nov-15,81.13,83.12,80.60,82.93,4949449
23-Nov-15,81.62,82.40,80.60,81.91,4277544
20-Nov-15,83.53,83.53,81.65,81.83,5847316
19-Nov-15,84.55,84.73,81.85,82.83,4309751
18-Nov-15,82.97,84.82,82.76,84.58,4563077
17-Nov-15,82.16,83.74,82.02,82.97,4679913
16-Nov-15,79.00,82.09,78.90,81.84,5898642
13-Nov-15,80.18,80.85,79.04,79.17,5288815
12-Nov-15,81.67,81.94,80.15,80.40,5732617
11-Nov-15,83.71,83.86,81.70,81.82,6027676
10-Nov-15,83.83,84.79,83.26,83.53,4294252
9-Nov-15,84.27,84.37,82.44,83.48,4446967
6-Nov-15,85.70,85.92,83.76,84.67,6126696
5-Nov-15,87.67,87.70,85.64,85.95,3536336
4-Nov-15,88.36,88.49,86.06,87.48,5482850
3-Nov-15,86.44,89.15,86.01,88.23,7015231
2-Nov-15,84.30,86.65,83.32,86.55,6910857
30-Oct-15,83.87,84.97,82.51,84.68,8074484
29-Oct-15,85.36,86.76,83.77,83.88,9898328
28-Oct-15,92.04,93.00,84.44,84.95,24317947
27-Oct-15,89.20,95.74,88.96,95.16,13337571
26-Oct-15,90.13,90.31,89.18,89.48,4139415
23-Oct-15,89.50,90.16,87.84,89.96,4695354
22-Oct-15,87.88,89.26,87.85,88.63,4291421
21-Oct-15,89.09,89.19,87.73,88.04,3508611
20-Oct-15,88.46,89.56,88.38,88.74,2688092
19-Oct-15,87.82,88.55,87.77,88.46,3475078
16-Oct-15,87.77,88.20,86.71,88.14,3702899
15-Oct-15,84.76,87.32,84.37,87.26,3431853
14-Oct-15,85.02,85.40,83.46,84.03,3546960
13-Oct-15,85.67,86.44,84.97,85.14,2820397
12-Oct-15,85.19,86.25,85.12,86.21,2098774
9-Oct-15,84.27,85.53,83.75,85.37,3521334
8-Oct-15,84.12,85.60,83.55,84.28,3309289
7-Oct-15,84.90,85.00,83.34,84.44,3497957
6-Oct-15,87.08,87.87,83.64,84.10,5513857
5-Oct-15,87.72,88.52,87.11,87.96,5018905
2-Oct-15,83.32,87.16,82.72,87.11,4619372
1-Oct-15,83.57,84.77,82.60,84.63,4283867
30-Sep-15,82.82,83.28,81.99,83.10,3838740
29-Sep-15,82.75,83.85,81.45,82.06,4136068
28-Sep-15,85.03,85.45,81.96,82.63,4820872
25-Sep-15,87.13,87.82,84.81,85.32,5260995
24-Sep-15,86.52,86.83,85.03,85.75,3720534
23-Sep-15,89.34,89.34,86.52,87.44,2395545
22-Sep-15,86.68,87.71,85.98,86.71,3865590
21-Sep-15,87.08,88.44,87.02,88.25,3935871
18-Sep-15,88.73,88.77,86.20,86.49,10705059
17-Sep-15,91.10,91.10,89.24,89.68,3555969
16-Sep-15,90.90,91.03,90.28,90.91,2540100
15-Sep-15,90.45,91.24,89.42,90.92,2711446
14-Sep-15,90.66,90.76,89.90,90.17,3022930
11-Sep-15,89.01,90.46,88.75,90.40,3279636
10-Sep-15,88.52,90.13,88.52,89.38,3983078
9-Sep-15,92.07,92.07,88.69,88.94,3709566
8-Sep-15,88.67,90.17,88.45,90.09,3944534
4-Sep-15,87.01,88.00,86.43,87.43,5438986
3-Sep-15,88.35,89.24,87.93,88.26,4001710
2-Sep-15,86.98,88.06,85.92,87.83,5053206
1-Sep-15,84.34,87.13,84.20,86.04,7042633
31-Aug-15,86.85,87.13,85.94,86.55,3514395
28-Aug-15,87.27,88.05,86.40,87.42,3938302
27-Aug-15,86.28,88.30,85.92,87.85,5555265
26-Aug-15,83.68,85.59,81.08,85.41,6868737
25-Aug-15,84.02,86.99,80.86,81.00,10695636
24-Aug-15,81.89,84.95,76.01,82.27,10047843
21-Aug-15,88.63,88.95,85.52,85.61,8021862
20-Aug-15,90.22,91.16,89.72,89.77,3368397
19-Aug-15,91.25,92.27,90.79,91.41,3146648
18-Aug-15,92.55,92.70,91.53,91.94,3410255
17-Aug-15,91.69,92.74,91.34,92.70,1876735
14-Aug-15,92.28,92.91,91.81,92.10,2829927
13-Aug-15,93.44,93.66,92.33,92.54,3480704
12-Aug-15,92.34,93.71,91.64,93.36,3563906
11-Aug-15,93.38,94.10,92.41,92.95,2998023
10-Aug-15,94.21,94.44,93.58,93.95,2420879
7-Aug-15,94.71,94.71,92.05,93.28,4222237
6-Aug-15,96.67,96.88,93.65,93.73,3439546
5-Aug-15,97.03,97.30,96.29,96.68,2515962
4-Aug-15,96.10,96.11,94.80,95.67,2978235
3-Aug-15,96.12,96.30,95.06,95.91,2269259
31-Jul-15,96.65,96.97,95.92,96.63,2892782
30-Jul-15,96.30,97.03,96.11,96.54,2348717
29-Jul-15,95.64,97.27,95.58,96.58,3829103
28-Jul-15,94.76,96.51,94.40,96.22,3470768
27-Jul-15,94.86,95.44,93.71,94.38,2589343
24-Jul-15,95.61,95.93,94.88,95.11,2300895
23-Jul-15,96.86,96.87,95.20,95.48,2064694
22-Jul-15,96.73,97.02,96.09,96.64,3641924
21-Jul-15,95.56,95.85,94.96,95.66,2135521
20-Jul-15,95.23,95.91,94.68,95.65,2338330
17-Jul-15,95.66,96.02,95.12,95.75,2465198
16-Jul-15,94.95,96.22,94.39,96.09,6650953
15-Jul-15,94.33,94.68,93.47,93.95,3213741
14-Jul-15,94.76,94.80,94.03,94.33,2968986
13-Jul-15,93.81,94.90,93.01,94.48,5749650
10-Jul-15,91.76,93.79,91.30,93.11,7640529
9-Jul-15,90.00,90.24,88.00,89.55,10379388
8-Jul-15,86.71,86.99,85.41,85.91,4139398
7-Jul-15,85.61,87.61,85.45,87.25,4780629
6-Jul-15,84.93,85.85,84.73,85.39,3238309
2-Jul-15,86.09,86.28,85.64,85.81,2811741
1-Jul-15,85.08,85.86,84.85,85.77,2834910
30-Jun-15,85.19,85.44,84.36,84.44,3778828
29-Jun-15,86.01,86.16,84.26,84.28,2796999
26-Jun-15,86.80,87.09,86.07,86.77,14432234
25-Jun-15,86.12,86.97,85.95,86.36,2640536
24-Jun-15,86.86,86.95,85.81,86.15,2427639
23-Jun-15,87.94,87.96,86.83,87.09,2515744
22-Jun-15,88.88,89.24,87.62,87.75,2879179
19-Jun-15,87.82,89.38,87.64,88.52,6381937
18-Jun-15,85.91,88.21,85.89,87.80,3484311
17-Jun-15,85.99,86.06,85.15,85.62,2881796
16-Jun-15,84.44,85.94,84.25,85.88,2605805
15-Jun-15,84.68,84.95,83.89,84.42,2631398
12-Jun-15,85.51,85.70,84.92,85.06,3024225
11-Jun-15,85.67,86.20,85.50,85.79,3018902
10-Jun-15,84.53,85.81,84.37,85.49,3197752
9-Jun-15,83.60,84.62,83.30,84.17,2998542
8-Jun-15,83.73,84.11,82.92,83.26,2580228
5-Jun-15,85.04,85.61,83.81,83.89,2910516
4-Jun-15,86.11,86.37,84.72,85.25,3976236
3-Jun-15,86.37,87.11,85.67,85.82,3596144
2-Jun-15,86.31,86.94,85.77,86.33,2777042
1-Jun-15,86.17,86.34,84.70,85.98,1965861
29-May-15,85.85,86.90,85.53,85.84,2980452
28-May-15,86.34,86.74,85.53,86.05,1648547
27-May-15,85.62,86.82,85.48,86.18,2166211
26-May-15,86.56,86.71,84.85,85.55,3758078
22-May-15,86.71,86.99,86.06,86.45,2297834
21-May-15,84.75,87.18,84.51,87.14,3447357
20-May-15,85.95,85.95,84.66,84.89,2131438
19-May-15,86.07,86.38,85.53,85.84,2297533
18-May-15,86.10,86.67,85.66,86.36,2455699
15-May-15,85.77,86.56,85.50,86.47,3569655
14-May-15,84.85,85.41,84.36,85.35,2430640
13-May-15,84.24,84.99,83.69,84.07,2048418
12-May-15,83.78,84.91,83.29,84.18,2452765
11-May-15,85.13,85.46,84.20,84.25,2609163
8-May-15,84.93,85.55,84.58,85.02,2258182
7-May-15,83.09,85.23,82.80,84.23,4405486
6-May-15,83.22,83.74,82.70,83.10,2418143
5-May-15,84.01,84.27,82.87,83.14,3073975
4-May-15,83.88,84.70,83.45,84.13,2410120
1-May-15,82.53,83.70,82.53,83.46,2283206
30-Apr-15,84.00,84.50,82.64,82.93,4750193
29-Apr-15,85.34,85.84,84.24,84.57,3224450
28-Apr-15,85.84,86.16,85.42,86.08,2367006
27-Apr-15,86.69,86.69,85.63,86.12,4110226
24-Apr-15,87.16,87.20,85.83,85.98,4104098
23-Apr-15,86.89,87.27,86.24,86.69,2942187
22-Apr-15,87.04,87.21,86.60,87.02,3485234
21-Apr-15,87.28,88.25,86.91,87.09,5183805
20-Apr-15,87.51,88.22,86.87,87.12,9361073
17-Apr-15,88.46,89.59,85.86,86.96,15435452
16-Apr-15,90.94,91.29,89.07,89.52,7907099
15-Apr-15,92.00,92.66,91.25,91.54,5754515
14-Apr-15,91.40,92.57,91.09,91.98,2791556
13-Apr-15,91.72,92.74,91.30,91.71,4520513
10-Apr-15,92.14,92.50,90.25,92.02,5978565
9-Apr-15,89.50,93.42,89.40,92.62,11357081
8-Apr-15,87.04,88.43,86.89,87.68,5501444
7-Apr-15,87.60,88.25,87.11,87.28,3906974
6-Apr-15,85.26,88.10,85.24,88.01,6058163
2-Apr-15,84.41,86.11,84.12,85.97,2955231
1-Apr-15,84.72,84.90,83.66,84.26,4926242
31-Mar-15,85.69,86.06,84.67,84.68,3563605
30-Mar-15,85.47,86.22,84.52,85.99,4232192
27-Mar-15,84.47,85.74,84.00,85.29,3649520
26-Mar-15,84.51,85.88,84.36,84.44,5391449
25-Mar-15,87.81,88.20,85.47,85.88,4646429
24-Mar-15,88.00,88.58,87.38,88.00,3648222
23-Mar-15,88.22,88.64,87.65,87.92,8720139
20-Mar-15,87.48,88.81,87.42,88.23,33856235
19-Mar-15,86.98,87.98,86.77,87.36,5781794
18-Mar-15,86.14,87.49,85.48,87.18,6296118
17-Mar-15,86.51,86.63,85.83,86.26,5437896
16-Mar-15,85.01,86.89,85.00,86.77,9500366
13-Mar-15,84.25,84.33,83.29,83.72,3643562
12-Mar-15,83.13,84.40,82.78,84.25,4964274
11-Mar-15,82.39,83.09,81.01,82.51,3291836
10-Mar-15,82.70,83.28,82.32,82.72,5490163
9-Mar-15,82.19,83.55,82.12,83.50,3257548
6-Mar-15,82.58,83.55,82.06,82.35,4714831
5-Mar-15,83.45,83.60,82.89,83.20,3223623
4-Mar-15,82.79,83.26,82.30,83.02,3890465
3-Mar-15,83.43,83.43,82.58,83.21,5729878
2-Mar-15,83.24,84.05,82.60,83.62,6659660
27-Feb-15,81.28,83.77,81.07,83.08,8902525
26-Feb-15,79.90,81.83,79.64,81.65,6623566
25-Feb-15,80.25,80.41,79.64,80.01,3085015
24-Feb-15,78.33,80.79,78.24,80.39,6366249
23-Feb-15,77.37,78.87,77.28,78.59,6041311
20-Feb-15,77.09,77.22,76.36,77.13,3391520
19-Feb-15,77.79,78.33,77.02,77.10,2459360
18-Feb-15,77.59,77.93,77.04,77.79,3153179
17-Feb-15,78.38,78.50,77.87,78.00,3100389
13-Feb-15,79.65,79.89,78.57,78.73,3293788
12-Feb-15,79.17,80.62,78.94,79.96,5921879
11-Feb-15,76.80,79.94,76.71,79.53,7647935
10-Feb-15,76.31,76.73,75.64,76.69,4233352
9-Feb-15,75.64,76.47,75.62,76.40,3154347
6-Feb-15,74.81,76.75,74.43,76.15,4493310
5-Feb-15,74.94,75.10,74.48,74.79,4071552
4-Feb-15,75.25,75.54,74.21,74.67,3381679
3-Feb-15,75.12,75.24,74.31,74.79,2896226
2-Feb-15,73.06,74.98,73.00,74.89,4247395
30-Jan-15,73.52,74.48,73.43,73.75,6716423
29-Jan-15,74.40,74.58,73.16,74.57,3930936
28-Jan-15,75.55,75.55,73.59,73.77,4027727
27-Jan-15,75.11,75.82,74.79,74.93,2795703
26-Jan-15,75.76,76.10,75.38,75.84,2650373
23-Jan-15,75.95,75.95,75.20,75.59,3270018
22-Jan-15,75.97,76.21,75.13,76.02,3560237
21-Jan-15,75.52,76.45,75.06,75.59,2549701
20-Jan-15,76.08,76.49,75.31,76.05,2744470
16-Jan-15,74.47,76.12,74.40,76.03,4881908
15-Jan-15,75.92,76.10,74.61,74.78,3574971
14-Jan-15,74.94,75.42,74.26,74.99,3263201
13-Jan-15,75.20,76.29,74.11,75.26,5173169
12-Jan-15,75.80,76.19,74.84,75.70,2910663
9-Jan-15,77.31,77.54,75.61,75.67,3704248
8-Jan-15,77.30,77.94,76.86,77.55,4087169
7-Jan-15,75.05,76.69,74.96,76.60,5672058
6-Jan-15,75.97,76.00,73.94,74.69,4882715
5-Jan-15,75.08,75.90,74.27,74.50,4771744
2-Jan-15,76.11,77.19,75.09,76.00,3938482
31-Dec-14,76.49,76.74,75.01,76.20,3083697
