﻿Date,Open,High,Low,Close,Volume
20-Jun-17,53.91,53.91,52.27,52.78,495289
19-Jun-17,54.76,54.87,53.63,54.29,482584
16-Jun-17,53.36,54.84,52.77,54.40,1952578
15-Jun-17,53.05,53.61,52.54,53.08,346400
14-Jun-17,55.29,55.54,52.93,53.38,446977
13-Jun-17,55.44,55.60,54.98,55.47,298417
12-Jun-17,54.86,55.62,54.65,55.28,461333
9-Jun-17,54.16,55.00,54.13,54.63,508076
8-Jun-17,54.87,55.35,54.08,54.15,659302
7-Jun-17,55.60,56.25,54.89,55.07,611035
6-Jun-17,55.53,56.12,54.98,55.91,304249
5-Jun-17,55.16,56.12,55.10,55.71,239994
2-Jun-17,56.20,56.58,55.37,55.53,289929
1-Jun-17,55.89,56.78,55.68,56.13,207761
31-May-17,54.95,56.09,54.92,55.73,444549
30-May-17,55.04,55.80,54.80,55.22,243797
26-May-17,55.36,56.11,55.33,55.61,140635
25-May-17,56.07,56.62,55.45,55.80,238927
24-May-17,56.62,56.95,55.98,56.16,148475
23-May-17,55.82,56.73,55.81,56.54,599949
22-May-17,56.57,56.59,55.65,56.11,375809
19-May-17,55.75,56.41,55.65,56.14,325800
18-May-17,55.24,56.11,55.07,55.64,308611
17-May-17,56.39,56.72,55.42,55.64,233229
16-May-17,57.40,57.71,56.31,56.38,136625
15-May-17,58.48,58.48,56.75,57.17,212555
12-May-17,56.42,57.35,55.75,56.93,211873
11-May-17,56.39,56.48,55.95,56.15,130925
10-May-17,55.48,56.98,55.26,56.27,225126
9-May-17,55.93,56.05,54.85,55.14,161735
8-May-17,55.93,56.35,55.04,55.82,198456
5-May-17,55.48,56.23,54.92,55.80,382879
4-May-17,55.89,56.40,54.25,55.16,456860
3-May-17,57.00,57.00,55.00,56.26,791540
2-May-17,59.13,59.25,58.42,58.58,216847
1-May-17,58.99,59.35,58.69,58.99,201900
28-Apr-17,59.08,59.32,58.28,58.71,328890
27-Apr-17,59.13,59.52,58.02,58.66,820886
26-Apr-17,60.93,61.48,60.56,60.59,304664
25-Apr-17,59.97,61.10,59.93,60.98,351097
24-Apr-17,59.61,59.92,59.06,59.77,189934
21-Apr-17,59.63,59.70,58.95,59.30,209517
20-Apr-17,59.61,59.75,59.02,59.50,175709
19-Apr-17,59.76,60.02,59.26,59.38,208583
18-Apr-17,59.50,59.87,59.07,59.56,314799
17-Apr-17,59.93,60.26,59.13,59.44,233379
13-Apr-17,60.65,60.74,59.76,59.91,125240
12-Apr-17,60.81,61.31,60.41,60.78,126098
11-Apr-17,61.50,61.78,60.65,61.04,168646
10-Apr-17,61.05,61.48,60.85,61.29,224435
7-Apr-17,61.32,61.37,60.40,60.78,122773
6-Apr-17,60.39,61.67,60.36,61.33,317639
5-Apr-17,61.00,61.77,60.14,60.34,302676
4-Apr-17,60.84,61.15,60.22,60.84,266219
3-Apr-17,60.74,61.06,59.40,60.55,277105
31-Mar-17,59.90,60.55,59.55,60.45,275699
30-Mar-17,60.22,60.43,59.52,59.88,196606
29-Mar-17,59.00,60.47,58.49,59.99,282523
28-Mar-17,59.13,59.51,58.32,58.96,211844
27-Mar-17,58.72,58.98,58.21,58.77,233445
24-Mar-17,59.91,60.34,59.12,59.45,271222
23-Mar-17,60.10,60.57,59.16,59.61,240992
22-Mar-17,60.01,60.56,59.65,60.00,272018
21-Mar-17,61.04,61.04,59.15,60.31,300223
20-Mar-17,61.09,61.45,60.37,61.08,274547
17-Mar-17,59.92,61.15,59.59,60.94,1816299
16-Mar-17,60.58,60.98,59.87,59.99,319594
15-Mar-17,60.56,61.40,60.13,60.73,598585
14-Mar-17,60.00,60.83,59.39,59.85,409827
13-Mar-17,60.65,61.36,60.42,60.75,269814
10-Mar-17,62.52,62.57,60.32,60.50,306761
9-Mar-17,60.68,62.00,58.67,61.94,322645
8-Mar-17,62.88,63.08,61.02,61.26,340869
7-Mar-17,63.41,63.41,62.39,63.14,210944
6-Mar-17,62.04,63.36,61.29,63.26,217098
3-Mar-17,62.55,62.55,61.45,62.08,219974
2-Mar-17,62.61,62.72,62.07,62.07,247702
1-Mar-17,62.40,62.76,61.64,62.74,251635
28-Feb-17,61.67,62.50,61.04,62.17,313271
27-Feb-17,62.00,62.58,61.63,62.21,266835
24-Feb-17,64.17,64.17,62.22,62.79,501060
23-Feb-17,65.75,67.44,63.66,64.24,279828
22-Feb-17,65.34,66.22,64.71,65.27,593972
21-Feb-17,65.66,66.20,65.24,66.00,175722
17-Feb-17,65.10,65.42,64.69,65.04,170489
16-Feb-17,65.60,66.09,65.04,65.31,191034
15-Feb-17,65.86,66.07,65.40,65.75,236572
14-Feb-17,65.90,65.90,64.76,65.83,382494
13-Feb-17,64.99,65.63,64.04,65.58,459832
10-Feb-17,64.95,65.00,64.02,64.74,422489
9-Feb-17,63.95,64.53,63.33,64.47,262896
8-Feb-17,62.70,63.66,62.07,63.57,203720
7-Feb-17,63.42,64.14,62.80,63.32,360484
6-Feb-17,63.88,64.15,63.17,64.15,305766
3-Feb-17,63.97,64.13,63.44,63.76,198292
2-Feb-17,63.20,63.90,62.07,63.87,211061
1-Feb-17,61.78,62.72,60.75,62.70,220320
31-Jan-17,61.02,61.79,60.30,61.38,290432
30-Jan-17,63.70,63.70,61.54,61.96,282523
27-Jan-17,64.15,64.15,62.62,63.77,298242
26-Jan-17,63.13,64.50,63.13,64.38,254146
25-Jan-17,62.37,63.29,62.08,63.00,279084
24-Jan-17,60.99,62.16,60.80,61.95,195334
23-Jan-17,59.78,61.00,59.11,60.93,352049
20-Jan-17,60.05,60.46,59.43,59.96,261263
19-Jan-17,59.95,60.16,58.94,59.41,181295
18-Jan-17,59.58,60.41,59.14,59.65,292356
17-Jan-17,60.05,60.51,59.48,59.89,412590
13-Jan-17,58.88,60.03,58.88,59.63,490516
12-Jan-17,59.50,59.70,57.81,58.35,204692
11-Jan-17,59.40,59.92,58.64,59.18,241414
10-Jan-17,58.13,59.23,58.10,58.73,181441
9-Jan-17,59.81,60.15,58.74,58.92,270228
6-Jan-17,61.15,61.15,60.09,60.16,218570
5-Jan-17,61.53,61.68,60.46,60.98,305649
4-Jan-17,60.56,61.49,60.49,61.03,272664
3-Jan-17,59.41,60.43,58.88,60.40,282561
30-Dec-16,59.93,60.05,58.54,58.76,410568
29-Dec-16,60.08,60.44,59.46,60.13,174965
28-Dec-16,60.07,60.42,59.92,60.22,305614
27-Dec-16,60.03,60.28,59.74,59.98,124429
23-Dec-16,60.04,60.39,59.17,59.80,228978
22-Dec-16,58.75,60.21,58.12,59.86,322683
21-Dec-16,57.82,59.51,57.77,58.95,387971
20-Dec-16,57.15,58.07,56.78,57.71,432299
19-Dec-16,56.00,56.88,55.75,56.57,338450
16-Dec-16,55.33,56.38,54.70,55.85,810334
15-Dec-16,52.77,55.03,52.52,54.98,654951
14-Dec-16,54.38,54.83,52.75,53.43,704619
13-Dec-16,54.33,54.69,53.27,54.57,361169
12-Dec-16,54.82,54.92,53.58,53.85,318355
9-Dec-16,53.97,54.41,53.49,53.77,268664
8-Dec-16,53.72,53.94,53.09,53.71,245083
7-Dec-16,54.16,54.44,52.95,53.67,229689
6-Dec-16,54.85,55.00,53.94,54.13,170545
5-Dec-16,55.69,55.85,54.31,55.00,209893
2-Dec-16,55.59,56.60,55.16,55.43,288826
1-Dec-16,57.73,57.90,55.23,55.68,281379
30-Nov-16,56.40,57.45,55.90,57.07,429537
29-Nov-16,53.88,55.32,53.13,54.69,599389
28-Nov-16,57.19,57.19,54.92,54.99,209074
25-Nov-16,57.02,57.06,56.30,56.63,76056
23-Nov-16,55.99,57.18,55.36,57.01,121367
22-Nov-16,57.61,57.80,56.22,56.34,215316
21-Nov-16,57.84,58.51,57.14,57.47,260099
18-Nov-16,57.00,57.39,55.74,56.80,229228
17-Nov-16,57.06,57.98,56.24,56.54,238467
16-Nov-16,57.79,58.33,56.42,56.55,205837
15-Nov-16,57.65,58.41,57.18,58.09,229995
14-Nov-16,54.92,56.78,54.42,56.70,378448
11-Nov-16,56.25,56.25,54.33,54.86,275562
10-Nov-16,57.25,57.99,56.31,56.37,370391
9-Nov-16,54.93,57.63,54.93,56.92,278420
8-Nov-16,54.92,55.76,54.74,55.29,235382
7-Nov-16,55.09,55.58,54.80,55.30,214792
4-Nov-16,53.76,55.33,53.56,54.18,257888
3-Nov-16,54.72,54.96,54.40,54.62,269215
2-Nov-16,53.98,55.18,53.78,54.69,422567
1-Nov-16,55.46,55.51,54.19,54.58,239316
31-Oct-16,55.80,55.92,54.71,55.15,214217
28-Oct-16,56.48,57.54,55.86,56.22,113336
27-Oct-16,56.97,57.62,56.57,56.73,189526
26-Oct-16,58.33,58.66,57.44,57.83,229711
25-Oct-16,59.00,59.00,57.86,58.52,150157
24-Oct-16,59.69,60.03,58.46,58.94,206734
21-Oct-16,58.73,59.88,58.45,59.68,434823
20-Oct-16,58.87,59.20,58.50,58.65,243726
19-Oct-16,58.15,59.16,57.96,58.92,326407
18-Oct-16,57.36,58.13,57.05,57.98,284312
17-Oct-16,56.40,57.38,56.15,57.16,259593
14-Oct-16,56.00,56.65,55.54,56.48,238798
13-Oct-16,54.50,55.85,54.05,55.82,160300
12-Oct-16,54.21,55.33,53.52,54.90,232796
11-Oct-16,55.19,55.19,54.19,54.51,361704
10-Oct-16,55.61,56.05,54.80,55.07,158637
7-Oct-16,55.42,55.42,54.21,54.62,239469
6-Oct-16,56.00,56.11,54.19,54.65,272577
5-Oct-16,56.05,56.06,55.10,55.60,364980
4-Oct-16,55.50,56.05,54.68,55.12,450067
3-Oct-16,55.29,56.03,54.99,55.60,491676
30-Sep-16,55.11,55.24,54.35,55.05,293250
29-Sep-16,54.00,54.75,53.42,54.57,340012
28-Sep-16,52.42,54.59,52.26,53.80,488011
27-Sep-16,51.37,52.81,50.85,52.20,326991
26-Sep-16,51.96,52.45,51.33,52.06,290193
23-Sep-16,50.49,51.68,50.37,51.60,351287
22-Sep-16,50.61,50.72,50.12,50.46,264457
21-Sep-16,49.40,50.12,48.92,50.00,349382
20-Sep-16,49.28,50.24,48.91,48.91,318929
19-Sep-16,48.51,50.12,48.51,49.31,504928
16-Sep-16,47.00,48.71,46.85,48.07,947937
15-Sep-16,48.14,48.53,47.29,47.32,431937
14-Sep-16,48.29,49.60,48.00,48.11,327299
13-Sep-16,48.54,49.98,47.91,48.35,536495
12-Sep-16,48.06,49.85,47.73,49.19,622023
9-Sep-16,49.83,50.12,48.52,48.67,310840
8-Sep-16,51.25,51.90,50.32,50.42,897156
7-Sep-16,51.02,51.31,50.33,51.02,385918
6-Sep-16,51.03,51.39,50.46,50.95,331176
2-Sep-16,50.24,51.40,49.82,50.56,370346
1-Sep-16,50.06,50.06,48.75,49.99,249277
31-Aug-16,50.46,50.61,49.58,50.32,340765
30-Aug-16,51.45,51.45,49.76,50.41,251461
29-Aug-16,50.48,51.19,49.96,51.16,185210
26-Aug-16,50.43,51.01,50.24,50.55,130348
25-Aug-16,50.08,50.78,49.78,50.27,141013
24-Aug-16,49.86,50.50,49.74,50.22,276782
23-Aug-16,49.74,50.46,49.50,50.35,241991
22-Aug-16,50.06,50.41,49.58,49.79,202339
19-Aug-16,51.34,51.44,50.44,50.55,163556
18-Aug-16,51.23,51.92,50.93,51.59,248192
17-Aug-16,50.46,51.14,50.41,50.77,239903
16-Aug-16,50.59,50.92,50.22,50.75,258319
15-Aug-16,50.13,50.99,49.97,50.80,336211
12-Aug-16,48.88,50.17,48.77,49.55,311081
11-Aug-16,48.38,48.58,47.42,48.35,240508
10-Aug-16,49.44,49.44,47.61,47.89,187393
9-Aug-16,49.40,50.01,48.49,48.83,112917
8-Aug-16,49.41,49.98,48.88,49.14,183191
5-Aug-16,50.43,50.71,48.74,49.27,269163
4-Aug-16,49.43,50.66,49.03,50.45,291460
3-Aug-16,48.60,50.03,48.35,49.81,205947
2-Aug-16,49.45,49.79,47.67,48.34,258028
1-Aug-16,50.12,50.73,48.85,48.98,260271
29-Jul-16,50.98,51.27,50.00,50.95,264200
28-Jul-16,50.25,51.15,49.87,51.06,290241
27-Jul-16,49.68,52.35,49.68,51.09,474606
26-Jul-16,49.07,49.81,48.79,49.46,351513
25-Jul-16,50.39,50.46,49.02,49.26,322117
22-Jul-16,49.59,50.35,49.11,50.24,153399
21-Jul-16,50.19,50.57,49.20,49.75,152649
20-Jul-16,48.94,50.11,48.39,50.05,313761
19-Jul-16,48.75,49.10,48.51,48.94,215992
18-Jul-16,48.90,49.33,48.20,48.91,542046
15-Jul-16,49.56,49.75,48.70,49.11,172464
14-Jul-16,49.69,50.02,49.42,49.57,128968
13-Jul-16,50.23,50.29,48.64,49.31,305196
12-Jul-16,50.09,50.71,49.78,50.36,510661
11-Jul-16,50.57,51.07,49.61,49.73,262460
8-Jul-16,50.23,50.60,49.73,50.15,160291
7-Jul-16,49.65,50.63,49.15,49.74,153174
6-Jul-16,49.18,49.69,48.65,49.17,282075
5-Jul-16,49.22,50.09,48.59,49.55,263838
1-Jul-16,50.43,51.09,50.06,50.26,338694
30-Jun-16,48.83,51.93,47.93,50.40,959991
29-Jun-16,47.68,49.79,47.64,48.83,260416
28-Jun-16,47.42,48.18,46.26,47.61,361104
27-Jun-16,47.48,48.24,45.12,46.49,385385
24-Jun-16,48.23,50.51,47.55,48.28,232930
23-Jun-16,49.50,50.57,49.14,50.57,259634
22-Jun-16,49.08,49.86,48.05,49.01,313926
21-Jun-16,47.89,49.43,47.78,48.81,331140
20-Jun-16,47.83,48.90,46.63,48.08,365878
17-Jun-16,47.90,48.02,46.32,46.88,967861
16-Jun-16,47.54,47.87,46.51,47.40,349806
15-Jun-16,46.93,48.79,46.50,48.04,274713
14-Jun-16,48.26,48.44,46.66,47.12,532310
13-Jun-16,49.01,49.48,47.84,48.54,416885
10-Jun-16,50.07,50.54,49.42,49.45,316325
9-Jun-16,50.53,51.29,50.53,50.91,244332
8-Jun-16,52.04,53.08,49.81,51.23,351619
7-Jun-16,51.62,52.00,51.36,51.68,142423
6-Jun-16,50.92,51.82,50.27,51.31,224830
3-Jun-16,50.85,51.03,49.44,50.19,115399
2-Jun-16,50.01,50.92,50.01,50.64,340134
1-Jun-16,49.33,50.56,49.06,50.48,245138
31-May-16,50.55,50.94,49.30,49.83,326025
27-May-16,50.82,51.38,50.15,50.28,199366
26-May-16,53.00,53.27,50.61,51.20,399422
25-May-16,52.34,53.00,51.94,52.54,274735
24-May-16,52.20,53.12,51.60,51.90,377076
23-May-16,52.16,53.45,51.96,52.07,280904
20-May-16,51.02,53.15,50.64,52.44,348311
19-May-16,49.79,51.45,49.25,50.89,196378
18-May-16,50.84,50.95,49.78,50.28,344776
17-May-16,49.35,51.04,49.14,51.00,456258
16-May-16,49.22,49.98,48.67,49.37,279097
13-May-16,48.86,49.50,48.17,48.35,242832
12-May-16,48.51,49.44,48.14,48.91,154090
11-May-16,47.28,49.06,46.53,47.99,283706
10-May-16,48.65,49.38,47.28,47.63,464090
9-May-16,47.89,48.36,46.27,48.17,692901
6-May-16,48.63,49.70,48.02,48.23,265780
5-May-16,50.09,50.99,48.80,49.30,261888
4-May-16,46.83,50.66,46.83,49.04,589926
3-May-16,47.70,48.27,46.55,47.34,398604
2-May-16,48.85,49.39,47.56,48.65,433092
29-Apr-16,48.29,49.42,47.72,48.86,307593
28-Apr-16,48.95,49.48,47.53,47.97,262175
27-Apr-16,49.57,50.83,49.00,50.36,245167
26-Apr-16,48.02,49.98,48.02,48.73,415062
25-Apr-16,49.67,49.86,48.23,48.89,220844
22-Apr-16,49.59,50.77,49.22,49.83,268473
21-Apr-16,50.25,51.09,49.17,49.60,377004
20-Apr-16,48.55,50.29,48.25,49.92,708596
19-Apr-16,47.38,49.28,46.70,49.01,398155
18-Apr-16,44.03,47.35,43.45,46.91,258136
15-Apr-16,46.11,46.67,44.95,44.95,312831
14-Apr-16,44.38,46.47,44.36,46.34,252189
13-Apr-16,44.73,45.66,44.36,45.19,214004
12-Apr-16,43.45,45.23,43.44,44.83,281436
11-Apr-16,44.09,45.27,43.24,43.45,444633
8-Apr-16,43.71,45.00,43.01,43.72,328029
7-Apr-16,41.75,42.62,41.50,42.19,352046
6-Apr-16,40.37,42.17,40.37,41.91,336901
5-Apr-16,39.90,40.77,39.73,40.24,347029
4-Apr-16,41.86,42.54,40.26,40.50,595016
1-Apr-16,42.58,42.81,41.41,41.92,401641
31-Mar-16,42.09,43.55,42.09,43.41,384018
30-Mar-16,41.21,42.75,41.21,42.46,602435
29-Mar-16,39.14,40.89,38.61,40.68,415927
28-Mar-16,40.57,40.57,39.23,39.87,396729
24-Mar-16,39.09,41.57,38.51,40.44,517070
23-Mar-16,41.82,42.19,39.80,39.95,379457
22-Mar-16,41.72,42.88,41.70,42.32,481071
21-Mar-16,43.39,43.92,41.83,42.20,561997
18-Mar-16,44.21,45.90,42.84,43.08,1384808
17-Mar-16,42.00,43.98,41.11,43.71,789537
16-Mar-16,40.03,41.94,40.00,41.65,901420
15-Mar-16,40.73,41.05,39.57,40.02,458033
14-Mar-16,41.22,41.73,40.37,41.05,709317
11-Mar-16,41.69,42.02,41.00,41.74,730079
10-Mar-16,41.93,42.03,40.58,40.91,824199
9-Mar-16,43.21,44.06,41.33,42.50,498381
8-Mar-16,43.89,44.66,42.25,42.38,869229
7-Mar-16,41.60,44.12,41.44,44.00,809617
4-Mar-16,42.97,42.97,40.51,41.52,757179
3-Mar-16,41.29,43.36,41.29,42.22,719734
2-Mar-16,39.23,42.42,39.20,41.56,753484
1-Mar-16,39.00,39.87,37.68,39.68,1043629
29-Feb-16,38.08,39.33,37.23,39.21,934935
26-Feb-16,37.50,38.82,36.79,37.84,1364348
25-Feb-16,33.01,38.88,32.99,37.02,1627261
24-Feb-16,32.33,33.83,31.77,32.91,890657
23-Feb-16,32.76,32.76,31.93,32.57,604816
22-Feb-16,31.44,33.09,31.43,32.87,714886
19-Feb-16,32.04,32.55,29.37,30.92,1602123
18-Feb-16,32.91,33.29,31.90,32.89,1318344
17-Feb-16,31.42,32.91,30.81,32.19,1134458
16-Feb-16,30.54,30.97,29.55,30.63,1668548
12-Feb-16,27.48,29.68,26.88,29.25,674990
11-Feb-16,26.63,28.39,25.40,26.64,1581769
10-Feb-16,26.45,28.46,25.69,27.67,850472
9-Feb-16,26.79,27.23,25.61,26.72,1190890
8-Feb-16,30.98,31.00,27.38,27.43,909097
5-Feb-16,30.95,32.52,30.47,31.86,469573
4-Feb-16,30.81,31.96,30.47,31.60,629661
3-Feb-16,30.66,31.37,29.30,30.73,637935
2-Feb-16,30.35,31.61,29.31,30.30,650134
1-Feb-16,32.25,32.26,30.33,30.65,767870
29-Jan-16,33.25,33.98,32.54,32.69,1147787
28-Jan-16,32.21,33.48,31.64,32.87,763420
27-Jan-16,33.09,33.63,31.29,32.31,645943
26-Jan-16,33.34,33.82,32.06,33.46,750346
25-Jan-16,33.50,35.49,32.74,32.87,1389493
22-Jan-16,32.10,35.73,32.10,34.31,1030195
21-Jan-16,29.34,31.21,28.72,30.66,1114644
20-Jan-16,30.21,30.66,27.85,29.20,1640437
19-Jan-16,34.85,35.03,30.12,31.97,948706
15-Jan-16,37.37,37.91,34.81,35.06,824337
14-Jan-16,36.75,38.78,35.80,38.48,721922
13-Jan-16,39.10,40.13,35.00,36.25,1194979
12-Jan-16,39.93,41.30,36.64,39.07,792793
11-Jan-16,41.73,42.18,38.76,39.98,881258
8-Jan-16,42.26,42.77,41.36,41.84,489897
7-Jan-16,41.94,44.17,41.32,41.65,721431
6-Jan-16,46.38,46.68,43.09,44.10,568243
5-Jan-16,47.96,48.26,46.21,47.52,717583
4-Jan-16,47.69,48.50,46.55,48.29,651754
31-Dec-15,45.18,47.99,44.56,47.53,443721
30-Dec-15,45.20,45.96,43.60,45.23,616195
29-Dec-15,46.75,47.42,44.26,45.60,425254
28-Dec-15,45.81,46.47,43.94,46.32,411097
24-Dec-15,46.53,47.53,46.13,46.29,186660
23-Dec-15,44.03,46.72,43.76,46.56,682087
22-Dec-15,40.64,44.69,40.62,43.33,751003
21-Dec-15,40.01,40.92,38.81,40.64,889872
18-Dec-15,38.16,40.44,37.75,40.05,1119794
17-Dec-15,39.87,40.20,37.80,38.57,644322
16-Dec-15,37.44,40.84,37.02,40.22,617034
15-Dec-15,38.04,39.22,36.70,37.62,711896
14-Dec-15,40.00,40.00,37.33,37.71,669957
11-Dec-15,42.76,42.76,39.28,40.25,561506
10-Dec-15,45.03,46.24,43.13,43.35,609289
9-Dec-15,41.30,45.87,40.82,45.69,902325
8-Dec-15,40.61,42.82,40.03,41.28,692131
7-Dec-15,42.97,43.50,38.88,41.95,1034867
4-Dec-15,44.40,45.58,43.49,44.22,444384
3-Dec-15,47.26,47.71,44.47,45.05,469779
2-Dec-15,47.40,47.97,45.88,47.12,454259
1-Dec-15,48.14,48.75,47.06,47.84,317586
30-Nov-15,48.75,49.14,47.78,48.02,344514
27-Nov-15,48.68,48.97,48.02,48.63,53018
25-Nov-15,49.72,50.00,48.76,49.05,165740
24-Nov-15,48.26,49.99,48.25,49.83,175285
23-Nov-15,47.59,48.96,47.20,48.22,374177
20-Nov-15,48.60,49.15,47.23,47.90,238649
19-Nov-15,49.11,49.66,48.06,48.58,217061
18-Nov-15,48.98,50.36,48.77,49.86,235231
17-Nov-15,49.98,50.00,48.51,49.01,427994
16-Nov-15,47.16,49.77,47.00,49.67,458052
13-Nov-15,48.06,49.14,47.04,47.18,761813
12-Nov-15,48.74,49.45,47.92,48.15,384000
11-Nov-15,50.02,50.57,48.60,49.37,210422
10-Nov-15,49.07,50.48,48.74,49.88,262253
9-Nov-15,50.18,51.00,48.80,49.44,172027
6-Nov-15,51.44,52.08,50.19,50.57,369227
5-Nov-15,51.82,53.19,51.13,52.02,432557
4-Nov-15,54.00,54.24,51.76,52.33,388759
3-Nov-15,52.24,54.35,51.45,53.94,318995
2-Nov-15,51.20,52.40,50.47,51.93,402238
30-Oct-15,49.66,51.68,48.80,51.12,297359
29-Oct-15,48.00,50.47,47.23,49.63,365935
28-Oct-15,47.42,49.26,46.55,48.97,301828
27-Oct-15,48.12,48.28,46.27,47.52,330452
26-Oct-15,49.00,49.02,47.92,48.54,287343
23-Oct-15,50.02,50.48,48.68,49.31,438126
22-Oct-15,51.05,51.42,49.16,50.10,419999
21-Oct-15,52.93,53.23,51.45,51.61,234342
20-Oct-15,52.89,54.06,52.70,53.19,190847
19-Oct-15,53.39,53.84,52.81,53.26,204885
16-Oct-15,53.70,54.25,53.23,54.03,174143
15-Oct-15,53.27,53.99,52.25,53.74,144663
14-Oct-15,52.00,53.62,51.37,53.27,215741
13-Oct-15,52.65,53.40,52.13,52.14,216594
12-Oct-15,54.00,54.11,52.47,53.07,167522
9-Oct-15,53.37,54.22,52.51,53.98,205747
8-Oct-15,53.50,53.92,52.06,53.12,280201
7-Oct-15,52.48,53.67,52.11,53.50,353455
6-Oct-15,52.48,53.22,51.62,51.84,286069
5-Oct-15,51.82,53.23,51.50,52.58,351954
2-Oct-15,48.05,51.36,47.08,51.15,397228
1-Oct-15,47.51,49.28,47.16,48.76,354427
30-Sep-15,43.96,48.43,43.88,46.82,567507
29-Sep-15,45.55,47.40,44.19,44.32,581329
28-Sep-15,46.62,46.98,44.53,45.86,955011
25-Sep-15,47.76,48.27,46.85,47.25,420471
24-Sep-15,47.90,47.90,46.01,47.14,958670
23-Sep-15,49.83,50.11,47.70,48.06,297910
22-Sep-15,50.87,51.13,49.04,49.98,385721
21-Sep-15,50.40,52.02,50.01,51.32,455513
18-Sep-15,51.00,51.50,50.01,50.09,409581
17-Sep-15,52.06,52.81,51.01,51.37,197429
16-Sep-15,51.91,52.94,51.56,52.01,306645
15-Sep-15,51.39,52.16,51.16,51.50,184388
14-Sep-15,52.18,52.49,51.25,51.40,223616
11-Sep-15,53.30,53.30,52.12,52.18,293508
10-Sep-15,53.81,54.49,53.11,53.37,214556
9-Sep-15,55.42,55.91,53.61,53.67,287907
8-Sep-15,56.40,56.96,55.16,55.35,213475
4-Sep-15,56.61,57.75,56.14,56.30,155157
3-Sep-15,57.83,58.38,56.98,57.36,376477
2-Sep-15,58.17,59.25,56.28,57.48,281313
1-Sep-15,57.93,58.77,56.78,57.52,335697
31-Aug-15,58.88,60.00,57.21,58.83,248948
28-Aug-15,58.37,59.50,58.27,59.06,424392
27-Aug-15,57.20,58.92,56.05,58.45,322696
26-Aug-15,53.75,56.33,53.50,55.93,335983
25-Aug-15,54.59,54.80,53.49,53.74,509413
24-Aug-15,52.41,56.94,50.02,53.00,836855
21-Aug-15,56.80,57.30,55.10,55.12,469472
20-Aug-15,56.96,58.44,56.18,57.38,380444
19-Aug-15,57.96,58.62,55.80,57.37,426464
18-Aug-15,57.88,58.49,57.32,58.28,272827
17-Aug-15,57.59,58.57,57.20,57.80,243817
14-Aug-15,57.73,58.37,57.02,57.65,261892
13-Aug-15,58.91,59.50,57.06,57.52,271804
12-Aug-15,57.48,59.55,57.37,59.36,472666
11-Aug-15,56.74,57.60,55.86,57.53,210596
10-Aug-15,54.07,56.95,53.50,56.79,505500
7-Aug-15,54.26,56.15,53.67,54.19,263076
6-Aug-15,54.96,56.43,52.81,54.36,652391
5-Aug-15,58.22,59.00,55.00,55.01,514041
4-Aug-15,58.18,59.01,57.70,57.83,293162
3-Aug-15,57.98,58.76,56.27,58.06,531208
31-Jul-15,60.17,60.77,58.96,58.98,338729
30-Jul-15,60.31,61.07,58.56,60.30,1384638
29-Jul-15,57.68,59.66,57.20,58.68,330831
28-Jul-15,57.36,61.12,56.81,58.50,766976
27-Jul-15,57.56,58.14,56.93,57.12,265419
24-Jul-15,59.03,59.03,57.34,58.01,373341
23-Jul-15,58.26,59.38,58.15,59.00,373307
22-Jul-15,60.06,60.88,57.94,58.24,433563
21-Jul-15,60.21,61.01,59.62,60.35,276379
20-Jul-15,60.02,61.07,58.69,60.25,415743
17-Jul-15,61.62,61.98,59.22,60.36,344655
16-Jul-15,62.84,63.03,60.88,60.96,259628
15-Jul-15,64.21,64.84,62.45,62.63,234353
14-Jul-15,63.30,64.74,63.27,64.40,280643
13-Jul-15,64.72,65.16,62.98,63.43,262039
10-Jul-15,63.40,65.23,63.40,64.52,287314
9-Jul-15,63.95,64.70,63.08,63.34,254410
8-Jul-15,64.14,64.76,62.84,63.14,363847
7-Jul-15,61.48,64.83,60.92,64.50,496974
6-Jul-15,62.55,62.55,60.93,61.64,227301
2-Jul-15,62.47,63.00,62.45,62.86,244438
1-Jul-15,63.50,63.67,62.27,62.71,303423
30-Jun-15,63.91,64.35,63.09,63.37,549518
29-Jun-15,63.31,63.77,63.30,63.46,286150
26-Jun-15,63.51,63.99,63.31,63.81,415386
25-Jun-15,63.31,64.14,62.57,63.73,264139
24-Jun-15,63.01,63.65,62.86,63.42,242929
23-Jun-15,63.28,63.99,62.78,63.25,304868
22-Jun-15,63.03,64.20,62.97,63.41,311246
19-Jun-15,65.10,65.10,62.21,62.53,1427081
18-Jun-15,64.88,65.61,64.39,64.61,423192
17-Jun-15,65.58,65.95,64.62,64.89,187502
16-Jun-15,65.18,65.91,64.80,65.25,180724
15-Jun-15,64.31,65.56,64.02,65.32,201712
12-Jun-15,65.34,65.49,64.39,64.48,189489
11-Jun-15,66.24,66.49,65.22,65.72,284616
10-Jun-15,66.05,66.30,65.50,66.08,180898
9-Jun-15,65.36,65.89,64.91,65.46,159005
8-Jun-15,65.10,65.75,64.73,65.05,242831
5-Jun-15,64.98,65.61,64.35,65.30,316858
4-Jun-15,66.65,67.07,64.89,65.03,410424
3-Jun-15,67.79,68.54,67.00,67.00,146936
2-Jun-15,68.41,68.63,67.53,67.65,182744
1-Jun-15,68.32,68.97,67.85,67.97,220378
29-May-15,69.00,69.48,68.31,68.50,206264
28-May-15,68.65,68.92,68.27,68.75,110253
27-May-15,68.59,69.27,68.31,69.07,190551
26-May-15,68.85,69.60,68.31,68.72,124035
22-May-15,68.50,69.27,68.44,69.09,86966
21-May-15,68.61,69.21,68.36,69.00,115312
20-May-15,68.92,69.10,68.32,68.56,219334
19-May-15,69.94,70.05,68.81,68.92,154246
18-May-15,69.30,70.24,69.05,70.06,189344
15-May-15,68.87,69.72,68.77,69.12,181282
14-May-15,69.59,70.24,68.84,69.15,195481
13-May-15,70.31,70.57,68.56,69.10,157640
12-May-15,69.00,69.60,68.48,69.43,250776
11-May-15,69.46,70.07,69.01,69.18,273825
8-May-15,70.44,70.67,69.75,70.17,179382
7-May-15,71.36,71.36,69.76,69.88,186737
6-May-15,73.78,73.78,70.87,71.35,230857
5-May-15,71.35,72.41,70.84,71.79,258658
4-May-15,71.17,71.55,70.45,70.89,152853
1-May-15,72.68,73.47,71.13,71.54,250710
30-Apr-15,72.11,73.32,71.48,72.89,415083
29-Apr-15,71.41,74.30,71.41,71.41,1776196
28-Apr-15,71.50,72.07,71.11,72.07,316125
27-Apr-15,71.71,72.59,71.08,72.27,214780
24-Apr-15,71.42,71.88,71.13,71.75,133231
23-Apr-15,71.06,71.63,69.91,71.40,194501
22-Apr-15,70.85,71.32,70.44,70.86,156458
21-Apr-15,70.68,71.53,70.39,70.70,153000
20-Apr-15,70.48,71.73,70.47,70.70,150900
17-Apr-15,70.14,70.58,69.36,70.56,180333
16-Apr-15,68.76,70.42,68.49,70.39,162278
15-Apr-15,68.70,69.38,68.39,69.19,202080
14-Apr-15,68.04,68.90,67.53,68.66,199015
13-Apr-15,68.14,68.77,67.55,67.75,316302
10-Apr-15,68.08,68.37,67.52,68.15,253300
9-Apr-15,66.78,68.08,66.24,67.91,224744
8-Apr-15,67.06,67.37,66.03,66.74,257311
7-Apr-15,65.92,67.03,65.78,66.69,234217
6-Apr-15,66.09,66.63,65.75,66.20,168365
2-Apr-15,65.60,66.59,65.41,66.02,175177
1-Apr-15,66.06,66.59,65.39,65.46,192455
31-Mar-15,66.32,66.99,65.79,65.85,179859
30-Mar-15,66.38,67.50,66.28,66.51,149393
27-Mar-15,66.39,66.68,65.62,66.30,118481
26-Mar-15,66.71,67.25,66.53,66.62,127371
25-Mar-15,66.25,67.29,65.51,66.67,128741
24-Mar-15,66.27,66.87,65.90,66.25,162263
23-Mar-15,64.90,66.90,64.90,66.49,309633
20-Mar-15,64.98,65.48,64.58,64.94,443478
19-Mar-15,64.40,65.16,63.89,64.80,208530
18-Mar-15,64.60,65.15,63.80,64.85,431632
17-Mar-15,63.76,65.07,63.76,64.79,330067
16-Mar-15,64.95,65.28,63.87,64.15,431531
13-Mar-15,65.17,65.59,64.00,65.28,251764
12-Mar-15,67.90,67.92,65.50,65.50,302985
11-Mar-15,68.27,68.77,67.30,67.62,157152
10-Mar-15,67.90,68.93,67.70,68.31,272790
9-Mar-15,68.99,70.00,67.90,68.53,336224
6-Mar-15,68.85,69.66,68.50,69.10,207154
5-Mar-15,68.82,70.25,68.78,69.48,253282
4-Mar-15,69.72,69.77,68.28,68.91,162240
3-Mar-15,68.63,69.51,68.37,69.27,261783
2-Mar-15,69.25,69.88,68.52,68.81,216959
27-Feb-15,69.82,70.31,68.76,69.58,192087
26-Feb-15,69.80,70.09,68.78,69.51,194771
25-Feb-15,69.63,70.98,69.63,70.05,186943
24-Feb-15,70.39,70.74,69.33,69.69,286876
23-Feb-15,72.85,73.15,70.52,70.59,319539
20-Feb-15,70.90,73.08,70.48,72.91,189269
19-Feb-15,71.28,71.67,70.07,70.59,180687
18-Feb-15,71.30,72.09,71.00,71.78,242645
17-Feb-15,71.40,71.48,70.46,71.28,220702
13-Feb-15,71.95,72.10,71.14,71.50,231146
12-Feb-15,70.58,72.07,70.42,71.32,201161
11-Feb-15,70.28,70.53,69.65,69.89,155867
10-Feb-15,71.16,71.61,69.91,70.83,227967
9-Feb-15,72.67,73.05,70.75,71.10,184928
6-Feb-15,72.30,73.48,71.36,72.89,315352
5-Feb-15,72.00,72.87,71.55,72.39,261262
4-Feb-15,72.00,72.36,70.50,71.93,245017
3-Feb-15,72.05,73.47,71.95,72.54,421681
2-Feb-15,71.85,72.50,70.49,72.25,701060
30-Jan-15,69.32,72.33,68.90,70.57,388250
29-Jan-15,69.65,70.10,67.70,69.79,271983
28-Jan-15,71.00,71.00,69.56,70.43,219000
27-Jan-15,71.00,71.86,70.18,70.77,218547
26-Jan-15,71.25,72.00,70.88,71.27,223755
23-Jan-15,70.18,71.94,70.00,71.25,273652
22-Jan-15,71.65,72.41,70.61,70.62,340977
21-Jan-15,68.79,71.47,68.28,71.29,455293
20-Jan-15,67.83,69.95,66.80,68.84,346590
16-Jan-15,67.27,68.32,66.00,68.08,563440
15-Jan-15,65.36,67.27,64.32,66.99,319556
14-Jan-15,64.38,65.22,62.71,65.06,483697
13-Jan-15,67.58,68.21,64.52,65.15,323221
12-Jan-15,69.20,69.20,65.75,67.60,348133
9-Jan-15,70.00,70.33,68.10,69.45,317205
8-Jan-15,69.67,70.49,68.84,69.93,372599
7-Jan-15,70.21,70.52,68.02,68.94,340366
6-Jan-15,71.35,72.24,68.87,69.25,297116
5-Jan-15,74.00,74.00,70.43,71.34,370391
2-Jan-15,73.52,74.45,72.71,74.28,237364
31-Dec-14,72.66,74.12,72.16,73.05,332144
30-Dec-14,73.19,73.63,72.73,72.82,152129
29-Dec-14,72.57,73.84,72.26,73.16,157653
26-Dec-14,73.02,73.19,71.34,72.23,176443
24-Dec-14,73.35,73.50,72.34,73.08,65261
23-Dec-14,71.78,73.47,70.98,73.33,377182
22-Dec-14,70.81,71.94,69.92,71.83,437550
19-Dec-14,71.23,71.59,70.04,71.18,1505994
18-Dec-14,72.02,72.38,70.04,71.06,625938
17-Dec-14,67.96,70.50,67.64,70.24,687323
16-Dec-14,65.85,70.25,64.54,67.58,607269
15-Dec-14,67.73,68.87,64.36,66.04,415634
12-Dec-14,64.87,67.70,64.09,67.25,572017
11-Dec-14,64.69,67.22,64.03,66.81,357125
10-Dec-14,65.67,65.94,63.27,64.71,519839
9-Dec-14,65.50,66.92,65.05,66.58,618200
8-Dec-14,67.74,68.52,66.27,66.65,585493
5-Dec-14,70.00,70.15,67.79,68.31,569137
4-Dec-14,70.11,70.93,69.14,69.74,538090
3-Dec-14,69.00,70.21,68.67,69.55,310038
2-Dec-14,67.35,70.88,67.35,68.91,525175
1-Dec-14,69.92,70.49,65.46,68.06,825495
28-Nov-14,72.50,72.65,70.63,70.93,334915
26-Nov-14,71.92,73.83,71.30,73.77,747806
25-Nov-14,72.10,72.47,71.06,71.91,291431
24-Nov-14,72.41,72.50,71.06,71.72,263010
21-Nov-14,71.51,73.25,71.20,72.62,2038340
20-Nov-14,70.55,71.20,70.41,71.16,461566
19-Nov-14,70.53,70.90,70.43,70.90,526588
18-Nov-14,70.24,70.80,70.22,70.74,459414
17-Nov-14,69.99,70.66,69.41,70.56,475559
14-Nov-14,67.91,69.99,67.91,69.98,430135
13-Nov-14,68.89,69.60,68.14,68.38,526335
12-Nov-14,67.91,69.13,67.50,68.96,405348
11-Nov-14,69.50,69.74,67.47,68.38,387607
10-Nov-14,69.74,69.74,68.56,69.22,273542
7-Nov-14,68.48,69.47,68.48,69.45,427639
6-Nov-14,68.80,69.18,68.04,68.85,318012
5-Nov-14,67.94,69.25,67.51,68.91,395808
4-Nov-14,69.02,69.23,67.29,68.10,727842
3-Nov-14,70.06,70.39,69.28,69.96,738171
31-Oct-14,69.92,70.01,69.50,69.90,1126228
30-Oct-14,69.82,70.14,68.86,69.80,6605832
29-Oct-14,74.29,75.00,72.12,73.11,388112
28-Oct-14,73.27,74.04,72.38,73.96,202901
27-Oct-14,72.33,73.12,71.46,72.95,262298
24-Oct-14,73.81,75.00,72.57,72.77,103658
23-Oct-14,73.50,74.44,72.96,73.69,318595
22-Oct-14,73.44,73.98,72.60,72.76,333406
21-Oct-14,72.26,73.64,71.36,73.29,295613
20-Oct-14,71.37,72.35,70.50,71.97,171978
17-Oct-14,71.12,72.41,69.28,71.04,289108
16-Oct-14,67.32,73.45,66.07,70.84,515956
15-Oct-14,66.38,68.82,63.39,68.46,581246
14-Oct-14,65.75,66.67,60.09,66.41,793731
13-Oct-14,69.42,70.60,65.77,65.84,260584
10-Oct-14,70.37,71.57,66.18,69.69,387822
9-Oct-14,72.26,72.91,70.09,70.48,186766
8-Oct-14,71.91,72.18,69.84,71.88,183935
7-Oct-14,73.04,73.67,72.05,72.21,91227
6-Oct-14,74.30,74.50,73.40,73.49,78632
3-Oct-14,74.30,74.71,73.68,74.22,138564
2-Oct-14,73.01,74.32,72.15,74.14,242725
1-Oct-14,75.04,75.29,73.03,73.26,166030
30-Sep-14,74.25,75.45,72.98,75.00,243027
29-Sep-14,73.50,74.48,73.10,74.32,169960
26-Sep-14,73.89,74.49,72.48,74.17,262283
25-Sep-14,74.02,74.14,72.95,73.40,395401
24-Sep-14,73.06,74.16,72.19,74.04,154103
23-Sep-14,73.27,73.93,72.71,73.27,222662
22-Sep-14,74.71,74.78,72.85,73.07,350543
19-Sep-14,75.00,75.63,74.63,74.89,355246
18-Sep-14,75.10,75.19,74.02,75.02,154550
17-Sep-14,74.67,75.18,74.34,75.06,166936
16-Sep-14,74.14,75.13,73.64,74.85,104552
15-Sep-14,74.12,74.48,73.05,74.15,248520
12-Sep-14,75.99,76.75,73.73,74.30,215713
11-Sep-14,76.21,76.36,75.21,76.04,87930
10-Sep-14,76.98,76.98,75.80,76.63,68728
9-Sep-14,76.89,76.95,76.19,76.85,109916
8-Sep-14,76.30,77.00,76.22,76.81,54911
5-Sep-14,76.29,76.53,75.38,76.52,62247
4-Sep-14,76.37,76.56,75.86,76.19,97780
3-Sep-14,76.77,77.16,75.73,76.27,117890
2-Sep-14,77.20,78.04,76.43,76.50,191892
29-Aug-14,76.68,77.95,76.14,77.49,139236
28-Aug-14,76.25,77.27,76.25,77.00,114986
27-Aug-14,77.00,77.83,76.91,77.19,122521
26-Aug-14,77.00,77.76,76.56,77.35,90156
25-Aug-14,76.46,77.91,75.69,77.21,204692
22-Aug-14,77.25,77.25,76.12,76.22,146373
21-Aug-14,77.72,78.03,76.36,77.09,160237
20-Aug-14,77.50,77.97,76.87,77.52,132408
19-Aug-14,78.45,78.86,77.21,77.40,82861
18-Aug-14,78.04,78.48,77.13,78.17,102524
15-Aug-14,76.90,77.97,76.63,77.55,103866
14-Aug-14,76.15,76.88,75.57,76.61,108688
13-Aug-14,74.92,76.73,74.35,75.84,144879
12-Aug-14,74.02,75.00,73.28,74.46,80594
11-Aug-14,71.85,74.16,71.85,73.89,183667
8-Aug-14,71.46,72.18,71.19,71.57,152557
7-Aug-14,72.54,73.57,71.15,71.70,119275
6-Aug-14,73.48,73.98,71.78,72.57,124623
5-Aug-14,75.60,75.60,73.11,73.70,136299
4-Aug-14,73.14,75.94,72.52,75.64,251161
1-Aug-14,74.00,74.00,72.31,73.31,161534
31-Jul-14,75.62,75.62,73.64,74.11,174211
30-Jul-14,76.84,76.84,74.50,75.83,196820
29-Jul-14,76.57,77.29,75.98,76.47,152828
28-Jul-14,76.87,77.02,76.38,76.98,153715
25-Jul-14,77.16,77.36,76.44,77.14,85713
24-Jul-14,77.38,78.08,77.10,77.17,116555
23-Jul-14,77.47,77.98,76.84,77.39,108713
22-Jul-14,77.70,78.30,76.88,77.20,104011
21-Jul-14,78.61,78.61,77.29,77.49,81158
18-Jul-14,78.81,79.81,78.44,78.60,116044
17-Jul-14,78.29,79.16,77.66,78.88,106210
16-Jul-14,76.11,78.33,75.68,78.29,285682
15-Jul-14,75.54,76.40,75.13,76.11,74316
14-Jul-14,75.81,76.57,75.50,75.70,97129
11-Jul-14,75.19,75.85,74.83,75.76,136874
10-Jul-14,74.52,75.48,74.30,75.27,94339
9-Jul-14,74.03,75.47,73.85,75.16,118245
8-Jul-14,73.79,74.69,73.68,74.01,98845
7-Jul-14,74.57,74.68,73.43,74.05,132633
3-Jul-14,75.41,75.41,74.36,74.65,152944
2-Jul-14,76.20,76.20,75.00,75.38,231887
1-Jul-14,76.73,76.77,76.08,76.40,291229
30-Jun-14,76.07,76.51,75.60,76.48,175181
27-Jun-14,75.85,76.57,75.62,75.92,158289
26-Jun-14,75.64,75.95,75.34,75.88,121404
25-Jun-14,75.21,75.74,75.07,75.58,115367
24-Jun-14,74.53,75.45,74.42,75.25,187374
23-Jun-14,73.63,74.92,73.43,74.43,288638
20-Jun-14,72.97,73.80,72.71,73.42,496957
19-Jun-14,73.18,73.66,72.61,73.18,188369
18-Jun-14,73.04,73.42,72.10,73.30,352478
17-Jun-14,73.67,73.67,72.97,73.33,136253
16-Jun-14,74.10,74.11,73.29,73.57,233840
13-Jun-14,73.47,74.28,73.01,74.08,95485
12-Jun-14,74.13,74.37,72.75,73.40,104540
11-Jun-14,74.67,74.88,74.14,74.15,97306
10-Jun-14,74.99,75.04,74.29,74.86,179094
9-Jun-14,74.50,75.07,74.23,74.83,427042
6-Jun-14,73.33,74.71,72.87,74.41,559603
5-Jun-14,73.13,73.45,72.51,73.00,97791
4-Jun-14,72.45,73.17,72.45,72.80,96685
3-Jun-14,72.54,72.82,72.30,72.52,147020
2-Jun-14,72.25,72.62,71.92,72.54,127355
30-May-14,71.53,72.11,70.91,71.99,165342
29-May-14,71.38,72.16,70.90,71.65,82001
28-May-14,70.98,71.35,70.91,71.28,173959
27-May-14,71.17,71.60,70.74,71.17,70975
23-May-14,71.49,71.49,70.98,71.13,89509
22-May-14,71.16,71.54,71.14,71.37,87172
21-May-14,71.38,72.16,71.24,71.32,76314
20-May-14,71.70,71.92,71.14,71.56,76895
19-May-14,71.84,72.15,71.23,71.57,102519
16-May-14,71.62,72.10,71.22,71.91,106897
15-May-14,71.10,71.82,70.55,71.39,90440
14-May-14,70.48,70.98,70.05,70.91,77425
13-May-14,71.32,72.00,70.55,70.72,78443
12-May-14,70.33,71.06,70.11,70.95,71029
9-May-14,70.15,70.48,69.74,70.10,82426
8-May-14,70.29,70.84,69.68,70.00,272003
7-May-14,67.57,71.07,67.20,70.58,159667
6-May-14,69.59,69.88,68.84,68.90,168090
5-May-14,68.06,69.88,67.93,69.77,103351
2-May-14,68.07,68.43,67.77,68.17,111479
1-May-14,67.66,69.39,67.66,68.15,106573
30-Apr-14,68.05,68.73,67.29,68.00,84105
29-Apr-14,68.24,69.14,67.76,68.11,306997
28-Apr-14,67.37,68.22,67.22,68.03,170552
25-Apr-14,68.56,68.68,67.09,67.70,227656
24-Apr-14,69.28,69.54,68.56,68.85,120957
23-Apr-14,68.86,69.16,68.30,69.01,114366
22-Apr-14,68.06,68.75,68.06,68.72,109297
21-Apr-14,67.75,68.32,67.55,68.32,78735
17-Apr-14,67.62,67.98,66.95,67.44,115016
16-Apr-14,67.83,67.83,66.68,67.24,113106
15-Apr-14,68.35,68.43,66.81,67.46,152105
14-Apr-14,67.69,68.82,67.69,68.14,116881
11-Apr-14,65.99,67.82,65.69,67.76,232990
10-Apr-14,65.80,66.91,65.55,65.91,140279
9-Apr-14,66.09,66.37,65.65,65.98,109326
8-Apr-14,66.05,66.38,65.51,66.08,135577
7-Apr-14,66.77,67.27,65.98,66.07,211879
4-Apr-14,68.77,68.84,66.50,66.64,238513
3-Apr-14,68.27,68.56,67.12,68.31,140461
2-Apr-14,67.20,68.00,66.63,67.90,197167
1-Apr-14,66.20,67.54,66.17,67.45,210084
31-Mar-14,66.00,66.50,65.35,66.19,142519
28-Mar-14,65.55,65.95,64.98,65.94,107879
27-Mar-14,65.17,65.90,64.54,65.55,110891
26-Mar-14,64.83,65.50,64.61,65.07,74725
25-Mar-14,64.47,65.12,63.97,64.84,161415
24-Mar-14,64.84,65.44,63.13,64.43,228748
21-Mar-14,65.25,65.65,64.50,64.54,541081
20-Mar-14,63.83,65.05,63.32,64.96,260557
19-Mar-14,65.03,65.03,63.79,64.17,198497
18-Mar-14,65.51,65.51,64.59,64.84,147137
17-Mar-14,64.53,65.33,63.77,65.33,177743
14-Mar-14,64.32,65.62,64.01,64.55,101861
13-Mar-14,64.90,65.20,63.86,64.32,152879
12-Mar-14,64.68,65.19,64.15,65.03,91505
11-Mar-14,64.69,65.31,64.41,64.83,190807
10-Mar-14,64.51,64.94,63.92,64.78,143907
7-Mar-14,64.18,64.64,64.09,64.39,147596
6-Mar-14,63.74,64.65,63.42,64.20,232803
5-Mar-14,63.93,64.41,63.59,63.93,124725
4-Mar-14,64.55,64.86,63.69,63.74,295788
3-Mar-14,63.44,64.97,63.31,64.50,290173
28-Feb-14,62.10,64.28,61.33,63.29,398196
27-Feb-14,62.44,62.44,61.90,62.08,306031
26-Feb-14,61.95,62.42,61.44,62.26,172233
25-Feb-14,61.86,62.37,61.44,62.05,163857
24-Feb-14,61.33,62.11,61.13,61.69,134745
21-Feb-14,61.61,61.77,61.11,61.51,118090
20-Feb-14,62.37,62.37,61.20,61.50,233226
19-Feb-14,62.67,63.14,62.43,62.53,170714
18-Feb-14,62.18,63.34,62.01,62.94,169490
14-Feb-14,62.09,62.74,61.97,62.56,242651
13-Feb-14,61.72,62.41,61.11,61.99,206574
12-Feb-14,61.80,61.93,61.55,61.86,141490
11-Feb-14,61.14,61.80,60.86,61.62,174611
10-Feb-14,60.96,61.42,60.44,61.27,169772
7-Feb-14,60.04,61.10,59.46,60.87,208529
6-Feb-14,59.36,60.16,59.24,59.80,204402
5-Feb-14,59.45,59.67,58.50,59.26,140376
4-Feb-14,59.84,60.24,59.40,59.46,249086
3-Feb-14,59.55,59.98,59.13,59.85,227162
31-Jan-14,59.41,60.09,58.86,59.46,186475
30-Jan-14,59.64,60.60,59.64,59.79,79595
29-Jan-14,59.63,60.60,59.09,59.70,175939
28-Jan-14,60.37,61.18,60.04,60.15,171092
27-Jan-14,60.17,60.84,59.49,60.14,149823
24-Jan-14,60.35,60.73,59.65,60.23,84454
23-Jan-14,60.19,60.86,60.12,60.53,186618
22-Jan-14,60.42,60.64,60.10,60.59,131300
21-Jan-14,60.02,60.26,59.77,60.18,84896
17-Jan-14,60.16,60.41,59.82,59.98,153771
16-Jan-14,60.41,60.67,59.93,60.37,91687
15-Jan-14,61.53,61.53,60.22,60.55,78775
14-Jan-14,59.98,61.58,59.64,61.23,228542
13-Jan-14,59.54,60.42,59.48,60.02,215883
10-Jan-14,59.88,60.02,59.48,59.86,176472
9-Jan-14,59.91,60.13,59.37,59.97,128702
8-Jan-14,60.19,60.47,59.42,59.89,251820
7-Jan-14,60.29,60.49,59.80,60.45,181369
6-Jan-14,60.62,60.93,60.01,60.42,109379
3-Jan-14,61.35,61.56,60.46,60.76,173543
2-Jan-14,61.88,61.88,61.14,61.29,230981
31-Dec-13,61.79,62.39,61.65,61.69,314523
30-Dec-13,60.50,61.61,60.32,61.60,373361
27-Dec-13,60.08,60.92,59.96,60.86,170572
26-Dec-13,60.23,60.81,60.23,60.33,138848
24-Dec-13,60.30,60.99,60.25,60.48,144864
23-Dec-13,60.04,60.89,59.10,60.55,319327
20-Dec-13,59.73,60.28,59.64,60.15,773435
19-Dec-13,58.21,59.48,58.21,59.48,262966
18-Dec-13,58.18,58.96,57.70,58.83,345356
17-Dec-13,58.71,59.19,57.90,58.19,406584
16-Dec-13,59.52,60.11,58.74,58.84,201993
13-Dec-13,59.87,60.49,58.61,59.23,638591
12-Dec-13,60.33,60.54,59.93,60.21,181731
11-Dec-13,60.77,60.99,59.75,60.10,366730
10-Dec-13,59.70,60.47,59.66,60.32,252969
9-Dec-13,59.88,60.30,59.27,59.72,472562
6-Dec-13,60.66,60.66,59.75,59.88,461107
5-Dec-13,60.60,60.71,60.20,60.38,425612
4-Dec-13,60.48,60.48,59.72,60.31,469234
3-Dec-13,60.71,60.99,60.38,60.52,4438443
2-Dec-13,63.98,64.07,63.07,63.41,82074
29-Nov-13,63.35,63.98,63.35,63.68,16395
27-Nov-13,63.54,63.92,63.29,63.35,80717
26-Nov-13,62.80,63.95,62.80,63.70,131991
25-Nov-13,63.00,63.45,62.63,62.94,84982
22-Nov-13,61.53,63.10,61.22,62.77,402873
21-Nov-13,61.03,62.35,60.91,61.68,150349
20-Nov-13,61.43,61.64,60.43,60.99,130488
19-Nov-13,61.75,61.96,60.97,61.27,92342
18-Nov-13,62.17,62.30,61.65,61.88,92921
15-Nov-13,61.07,62.30,60.68,62.00,104066
14-Nov-13,60.17,61.59,60.10,61.20,140597
13-Nov-13,60.07,60.50,59.46,60.36,116003
12-Nov-13,60.60,60.60,59.74,60.10,80943
11-Nov-13,60.25,60.80,59.99,60.38,59651
8-Nov-13,60.39,60.72,58.93,60.34,131540
7-Nov-13,59.46,61.20,59.46,60.32,420995
6-Nov-13,59.55,59.72,58.56,59.34,116660
5-Nov-13,59.29,59.99,58.89,59.22,173699
4-Nov-13,58.63,59.35,57.71,59.22,131942
1-Nov-13,60.16,60.82,58.65,58.74,135889
31-Oct-13,60.20,60.45,59.70,60.11,150778
30-Oct-13,59.73,60.43,59.37,59.94,125708
29-Oct-13,59.67,60.56,58.90,59.50,156475
28-Oct-13,61.38,61.50,60.19,60.29,169553
25-Oct-13,60.86,61.50,60.55,61.23,138924
24-Oct-13,60.61,61.15,60.58,60.86,87422
23-Oct-13,61.16,61.47,60.53,60.74,52042
22-Oct-13,61.08,61.61,60.69,61.35,92870
21-Oct-13,60.75,61.10,60.44,60.78,121993
18-Oct-13,60.58,60.99,60.33,60.54,95320
17-Oct-13,59.31,60.51,58.47,60.25,64552
16-Oct-13,59.05,59.72,58.63,59.21,82825
15-Oct-13,59.46,60.07,58.98,59.01,84537
14-Oct-13,59.00,60.33,58.65,59.71,166051
11-Oct-13,58.43,59.43,58.24,58.94,61466
10-Oct-13,58.67,59.41,58.30,58.57,114895
9-Oct-13,58.20,59.02,57.54,58.24,80421
8-Oct-13,58.58,58.86,58.21,58.28,110289
7-Oct-13,58.97,59.70,58.35,58.47,122994
4-Oct-13,59.59,60.06,58.85,59.35,61358
3-Oct-13,60.78,60.78,59.61,59.68,159351
2-Oct-13,60.07,60.85,60.02,60.62,104683
1-Oct-13,60.00,61.21,59.36,60.68,90959
30-Sep-13,59.29,60.13,58.79,60.13,192577
27-Sep-13,59.32,59.47,58.44,59.37,227552
26-Sep-13,57.31,59.55,57.27,59.42,326492
25-Sep-13,57.66,57.66,56.63,57.31,144168
24-Sep-13,57.44,58.41,56.92,57.89,138683
23-Sep-13,58.79,58.79,56.67,57.60,148242
20-Sep-13,59.18,59.79,58.63,58.70,480049
19-Sep-13,57.36,59.85,57.36,59.46,234958
18-Sep-13,55.62,57.73,55.20,57.11,238937
17-Sep-13,56.51,57.26,54.58,55.95,462135
16-Sep-13,58.42,58.61,56.55,56.73,182648
13-Sep-13,59.14,59.34,57.10,58.16,288004
12-Sep-13,59.72,60.49,59.18,59.28,124300
11-Sep-13,60.17,60.74,59.24,59.97,73600
10-Sep-13,60.93,61.55,60.46,60.58,156058
9-Sep-13,59.08,60.91,58.48,60.78,165089
6-Sep-13,58.86,59.08,58.44,58.77,139586
5-Sep-13,57.28,58.72,57.25,58.49,62617
4-Sep-13,59.06,59.06,57.01,57.46,100272
3-Sep-13,59.61,59.87,57.72,58.31,98113
30-Aug-13,60.83,61.23,58.62,59.14,258884
29-Aug-13,61.05,61.50,60.81,61.05,133697
28-Aug-13,60.44,61.62,59.91,61.20,66571
27-Aug-13,59.52,60.65,59.45,60.65,92241
26-Aug-13,61.26,61.50,60.06,60.25,108020
23-Aug-13,61.20,61.54,61.10,61.44,75074
22-Aug-13,60.71,61.53,60.60,61.30,106226
21-Aug-13,60.75,61.01,60.25,60.44,102759
20-Aug-13,59.32,60.84,59.00,60.71,104360
19-Aug-13,59.63,60.40,59.59,59.65,102393
16-Aug-13,59.57,60.23,59.31,59.82,108803
15-Aug-13,59.28,60.24,58.19,59.79,106638
14-Aug-13,59.84,60.26,59.51,60.01,118231
13-Aug-13,60.63,60.77,59.50,60.10,107410
12-Aug-13,61.29,61.60,60.24,60.38,93177
9-Aug-13,61.16,61.78,60.59,61.27,52237
8-Aug-13,61.14,61.36,60.56,61.04,90650
7-Aug-13,62.09,62.19,60.00,61.04,142980
6-Aug-13,61.89,62.75,61.77,62.57,106755
5-Aug-13,62.34,62.95,61.49,62.27,95626
2-Aug-13,62.96,62.96,61.55,62.20,175976
1-Aug-13,61.28,63.27,61.22,63.11,179277
31-Jul-13,60.87,61.61,60.63,61.60,85551
30-Jul-13,61.00,61.56,60.55,60.92,139489
29-Jul-13,61.81,62.00,60.62,60.88,76983
26-Jul-13,61.07,62.20,60.33,62.13,175835
25-Jul-13,61.00,61.49,60.78,61.15,100005
24-Jul-13,62.08,62.52,60.44,61.16,176886
23-Jul-13,62.81,63.51,62.01,62.21,115334
22-Jul-13,62.47,63.34,62.01,62.86,86264
19-Jul-13,62.56,63.06,62.02,62.32,86784
18-Jul-13,63.29,64.53,62.55,62.81,305396
17-Jul-13,62.66,63.42,62.53,63.29,92834
16-Jul-13,64.51,64.95,62.55,62.69,278568
15-Jul-13,63.89,64.93,63.62,64.87,146440
12-Jul-13,63.27,64.15,63.21,64.10,118824
11-Jul-13,62.65,63.56,62.62,63.44,148372
10-Jul-13,62.31,62.78,61.85,62.41,212551
9-Jul-13,61.93,62.89,61.77,62.56,236609
8-Jul-13,61.59,62.08,61.23,61.88,176594
5-Jul-13,61.67,61.72,61.25,61.59,104178
3-Jul-13,62.31,62.64,61.19,61.64,129004
2-Jul-13,62.70,63.83,61.77,62.80,229964
1-Jul-13,63.98,65.16,63.20,63.65,343819
28-Jun-13,64.80,65.11,64.30,64.89,215484
27-Jun-13,64.22,65.08,64.09,64.95,279814
26-Jun-13,61.34,64.08,61.19,63.97,263967
25-Jun-13,60.48,61.44,60.24,61.39,264456
24-Jun-13,60.41,61.78,58.56,60.93,252404
21-Jun-13,61.49,62.22,59.93,61.02,913597
20-Jun-13,62.74,63.23,60.47,61.09,249748
19-Jun-13,63.34,63.42,62.75,62.99,239132
18-Jun-13,62.00,63.25,61.74,63.25,321249
17-Jun-13,62.18,62.48,61.60,62.00,264721
14-Jun-13,60.54,62.22,60.54,61.84,224175
13-Jun-13,60.16,61.16,59.59,60.90,112833
12-Jun-13,59.75,60.41,59.25,60.38,186603
11-Jun-13,59.36,60.10,58.77,59.36,104968
10-Jun-13,59.72,59.96,58.87,59.87,92356
7-Jun-13,58.35,59.44,58.06,59.35,85590
6-Jun-13,57.70,58.14,56.83,58.10,206242
5-Jun-13,58.07,58.29,57.64,57.70,180159
4-Jun-13,58.91,59.57,58.36,58.39,245721
3-Jun-13,58.99,59.45,57.58,59.02,234290
31-May-13,59.57,59.64,58.78,58.83,149925
30-May-13,60.97,60.97,59.00,59.65,328840
29-May-13,62.12,62.12,60.59,60.95,261818
28-May-13,61.50,62.20,61.29,62.20,397292
24-May-13,61.07,61.47,60.56,61.35,155363
23-May-13,60.71,61.13,60.25,61.06,297886
22-May-13,61.43,61.75,61.28,61.74,431209
21-May-13,61.23,61.49,61.12,61.43,462933
20-May-13,61.10,61.25,60.95,61.24,363654
17-May-13,61.14,61.39,61.00,61.20,361365
16-May-13,61.05,61.15,60.90,61.01,302876
15-May-13,61.12,61.23,60.28,61.12,800063
14-May-13,60.95,61.19,60.75,61.00,3745995
13-May-13,62.65,63.39,62.00,63.24,80406
10-May-13,62.71,63.57,62.26,62.78,160949
9-May-13,62.35,62.83,61.97,62.49,106958
8-May-13,61.00,62.37,61.00,62.30,158630
7-May-13,60.02,61.00,59.92,60.96,93026
6-May-13,60.08,60.32,59.58,60.18,130426
3-May-13,59.72,60.75,59.13,59.73,120498
2-May-13,59.46,60.27,58.76,59.64,167661
1-May-13,60.12,60.74,59.17,59.46,163417
30-Apr-13,59.39,60.68,58.77,60.46,290892
29-Apr-13,58.56,59.53,58.20,59.27,85455
26-Apr-13,57.93,58.78,57.51,58.15,86908
25-Apr-13,59.22,59.57,58.35,58.64,285974
24-Apr-13,58.51,59.70,58.47,58.82,164522
23-Apr-13,57.92,58.82,57.91,58.41,135220
22-Apr-13,58.48,58.80,57.93,57.93,79669
19-Apr-13,57.82,58.62,57.82,58.10,82100
18-Apr-13,57.41,58.29,57.21,57.87,133696
17-Apr-13,57.31,57.97,57.01,57.33,57776
16-Apr-13,57.15,58.48,56.96,57.78,81558
15-Apr-13,57.20,57.22,56.50,56.66,104527
12-Apr-13,57.42,57.63,57.00,57.36,112533
11-Apr-13,57.80,58.00,57.04,57.86,85472
10-Apr-13,58.29,58.38,57.52,57.61,170653
9-Apr-13,57.53,58.25,57.36,57.92,122500
8-Apr-13,56.59,58.05,56.38,57.21,184294
5-Apr-13,55.89,56.93,55.57,56.40,119292
4-Apr-13,56.44,56.96,56.25,56.63,77453
3-Apr-13,57.94,58.30,56.21,56.44,171107
2-Apr-13,58.03,58.68,57.85,58.03,177391
1-Apr-13,59.20,59.69,58.26,58.43,80572
28-Mar-13,59.24,59.67,58.55,59.41,112284
27-Mar-13,58.86,59.23,57.99,59.04,113268
26-Mar-13,58.73,59.53,58.25,58.91,64285
25-Mar-13,58.50,58.85,58.14,58.47,92495
22-Mar-13,57.86,59.81,57.36,58.14,197693
21-Mar-13,57.05,58.25,56.89,57.92,167080
20-Mar-13,56.11,57.91,56.11,56.99,119851
19-Mar-13,56.18,56.37,55.49,56.07,155608
18-Mar-13,55.85,56.42,55.55,55.93,147975
15-Mar-13,56.80,57.06,56.26,56.39,339984
14-Mar-13,56.70,57.10,56.34,56.75,116514
13-Mar-13,56.64,57.14,56.31,56.55,143968
12-Mar-13,57.29,57.82,56.33,56.68,161246
11-Mar-13,57.92,57.92,57.07,57.23,115313
8-Mar-13,56.44,58.06,56.08,57.91,296575
7-Mar-13,54.81,56.29,54.73,56.25,157413
6-Mar-13,56.08,56.19,54.19,54.81,227482
5-Mar-13,54.36,55.88,53.87,55.80,217506
4-Mar-13,55.20,55.48,54.09,54.32,187232
1-Mar-13,54.58,54.88,53.95,54.84,309020
28-Feb-13,53.55,55.44,53.55,54.84,267884
27-Feb-13,54.92,55.50,54.06,54.58,285130
26-Feb-13,55.33,55.66,54.83,55.13,115538
25-Feb-13,55.83,56.46,55.05,55.33,213930
22-Feb-13,56.34,56.34,55.29,55.40,128111
21-Feb-13,56.64,56.71,54.74,56.08,295791
20-Feb-13,57.69,58.16,56.95,57.04,261690
19-Feb-13,57.00,57.87,56.95,57.69,168204
15-Feb-13,56.83,57.89,56.57,56.90,162170
14-Feb-13,56.75,57.19,56.51,56.87,189641
13-Feb-13,56.75,57.24,56.27,56.78,133557
12-Feb-13,55.54,56.92,55.31,56.47,266923
11-Feb-13,55.05,55.64,54.92,55.27,64976
8-Feb-13,55.06,55.28,54.82,55.03,62964
7-Feb-13,54.98,55.35,54.42,54.95,116747
6-Feb-13,54.70,55.28,54.41,54.82,178025
5-Feb-13,54.63,54.80,53.90,54.80,106000
4-Feb-13,54.16,54.30,53.42,54.27,128051
1-Feb-13,52.58,54.32,52.12,54.28,233419
31-Jan-13,51.94,52.60,51.94,52.57,128420
30-Jan-13,51.99,52.43,51.61,51.92,125023
29-Jan-13,51.89,52.25,51.47,52.14,104775
28-Jan-13,51.17,51.74,51.02,51.74,172292
25-Jan-13,50.50,51.25,50.38,51.03,152066
24-Jan-13,50.74,51.11,50.06,50.36,162741
23-Jan-13,50.92,51.19,50.43,50.60,154914
22-Jan-13,50.02,50.75,49.90,50.62,206014
18-Jan-13,49.62,50.36,49.60,50.16,136757
17-Jan-13,49.78,49.86,49.54,49.70,176594
16-Jan-13,49.75,49.80,49.50,49.74,87192
15-Jan-13,49.70,49.87,49.45,49.80,146893
14-Jan-13,49.43,49.77,49.43,49.70,108853
11-Jan-13,49.82,49.82,49.01,49.56,113243
10-Jan-13,49.51,49.98,49.30,49.67,117994
9-Jan-13,50.01,50.03,49.25,49.38,129941
8-Jan-13,50.02,50.28,49.50,49.91,139263
7-Jan-13,49.71,50.45,49.60,49.91,142037
4-Jan-13,50.13,50.26,49.52,49.62,173856
3-Jan-13,49.11,50.27,48.84,49.89,221834
2-Jan-13,46.82,49.28,46.82,49.09,319252
31-Dec-12,45.78,47.75,45.57,47.63,207447
28-Dec-12,46.00,46.22,45.65,45.78,255437
27-Dec-12,46.72,46.72,45.37,46.09,214792
26-Dec-12,46.92,47.26,46.25,46.55,218572
24-Dec-12,48.51,48.54,46.82,46.82,143260
21-Dec-12,48.30,49.00,48.16,48.66,507350
20-Dec-12,48.00,49.00,47.58,48.85,269490
19-Dec-12,46.76,47.98,46.76,47.90,308936
18-Dec-12,46.30,47.23,45.79,46.76,181399
17-Dec-12,46.30,46.47,46.06,46.29,109459
14-Dec-12,45.96,46.50,45.83,46.30,218160
13-Dec-12,46.33,46.35,45.66,46.10,391055
12-Dec-12,47.18,47.18,46.08,46.32,395116
11-Dec-12,47.06,47.24,46.74,47.19,169464
10-Dec-12,47.21,47.80,46.76,47.10,173405
7-Dec-12,46.76,47.49,46.75,47.43,354689
6-Dec-12,46.80,47.33,46.61,46.67,302263
5-Dec-12,46.93,47.38,46.57,46.89,237412
4-Dec-12,48.45,48.45,47.30,47.30,149826
3-Dec-12,49.11,49.11,48.21,48.42,160806
30-Nov-12,48.93,49.13,48.45,48.96,137180
29-Nov-12,49.31,49.56,48.83,49.00,120491
28-Nov-12,48.89,49.47,48.57,49.34,253372
27-Nov-12,49.38,49.73,49.04,49.10,148852
26-Nov-12,49.50,49.93,48.68,49.20,103280
23-Nov-12,49.21,49.93,49.12,49.44,26491
21-Nov-12,49.41,49.59,48.60,49.21,110398
20-Nov-12,49.72,49.86,48.93,49.45,111443
19-Nov-12,48.67,49.84,48.67,49.57,113742
16-Nov-12,46.12,49.05,45.87,48.39,232879
15-Nov-12,46.29,46.85,45.10,46.30,535490
14-Nov-12,48.56,48.92,46.41,46.99,308774
13-Nov-12,48.38,49.49,48.10,48.47,206852
12-Nov-12,48.98,49.23,47.56,48.26,171234
9-Nov-12,47.99,49.34,46.61,48.92,301931
8-Nov-12,49.79,50.39,48.62,48.73,276068
7-Nov-12,50.23,50.78,49.50,50.33,156530
6-Nov-12,50.88,51.08,50.05,50.87,315246
5-Nov-12,51.14,51.40,50.59,50.92,100337
2-Nov-12,51.17,51.79,51.17,51.43,94362
1-Nov-12,51.01,51.44,50.54,51.17,108727
31-Oct-12,51.38,51.70,50.50,50.98,99857
26-Oct-12,52.03,52.11,51.21,51.50,86842
25-Oct-12,52.07,52.35,51.53,52.16,54568
24-Oct-12,51.77,52.39,51.34,51.98,101282
23-Oct-12,52.00,52.58,51.02,51.77,141845
22-Oct-12,51.41,52.94,51.41,51.86,92847
19-Oct-12,52.78,52.96,51.34,51.86,105950
18-Oct-12,53.05,53.05,52.50,52.62,95118
17-Oct-12,52.00,53.17,51.98,52.94,131874
16-Oct-12,51.48,52.30,51.45,52.13,90163
15-Oct-12,51.41,51.85,51.24,51.47,70127
12-Oct-12,51.93,51.95,51.13,51.25,105671
11-Oct-12,52.06,52.28,51.77,51.83,106860
10-Oct-12,51.87,52.09,51.58,51.79,122366
9-Oct-12,52.17,52.64,51.88,51.95,117594
8-Oct-12,51.44,52.01,50.67,52.00,169559
5-Oct-12,52.00,52.57,51.65,52.24,161075
4-Oct-12,51.85,52.03,51.17,51.78,194750
3-Oct-12,51.39,51.72,50.86,51.52,274590
2-Oct-12,51.75,51.95,50.92,51.30,176241
1-Oct-12,50.76,51.88,50.42,51.45,189090
28-Sep-12,50.79,50.79,49.55,50.41,187830
27-Sep-12,50.05,50.95,49.91,50.74,85847
26-Sep-12,49.53,50.01,49.29,49.97,211964
25-Sep-12,50.88,51.06,49.68,49.79,197990
24-Sep-12,50.74,50.78,49.99,50.63,236462
21-Sep-12,50.63,51.28,50.60,50.88,412353
20-Sep-12,50.31,51.15,50.31,50.75,187919
19-Sep-12,50.24,50.60,49.93,50.48,94580
18-Sep-12,49.59,50.24,49.48,50.03,142428
17-Sep-12,50.23,50.23,49.69,49.87,84627
14-Sep-12,49.26,50.26,49.26,49.99,239440
13-Sep-12,49.21,49.45,48.89,49.11,174312
12-Sep-12,49.07,49.70,48.69,49.11,222631
11-Sep-12,48.41,49.17,48.32,48.58,220388
10-Sep-12,48.89,49.22,48.55,48.72,137868
7-Sep-12,47.78,48.48,47.60,48.46,130051
6-Sep-12,47.30,47.91,47.30,47.90,163657
5-Sep-12,47.65,47.85,47.26,47.31,269280
4-Sep-12,47.78,47.90,47.40,47.75,123769
31-Aug-12,47.35,47.75,47.33,47.75,62557
30-Aug-12,47.14,47.52,47.02,47.35,94186
29-Aug-12,46.85,47.40,46.78,47.33,69266
28-Aug-12,46.86,47.17,46.54,47.00,158500
27-Aug-12,46.43,46.95,46.31,46.75,92146
24-Aug-12,46.20,46.49,45.97,46.35,119423
23-Aug-12,46.79,46.98,45.94,46.36,153847
22-Aug-12,46.66,46.94,46.47,46.74,95335
21-Aug-12,46.84,47.09,46.48,46.68,129114
20-Aug-12,46.69,46.85,46.44,46.70,114963
17-Aug-12,46.58,46.86,46.53,46.86,77054
16-Aug-12,46.41,46.83,46.29,46.60,68613
15-Aug-12,45.92,46.83,45.89,46.47,135625
14-Aug-12,45.87,46.27,45.70,46.03,122943
13-Aug-12,45.80,45.80,45.26,45.63,141584
10-Aug-12,45.24,45.70,45.04,45.40,81985
9-Aug-12,45.49,45.65,45.09,45.44,83180
8-Aug-12,45.31,45.68,45.25,45.44,85332
7-Aug-12,45.65,45.69,45.31,45.54,88981
6-Aug-12,44.98,45.62,44.94,45.40,130381
3-Aug-12,45.20,45.73,44.92,45.05,252573
2-Aug-12,44.93,45.45,44.90,45.13,146036
1-Aug-12,45.27,45.80,44.94,45.37,227837
31-Jul-12,44.85,45.50,44.85,44.95,162492
30-Jul-12,44.80,45.20,44.74,45.10,222273
27-Jul-12,44.57,45.04,44.38,44.84,134379
26-Jul-12,45.22,45.22,44.30,45.08,187422
25-Jul-12,45.43,45.48,44.85,44.90,169116
24-Jul-12,45.25,45.42,45.17,45.34,158492
23-Jul-12,45.33,45.50,44.83,45.40,91599
20-Jul-12,44.84,45.62,44.84,45.55,211216
19-Jul-12,44.96,45.10,44.81,45.10,160703
18-Jul-12,44.64,44.97,44.64,44.93,209321
17-Jul-12,44.63,44.90,44.22,44.89,229062
16-Jul-12,44.40,44.58,44.00,44.55,169593
13-Jul-12,43.61,44.44,43.57,44.39,226525
12-Jul-12,43.88,43.90,43.32,43.61,175409
11-Jul-12,43.89,44.00,43.47,43.92,182231
10-Jul-12,43.73,43.96,43.73,43.90,140601
9-Jul-12,43.89,44.00,43.50,43.85,156152
6-Jul-12,43.69,44.00,43.41,43.95,150559
5-Jul-12,43.90,43.93,43.50,43.93,223392
3-Jul-12,43.88,43.90,43.29,43.89,196176
2-Jul-12,43.65,43.88,43.33,43.88,274232
29-Jun-12,43.60,43.66,43.27,43.63,283413
28-Jun-12,43.22,43.42,42.58,43.42,195076
27-Jun-12,42.55,43.16,42.30,43.16,285040
26-Jun-12,41.77,42.78,41.25,42.47,264654
25-Jun-12,43.00,43.13,41.15,41.68,849633
22-Jun-12,43.00,43.24,43.00,43.02,265461
21-Jun-12,43.40,43.50,43.00,43.00,711123
20-Jun-12,43.15,43.40,43.10,43.37,541439
19-Jun-12,43.45,43.54,43.06,43.15,5262390
18-Jun-12,45.16,45.93,44.76,45.40,390411
15-Jun-12,44.73,46.00,44.47,45.30,392396
14-Jun-12,44.89,44.98,44.24,44.72,120289
13-Jun-12,44.57,44.82,44.04,44.57,195233
12-Jun-12,44.30,44.69,44.01,44.47,288167
11-Jun-12,43.84,44.33,43.19,43.82,125940
8-Jun-12,43.53,44.12,42.82,43.50,116371
7-Jun-12,43.32,43.43,42.68,43.16,142667
6-Jun-12,43.12,43.62,42.58,42.82,342505
5-Jun-12,41.73,42.72,41.54,42.66,209232
4-Jun-12,42.23,42.90,41.91,42.00,297445
1-Jun-12,43.78,44.07,42.24,42.46,381847
31-May-12,44.29,44.35,44.00,44.09,171938
30-May-12,44.21,44.94,44.03,44.15,232142
29-May-12,44.31,44.77,44.14,44.38,286209
25-May-12,44.15,44.40,43.75,44.28,125744
24-May-12,43.94,44.25,43.63,43.95,104427
23-May-12,43.91,44.34,43.48,43.89,170796
22-May-12,44.31,45.00,43.88,44.22,216837
21-May-12,43.83,44.66,43.70,44.43,192799
18-May-12,44.34,44.84,43.08,44.00,190197
17-May-12,44.11,44.58,44.01,44.27,179104
16-May-12,44.65,44.77,44.12,44.32,125585
15-May-12,44.93,45.23,44.30,44.64,158406
14-May-12,44.89,45.60,44.53,45.04,144248
11-May-12,44.93,45.45,44.93,45.19,105973
10-May-12,44.73,45.43,44.47,45.30,133079
9-May-12,45.00,45.42,44.50,45.03,153861
8-May-12,45.01,45.40,44.37,45.24,103152
7-May-12,46.00,46.00,45.02,45.34,212317
4-May-12,45.96,46.41,45.71,45.98,153229
3-May-12,47.20,47.40,45.70,46.25,94842
2-May-12,46.82,47.15,46.50,46.95,53402
1-May-12,47.00,47.50,46.48,46.98,139590
30-Apr-12,46.34,47.00,46.21,46.76,218127
27-Apr-12,46.45,46.79,46.02,46.49,109118
26-Apr-12,44.99,46.78,44.94,46.38,160653
25-Apr-12,46.12,46.35,45.55,45.69,88835
24-Apr-12,46.17,46.50,45.50,45.83,85530
23-Apr-12,45.53,46.46,45.42,45.97,131567
20-Apr-12,46.20,47.31,45.55,45.92,231582
19-Apr-12,45.14,45.95,45.01,45.89,102505
18-Apr-12,44.74,45.21,44.55,45.00,105406
17-Apr-12,44.50,45.55,44.10,44.86,288638
16-Apr-12,44.40,44.40,43.50,43.90,135211
13-Apr-12,43.75,44.29,43.26,44.11,311033
12-Apr-12,44.21,44.89,43.69,43.79,278248
11-Apr-12,43.45,44.99,43.13,44.03,285997
10-Apr-12,45.40,45.55,42.96,43.25,349851
9-Apr-12,44.96,45.45,44.38,45.39,158851
5-Apr-12,44.95,45.60,44.84,45.30,164086
4-Apr-12,45.41,45.63,44.82,45.17,128186
3-Apr-12,45.14,45.92,45.05,45.57,180163
2-Apr-12,46.02,46.23,45.05,45.39,191847
30-Mar-12,45.70,46.56,45.11,46.15,144795
29-Mar-12,45.76,45.98,44.80,45.64,295460
28-Mar-12,46.79,46.87,45.59,46.08,183920
27-Mar-12,47.35,47.56,46.70,46.77,200104
26-Mar-12,47.93,47.93,47.03,47.25,165748
23-Mar-12,47.55,47.97,47.00,47.55,207382
22-Mar-12,46.77,47.36,46.50,47.30,257629
21-Mar-12,45.98,47.48,45.55,46.79,470196
20-Mar-12,44.45,45.50,44.31,45.37,140403
19-Mar-12,44.29,45.18,44.26,44.71,168777
16-Mar-12,45.00,45.50,43.74,44.51,413224
15-Mar-12,45.34,45.59,44.66,45.02,247550
14-Mar-12,46.00,46.39,45.15,45.41,137101
13-Mar-12,46.50,46.61,45.90,46.18,121587
12-Mar-12,46.50,46.60,45.86,46.55,123167
9-Mar-12,45.78,46.75,45.47,46.62,209481
8-Mar-12,44.93,45.56,44.64,45.49,188928
7-Mar-12,44.36,45.19,44.18,44.71,282122
6-Mar-12,45.27,45.27,43.71,44.30,240503
5-Mar-12,45.64,45.76,45.00,45.30,152708
2-Mar-12,46.24,46.25,45.65,45.84,173127
1-Mar-12,45.97,46.25,45.31,46.12,197416
29-Feb-12,45.94,46.27,45.48,45.79,191350
28-Feb-12,45.58,46.00,45.17,45.56,244318
27-Feb-12,44.69,45.80,44.69,45.32,221122
24-Feb-12,44.36,45.00,44.33,44.91,164594
23-Feb-12,44.46,44.98,44.05,44.58,198239
22-Feb-12,44.87,44.99,44.17,44.55,234287
21-Feb-12,45.47,45.71,44.45,44.93,146763
17-Feb-12,45.45,45.78,44.65,45.18,217723
16-Feb-12,44.18,45.88,43.86,45.30,480660
15-Feb-12,43.18,44.38,42.68,44.15,461812
14-Feb-12,43.09,43.29,42.60,42.90,160797
13-Feb-12,43.36,43.69,42.69,42.97,172523
10-Feb-12,42.91,43.32,42.60,43.00,245815
9-Feb-12,42.17,43.45,41.53,43.13,280506
8-Feb-12,42.30,42.91,41.95,42.02,172463
7-Feb-12,41.99,42.39,41.81,42.18,104902
6-Feb-12,41.50,41.99,41.32,41.93,100123
3-Feb-12,41.34,41.99,41.25,41.67,112083
2-Feb-12,41.00,41.60,40.95,41.16,141815
1-Feb-12,40.87,41.93,40.70,41.07,170335
31-Jan-12,40.38,40.91,40.01,40.87,168621
30-Jan-12,40.33,40.58,40.03,40.35,171280
27-Jan-12,41.38,41.53,40.96,41.12,162913
26-Jan-12,41.66,42.03,41.15,41.29,114011
25-Jan-12,40.98,41.74,40.98,41.34,122392
24-Jan-12,40.57,41.25,40.44,41.00,178838
23-Jan-12,39.97,40.88,39.97,40.56,154521
20-Jan-12,39.75,40.23,39.68,40.20,180939
19-Jan-12,39.30,40.44,39.27,39.68,294882
18-Jan-12,39.21,39.40,39.15,39.37,160843
17-Jan-12,39.50,39.50,39.00,39.28,235751
13-Jan-12,39.32,39.71,38.99,39.18,358645
12-Jan-12,40.73,40.73,38.94,39.58,415294
11-Jan-12,41.10,41.16,40.11,40.56,237666
10-Jan-12,41.60,41.76,40.53,41.05,214855
9-Jan-12,41.04,41.46,40.83,41.38,109457
6-Jan-12,42.53,42.53,41.00,41.20,346733
5-Jan-12,41.87,42.52,41.84,42.37,189509
4-Jan-12,41.62,42.09,41.55,42.09,186484
3-Jan-12,41.65,42.04,41.45,41.77,164122
30-Dec-11,41.15,41.34,41.15,41.27,111246
29-Dec-11,40.73,41.24,40.60,41.08,178719
28-Dec-11,40.71,40.89,40.44,40.83,115567
27-Dec-11,40.52,40.99,40.52,40.84,96193
23-Dec-11,40.03,40.78,40.03,40.53,107416
22-Dec-11,40.51,40.76,39.95,40.03,228088
21-Dec-11,40.86,40.86,40.06,40.51,224942
20-Dec-11,40.75,40.89,40.36,40.68,245136
19-Dec-11,39.19,40.52,39.19,40.43,292147
16-Dec-11,38.57,39.53,38.18,39.53,559900
15-Dec-11,38.25,38.39,38.01,38.18,117166
14-Dec-11,38.32,38.45,38.01,38.14,100787
13-Dec-11,38.32,38.65,38.26,38.54,164630
12-Dec-11,38.00,38.41,37.79,38.31,82847
9-Dec-11,38.48,38.63,38.08,38.20,227792
8-Dec-11,38.61,39.11,38.33,38.38,195796
7-Dec-11,39.06,39.11,38.70,38.86,102259
6-Dec-11,38.65,39.16,38.47,39.11,287493
5-Dec-11,38.79,39.01,38.44,38.80,202010
2-Dec-11,38.45,38.96,37.94,38.44,268229
1-Dec-11,37.56,38.18,37.47,38.13,153529
30-Nov-11,37.87,37.99,37.47,37.68,192724
29-Nov-11,37.44,37.65,37.21,37.56,225168
28-Nov-11,37.05,37.45,37.05,37.36,205386
25-Nov-11,36.40,36.95,36.36,36.69,59255
23-Nov-11,36.37,36.52,36.20,36.38,131562
22-Nov-11,36.20,36.69,36.20,36.47,171732
21-Nov-11,36.10,36.37,36.00,36.30,166411
18-Nov-11,36.50,36.52,36.06,36.38,248246
17-Nov-11,36.20,36.50,36.06,36.37,234638
16-Nov-11,35.97,36.24,35.90,36.00,131623
15-Nov-11,36.00,36.25,35.90,36.05,235470
14-Nov-11,36.20,36.28,36.00,36.18,202572
11-Nov-11,35.96,36.20,35.76,36.19,364089
10-Nov-11,35.38,35.71,34.93,35.70,235917
9-Nov-11,34.96,35.51,34.89,34.97,105347
8-Nov-11,35.78,35.78,35.11,35.54,136963
7-Nov-11,36.33,36.33,35.61,35.69,204488
4-Nov-11,35.22,35.83,35.21,35.83,114205
3-Nov-11,35.19,35.40,34.68,35.27,176020
2-Nov-11,34.25,35.35,34.25,34.98,122615
1-Nov-11,34.93,35.24,34.08,34.19,171575
31-Oct-11,35.17,35.71,34.97,35.20,99777
28-Oct-11,35.19,35.59,34.75,35.51,117843
27-Oct-11,35.78,35.80,35.21,35.31,207988
26-Oct-11,35.55,35.87,35.47,35.76,241616
25-Oct-11,35.80,36.00,35.40,35.43,250818
24-Oct-11,35.60,35.96,35.56,35.75,197399
21-Oct-11,35.71,35.71,35.25,35.56,191948
20-Oct-11,35.22,35.64,34.98,35.57,106860
19-Oct-11,35.44,35.96,35.22,35.31,224884
18-Oct-11,35.39,35.66,34.88,35.61,162853
17-Oct-11,35.90,36.06,35.08,35.26,235706
14-Oct-11,35.64,35.92,35.14,35.89,199070
13-Oct-11,34.20,35.40,34.20,35.40,240159
12-Oct-11,34.62,34.95,34.50,34.71,152786
11-Oct-11,33.95,34.60,33.95,34.59,141437
10-Oct-11,33.84,34.21,33.69,34.05,158081
7-Oct-11,33.95,33.95,33.44,33.49,269050
6-Oct-11,33.73,33.99,32.98,33.90,239684
5-Oct-11,32.79,33.41,32.33,33.34,192825
4-Oct-11,32.62,32.75,31.40,32.63,447496
3-Oct-11,33.62,33.99,32.83,33.04,312428
30-Sep-11,33.84,34.04,33.56,33.77,151124
29-Sep-11,34.61,34.65,33.89,34.10,190130
28-Sep-11,35.00,35.21,34.12,34.20,216344
27-Sep-11,34.94,35.57,34.85,35.04,193521
26-Sep-11,34.51,34.63,33.81,34.34,293957
23-Sep-11,34.72,35.22,34.33,34.39,197651
22-Sep-11,35.18,35.18,34.35,34.77,428809
21-Sep-11,35.90,36.03,35.69,35.90,771616
20-Sep-11,35.52,36.30,35.43,35.90,3331135
19-Sep-11,36.10,37.43,36.00,37.06,232823
16-Sep-11,36.72,36.88,36.06,36.46,154838
15-Sep-11,36.65,36.81,36.27,36.79,93436
14-Sep-11,36.71,36.71,36.00,36.33,88167
13-Sep-11,36.46,36.64,36.23,36.46,97818
12-Sep-11,35.82,36.64,35.50,36.53,122171
9-Sep-11,36.22,36.46,35.66,36.17,89322
8-Sep-11,36.34,36.58,36.02,36.35,116921
7-Sep-11,36.19,36.57,36.18,36.47,132176
6-Sep-11,35.69,36.15,35.30,35.97,152766
2-Sep-11,36.06,36.28,35.88,36.16,188348
1-Sep-11,36.49,36.54,36.10,36.41,147794
31-Aug-11,35.91,36.42,35.84,36.32,135839
30-Aug-11,35.18,35.99,35.18,35.65,134365
29-Aug-11,35.31,35.39,35.15,35.30,155540
26-Aug-11,34.44,35.11,34.19,34.93,126000
25-Aug-11,34.63,34.90,33.87,34.49,214909
24-Aug-11,33.58,34.68,33.45,34.55,171865
23-Aug-11,32.71,33.75,32.31,33.71,193810
22-Aug-11,34.16,34.51,32.46,32.71,242645
19-Aug-11,34.00,34.48,33.44,33.55,332994
18-Aug-11,34.57,34.58,34.09,34.35,268371
17-Aug-11,34.73,35.18,34.66,34.96,151531
16-Aug-11,34.27,34.58,34.00,34.50,135014
15-Aug-11,34.30,34.73,34.30,34.59,291518
12-Aug-11,35.27,35.39,33.80,33.90,449361
11-Aug-11,34.60,35.25,34.14,34.71,316705
10-Aug-11,34.15,35.88,33.79,34.49,388781
9-Aug-11,31.88,34.31,31.80,34.30,225976
8-Aug-11,31.83,33.82,31.02,31.70,503560
5-Aug-11,34.15,34.22,30.75,33.27,584885
4-Aug-11,34.05,34.99,33.83,34.01,247880
3-Aug-11,35.22,35.37,34.18,35.01,153276
2-Aug-11,35.06,35.45,34.68,34.98,125162
1-Aug-11,35.31,35.77,34.90,35.09,127722
29-Jul-11,34.43,35.09,33.96,35.01,139180
28-Jul-11,34.40,34.96,34.28,34.67,173447
27-Jul-11,35.00,35.10,34.20,34.51,173226
26-Jul-11,35.94,35.98,35.30,35.40,188202
25-Jul-11,35.87,36.08,35.68,35.94,106855
22-Jul-11,36.23,36.39,36.04,36.17,115560
21-Jul-11,36.05,36.39,35.77,36.07,118290
20-Jul-11,36.37,36.37,35.72,35.84,78288
19-Jul-11,36.08,36.41,35.89,36.22,68407
18-Jul-11,36.14,36.15,35.70,35.84,37426
15-Jul-11,35.36,36.29,35.22,36.08,96029
14-Jul-11,36.03,36.12,35.14,35.40,123997
13-Jul-11,35.92,36.29,35.76,35.87,66870
12-Jul-11,35.65,35.99,35.40,35.96,106366
11-Jul-11,36.32,36.42,35.58,35.79,95859
8-Jul-11,35.99,36.37,35.92,36.37,95122
7-Jul-11,36.35,36.49,35.98,36.15,166827
6-Jul-11,36.05,36.65,36.00,36.20,111230
5-Jul-11,35.59,36.16,35.46,36.16,228378
1-Jul-11,35.51,35.65,35.27,35.44,96847
30-Jun-11,35.67,35.72,35.13,35.54,79827
29-Jun-11,35.40,35.65,35.05,35.56,62969
28-Jun-11,35.15,35.41,34.82,35.40,105294
27-Jun-11,34.86,35.33,34.68,34.97,88236
24-Jun-11,34.86,35.25,34.86,35.05,76230
23-Jun-11,34.71,34.96,34.20,34.87,110678
22-Jun-11,35.09,35.31,34.95,35.06,165457
21-Jun-11,34.75,35.18,34.75,35.03,216729
20-Jun-11,34.28,34.58,34.00,34.56,76589
17-Jun-11,35.11,35.41,34.23,34.30,246370
16-Jun-11,35.66,35.82,34.72,35.07,113646
15-Jun-11,35.70,35.85,35.25,35.73,83668
14-Jun-11,35.60,35.95,35.50,35.88,103222
13-Jun-11,35.88,36.10,35.12,35.46,83245
10-Jun-11,34.75,35.95,34.59,35.91,224294
9-Jun-11,34.31,34.88,34.06,34.82,188717
8-Jun-11,34.00,34.42,33.83,34.10,77247
7-Jun-11,34.16,34.30,33.93,34.04,95489
6-Jun-11,34.76,34.76,34.14,34.14,75806
3-Jun-11,34.22,34.81,34.22,34.78,146389
2-Jun-11,34.30,34.66,34.25,34.53,232619
1-Jun-11,34.83,34.96,34.26,34.32,328711
31-May-11,35.46,35.54,34.54,34.94,158848
27-May-11,35.74,35.74,35.11,35.39,95059
26-May-11,35.42,35.81,35.01,35.55,71385
25-May-11,35.02,35.69,34.72,35.50,118306
24-May-11,35.61,35.95,35.04,35.13,112456
23-May-11,35.33,35.46,35.00,35.36,114388
20-May-11,35.43,35.87,35.18,35.72,68646
19-May-11,35.09,35.48,35.02,35.36,116815
18-May-11,34.17,35.13,34.03,35.12,141229
17-May-11,35.15,35.35,33.91,33.93,383693
16-May-11,35.78,35.84,35.01,35.31,173909
13-May-11,35.95,36.46,35.50,35.78,253709
12-May-11,35.80,35.95,35.06,35.72,123933
11-May-11,36.43,36.43,35.66,35.95,118798
10-May-11,36.39,36.55,36.25,36.45,85422
9-May-11,36.49,36.67,36.06,36.28,128256
6-May-11,36.25,36.66,36.14,36.40,125870
5-May-11,34.61,36.01,34.51,35.94,234071
4-May-11,36.00,36.33,34.77,35.61,264839
3-May-11,36.55,36.57,35.55,35.93,213433
2-May-11,36.95,37.06,36.31,36.61,346384
29-Apr-11,36.56,37.48,36.51,36.70,237716
28-Apr-11,36.02,36.49,35.66,36.39,95268
27-Apr-11,35.95,36.19,35.74,36.14,78856
26-Apr-11,36.64,36.73,36.44,36.50,124857
25-Apr-11,36.00,36.66,35.93,36.50,138189
21-Apr-11,35.94,36.00,35.60,36.00,156495
20-Apr-11,35.63,35.97,35.63,35.76,143046
19-Apr-11,35.41,35.53,35.18,35.40,92781
18-Apr-11,35.46,35.46,35.00,35.21,96135
15-Apr-11,35.26,35.50,35.21,35.38,137993
14-Apr-11,34.87,35.34,34.60,35.26,141424
13-Apr-11,34.96,35.12,34.76,34.99,133155
12-Apr-11,35.13,35.13,34.17,34.96,383263
11-Apr-11,35.32,35.34,35.02,35.09,97444
8-Apr-11,35.38,35.44,35.13,35.25,90070
7-Apr-11,35.24,35.38,35.09,35.38,98288
6-Apr-11,35.48,35.49,35.15,35.16,151821
5-Apr-11,35.17,35.37,35.15,35.32,96961
4-Apr-11,35.22,35.44,35.00,35.32,130882
1-Apr-11,35.09,35.44,34.94,35.17,126277
31-Mar-11,35.11,35.50,34.66,34.93,237110
30-Mar-11,35.01,35.35,34.93,35.22,225394
29-Mar-11,34.96,35.10,34.66,35.00,151962
28-Mar-11,34.85,35.10,34.85,35.00,196583
25-Mar-11,34.34,34.91,34.30,34.85,127643
24-Mar-11,34.84,35.00,34.36,34.44,370058
23-Mar-11,34.98,34.99,34.77,34.83,107994
22-Mar-11,35.00,35.14,34.88,34.94,209826
21-Mar-11,35.00,35.15,34.87,35.00,277205
18-Mar-11,34.95,34.95,34.60,34.90,458377
17-Mar-11,34.29,34.74,34.13,34.72,143679
16-Mar-11,33.59,34.11,33.50,33.94,159698
15-Mar-11,33.09,33.87,33.09,33.57,364661
14-Mar-11,33.50,33.88,33.50,33.55,124343
11-Mar-11,33.50,33.71,33.50,33.50,264264
10-Mar-11,34.19,34.19,33.60,33.79,371073
9-Mar-11,34.69,34.95,34.25,34.30,386892
8-Mar-11,34.63,34.95,34.44,34.77,290686
7-Mar-11,34.50,34.85,34.26,34.37,186198
4-Mar-11,34.81,34.95,34.50,34.50,264661
3-Mar-11,34.74,34.98,34.64,34.84,237317
2-Mar-11,34.51,35.00,34.51,34.62,305655
1-Mar-11,34.99,35.10,34.52,34.52,2507616
28-Feb-11,36.19,36.40,36.08,36.24,216888
25-Feb-11,34.84,35.87,34.69,35.81,138472
24-Feb-11,34.44,35.68,34.33,34.60,217811
23-Feb-11,35.20,35.53,33.85,34.61,330816
22-Feb-11,35.07,35.55,34.20,34.90,329512
18-Feb-11,35.40,35.99,35.00,35.04,288084
17-Feb-11,35.13,35.57,35.04,35.25,254030
16-Feb-11,35.25,35.45,34.98,35.19,254552
15-Feb-11,34.99,35.44,34.72,35.16,232702
14-Feb-11,34.23,35.09,33.91,34.79,264932
11-Feb-11,33.90,34.37,33.80,33.89,128602
10-Feb-11,33.61,33.99,33.52,33.94,183837
9-Feb-11,33.70,33.98,33.54,33.75,153366
8-Feb-11,33.67,33.90,33.50,33.75,176249
7-Feb-11,33.68,33.99,33.55,33.71,162130
4-Feb-11,33.57,33.98,33.50,33.70,221318
3-Feb-11,33.49,33.90,33.33,33.70,204653
2-Feb-11,33.02,33.22,32.78,33.20,210590
1-Feb-11,33.00,33.15,32.56,33.03,213456
31-Jan-11,32.70,32.91,32.62,32.90,144304
28-Jan-11,32.84,33.15,32.49,32.53,411035
27-Jan-11,32.78,33.21,32.64,33.05,346058
26-Jan-11,32.38,32.90,32.27,32.90,410505
25-Jan-11,32.11,32.50,32.02,32.15,416264
24-Jan-11,31.15,32.58,31.10,31.90,642278
21-Jan-11,30.82,31.02,30.67,31.00,178291
20-Jan-11,30.81,30.99,30.26,30.67,201972
19-Jan-11,31.28,31.35,30.52,30.85,311096
18-Jan-11,31.14,31.37,30.95,31.19,151330
14-Jan-11,31.31,31.31,30.97,31.06,177632
13-Jan-11,31.06,31.42,30.93,31.28,199866
12-Jan-11,31.20,31.25,30.90,31.07,148169
11-Jan-11,30.87,31.06,30.81,31.03,128634
10-Jan-11,30.59,30.90,30.55,30.80,119272
7-Jan-11,30.45,30.81,30.22,30.70,135572
6-Jan-11,30.69,30.90,30.39,30.45,181197
5-Jan-11,30.15,30.70,30.15,30.54,167021
4-Jan-11,30.37,30.47,29.96,30.36,274596
3-Jan-11,30.50,30.63,30.21,30.37,240586
31-Dec-10,30.17,30.39,30.10,30.30,106985
30-Dec-10,30.06,30.25,30.01,30.25,221662
29-Dec-10,30.02,30.09,30.00,30.03,157549
28-Dec-10,30.00,30.09,29.90,30.02,133003
27-Dec-10,29.99,30.07,29.77,29.97,92205
23-Dec-10,30.01,30.09,29.85,29.89,146389
22-Dec-10,29.93,30.15,29.90,29.99,192755
21-Dec-10,29.95,29.95,29.82,29.90,119520
20-Dec-10,30.21,30.21,29.69,29.80,215738
17-Dec-10,29.89,30.60,29.51,30.60,426684
16-Dec-10,29.83,29.94,29.52,29.66,126335
15-Dec-10,29.94,30.10,29.48,29.72,355898
14-Dec-10,30.00,30.10,29.75,29.87,395215
13-Dec-10,29.60,30.00,29.60,29.98,552281
10-Dec-10,29.43,29.58,29.31,29.39,182801
9-Dec-10,29.58,29.86,29.39,29.50,191503
8-Dec-10,29.88,29.88,29.56,29.63,88032
7-Dec-10,29.75,29.88,29.35,29.82,284416
6-Dec-10,29.59,29.75,29.34,29.69,113977
3-Dec-10,29.33,29.79,29.21,29.59,157649
2-Dec-10,29.30,29.64,29.01,29.50,274254
1-Dec-10,29.96,29.96,29.22,29.45,196992
30-Nov-10,29.24,29.78,29.20,29.78,153059
29-Nov-10,29.31,29.65,29.15,29.40,141051
26-Nov-10,29.56,29.72,29.33,29.62,33810
24-Nov-10,29.97,29.97,29.53,29.66,173920
23-Nov-10,29.73,29.93,29.70,29.91,184308
22-Nov-10,29.92,29.95,29.74,29.95,277880
19-Nov-10,29.61,29.92,29.58,29.88,165503
18-Nov-10,29.91,29.95,29.53,29.66,216671
17-Nov-10,29.01,29.93,29.01,29.93,412770
16-Nov-10,29.43,29.60,28.75,28.91,318648
15-Nov-10,29.77,29.87,29.30,29.72,255045
12-Nov-10,29.70,29.87,29.50,29.64,195704
11-Nov-10,29.63,29.90,29.50,29.82,272277
10-Nov-10,29.88,29.91,29.52,29.86,594354
9-Nov-10,29.76,29.92,29.50,29.92,4523324
8-Nov-10,30.57,31.35,30.45,31.06,130418
5-Nov-10,29.77,30.70,29.77,30.41,137051
4-Nov-10,30.47,30.88,29.77,29.88,63107
3-Nov-10,30.10,30.25,29.42,29.96,89637
2-Nov-10,29.27,29.48,29.08,29.47,60240
1-Nov-10,29.33,29.33,28.92,29.20,87966
29-Oct-10,29.09,29.24,28.79,29.17,86696
28-Oct-10,29.75,29.75,28.85,29.06,34382
27-Oct-10,28.91,29.25,28.72,29.10,56401
26-Oct-10,29.20,29.50,29.02,29.38,163848
25-Oct-10,29.10,29.67,29.04,29.25,88105
22-Oct-10,28.98,29.19,28.88,29.10,66419
21-Oct-10,28.93,29.10,28.79,29.10,70328
20-Oct-10,29.02,29.04,28.59,28.81,82264
19-Oct-10,28.50,29.18,28.50,28.99,94482
18-Oct-10,28.98,29.06,28.54,28.72,73892
15-Oct-10,28.92,29.03,28.50,29.00,76194
14-Oct-10,29.05,29.10,28.72,28.79,73613
13-Oct-10,29.07,29.24,28.81,29.12,123337
12-Oct-10,28.85,29.08,28.85,28.94,109302
11-Oct-10,28.96,29.07,28.75,28.96,140560
8-Oct-10,28.85,29.04,28.50,28.98,121977
7-Oct-10,28.16,29.00,27.91,29.00,204970
6-Oct-10,27.90,28.22,27.58,28.07,114630
5-Oct-10,27.83,28.35,27.75,27.90,191156
4-Oct-10,27.36,27.75,27.20,27.67,197220
1-Oct-10,27.12,27.84,27.12,27.43,92339
30-Sep-10,26.74,27.17,26.68,27.10,126863
29-Sep-10,26.66,26.82,26.55,26.74,105177
28-Sep-10,26.55,26.67,26.40,26.56,143921
27-Sep-10,26.49,26.91,26.43,26.53,95315
24-Sep-10,26.67,26.95,26.39,26.44,142884
23-Sep-10,26.30,27.00,26.01,26.69,187508
22-Sep-10,25.92,26.41,25.92,26.30,103834
21-Sep-10,25.75,26.16,25.55,26.04,116824
20-Sep-10,25.74,25.95,25.46,25.69,106558
17-Sep-10,25.76,25.76,25.31,25.59,167783
16-Sep-10,25.17,25.75,25.10,25.75,146340
15-Sep-10,25.60,25.60,25.13,25.31,147513
14-Sep-10,25.30,25.59,25.30,25.49,119602
13-Sep-10,25.40,25.48,25.18,25.29,94130
10-Sep-10,25.21,25.39,24.96,25.14,147939
9-Sep-10,24.93,25.11,24.71,25.08,112898
8-Sep-10,24.67,25.00,24.61,24.80,112346
7-Sep-10,24.99,24.99,24.65,24.75,68842
3-Sep-10,24.82,24.98,24.63,24.90,81829
2-Sep-10,24.44,24.75,24.35,24.75,107403
1-Sep-10,24.39,24.59,24.12,24.40,45568
31-Aug-10,24.19,24.53,24.02,24.08,108976
30-Aug-10,24.75,24.75,24.06,24.35,97919
27-Aug-10,24.34,24.50,24.34,24.50,86331
26-Aug-10,24.30,24.50,24.11,24.34,111472
25-Aug-10,23.64,24.11,23.25,24.11,130465
24-Aug-10,24.16,24.19,23.67,23.79,117200
23-Aug-10,23.99,24.45,23.99,24.28,63300
20-Aug-10,23.80,24.09,23.62,24.09,110921
19-Aug-10,23.63,24.09,23.56,24.00,158145
18-Aug-10,24.12,24.12,23.65,23.69,152089
17-Aug-10,24.26,24.35,23.89,23.99,188279
16-Aug-10,24.25,24.54,24.07,24.15,191517
13-Aug-10,24.21,24.41,24.03,24.25,329579
12-Aug-10,23.45,23.98,22.53,23.98,314164
11-Aug-10,24.15,24.51,23.82,23.98,273945
10-Aug-10,24.93,24.93,24.42,24.55,361349
9-Aug-10,25.40,25.43,24.97,25.00,224155
6-Aug-10,24.99,25.43,24.99,25.24,167575
5-Aug-10,25.46,25.51,25.06,25.27,192924
4-Aug-10,24.98,25.55,24.90,25.46,198929
3-Aug-10,24.59,24.97,24.54,24.84,188235
2-Aug-10,24.50,25.09,24.26,24.63,201521
30-Jul-10,23.16,23.96,23.16,23.96,178025
29-Jul-10,23.69,23.72,23.21,23.34,158211
28-Jul-10,24.04,24.06,23.41,23.54,328068
27-Jul-10,25.38,25.38,24.15,24.53,200343
26-Jul-10,24.74,24.87,24.33,24.58,296481
23-Jul-10,24.59,24.73,24.27,24.43,210000
22-Jul-10,23.95,24.74,23.71,24.59,266867
21-Jul-10,24.10,24.10,23.55,23.72,147867
20-Jul-10,23.50,23.95,22.94,23.79,204940
19-Jul-10,23.85,23.85,23.55,23.70,195853
16-Jul-10,23.70,23.83,23.54,23.75,181405
15-Jul-10,24.00,24.25,23.53,23.75,299329
14-Jul-10,22.95,23.99,22.92,23.89,591662
13-Jul-10,22.95,22.95,22.75,22.81,257836
12-Jul-10,22.95,22.97,22.79,22.89,209173
9-Jul-10,22.80,23.00,22.64,22.90,158251
8-Jul-10,22.71,22.90,22.58,22.84,175631
7-Jul-10,22.06,22.71,22.06,22.71,241225
6-Jul-10,22.47,22.47,21.96,22.08,102639
2-Jul-10,22.00,22.34,22.00,22.12,168357
1-Jul-10,22.30,22.38,21.25,21.97,235390
30-Jun-10,22.14,22.50,22.07,22.20,261240
29-Jun-10,22.19,22.31,21.90,22.27,166151
28-Jun-10,21.80,22.36,21.80,22.32,203393
25-Jun-10,21.71,22.09,21.61,21.80,336944
24-Jun-10,21.76,21.83,21.52,21.65,107963
23-Jun-10,22.01,22.16,21.76,21.78,157837
22-Jun-10,22.15,22.23,21.87,21.90,120600
21-Jun-10,22.52,22.52,22.03,22.06,123734
18-Jun-10,22.02,22.35,22.02,22.35,182540
17-Jun-10,22.02,22.25,21.66,22.20,131568
16-Jun-10,22.22,22.32,22.06,22.18,157166
15-Jun-10,22.01,22.29,21.99,22.21,163543
14-Jun-10,22.10,22.10,21.82,22.05,164325
11-Jun-10,21.70,21.93,21.46,21.90,176092
10-Jun-10,21.67,21.99,21.33,21.78,270071
9-Jun-10,21.88,22.17,21.45,21.55,112251
8-Jun-10,21.76,22.06,21.50,21.78,114845
7-Jun-10,22.00,22.28,21.78,21.79,153672
4-Jun-10,22.21,22.25,21.87,22.02,146789
3-Jun-10,22.09,22.33,22.07,22.29,298562
2-Jun-10,21.54,22.15,21.53,21.93,193697
1-Jun-10,22.20,22.20,21.50,21.55,194329
28-May-10,22.35,22.35,21.47,22.29,333350
27-May-10,21.97,22.25,21.42,22.25,229600
26-May-10,21.20,21.98,21.02,21.83,253218
25-May-10,20.70,20.96,19.78,20.94,360266
24-May-10,20.85,21.60,20.85,21.05,246656
21-May-10,20.71,21.28,20.48,20.99,334870
20-May-10,21.20,21.60,20.46,21.20,523408
19-May-10,22.05,22.18,20.30,21.49,417472
18-May-10,22.08,22.35,21.59,22.13,291483
17-May-10,23.26,23.26,21.83,22.00,282126
14-May-10,22.20,22.26,21.79,22.26,503403
13-May-10,22.11,22.30,22.11,22.25,2482864
12-May-10,23.22,23.51,22.96,23.15,166909
11-May-10,22.36,23.67,22.03,23.24,145281
10-May-10,22.44,22.76,21.93,22.70,292515
7-May-10,22.00,22.45,21.57,22.16,251321
6-May-10,22.57,22.58,21.64,22.05,355293
5-May-10,22.98,23.48,22.68,22.83,151877
4-May-10,23.02,23.55,23.00,23.22,178058
3-May-10,23.29,23.40,22.63,23.40,119274
30-Apr-10,23.32,23.59,22.66,23.41,121302
29-Apr-10,22.89,23.40,22.67,23.38,130965
28-Apr-10,23.08,23.14,22.66,22.86,116235
27-Apr-10,23.69,23.77,23.07,23.12,109094
26-Apr-10,23.64,23.76,23.40,23.70,90800
23-Apr-10,23.46,23.75,23.39,23.52,117436
22-Apr-10,23.41,23.59,23.06,23.51,86698
21-Apr-10,23.72,23.85,23.41,23.50,125401
20-Apr-10,23.25,23.82,23.25,23.59,86008
19-Apr-10,23.15,23.69,23.01,23.05,96295
16-Apr-10,23.85,23.89,23.04,23.38,142639
15-Apr-10,23.50,23.95,23.50,23.93,121220
14-Apr-10,23.83,23.86,23.50,23.58,155845
13-Apr-10,23.46,23.71,23.13,23.70,132883
12-Apr-10,23.67,23.87,23.45,23.56,76925
9-Apr-10,23.61,23.72,23.39,23.65,72602
8-Apr-10,23.06,23.74,23.00,23.61,112796
7-Apr-10,23.24,23.25,22.95,23.19,109502
6-Apr-10,22.97,23.23,22.78,23.19,101773
5-Apr-10,22.78,22.98,22.65,22.97,165968
1-Apr-10,22.30,22.65,22.15,22.65,102466
31-Mar-10,22.00,22.24,21.96,22.08,99359
30-Mar-10,22.09,22.26,21.91,22.00,87058
29-Mar-10,21.95,22.28,21.76,22.05,76386
26-Mar-10,22.28,22.28,21.71,21.84,112310
25-Mar-10,22.50,22.50,21.91,21.98,114869
24-Mar-10,22.60,22.67,22.33,22.54,107013
23-Mar-10,22.50,22.71,22.37,22.69,122503
22-Mar-10,21.98,22.65,21.90,22.52,129134
19-Mar-10,22.47,22.48,21.92,21.98,187368
18-Mar-10,22.40,22.59,22.18,22.42,129158
17-Mar-10,22.53,22.80,22.30,22.45,260348
16-Mar-10,22.51,22.63,22.40,22.50,153355
15-Mar-10,22.62,22.62,22.20,22.50,97604
12-Mar-10,22.90,22.90,22.38,22.50,213215
11-Mar-10,23.50,23.50,22.50,22.50,314008
10-Mar-10,22.76,23.06,22.51,22.87,297516
9-Mar-10,22.65,22.96,22.43,22.50,325086
8-Mar-10,22.74,23.08,22.47,22.64,412891
5-Mar-10,22.24,22.55,22.08,22.47,269710
4-Mar-10,21.95,22.24,21.70,22.12,313378
3-Mar-10,22.04,22.30,21.68,21.69,132816
2-Mar-10,21.45,22.48,21.45,21.90,169198
1-Mar-10,21.38,21.69,21.35,21.42,99626
26-Feb-10,21.17,21.50,21.15,21.38,153597
25-Feb-10,20.69,21.20,20.51,21.00,86556
24-Feb-10,20.80,21.11,20.64,20.78,109267
23-Feb-10,20.65,20.89,20.57,20.73,148133
22-Feb-10,21.45,21.45,20.71,20.76,338976
19-Feb-10,21.15,21.29,20.97,21.20,79181
18-Feb-10,21.15,21.35,21.08,21.13,151157
17-Feb-10,21.18,21.69,21.15,21.24,137163
16-Feb-10,21.00,21.68,20.93,21.18,119288
12-Feb-10,20.72,20.91,20.40,20.74,98583
11-Feb-10,20.07,20.79,19.96,20.60,169852
10-Feb-10,20.65,20.83,20.00,20.07,204410
9-Feb-10,21.17,21.49,20.59,20.65,221544
8-Feb-10,20.71,21.38,20.67,21.15,140633
5-Feb-10,21.49,21.49,20.16,20.44,436168
4-Feb-10,21.46,21.70,20.92,21.47,353495
3-Feb-10,21.00,21.88,20.67,21.79,198789
2-Feb-10,20.66,20.96,20.20,20.86,300245
1-Feb-10,19.98,21.44,19.98,20.66,349155
29-Jan-10,20.08,20.42,19.98,19.99,135674
28-Jan-10,20.20,20.55,20.00,20.04,162007
27-Jan-10,20.72,20.77,20.22,20.42,159806
26-Jan-10,20.73,21.00,20.53,20.60,300957
25-Jan-10,20.80,20.92,20.64,20.80,160477
22-Jan-10,20.27,20.57,20.19,20.51,144933
21-Jan-10,20.74,20.88,20.34,20.45,144120
20-Jan-10,20.71,20.71,20.38,20.60,108949
19-Jan-10,20.14,20.82,20.05,20.69,177153
15-Jan-10,19.84,20.30,19.75,20.22,113507
14-Jan-10,19.52,20.00,19.52,20.00,135129
13-Jan-10,19.78,19.85,19.42,19.79,198385
12-Jan-10,20.10,20.35,19.79,19.89,209110
11-Jan-10,20.35,20.48,20.21,20.24,160067
8-Jan-10,19.83,20.39,19.83,20.34,108144
7-Jan-10,20.01,20.33,19.62,20.08,231161
6-Jan-10,20.04,20.50,20.01,20.21,151155
5-Jan-10,19.63,20.26,19.63,20.22,298179
4-Jan-10,19.64,19.77,19.49,19.76,231683
31-Dec-09,19.40,19.57,19.40,19.49,92838
30-Dec-09,19.23,19.53,19.16,19.48,173660
29-Dec-09,19.06,19.25,18.90,19.24,130539
28-Dec-09,19.30,19.30,18.91,19.06,190392
24-Dec-09,19.34,19.34,19.10,19.23,94605
23-Dec-09,18.92,19.21,18.80,19.19,208373
22-Dec-09,18.98,19.01,18.66,18.88,218316
21-Dec-09,18.78,18.97,18.55,18.86,343149
18-Dec-09,18.71,18.74,18.40,18.63,423250
17-Dec-09,18.45,18.45,18.21,18.26,264045
16-Dec-09,18.26,18.52,18.10,18.47,506941
15-Dec-09,18.26,18.45,18.02,18.21,419781
14-Dec-09,18.20,18.32,18.01,18.20,502744
11-Dec-09,18.02,18.20,18.00,18.20,428711
10-Dec-09,18.17,18.17,17.92,18.15,347845
9-Dec-09,18.00,18.04,17.90,18.01,318817
8-Dec-09,17.92,18.05,17.87,17.97,382806
7-Dec-09,17.86,18.04,17.84,18.00,381268
4-Dec-09,18.00,18.20,17.85,18.00,3474309
3-Dec-09,19.05,19.23,18.81,18.97,60519
2-Dec-09,19.11,19.39,18.45,18.87,155548
1-Dec-09,19.79,19.79,18.90,19.15,83109
30-Nov-09,19.52,20.00,19.10,19.44,91821
27-Nov-09,19.34,19.72,19.34,19.45,20080
25-Nov-09,18.99,19.76,18.95,19.68,71936
24-Nov-09,19.06,19.23,18.87,18.95,48325
23-Nov-09,18.52,19.24,18.35,19.16,123073
20-Nov-09,18.79,19.11,18.74,18.79,63550
19-Nov-09,18.88,19.22,18.59,18.79,81796
18-Nov-09,18.98,19.14,18.81,18.97,42619
17-Nov-09,18.77,18.99,18.57,18.96,31102
16-Nov-09,18.55,19.00,18.55,18.70,50339
13-Nov-09,18.59,18.69,18.17,18.50,68760
12-Nov-09,18.54,18.60,18.35,18.42,58473
11-Nov-09,18.40,18.59,18.10,18.51,54232
10-Nov-09,18.48,18.56,18.22,18.42,33188
9-Nov-09,18.27,18.76,18.21,18.44,55459
6-Nov-09,18.00,18.32,17.91,18.20,116414
5-Nov-09,17.99,18.13,17.88,18.00,105340
4-Nov-09,18.20,18.32,17.84,18.01,106150
3-Nov-09,17.66,17.99,17.66,17.91,60347
2-Nov-09,18.39,18.42,17.11,17.92,196725
30-Oct-09,18.47,18.47,17.76,18.23,108506
29-Oct-09,18.16,18.81,17.92,18.62,135967
28-Oct-09,19.49,19.49,17.50,17.83,175332
27-Oct-09,19.60,19.85,19.19,19.51,96836
26-Oct-09,19.91,20.00,19.16,19.48,87122
23-Oct-09,19.14,19.92,19.14,19.73,144958
22-Oct-09,19.03,19.52,18.85,19.16,73577
21-Oct-09,18.93,19.26,18.79,19.01,66520
20-Oct-09,18.52,19.00,18.35,18.83,78943
19-Oct-09,18.59,18.62,18.25,18.61,38481
16-Oct-09,18.60,18.68,18.46,18.50,31225
15-Oct-09,18.55,18.70,18.44,18.49,45284
14-Oct-09,18.55,18.58,18.41,18.55,41841
13-Oct-09,18.31,18.46,18.02,18.45,52161
12-Oct-09,18.02,18.25,17.95,18.24,51196
9-Oct-09,17.80,18.11,17.62,18.02,65859
8-Oct-09,17.74,17.89,17.70,17.78,103597
7-Oct-09,17.56,17.73,17.49,17.65,49455
6-Oct-09,17.74,17.79,17.61,17.73,48828
5-Oct-09,17.36,17.67,17.36,17.61,73596
2-Oct-09,17.57,17.65,17.20,17.51,39391
1-Oct-09,17.70,17.80,17.55,17.66,107829
30-Sep-09,17.58,17.78,17.52,17.70,39290
29-Sep-09,17.60,17.72,17.39,17.66,50722
28-Sep-09,17.36,17.71,17.36,17.55,59680
25-Sep-09,17.06,17.45,17.01,17.16,68712
24-Sep-09,17.45,17.51,16.95,17.05,65859
23-Sep-09,17.26,17.46,17.26,17.41,40250
22-Sep-09,17.62,17.62,17.30,17.36,42689
21-Sep-09,17.84,17.84,17.20,17.43,55821
18-Sep-09,17.02,17.90,16.60,17.90,125868
17-Sep-09,16.95,16.95,16.81,16.85,67712
16-Sep-09,16.95,16.95,16.80,16.85,82416
15-Sep-09,16.93,16.95,16.76,16.80,102929
14-Sep-09,16.97,16.97,16.77,16.83,48271
11-Sep-09,16.95,16.99,16.80,16.93,22473
10-Sep-09,17.00,17.10,16.75,16.83,59235
9-Sep-09,16.97,17.15,16.91,17.00,30042
8-Sep-09,16.87,17.11,16.75,16.93,56909
4-Sep-09,16.78,16.99,16.78,16.96,33133
3-Sep-09,16.99,16.99,16.79,16.90,37436
2-Sep-09,16.78,16.90,16.63,16.85,76483
1-Sep-09,16.97,16.99,16.51,16.81,87270
31-Aug-09,16.80,16.99,16.80,16.89,45793
28-Aug-09,17.00,17.05,16.83,16.89,159276
27-Aug-09,17.00,17.19,16.87,16.97,74520
26-Aug-09,16.85,17.00,16.82,17.00,112443
25-Aug-09,17.05,17.19,16.86,16.92,87663
24-Aug-09,17.26,17.26,16.85,16.95,65309
21-Aug-09,16.99,17.24,16.86,16.95,79908
20-Aug-09,16.97,17.12,16.86,16.95,72126
19-Aug-09,16.80,17.10,16.72,17.01,85668
18-Aug-09,16.92,17.28,16.89,17.05,59749
17-Aug-09,16.90,17.12,16.70,16.88,44122
14-Aug-09,17.17,17.44,16.80,17.14,128572
13-Aug-09,16.92,17.25,16.62,17.01,82558
12-Aug-09,17.11,17.66,16.72,16.91,114693
11-Aug-09,16.92,16.92,16.35,16.72,93641
10-Aug-09,16.78,17.20,16.71,16.91,78285
7-Aug-09,16.79,16.93,16.61,16.71,67825
6-Aug-09,16.99,17.00,16.63,16.81,63541
5-Aug-09,17.20,17.23,16.62,16.95,69338
4-Aug-09,17.19,17.22,16.86,17.15,88750
3-Aug-09,17.00,17.37,16.71,17.06,206232
31-Jul-09,16.96,17.00,16.66,16.97,133504
30-Jul-09,17.02,17.20,16.63,16.91,104125
29-Jul-09,17.15,17.15,16.76,16.87,106321
28-Jul-09,17.40,17.45,16.98,17.34,88157
27-Jul-09,17.38,17.99,17.37,17.49,153694
24-Jul-09,16.87,17.27,16.87,17.27,161293
23-Jul-09,16.72,17.10,16.70,16.84,169219
22-Jul-09,16.28,16.69,16.28,16.61,92672
21-Jul-09,16.30,16.50,16.19,16.34,93558
20-Jul-09,16.05,16.37,15.93,16.06,103789
17-Jul-09,16.50,16.50,15.90,16.12,102844
16-Jul-09,16.09,16.37,15.62,16.32,126789
15-Jul-09,15.88,16.40,15.88,16.09,110654
14-Jul-09,15.71,16.00,15.50,15.94,66244
13-Jul-09,15.89,15.99,15.51,15.76,72158
10-Jul-09,15.25,15.75,15.03,15.75,84045
9-Jul-09,15.52,15.52,15.36,15.49,51297
8-Jul-09,15.41,15.53,15.08,15.46,61115
7-Jul-09,15.41,15.62,15.37,15.39,56720
6-Jul-09,15.50,15.68,15.17,15.51,101794
2-Jul-09,15.65,15.95,15.45,15.50,89789
1-Jul-09,15.52,15.80,15.51,15.74,87106
30-Jun-09,15.30,15.55,15.27,15.51,132672
29-Jun-09,15.30,15.50,15.30,15.30,103990
26-Jun-09,14.84,15.29,14.84,15.23,145033
25-Jun-09,14.64,14.90,14.50,14.84,125719
24-Jun-09,14.02,14.64,13.75,14.51,151814
23-Jun-09,14.31,14.31,13.22,13.96,291442
22-Jun-09,14.25,14.25,13.95,14.18,117023
19-Jun-09,14.10,14.49,14.08,14.37,98946
18-Jun-09,14.27,14.30,13.99,14.09,55059
17-Jun-09,14.31,14.46,13.90,14.21,151445
16-Jun-09,14.78,14.99,13.82,14.35,406254
15-Jun-09,14.93,15.14,14.76,14.80,173319
12-Jun-09,14.84,15.25,14.80,15.02,104768
11-Jun-09,15.00,15.19,14.85,14.95,61275
10-Jun-09,15.13,15.29,14.80,14.88,129866
9-Jun-09,15.26,15.34,15.02,15.13,134680
8-Jun-09,15.49,15.49,15.08,15.28,163795
5-Jun-09,15.50,15.67,15.15,15.46,128789
4-Jun-09,15.09,15.74,15.00,15.50,167946
3-Jun-09,15.25,15.38,14.95,15.07,84850
2-Jun-09,15.18,15.50,15.11,15.34,82774
1-Jun-09,15.10,15.38,14.95,15.25,85476
29-May-09,15.25,15.32,15.04,15.16,69705
28-May-09,15.31,15.37,15.04,15.25,44711
27-May-09,15.26,15.50,15.15,15.25,46575
26-May-09,15.42,15.47,14.79,15.30,36545
22-May-09,15.19,15.28,14.88,15.01,36753
21-May-09,15.34,15.46,14.86,15.02,84822
20-May-09,15.32,15.60,15.09,15.50,68979
19-May-09,15.00,15.17,14.92,15.03,93318
18-May-09,14.85,15.07,14.74,15.00,80215
15-May-09,14.74,14.82,14.55,14.69,81525
14-May-09,14.78,14.78,14.41,14.71,77961
13-May-09,14.45,14.85,14.21,14.78,93386
12-May-09,14.86,15.00,14.50,14.73,133427
11-May-09,15.06,15.25,14.80,14.83,93449
8-May-09,14.76,15.20,14.75,15.05,60961
7-May-09,15.40,15.45,14.67,14.74,120203
6-May-09,15.35,15.47,15.07,15.20,74221
5-May-09,15.30,15.51,15.25,15.29,68711
4-May-09,15.32,15.49,15.25,15.41,85537
1-May-09,15.31,15.43,15.20,15.31,57142
30-Apr-09,15.16,15.40,15.08,15.22,81056
29-Apr-09,15.77,15.78,14.98,15.17,180828
28-Apr-09,15.30,15.74,15.18,15.65,104897
27-Apr-09,15.25,15.58,14.90,15.31,77711
24-Apr-09,15.60,15.79,15.00,15.35,173837
23-Apr-09,15.64,15.64,15.01,15.50,227424
22-Apr-09,15.12,15.55,15.12,15.38,73979
21-Apr-09,14.75,15.29,14.75,15.21,87274
20-Apr-09,15.54,15.59,15.10,15.10,113882
17-Apr-09,15.41,15.71,15.36,15.54,92220
16-Apr-09,15.13,15.65,14.93,15.55,199725
15-Apr-09,14.96,15.25,14.81,15.24,81812
14-Apr-09,15.27,15.27,14.84,15.08,110248
13-Apr-09,15.43,15.43,15.04,15.24,177889
9-Apr-09,15.15,15.63,15.06,15.21,58811
8-Apr-09,15.16,15.34,15.00,15.05,71844
7-Apr-09,15.40,15.40,14.92,15.17,57377
6-Apr-09,15.79,15.80,15.10,15.40,50074
3-Apr-09,15.27,15.75,15.08,15.60,53669
2-Apr-09,15.22,15.51,15.13,15.35,111598
1-Apr-09,15.22,15.22,14.62,15.05,50867
31-Mar-09,14.94,15.00,14.61,14.88,78052
30-Mar-09,14.90,15.00,14.05,14.90,92284
27-Mar-09,15.40,15.45,14.65,15.00,74273
26-Mar-09,15.21,15.41,15.00,15.33,99686
25-Mar-09,15.00,15.36,14.86,15.14,187697
24-Mar-09,14.99,14.99,14.47,14.82,68577
23-Mar-09,14.75,15.10,14.38,15.03,81401
20-Mar-09,14.70,14.92,14.35,14.47,49770
19-Mar-09,14.92,14.92,14.37,14.70,41417
18-Mar-09,14.15,14.46,13.66,14.35,106495
17-Mar-09,13.93,14.34,13.64,14.21,73118
16-Mar-09,13.80,14.81,13.78,13.89,109808
13-Mar-09,13.41,14.00,13.35,13.78,94319
12-Mar-09,13.03,13.56,12.57,13.34,281718
11-Mar-09,13.00,13.87,12.75,13.00,271398
10-Mar-09,12.68,13.70,12.56,13.02,283761
9-Mar-09,12.74,13.26,12.50,12.63,385770
6-Mar-09,13.00,13.50,12.54,12.79,128308
5-Mar-09,13.40,13.49,12.71,13.13,120594
4-Mar-09,13.43,13.70,12.93,13.35,221827
3-Mar-09,13.84,14.16,12.87,13.24,117616
2-Mar-09,14.18,14.30,12.80,13.53,475215
27-Feb-09,14.02,14.98,13.82,14.67,193550
26-Feb-09,14.25,14.93,13.91,14.22,210824
25-Feb-09,13.79,14.20,13.40,13.68,246496
24-Feb-09,13.39,13.90,12.20,13.65,263828
23-Feb-09,14.27,14.44,13.45,13.45,127348
20-Feb-09,14.16,14.45,12.97,14.29,157661
19-Feb-09,14.95,15.24,14.24,14.48,91117
18-Feb-09,15.27,15.31,14.67,14.90,97372
17-Feb-09,16.11,16.11,15.00,15.08,95671
13-Feb-09,15.70,15.78,15.31,15.62,84171
12-Feb-09,15.98,15.98,15.26,15.48,150086
11-Feb-09,16.65,16.65,15.20,15.46,127466
10-Feb-09,15.77,15.96,15.25,15.42,195015
9-Feb-09,15.40,15.80,15.40,15.60,193996
6-Feb-09,15.36,15.56,15.16,15.46,59423
5-Feb-09,15.61,15.61,15.06,15.20,67185
4-Feb-09,15.50,15.60,15.25,15.40,117608
3-Feb-09,15.34,15.54,15.11,15.49,97428
2-Feb-09,15.82,15.82,15.00,15.34,111032
30-Jan-09,15.25,15.28,14.96,15.26,60647
29-Jan-09,15.82,15.82,15.05,15.16,67909
28-Jan-09,15.15,15.38,14.96,15.12,54692
27-Jan-09,14.79,15.25,14.26,14.90,99788
26-Jan-09,14.62,15.25,14.50,14.97,138961
23-Jan-09,14.51,14.96,14.00,14.79,118732
22-Jan-09,14.90,14.93,14.65,14.78,43756
21-Jan-09,13.55,15.00,13.55,15.00,93076
20-Jan-09,14.28,14.28,13.84,13.89,125176
16-Jan-09,14.52,14.52,13.79,14.28,38659
15-Jan-09,14.68,14.69,13.55,13.97,67079
14-Jan-09,14.56,14.66,14.07,14.56,45974
13-Jan-09,14.03,14.61,13.87,14.42,37932
12-Jan-09,13.71,14.18,13.71,13.75,52429
9-Jan-09,14.58,14.58,13.88,13.90,109512
8-Jan-09,14.69,14.85,14.26,14.40,114087
7-Jan-09,14.75,14.96,14.27,14.55,79210
6-Jan-09,14.95,15.24,14.65,14.81,125963
5-Jan-09,14.30,15.08,14.30,14.70,204066
2-Jan-09,12.98,14.66,12.86,14.40,158364
31-Dec-08,12.34,13.12,12.30,12.83,136530
30-Dec-08,12.89,12.99,12.40,12.42,50830
29-Dec-08,13.27,13.27,12.60,13.03,86443
26-Dec-08,12.25,13.00,12.16,12.99,57370
24-Dec-08,12.72,12.72,12.22,12.27,20792
23-Dec-08,13.08,13.29,12.51,12.86,75177
22-Dec-08,13.65,13.65,12.66,12.87,41772
19-Dec-08,13.06,13.71,12.61,13.71,147116
18-Dec-08,12.39,13.31,12.39,13.25,91700
17-Dec-08,12.22,12.76,12.22,12.57,61592
16-Dec-08,12.59,12.82,11.72,12.41,97991
15-Dec-08,12.86,12.90,11.71,12.28,54979
12-Dec-08,12.00,12.80,11.90,12.61,29399
11-Dec-08,12.89,13.12,12.12,12.40,147275
10-Dec-08,12.24,13.20,11.92,13.06,100612
9-Dec-08,11.92,12.35,11.70,12.22,106028
8-Dec-08,11.67,12.03,11.28,11.71,154747
5-Dec-08,11.87,11.91,10.53,11.17,248355
4-Dec-08,11.91,11.93,11.35,11.85,88000
3-Dec-08,12.20,12.44,11.61,11.99,107394
2-Dec-08,12.53,12.58,12.00,12.39,70419
1-Dec-08,13.40,13.40,12.15,12.35,61484
28-Nov-08,13.04,13.95,12.96,13.40,46641
26-Nov-08,13.30,13.63,12.96,13.40,81852
25-Nov-08,13.77,14.14,13.07,13.30,101321
24-Nov-08,12.00,13.37,11.97,13.10,92214
21-Nov-08,12.34,13.29,11.29,11.85,247982
20-Nov-08,13.05,13.68,12.20,12.60,205756
19-Nov-08,13.65,13.74,12.85,13.30,124675
18-Nov-08,13.95,14.19,13.26,13.47,64896
17-Nov-08,13.56,13.95,13.49,13.95,54854
14-Nov-08,13.59,13.90,13.19,13.45,132142
13-Nov-08,12.75,13.71,12.40,13.50,346697
12-Nov-08,12.64,13.47,12.11,13.02,137293
11-Nov-08,12.42,12.74,11.85,12.30,129679
10-Nov-08,13.41,13.90,12.42,12.42,62405
7-Nov-08,13.50,13.50,12.90,13.31,77260
6-Nov-08,13.61,13.88,12.91,13.55,68104
5-Nov-08,13.75,13.93,13.57,13.89,29984
4-Nov-08,13.90,14.18,13.67,13.89,80027
3-Nov-08,13.39,13.84,13.20,13.60,67067
31-Oct-08,12.59,13.41,12.51,13.10,89968
30-Oct-08,12.21,12.91,12.21,12.77,130076
29-Oct-08,13.00,13.28,11.85,12.49,140591
28-Oct-08,13.70,13.70,12.52,13.17,190678
27-Oct-08,14.01,14.37,12.86,13.10,101176
24-Oct-08,14.00,14.39,13.50,13.90,51831
23-Oct-08,14.49,14.76,14.00,14.18,53760
22-Oct-08,15.00,15.11,14.25,14.60,301371
21-Oct-08,15.14,15.25,14.96,15.17,83941
20-Oct-08,14.98,15.15,14.60,15.00,163687
17-Oct-08,13.61,15.28,13.61,14.64,145100
16-Oct-08,13.14,13.85,12.86,13.78,155220
15-Oct-08,13.21,13.50,13.00,13.14,57948
14-Oct-08,13.22,13.90,12.39,13.61,130192
13-Oct-08,12.48,12.96,12.15,12.88,191694
10-Oct-08,9.67,12.87,9.00,11.91,194598
9-Oct-08,11.57,12.27,10.50,10.58,143979
8-Oct-08,10.96,12.19,10.20,11.56,616408
7-Oct-08,11.59,12.18,11.21,11.27,239526
6-Oct-08,13.05,13.05,10.90,11.31,278061
3-Oct-08,13.01,13.72,12.91,13.05,77654
2-Oct-08,13.30,13.41,13.06,13.18,113958
1-Oct-08,13.33,13.70,13.00,13.40,117470
30-Sep-08,13.02,13.47,13.00,13.20,110705
29-Sep-08,13.75,13.75,13.08,13.35,79947
26-Sep-08,13.95,14.12,13.50,14.00,48833
25-Sep-08,13.63,14.10,13.41,13.95,90836
24-Sep-08,13.77,13.90,13.30,13.70,80371
23-Sep-08,14.00,14.09,13.83,13.86,70412
22-Sep-08,13.91,14.75,13.73,14.07,159963
19-Sep-08,13.28,14.08,13.28,13.97,176619
18-Sep-08,13.00,13.13,12.69,13.08,115748
17-Sep-08,13.25,13.30,12.66,13.02,421593
16-Sep-08,13.19,13.53,12.63,13.41,321793
15-Sep-08,14.20,14.35,13.46,13.46,120335
12-Sep-08,14.50,14.74,14.06,14.35,103452
11-Sep-08,14.39,14.47,14.10,14.25,121292
10-Sep-08,14.25,14.49,13.96,14.35,132703
9-Sep-08,14.80,14.90,14.24,14.38,67843
8-Sep-08,14.80,14.99,14.55,14.81,93263
5-Sep-08,15.00,15.05,14.50,14.61,112636
4-Sep-08,14.88,15.36,14.51,14.85,107744
3-Sep-08,15.15,15.31,14.66,15.06,107187
2-Sep-08,15.27,15.48,14.90,15.06,157455
29-Aug-08,15.49,15.60,15.12,15.27,49497
28-Aug-08,15.42,15.45,15.04,15.25,66402
27-Aug-08,15.10,15.67,15.10,15.36,72700
26-Aug-08,14.86,15.88,14.75,14.95,123069
25-Aug-08,15.75,15.75,14.90,15.02,95325
22-Aug-08,15.20,15.73,15.01,15.67,84235
21-Aug-08,15.03,15.35,14.82,15.28,122345
20-Aug-08,14.65,14.90,14.56,14.86,57056
19-Aug-08,14.25,14.70,14.11,14.60,112747
18-Aug-08,14.20,14.50,14.10,14.48,90343
15-Aug-08,14.22,14.24,13.87,14.06,112849
14-Aug-08,14.04,14.43,13.99,14.08,637533
13-Aug-08,14.00,14.22,13.50,13.95,594556
12-Aug-08,14.52,14.65,13.91,14.01,570356
11-Aug-08,14.40,14.60,14.12,14.32,268909
8-Aug-08,14.51,14.86,14.45,14.53,163175
7-Aug-08,14.70,14.95,14.52,14.61,142147
6-Aug-08,14.52,14.86,14.52,14.59,197354
5-Aug-08,15.15,15.20,14.51,14.60,359292
4-Aug-08,15.53,15.89,15.10,15.21,86470
1-Aug-08,15.75,15.83,15.47,15.77,55315
31-Jul-08,15.96,16.15,15.44,15.70,149788
30-Jul-08,15.65,16.11,15.65,16.00,67480
29-Jul-08,16.10,16.10,15.74,15.94,60495
28-Jul-08,15.88,16.25,15.70,15.94,73851
25-Jul-08,15.65,16.16,15.40,15.85,180958
24-Jul-08,16.00,16.00,15.44,15.50,99447
23-Jul-08,16.19,16.36,15.82,16.13,182870
22-Jul-08,16.07,16.50,16.02,16.12,201323
21-Jul-08,15.55,16.23,15.48,16.12,273085
18-Jul-08,15.20,15.54,15.02,15.40,238150
17-Jul-08,15.45,16.13,15.00,15.14,408319
16-Jul-08,15.25,15.29,15.07,15.22,182650
15-Jul-08,15.52,15.52,15.04,15.29,211436
14-Jul-08,15.55,15.90,15.20,15.41,112720
11-Jul-08,15.22,15.45,15.01,15.45,74587
10-Jul-08,15.25,15.99,14.87,15.47,128148
9-Jul-08,15.47,15.68,15.04,15.28,177056
8-Jul-08,15.34,15.70,14.17,15.16,586667
7-Jul-08,16.39,16.43,15.05,15.68,348137
3-Jul-08,16.60,16.72,16.26,16.32,52023
2-Jul-08,16.72,16.95,16.63,16.75,109468
1-Jul-08,16.69,17.05,16.65,16.96,107510
30-Jun-08,17.12,17.12,16.61,16.85,119841
27-Jun-08,16.50,17.11,16.36,17.00,162138
26-Jun-08,16.99,16.99,16.55,16.68,109930
25-Jun-08,17.06,17.22,16.25,17.03,372120
24-Jun-08,17.35,17.40,17.05,17.10,190527
23-Jun-08,16.71,17.40,16.71,17.20,522222
20-Jun-08,17.43,17.43,16.81,16.91,377515
19-Jun-08,17.39,17.39,16.91,17.25,239790
18-Jun-08,17.45,17.49,16.82,17.09,691819
17-Jun-08,16.82,17.35,16.79,17.03,585172
16-Jun-08,16.44,16.84,16.44,16.79,284995
13-Jun-08,16.22,16.77,16.22,16.74,137515
12-Jun-08,16.97,16.97,16.25,16.50,389027
11-Jun-08,16.15,16.81,16.00,16.67,532951
10-Jun-08,16.33,16.39,16.10,16.15,331261
9-Jun-08,16.35,16.50,16.34,16.37,309130
6-Jun-08,16.50,16.85,16.50,16.55,193809
5-Jun-08,16.51,16.59,16.45,16.59,212234
4-Jun-08,16.65,16.69,16.53,16.56,144404
3-Jun-08,16.80,16.80,16.60,16.67,174815
2-Jun-08,16.54,16.75,16.50,16.74,134496
30-May-08,16.75,16.89,16.55,16.75,68663
29-May-08,16.61,16.72,16.50,16.60,174497
28-May-08,16.65,16.73,16.42,16.69,254261
27-May-08,16.75,16.89,16.27,16.40,310144
23-May-08,16.79,16.95,16.63,16.73,257886
22-May-08,16.90,17.09,16.75,16.81,177863
21-May-08,17.14,17.20,16.80,16.90,206878
20-May-08,16.90,17.15,16.75,17.14,227951
19-May-08,17.00,17.00,16.75,17.00,242387
16-May-08,16.70,17.04,16.64,16.84,297060
15-May-08,16.78,16.78,16.60,16.67,351660
14-May-08,16.63,16.75,16.56,16.66,407496
13-May-08,16.70,16.70,16.53,16.55,545461
12-May-08,16.38,16.70,16.35,16.52,1010948
9-May-08,16.50,16.65,16.18,16.50,8380765
