﻿Date,Open,High,Low,Close,Volume
20-Jun-17,10.58,10.61,10.51,10.58,145328
19-Jun-17,10.58,10.65,10.51,10.57,190424
16-Jun-17,10.43,10.59,10.43,10.55,507103
15-Jun-17,10.44,10.50,10.39,10.49,179046
14-Jun-17,10.48,10.50,10.37,10.49,158623
13-Jun-17,10.44,10.50,10.38,10.44,158107
12-Jun-17,10.41,10.50,10.34,10.43,214596
9-Jun-17,10.37,10.47,10.35,10.43,235492
8-Jun-17,10.28,10.42,10.16,10.37,200317
7-Jun-17,10.21,10.28,10.14,10.24,117723
6-Jun-17,10.17,10.29,10.10,10.24,199615
5-Jun-17,10.25,10.34,10.17,10.18,157186
2-Jun-17,10.37,10.51,10.27,10.27,249469
1-Jun-17,10.22,10.38,10.14,10.30,257444
31-May-17,10.22,10.30,10.15,10.20,179813
30-May-17,10.25,10.28,10.16,10.17,106791
26-May-17,10.29,10.30,10.13,10.26,122139
25-May-17,10.25,10.34,10.20,10.26,178566
24-May-17,10.19,10.28,10.14,10.22,198918
23-May-17,10.13,10.20,10.04,10.16,246328
22-May-17,10.06,10.14,9.98,10.07,194583
19-May-17,9.98,10.10,9.96,10.06,181217
18-May-17,9.94,10.12,9.90,9.98,262094
17-May-17,9.99,10.03,9.91,9.95,301905
16-May-17,10.00,10.03,9.92,10.01,139615
15-May-17,9.86,10.02,9.86,9.99,224385
12-May-17,10.00,10.02,9.87,9.89,186387
11-May-17,9.98,10.05,9.89,10.02,208659
10-May-17,9.95,10.00,9.90,9.99,235931
9-May-17,10.10,10.11,9.88,9.93,273921
8-May-17,10.06,10.12,9.96,10.04,273280
5-May-17,9.89,10.25,9.85,10.09,417780
4-May-17,10.23,10.23,9.75,9.86,743886
3-May-17,10.50,10.50,10.34,10.41,282016
2-May-17,10.66,10.66,10.42,10.50,313583
1-May-17,10.58,10.71,10.54,10.65,233584
28-Apr-17,10.70,10.70,10.50,10.53,323114
27-Apr-17,10.62,10.71,10.59,10.70,327043
26-Apr-17,10.51,10.64,10.44,10.57,352944
25-Apr-17,10.41,10.51,10.40,10.44,284695
24-Apr-17,10.43,10.43,10.32,10.40,220454
21-Apr-17,10.34,10.43,10.28,10.36,349858
20-Apr-17,10.31,10.38,10.21,10.27,190751
19-Apr-17,10.34,10.38,10.29,10.32,168512
18-Apr-17,10.30,10.35,10.26,10.33,198239
17-Apr-17,10.12,10.30,10.12,10.29,238490
13-Apr-17,10.13,10.21,10.10,10.16,197910
12-Apr-17,10.17,10.22,10.11,10.12,203578
11-Apr-17,10.12,10.29,10.05,10.23,333151
10-Apr-17,10.01,10.23,9.99,10.12,491899
7-Apr-17,9.72,10.00,9.71,9.98,490636
6-Apr-17,9.63,9.72,9.58,9.71,182181
5-Apr-17,9.74,9.80,9.62,9.64,227186
4-Apr-17,9.70,9.78,9.68,9.74,280870
3-Apr-17,9.75,9.77,9.71,9.75,187418
31-Mar-17,9.84,9.88,9.75,9.77,480897
30-Mar-17,9.86,9.99,9.85,9.90,410086
29-Mar-17,9.97,10.16,9.96,10.15,634040
28-Mar-17,9.90,10.02,9.86,9.98,321630
27-Mar-17,9.80,9.93,9.76,9.90,264869
24-Mar-17,10.03,10.07,9.80,9.80,340723
23-Mar-17,9.90,10.00,9.87,9.89,204016
22-Mar-17,9.93,9.97,9.81,9.88,234463
21-Mar-17,9.99,10.04,9.92,9.93,263721
20-Mar-17,10.07,10.07,9.71,9.99,338157
17-Mar-17,9.83,10.06,9.81,10.05,935233
16-Mar-17,9.79,9.86,9.74,9.82,258090
15-Mar-17,9.50,9.81,9.50,9.79,288957
14-Mar-17,9.54,9.58,9.50,9.51,284151
13-Mar-17,9.60,9.74,9.54,9.55,277588
10-Mar-17,9.65,9.72,9.50,9.62,425791
9-Mar-17,9.68,9.70,9.43,9.64,798109
8-Mar-17,9.87,9.89,9.57,9.65,814149
7-Mar-17,10.06,10.25,9.90,9.91,668440
6-Mar-17,10.09,10.09,9.76,9.97,462942
3-Mar-17,10.12,10.12,10.00,10.10,345579
2-Mar-17,10.27,10.34,10.11,10.12,365833
1-Mar-17,10.40,10.46,10.32,10.35,234267
28-Feb-17,10.36,10.40,10.30,10.40,283637
27-Feb-17,10.36,10.40,10.31,10.37,186440
24-Feb-17,10.32,10.39,10.27,10.36,163260
23-Feb-17,10.38,10.43,10.32,10.37,156824
22-Feb-17,10.38,10.38,10.30,10.36,200089
21-Feb-17,10.31,10.42,10.31,10.38,187582
17-Feb-17,10.49,10.49,10.33,10.39,205202
16-Feb-17,10.37,10.49,10.35,10.49,189134
15-Feb-17,10.23,10.38,10.17,10.37,242540
14-Feb-17,10.35,10.38,10.20,10.26,214123
13-Feb-17,10.40,10.46,10.31,10.41,212082
10-Feb-17,10.21,10.38,10.21,10.35,234636
9-Feb-17,10.11,10.25,10.10,10.18,205220
8-Feb-17,10.17,10.20,10.05,10.14,214506
7-Feb-17,10.17,10.20,10.08,10.17,257001
6-Feb-17,10.20,10.24,10.17,10.19,143228
3-Feb-17,10.16,10.27,10.15,10.20,126227
2-Feb-17,10.09,10.19,10.03,10.12,176565
1-Feb-17,10.02,10.24,10.02,10.09,186320
31-Jan-17,10.19,10.22,9.93,10.09,278429
30-Jan-17,10.20,10.22,10.03,10.20,289806
27-Jan-17,10.33,10.35,10.15,10.16,191614
26-Jan-17,10.21,10.29,10.17,10.24,159428
25-Jan-17,10.25,10.27,10.15,10.18,155535
24-Jan-17,10.14,10.31,10.07,10.25,268541
23-Jan-17,10.03,10.21,10.03,10.14,214396
20-Jan-17,10.00,10.05,9.99,10.00,176251
19-Jan-17,10.03,10.07,9.94,10.00,218279
18-Jan-17,10.16,10.18,10.06,10.11,147554
17-Jan-17,10.18,10.26,10.15,10.17,176433
13-Jan-17,10.16,10.27,10.14,10.19,107158
12-Jan-17,10.33,10.33,10.10,10.19,173833
11-Jan-17,10.29,10.39,10.21,10.34,140548
10-Jan-17,10.10,10.28,10.04,10.25,266781
9-Jan-17,10.13,10.29,10.10,10.11,194485
6-Jan-17,10.26,10.28,10.16,10.17,297783
5-Jan-17,10.20,10.44,10.12,10.28,446532
4-Jan-17,10.36,10.54,10.34,10.54,426928
3-Jan-17,10.05,10.35,10.04,10.35,348274
30-Dec-16,10.23,10.27,10.05,10.07,221931
29-Dec-16,10.03,10.31,10.02,10.27,295348
28-Dec-16,10.36,10.43,10.24,10.35,513710
27-Dec-16,10.40,10.45,10.31,10.40,311796
23-Dec-16,10.46,10.50,10.31,10.41,273137
22-Dec-16,10.47,10.56,10.37,10.46,214359
21-Dec-16,10.50,10.58,10.45,10.50,173300
20-Dec-16,10.56,10.60,10.39,10.53,303664
19-Dec-16,10.29,10.52,10.29,10.51,238902
16-Dec-16,10.06,10.48,10.04,10.26,1016607
15-Dec-16,10.30,10.38,10.01,10.01,559378
14-Dec-16,10.52,10.57,10.37,10.38,402433
13-Dec-16,10.95,10.98,10.54,10.54,482726
12-Dec-16,11.08,11.15,10.90,10.95,264847
9-Dec-16,11.04,11.18,11.00,11.15,307384
8-Dec-16,11.07,11.17,11.01,11.06,394277
7-Dec-16,10.90,11.10,10.88,11.07,366671
6-Dec-16,10.73,10.89,10.73,10.89,187385
5-Dec-16,10.63,10.76,10.55,10.76,165266
2-Dec-16,10.59,10.66,10.52,10.54,156649
1-Dec-16,10.79,10.79,10.52,10.59,197139
30-Nov-16,10.76,10.82,10.63,10.69,214644
29-Nov-16,10.60,10.85,10.60,10.80,264465
28-Nov-16,10.74,10.79,10.65,10.66,197858
25-Nov-16,10.70,10.77,10.63,10.66,101525
23-Nov-16,10.80,10.85,10.66,10.70,211512
22-Nov-16,10.72,10.87,10.66,10.85,333862
21-Nov-16,10.67,10.70,10.54,10.70,206396
18-Nov-16,10.49,10.55,10.42,10.54,192816
17-Nov-16,10.53,10.56,10.45,10.47,149871
16-Nov-16,10.47,10.57,10.41,10.49,209253
15-Nov-16,10.40,10.48,10.25,10.41,295076
14-Nov-16,10.45,10.49,10.36,10.42,261087
11-Nov-16,10.28,10.55,10.28,10.40,471952
10-Nov-16,10.32,10.40,10.17,10.26,387335
9-Nov-16,10.09,10.40,10.00,10.37,481729
8-Nov-16,10.31,10.42,10.23,10.27,549203
7-Nov-16,10.22,10.36,10.18,10.25,255832
4-Nov-16,10.09,10.27,10.09,10.16,280762
3-Nov-16,9.97,10.34,9.94,10.09,335046
2-Nov-16,9.93,9.98,9.86,9.87,212466
1-Nov-16,10.15,10.18,9.84,9.88,294013
31-Oct-16,10.15,10.19,10.08,10.13,174274
28-Oct-16,10.16,10.25,10.05,10.13,114520
27-Oct-16,10.33,10.38,10.19,10.20,91302
26-Oct-16,10.47,10.48,10.29,10.35,197508
25-Oct-16,10.28,10.48,10.27,10.45,265302
24-Oct-16,10.09,10.26,10.08,10.26,182457
21-Oct-16,9.95,10.12,9.95,10.06,139339
20-Oct-16,10.04,10.11,9.95,10.01,134598
19-Oct-16,9.97,10.12,9.93,10.02,165806
18-Oct-16,9.88,9.99,9.81,9.92,148801
17-Oct-16,9.81,9.90,9.79,9.81,89670
14-Oct-16,9.89,9.95,9.79,9.83,175374
13-Oct-16,9.81,9.95,9.81,9.86,169561
12-Oct-16,9.79,9.94,9.74,9.85,177015
11-Oct-16,9.75,9.81,9.71,9.77,186542
10-Oct-16,9.76,9.88,9.71,9.75,196261
7-Oct-16,9.75,9.79,9.63,9.71,191642
6-Oct-16,9.81,9.89,9.69,9.70,243609
5-Oct-16,9.86,9.95,9.81,9.84,275320
4-Oct-16,10.13,10.13,9.82,9.87,393110
3-Oct-16,10.40,10.41,10.13,10.15,257770
30-Sep-16,10.50,10.55,10.40,10.42,353545
29-Sep-16,10.70,10.79,10.60,10.69,476026
28-Sep-16,10.73,10.77,10.65,10.70,206564
27-Sep-16,10.64,10.76,10.64,10.68,224533
26-Sep-16,10.88,10.94,10.67,10.68,248247
23-Sep-16,10.84,10.90,10.74,10.84,320616
22-Sep-16,10.77,10.89,10.74,10.89,215481
21-Sep-16,10.67,10.74,10.50,10.72,228104
20-Sep-16,10.60,10.67,10.50,10.61,176503
19-Sep-16,10.33,10.69,10.33,10.51,298982
16-Sep-16,10.53,10.53,10.24,10.29,1598243
15-Sep-16,10.40,10.57,10.35,10.53,176445
14-Sep-16,10.38,10.47,10.31,10.37,167965
13-Sep-16,10.50,10.56,10.32,10.33,261427
12-Sep-16,10.34,10.61,10.23,10.55,322521
9-Sep-16,10.68,10.75,10.43,10.43,363574
8-Sep-16,10.82,10.90,10.82,10.86,180538
7-Sep-16,10.76,10.89,10.76,10.89,202226
6-Sep-16,10.75,10.83,10.66,10.79,225086
2-Sep-16,10.52,10.74,10.52,10.74,240019
1-Sep-16,10.56,10.59,10.42,10.52,182539
31-Aug-16,10.58,10.61,10.51,10.58,190887
30-Aug-16,10.57,10.62,10.52,10.60,118740
29-Aug-16,10.50,10.69,10.50,10.57,180358
26-Aug-16,10.71,10.78,10.50,10.56,213031
25-Aug-16,10.77,10.79,10.68,10.73,246769
24-Aug-16,10.89,10.93,10.71,10.75,316392
23-Aug-16,10.78,10.93,10.74,10.89,262034
22-Aug-16,10.64,10.75,10.60,10.72,306047
19-Aug-16,10.80,10.81,10.69,10.69,336380
18-Aug-16,10.74,10.88,10.74,10.81,277837
17-Aug-16,10.78,10.81,10.69,10.76,259820
16-Aug-16,10.80,10.85,10.78,10.79,234432
15-Aug-16,10.84,10.98,10.75,10.86,488601
12-Aug-16,10.96,11.03,10.90,11.00,369938
11-Aug-16,10.90,10.97,10.82,10.95,436085
10-Aug-16,10.94,10.96,10.85,10.87,381041
9-Aug-16,10.84,10.94,10.83,10.88,476687
8-Aug-16,10.85,10.94,10.80,10.82,641999
5-Aug-16,10.39,11.00,10.32,10.89,1444942
4-Aug-16,9.95,10.19,9.93,10.19,571287
3-Aug-16,9.84,9.95,9.80,9.93,405976
2-Aug-16,9.90,9.95,9.82,9.82,234721
1-Aug-16,9.80,9.93,9.80,9.89,357001
29-Jul-16,9.88,9.89,9.76,9.84,268623
28-Jul-16,9.82,9.89,9.77,9.85,183954
27-Jul-16,9.81,9.89,9.76,9.84,270020
26-Jul-16,9.90,9.90,9.80,9.82,273005
25-Jul-16,9.82,9.90,9.79,9.89,205147
22-Jul-16,9.79,9.90,9.77,9.89,216837
21-Jul-16,9.75,9.87,9.75,9.80,173999
20-Jul-16,9.71,9.82,9.67,9.77,256936
19-Jul-16,9.65,9.73,9.62,9.71,224420
18-Jul-16,9.57,9.64,9.54,9.64,290839
15-Jul-16,9.52,9.55,9.46,9.54,285445
14-Jul-16,9.58,9.60,9.51,9.52,199156
13-Jul-16,9.55,9.62,9.53,9.60,296919
12-Jul-16,9.53,9.60,9.50,9.57,529529
11-Jul-16,9.33,9.57,9.30,9.53,411624
8-Jul-16,9.30,9.35,9.26,9.31,378729
7-Jul-16,9.33,9.37,9.25,9.28,372978
6-Jul-16,9.27,9.39,9.22,9.33,371497
5-Jul-16,9.38,9.47,9.29,9.33,473722
1-Jul-16,9.38,9.49,9.30,9.37,591101
30-Jun-16,9.40,9.43,9.18,9.39,673277
29-Jun-16,9.60,9.77,9.52,9.74,943691
28-Jun-16,9.50,9.69,9.43,9.67,670139
27-Jun-16,9.58,9.63,9.30,9.43,686464
24-Jun-16,9.09,9.60,9.07,9.33,980500
23-Jun-16,9.67,9.67,9.55,9.57,352131
22-Jun-16,9.65,9.74,9.61,9.61,257733
21-Jun-16,9.86,9.90,9.68,9.69,384895
20-Jun-16,9.89,9.97,9.82,9.85,326891
17-Jun-16,9.95,9.96,9.80,9.94,1119042
16-Jun-16,9.83,9.93,9.74,9.92,315686
15-Jun-16,9.80,9.90,9.73,9.81,276388
14-Jun-16,9.75,9.83,9.71,9.80,316293
13-Jun-16,9.76,9.83,9.72,9.80,431221
10-Jun-16,9.67,9.79,9.65,9.77,291956
9-Jun-16,9.65,9.74,9.60,9.73,303578
8-Jun-16,9.55,9.65,9.51,9.64,377965
7-Jun-16,9.45,9.51,9.38,9.51,272728
6-Jun-16,9.40,9.45,9.38,9.42,235331
3-Jun-16,9.43,9.45,9.31,9.40,313586
2-Jun-16,9.36,9.46,9.30,9.34,439384
1-Jun-16,9.25,9.37,9.20,9.36,237210
31-May-16,9.09,9.28,9.07,9.27,464761
27-May-16,9.11,9.17,9.06,9.17,183544
26-May-16,9.10,9.14,9.05,9.10,293460
25-May-16,8.92,9.09,8.88,9.08,344910
24-May-16,8.94,9.00,8.91,8.91,212750
23-May-16,8.82,9.03,8.80,8.88,335782
20-May-16,8.85,8.89,8.73,8.77,448092
19-May-16,8.75,8.84,8.71,8.80,384916
18-May-16,9.03,9.14,8.80,8.84,488347
17-May-16,9.07,9.25,9.01,9.07,463342
16-May-16,9.20,9.25,9.16,9.17,282346
13-May-16,9.07,9.29,9.04,9.18,425219
12-May-16,9.25,9.27,9.03,9.11,723129
11-May-16,9.30,9.39,9.28,9.28,399028
10-May-16,9.25,9.39,9.13,9.31,1026250
9-May-16,9.29,9.49,9.18,9.34,766837
6-May-16,9.18,9.49,9.05,9.36,1146568
5-May-16,9.78,9.87,9.69,9.71,472787
4-May-16,9.64,9.77,9.56,9.74,365893
3-May-16,9.82,9.92,9.58,9.69,441492
2-May-16,10.00,10.05,9.80,9.85,314015
29-Apr-16,9.99,10.09,9.87,9.97,410139
28-Apr-16,9.94,10.05,9.94,9.99,292068
27-Apr-16,10.00,10.06,9.93,10.01,398244
26-Apr-16,10.03,10.12,9.94,10.00,369569
25-Apr-16,9.88,9.97,9.83,9.96,277686
22-Apr-16,9.91,9.97,9.86,9.90,315139
21-Apr-16,9.93,10.03,9.84,9.87,337739
20-Apr-16,10.02,10.03,9.94,9.95,255484
19-Apr-16,9.84,10.08,9.83,10.03,479081
18-Apr-16,9.84,9.90,9.76,9.85,449417
15-Apr-16,10.00,10.06,9.88,9.88,258936
14-Apr-16,10.05,10.11,9.99,10.01,325897
13-Apr-16,9.96,10.18,9.89,10.06,525762
12-Apr-16,9.89,9.99,9.82,9.93,354035
11-Apr-16,9.85,9.95,9.80,9.83,563877
8-Apr-16,9.92,10.00,9.88,9.88,249236
7-Apr-16,9.81,9.92,9.81,9.87,230589
6-Apr-16,9.91,9.95,9.79,9.83,279738
5-Apr-16,9.83,9.93,9.78,9.90,424450
4-Apr-16,9.91,9.97,9.82,9.87,331422
1-Apr-16,10.08,10.08,9.85,9.91,424560
31-Mar-16,9.80,10.07,9.77,10.05,610142
30-Mar-16,10.31,10.42,10.17,10.27,887704
29-Mar-16,9.99,10.31,9.98,10.27,654253
28-Mar-16,9.95,10.12,9.80,10.03,825921
24-Mar-16,10.05,10.13,9.94,10.08,336221
23-Mar-16,10.47,10.51,10.11,10.12,377507
22-Mar-16,10.59,10.64,10.48,10.49,412973
21-Mar-16,10.60,10.74,10.46,10.66,475011
18-Mar-16,10.54,10.63,10.25,10.60,2128966
17-Mar-16,10.13,10.52,10.05,10.48,599897
16-Mar-16,10.00,10.13,9.89,10.12,344848
15-Mar-16,10.05,10.05,9.84,9.95,248647
14-Mar-16,10.01,10.15,9.95,10.06,255600
11-Mar-16,9.99,10.10,9.86,10.06,351516
10-Mar-16,9.96,10.04,9.78,9.93,271264
9-Mar-16,10.10,10.16,9.90,9.99,188578
8-Mar-16,10.15,10.16,9.91,10.07,407515
7-Mar-16,10.02,10.28,9.96,10.15,492740
4-Mar-16,10.17,10.44,10.11,10.16,458404
3-Mar-16,9.81,10.21,9.75,10.21,693945
2-Mar-16,9.62,9.97,9.62,9.68,974691
1-Mar-16,10.31,10.40,9.53,9.61,1872267
29-Feb-16,10.66,10.84,10.61,10.81,567637
26-Feb-16,10.75,10.95,10.53,10.68,501907
25-Feb-16,10.56,10.78,10.40,10.77,427201
24-Feb-16,10.48,10.58,10.19,10.50,326782
23-Feb-16,10.60,10.73,10.52,10.64,274197
22-Feb-16,10.48,10.64,10.41,10.61,381208
19-Feb-16,10.31,10.44,10.21,10.40,362041
18-Feb-16,10.31,10.42,10.21,10.38,279791
17-Feb-16,10.02,10.35,10.02,10.31,605751
16-Feb-16,9.78,9.97,9.57,9.96,377020
12-Feb-16,9.46,9.55,9.38,9.51,323850
11-Feb-16,9.38,9.44,9.20,9.31,391576
10-Feb-16,9.54,9.76,9.41,9.58,284688
9-Feb-16,9.83,9.84,9.39,9.49,339763
8-Feb-16,9.96,10.00,9.75,9.90,393301
5-Feb-16,10.04,10.15,9.97,10.00,309279
4-Feb-16,9.95,10.19,9.91,10.10,317176
3-Feb-16,9.75,9.97,9.69,9.94,279460
2-Feb-16,9.72,9.82,9.44,9.75,295532
1-Feb-16,9.71,9.90,9.66,9.81,430994
29-Jan-16,9.43,9.83,9.43,9.81,513384
28-Jan-16,9.47,9.71,9.34,9.41,289694
27-Jan-16,9.33,9.60,9.18,9.28,428805
26-Jan-16,9.10,9.44,8.84,9.31,698791
25-Jan-16,9.42,9.48,8.96,8.99,426006
22-Jan-16,9.18,9.50,9.03,9.40,561333
21-Jan-16,8.84,9.24,8.73,9.02,757706
20-Jan-16,8.67,8.91,8.04,8.83,1265308
19-Jan-16,9.28,9.30,8.75,8.90,873832
15-Jan-16,9.36,9.49,8.94,9.26,864723
14-Jan-16,9.65,9.75,9.31,9.58,925002
13-Jan-16,10.06,10.14,9.58,9.67,651420
12-Jan-16,10.33,10.40,9.98,10.09,586560
11-Jan-16,10.44,10.48,10.26,10.30,331825
8-Jan-16,10.40,10.50,10.30,10.37,460802
7-Jan-16,10.55,10.60,10.36,10.36,415549
6-Jan-16,10.65,10.76,10.58,10.64,458426
5-Jan-16,10.40,10.74,10.38,10.69,452954
4-Jan-16,10.09,10.38,10.05,10.37,559905
31-Dec-15,10.28,10.36,10.21,10.22,612134
30-Dec-15,10.45,10.51,10.27,10.27,525524
29-Dec-15,10.70,10.85,10.38,10.47,669771
28-Dec-15,10.75,10.79,10.51,10.71,618875
24-Dec-15,10.80,10.93,10.71,10.76,397431
23-Dec-15,11.07,11.11,10.82,10.84,846643
22-Dec-15,11.65,11.78,11.54,11.66,1048792
21-Dec-15,12.18,12.18,11.21,11.62,1476445
18-Dec-15,11.62,12.20,11.57,12.19,3902552
17-Dec-15,11.17,11.64,11.17,11.62,783426
16-Dec-15,10.51,11.20,10.51,11.19,744328
15-Dec-15,10.12,10.53,9.94,10.48,698172
14-Dec-15,10.67,10.72,10.07,10.12,920563
11-Dec-15,10.93,11.00,10.59,10.62,594277
10-Dec-15,10.96,11.15,10.94,11.03,270927
9-Dec-15,10.99,11.19,10.93,10.97,326819
8-Dec-15,11.20,11.21,11.01,11.02,323228
7-Dec-15,11.26,11.37,11.20,11.22,457625
4-Dec-15,11.20,11.29,11.19,11.24,306034
3-Dec-15,11.24,11.34,11.12,11.18,404738
2-Dec-15,11.72,11.75,11.12,11.22,1052454
1-Dec-15,11.81,11.85,11.73,11.81,217718
30-Nov-15,12.00,12.00,11.68,11.77,454561
27-Nov-15,11.81,11.99,11.81,11.98,234398
25-Nov-15,11.58,11.88,11.51,11.86,342879
24-Nov-15,11.40,11.65,11.38,11.64,239444
23-Nov-15,11.50,11.52,11.34,11.46,302638
20-Nov-15,11.45,11.56,11.45,11.52,322246
19-Nov-15,11.25,11.45,11.25,11.45,280807
18-Nov-15,11.06,11.29,10.99,11.27,450048
17-Nov-15,11.06,11.10,10.98,11.01,307154
16-Nov-15,10.96,11.10,10.90,11.04,342155
13-Nov-15,10.85,11.09,10.84,11.02,485095
12-Nov-15,11.38,11.41,10.93,11.01,612382
11-Nov-15,11.30,11.49,11.30,11.46,285925
10-Nov-15,10.97,11.33,10.91,11.30,412619
9-Nov-15,10.93,11.00,10.87,10.97,337151
6-Nov-15,10.95,11.07,10.78,10.94,748661
5-Nov-15,11.35,11.42,10.84,10.99,1255024
4-Nov-15,11.59,11.80,11.49,11.49,922152
3-Nov-15,11.56,11.90,11.45,11.90,796842
2-Nov-15,11.43,11.58,11.42,11.56,525947
30-Oct-15,11.53,11.58,11.31,11.42,619473
29-Oct-15,11.75,11.75,11.53,11.56,382667
28-Oct-15,11.55,11.85,11.51,11.79,553132
27-Oct-15,11.89,11.94,11.44,11.50,533893
26-Oct-15,11.80,11.91,11.79,11.84,284623
23-Oct-15,11.90,11.99,11.76,11.79,265903
22-Oct-15,11.78,11.97,11.73,11.91,427032
21-Oct-15,11.77,11.81,11.71,11.71,192002
20-Oct-15,11.80,11.93,11.73,11.75,328079
19-Oct-15,12.00,12.00,11.76,11.78,360871
16-Oct-15,12.06,12.09,11.94,12.02,196837
15-Oct-15,11.90,12.05,11.71,12.03,453280
14-Oct-15,11.88,11.96,11.80,11.91,411752
13-Oct-15,12.01,12.06,11.83,11.83,345483
12-Oct-15,12.00,12.11,11.97,12.05,226536
9-Oct-15,12.09,12.13,11.89,12.04,525498
8-Oct-15,12.02,12.20,12.02,12.10,353346
7-Oct-15,11.87,12.14,11.86,12.07,582704
6-Oct-15,11.77,11.97,11.77,11.88,489926
5-Oct-15,11.75,11.93,11.75,11.81,500563
2-Oct-15,11.62,11.88,11.57,11.72,655374
1-Oct-15,11.95,12.11,11.71,11.88,890289
30-Sep-15,12.70,12.75,12.18,12.61,1369306
29-Sep-15,12.67,12.85,12.54,12.59,747121
28-Sep-15,13.16,13.20,12.37,12.66,1278296
25-Sep-15,13.38,13.50,13.13,13.15,958552
24-Sep-15,13.42,13.47,13.31,13.44,312069
23-Sep-15,13.44,13.45,13.31,13.44,297905
22-Sep-15,13.27,13.48,13.26,13.38,360558
21-Sep-15,13.17,13.42,13.10,13.38,575842
18-Sep-15,13.07,13.19,13.02,13.15,503288
17-Sep-15,12.86,13.25,12.71,13.19,680791
16-Sep-15,12.94,12.98,12.85,12.88,404215
15-Sep-15,12.88,12.98,12.76,12.97,320864
14-Sep-15,12.90,12.93,12.76,12.89,227603
11-Sep-15,12.66,12.92,12.66,12.92,233012
10-Sep-15,12.69,12.76,12.64,12.71,263905
9-Sep-15,12.78,12.89,12.66,12.69,334501
8-Sep-15,12.70,12.83,12.63,12.78,382270
4-Sep-15,12.59,12.69,12.53,12.58,385214
3-Sep-15,12.71,12.86,12.66,12.66,346731
2-Sep-15,12.65,12.90,12.54,12.65,785633
1-Sep-15,12.64,12.80,12.55,12.60,607443
31-Aug-15,12.82,12.89,12.76,12.78,390952
28-Aug-15,12.87,12.95,12.76,12.86,463873
27-Aug-15,12.92,13.00,12.71,12.90,651041
26-Aug-15,12.91,12.92,12.71,12.82,565993
25-Aug-15,12.82,13.00,12.60,12.69,588816
24-Aug-15,13.20,13.22,11.07,12.55,1619500
21-Aug-15,13.36,13.47,13.20,13.28,580631
20-Aug-15,13.46,13.60,13.43,13.48,392504
19-Aug-15,13.22,13.50,13.20,13.47,564070
18-Aug-15,13.35,13.40,13.22,13.23,610082
17-Aug-15,13.42,13.53,13.32,13.37,525205
14-Aug-15,13.43,13.49,13.32,13.45,301550
13-Aug-15,13.40,13.52,13.33,13.41,481004
12-Aug-15,13.29,13.45,13.16,13.41,518596
11-Aug-15,13.32,13.40,13.24,13.35,405732
10-Aug-15,13.21,13.34,13.18,13.34,681608
7-Aug-15,13.40,13.48,13.13,13.21,658364
6-Aug-15,13.13,13.41,13.07,13.38,891384
5-Aug-15,13.40,13.47,13.01,13.14,1528675
4-Aug-15,13.59,13.60,13.39,13.42,889417
3-Aug-15,13.85,13.85,13.41,13.54,1749542
31-Jul-15,14.24,14.33,13.50,13.87,2302733
30-Jul-15,14.85,14.87,14.65,14.68,459937
29-Jul-15,14.66,14.84,14.66,14.81,428554
28-Jul-15,14.51,14.80,14.50,14.68,607460
27-Jul-15,14.44,14.58,14.33,14.43,509928
24-Jul-15,14.47,14.64,14.45,14.48,555074
23-Jul-15,14.88,14.93,14.50,14.50,683870
22-Jul-15,14.83,14.95,14.83,14.85,332278
21-Jul-15,14.95,14.97,14.82,14.88,307651
20-Jul-15,14.92,14.96,14.82,14.93,333443
17-Jul-15,14.95,14.96,14.76,14.89,439329
16-Jul-15,14.91,14.99,14.86,14.93,369661
15-Jul-15,14.93,14.96,14.81,14.88,460670
14-Jul-15,14.94,15.03,14.90,14.90,350795
13-Jul-15,14.94,15.08,14.88,14.94,412160
10-Jul-15,14.90,15.04,14.81,14.98,439201
9-Jul-15,15.24,15.24,14.75,14.87,858218
8-Jul-15,15.00,15.18,15.00,15.16,583215
7-Jul-15,15.11,15.23,14.97,15.14,614926
6-Jul-15,14.85,15.07,14.84,15.07,668077
2-Jul-15,15.20,15.29,15.01,15.01,408370
1-Jul-15,14.86,15.23,14.77,15.17,754014
30-Jun-15,14.77,14.96,14.71,14.77,534150
29-Jun-15,14.83,15.04,14.61,14.73,1079536
26-Jun-15,14.95,15.03,14.82,14.96,861088
25-Jun-15,14.77,15.10,14.71,14.96,1077422
24-Jun-15,15.45,15.50,15.34,15.38,1032227
23-Jun-15,15.53,15.53,15.30,15.41,1055209
22-Jun-15,15.55,15.55,15.35,15.46,804216
19-Jun-15,15.55,15.60,15.39,15.47,1033177
18-Jun-15,15.50,15.65,15.47,15.59,807551
17-Jun-15,15.50,15.50,15.30,15.50,549983
16-Jun-15,15.37,15.50,15.35,15.50,425559
15-Jun-15,15.46,15.47,15.35,15.44,395748
12-Jun-15,15.42,15.49,15.37,15.43,256974
11-Jun-15,15.30,15.45,15.24,15.45,439893
10-Jun-15,15.08,15.30,15.08,15.27,404479
9-Jun-15,15.06,15.10,15.01,15.08,304284
8-Jun-15,15.20,15.20,14.99,15.07,616125
5-Jun-15,15.22,15.28,15.16,15.22,398546
4-Jun-15,15.30,15.40,15.23,15.24,461760
3-Jun-15,15.43,15.43,15.25,15.37,456376
2-Jun-15,15.38,15.46,15.31,15.43,686225
1-Jun-15,15.25,15.43,15.22,15.37,623208
29-May-15,15.22,15.26,15.16,15.20,307547
28-May-15,15.21,15.25,15.15,15.23,305732
27-May-15,15.17,15.26,15.08,15.21,371795
26-May-15,15.03,15.19,15.00,15.18,425044
22-May-15,15.15,15.15,15.02,15.10,343013
21-May-15,15.25,15.26,15.10,15.16,438819
20-May-15,15.18,15.25,15.10,15.19,479020
19-May-15,15.08,15.17,15.03,15.12,375410
18-May-15,15.00,15.07,14.89,15.07,495801
15-May-15,14.94,15.00,14.84,15.00,401529
14-May-15,14.91,14.95,14.87,14.92,289992
13-May-15,14.92,14.95,14.82,14.87,366357
12-May-15,14.80,14.92,14.70,14.90,489262
11-May-15,14.84,14.89,14.80,14.81,385799
8-May-15,14.93,14.95,14.79,14.82,441946
7-May-15,14.75,14.91,14.61,14.91,501269
6-May-15,14.80,14.84,14.59,14.76,659697
5-May-15,14.69,14.75,14.55,14.60,588463
4-May-15,14.76,14.80,14.65,14.70,392171
1-May-15,14.61,14.80,14.60,14.79,390446
30-Apr-15,14.80,14.85,14.58,14.61,497377
29-Apr-15,14.89,14.93,14.78,14.80,561233
28-Apr-15,14.79,14.96,14.71,14.91,566099
27-Apr-15,14.97,14.98,14.77,14.79,476902
24-Apr-15,14.85,14.96,14.85,14.91,367639
23-Apr-15,14.71,14.86,14.71,14.84,298600
22-Apr-15,14.76,14.81,14.71,14.76,181368
21-Apr-15,14.80,14.86,14.71,14.72,241048
20-Apr-15,14.87,14.88,14.69,14.79,399587
17-Apr-15,14.65,14.88,14.64,14.80,721183
16-Apr-15,14.65,14.74,14.56,14.68,398152
15-Apr-15,14.58,14.78,14.53,14.65,473618
14-Apr-15,14.50,14.58,14.48,14.56,389282
13-Apr-15,14.37,14.54,14.36,14.47,372342
10-Apr-15,14.37,14.45,14.35,14.37,394556
9-Apr-15,14.33,14.37,14.30,14.33,540935
8-Apr-15,14.32,14.40,14.30,14.33,355408
7-Apr-15,14.34,14.48,14.31,14.31,440777
6-Apr-15,14.25,14.49,14.25,14.39,623854
2-Apr-15,14.39,14.49,14.25,14.25,827606
1-Apr-15,14.37,14.47,14.18,14.38,1051024
31-Mar-15,15.20,15.26,15.08,15.08,1332835
30-Mar-15,15.30,15.30,15.15,15.18,1036141
27-Mar-15,15.08,15.32,15.08,15.19,912864
26-Mar-15,15.08,15.15,14.91,14.98,795992
25-Mar-15,15.14,15.22,15.06,15.08,471769
24-Mar-15,15.25,15.33,15.11,15.13,533783
23-Mar-15,15.50,15.50,15.20,15.27,878557
20-Mar-15,15.32,15.53,15.29,15.53,1697423
19-Mar-15,15.22,15.39,15.21,15.32,496258
18-Mar-15,15.24,15.36,15.15,15.27,823174
17-Mar-15,15.07,15.23,15.00,15.20,606033
16-Mar-15,15.15,15.18,15.01,15.10,409803
13-Mar-15,15.00,15.15,14.95,15.15,560791
12-Mar-15,14.98,15.05,14.94,14.94,412045
11-Mar-15,15.04,15.04,14.91,14.91,526436
10-Mar-15,14.85,15.06,14.75,15.06,554875
9-Mar-15,14.91,14.98,14.85,14.92,532152
6-Mar-15,15.09,15.13,14.88,14.95,790444
5-Mar-15,15.17,15.20,15.09,15.13,521456
4-Mar-15,15.10,15.17,15.07,15.16,555146
3-Mar-15,15.20,15.20,15.02,15.11,1701738
2-Mar-15,15.00,15.23,14.90,15.20,1348737
27-Feb-15,14.50,15.01,14.41,15.00,2129017
26-Feb-15,14.25,14.38,14.20,14.38,448555
25-Feb-15,14.20,14.29,14.20,14.24,439546
24-Feb-15,14.20,14.28,14.14,14.23,382131
23-Feb-15,14.33,14.37,14.15,14.20,460653
20-Feb-15,14.23,14.30,14.14,14.25,399342
19-Feb-15,14.14,14.29,14.14,14.24,260830
18-Feb-15,14.30,14.32,14.08,14.20,547074
17-Feb-15,14.15,14.40,14.15,14.30,413717
13-Feb-15,14.01,14.21,14.01,14.14,487642
12-Feb-15,13.88,14.14,13.81,14.01,522003
11-Feb-15,13.81,13.87,13.73,13.78,451834
10-Feb-15,13.69,13.89,13.69,13.81,533938
9-Feb-15,13.53,13.75,13.53,13.67,440802
6-Feb-15,13.45,13.62,13.39,13.56,619434
5-Feb-15,13.40,13.52,13.35,13.45,766152
4-Feb-15,13.65,13.69,13.36,13.39,1058636
3-Feb-15,13.40,13.65,13.36,13.65,777809
2-Feb-15,13.51,13.72,13.37,13.39,1002183
30-Jan-15,13.68,13.71,13.50,13.50,570883
29-Jan-15,13.76,13.77,13.48,13.71,715226
28-Jan-15,14.05,14.08,13.70,13.74,782089
27-Jan-15,14.06,14.11,13.92,14.05,778874
26-Jan-15,13.79,14.02,13.76,14.01,707176
23-Jan-15,13.82,13.85,13.73,13.77,545367
22-Jan-15,13.46,13.88,13.46,13.80,765168
21-Jan-15,13.30,13.50,13.30,13.40,541534
20-Jan-15,13.55,13.58,13.28,13.30,525845
16-Jan-15,13.30,13.53,13.28,13.50,741777
15-Jan-15,13.64,13.69,13.25,13.33,1174248
14-Jan-15,13.60,13.62,13.43,13.61,1048887
13-Jan-15,13.87,13.93,13.54,13.70,1232604
12-Jan-15,14.01,14.05,13.71,13.84,1601792
9-Jan-15,14.16,14.29,13.96,14.00,1042441
8-Jan-15,14.15,14.27,14.06,14.14,1082355
7-Jan-15,14.30,14.36,14.05,14.10,1546815
6-Jan-15,14.66,14.72,14.25,14.28,1696063
5-Jan-15,14.80,14.86,14.66,14.66,632964
2-Jan-15,14.74,14.90,14.64,14.89,684649
31-Dec-14,14.90,14.95,14.70,14.70,601223
30-Dec-14,14.96,15.00,14.80,14.89,608550
29-Dec-14,14.89,15.10,14.88,14.95,582568
26-Dec-14,14.85,14.98,14.83,14.89,929470
24-Dec-14,14.95,15.04,14.75,14.85,1095286
23-Dec-14,15.59,15.70,15.50,15.64,1477750
22-Dec-14,15.59,15.60,15.45,15.58,1051830
19-Dec-14,15.40,15.63,15.26,15.53,1999588
18-Dec-14,15.30,15.33,15.14,15.27,770264
17-Dec-14,14.82,15.15,14.76,15.13,647353
16-Dec-14,14.77,14.91,14.72,14.76,824998
15-Dec-14,14.96,15.04,14.75,14.80,808732
12-Dec-14,15.06,15.08,14.88,14.90,551062
11-Dec-14,15.04,15.21,14.97,15.11,524862
10-Dec-14,15.27,15.40,14.93,15.01,710389
9-Dec-14,14.81,15.27,14.71,15.26,936780
8-Dec-14,15.25,15.34,14.83,14.91,1323155
5-Dec-14,15.60,15.61,15.12,15.27,1508890
4-Dec-14,15.77,15.77,15.60,15.64,485280
3-Dec-14,15.71,15.81,15.68,15.76,466301
2-Dec-14,15.61,15.76,15.60,15.72,789727
1-Dec-14,15.65,15.68,15.51,15.61,712002
28-Nov-14,15.65,15.75,15.56,15.65,419997
26-Nov-14,15.54,15.62,15.50,15.61,547206
25-Nov-14,15.40,15.60,15.39,15.54,663488
24-Nov-14,15.25,15.42,15.24,15.40,600505
21-Nov-14,15.29,15.29,15.18,15.21,634041
20-Nov-14,15.22,15.25,15.17,15.23,435686
19-Nov-14,15.27,15.29,15.19,15.22,566333
18-Nov-14,15.10,15.29,15.09,15.21,855737
17-Nov-14,14.92,15.10,14.92,15.07,622994
14-Nov-14,14.91,15.09,14.89,14.92,635747
13-Nov-14,14.92,14.98,14.84,14.86,671833
12-Nov-14,14.94,14.97,14.83,14.95,571585
11-Nov-14,14.99,14.99,14.89,14.91,446701
10-Nov-14,15.00,15.04,14.85,15.00,823180
7-Nov-14,14.68,15.03,14.65,15.00,1488412
6-Nov-14,14.72,14.95,14.42,14.77,1569217
5-Nov-14,14.88,14.97,14.85,14.97,912867
4-Nov-14,15.10,15.13,14.79,14.90,894821
3-Nov-14,15.02,15.14,15.02,15.10,712113
31-Oct-14,15.06,15.09,14.95,15.02,765181
30-Oct-14,14.90,15.06,14.83,15.01,589015
29-Oct-14,15.05,15.10,14.71,14.86,1115568
28-Oct-14,14.95,15.09,14.93,15.07,992096
27-Oct-14,14.85,14.94,14.73,14.92,844013
24-Oct-14,14.75,14.85,14.71,14.80,495239
23-Oct-14,14.77,14.92,14.70,14.75,801681
22-Oct-14,14.88,14.89,14.65,14.67,819688
21-Oct-14,14.52,14.83,14.49,14.79,1215004
20-Oct-14,14.12,14.47,14.12,14.45,1387640
17-Oct-14,14.22,14.30,14.01,14.16,1200069
16-Oct-14,14.04,14.25,14.00,14.10,1687260
15-Oct-14,14.43,14.43,13.95,14.20,1777078
14-Oct-14,14.37,14.54,14.31,14.43,1193948
13-Oct-14,14.12,14.49,14.11,14.33,897521
10-Oct-14,14.16,14.34,14.05,14.16,944173
9-Oct-14,14.40,14.54,14.17,14.18,1438191
8-Oct-14,14.18,14.39,14.02,14.39,1069433
7-Oct-14,14.15,14.26,14.07,14.17,619584
6-Oct-14,13.95,14.24,13.95,14.17,941713
3-Oct-14,14.08,14.08,13.94,13.97,644338
2-Oct-14,14.20,14.22,13.91,14.02,1265595
1-Oct-14,14.08,14.34,14.05,14.23,1598035
30-Sep-14,15.18,15.19,14.73,14.78,2542508
29-Sep-14,15.16,15.17,15.06,15.17,1418439
26-Sep-14,15.19,15.21,15.07,15.16,959478
25-Sep-14,15.21,15.27,15.12,15.18,1189086
24-Sep-14,15.16,15.30,15.15,15.19,2088433
23-Sep-14,15.11,15.13,14.96,15.02,741522
22-Sep-14,15.20,15.24,15.06,15.11,1070722
19-Sep-14,15.05,15.19,15.04,15.18,1649763
18-Sep-14,15.13,15.16,15.00,15.05,821076
17-Sep-14,15.13,15.15,15.00,15.08,822481
16-Sep-14,14.74,15.07,14.71,15.07,1379145
15-Sep-14,14.85,14.89,14.66,14.72,1127519
12-Sep-14,15.33,15.34,14.76,14.84,1898213
11-Sep-14,15.10,15.30,15.10,15.30,890636
10-Sep-14,15.15,15.24,15.08,15.09,988165
9-Sep-14,15.15,15.22,15.10,15.13,520368
8-Sep-14,15.15,15.19,15.09,15.14,473164
5-Sep-14,15.05,15.18,15.05,15.12,461364
4-Sep-14,15.17,15.24,15.02,15.05,1002759
3-Sep-14,15.28,15.28,15.15,15.20,1057597
2-Sep-14,15.23,15.30,15.21,15.23,965715
29-Aug-14,15.19,15.23,15.15,15.20,785295
28-Aug-14,15.14,15.21,15.07,15.14,610142
27-Aug-14,15.12,15.20,15.09,15.16,602414
26-Aug-14,15.10,15.12,15.04,15.09,506739
25-Aug-14,15.06,15.15,15.02,15.06,529691
22-Aug-14,15.09,15.10,14.94,14.97,622425
21-Aug-14,14.91,15.10,14.90,15.04,881152
20-Aug-14,14.91,14.94,14.86,14.92,351850
19-Aug-14,14.93,14.98,14.87,14.90,685951
18-Aug-14,14.79,14.95,14.79,14.90,854314
15-Aug-14,14.70,14.85,14.64,14.71,1184359
14-Aug-14,14.64,14.77,14.63,14.70,451886
13-Aug-14,14.75,14.80,14.60,14.64,730474
12-Aug-14,14.84,14.96,14.70,14.75,718121
11-Aug-14,14.65,14.92,14.63,14.85,1261670
8-Aug-14,14.40,14.64,14.35,14.59,773270
7-Aug-14,14.20,14.51,14.14,14.35,1503016
6-Aug-14,13.70,13.95,13.70,13.83,429845
5-Aug-14,13.73,13.87,13.66,13.73,504850
4-Aug-14,13.62,13.74,13.54,13.73,345166
1-Aug-14,13.60,13.73,13.51,13.61,497974
31-Jul-14,13.65,13.78,13.59,13.60,637070
30-Jul-14,13.85,13.95,13.66,13.75,585468
29-Jul-14,13.80,13.84,13.76,13.82,414721
28-Jul-14,13.76,13.84,13.72,13.75,298291
25-Jul-14,13.75,13.83,13.72,13.75,415088
24-Jul-14,13.80,13.90,13.74,13.75,310031
23-Jul-14,13.79,13.87,13.77,13.79,277090
22-Jul-14,13.85,13.93,13.81,13.82,295014
21-Jul-14,13.91,13.91,13.76,13.84,359499
18-Jul-14,13.70,13.91,13.70,13.91,387730
17-Jul-14,13.82,13.89,13.70,13.73,537066
16-Jul-14,13.88,13.94,13.83,13.86,228649
15-Jul-14,13.92,14.00,13.85,13.91,461720
14-Jul-14,13.71,13.91,13.71,13.89,408142
11-Jul-14,13.76,13.80,13.67,13.67,346744
10-Jul-14,13.77,13.85,13.69,13.80,533895
9-Jul-14,13.82,13.83,13.73,13.81,402652
8-Jul-14,13.69,13.84,13.67,13.77,766088
7-Jul-14,13.83,13.86,13.69,13.71,579562
3-Jul-14,13.86,13.96,13.80,13.83,443993
2-Jul-14,13.95,13.99,13.81,13.89,763992
1-Jul-14,14.16,14.18,13.94,13.97,1187253
30-Jun-14,14.20,14.23,14.10,14.17,597583
27-Jun-14,14.20,14.27,14.10,14.19,773879
26-Jun-14,14.11,14.26,14.05,14.23,1033914
25-Jun-14,14.87,14.89,14.66,14.78,1471691
24-Jun-14,15.02,15.07,14.87,14.87,1041008
23-Jun-14,15.00,15.13,14.92,15.01,2046436
20-Jun-14,14.80,14.98,14.67,14.97,1947042
19-Jun-14,14.54,14.60,14.42,14.52,530034
18-Jun-14,14.40,14.53,14.37,14.50,568628
17-Jun-14,14.51,14.55,14.40,14.43,485196
16-Jun-14,14.57,14.60,14.46,14.47,580126
13-Jun-14,14.52,14.64,14.43,14.59,632851
12-Jun-14,14.60,14.62,14.45,14.47,487474
11-Jun-14,14.69,14.70,14.50,14.63,365929
10-Jun-14,14.75,14.80,14.66,14.72,662175
9-Jun-14,14.56,14.75,14.53,14.74,884647
6-Jun-14,14.40,14.65,14.37,14.54,861818
5-Jun-14,14.27,14.42,14.26,14.37,504461
4-Jun-14,14.32,14.35,14.21,14.30,436653
3-Jun-14,14.41,14.43,14.23,14.34,895050
2-Jun-14,14.45,14.48,14.31,14.45,549096
30-May-14,14.13,14.43,14.13,14.42,835853
29-May-14,14.15,14.17,14.10,14.13,442607
28-May-14,14.21,14.21,14.07,14.15,701107
27-May-14,14.16,14.30,14.14,14.21,515163
23-May-14,13.96,14.13,13.94,14.10,724649
22-May-14,13.75,13.92,13.75,13.86,503451
21-May-14,13.68,13.78,13.67,13.74,468791
20-May-14,13.81,13.85,13.64,13.68,712124
19-May-14,13.62,13.81,13.60,13.81,493238
16-May-14,13.56,13.64,13.50,13.60,584606
15-May-14,13.70,13.79,13.53,13.58,842056
14-May-14,13.80,13.82,13.71,13.74,580747
13-May-14,13.80,13.96,13.75,13.76,551491
12-May-14,13.65,13.95,13.64,13.84,794981
9-May-14,13.64,13.80,13.62,13.66,795160
8-May-14,14.16,14.19,13.58,13.70,3097846
7-May-14,14.60,14.67,14.47,14.67,1043357
6-May-14,14.65,14.69,14.60,14.60,510427
5-May-14,14.80,14.80,14.57,14.69,873103
2-May-14,14.63,14.82,14.60,14.81,1136403
1-May-14,14.71,14.75,14.58,14.70,1005039
30-Apr-14,14.66,14.81,14.55,14.77,2232934
29-Apr-14,14.65,14.65,14.45,14.64,1513574
28-Apr-14,14.64,14.72,14.55,14.61,601566
25-Apr-14,14.62,14.68,14.52,14.58,486132
24-Apr-14,14.57,14.65,14.56,14.62,618648
23-Apr-14,14.59,14.67,14.51,14.56,738722
22-Apr-14,14.65,14.76,14.60,14.60,728553
21-Apr-14,14.57,14.70,14.50,14.69,779039
17-Apr-14,14.52,14.57,14.42,14.53,979320
16-Apr-14,14.60,14.62,14.54,14.59,715542
15-Apr-14,14.36,14.65,14.18,14.65,1723862
14-Apr-14,14.45,14.51,14.20,14.36,884133
11-Apr-14,14.43,14.55,14.39,14.40,914632
10-Apr-14,14.57,14.64,14.42,14.52,1592079
9-Apr-14,14.51,14.60,14.49,14.50,941677
8-Apr-14,14.60,14.67,14.46,14.60,1466873
7-Apr-14,14.63,14.67,14.52,14.65,1730184
4-Apr-14,14.69,14.72,14.37,14.60,11958643
3-Apr-14,15.56,15.60,15.42,15.44,538025
2-Apr-14,15.60,15.68,15.56,15.57,240871
1-Apr-14,15.60,15.66,15.35,15.61,440233
31-Mar-14,15.42,15.70,15.42,15.64,901505
28-Mar-14,15.47,15.67,15.39,15.42,411564
27-Mar-14,15.36,15.78,15.34,15.49,614208
26-Mar-14,16.38,16.38,15.90,16.00,940941
25-Mar-14,16.71,16.77,16.15,16.24,905295
24-Mar-14,16.76,16.85,16.59,16.71,600691
21-Mar-14,16.52,16.85,16.40,16.85,691536
20-Mar-14,16.65,16.75,16.46,16.74,395614
19-Mar-14,16.90,17.05,16.60,16.62,614159
18-Mar-14,16.60,16.86,16.60,16.85,518914
17-Mar-14,16.60,16.67,16.51,16.62,340110
14-Mar-14,16.50,16.62,16.33,16.55,361954
13-Mar-14,16.50,16.66,16.33,16.50,425533
12-Mar-14,15.93,16.47,15.93,16.47,493190
11-Mar-14,15.95,16.15,15.90,15.93,346408
10-Mar-14,15.90,16.18,15.89,15.98,488257
7-Mar-14,16.50,16.61,15.73,15.88,1200546
6-Mar-14,16.64,16.70,16.50,16.52,359083
5-Mar-14,16.70,16.70,16.46,16.63,365127
4-Mar-14,16.65,16.70,16.54,16.63,588862
3-Mar-14,16.52,16.73,16.50,16.57,603996
28-Feb-14,16.29,16.58,16.25,16.47,418438
27-Feb-14,16.30,16.36,16.22,16.29,262227
26-Feb-14,16.29,16.40,16.26,16.32,179072
25-Feb-14,16.40,16.54,16.22,16.24,327625
24-Feb-14,16.22,16.50,16.18,16.40,265389
21-Feb-14,16.36,16.47,16.11,16.19,392122
20-Feb-14,16.45,16.60,16.30,16.36,324435
19-Feb-14,16.35,16.75,16.28,16.45,930790
18-Feb-14,15.80,16.38,15.78,16.35,791420
14-Feb-14,15.95,15.99,15.80,15.80,278624
13-Feb-14,15.62,15.98,15.51,15.93,473724
12-Feb-14,15.43,15.80,15.36,15.59,691764
11-Feb-14,15.25,15.48,15.18,15.31,458860
10-Feb-14,15.00,15.22,14.95,15.18,370370
7-Feb-14,14.89,15.19,14.86,14.98,448396
6-Feb-14,14.86,14.94,14.84,14.84,371065
5-Feb-14,15.02,15.06,14.82,14.87,525833
4-Feb-14,14.90,15.04,14.83,14.99,386683
3-Feb-14,15.18,15.33,14.82,14.87,1001452
31-Jan-14,14.94,15.20,14.85,14.95,656381
30-Jan-14,14.75,15.00,14.72,14.95,569672
29-Jan-14,14.95,14.97,14.68,14.74,841715
28-Jan-14,14.80,15.40,14.72,15.12,682466
27-Jan-14,15.00,15.05,14.70,14.72,486403
24-Jan-14,14.92,14.99,14.83,14.91,394950
23-Jan-14,14.70,14.91,14.65,14.91,385235
22-Jan-14,14.72,14.76,14.66,14.71,305970
21-Jan-14,14.78,14.87,14.70,14.72,398837
17-Jan-14,14.77,14.90,14.75,14.76,238054
16-Jan-14,14.88,14.92,14.80,14.80,191037
15-Jan-14,14.77,14.98,14.76,14.87,298353
14-Jan-14,15.06,15.12,14.77,14.78,498104
13-Jan-14,14.83,15.24,14.75,15.09,642792
10-Jan-14,14.89,14.92,14.69,14.88,689997
9-Jan-14,14.83,14.90,14.78,14.84,218973
8-Jan-14,14.87,14.87,14.69,14.86,413143
7-Jan-14,15.00,15.00,14.81,14.83,347744
6-Jan-14,14.67,15.00,14.65,14.95,570006
3-Jan-14,14.80,14.87,14.66,14.68,424611
2-Jan-14,14.86,15.01,14.64,14.82,550851
31-Dec-13,14.89,14.94,14.76,14.88,728282
30-Dec-13,14.87,15.14,14.82,14.91,800579
27-Dec-13,14.80,14.99,14.80,14.87,754374
26-Dec-13,14.75,15.18,14.75,14.84,1569732
24-Dec-13,17.41,17.48,17.11,17.22,1278529
23-Dec-13,17.14,17.48,17.03,17.40,2071795
20-Dec-13,16.49,17.17,16.46,16.98,3774425
19-Dec-13,16.08,16.15,15.92,15.92,658056
18-Dec-13,16.05,16.26,15.73,16.10,636152
17-Dec-13,16.00,16.10,15.58,16.04,682847
16-Dec-13,16.40,16.43,15.96,16.00,810011
13-Dec-13,16.38,16.44,16.21,16.29,405197
12-Dec-13,16.36,16.41,16.21,16.38,314738
11-Dec-13,16.45,16.48,16.06,16.30,354310
10-Dec-13,16.11,16.43,16.07,16.40,719361
9-Dec-13,15.52,16.04,15.46,15.99,903617
6-Dec-13,15.79,15.93,15.41,15.53,774319
5-Dec-13,15.90,15.95,15.67,15.73,545676
4-Dec-13,15.75,16.05,15.63,15.95,415268
3-Dec-13,16.04,16.10,15.85,15.93,424362
2-Dec-13,16.24,16.30,15.98,16.13,546460
29-Nov-13,16.22,16.35,16.21,16.23,248956
27-Nov-13,15.86,16.33,15.82,16.20,274125
26-Nov-13,16.16,16.24,15.80,15.90,445967
25-Nov-13,16.04,16.27,16.03,16.21,390566
22-Nov-13,16.20,16.37,15.95,16.11,352959
21-Nov-13,16.10,16.27,16.08,16.15,256161
20-Nov-13,16.04,16.37,16.04,16.12,421432
19-Nov-13,16.30,16.36,16.02,16.05,303153
18-Nov-13,16.20,16.42,16.20,16.34,340192
15-Nov-13,16.25,16.28,16.14,16.24,364963
14-Nov-13,15.91,16.22,15.89,16.20,447990
13-Nov-13,15.64,15.80,15.56,15.80,361661
12-Nov-13,15.50,15.68,15.50,15.62,361745
11-Nov-13,15.68,15.83,15.45,15.59,545983
8-Nov-13,15.89,15.90,15.32,15.70,883029
7-Nov-13,16.29,16.32,15.60,15.99,1172226
6-Nov-13,16.33,16.50,16.21,16.40,763664
5-Nov-13,16.40,16.55,16.23,16.30,352899
4-Nov-13,16.50,16.54,16.30,16.50,489984
1-Nov-13,16.02,16.47,16.02,16.46,477404
31-Oct-13,16.34,16.35,16.00,16.11,476191
30-Oct-13,16.59,16.64,16.23,16.31,577611
29-Oct-13,17.03,17.05,16.59,16.64,663768
28-Oct-13,16.97,17.10,16.80,17.08,303937
25-Oct-13,17.06,17.16,16.91,16.94,366893
24-Oct-13,17.06,17.30,16.99,17.00,595228
23-Oct-13,16.75,17.05,16.74,17.00,386969
22-Oct-13,16.63,16.81,16.63,16.75,394359
21-Oct-13,16.59,16.67,16.50,16.53,419352
18-Oct-13,16.66,16.67,16.46,16.56,444228
17-Oct-13,16.00,16.52,15.98,16.52,680660
16-Oct-13,15.97,16.01,15.78,15.94,495757
15-Oct-13,16.00,16.13,15.92,15.95,396066
14-Oct-13,16.00,16.06,15.85,15.96,369245
11-Oct-13,15.91,16.15,15.88,16.13,601955
10-Oct-13,16.00,16.22,15.82,15.88,498178
9-Oct-13,15.83,15.99,15.79,15.88,307540
8-Oct-13,15.69,15.89,15.65,15.77,467267
7-Oct-13,15.62,15.75,15.58,15.69,588892
4-Oct-13,15.85,15.98,15.73,15.74,594547
3-Oct-13,16.17,16.21,15.86,15.87,491550
2-Oct-13,16.26,16.43,16.17,16.21,341327
1-Oct-13,15.92,16.19,15.86,16.18,561666
30-Sep-13,16.18,16.34,15.85,15.99,855035
27-Sep-13,16.29,16.55,16.16,16.18,393010
26-Sep-13,16.71,16.72,16.37,16.37,766903
25-Sep-13,17.50,17.77,17.48,17.64,1663674
24-Sep-13,17.20,17.55,17.09,17.46,1190556
23-Sep-13,17.25,17.40,17.11,17.20,1274748
20-Sep-13,16.79,17.25,16.61,17.18,1381037
19-Sep-13,17.06,17.17,16.76,16.85,634535
18-Sep-13,16.55,17.13,16.40,17.11,720725
17-Sep-13,16.43,16.54,16.35,16.54,368164
16-Sep-13,16.62,16.73,16.27,16.33,675885
13-Sep-13,15.84,16.13,15.80,16.10,365598
12-Sep-13,15.60,15.89,15.54,15.76,384709
11-Sep-13,15.36,15.56,15.31,15.54,444137
10-Sep-13,15.59,15.65,15.32,15.41,448529
9-Sep-13,15.42,15.73,15.42,15.52,529080
6-Sep-13,15.64,15.73,15.32,15.40,811531
5-Sep-13,15.68,15.77,15.43,15.44,343033
4-Sep-13,15.48,15.81,15.40,15.68,508148
3-Sep-13,15.66,15.94,15.26,15.53,596453
30-Aug-13,15.82,15.91,15.61,15.61,280997
29-Aug-13,15.53,15.87,15.51,15.87,247542
28-Aug-13,15.91,15.95,15.54,15.61,294460
27-Aug-13,15.70,16.05,15.70,15.90,301614
26-Aug-13,15.71,15.89,15.66,15.82,275537
23-Aug-13,15.32,15.74,15.28,15.71,368303
22-Aug-13,15.03,15.34,15.00,15.34,364310
21-Aug-13,15.03,15.19,14.84,14.93,426111
20-Aug-13,14.76,15.30,14.76,15.13,469624
19-Aug-13,15.48,15.49,14.55,14.57,1256091
16-Aug-13,15.87,15.92,15.49,15.49,398391
15-Aug-13,16.01,16.08,15.81,15.83,380608
14-Aug-13,16.25,16.41,16.17,16.26,435936
13-Aug-13,16.34,16.35,16.06,16.25,410657
12-Aug-13,16.08,16.48,16.05,16.45,544419
9-Aug-13,15.77,16.20,15.77,16.02,468674
8-Aug-13,15.51,15.95,15.51,15.86,495836
7-Aug-13,15.50,15.69,15.40,15.46,530938
6-Aug-13,16.15,16.24,15.50,15.69,1599705
5-Aug-13,16.50,16.69,16.38,16.52,491854
2-Aug-13,16.51,16.66,16.26,16.58,491868
1-Aug-13,16.89,16.99,16.18,16.21,578477
31-Jul-13,16.97,16.99,16.58,16.79,473344
30-Jul-13,16.99,17.10,16.78,17.07,749099
29-Jul-13,16.49,16.62,16.35,16.59,537091
26-Jul-13,16.26,16.50,16.26,16.43,293513
25-Jul-13,16.30,16.44,16.14,16.29,447838
24-Jul-13,16.81,16.81,16.05,16.24,1004904
23-Jul-13,16.92,17.00,16.74,16.83,410092
22-Jul-13,16.99,17.13,16.90,16.93,284996
19-Jul-13,16.70,16.98,16.69,16.92,467515
18-Jul-13,16.90,17.00,16.64,16.68,529079
17-Jul-13,16.66,17.02,16.66,16.87,908810
16-Jul-13,17.00,17.11,16.89,16.91,369934
15-Jul-13,16.64,17.04,16.60,16.99,463208
12-Jul-13,17.01,17.14,16.41,16.59,586938
11-Jul-13,16.61,16.98,16.53,16.90,773301
10-Jul-13,15.75,16.16,15.69,16.15,825520
9-Jul-13,15.79,16.02,15.65,15.78,525377
8-Jul-13,15.36,15.97,15.29,15.77,994928
5-Jul-13,16.85,16.85,15.05,15.73,2405888
3-Jul-13,17.00,17.15,16.66,16.90,314177
2-Jul-13,17.64,17.71,17.02,17.11,694775
1-Jul-13,17.73,17.86,17.41,17.62,431579
28-Jun-13,17.45,17.63,17.22,17.46,1068335
27-Jun-13,17.68,17.95,17.45,17.54,1079759
26-Jun-13,18.40,18.97,18.40,18.51,1612931
25-Jun-13,17.69,18.14,17.56,18.07,1135342
24-Jun-13,17.53,17.53,16.37,17.23,1444552
21-Jun-13,17.99,18.06,17.18,17.55,1393039
20-Jun-13,18.00,18.05,17.26,17.28,1313486
19-Jun-13,19.19,19.35,18.06,18.15,1104404
18-Jun-13,18.60,19.10,18.38,18.81,839843
17-Jun-13,18.80,18.95,18.50,18.58,562895
14-Jun-13,19.00,19.59,18.62,18.74,1317579
13-Jun-13,17.39,18.92,17.38,18.83,1351640
12-Jun-13,18.03,18.15,17.32,17.41,932928
11-Jun-13,18.15,18.38,17.90,18.17,583711
10-Jun-13,18.59,18.59,18.12,18.34,425113
7-Jun-13,18.68,18.82,18.30,18.42,734269
6-Jun-13,18.33,18.63,18.25,18.61,544477
5-Jun-13,18.66,18.72,18.27,18.35,548727
4-Jun-13,18.25,18.66,18.20,18.65,967824
3-Jun-13,18.34,18.35,17.90,18.26,1306317
31-May-13,18.73,18.85,18.27,18.35,873028
30-May-13,19.22,19.43,18.69,18.70,867948
29-May-13,18.36,19.16,17.82,19.11,2488770
28-May-13,19.79,19.99,18.71,19.00,1866430
24-May-13,19.84,19.91,19.61,19.74,424471
23-May-13,19.70,19.90,19.09,19.88,862866
22-May-13,19.97,20.56,19.83,19.92,1023410
21-May-13,20.29,20.36,19.85,19.89,1362677
20-May-13,20.56,20.60,20.28,20.32,923969
17-May-13,20.60,20.72,20.35,20.53,989082
16-May-13,19.84,20.59,19.79,20.33,1949735
15-May-13,20.50,20.80,19.56,19.84,4006384
14-May-13,21.32,21.82,21.31,21.57,1086016
13-May-13,21.55,21.61,21.05,21.31,1374391
10-May-13,21.80,21.83,21.41,21.47,465583
9-May-13,21.84,21.85,21.57,21.70,314792
8-May-13,21.87,22.04,21.70,21.80,513141
7-May-13,21.69,21.91,21.68,21.85,536989
6-May-13,21.68,21.96,21.46,21.75,801456
3-May-13,21.95,22.08,21.65,21.77,1059646
2-May-13,22.06,22.32,21.81,22.24,858710
1-May-13,22.40,22.44,21.96,21.96,699233
30-Apr-13,22.17,22.43,22.00,22.40,786237
29-Apr-13,21.99,22.19,21.98,22.17,612708
26-Apr-13,22.03,22.05,21.82,22.00,458230
25-Apr-13,22.09,22.21,21.92,22.08,511101
24-Apr-13,22.20,22.26,22.06,22.11,427802
23-Apr-13,21.97,22.24,21.89,22.20,504482
22-Apr-13,21.62,21.91,21.47,21.82,573403
19-Apr-13,21.46,21.67,21.24,21.60,1000767
18-Apr-13,21.53,21.80,21.35,21.44,669426
17-Apr-13,22.01,22.12,21.52,21.53,1135777
16-Apr-13,22.11,22.27,21.87,22.00,1115105
15-Apr-13,22.52,22.52,21.81,21.87,1420861
12-Apr-13,22.64,22.74,22.47,22.52,490575
11-Apr-13,22.50,22.78,22.46,22.59,706301
10-Apr-13,22.70,22.78,22.46,22.46,1375203
9-Apr-13,23.69,23.83,23.60,23.72,2066169
8-Apr-13,23.77,23.98,23.66,23.80,1952732
5-Apr-13,23.11,23.59,22.97,23.59,1940877
4-Apr-13,23.21,23.62,23.15,23.52,1242526
3-Apr-13,23.45,23.45,22.70,23.17,1447613
2-Apr-13,23.47,23.59,23.17,23.29,1694866
1-Apr-13,23.25,23.34,23.06,23.13,650818
28-Mar-13,23.24,23.34,23.14,23.24,643928
27-Mar-13,23.18,23.28,23.11,23.26,456137
26-Mar-13,23.40,23.49,23.11,23.25,818728
25-Mar-13,23.08,23.39,23.02,23.33,1123280
22-Mar-13,22.94,23.07,22.80,23.01,452255
21-Mar-13,22.79,23.09,22.75,22.90,435266
20-Mar-13,22.85,22.95,22.55,22.84,616998
19-Mar-13,22.99,23.00,22.62,22.78,459826
18-Mar-13,22.66,23.08,22.53,22.87,781362
15-Mar-13,22.70,22.86,22.51,22.74,1091787
14-Mar-13,22.39,22.81,22.36,22.66,918225
13-Mar-13,22.41,22.70,22.30,22.66,754215
12-Mar-13,22.15,22.33,22.07,22.31,608724
11-Mar-13,22.08,22.38,22.00,22.03,862531
8-Mar-13,22.46,22.46,21.83,21.95,1251734
7-Mar-13,22.04,22.29,21.96,22.27,717301
6-Mar-13,22.20,22.32,21.87,21.89,994883
5-Mar-13,21.70,21.82,21.45,21.67,350771
4-Mar-13,21.36,21.68,21.16,21.52,575898
1-Mar-13,21.45,21.50,21.30,21.31,344713
28-Feb-13,21.39,21.58,21.03,21.49,865145
27-Feb-13,21.25,21.46,21.17,21.39,329114
26-Feb-13,21.18,21.28,21.08,21.17,333932
25-Feb-13,21.36,21.39,21.00,21.05,447237
22-Feb-13,21.28,21.29,21.05,21.16,376083
21-Feb-13,21.56,21.60,21.02,21.04,523927
20-Feb-13,21.81,21.85,21.46,21.53,384824
19-Feb-13,21.80,21.96,21.70,21.77,653635
15-Feb-13,21.96,21.96,21.72,21.80,238728
14-Feb-13,21.85,22.00,21.75,21.85,358100
13-Feb-13,22.00,22.01,21.65,21.85,483347
12-Feb-13,21.90,22.00,21.63,21.98,421940
11-Feb-13,21.21,21.80,21.13,21.78,761003
8-Feb-13,21.34,21.44,21.00,21.07,900817
7-Feb-13,21.78,21.79,21.30,21.34,488195
6-Feb-13,21.72,21.79,21.52,21.72,281529
5-Feb-13,21.78,21.80,21.55,21.72,250735
4-Feb-13,21.84,21.86,21.60,21.69,211454
1-Feb-13,21.77,22.01,21.67,21.87,532804
31-Jan-13,21.63,21.66,21.46,21.65,259335
30-Jan-13,21.82,21.82,21.50,21.54,265506
29-Jan-13,21.78,21.88,21.57,21.68,253642
28-Jan-13,21.49,21.76,21.45,21.70,430828
25-Jan-13,21.55,21.61,21.16,21.42,445826
24-Jan-13,21.58,21.78,21.51,21.56,254267
23-Jan-13,21.67,21.71,21.52,21.59,421346
22-Jan-13,21.68,21.70,21.52,21.58,544872
18-Jan-13,21.72,21.72,21.50,21.58,443250
17-Jan-13,21.75,21.82,21.67,21.69,285345
16-Jan-13,21.62,21.74,21.51,21.70,284352
15-Jan-13,21.45,21.74,21.42,21.62,708218
14-Jan-13,21.30,21.33,21.12,21.33,335904
11-Jan-13,21.13,21.22,21.02,21.22,342719
10-Jan-13,21.28,21.28,20.93,21.00,364561
9-Jan-13,21.27,21.32,21.08,21.17,184986
8-Jan-13,21.25,21.43,21.05,21.14,438588
7-Jan-13,21.25,21.25,20.95,21.25,412083
4-Jan-13,21.08,21.34,21.06,21.26,391917
3-Jan-13,20.42,21.03,20.39,21.01,945062
2-Jan-13,20.05,20.37,19.90,20.34,986892
31-Dec-12,19.67,19.90,19.36,19.77,755640
28-Dec-12,19.80,20.01,19.58,19.67,606871
27-Dec-12,19.93,20.18,19.68,19.96,958047
26-Dec-12,21.45,21.48,20.91,20.94,1424809
24-Dec-12,21.50,21.54,21.41,21.45,447533
21-Dec-12,21.45,21.56,21.36,21.54,847346
20-Dec-12,21.90,22.00,21.32,21.56,1712618
19-Dec-12,20.74,21.05,20.74,20.94,707094
18-Dec-12,20.36,20.72,20.27,20.71,540257
17-Dec-12,20.30,20.37,20.17,20.36,533660
14-Dec-12,20.30,20.46,19.80,20.15,777660
13-Dec-12,20.66,20.71,20.20,20.30,583298
12-Dec-12,20.89,20.89,20.46,20.66,546187
11-Dec-12,20.80,20.91,20.61,20.82,530450
10-Dec-12,20.67,20.72,20.46,20.66,323286
7-Dec-12,20.69,20.70,20.43,20.52,192630
6-Dec-12,20.84,20.92,20.47,20.54,350466
5-Dec-12,20.99,21.10,20.61,20.69,376740
4-Dec-12,20.77,21.10,20.70,20.96,622084
3-Dec-12,20.75,20.75,20.57,20.70,442541
30-Nov-12,20.38,20.68,20.36,20.63,2037115
29-Nov-12,20.08,20.44,19.96,20.29,564630
28-Nov-12,20.08,20.19,19.70,19.93,368856
27-Nov-12,20.02,20.22,19.90,19.98,377175
26-Nov-12,19.99,20.15,19.73,20.02,437362
23-Nov-12,19.86,19.98,19.73,19.95,210629
21-Nov-12,19.44,19.69,19.01,19.60,482352
20-Nov-12,20.04,20.06,19.18,19.22,581554
19-Nov-12,19.83,20.15,19.45,19.78,894848
16-Nov-12,19.00,19.50,18.95,19.36,874066
15-Nov-12,17.58,18.86,17.36,18.76,1304694
14-Nov-12,19.11,19.20,17.46,17.54,1846879
13-Nov-12,20.36,20.38,19.05,19.15,1498467
12-Nov-12,20.68,20.68,20.42,20.50,397242
9-Nov-12,20.72,20.72,19.81,20.49,879359
8-Nov-12,20.50,21.07,19.91,20.30,1076640
7-Nov-12,20.99,20.99,19.93,20.53,736259
6-Nov-12,21.52,21.52,21.11,21.23,363432
5-Nov-12,21.25,21.59,21.09,21.50,331122
2-Nov-12,21.50,21.68,21.28,21.31,252715
1-Nov-12,21.42,22.03,21.42,21.51,419895
31-Oct-12,20.90,21.70,20.89,21.45,1585367
26-Oct-12,20.99,21.13,20.66,20.91,450461
25-Oct-12,21.38,21.50,20.84,21.02,520365
24-Oct-12,21.46,21.50,21.08,21.32,502167
23-Oct-12,21.65,21.65,21.10,21.39,216451
22-Oct-12,21.62,21.67,21.47,21.65,211944
19-Oct-12,21.89,21.89,21.37,21.67,449502
18-Oct-12,22.13,22.13,21.72,21.83,396437
17-Oct-12,21.39,21.95,21.30,21.87,731221
16-Oct-12,21.18,21.42,20.80,21.32,698058
15-Oct-12,21.12,21.69,19.68,21.05,2043376
12-Oct-12,21.92,21.97,21.07,21.15,1288332
11-Oct-12,22.08,22.22,21.88,21.90,526596
10-Oct-12,22.65,22.65,21.62,21.97,1890473
9-Oct-12,22.75,22.84,22.50,22.68,716701
8-Oct-12,22.60,22.84,22.50,22.71,469504
5-Oct-12,22.65,22.80,22.61,22.72,560210
4-Oct-12,22.43,22.62,22.40,22.60,753341
3-Oct-12,22.30,22.44,22.30,22.37,606257
2-Oct-12,22.32,22.45,22.25,22.29,1123655
1-Oct-12,22.31,22.39,22.27,22.30,1084021
28-Sep-12,22.36,22.41,22.20,22.20,6957131
27-Sep-12,23.20,23.38,22.96,23.00,796866
26-Sep-12,24.19,24.24,23.75,23.90,540185
25-Sep-12,24.58,24.72,24.01,24.06,490277
24-Sep-12,24.20,24.69,24.20,24.45,552003
21-Sep-12,24.17,24.46,23.58,24.10,1680567
20-Sep-12,22.15,22.69,22.10,22.30,317851
19-Sep-12,21.71,22.13,21.54,22.04,265057
18-Sep-12,22.04,22.08,21.55,21.58,218868
17-Sep-12,21.98,22.10,21.80,22.04,261731
14-Sep-12,21.53,21.98,21.38,21.97,298320
13-Sep-12,21.66,21.71,21.26,21.39,221058
12-Sep-12,21.34,21.65,21.17,21.56,169691
11-Sep-12,21.70,21.70,21.35,21.52,90032
10-Sep-12,21.45,21.47,21.27,21.35,56851
7-Sep-12,21.45,21.45,21.26,21.35,116421
6-Sep-12,21.25,21.33,21.17,21.33,65153
5-Sep-12,21.52,21.52,21.18,21.20,100844
4-Sep-12,21.36,21.52,21.25,21.46,181778
31-Aug-12,21.85,21.85,21.40,21.44,121271
30-Aug-12,21.19,21.84,21.17,21.69,327938
29-Aug-12,21.15,21.22,21.10,21.22,146769
28-Aug-12,21.10,21.29,21.02,21.15,144457
27-Aug-12,21.03,21.14,20.97,21.08,148870
24-Aug-12,21.03,21.09,20.91,20.92,141181
23-Aug-12,21.03,21.03,20.70,20.77,112590
22-Aug-12,20.88,21.05,20.48,20.94,248440
21-Aug-12,21.25,21.32,20.77,20.81,243735
20-Aug-12,20.90,21.37,20.78,21.06,589426
17-Aug-12,20.84,20.87,20.41,20.76,106920
16-Aug-12,20.80,20.95,20.66,20.80,164173
15-Aug-12,20.64,20.90,20.54,20.80,232268
14-Aug-12,20.45,20.97,20.30,20.60,415026
13-Aug-12,19.98,20.23,19.94,20.21,84738
10-Aug-12,20.41,20.42,19.89,19.98,127277
9-Aug-12,20.35,20.45,20.12,20.33,108470
8-Aug-12,19.95,20.47,19.92,20.41,206747
7-Aug-12,20.19,20.27,19.85,20.00,226905
6-Aug-12,20.39,20.56,20.13,20.13,262122
3-Aug-12,20.20,20.54,20.01,20.38,209384
2-Aug-12,20.00,20.39,20.00,20.06,204560
1-Aug-12,20.37,20.65,20.35,20.41,304480
31-Jul-12,20.32,20.74,20.15,20.42,433336
30-Jul-12,20.02,20.23,20.02,20.14,202856
27-Jul-12,19.85,20.33,19.85,20.02,452830
26-Jul-12,19.71,19.78,19.63,19.73,57965
25-Jul-12,19.73,19.85,19.65,19.68,102134
24-Jul-12,19.93,19.93,19.56,19.62,102848
23-Jul-12,19.96,19.98,19.77,19.84,65623
20-Jul-12,19.73,19.98,19.73,19.96,83807
19-Jul-12,19.98,19.98,19.61,19.76,86236
18-Jul-12,19.82,20.03,19.82,19.97,87447
17-Jul-12,20.00,20.03,19.82,19.83,116157
16-Jul-12,19.91,20.00,19.81,19.94,72367
13-Jul-12,19.50,19.94,19.50,19.89,152076
12-Jul-12,19.47,19.80,19.47,19.50,343060
11-Jul-12,19.88,19.88,19.46,19.59,206402
10-Jul-12,19.95,20.00,19.70,19.80,136681
9-Jul-12,19.95,19.95,19.67,19.89,74607
6-Jul-12,19.85,19.98,19.80,19.91,51135
5-Jul-12,19.86,20.00,19.74,19.93,157983
3-Jul-12,19.52,19.87,19.52,19.86,65720
2-Jul-12,19.50,19.90,19.25,19.51,253857
29-Jun-12,19.46,19.52,19.33,19.49,156906
28-Jun-12,19.16,19.37,18.75,19.24,445285
27-Jun-12,19.23,19.31,19.09,19.22,119851
26-Jun-12,19.16,19.32,18.90,19.18,104398
25-Jun-12,19.14,19.35,18.95,19.13,134703
22-Jun-12,19.18,19.26,18.80,19.11,991474
21-Jun-12,19.04,19.26,18.92,19.02,156150
20-Jun-12,19.25,19.25,18.75,19.20,76832
19-Jun-12,19.89,19.89,18.76,19.16,101692
18-Jun-12,19.03,19.20,18.96,19.03,59481
15-Jun-12,19.52,41.13,18.90,19.10,88236
14-Jun-12,18.91,19.13,18.89,18.99,109542
13-Jun-12,18.99,19.01,18.80,18.93,86138
12-Jun-12,18.93,19.16,18.85,19.04,87769
11-Jun-12,19.25,19.25,18.85,18.95,209350
8-Jun-12,19.02,19.19,18.82,19.10,193272
7-Jun-12,19.05,19.06,18.75,19.02,87821
6-Jun-12,18.51,18.99,18.51,18.98,46665
5-Jun-12,18.99,18.99,18.53,18.65,254551
4-Jun-12,18.75,18.99,18.56,18.93,230288
1-Jun-12,18.57,18.75,18.32,18.52,104149
31-May-12,18.75,19.00,18.65,18.80,71107
30-May-12,18.85,18.98,18.70,18.92,72474
29-May-12,19.25,19.25,18.96,19.00,75359
25-May-12,18.86,19.36,18.81,19.20,258965
24-May-12,19.00,19.05,18.55,18.86,180567
23-May-12,18.41,18.99,18.41,18.88,255535
22-May-12,18.52,18.60,18.37,18.40,263648
21-May-12,18.07,18.75,17.57,18.55,284980
18-May-12,18.50,18.67,18.49,18.67,271670
17-May-12,18.70,18.70,18.50,18.55,293794
16-May-12,18.70,18.85,18.58,18.72,299846
15-May-12,18.75,18.85,18.65,18.72,223888
14-May-12,18.63,18.93,18.63,18.75,204365
11-May-12,18.75,18.90,18.60,18.85,534085
10-May-12,18.80,18.90,18.32,18.77,7388830
