﻿Date,Open,High,Low,Close,Volume
20-Jun-17,23.23,23.25,23.21,23.21,420945
19-Jun-17,23.22,23.26,23.20,23.26,369108
16-Jun-17,23.22,23.25,23.21,23.21,514842
15-Jun-17,23.23,23.25,23.21,23.22,322244
14-Jun-17,23.22,23.26,23.22,23.23,292702
13-Jun-17,23.19,23.24,23.18,23.24,465304
12-Jun-17,23.19,23.24,23.18,23.20,2094456
9-Jun-17,23.19,23.21,23.18,23.20,787275
8-Jun-17,23.18,23.20,23.18,23.18,387334
7-Jun-17,23.17,23.21,23.16,23.18,829319
6-Jun-17,23.19,23.20,23.16,23.17,794034
5-Jun-17,23.17,23.20,23.16,23.19,1241708
2-Jun-17,23.20,23.22,23.17,23.19,708380
1-Jun-17,23.17,23.23,23.15,23.16,1457965
31-May-17,23.15,23.22,23.11,23.17,662237
30-May-17,23.18,23.22,23.13,23.13,1195648
26-May-17,23.20,23.26,23.15,23.16,428675
25-May-17,23.21,23.26,23.17,23.22,387859
24-May-17,23.12,23.26,23.10,23.19,1751617
23-May-17,23.12,23.16,23.10,23.10,684688
22-May-17,23.12,23.23,23.09,23.13,1348293
19-May-17,23.11,23.25,23.08,23.10,2606754
18-May-17,23.16,23.19,23.09,23.11,2420320
17-May-17,23.13,23.16,23.11,23.13,1926993
16-May-17,23.17,23.18,23.12,23.12,1372244
15-May-17,23.13,23.16,23.12,23.15,1641833
12-May-17,23.17,23.28,23.12,23.12,3115892
11-May-17,23.12,23.19,23.12,23.18,1387440
10-May-17,23.13,23.15,23.08,23.11,19741028
9-May-17,24.10,24.25,24.00,24.11,247304
8-May-17,24.05,24.32,24.00,24.11,258823
5-May-17,24.13,24.18,23.85,24.15,144875
4-May-17,24.03,24.34,23.94,24.12,279842
3-May-17,23.76,23.92,23.59,23.86,596347
2-May-17,24.25,24.77,23.63,23.78,765159
1-May-17,26.72,27.26,26.46,26.71,454313
28-Apr-17,26.91,27.03,26.36,26.69,631446
27-Apr-17,25.34,28.57,25.07,26.91,1038244
26-Apr-17,25.09,25.44,25.04,25.30,286267
25-Apr-17,25.32,25.60,25.11,25.12,195119
24-Apr-17,25.25,25.32,25.03,25.15,310856
21-Apr-17,24.84,24.90,24.63,24.84,147100
20-Apr-17,24.53,24.90,24.29,24.84,174299
19-Apr-17,24.35,24.64,24.24,24.34,317043
18-Apr-17,23.97,24.31,23.97,24.17,559020
17-Apr-17,24.32,24.42,23.95,24.10,210459
13-Apr-17,24.31,24.56,24.22,24.32,195065
12-Apr-17,24.45,24.56,24.06,24.37,183249
11-Apr-17,24.41,24.81,24.37,24.58,309751
10-Apr-17,24.46,25.41,23.69,24.46,643807
7-Apr-17,23.80,24.43,23.80,24.41,411429
6-Apr-17,23.64,24.02,23.64,23.99,242500
5-Apr-17,24.10,24.30,23.64,23.66,344615
4-Apr-17,24.12,24.44,24.00,24.20,205939
3-Apr-17,24.43,24.44,24.04,24.17,235335
31-Mar-17,24.25,24.54,24.14,24.42,150060
30-Mar-17,24.10,24.34,24.03,24.29,102787
29-Mar-17,24.05,24.32,23.74,24.13,105795
28-Mar-17,23.98,24.20,22.48,24.13,82620
27-Mar-17,23.60,24.09,23.60,24.04,101850
24-Mar-17,24.14,24.37,23.86,23.95,79037
23-Mar-17,24.08,24.38,23.98,24.12,87084
22-Mar-17,24.07,24.18,23.71,24.02,180656
21-Mar-17,24.67,24.67,24.02,24.10,224774
20-Mar-17,24.77,24.80,24.52,24.57,74079
17-Mar-17,24.52,24.97,24.52,24.86,456259
16-Mar-17,24.64,24.97,24.53,24.65,160912
15-Mar-17,24.48,24.73,24.27,24.59,257558
14-Mar-17,24.30,24.61,24.20,24.40,195979
13-Mar-17,24.40,24.85,24.34,24.38,138822
10-Mar-17,24.68,24.80,24.43,24.54,296008
9-Mar-17,24.86,24.86,24.48,24.58,194443
8-Mar-17,25.11,25.14,24.62,24.85,203470
7-Mar-17,25.19,25.34,24.89,25.07,213835
6-Mar-17,24.89,25.30,24.89,25.24,327339
3-Mar-17,25.09,25.23,25.01,25.14,278806
2-Mar-17,25.00,25.07,24.10,25.04,304127
1-Mar-17,24.16,24.42,23.64,24.24,255481
28-Feb-17,24.23,24.37,23.87,23.91,169886
27-Feb-17,24.35,24.61,24.27,24.37,124668
24-Feb-17,24.37,24.85,23.89,24.36,304655
23-Feb-17,24.83,24.83,24.22,24.66,181876
22-Feb-17,24.43,24.76,24.18,24.75,161068
21-Feb-17,24.42,24.56,24.17,24.52,104558
17-Feb-17,24.27,24.42,24.02,24.28,183731
16-Feb-17,24.21,24.28,23.90,24.25,178899
15-Feb-17,24.24,24.54,24.10,24.37,214351
14-Feb-17,24.63,24.85,24.10,24.35,239350
13-Feb-17,25.03,25.17,24.37,24.71,236432
10-Feb-17,24.69,24.99,24.35,24.92,247816
9-Feb-17,23.26,24.52,23.17,24.48,481692
8-Feb-17,23.28,23.45,22.72,23.23,160421
7-Feb-17,23.47,23.67,23.22,23.33,111742
6-Feb-17,23.50,23.66,23.28,23.42,224718
3-Feb-17,23.43,23.58,23.26,23.49,121601
2-Feb-17,24.05,24.41,23.29,23.39,307313
1-Feb-17,24.27,24.90,23.68,23.81,175052
31-Jan-17,24.10,24.55,23.96,24.27,142717
30-Jan-17,24.56,24.85,24.11,24.24,88787
27-Jan-17,24.63,24.79,24.40,24.68,140189
26-Jan-17,24.87,25.02,24.60,24.65,88789
25-Jan-17,24.99,25.20,24.87,24.92,122329
24-Jan-17,24.65,24.97,24.17,24.73,157482
23-Jan-17,24.69,24.78,24.33,24.61,126556
20-Jan-17,24.27,24.83,24.24,24.73,252389
19-Jan-17,24.97,24.97,23.90,24.11,226748
18-Jan-17,24.95,25.12,24.45,24.96,102921
17-Jan-17,24.98,25.19,24.82,24.91,126163
13-Jan-17,24.84,25.28,24.83,25.21,137182
12-Jan-17,25.15,25.15,24.64,24.81,168377
11-Jan-17,24.93,25.46,24.83,25.22,367270
10-Jan-17,24.67,24.94,24.63,24.84,212245
9-Jan-17,24.66,24.96,24.49,24.71,149960
6-Jan-17,24.85,24.96,24.49,24.76,233138
5-Jan-17,25.14,25.28,24.59,24.82,305379
4-Jan-17,24.97,25.34,24.93,25.18,226040
3-Jan-17,25.00,25.21,24.66,25.03,156053
30-Dec-16,25.21,25.22,24.65,24.76,103401
29-Dec-16,25.02,25.26,24.95,25.15,123052
28-Dec-16,25.57,25.61,24.83,24.97,127241
27-Dec-16,25.44,25.69,25.27,25.58,96139
23-Dec-16,25.53,25.65,25.13,25.40,79962
22-Dec-16,25.73,25.85,25.18,25.55,116397
21-Dec-16,25.38,25.79,25.23,25.62,126066
20-Dec-16,25.42,25.67,25.13,25.42,98494
19-Dec-16,24.93,25.43,24.84,25.34,125569
16-Dec-16,25.10,25.45,24.78,24.86,541716
15-Dec-16,24.72,25.29,24.42,25.00,140462
14-Dec-16,24.99,25.29,24.62,24.68,104739
13-Dec-16,25.22,25.39,24.79,25.07,99915
12-Dec-16,25.19,25.43,24.90,25.12,181679
9-Dec-16,25.31,25.31,24.92,25.25,110372
8-Dec-16,24.36,25.19,24.36,25.18,149766
7-Dec-16,24.05,24.49,23.97,24.40,159850
6-Dec-16,24.14,24.40,23.95,24.17,132395
5-Dec-16,23.50,24.09,23.50,24.03,156443
2-Dec-16,23.93,24.02,23.30,23.37,247340
1-Dec-16,23.99,24.27,23.63,24.00,198250
30-Nov-16,24.92,24.94,23.81,23.86,254098
29-Nov-16,24.85,25.04,24.71,24.76,319035
28-Nov-16,25.13,25.29,24.87,24.88,101387
25-Nov-16,25.13,25.39,25.13,25.30,76404
23-Nov-16,25.13,25.32,24.71,25.11,169415
22-Nov-16,25.13,25.33,24.92,25.30,107858
21-Nov-16,24.98,25.14,24.68,25.11,119471
18-Nov-16,25.02,25.31,24.80,25.01,191305
17-Nov-16,24.79,25.16,24.67,25.02,140961
16-Nov-16,24.32,24.85,24.20,24.85,164940
15-Nov-16,23.78,24.49,23.74,24.37,167619
14-Nov-16,24.17,24.38,23.74,24.06,208843
11-Nov-16,22.91,24.00,22.71,23.99,314694
10-Nov-16,23.09,23.23,21.51,22.89,198835
9-Nov-16,21.51,22.75,21.38,22.71,194955
8-Nov-16,22.14,22.32,21.99,22.06,215540
7-Nov-16,21.99,22.23,21.84,22.15,387004
4-Nov-16,21.34,21.66,21.33,21.60,309538
3-Nov-16,21.39,21.87,21.25,21.29,427016
2-Nov-16,20.37,22.40,20.37,21.56,571735
1-Nov-16,19.75,20.07,19.64,20.01,329713
31-Oct-16,19.79,19.88,19.66,19.72,295665
28-Oct-16,20.00,20.10,19.73,19.77,131527
27-Oct-16,20.40,20.40,19.95,19.99,129195
26-Oct-16,20.71,20.80,20.28,20.29,174278
25-Oct-16,21.00,21.00,20.70,20.71,91264
24-Oct-16,21.08,21.39,20.94,21.00,219639
21-Oct-16,20.97,21.17,20.13,20.92,117258
20-Oct-16,21.25,21.36,21.02,21.18,98796
19-Oct-16,21.37,21.52,21.24,21.37,171711
18-Oct-16,21.36,21.44,21.19,21.22,108938
17-Oct-16,21.28,21.55,21.06,21.14,73103
14-Oct-16,21.38,21.51,21.21,21.22,53798
13-Oct-16,20.96,21.41,20.70,21.26,110547
12-Oct-16,21.09,21.26,21.01,21.19,449183
11-Oct-16,21.57,21.61,21.06,21.10,156172
10-Oct-16,21.79,22.09,21.70,21.73,86405
7-Oct-16,22.14,22.14,21.59,21.67,127746
6-Oct-16,21.81,22.13,21.80,22.06,198759
5-Oct-16,21.78,22.05,21.78,21.92,151108
4-Oct-16,22.01,22.13,21.68,21.84,160800
3-Oct-16,21.99,22.13,21.73,21.87,323235
30-Sep-16,22.27,22.27,22.00,22.08,169465
29-Sep-16,22.54,22.54,22.00,22.01,143558
28-Sep-16,22.22,22.57,22.17,22.56,222774
27-Sep-16,22.03,22.24,21.98,22.20,144248
26-Sep-16,22.24,22.24,21.95,21.96,62106
23-Sep-16,22.23,22.42,22.18,22.26,102001
22-Sep-16,22.13,22.37,22.04,22.30,117822
21-Sep-16,21.72,22.00,21.68,21.91,127344
20-Sep-16,21.76,22.13,21.54,21.61,231121
19-Sep-16,21.90,22.10,21.42,21.60,128871
16-Sep-16,21.90,21.92,21.46,21.84,550841
15-Sep-16,21.54,21.91,21.39,21.87,122141
14-Sep-16,21.58,21.75,21.43,21.49,116056
13-Sep-16,22.25,22.25,21.46,21.52,165059
12-Sep-16,21.86,22.41,21.86,22.40,212022
9-Sep-16,22.87,22.90,21.88,21.90,172371
8-Sep-16,23.36,23.46,22.98,23.00,104778
7-Sep-16,23.33,23.58,23.32,23.40,236515
6-Sep-16,23.52,23.52,23.06,23.29,234196
2-Sep-16,23.44,23.66,23.30,23.46,124406
1-Sep-16,23.54,23.70,23.20,23.34,263876
31-Aug-16,23.50,23.76,23.35,23.43,156980
30-Aug-16,23.35,23.77,23.35,23.56,92493
29-Aug-16,23.42,23.78,23.41,23.43,135061
26-Aug-16,23.61,23.80,23.29,23.46,129780
25-Aug-16,23.30,23.60,23.26,23.47,123529
24-Aug-16,23.49,23.57,23.30,23.39,85129
23-Aug-16,23.25,23.57,23.25,23.39,117188
22-Aug-16,23.13,23.17,22.92,23.13,150950
19-Aug-16,23.07,23.54,22.94,23.09,136427
18-Aug-16,23.20,23.25,22.91,23.08,132426
17-Aug-16,23.36,23.36,23.04,23.19,120082
16-Aug-16,23.52,23.74,23.24,23.26,290104
15-Aug-16,23.40,23.74,23.40,23.58,250169
12-Aug-16,23.41,23.41,22.98,23.23,168963
11-Aug-16,23.54,23.93,23.30,23.32,109387
10-Aug-16,23.82,23.98,23.32,23.37,107479
9-Aug-16,23.54,23.78,23.46,23.71,213910
8-Aug-16,23.68,23.76,23.37,23.47,157377
5-Aug-16,23.44,23.83,23.44,23.61,151622
4-Aug-16,23.46,23.62,23.23,23.27,165957
3-Aug-16,23.78,24.25,23.12,23.39,200455
2-Aug-16,23.45,24.36,22.94,23.94,604258
1-Aug-16,22.15,22.61,21.92,22.54,258589
29-Jul-16,22.30,22.30,21.89,22.11,139951
28-Jul-16,22.42,22.43,22.03,22.23,132335
27-Jul-16,22.49,22.59,22.12,22.43,97403
26-Jul-16,22.36,22.56,22.15,22.35,85730
25-Jul-16,22.12,22.37,22.12,22.28,81317
22-Jul-16,21.90,22.41,21.63,22.12,181984
21-Jul-16,22.12,22.19,21.79,21.82,232841
20-Jul-16,22.13,22.22,21.74,22.06,227037
19-Jul-16,22.10,22.19,21.88,21.99,160567
18-Jul-16,22.03,22.12,21.94,22.05,125176
15-Jul-16,22.21,22.22,21.80,21.99,169688
14-Jul-16,22.00,22.11,21.77,22.01,281494
13-Jul-16,21.09,21.80,21.09,21.71,318687
12-Jul-16,20.82,21.41,20.82,21.24,205388
11-Jul-16,20.28,20.65,20.19,20.62,150676
8-Jul-16,19.88,20.32,19.85,20.15,169448
7-Jul-16,19.23,19.80,19.23,19.61,268314
6-Jul-16,19.03,19.32,18.76,19.29,176868
5-Jul-16,19.35,19.35,18.62,19.22,142015
1-Jul-16,19.65,19.78,19.42,19.56,162771
30-Jun-16,19.28,19.68,19.09,19.66,200536
29-Jun-16,19.23,19.26,18.94,19.22,180698
28-Jun-16,19.10,19.19,18.86,18.96,318209
27-Jun-16,19.86,19.86,18.55,18.89,386341
24-Jun-16,19.87,20.39,19.75,20.18,1145979
23-Jun-16,20.52,20.86,20.32,20.80,390203
22-Jun-16,20.56,20.65,20.24,20.24,164115
21-Jun-16,20.84,20.84,20.39,20.46,189369
20-Jun-16,21.06,21.22,20.69,20.72,133910
17-Jun-16,20.82,21.00,20.67,20.83,434250
16-Jun-16,20.85,20.86,20.46,20.76,220395
15-Jun-16,21.28,21.32,20.97,20.99,155396
14-Jun-16,21.23,21.47,20.98,21.12,146592
13-Jun-16,22.00,22.00,21.15,21.20,236048
10-Jun-16,22.66,22.66,21.92,22.06,185286
9-Jun-16,23.14,23.18,22.67,22.92,176350
8-Jun-16,22.58,23.33,22.31,23.24,291647
7-Jun-16,22.68,22.71,22.45,22.59,169363
6-Jun-16,22.33,22.71,22.20,22.66,152072
3-Jun-16,22.19,22.32,21.75,22.30,179012
2-Jun-16,22.15,22.35,21.96,22.33,236423
1-Jun-16,21.19,21.84,21.19,21.75,173407
31-May-16,21.26,21.36,21.00,21.10,253927
27-May-16,20.95,21.25,20.94,21.24,467249
26-May-16,21.09,21.24,20.83,20.87,454088
25-May-16,21.22,21.22,20.79,20.98,249097
24-May-16,21.06,21.21,20.94,21.14,427283
23-May-16,20.52,21.22,20.52,20.86,190271
20-May-16,20.37,20.67,20.32,20.45,327693
19-May-16,20.47,20.85,20.22,20.26,126684
18-May-16,20.73,21.20,20.47,20.55,297665
17-May-16,21.27,21.51,20.72,20.78,192750
16-May-16,21.09,21.44,20.96,21.36,384964
13-May-16,21.26,21.50,20.98,21.03,118649
12-May-16,21.50,21.86,21.12,21.35,184639
11-May-16,21.88,22.17,21.60,21.65,202896
10-May-16,21.58,21.95,21.56,21.86,155892
9-May-16,21.61,21.73,21.22,21.42,170532
6-May-16,21.42,21.80,21.38,21.68,128899
5-May-16,21.85,21.98,21.51,21.52,125832
4-May-16,21.94,22.33,21.68,21.85,178603
3-May-16,22.38,23.42,21.66,22.03,347247
2-May-16,21.53,21.85,21.17,21.73,181563
29-Apr-16,21.82,22.08,21.35,21.43,148131
28-Apr-16,22.06,22.13,21.78,21.80,332309
27-Apr-16,22.10,22.21,21.58,22.12,221514
26-Apr-16,22.09,22.16,21.84,22.15,231923
25-Apr-16,21.99,22.14,21.18,21.90,123774
22-Apr-16,21.97,22.28,21.77,22.00,311590
21-Apr-16,22.39,22.49,21.94,21.99,168727
20-Apr-16,22.48,22.62,21.97,22.38,349463
19-Apr-16,22.39,22.73,22.14,22.39,130690
18-Apr-16,22.16,22.49,21.98,22.24,253643
15-Apr-16,21.98,22.37,21.85,22.15,131669
14-Apr-16,22.35,22.44,21.93,22.11,128247
13-Apr-16,21.93,22.44,21.82,22.44,225657
12-Apr-16,21.59,21.81,21.36,21.75,206856
11-Apr-16,21.57,22.10,21.44,21.54,158346
8-Apr-16,21.40,21.56,21.27,21.49,184315
7-Apr-16,21.79,22.18,21.00,21.19,317481
6-Apr-16,22.79,22.88,22.46,22.74,100625
5-Apr-16,22.66,23.30,22.62,22.84,188321
4-Apr-16,22.58,23.21,22.17,22.83,288019
1-Apr-16,22.59,22.84,22.23,22.77,141750
31-Mar-16,22.53,23.03,22.43,22.82,189123
30-Mar-16,22.83,22.95,22.26,22.46,160982
29-Mar-16,21.86,22.85,21.80,22.77,160395
28-Mar-16,22.00,22.31,21.71,21.89,126205
24-Mar-16,21.67,22.05,21.51,21.98,126243
23-Mar-16,22.49,22.79,21.57,21.71,279249
22-Mar-16,22.44,22.94,22.30,22.61,259995
21-Mar-16,23.64,23.73,22.30,22.61,313380
18-Mar-16,23.62,23.90,23.48,23.76,351307
17-Mar-16,22.25,23.60,22.07,23.46,233455
16-Mar-16,21.80,22.40,21.34,22.21,429472
15-Mar-16,23.39,23.41,22.86,22.95,130302
14-Mar-16,23.55,23.80,23.24,23.45,138552
11-Mar-16,22.97,23.60,22.86,23.55,187903
10-Mar-16,22.90,23.14,22.43,22.87,210865
9-Mar-16,22.87,23.25,22.84,22.90,177929
8-Mar-16,22.99,23.21,22.64,22.84,291477
7-Mar-16,22.68,23.23,22.68,23.15,239497
4-Mar-16,22.78,22.96,22.57,22.72,238755
3-Mar-16,22.61,23.04,22.54,22.73,320578
2-Mar-16,22.65,22.76,22.08,22.61,494201
1-Mar-16,22.31,23.00,22.22,22.71,260321
29-Feb-16,21.76,22.46,21.76,22.28,232563
26-Feb-16,21.80,22.22,21.51,21.82,205848
25-Feb-16,21.73,21.99,21.48,21.72,170793
24-Feb-16,21.14,21.66,20.83,21.59,176885
23-Feb-16,21.30,21.64,20.79,21.27,273592
22-Feb-16,21.18,21.82,21.11,21.47,293781
19-Feb-16,21.07,21.24,20.11,20.72,463741
18-Feb-16,21.12,21.34,20.81,21.08,153212
17-Feb-16,21.16,21.75,21.06,21.39,302638
16-Feb-16,20.39,21.47,20.38,21.08,200091
12-Feb-16,20.02,20.46,19.69,20.23,326216
11-Feb-16,19.09,19.98,18.98,19.76,252791
10-Feb-16,19.56,20.25,19.28,19.44,239333
9-Feb-16,18.97,19.63,18.93,19.38,236130
8-Feb-16,19.00,19.36,18.64,19.23,268278
5-Feb-16,19.72,19.88,19.23,19.23,317956
4-Feb-16,18.92,19.82,18.46,19.75,313085
3-Feb-16,19.44,19.44,18.18,19.10,538794
2-Feb-16,20.51,20.51,19.19,19.52,486342
1-Feb-16,17.99,18.65,17.50,18.46,426281
29-Jan-16,17.57,18.16,17.54,18.11,479403
28-Jan-16,17.96,18.00,17.33,17.58,166817
27-Jan-16,17.96,18.34,17.54,17.84,292375
26-Jan-16,17.83,18.34,17.61,18.00,262479
25-Jan-16,18.60,19.44,17.77,17.85,178889
22-Jan-16,18.29,18.55,18.07,18.54,204324
21-Jan-16,18.38,18.59,17.88,17.90,216936
20-Jan-16,17.71,18.44,17.26,18.27,279959
19-Jan-16,18.57,19.26,17.35,17.81,605094
15-Jan-16,18.32,19.17,18.01,18.46,279557
14-Jan-16,18.79,19.23,18.39,18.88,161958
13-Jan-16,20.04,20.13,18.55,18.66,164319
12-Jan-16,19.85,20.07,19.50,20.03,249396
11-Jan-16,19.40,19.83,19.36,19.74,192648
8-Jan-16,19.54,19.80,19.34,19.40,312243
7-Jan-16,20.64,20.79,19.33,19.49,230322
6-Jan-16,21.32,21.50,20.93,21.06,251720
5-Jan-16,21.46,21.71,21.27,21.69,321972
4-Jan-16,21.14,21.55,20.98,21.48,288504
31-Dec-15,22.02,22.21,21.56,21.57,201656
30-Dec-15,21.74,22.35,21.71,22.08,228455
29-Dec-15,21.64,21.91,21.47,21.85,139808
28-Dec-15,21.73,21.89,21.26,21.47,111465
24-Dec-15,21.79,22.00,21.59,21.75,120654
23-Dec-15,21.59,21.80,21.43,21.75,201689
22-Dec-15,21.43,21.56,21.08,21.42,293882
21-Dec-15,21.23,21.76,20.50,21.29,332903
18-Dec-15,20.92,21.39,20.85,21.14,632193
17-Dec-15,20.94,21.27,20.76,21.05,278954
16-Dec-15,20.97,21.46,20.50,20.94,373237
15-Dec-15,21.15,21.74,19.64,20.71,890294
14-Dec-15,22.81,22.95,22.08,22.18,332772
11-Dec-15,24.50,24.50,22.14,22.91,890563
10-Dec-15,25.37,25.44,24.58,24.94,196196
9-Dec-15,25.00,25.80,24.95,25.41,252057
8-Dec-15,25.12,25.41,24.90,25.12,196537
7-Dec-15,25.40,25.72,25.01,25.26,323507
4-Dec-15,24.85,25.46,24.85,25.43,123110
3-Dec-15,25.00,25.25,24.71,24.89,266766
2-Dec-15,25.44,25.79,24.95,24.96,319007
1-Dec-15,25.69,25.74,25.07,25.50,207012
30-Nov-15,25.60,25.81,25.40,25.50,332636
27-Nov-15,25.47,25.82,25.38,25.66,79881
25-Nov-15,25.43,25.62,25.14,25.46,213128
24-Nov-15,25.38,25.73,25.15,25.51,398149
23-Nov-15,25.48,25.57,24.98,25.34,203762
20-Nov-15,25.50,25.74,25.17,25.48,243641
19-Nov-15,25.38,25.45,25.00,25.39,146032
18-Nov-15,25.27,25.57,25.17,25.49,142644
17-Nov-15,25.60,25.60,24.93,25.21,231271
16-Nov-15,25.07,25.69,24.99,25.57,194627
13-Nov-15,24.89,25.31,24.88,24.99,176357
12-Nov-15,25.41,25.68,24.93,25.01,164473
11-Nov-15,26.04,26.30,25.70,25.73,234441
10-Nov-15,25.71,25.99,25.57,25.97,221627
9-Nov-15,25.44,25.90,25.25,25.68,359615
6-Nov-15,25.55,25.98,25.47,25.75,237309
5-Nov-15,25.53,25.85,25.11,25.81,171881
4-Nov-15,26.28,26.52,25.36,25.49,228689
3-Nov-15,25.50,26.44,24.07,26.36,568916
2-Nov-15,23.79,24.32,23.77,23.96,332003
30-Oct-15,23.66,24.14,23.45,23.81,307487
29-Oct-15,24.21,24.21,23.38,23.58,215387
28-Oct-15,23.55,24.24,23.44,24.17,212659
27-Oct-15,23.85,24.04,23.23,23.48,164968
26-Oct-15,24.02,24.27,23.83,23.89,173753
23-Oct-15,24.33,24.46,23.94,24.07,173099
22-Oct-15,23.77,24.29,23.77,24.19,113312
21-Oct-15,24.09,24.27,23.58,23.60,132131
20-Oct-15,23.92,24.21,23.79,23.95,132639
19-Oct-15,24.15,24.41,23.84,24.00,140668
16-Oct-15,24.41,24.46,23.91,24.21,167853
15-Oct-15,23.90,24.31,23.50,24.31,152366
14-Oct-15,23.79,24.04,23.50,23.84,179962
13-Oct-15,24.04,24.14,23.63,23.77,151841
12-Oct-15,24.02,24.24,23.49,24.11,178550
9-Oct-15,24.19,24.50,23.98,24.24,220491
8-Oct-15,23.37,24.19,23.37,24.18,294369
7-Oct-15,23.15,23.45,23.04,23.43,308584
6-Oct-15,23.07,23.26,22.84,23.12,367409
5-Oct-15,22.59,23.05,22.54,23.04,311891
2-Oct-15,22.10,22.52,21.80,22.50,406943
1-Oct-15,22.30,22.71,22.11,22.31,382579
30-Sep-15,22.63,22.74,22.26,22.40,462805
29-Sep-15,22.57,22.64,22.36,22.38,502599
28-Sep-15,22.52,22.80,22.47,22.49,395477
25-Sep-15,23.00,23.00,22.50,22.55,196048
24-Sep-15,22.86,22.92,22.50,22.78,150347
23-Sep-15,23.46,23.73,22.79,23.06,165493
22-Sep-15,23.25,24.30,22.95,23.42,168249
21-Sep-15,24.68,24.68,23.38,23.48,199768
18-Sep-15,24.10,24.44,23.93,24.42,362125
17-Sep-15,24.34,24.78,24.13,24.50,164094
16-Sep-15,24.11,24.47,24.00,24.33,119182
15-Sep-15,23.72,24.22,23.55,24.04,139833
14-Sep-15,24.11,24.11,23.60,23.69,143986
11-Sep-15,24.04,24.11,23.58,24.07,217508
10-Sep-15,24.33,24.37,23.87,24.13,196897
9-Sep-15,24.36,24.53,24.03,24.35,324310
8-Sep-15,23.91,24.25,23.40,24.05,266670
4-Sep-15,23.60,24.01,23.53,23.53,144416
3-Sep-15,24.30,24.31,23.90,23.94,229741
2-Sep-15,23.72,24.18,23.69,24.17,487963
1-Sep-15,23.94,24.34,23.46,23.55,298297
31-Aug-15,23.82,24.36,23.54,24.34,397108
28-Aug-15,23.21,23.90,23.16,23.81,442637
27-Aug-15,23.31,23.56,22.66,23.18,309869
26-Aug-15,23.14,23.68,22.50,23.11,509900
25-Aug-15,23.71,23.71,22.59,22.61,312534
24-Aug-15,22.35,24.52,22.30,22.87,355295
21-Aug-15,24.11,24.81,23.49,23.65,577977
20-Aug-15,25.50,25.64,24.50,24.61,290221
19-Aug-15,26.20,26.20,25.64,25.94,155762
18-Aug-15,26.36,27.13,26.13,26.33,232151
17-Aug-15,25.95,26.26,25.84,26.26,238906
14-Aug-15,25.76,26.33,25.72,26.18,360444
13-Aug-15,26.24,26.52,25.75,25.79,223683
12-Aug-15,26.30,26.48,25.91,26.39,234723
11-Aug-15,26.67,26.67,26.25,26.36,251923
10-Aug-15,26.98,26.98,26.28,26.57,358092
7-Aug-15,26.79,26.94,26.33,26.78,316862
6-Aug-15,26.56,27.09,26.14,26.84,783557
5-Aug-15,24.70,26.52,24.62,26.44,800825
4-Aug-15,27.15,27.15,24.02,24.68,1961337
3-Aug-15,28.73,28.97,28.43,28.61,340809
31-Jul-15,28.86,29.09,28.67,28.85,209652
30-Jul-15,28.62,28.79,28.40,28.66,250150
29-Jul-15,28.55,29.06,28.50,28.69,208271
28-Jul-15,28.62,28.71,28.13,28.59,272964
27-Jul-15,29.09,29.09,27.58,28.46,454284
24-Jul-15,30.09,30.13,29.26,29.27,193899
23-Jul-15,30.46,30.69,30.03,30.12,218146
22-Jul-15,30.33,30.58,30.19,30.43,270077
21-Jul-15,30.32,30.50,30.28,30.40,322543
20-Jul-15,30.69,30.69,30.27,30.37,171619
17-Jul-15,30.85,30.85,30.50,30.69,343747
16-Jul-15,30.85,30.86,30.73,30.78,578745
15-Jul-15,30.50,30.85,30.44,30.82,369400
14-Jul-15,30.77,30.81,30.68,30.76,260384
13-Jul-15,30.59,30.90,30.50,30.89,414095
10-Jul-15,30.52,30.64,30.15,30.35,376284
9-Jul-15,30.20,30.34,29.87,30.28,426415
8-Jul-15,30.01,30.32,29.86,29.98,339981
7-Jul-15,30.47,30.47,30.11,30.26,418650
6-Jul-15,29.93,30.61,29.81,30.43,402399
2-Jul-15,30.06,30.23,30.04,30.10,456512
1-Jul-15,30.33,30.46,30.10,30.13,409051
30-Jun-15,30.40,30.40,30.10,30.10,367460
29-Jun-15,30.39,30.78,30.08,30.10,572742
26-Jun-15,30.65,30.92,30.54,30.62,2714534
25-Jun-15,30.35,30.75,30.17,30.70,931066
24-Jun-15,30.29,30.56,30.14,30.17,518796
23-Jun-15,30.65,30.71,30.25,30.53,630089
22-Jun-15,30.50,30.65,30.16,30.60,1104183
19-Jun-15,30.45,30.54,30.00,30.29,4495119
18-Jun-15,31.80,32.20,31.65,32.05,269379
17-Jun-15,32.00,32.00,31.44,31.59,226234
16-Jun-15,31.60,32.04,31.33,31.98,302050
15-Jun-15,30.79,31.84,30.71,31.78,272649
12-Jun-15,31.15,31.15,30.74,30.93,69209
11-Jun-15,31.30,31.35,31.05,31.15,89994
10-Jun-15,30.93,31.47,30.76,31.24,159735
9-Jun-15,30.72,30.79,30.25,30.75,155769
8-Jun-15,30.85,31.00,30.67,30.75,127827
5-Jun-15,30.52,30.98,30.27,30.87,128550
4-Jun-15,30.85,30.94,30.42,30.60,100025
3-Jun-15,31.15,31.35,30.78,31.02,179521
2-Jun-15,30.55,31.21,30.41,31.10,149167
1-Jun-15,30.79,31.18,30.29,30.81,117295
29-May-15,30.84,31.29,30.51,30.60,141119
28-May-15,31.20,31.30,30.72,30.89,114587
27-May-15,30.93,31.38,30.74,31.23,103064
26-May-15,31.16,31.16,30.66,30.93,136936
22-May-15,31.76,32.06,31.30,31.36,102031
21-May-15,32.02,32.09,31.59,31.73,138460
20-May-15,32.03,32.20,31.62,31.95,192886
19-May-15,31.74,31.97,31.44,31.84,273995
18-May-15,31.48,31.76,31.18,31.75,352420
15-May-15,31.40,31.71,31.30,31.46,157990
14-May-15,31.03,31.40,30.75,31.40,189054
13-May-15,30.93,31.00,30.54,30.91,227808
12-May-15,30.53,30.97,30.05,30.76,305583
11-May-15,30.64,30.80,30.41,30.59,326957
8-May-15,30.83,30.83,30.25,30.55,383180
7-May-15,30.57,30.78,30.29,30.63,281182
6-May-15,31.28,31.28,30.25,30.64,487635
5-May-15,31.22,31.55,30.68,30.92,287712
4-May-15,31.30,31.52,31.19,31.26,306923
1-May-15,31.01,31.66,30.91,31.22,265127
30-Apr-15,31.71,32.28,30.85,30.95,245119
29-Apr-15,32.11,32.25,31.89,31.91,256657
28-Apr-15,31.75,32.35,31.61,32.31,264379
27-Apr-15,32.11,32.57,31.61,31.84,208724
24-Apr-15,32.30,32.60,31.95,32.20,230905
23-Apr-15,32.50,32.77,31.92,32.21,158810
22-Apr-15,32.75,32.75,31.92,32.53,201907
21-Apr-15,32.55,32.90,32.44,32.76,201283
20-Apr-15,32.29,32.65,31.97,32.38,376061
17-Apr-15,32.35,32.62,31.80,31.98,202291
16-Apr-15,33.35,33.59,32.57,32.89,151496
15-Apr-15,33.61,33.65,33.30,33.48,158541
14-Apr-15,33.24,33.61,33.05,33.36,247407
13-Apr-15,33.38,33.74,33.11,33.38,165227
10-Apr-15,33.44,33.68,33.26,33.29,150710
9-Apr-15,33.42,33.65,33.01,33.33,178766
8-Apr-15,33.36,33.90,33.32,33.50,201851
7-Apr-15,33.75,33.75,33.19,33.30,182155
6-Apr-15,33.10,33.86,32.90,33.86,310315
2-Apr-15,33.68,33.85,33.14,33.46,247064
1-Apr-15,33.80,33.91,33.14,33.72,449592
31-Mar-15,32.76,33.78,32.71,33.73,564228
30-Mar-15,32.59,33.05,32.38,32.83,723110
27-Mar-15,33.16,33.30,32.36,32.44,962339
26-Mar-15,32.32,33.36,31.93,33.05,363489
25-Mar-15,33.05,33.47,32.59,32.59,377637
24-Mar-15,33.12,33.67,32.79,33.20,418286
23-Mar-15,33.05,33.43,32.87,33.04,432708
20-Mar-15,32.99,33.29,32.42,32.99,578063
19-Mar-15,32.68,33.25,32.40,32.75,439167
18-Mar-15,32.07,33.21,31.94,32.89,457309
17-Mar-15,31.79,32.60,31.62,32.45,746721
16-Mar-15,31.32,32.00,30.98,31.79,1197766
13-Mar-15,30.75,30.89,30.45,30.80,5073171
12-Mar-15,32.76,32.76,30.47,31.28,802416
11-Mar-15,32.88,33.27,32.36,32.71,241329
10-Mar-15,33.81,34.00,32.58,32.69,349466
9-Mar-15,34.61,35.02,34.25,34.78,104161
6-Mar-15,34.58,35.09,34.33,34.44,83955
5-Mar-15,35.03,35.41,34.71,34.89,180009
4-Mar-15,35.40,35.63,34.78,34.88,106657
3-Mar-15,35.24,35.61,34.97,35.50,135529
2-Mar-15,34.32,35.78,34.32,35.42,229967
27-Feb-15,34.80,35.08,34.09,34.15,185043
26-Feb-15,35.00,35.98,34.69,34.94,109371
25-Feb-15,35.25,35.28,34.66,34.94,202082
24-Feb-15,34.99,35.35,34.72,35.15,200942
23-Feb-15,34.75,34.90,34.40,34.89,165894
20-Feb-15,34.42,34.80,34.14,34.78,134971
19-Feb-15,34.01,34.62,33.99,34.35,162146
18-Feb-15,33.74,34.09,33.57,34.04,117830
17-Feb-15,33.75,34.20,33.58,33.69,210886
13-Feb-15,33.50,34.06,33.31,33.92,254003
12-Feb-15,32.74,33.58,32.33,33.46,729855
11-Feb-15,32.37,32.69,32.21,32.41,265065
10-Feb-15,32.25,32.67,31.90,32.54,484827
9-Feb-15,31.89,32.33,31.56,31.86,169873
6-Feb-15,32.57,32.67,31.69,32.00,268416
5-Feb-15,32.62,33.24,32.36,32.51,387814
4-Feb-15,33.39,33.53,32.82,32.94,235922
3-Feb-15,33.31,34.22,33.10,33.47,246265
2-Feb-15,32.85,33.15,32.41,33.14,166113
30-Jan-15,33.60,34.96,32.22,32.70,236943
29-Jan-15,34.50,34.97,33.29,34.52,362990
28-Jan-15,34.42,34.42,33.38,33.78,202446
27-Jan-15,33.61,34.19,31.77,34.10,187744
26-Jan-15,34.31,34.95,34.04,34.60,177627
23-Jan-15,34.89,35.28,34.25,34.55,72270
22-Jan-15,33.97,34.87,33.54,34.78,240451
21-Jan-15,32.51,34.08,32.31,33.65,226065
20-Jan-15,32.58,32.96,32.30,32.49,159721
16-Jan-15,31.40,32.47,31.05,32.42,205999
15-Jan-15,31.53,31.99,31.38,31.51,139129
14-Jan-15,31.52,31.81,31.26,31.53,108143
13-Jan-15,31.57,32.49,31.49,31.82,185554
12-Jan-15,31.62,31.71,31.14,31.28,177523
9-Jan-15,31.22,31.54,30.78,31.30,347776
8-Jan-15,31.74,32.31,31.26,31.39,184288
7-Jan-15,31.48,31.49,30.69,31.43,142046
6-Jan-15,32.36,32.41,30.70,31.32,167937
5-Jan-15,31.71,32.75,31.57,32.41,186592
2-Jan-15,33.30,33.56,32.50,33.11,105368
31-Dec-14,33.67,33.88,32.81,33.00,68607
30-Dec-14,33.36,33.69,33.05,33.61,78244
29-Dec-14,33.82,34.12,33.24,33.46,143786
26-Dec-14,33.36,34.12,33.12,33.82,83542
24-Dec-14,33.36,33.40,33.04,33.14,43296
23-Dec-14,33.28,33.59,32.95,33.21,146906
22-Dec-14,32.62,33.24,31.77,33.19,123270
19-Dec-14,31.86,32.66,31.56,32.47,346601
18-Dec-14,31.90,32.33,31.39,31.92,92311
17-Dec-14,30.83,31.57,30.16,31.35,184682
16-Dec-14,31.79,32.15,30.69,30.86,206235
15-Dec-14,31.58,32.54,31.36,31.86,172158
12-Dec-14,31.44,31.95,31.27,31.35,102901
11-Dec-14,32.24,32.50,31.73,31.85,102078
10-Dec-14,33.22,33.46,31.93,31.95,164183
9-Dec-14,32.00,33.35,31.68,33.25,190289
8-Dec-14,32.37,32.70,31.89,32.22,192473
5-Dec-14,31.97,32.59,31.94,32.36,153336
4-Dec-14,31.90,32.49,31.60,31.98,111126
3-Dec-14,31.45,32.15,31.37,31.91,147655
2-Dec-14,31.11,31.59,30.81,31.33,422224
1-Dec-14,31.27,31.68,30.03,30.94,194997
28-Nov-14,31.54,32.19,31.13,31.24,115174
26-Nov-14,31.41,31.74,31.28,31.56,269797
25-Nov-14,30.81,31.29,30.76,31.16,202583
24-Nov-14,30.24,31.20,29.82,31.11,159359
21-Nov-14,30.54,30.74,29.97,30.03,101518
20-Nov-14,29.77,30.42,29.77,30.09,133704
19-Nov-14,30.37,30.64,29.84,29.87,138531
18-Nov-14,30.37,31.17,30.37,30.47,114031
17-Nov-14,30.25,30.57,30.20,30.27,157378
14-Nov-14,30.36,30.62,30.04,30.18,147780
13-Nov-14,30.67,30.77,30.25,30.40,69784
12-Nov-14,30.63,30.88,30.47,30.78,271514
11-Nov-14,30.87,30.87,30.61,30.70,140542
10-Nov-14,30.88,30.94,30.67,30.74,125305
7-Nov-14,30.91,31.11,30.56,30.76,181756
6-Nov-14,30.48,31.08,30.27,30.84,341932
5-Nov-14,30.15,30.63,29.88,30.37,669002
4-Nov-14,31.76,33.24,31.76,32.13,211266
3-Nov-14,32.00,32.32,31.88,32.03,125496
31-Oct-14,31.91,32.30,31.53,32.00,211830
30-Oct-14,31.00,31.49,30.01,31.08,119477
29-Oct-14,31.25,31.37,30.73,31.07,134609
28-Oct-14,30.19,31.41,29.95,31.27,181886
27-Oct-14,29.90,30.09,29.47,29.92,129733
24-Oct-14,30.25,30.25,29.42,29.98,71855
23-Oct-14,30.07,30.54,30.03,30.18,66450
22-Oct-14,30.54,30.97,29.71,29.83,122847
21-Oct-14,29.70,30.53,29.12,30.37,148631
20-Oct-14,28.82,29.75,28.62,29.61,110457
17-Oct-14,29.25,29.36,28.82,29.01,161523
16-Oct-14,28.11,29.01,27.45,28.82,271906
15-Oct-14,27.11,28.49,27.01,28.42,224799
14-Oct-14,27.58,27.96,27.06,27.50,174242
13-Oct-14,27.10,28.12,26.82,27.48,189018
10-Oct-14,27.58,28.30,27.07,27.15,105679
9-Oct-14,28.67,28.71,27.65,27.77,87513
8-Oct-14,28.38,28.87,27.67,28.77,117208
7-Oct-14,28.53,28.72,28.25,28.36,84071
6-Oct-14,28.91,29.10,28.61,28.79,75958
3-Oct-14,29.12,29.24,28.73,28.94,98856
2-Oct-14,28.73,28.99,28.28,28.80,103465
1-Oct-14,29.52,29.86,28.65,28.75,124959
30-Sep-14,30.18,30.24,29.37,29.46,201958
29-Sep-14,29.25,30.28,29.22,30.18,170210
26-Sep-14,28.79,29.43,28.57,29.40,145955
25-Sep-14,29.18,29.29,28.63,28.79,86202
24-Sep-14,29.20,29.81,28.77,29.15,68212
23-Sep-14,29.40,29.64,28.97,29.10,122177
22-Sep-14,29.99,29.99,29.15,29.44,124476
19-Sep-14,30.55,30.74,29.85,30.18,214882
18-Sep-14,30.00,30.96,29.98,30.50,138922
17-Sep-14,29.90,29.98,29.61,29.77,82690
16-Sep-14,29.58,29.96,29.37,29.85,118226
15-Sep-14,29.69,30.02,29.43,29.70,128129
12-Sep-14,30.32,30.42,29.27,29.60,108375
11-Sep-14,29.84,30.31,29.84,30.27,129994
10-Sep-14,29.54,30.04,29.52,29.91,91193
9-Sep-14,29.75,29.78,29.15,29.63,126036
8-Sep-14,29.73,29.92,29.44,29.75,90641
5-Sep-14,29.57,29.89,29.39,29.69,73652
4-Sep-14,29.39,29.80,29.05,29.66,140473
3-Sep-14,29.68,29.77,29.18,29.23,414454
2-Sep-14,29.75,29.78,29.04,29.57,170173
29-Aug-14,29.47,29.83,29.06,29.66,168309
28-Aug-14,29.54,29.60,29.24,29.35,140862
27-Aug-14,29.38,30.24,29.33,29.69,224088
26-Aug-14,29.01,29.28,28.91,29.03,100345
25-Aug-14,28.78,29.29,28.62,29.00,98643
22-Aug-14,28.66,29.21,28.59,28.62,92961
21-Aug-14,30.12,30.12,28.48,28.66,87110
20-Aug-14,28.57,28.86,28.35,28.69,198262
19-Aug-14,28.67,28.98,28.47,28.64,79349
18-Aug-14,28.32,28.78,28.10,28.73,165649
15-Aug-14,28.63,28.63,27.71,28.12,231889
14-Aug-14,30.34,31.54,26.86,28.25,309725
13-Aug-14,26.57,26.76,26.46,26.66,33501
12-Aug-14,26.82,26.98,26.34,26.52,143177
11-Aug-14,26.59,27.11,24.93,26.86,174215
8-Aug-14,26.19,26.55,25.56,26.44,62154
7-Aug-14,26.37,26.44,26.06,26.22,58324
6-Aug-14,26.80,27.12,26.46,26.54,124517
5-Aug-14,27.27,27.27,25.33,26.91,123670
4-Aug-14,26.79,27.62,26.45,27.45,269728
1-Aug-14,27.99,27.99,26.01,26.80,243135
31-Jul-14,25.91,26.48,25.61,25.77,269512
30-Jul-14,25.98,26.20,25.79,26.17,87021
29-Jul-14,26.25,26.48,25.75,25.77,139734
28-Jul-14,26.08,26.38,25.84,26.13,108104
25-Jul-14,26.25,26.77,25.85,26.11,94350
24-Jul-14,26.81,27.16,26.33,26.44,75887
23-Jul-14,26.99,27.26,26.61,26.69,57326
22-Jul-14,26.85,27.16,26.81,27.02,182159
21-Jul-14,26.88,27.10,26.52,26.63,55067
18-Jul-14,26.75,27.46,26.75,27.00,148884
17-Jul-14,26.93,27.24,26.35,26.83,195728
16-Jul-14,27.16,27.45,26.84,26.97,399841
15-Jul-14,27.04,27.35,26.71,27.00,247437
14-Jul-14,27.13,27.24,26.72,26.99,166067
11-Jul-14,27.20,27.36,26.90,26.95,94403
10-Jul-14,26.91,27.38,26.74,27.13,145631
9-Jul-14,27.29,27.65,27.16,27.25,87080
8-Jul-14,27.36,27.49,27.09,27.24,319757
7-Jul-14,27.56,27.66,27.28,27.42,195096
3-Jul-14,27.67,27.85,27.55,27.69,138393
2-Jul-14,27.08,27.67,27.03,27.62,211242
1-Jul-14,26.97,27.42,26.69,27.22,717171
30-Jun-14,26.85,27.05,26.70,26.80,402651
27-Jun-14,26.96,27.14,26.55,26.78,2460889
26-Jun-14,26.86,27.22,26.49,27.14,242614
25-Jun-14,26.00,27.01,25.05,26.94,660253
24-Jun-14,27.07,27.37,27.07,27.19,310727
23-Jun-14,27.28,27.28,26.74,26.89,257929
20-Jun-14,27.14,27.45,27.03,27.19,239824
19-Jun-14,26.85,27.08,26.62,27.00,225599
18-Jun-14,26.63,27.03,26.51,26.75,163046
17-Jun-14,25.81,26.76,25.71,26.69,350622
16-Jun-14,26.54,27.72,26.54,27.67,327876
13-Jun-14,26.75,26.90,26.35,26.46,108930
12-Jun-14,26.96,27.17,26.57,26.74,67222
11-Jun-14,27.25,27.26,26.90,27.08,138494
10-Jun-14,27.32,27.69,27.29,27.30,181497
9-Jun-14,27.11,27.46,27.00,27.40,142097
6-Jun-14,27.08,27.32,26.94,27.04,163187
5-Jun-14,26.80,27.03,26.65,26.90,257652
4-Jun-14,26.55,27.09,26.49,26.71,184136
3-Jun-14,26.26,26.86,26.06,26.69,225759
2-Jun-14,26.95,26.95,26.32,26.48,92867
30-May-14,26.97,27.12,26.75,26.80,284142
29-May-14,26.94,26.95,26.69,26.88,145695
28-May-14,26.79,26.90,26.26,26.74,399223
27-May-14,26.62,26.94,26.46,26.73,272483
23-May-14,26.14,26.45,25.80,26.43,149817
22-May-14,25.84,26.22,25.80,26.04,200566
21-May-14,25.45,25.82,25.42,25.72,182229
20-May-14,25.11,25.50,24.84,25.32,188443
19-May-14,24.72,25.19,24.59,25.10,178828
16-May-14,24.25,24.91,24.11,24.71,145041
15-May-14,24.26,24.50,23.86,24.29,171120
14-May-14,24.42,24.44,24.08,24.26,138843
13-May-14,24.46,24.53,24.00,24.36,302762
12-May-14,24.19,24.54,24.00,24.40,222592
9-May-14,23.70,24.16,23.70,24.04,100773
8-May-14,23.43,24.08,23.43,23.84,131880
7-May-14,23.70,23.75,23.37,23.73,68108
6-May-14,23.80,23.99,23.34,23.69,152888
5-May-14,23.73,23.97,23.38,23.83,129900
2-May-14,24.15,24.20,23.72,23.84,82893
1-May-14,24.12,24.30,23.72,24.28,108661
30-Apr-14,24.64,24.82,24.34,24.35,173370
29-Apr-14,24.91,24.93,24.44,24.66,68656
28-Apr-14,24.74,24.91,24.39,24.74,112336
25-Apr-14,24.78,25.22,24.52,24.64,99354
24-Apr-14,25.16,25.30,24.40,24.83,108845
23-Apr-14,24.95,25.25,24.84,25.06,110411
22-Apr-14,25.28,25.38,24.93,25.05,67953
21-Apr-14,25.64,25.92,23.00,25.38,120856
17-Apr-14,25.09,25.70,24.89,25.44,230228
16-Apr-14,24.88,25.25,24.55,25.15,67136
15-Apr-14,24.84,24.98,24.02,24.77,103158
14-Apr-14,24.14,24.84,23.99,24.78,191586
11-Apr-14,24.05,24.44,23.81,23.98,100915
10-Apr-14,24.50,24.65,23.96,24.33,173648
9-Apr-14,23.65,24.89,23.60,24.61,214692
8-Apr-14,23.52,23.86,23.23,23.61,56577
7-Apr-14,23.90,23.99,23.45,23.49,52097
4-Apr-14,24.08,24.20,23.75,23.91,97800
3-Apr-14,24.10,24.10,23.80,23.95,123109
2-Apr-14,24.15,24.20,23.89,24.00,111771
1-Apr-14,23.98,24.40,23.78,24.15,137557
31-Mar-14,23.73,24.12,23.18,23.93,148965
28-Mar-14,23.89,23.95,23.29,23.62,68119
27-Mar-14,23.57,24.01,23.16,23.84,87682
26-Mar-14,24.00,24.46,23.43,23.48,76863
25-Mar-14,24.08,24.16,23.62,23.97,82570
24-Mar-14,24.45,25.00,23.75,23.84,64818
21-Mar-14,24.00,24.70,23.86,24.48,330835
20-Mar-14,23.83,24.14,23.80,24.04,133950
19-Mar-14,24.10,24.13,23.68,23.98,40584
18-Mar-14,23.96,24.40,23.92,24.13,93036
17-Mar-14,24.29,24.49,23.92,23.99,88172
14-Mar-14,23.71,24.36,23.71,24.14,56692
13-Mar-14,24.57,24.63,23.78,23.79,83062
12-Mar-14,23.95,24.48,23.86,24.48,64614
11-Mar-14,24.43,24.83,24.11,24.15,113117
10-Mar-14,24.12,24.56,23.87,24.47,174487
7-Mar-14,24.57,24.61,23.96,24.16,95366
6-Mar-14,24.91,24.97,24.00,24.34,178052
5-Mar-14,24.90,25.04,24.71,24.77,124153
4-Mar-14,24.74,25.38,24.68,24.95,280612
3-Mar-14,24.95,24.95,24.42,24.51,213460
28-Feb-14,25.03,25.41,24.73,25.12,258112
27-Feb-14,24.67,25.03,24.65,24.95,216481
26-Feb-14,24.71,24.98,24.49,24.79,230081
25-Feb-14,24.09,24.94,23.96,24.73,158732
24-Feb-14,24.58,24.78,23.96,24.16,246737
21-Feb-14,24.92,24.96,24.31,24.65,168317
20-Feb-14,24.33,24.92,24.10,24.77,133364
19-Feb-14,24.77,24.91,24.08,24.27,178462
18-Feb-14,24.20,24.89,24.01,24.74,141910
14-Feb-14,24.15,24.39,23.80,24.27,98696
13-Feb-14,23.91,24.38,23.76,24.11,194562
12-Feb-14,23.83,24.18,23.61,24.06,304887
11-Feb-14,23.39,24.17,23.08,23.88,185448
10-Feb-14,23.31,23.38,23.06,23.35,75829
7-Feb-14,23.34,23.48,23.25,23.38,109948
6-Feb-14,22.51,23.42,22.37,23.36,233091
5-Feb-14,22.65,22.84,21.90,22.57,419055
4-Feb-14,22.29,23.15,22.24,22.68,279722
3-Feb-14,22.79,23.00,21.43,22.27,943127
31-Jan-14,24.27,24.51,22.91,23.12,313344
30-Jan-14,25.22,25.60,24.55,24.58,134475
29-Jan-14,24.16,25.55,24.16,25.00,559707
28-Jan-14,24.87,25.36,24.17,25.19,87759
27-Jan-14,25.10,25.55,24.77,24.87,92347
24-Jan-14,25.37,26.15,24.87,25.02,187331
23-Jan-14,25.09,25.36,24.34,25.28,169048
22-Jan-14,25.55,25.74,25.39,25.42,40701
21-Jan-14,25.99,26.12,25.15,25.49,117746
17-Jan-14,25.96,26.15,25.55,25.83,101276
16-Jan-14,26.03,26.21,25.83,25.93,88345
15-Jan-14,26.09,26.24,25.83,25.99,80559
14-Jan-14,25.96,26.14,25.55,26.11,111707
13-Jan-14,25.96,25.99,25.55,25.84,155213
10-Jan-14,25.60,25.98,24.95,25.92,150645
9-Jan-14,25.52,25.52,24.55,24.86,177999
8-Jan-14,25.21,25.58,25.05,25.50,70510
7-Jan-14,25.88,25.99,25.22,25.29,96769
6-Jan-14,25.55,26.00,25.25,25.73,154856
3-Jan-14,25.31,26.00,24.99,25.65,220409
2-Jan-14,25.61,25.95,24.94,25.28,111437
31-Dec-13,26.03,26.05,25.62,25.71,81552
30-Dec-13,26.00,26.17,25.45,25.96,76360
27-Dec-13,26.12,26.39,25.16,26.04,96264
26-Dec-13,25.98,26.20,25.66,26.01,74736
24-Dec-13,25.77,26.19,25.75,25.94,108772
23-Dec-13,25.61,26.05,25.39,25.73,133026
20-Dec-13,25.83,25.95,25.19,25.47,805408
19-Dec-13,25.75,26.39,25.34,25.86,127535
18-Dec-13,25.75,25.92,25.19,25.72,227973
17-Dec-13,25.51,26.00,25.24,25.64,186594
16-Dec-13,25.63,25.99,25.08,25.51,274720
13-Dec-13,25.52,25.74,25.01,25.55,176053
12-Dec-13,24.83,25.53,24.65,25.42,188676
11-Dec-13,24.64,24.98,24.39,24.78,143039
10-Dec-13,24.05,24.82,24.01,24.67,405912
9-Dec-13,23.79,24.09,23.48,24.02,175366
6-Dec-13,23.83,24.09,23.47,23.70,272736
5-Dec-13,23.47,24.04,22.45,23.53,109400
4-Dec-13,22.97,23.70,22.76,23.40,156588
3-Dec-13,22.75,23.17,22.35,22.96,113219
2-Dec-13,23.09,23.10,22.70,22.75,51688
29-Nov-13,23.30,23.30,22.92,23.03,120057
27-Nov-13,22.51,23.01,22.23,22.90,119930
26-Nov-13,22.29,22.91,22.15,22.43,208116
25-Nov-13,22.37,22.37,22.00,22.20,79627
22-Nov-13,22.30,22.30,22.00,22.29,88960
21-Nov-13,22.17,22.49,22.06,22.40,80530
20-Nov-13,22.51,22.67,21.70,21.97,188667
19-Nov-13,22.50,22.74,22.36,22.38,30072
18-Nov-13,22.57,22.77,22.32,22.42,50182
15-Nov-13,22.32,22.68,22.10,22.50,60475
14-Nov-13,22.42,22.80,22.29,22.36,63891
13-Nov-13,22.30,22.70,22.15,22.50,62643
12-Nov-13,22.42,22.92,22.17,22.37,65790
11-Nov-13,22.77,23.08,22.36,22.43,94432
8-Nov-13,22.28,23.96,22.21,22.87,128719
7-Nov-13,22.82,22.95,22.03,22.12,108366
6-Nov-13,22.39,23.39,22.39,22.75,84429
5-Nov-13,22.46,22.75,22.33,22.50,49364
4-Nov-13,22.40,22.80,22.08,22.50,112329
1-Nov-13,22.02,22.25,21.84,22.09,99102
31-Oct-13,22.00,22.43,21.71,22.02,219954
30-Oct-13,23.27,23.27,21.32,22.01,321609
29-Oct-13,24.96,25.00,22.96,23.43,89445
28-Oct-13,24.08,24.34,23.82,24.24,95040
25-Oct-13,24.17,24.69,23.81,24.00,73748
24-Oct-13,24.07,24.24,23.79,24.04,88360
23-Oct-13,24.19,24.25,23.77,23.92,132855
22-Oct-13,23.84,24.50,23.84,24.21,52213
21-Oct-13,24.26,24.51,23.69,23.84,151243
18-Oct-13,23.64,24.45,23.16,24.17,90219
17-Oct-13,23.08,23.75,22.81,23.38,62155
16-Oct-13,22.94,23.23,22.78,23.09,33837
15-Oct-13,23.08,23.37,22.88,22.95,27385
14-Oct-13,23.11,23.47,22.53,23.07,34307
11-Oct-13,22.62,23.54,22.62,23.33,45735
10-Oct-13,22.30,22.67,22.00,22.61,44136
9-Oct-13,22.12,22.30,21.93,22.04,56193
8-Oct-13,22.04,22.18,21.95,22.00,77712
7-Oct-13,21.97,22.28,21.83,21.97,57720
4-Oct-13,21.30,22.13,21.30,22.08,75575
3-Oct-13,21.88,22.00,21.28,21.39,199843
2-Oct-13,22.02,22.39,21.70,21.84,43108
1-Oct-13,22.23,22.46,22.00,22.18,36595
30-Sep-13,22.19,22.24,21.76,22.17,31280
27-Sep-13,22.48,22.75,21.75,22.28,41946
26-Sep-13,22.45,22.74,22.11,22.63,32704
25-Sep-13,22.88,22.94,22.29,22.35,29900
24-Sep-13,22.71,23.00,22.36,22.79,68755
23-Sep-13,23.26,23.26,22.53,22.61,36672
20-Sep-13,23.14,23.30,22.76,23.14,127904
19-Sep-13,23.18,23.24,22.60,23.01,47429
18-Sep-13,22.47,23.38,22.47,23.15,91960
17-Sep-13,22.15,23.08,22.09,22.88,101210
16-Sep-13,21.75,22.28,21.16,22.09,34499
13-Sep-13,22.12,22.12,21.42,21.57,77337
12-Sep-13,22.10,22.20,21.86,22.02,38838
11-Sep-13,21.99,22.27,21.74,22.04,23601
10-Sep-13,21.90,22.22,21.65,22.09,68971
9-Sep-13,22.00,22.24,21.58,21.80,91131
6-Sep-13,22.12,22.19,21.86,21.88,38531
5-Sep-13,21.92,22.22,21.84,21.99,15883
4-Sep-13,22.09,22.16,21.63,21.97,46439
3-Sep-13,22.09,22.27,21.69,21.98,22213
30-Aug-13,22.63,22.63,21.57,21.87,57109
29-Aug-13,22.86,23.00,22.55,22.68,29943
28-Aug-13,22.62,23.00,22.50,22.83,37527
27-Aug-13,22.92,23.09,22.25,22.55,36257
26-Aug-13,22.99,23.48,22.75,23.17,61348
23-Aug-13,22.62,23.35,22.52,23.07,30546
22-Aug-13,23.09,23.09,22.04,22.65,17579
21-Aug-13,22.48,23.27,22.48,23.01,39328
20-Aug-13,22.01,22.64,21.91,22.60,37395
19-Aug-13,21.79,22.50,21.29,22.06,39186
16-Aug-13,22.75,22.75,21.89,22.05,35897
15-Aug-13,23.63,24.03,22.80,22.88,34348
14-Aug-13,23.85,23.90,23.58,23.82,34802
13-Aug-13,23.42,23.73,23.11,23.71,96196
12-Aug-13,23.18,23.40,23.01,23.34,24896
9-Aug-13,23.70,23.70,23.11,23.33,26581
8-Aug-13,23.81,23.97,23.41,23.70,41797
7-Aug-13,24.09,24.36,24.00,24.03,63839
6-Aug-13,23.95,24.28,23.73,24.20,95765
5-Aug-13,23.92,24.01,23.36,23.96,190996
2-Aug-13,23.16,23.73,23.16,23.64,85202
1-Aug-13,22.10,23.65,22.05,23.28,273305
31-Jul-13,22.03,22.23,21.93,21.96,101645
30-Jul-13,22.25,22.25,21.71,22.06,101640
29-Jul-13,22.55,22.70,21.83,22.15,100850
26-Jul-13,22.31,22.86,22.31,22.48,138942
25-Jul-13,22.12,22.45,21.17,22.45,137960
24-Jul-13,22.32,22.51,22.11,22.21,107752
23-Jul-13,22.51,22.60,21.98,22.33,249578
22-Jul-13,22.57,22.70,22.38,22.50,97927
19-Jul-13,22.79,23.21,22.76,22.80,101884
18-Jul-13,23.65,24.29,22.78,22.84,135182
17-Jul-13,23.96,23.96,23.21,23.47,114871
16-Jul-13,24.07,24.07,23.54,23.80,209801
15-Jul-13,23.60,24.14,23.36,24.00,112762
12-Jul-13,24.30,24.33,22.91,23.60,179179
11-Jul-13,24.23,24.49,23.96,24.39,82851
10-Jul-13,23.79,24.20,23.73,23.94,158685
9-Jul-13,23.60,24.15,22.89,23.86,204813
8-Jul-13,23.26,23.58,23.04,23.51,58754
5-Jul-13,33.51,33.51,22.63,23.13,46777
3-Jul-13,22.54,23.09,22.36,22.86,76222
2-Jul-13,22.46,22.89,21.84,22.58,92138
1-Jul-13,22.29,22.70,21.48,22.41,133083
28-Jun-13,21.78,22.58,21.27,22.14,3027352
27-Jun-13,21.37,22.79,21.13,21.74,284412
26-Jun-13,21.60,22.01,20.76,21.39,255314
25-Jun-13,21.44,21.66,21.21,21.58,177400
24-Jun-13,22.22,22.60,20.63,21.39,218190
21-Jun-13,23.25,23.60,22.17,22.27,772374
20-Jun-13,23.27,23.67,21.50,23.38,339536
19-Jun-13,23.40,23.60,23.14,23.51,304729
18-Jun-13,23.47,23.55,22.97,23.52,494188
17-Jun-13,23.50,24.00,23.05,23.33,135600
14-Jun-13,23.46,24.15,23.31,23.50,73945
13-Jun-13,23.37,23.50,22.90,23.49,65097
12-Jun-13,23.60,24.11,23.07,23.50,190480
11-Jun-13,23.09,23.57,22.86,23.51,86513
10-Jun-13,22.62,23.58,22.42,23.53,182408
7-Jun-13,22.30,22.90,21.89,22.85,45003
6-Jun-13,21.02,22.19,20.80,22.19,72642
5-Jun-13,21.96,22.10,21.21,21.33,106906
4-Jun-13,22.01,22.24,21.72,22.16,72550
3-Jun-13,22.75,22.94,21.74,22.02,204657
31-May-13,22.64,22.97,22.64,22.90,130459
30-May-13,23.29,23.29,22.64,22.70,80247
29-May-13,22.78,23.10,22.71,23.00,60678
28-May-13,23.26,23.26,22.68,23.02,62139
24-May-13,22.90,23.15,22.79,23.06,31949
23-May-13,22.60,23.10,22.60,23.04,132955
22-May-13,22.69,23.48,22.64,22.92,222861
21-May-13,23.00,23.00,22.57,22.70,69032
20-May-13,22.64,22.80,22.39,22.65,92332
17-May-13,22.55,22.79,22.40,22.60,74747
16-May-13,22.28,22.74,22.15,22.53,179559
15-May-13,22.07,22.25,21.83,22.20,104849
14-May-13,21.90,22.32,21.70,22.02,119345
13-May-13,22.35,22.46,21.70,21.83,68712
10-May-13,22.25,22.50,22.01,22.29,54546
9-May-13,22.24,22.40,22.17,22.20,48217
8-May-13,22.25,22.44,22.11,22.27,75032
7-May-13,22.10,22.50,22.01,22.25,78282
6-May-13,21.89,22.60,21.21,22.10,197738
3-May-13,21.64,21.92,21.00,21.69,232594
2-May-13,22.23,22.30,21.35,21.38,233245
1-May-13,21.85,23.74,21.58,21.80,871754
30-Apr-13,20.82,21.00,20.75,21.00,57640
29-Apr-13,20.54,20.93,20.54,20.82,177261
26-Apr-13,21.00,21.00,20.51,20.75,78375
25-Apr-13,20.72,20.96,20.23,20.96,170154
24-Apr-13,21.05,21.05,20.57,20.80,104954
23-Apr-13,20.63,21.06,20.60,21.00,175588
22-Apr-13,20.33,20.69,20.30,20.58,375004
19-Apr-13,20.44,20.75,20.23,20.46,816903
18-Apr-13,20.25,20.98,20.16,20.71,114391
17-Apr-13,20.74,20.99,20.14,20.74,199175
16-Apr-13,20.15,21.09,20.15,20.86,91335
15-Apr-13,20.90,20.90,20.36,20.43,139743
12-Apr-13,20.73,20.98,20.05,20.98,207780
11-Apr-13,21.10,21.30,20.70,20.93,177997
10-Apr-13,20.41,21.42,20.41,21.22,512641
9-Apr-13,20.01,20.76,20.01,20.76,309126
8-Apr-13,20.12,20.48,20.00,20.33,407829
5-Apr-13,19.70,20.35,19.69,20.30,520951
4-Apr-13,19.50,19.85,19.45,19.85,527474
3-Apr-13,19.46,19.56,19.36,19.55,307736
2-Apr-13,19.18,19.52,19.16,19.52,400139
1-Apr-13,19.08,19.25,19.08,19.21,168082
28-Mar-13,18.90,19.25,18.86,19.19,331061
27-Mar-13,18.91,19.03,18.75,19.00,341554
26-Mar-13,18.78,19.10,18.60,19.02,637803
25-Mar-13,19.00,19.15,18.38,18.90,1244226
22-Mar-13,19.00,19.34,18.60,18.86,10274896
